

This is your End of Day Audit from IRTHNet for items sent
since 3/8/2013 12:05 AM (Central Standard Time)

Seq   Ticket                    Registration Code                  
-------------------------------------------------------------------
1     13051609                  QLNWA16 (UULC)                     
2     13051607                  QLNWA16 (UULC)                     
3     13051608                  QLNWA16 (UULC)                     
4     13051604                  QLNWA16 (UULC)                     
5     13051605                  QLNWA16 (UULC)                     
6     13051606                  QLNWA16 (UULC)                     
7     13051598                  QLNWA16 (UULC)                     
8     13051600                  QLNWA16 (UULC)                     
9     13051601                  QLNWA16 (UULC)                     
10    13051603                  QLNWA16 (UULC)                     
11    13051611                  QLNWA24 (UULC)                     
12    13051620                  QLNWA06 (WOC)                      
13    13051629                  QLNWA32 (IEUCC)                    
14    13051633                  QLNWA17 (UULC)                     
15    13051623                  QLNWA05 (UULC)                     
16    13051612                  QLNWA08 (WOC)                      
17    13051627                  QLNWA16 (UULC)                     
18    13051631                  QLNWA16 (UULC)                     
19    13051622                  QLNWA16 (UULC)                     
20    13051626                  QLNWA16 (UULC)                     
21    13051625                  QLNWA16 (UULC)                     
22    13051619                  QLNWA24 (UULC)                     
23    13051621                  QLNWA24 (UULC)                     
24    13051624                  QLNWA32 (IEUCC)                    
25    13051632                  QLNWA24 (UULC)                     
26    13051636                  QLNWA24 (UULC)                     
27    13051655                  QLNWA16 (UULC)                     
28    13051654                  QLNWA24 (UULC)                     
29    13051659                  QLNWA16 (UULC)                     
30    13051657                  QLNWA24 (UULC)                     
31    13051665                  QLNWA16 (UULC)                     
32    13051672                  QLNWA06 (WOC)                      
33    13051673                  QLNWA18 (UULC)                     
34    13051674                  QLNWA16 (UULC)                     
35    13051696                  QLNWA16 (UULC)                     
36    13051737                  QLNWA16 (UULC)                     
37    13051742                  QLNWA24 (UULC)                     
38    13051748                  QLNWA03 (WOC)                      
39    13051702                  QLNWA06 (WOC)                      
40    13051678                  QLNWA06 (WOC)                      
41    13051680                  QLNWA06 (WOC)                      
42    13051703                  QLNWA06 (WOC)                      
43    13051642                  QLNWA08 (WOC)                      
44    13051721                  QLNWA08 (WOC)                      
45    13051641                  QLNWA11 (UULC)                     
46    13051658                  QLNWA11 (UULC)                     
47    13051726                  QLNWA14 (WOC)                      
48    13051716                  QLNWA18 (UULC)                     
49    13051691                  QLNWA03 (WOC)                      
50    13051681                  QLNWA03 (WOC)                      
51    13051708                  QLNWA03 (WOC)                      
52    13051705                  QLNWA03 (WOC)                      
53    13051745                  QLNWA03 (WOC)                      
54    13051751                  QLNWA03 (WOC)                      
55    13051660                  QLNWA32 (IEUCC)                    
56    13051664                  QLNWA32 (IEUCC)                    
57    13051663                  QLNWA32 (IEUCC)                    
58    13051770                  QLNWA24 (UULC)                     
59    13051776                  QLNWA18 (UULC)                     
60    13051819                  QLNWA16 (UULC)                     
61    13051800                  QLNWA20 (UULC)                     
62    13051827                  QLNWA06 (WOC)                      
63    13051823                  QLNWA16 (UULC)                     
64    13051840                  QLNWA24 (UULC)                     
65    13051767                  QLNWA06 (WOC)                      
66    13051758                  QLNWA14 (WOC)                      
67    13051738                  QLNWA14 (WOC)                      
68    13051762                  QLNWA14 (WOC)                      
69    13051743                  QLNWA15 (UULC)                     
70    13051675                  QLNWA16 (UULC)                     
71    13051799                  QLNWA16 (UULC)                     
72    13051763                  QLNWA16 (UULC)                     
73    13051746                  QLNWA16 (UULC)                     
74    13051706                  QLNWA16 (UULC)                     
75    13051647                  QLNWA16 (UULC)                     
76    13051646                  QLNWA16 (UULC)                     
77    13051643                  QLNWA16 (UULC)                     
78    13051839                  QLNWA16 (UULC)                     
79    13051733                  QLNWA16 (UULC)                     
80    13051774                  QLNWA16 (UULC)                     
81    13051677                  QLNWA16 (UULC)                     
82    13051727                  QLNWA16 (UULC)                     
83    13051732                  QLNWA16 (UULC)                     
84    13051653                  QLNWA16 (UULC)                     
85    13051640                  QLNWA16 (UULC)                     
86    13051803                  QLNWA16 (UULC)                     
87    13051812                  QLNWA16 (UULC)                     
88    13051845                  QLNWA16 (UULC)                     
89    13051780                  QLNWA18 (UULC)                     
90    13051687                  QLNWA20 (UULC)                     
91    13051692                  QLNWA22 (UULC)                     
92    13051634                  QLNWA22 (UULC)                     
93    13051792                  QLNWA22 (UULC)                     
94    13051777                  QLNWA22 (UULC)                     
95    13051750                  QLNWA33 (UULC)                     
96    13051649                  QLNWA24 (UULC)                     
97    13051735                  QLNWA24 (UULC)                     
98    13051837                  QLNWA24 (UULC)                     
99    13051809                  QLNWA24 (UULC)                     
100   13051813                  QLNWA24 (UULC)                     
101   13051825                  QLNWA24 (UULC)                     
102   13051833                  QLNWA24 (UULC)                     
103   13051804                  QLNWA24 (UULC)                     
104   13051798                  QLNWA24 (UULC)                     
105   13051811                  QLNWA24 (UULC)                     
106   13051816                  QLNWA24 (UULC)                     
107   13051820                  QLNWA24 (UULC)                     
108   13051844                  QLNWA24 (UULC)                     
109   13051808                  QLNWA24 (UULC)                     
110   13051628                  QLNWA24 (UULC)                     
111   13051638                  QLNWA24 (UULC)                     
112   13051644                  QLNWA24 (UULC)                     
113   13051645                  QLNWA24 (UULC)                     
114   13051685                  QLNWA24 (UULC)                     
115   13051688                  QLNWA24 (UULC)                     
116   13051690                  QLNWA24 (UULC)                     
117   13051785                  QLNWA24 (UULC)                     
118   13051667                  QLNWA24 (UULC)                     
119   13051700                  QLNWA24 (UULC)                     
120   13051710                  QLNWA24 (UULC)                     
121   13051670                  QLNWA24 (UULC)                     
122   13051741                  QLNWA24 (UULC)                     
123   13051831                  QLNWA34 (IEUCC)                    
124   13051711                  QLNWA34 (IEUCC)                    
125   13051788                  QLNWA32 (IEUCC)                    
126   13051786                  QLNWA32 (IEUCC)                    
127   13051676                  QLNWA32 (IEUCC)                    
128   13051722                  QLNWA32 (IEUCC)                    
129   13051814                  QLNWA32 (IEUCC)                    
130   13051835                  QLNWA32 (IEUCC)                    
131   13051650                  QLNWA32 (IEUCC)                    
132   13051662                  QLNWA32 (IEUCC)                    
133   13051666                  QLNWA32 (IEUCC)                    
134   13051699                  QLNWA32 (IEUCC)                    
135   13051683                  QLNWA32 (IEUCC)                    
136   13051728                  QLNWA32 (IEUCC)                    
137   13051779                  QLNWA32 (IEUCC)                    
138   13051769                  QLNWA31 (UULC)                     
139   13051689                  QLNWA31 (UULC)                     
140   13051697                  QLNWA31 (UULC)                     
141   13051793                  QLNWA31 (UULC)                     
142   13051791                  QLNWA31 (UULC)                     
143   13051669                  QLNWA28 (WOC)                      
144   13051790                  QLNWA30 (UULC)                     
145   13051847                  QLNWA13 (UULC)                     
146   13051848                  QLNWA16 (UULC)                     
147   13051842                  QLNWA16 (UULC)                     
148   13051843                  QLNWA16 (UULC)                     
149   13051822                  QLNWA24 (UULC)                     
150   13051818                  QLNWA24 (UULC)                     
151   13051821                  QLNWA24 (UULC)                     
152   13051850                  QLNWA24 (UULC)                     
153   13051838                  QLNWA32 (IEUCC)                    
154   13051778                  QLNWA27 (IEUCC)                    
155   13051846                  QLNWA31 (UULC)                     
156   13051851                  QLNWA08 (WOC)                      
157   13051863                  QLNWA08 (WOC)                      
158   13051866                  QLNWA08 (WOC)                      
159   13051865                  QLNWA13 (UULC)                     
160   13051862                  QLNWA13 (UULC)                     
161   13051852                  QLNWA13 (UULC)                     
162   13051858                  QLNWA13 (UULC)                     
163   13051782                  QLNWA18 (UULC)                     
164   13051879                  QLNWA20 (UULC)                     
165   13051784                  QLNWA22 (UULC)                     
166   13051869                  QLNWA06 (WOC)                      
167   13051882                  QLNWA16 (UULC)                     
168   13051807                  QLNWA24 (UULC)                     
169   13051855                  QLNWA24 (UULC)                     
170   13051860                  QLNWA30 (UULC)                     
171   13051864                  QLNWA30 (UULC)                     
172   13051877                  QLNWA30 (UULC)                     
173   13051874                  QLNWA28 (WOC)                      
174   13050487                  QLNWA06 (WOC)                      
175   13051875                  QLNWA05 (UULC)                     
176   13051894                  QLNWA06 (WOC)                      
177   13051832                  QLNWA06 (WOC)                      
178   13051887                  QLNWA06 (WOC)                      
179   13051895                  QLNWA06 (WOC)                      
180   13051905                  QLNWA06 (WOC)                      
181   13051873                  QLNWA16 (UULC)                     
182   13051829                  QLNWA16 (UULC)                     
183   13051867                  QLNWA16 (UULC)                     
184   13051884                  QLNWA20 (UULC)                     
185   13051876                  QLNWA24 (UULC)                     
186   13051836                  QLNWA24 (UULC)                     
187   13051861                  QLNWA24 (UULC)                     
188   13051901                  QLNWA31 (UULC)                     
189   13051883                  QLNWA31 (UULC)                     
190   13051881                  QLNWA30 (UULC)                     
191   13051889                  QLNWA30 (UULC)                     
192   13051898                  QLNWA30 (UULC)                     
193   13051922                  QLNWA16 (UULC)                     
194   13051920                  QLNWA16 (UULC)                     
195   13051915                  QLNWA16 (UULC)                     
196   13051927                  QLNWA16 (UULC)                     
197   13051931                  QLNWA16 (UULC)                     
198   13051923                  QLNWA16 (UULC)                     
199   13051938                  QLNWA16 (UULC)                     
200   13051954                  QLNWA05 (UULC)                     
201   13051912                  QLNWA06 (WOC)                      
202   13051902                  QLNWA06 (WOC)                      
203   13051893                  QLNWA13 (UULC)                     
204   13051924                  QLNWA13 (UULC)                     
205   13051997                  QLNWA32 (IEUCC)                    
206   13052017                  QLNWA32 (IEUCC)                    
207   13052066                  QLNWA16 (UULC)                     
208   13052068                  QLNWA16 (UULC)                     
209   13052070                  QLNWA11 (UULC)                     
210   13052077                  QLNWA24 (UULC)                     
211   13052039                  QLNWA03 (WOC)                      
212   13052049                  QLNWA03 (WOC)                      
213   13051968                  QLNWA05 (UULC)                     
214   13051979                  QLNWA05 (UULC)                     
215   13052030                  QLNWA06 (WOC)                      
216   13052033                  QLNWA16 (UULC)                     
217   13051958                  QLNWA16 (UULC)                     
218   13052053                  QLNWA16 (UULC)                     
219   13051966                  QLNWA16 (UULC)                     
220   13051982                  QLNWA16 (UULC)                     
221   13051998                  QLNWA16 (UULC)                     
222   13051989                  QLNWA16 (UULC)                     
223   13052011                  QLNWA16 (UULC)                     
224   13051834                  QLNWA16 (UULC)                     
225   13051841                  QLNWA16 (UULC)                     
226   13051933                  QLNWA16 (UULC)                     
227   13051932                  QLNWA16 (UULC)                     
228   13051937                  QLNWA16 (UULC)                     
229   13051949                  QLNWA16 (UULC)                     
230   13052035                  QLNWA16 (UULC)                     
231   13051995                  QLNWA16 (UULC)                     
232   13052042                  QLNWA16 (UULC)                     
233   13052022                  QLNWA16 (UULC)                     
234   13052019                  QLNWA16 (UULC)                     
235   13052006                  QLNWA16 (UULC)                     
236   13052036                  QLNWA16 (UULC)                     
237   13052050                  QLNWA16 (UULC)                     
238   13051926                  QLNWA18 (UULC)                     
239   13052029                  QLNWA18 (UULC)                     
240   13052008                  QLNWA20 (UULC)                     
241   13052045                  QLNWA20 (UULC)                     
242   13051978                  QLNWA23 (UULC)                     
243   13051856                  QLNWA23 (UULC)                     
244   13051921                  QLNWA24 (UULC)                     
245   13051975                  QLNWA24 (UULC)                     
246   13051972                  QLNWA24 (UULC)                     
247   13051952                  QLNWA24 (UULC)                     
248   13051911                  QLNWA24 (UULC)                     
249   13051943                  QLNWA24 (UULC)                     
250   13051909                  QLNWA24 (UULC)                     
251   13052034                  QLNWA24 (UULC)                     
252   13052007                  QLNWA24 (UULC)                     
253   13052047                  QLNWA24 (UULC)                     
254   13051981                  QLNWA24 (UULC)                     
255   13051990                  QLNWA24 (UULC)                     
256   13051976                  QLNWA24 (UULC)                     
257   13051993                  QLNWA24 (UULC)                     
258   13052018                  QLNWA24 (UULC)                     
259   13051977                  QLNWA26 (UULC)                     
260   13051956                  QLNWA26 (UULC)                     
261   13051950                  QLNWA26 (UULC)                     
262   13051936                  QLNWA26 (UULC)                     
263   13051946                  QLNWA26 (UULC)                     
264   13052000                  QLNWA26 (UULC)                     
265   13051830                  QLNWA32 (IEUCC)                    
266   13052052                  QLNWA32 (IEUCC)                    
267   13051857                  QLNWA32 (IEUCC)                    
268   13051897                  QLNWA32 (IEUCC)                    
269   13051964                  QLNWA32 (IEUCC)                    
270   13051984                  QLNWA32 (IEUCC)                    
271   13051928                  QLNWA31 (UULC)                     
272   13051944                  QLNWA31 (UULC)                     
273   13051980                  QLNWA31 (UULC)                     
274   13051974                  QLNWA28 (WOC)                      
275   13051960                  QLNWA28 (WOC)                      
276   13052013                  QLNWA30 (UULC)                     
277   13051934                  QLNWA30 (UULC)                     
278   13052119                  QLNWA06 (WOC)                      
279   13052094                  QLNWA06 (WOC)                      
280   13052100                  QLNWA06 (WOC)                      
281   13052092                  QLNWA12 (WOC)                      
282   13052107                  QLNWA14 (WOC)                      
283   13052176                  QLNWA30 (UULC)                     
284   13052185                  QLNWA24 (UULC)                     
285   13052077                  QLNWA24 (UULC)                     
286   13052187                  QLNWA16 (UULC)                     
287   13052128                  QLNWA03 (WOC)                      
288   13052182                  QLNWA03 (WOC)                      
289   13052059                  QLNWA05 (UULC)                     
290   13052183                  QLNWA06 (WOC)                      
291   13052159                  QLNWA06 (WOC)                      
292   13052136                  QLNWA17 (UULC)                     
293   13052127                  QLNWA16 (UULC)                     
294   13052130                  QLNWA16 (UULC)                     
295   13052149                  QLNWA16 (UULC)                     
296   13052151                  QLNWA16 (UULC)                     
297   13052069                  QLNWA16 (UULC)                     
298   13052072                  QLNWA18 (UULC)                     
299   13052076                  QLNWA20 (UULC)                     
300   13052148                  QLNWA20 (UULC)                     
301   13052146                  QLNWA24 (UULC)                     
302   13052170                  QLNWA24 (UULC)                     
303   13052164                  QLNWA24 (UULC)                     
304   13052102                  QLNWA24 (UULC)                     
305   13052129                  QLNWA24 (UULC)                     
306   13052133                  QLNWA24 (UULC)                     
307   13052123                  QLNWA24 (UULC)                     
308   13052048                  QLNWA24 (UULC)                     
309   13052121                  QLNWA24 (UULC)                     
310   13052117                  QLNWA24 (UULC)                     
311   13052063                  QLNWA26 (UULC)                     
312   13052060                  QLNWA26 (UULC)                     
313   13052174                  QLNWA34 (IEUCC)                    
314   13052144                  QLNWA34 (IEUCC)                    
315   13052192                  QLNWA32 (IEUCC)                    
316   13052193                  QLNWA32 (IEUCC)                    
317   13052191                  QLNWA32 (IEUCC)                    
318   13052081                  QLNWA32 (IEUCC)                    
319   13052160                  QLNWA32 (IEUCC)                    
320   13052147                  QLNWA32 (IEUCC)                    
321   13052054                  QLNWA32 (IEUCC)                    
322   13052064                  QLNWA32 (IEUCC)                    
323   13052179                  QLNWA32 (IEUCC)                    
324   13052184                  QLNWA32 (IEUCC)                    
325   13052144                  QLNWA32 (IEUCC)                    
326   13052103                  QLNWA32 (IEUCC)                    
327   13052171                  QLNWA27 (IEUCC)                    
328   13052131                  QLNWA27 (IEUCC)                    
329   13052112                  QLNWA31 (UULC)                     
330   13052097                  QLNWA31 (UULC)                     
331   13052071                  QLNWA31 (UULC)                     
332   13052057                  QLNWA31 (UULC)                     
333   13052120                  QLNWA31 (UULC)                     
334   13052110                  QLNWA28 (WOC)                      
335   13052079                  QLNWA28 (WOC)                      
336   13052106                  QLNWA30 (UULC)                     
337   13052083                  QLNWA30 (UULC)                     
338   13052180                  QLNWA30 (UULC)                     
339   13052186                  QLNWA30 (UULC)                     
340   13052082                  QLNWA16 (UULC)                     
341   13052080                  QLNWA16 (UULC)                     
342   13052086                  QLNWA16 (UULC)                     
343   13052095                  QLNWA16 (UULC)                     
344   13052101                  QLNWA16 (UULC)                     
345   13052116                  QLNWA16 (UULC)                     
346   13052154                  QLNWA16 (UULC)                     
347   13052139                  QLNWA16 (UULC)                     
348   13052141                  QLNWA16 (UULC)                     
349   13052137                  QLNWA16 (UULC)                     
350   13052162                  QLNWA16 (UULC)                     
351   13052157                  QLNWA16 (UULC)                     
352   13052161                  QLNWA16 (UULC)                     
353   13052167                  QLNWA16 (UULC)                     
354   13052168                  QLNWA16 (UULC)                     
355   13052188                  QLNWA16 (UULC)                     
356   13052190                  QLNWA16 (UULC)                     
357   13052065                  QLNWA16 (UULC)                     
358   13052073                  QLNWA16 (UULC)                     
359   13052195                  QLNWA16 (UULC)                     
360   13052198                  QLNWA16 (UULC)                     
361   13052189                  QLNWA31 (UULC)                     
362   13052235                  QLNWA06 (WOC)                      
363   13052212                  QLNWA16 (UULC)                     
364   13052217                  QLNWA16 (UULC)                     
365   13052208                  QLNWA16 (UULC)                     
366   13052204                  QLNWA16 (UULC)                     
367   13052210                  QLNWA16 (UULC)                     
368   13052200                  QLNWA16 (UULC)                     
369   13052205                  QLNWA16 (UULC)                     
370   13052197                  QLNWA24 (UULC)                     
371   13052211                  QLNWA24 (UULC)                     
372   13052223                  QLNWA24 (UULC)                     
373   13052216                  QLNWA24 (UULC)                     
374   13052219                  QLNWA32 (IEUCC)                    
375   13052203                  QLNWA32 (IEUCC)                    
376   13052215                  QLNWA32 (IEUCC)                    
377   13052202                  QLNWA31 (UULC)                     
378   13052314                  QLNWA03 (WOC)                      
379   13052237                  QLNWA06 (WOC)                      
380   13052276                  QLNWA06 (WOC)                      
381   13052281                  QLNWA06 (WOC)                      
382   13052315                  QLNWA06 (WOC)                      
383   13052330                  QLNWA06 (WOC)                      
384   13052289                  QLNWA08 (WOC)                      
385   13052309                  QLNWA11 (UULC)                     
386   13052385                  QLNWA06 (WOC)                      
387   13052277                  QLNWA24 (UULC)                     
388   13052269                  QLNWA30 (UULC)                     
389   13052260                  QLNWA03 (WOC)                      
390   13052275                  QLNWA31 (UULC)                     
391   13052278                  QLNWA16 (UULC)                     
392   13052421                  QLNWA16 (UULC)                     
393   13052450                  QLNWA32 (IEUCC)                    
394   13052454                  QLNWA27 (IEUCC)                    
395   13052332                  QLNWA05 (UULC)                     
396   13052406                  QLNWA05 (UULC)                     
397   13052253                  QLNWA06 (WOC)                      
398   13052372                  QLNWA06 (WOC)                      
399   13052370                  QLNWA06 (WOC)                      
400   13052326                  QLNWA06 (WOC)                      
401   13052356                  QLNWA06 (WOC)                      
402   13052340                  QLNWA06 (WOC)                      
403   13052364                  QLNWA06 (WOC)                      
404   13052367                  QLNWA06 (WOC)                      
405   13052360                  QLNWA06 (WOC)                      
406   13052365                  QLNWA06 (WOC)                      
407   13052345                  QLNWA06 (WOC)                      
408   13052383                  QLNWA06 (WOC)                      
409   13052390                  QLNWA06 (WOC)                      
410   13052443                  QLNWA11 (UULC)                     
411   13052241                  QLNWA11 (UULC)                     
412   13052412                  QLNWA11 (UULC)                     
413   13052371                  QLNWA11 (UULC)                     
414   13052227                  QLNWA03 (WOC)                      
415   13052194                  QLNWA30 (UULC)                     
416   13052396                  QLNWA30 (UULC)                     
417   13052482                  QLNWA16 (UULC)                     
418   13052478                  QLNWA20 (UULC)                     
419   13051931                  QLNWA16 (UULC)                     
420   13052517                  QLNWA16 (UULC)                     
421   13052513                  QLNWA16 (UULC)                     
422   13052530                  QLNWA31 (UULC)                     
423   13052264                  QLNWA16 (UULC)                     
424   13052254                  QLNWA16 (UULC)                     
425   13052229                  QLNWA16 (UULC)                     
426   13052244                  QLNWA16 (UULC)                     
427   13052239                  QLNWA24 (UULC)                     
428   13052240                  QLNWA24 (UULC)                     
429   13052243                  QLNWA24 (UULC)                     
430   13052246                  QLNWA24 (UULC)                     
431   13052250                  QLNWA24 (UULC)                     
432   13052266                  QLNWA24 (UULC)                     
433   13052251                  QLNWA32 (IEUCC)                    
434   13052262                  QLNWA32 (IEUCC)                    
435   13052265                  QLNWA31 (UULC)                     
436   13052258                  QLNWA31 (UULC)                     
437   13052273                  QLNWA16 (UULC)                     
438   13052284                  QLNWA16 (UULC)                     
439   13052293                  QLNWA16 (UULC)                     
440   13052296                  QLNWA16 (UULC)                     
441   13052299                  QLNWA16 (UULC)                     
442   13052298                  QLNWA16 (UULC)                     
443   13052307                  QLNWA16 (UULC)                     
444   13052291                  QLNWA16 (UULC)                     
445   13052301                  QLNWA16 (UULC)                     
446   13052303                  QLNWA16 (UULC)                     
447   13052325                  QLNWA24 (UULC)                     
448   13052329                  QLNWA24 (UULC)                     
449   13052285                  QLNWA24 (UULC)                     
450   13052290                  QLNWA24 (UULC)                     
451   13052283                  QLNWA24 (UULC)                     
452   13052297                  QLNWA24 (UULC)                     
453   13052313                  QLNWA34 (IEUCC)                    
454   13052288                  QLNWA34 (IEUCC)                    
455   13052317                  QLNWA34 (IEUCC)                    
456   13052321                  QLNWA34 (IEUCC)                    
457   13052295                  QLNWA32 (IEUCC)                    
458   13052328                  QLNWA32 (IEUCC)                    
459   13052282                  QLNWA31 (UULC)                     
460   13052305                  QLNWA16 (UULC)                     
461   13052308                  QLNWA16 (UULC)                     
462   13052327                  QLNWA16 (UULC)                     
463   13052341                  QLNWA16 (UULC)                     
464   13052316                  QLNWA16 (UULC)                     
465   13052346                  QLNWA24 (UULC)                     
466   13052348                  QLNWA24 (UULC)                     
467   13052377                  QLNWA34 (IEUCC)                    
468   13052334                  QLNWA34 (IEUCC)                    
469   13052351                  QLNWA32 (IEUCC)                    
470   13052355                  QLNWA32 (IEUCC)                    
471   13052358                  QLNWA32 (IEUCC)                    
472   13052588                  QLNWA06 (WOC)                      
473   13052397                  QLNWA16 (UULC)                     
474   13052380                  QLNWA34 (IEUCC)                    
475   13052384                  QLNWA16 (UULC)                     
476   13052387                  QLNWA18 (UULC)                     
477   13052368                  QLNWA32 (IEUCC)                    
478   13052376                  QLNWA32 (IEUCC)                    
479   13052379                  QLNWA32 (IEUCC)                    
480   13052395                  QLNWA32 (IEUCC)                    
481   13052381                  QLNWA27 (IEUCC)                    
482   13052378                  QLNWA31 (UULC)                     
483   13052394                  QLNWA14 (WOC)                      
484   13052393                  QLNWA16 (UULC)                     
485   13052391                  QLNWA24 (UULC)                     
486   13052404                  QLNWA24 (UULC)                     
487   13052407                  QLNWA34 (IEUCC)                    
488   13052407                  QLNWA32 (IEUCC)                    
489   13052400                  QLNWA32 (IEUCC)                    
490   13052405                  QLNWA16 (UULC)                     
491   13052419                  QLNWA16 (UULC)                     
492   13052402                  QLNWA24 (UULC)                     
493   13052417                  QLNWA32 (IEUCC)                    
494   13052320                  QLNWA16 (UULC)                     
495   13052418                  QLNWA18 (UULC)                     
496   13052424                  QLNWA32 (IEUCC)                    
497   13052426                  QLNWA32 (IEUCC)                    
498   13052415                  QLNWA28 (WOC)                      
499   13052437                  QLNWA16 (UULC)                     
500   13052429                  QLNWA16 (UULC)                     
501   13052425                  QLNWA16 (UULC)                     
502   13052374                  QLNWA24 (UULC)                     
503   13052433                  QLNWA32 (IEUCC)                    
504   13052436                  QLNWA32 (IEUCC)                    
505   13052432                  QLNWA28 (WOC)                      
506   13052444                  QLNWA34 (IEUCC)                    
507   13052444                  QLNWA32 (IEUCC)                    
508   13052435                  QLNWA16 (UULC)                     
509   13052449                  QLNWA16 (UULC)                     
510   13052452                  QLNWA24 (UULC)                     
511   13052446                  QLNWA24 (UULC)                     
512   13052439                  QLNWA24 (UULC)                     
513   13052490                  QLNWA16 (UULC)                     
514   13052458                  QLNWA16 (UULC)                     
515   13052463                  QLNWA16 (UULC)                     
516   13052467                  QLNWA16 (UULC)                     
517   13052461                  QLNWA24 (UULC)                     
518   13052455                  QLNWA17 (UULC)                     
519   13052448                  QLNWA16 (UULC)                     
520   13052488                  QLNWA16 (UULC)                     
521   13052472                  QLNWA16 (UULC)                     
522   13052466                  QLNWA05 (UULC)                     
523   13052462                  QLNWA05 (UULC)                     
524   13052492                  QLNWA16 (UULC)                     
525   13052475                  QLNWA16 (UULC)                     
526   13052459                  QLNWA16 (UULC)                     
527   13052499                  QLNWA16 (UULC)                     
528   13052481                  QLNWA18 (UULC)                     
529   13052468                  QLNWA05 (UULC)                     
530   13052470                  QLNWA05 (UULC)                     
531   13052495                  QLNWA16 (UULC)                     
532   13052469                  QLNWA16 (UULC)                     
533   13052510                  QLNWA16 (UULC)                     
534   13052471                  QLNWA16 (UULC)                     
535   13052473                  QLNWA18 (UULC)                     
536   13052484                  QLNWA24 (UULC)                     
537   13052520                  QLNWA03 (WOC)                      
538   13052485                  QLNWA16 (UULC)                     
539   13052514                  QLNWA16 (UULC)                     
540   13052480                  QLNWA34 (IEUCC)                    
541   13052480                  QLNWA32 (IEUCC)                    
542   13052533                  QLNWA03 (WOC)                      
543   13052497                  QLNWA05 (UULC)                     
544   13052502                  QLNWA15 (UULC)                     
545   13052506                  QLNWA06 (WOC)                      
546   13052509                  QLNWA06 (WOC)                      
547   13052535                  QLNWA16 (UULC)                     
548   13052527                  QLNWA16 (UULC)                     
549   13052531                  QLNWA16 (UULC)                     
550   13052486                  QLNWA16 (UULC)                     
551   13052445                  QLNWA16 (UULC)                     
552   13052549                  QLNWA03 (WOC)                      
553   13052523                  QLNWA06 (WOC)                      
554   13052521                  QLNWA16 (UULC)                     
555   13052525                  QLNWA16 (UULC)                     
556   13052511                  QLNWA16 (UULC)                     
557   13052544                  QLNWA24 (UULC)                     
558   13052518                  QLNWA24 (UULC)                     
559   13052541                  QLNWA24 (UULC)                     
560   13052524                  QLNWA24 (UULC)                     
561   13052508                  QLNWA26 (UULC)                     
562   13052528                  QLNWA16 (UULC)                     
563   13052553                  QLNWA16 (UULC)                     
564   13052542                  QLNWA22 (UULC)                     
565   13052532                  QLNWA24 (UULC)                     
566   13052555                  QLNWA24 (UULC)                     
567   13052540                  QLNWA32 (IEUCC)                    
568   13052575                  QLNWA06 (WOC)                      
569   13052557                  QLNWA08 (WOC)                      
570   13052579                  QLNWA16 (UULC)                     
571   13052576                  QLNWA16 (UULC)                     
572   13052457                  QLNWA16 (UULC)                     
573   13052460                  QLNWA16 (UULC)                     
574   13052451                  QLNWA16 (UULC)                     
575   13052465                  QLNWA16 (UULC)                     
576   13052474                  QLNWA16 (UULC)                     
577   13052573                  QLNWA18 (UULC)                     
578   13052658                  QLNWA16 (UULC)                     
579   13052564                  QLNWA16 (UULC)                     
580   13052476                  QLNWA16 (UULC)                     
581   13052479                  QLNWA16 (UULC)                     
582   13052483                  QLNWA16 (UULC)                     
583   13052489                  QLNWA16 (UULC)                     
584   13052491                  QLNWA16 (UULC)                     
585   13052494                  QLNWA16 (UULC)                     
586   13052574                  QLNWA18 (UULC)                     
587   13052595                  QLNWA24 (UULC)                     
588   13052565                  QLNWA31 (UULC)                     
589   13052570                  QLNWA31 (UULC)                     
590   13052539                  QLNWA31 (UULC)                     
591   13052577                  QLNWA29 (WOC)                      
592   13052584                  QLNWA16 (UULC)                     
593   13052619                  QLNWA06 (WOC)                      
594   13052613                  QLNWA13 (UULC)                     
595   13052585                  QLNWA16 (UULC)                     
596   13052608                  QLNWA16 (UULC)                     
597   13052609                  QLNWA16 (UULC)                     
598   13052612                  QLNWA16 (UULC)                     
599   13052617                  QLNWA16 (UULC)                     
600   13052578                  QLNWA18 (UULC)                     
601   13052580                  QLNWA18 (UULC)                     
602   13052569                  QLNWA24 (UULC)                     
603   13052621                  QLNWA24 (UULC)                     
604   13052622                  QLNWA06 (WOC)                      
605   13052623                  QLNWA16 (UULC)                     
606   13052626                  QLNWA16 (UULC)                     
607   13052625                  QLNWA22 (UULC)                     
608   13052624                  QLNWA31 (UULC)                     
609   13052627                  QLNWA30 (UULC)                     
610   13052629                  QLNWA06 (WOC)                      
611   13052636                  QLNWA14 (WOC)                      
612   13052643                  QLNWA16 (UULC)                     
613   13052650                  QLNWA16 (UULC)                     
614   13052645                  QLNWA16 (UULC)                     
615   13052646                  QLNWA16 (UULC)                     
616   13052648                  QLNWA16 (UULC)                     
617   13052635                  QLNWA16 (UULC)                     
618   13052634                  QLNWA16 (UULC)                     
619   13052649                  QLNWA32 (IEUCC)                    
620   13052628                  QLNWA31 (UULC)                     
621   13052638                  QLNWA31 (UULC)                     
622   13052651                  QLNWA16 (UULC)                     
623   13052652                  QLNWA16 (UULC)                     
624   13052653                  QLNWA16 (UULC)                     
625   13052655                  QLNWA16 (UULC)                     
626   13052660                  QLNWA16 (UULC)                     
627   13052661                  QLNWA16 (UULC)                     
628   13052663                  QLNWA16 (UULC)                     
629   13052656                  QLNWA16 (UULC)                     
630   13052657                  QLNWA16 (UULC)                     
631   13052662                  QLNWA16 (UULC)                     
632   13052665                  QLNWA16 (UULC)                     
633   13052664                  QLNWA32 (IEUCC)                    
634   13052668                  QLNWA32 (IEUCC)                    

Total Items Sent: 634
