
UQSTSO 00550A USAS 01/03/11 10:16:26 A02380967-06A REMK REMK GRID

Ticket : A02380967  Date: 01/03/11 Time: 10:14 Oper: ZIM Chan: 100
Old Tkt: A02071085  Date: 07/26/10 Time: 13:39 Oper: LOR Revision: 06A

Company: OSMENT GRADING AND EXCAVATING, INC. Caller: CRYSTAL
Co Addr: 30902 VIA BONICA
City&St: LAKE ELSINORE, CA              Zip: 92530
Phone: 951-678-3478 Ext:      Call back: 6-5PM
Formn: GLEN OSMENT          Phone: 909-553-7868

State: CA County: RIVERSIDE       Place: PALM DESERT
Delineated: Y
Delineated Method: WHITEPAINT
Address: 41817       Street:BEACON HILL
X/ST 1 : HOVLEY LN E
Locat: AT S/E CORNER OF STS ,   MEET AT JOB SITE   , CALL GELN TO CONFIRM MEET

Excav Enters Into St/Sidewalk: N

Grids: 0818J052
Lat/Long  : 33.745409/-116.351215 33.744948/-116.350428
          : 33.744729/-116.351613 33.744268/-116.350826
Caller GPS:

Boring: N  Explosives: N  Vacuum: N
Re-Mark: Y
Re-Mark Type: ALL

Work : DEMO AND OVER EXCAVATE 16FT DEEP  , GRADING
Wkend: N  Night: N
Work date: 01/03/11 Time: 10:16 Hrs notc: 000 Work hrs: 000 Priority: 2
Instruct : REQUEST REMARKS                Permit: NOT AVAILABLE
Done for : BAILEY CONSTRUCTION

Tkt Exp: 01/31/11

                                  COMMENTS

REF EXP TICKET A002071085, UPDATE ONLY-WORK CONT PER KIM--[JMC 08/26/10 14:05]
**RESEND**UPDATE ONLY-WORK CONT PER KIM--[KAW 09/20/10 13:23]
**RESEND**REQUEST REMARKS FROM ALL-WORK CONT PER KIM--[ADS 09/29/10 14:44]
**RESEND**UPDATE ONLY-WORK CONT PER KIMBERLY--[KEL 10/12/10 11:08]
**RESEND**UPDATE ONLY-WORK CONT PER KIM--[EVA 11/09/10 11:41]
**RESEND**UPDATE ONLY-WORK CONT PER KIM--[SRT 12/06/10 11:26]
**RESEND**REQUEST REMARKS FROM ALL-WORK CONT PER KIMBERLY--[ZIM 01/03/11 10:16]

Mbrs : CVW85  SCG1OG TWCPD  USCE79 UVZINDIO      UVZPLMSPR
