
MISSU Miss Utility
SUMM
DAILY AUDIT OF TICKETS SENT ON 10/24/12

Date/Time: 10/25/2012 12:05:45 AM
Receiving Terminal: PEPCODC

Seq #   Ticket #    Seq #   Ticket #    Seq #   Ticket #    Seq #   Ticket #    
----- ------------  ----- ------------  ----- ------------  ----- ------------  
   1  12570114-48HR|  78  12570350-ETKT| 154  12571659-48HR| 230  12572377-48HR|
   2  12570115-48HR|  79  12570373-48HR| 155  12571664-48HR| 231  12572382-48HR|
   3  12570116-48HR|  80  12570378-48HR| 156  12571688-48HR| 232  12572390-48HR|
   4  12570117-48HR|  81  12570418-ETKT| 157  12571754-48HR| 233  12572394-48HR|
   5  12570143-48HR|  82  12570375-48HR| 158  12571744-48HR| 234  12572409-48HR|
   6  12570144-48HR|  83  12570433-48HR| 159  12571750-48HR| 235  12572413-48HR|
   7  12570145-48HR|  84  12570443-ETKT| 160  12571792-48HR| 236  12572425-48HR|
   8  12570146-48HR|  85  12570451-ETKT| 161  12571881-48HR| 237  12572426-48HR|
   9  12570152-48HR|  86  12570455-48HR| 162* 12571880-48HR| 238  12572438-48HR|
  10  12570171-ETKT|  87  12570440-48HR| 163  12571880-48HR| 239  12572445-48HR|
  11  12570174-ETKT|  88  12570460-48HR| 164  12571901-48HR| 240  12572446-48HR|
  12  12570177-ETKT|  89  12570472-48HR| 165  12571902-48HR| 241  12572449-48HR|
  13  12570179-ETKT|  90  12570488-ETKT| 166  12571920-48HR| 242  12572461-48HR|
  14  12570185-ETKT|  91  12570496-ETKT| 167  12571926-48HR| 243  12572458-48HR|
  15  12570189-ETKT|  92  12570510-ETKT| 168  12571929-48HR| 244  12572467-48HR|
  16* 12570196-ETKT|  93  12570512-ETKT| 169  12571936-48HR| 245  12572470-48HR|
  17  12570203-48HR|  94  12570516-ETKT| 170  12571941-48HR| 246  12572473-48HR|
  18  12570204-48HR|  95  12570682-48HR| 171  12571946-48HR| 247  12572476-48HR|
  19  12570205-48HR|  96  12570670-48HR| 172  12571939-48HR| 248  12572477-48HR|
  20  12570206-48HR|  97  12570665-ETKT| 173  12571944-48HR| 249  12572480-48HR|
  21  12570207-48HR|  98  12570706-48HR| 174  12571954-48HR| 250  12572486-48HR|
  22  12570209-48HR|  99  12570672-ETKT| 175  12571957-48HR| 251  12572493-48HR|
  23  12570210-48HR| 100  12570764-48HR| 176  12571995-ETKT| 252  12572496-48HR|
  24  12570211-48HR| 101  12570768-48HR| 177  12571985-48HR| 253  12572514-ETKT|
  25  12570212-48HR| 102  12570771-48HR| 178  12572003-48HR| 254  12572547-48HR|
  26  12570216-48HR| 103  12570773-48HR| 179  12572012-48HR| 255  12572558-48HR|
  27  12570222-48HR| 104  12570778-48HR| 180  12572026-48HR| 256  12572561-48HR|
  28  12570224-48HR| 105  12570780-48HR| 181  12572024-48HR| 257  12572566-48HR|
  29  12570227-48HR| 106  12570781-48HR| 182  12572033-48HR| 258  12572577-48HR|
  30  12570229-48HR| 107  12570763-ETKT| 183  12572052-48HR| 259  12572596-48HR|
  31  12570230-48HR| 108  12570783-48HR| 184  12572060-48HR| 260  12572552-48HR|
  32  12570232-48HR| 109  12570787-48HR| 185  12572038-48HR| 261  12572626-ETKT|
  33  12570234-48HR| 110  12570788-48HR| 186  12572063-48HR| 262  12572661-ETKT|
  34  12570236-48HR| 111  12570772-48HR| 187  12572072-48HR| 263  12572692-48HR|
  35  12570238-48HR| 112  12570813-48HR| 188  12572077-48HR| 264  12572693-48HR|
  36  12570239-48HR| 113  12570819-48HR| 189  12572088-48HR| 265  12572694-48HR|
  37  12570240-48HR| 114  12570841-48HR| 190  12572090-48HR| 266  12572696-48HR|
  38  12570241-48HR| 115  12570862-48HR| 191  12572092-48HR| 267  12572697-48HR|
  39  12570243-48HR| 116  12570868-48HR| 192  12572095-48HR| 268  12572699-48HR|
  40  12570244-48HR| 117  12570884-48HR| 193  12572098-48HR| 269  12572700-48HR|
  41  12570245-48HR| 118  12570865-48HR| 194  12572112-48HR| 270  12572703-48HR|
  42  12570246-48HR| 119  12570894-48HR| 195  12572039-ETKT| 271  12572705-48HR|
  43  12570248-48HR| 120  12570906-48HR| 196  12572131-ETKT| 272  12572706-48HR|
  44  12570249-48HR| 121  12570924-48HR| 197  12572172-48HR| 273  12572708-48HR|
  45  12570253-48HR| 122  12571030-48HR| 198  12572171-48HR| 274  12572709-48HR|
  46  12570255-48HR| 123  12571045-48HR| 199  12572194-48HR| 275  12572710-48HR|
  47  12570257-48HR| 124  12571003-48HR| 200  12572201-48HR| 276  12572711-48HR|
  48  12570258-48HR| 125  12571088-48HR| 201  12572205-48HR| 277  12572712-48HR|
  49  12570259-48HR| 126  12571202-48HR| 202  12572207-48HR| 278  12572713-48HR|
  50  12570261-48HR| 127  12547759-48HR| 203  12572210-48HR| 279  12572714-48HR|
  51  12570263-48HR| 128  12547766-48HR| 204  12572214-48HR| 280  12572715-48HR|
  52  12570264-48HR| 129  12547770-48HR| 205  12572212-STKT| 281  12572726-48HR|
  53  12570266-48HR| 130  12547772-48HR| 206  12572230-48HR| 282  12572730-48HR|
  54  12570267-48HR| 131  12547775-48HR| 207  12572240-48HR| 283  12572732-48HR|
  55  12570268-48HR| 132  12571156-48HR| 208  12572243-48HR| 284  12572735-48HR|
  56  12570269-48HR| 133  12571254-48HR| 209  12572249-48HR| 285  12572736-48HR|
  57  12570271-48HR| 134  12547776-48HR| 210  12572258-FIOS| 286  12572737-48HR|
  58  12570273-48HR| 135  12571262-ETKT| 211  12572260-ETKT| 287  12572738-48HR|
  59  12570275-48HR| 136  12547778-48HR| 212  12572276-48HR| 288  12572746-48HR|
  60  12570276-48HR| 137  12547781-48HR| 213  12572283-48HR| 289  12572748-48HR|
  61  12570278-48HR| 138  12547785-48HR| 214  12572287-48HR| 290  12572750-48HR|
  62  12570279-48HR| 139  12547788-48HR| 215  12572288-48HR| 291  12572751-48HR|
  63  12570280-48HR| 140  12571354-48HR| 216  12572302-48HR| 292  12572754-48HR|
  64  12570284-48HR| 141  12571421-ETKT| 217  12572308-48HR| 293  12572762-48HR|
  65  12570285-48HR| 142  12571437-48HR| 218  12572309-48HR| 294* 12572763-48HR|
  66  12570287-48HR| 143  12571457-48HR| 219  12572311-48HR| 295  12572763-48HR|
  67  12570288-48HR| 144  12571471-48HR| 220  12572313-48HR| 296  12572765-48HR|
  68  12570293-48HR| 145  12571476-48HR| 221  12572330-48HR| 297  12572766-48HR|
  69  12570301-48HR| 146  12571482-48HR| 222  12572334-48HR| 298  12572774-48HR|
  70  12570303-48HR| 147  12571491-48HR| 223  12572340-48HR| 299  12572779-48HR|
  71  12570306-48HR| 148  12571499-48HR| 224  12572351-48HR| 300  12572806-FIOS|
  72  12570311-48HR| 149  12571507-48HR| 225  12572358-48HR| 301  12572818-FIOS|
  73  12570312-48HR| 150  12571547-48HR| 226  12572357-48HR| 302  12572825-FIOS|
  74  12570310-ETKT| 151  12571579-48HR| 227  12572364-48HR| 303  12572829-FIOS|
  75  12570196-ETKT| 152  12571603-48HR| 228  12572371-48HR| 304  12572830-48HR|
  76  12570362-48HR| 153  12571619-48HR| 229  12572373-48HR| 305  12572896-ETKT|
  77  12570368-48HR|

* indicates ticket # is repeated

Total Tickets: 305

48HR - STANDARD                       |  268

ETKT - EMERGENCY                      |   31

STKT - SHORT NOTICE                   |    1

FIOS - FIOS                           |    5


Please call (410) 712-0056 if this data does
not match the tickets you received on 10/24/12


GOOD MORNING - Miss Utility Subscribers of Maryland, DC and Delmarva
Revised on: October 24, 2012 
***********************************************************************
IMPORTANT MESSAGES:

**Ticket Check upgrade for FTP and Web users - As of 2/10/11, we are happy to
report that all owner-members/locators who status tickets via FTP or
through www.managetickets.com can now post comments for all Maryland 
Ticket Check status codes. This enhancement will give locators the
ability to enter a message of up to 200 characters within the comments
box.

If you FTP your status to Ticket Check and need the file format that
includes the Status Comment field, please contact support@managetickets.com
for the updated file format requirements.

Excavators and homeowners will receive the comments on their Ticket Check
fax backs or email confirmations and they will be able to view them on 
Search and Status. 

***********************************************************************
	    MISS UTILITY 2012 HOLIDAY SCHEDULE

New Years Day Obs...January 2
Martin Luther King Jr...January 16
Lincoln's Birthday Obs (MD only)...February 13
President's Day...February 20
Maryland Day Obs (MD only)...March 26
Good Friday (MD & DE only)...April 6
Emancipation Day (DC only)...April 16
Memorial Day... May 28
Independence Day...July 4
Labor Day...September 3
Defender's Day (MD only)...September 12
Columbus Day...October 8
Election Day (MD & DE only)...November 6
Veteran's Day Obs...November 12
Thanksgiving Day...November 22
Day After Thanksgiving (MD and DE only)...November 23
Christmas Eve (DE only)...December 24
Christmas Day...December 25
New Years Eve (DE only)...December 31

The Call center will not include the above holidays when calculating the
start date of tickets respective of State holidays.

As a benefit to all members, your district code will be statused as closed
for the following holidays; New Years Day, Memorial Day, Independence Day,
Labor Day, Thanksgiving Day, the day after Thanksgiving and Christmas Day.

**************************************************************************
			Contact Information

Changes to district code databases should be forwarded to our Member 
Database Administrator, Shannon Stultz at shannonstultz@missutility.net. 
Changes may also be faxed to Miss Utility at 410-712-0062. These changes
include but are not limited to; underground plant notification area, 
contact/address revisions, office open and/or close times and ticket 
receiver modifications.

Regarding temporary office open/close district code changes, we will 
acknowledge your notice within 2 hours of receipt. If you do NOT receive 
our confirmation, please call our Help Desk immediately at 410-712-0056 or
email us at helpdesk@missutility.net. To ensure we are modifying the 
appropriate district codes, a list of all affected codes must be provided 
with the open/close change notice. Additionally, Miss Utility will contact
you when we have completed the district code programming as this affects 
Emergency ticket notification - programming can take up to one hour 
depending on the amount of affected district codes.

Daily Tickets/Audits: If you need a copy of your daily ticket audit or
ticket retransmits contact the retransmit line by calling 410-712-0056.
If you are experiencing problems receiving tickets, call the Help Desk at 
410-712-0056. Please be sure to have your district codes(s) available.

***********************************************************************
                            UPCOMING MEETINGS

The Maryland/DC Damage Prevention Meeting is held the fourth Tuesday of each
month (excluding December) at Miss Utility Center, 7223 Parkway Drive, Suite
100, Hanover, MD. Refreshments at 9am; Meeting at 9:30.

The Maryland/DC Subscribers Meeting time will be held December 12, 2012 at 
the Miss Utility Center, 7223 Parkway Dr, Hanover, MD, from 9:30am to 
12:00pm followed by a holiday luncheon. For questions, contact Dora Parks 
at 410-782-2026.

The Delmarva Membership Meeting is held the third Thursday of each month;
8:45am Coffee, 9:00am Presentations, 9:15am-10am Concerns, 10am-11am
Business Meeting, 11am-Noon Board Meeting. For more information, please
visit www.missutilitydelmarva.com. Meeting Minutes are available via
www.missutlitydelmarva.com/documents.asp.

Have a pleasant day.


