

PUPS AUDIT
CONSOLIDATED UTILITY SERVICES, BILLING FOR AT&T/D
ZZB26
AUDIT FOR 7/8/2009

FOR CODE ZZB26

TYPE  SEQ#  TICKET                    STATUS                                
----  ----  ------------------------  ------------------------------------- 
      0001  0907080001                DELIVERED
      0002  0907080003                DELIVERED
      0003  0907080004                DELIVERED
      0004  0907080005                DELIVERED
      0005  0907080006                DELIVERED
      0006  0907080007                DELIVERED
      0007  0907080008                DELIVERED
      0008  0907080010                DELIVERED
 U    0009  0907080011                DELIVERED
 U    0010  0907080014                DELIVERED
      0011  0907080015                DELIVERED
 U    0012  0907080016                DELIVERED
 U    0013  0907080017                DELIVERED
 U    0014  0907080018                DELIVERED
 U    0015  0907080022                DELIVERED
      0016  0907080025                DELIVERED
      0017  0907080031                DELIVERED
      0018  0907080032                DELIVERED
      0019  0907080033                DELIVERED
      0020  0907080034                DELIVERED
      0021  0907080035                DELIVERED
      0022  0907080036                DELIVERED
      0023  0907080041                DELIVERED
 U    0024  0907080043                DELIVERED
 R    0025  0907080047                DELIVERED
      0026  0907080050                DELIVERED
 U    0027  0907080051                DELIVERED
 U    0028  0907080053                DELIVERED
      0029  0907080060                DELIVERED
      0030  0907080061                DELIVERED
      0031  0907080062                DELIVERED
      0032  0907080064                DELIVERED
 U    0033  0907080066                DELIVERED
      0034  0907080067                DELIVERED
!     0035  0907080068                DELIVERED
 U    0036  0907080070                DELIVERED
      0037  0907080071                DELIVERED
 U    0038  0907080072                DELIVERED
 U    0039  0907080073                DELIVERED
!     0040  0907080074                DELIVERED
!     0041  0907080076                DELIVERED
      0042  0907080080                DELIVERED
      0043  0907080082                DELIVERED
!     0044  0907080085                DELIVERED
      0045  0907080086                DELIVERED
      0046  0907080088                DELIVERED
      0047  0907080093                DELIVERED
*     0048  0907080095                DELIVERED
      0049  0907080097                DELIVERED
      0050  0907080099                DELIVERED
      0051  0907080101                DELIVERED
!     0052  0907080105                DELIVERED
      0053  0907080106                DELIVERED
 C    0054  0907080108                DELIVERED
      0055  0907080111                DELIVERED
      0056  0907080113                DELIVERED
      0057  0907080120                DELIVERED
      0058  0907080127                DELIVERED
      0059  0907080134                DELIVERED
      0060  0907080138                DELIVERED
      0061  0907080146                DELIVERED
      0062  0907080150                DELIVERED
 N    0063  0907080151                DELIVERED
      0064  0907080155                DELIVERED
 R    0065  0907080159                DELIVERED
!     0066  0907080167                DELIVERED
      0067  0907080166                DELIVERED
      0068  0907080173                DELIVERED
      0069  0907080182                DELIVERED
      0070  0907080185                DELIVERED
      0071  0907080190                DELIVERED
!     0072  0907080193                DELIVERED
 U    0073  0907080197                DELIVERED
      0074  0907080204                DELIVERED
      0075  0907080205                DELIVERED
      0076  0907080210                DELIVERED
      0077  0907080209                DELIVERED
      0078  0907080212                DELIVERED
      0079  0907080215                DELIVERED
      0080  0907080223                DELIVERED
      0081  0907080224                DELIVERED
      0082  0907080228                DELIVERED
      0083  0907080237                DELIVERED
      0084  0907080239                DELIVERED
      0085  0907080241                DELIVERED
      0086  0907080243                DELIVERED
      0087  0907080246                DELIVERED
      0088  0907080247                DELIVERED
 U    0089  0907080248                DELIVERED
      0090  0907080249                DELIVERED
      0091  0907080250                DELIVERED
      0092  0907080254                DELIVERED
 U    0093  0907080257                DELIVERED
      0094  0907080256                DELIVERED
      0095  0907080260                DELIVERED
 U    0096  0907080261                DELIVERED
 U    0097  0907080263                DELIVERED
      0098  0907080265                DELIVERED
      0099  0907080266                DELIVERED
      0100  0907080267                DELIVERED
      0101  0907080268                DELIVERED
      0102  0907080270                DELIVERED
      0103  0907080273                DELIVERED
      0104  0907080274                DELIVERED
      0105  0907080275                DELIVERED
!     0106  0907080277                DELIVERED
      0107  0907080278                DELIVERED
      0108  0907080279                DELIVERED
 N    0109  0907080280                DELIVERED
      0110  0907080283                DELIVERED
      0111  0907080290                DELIVERED
      0112  0907080291                DELIVERED
      0113  0907080292                DELIVERED
      0114  0907080294                DELIVERED
      0115  0907080293                DELIVERED
 U    0116  0907080298                DELIVERED
 U    0117  0907080299                DELIVERED
 U    0118  0907080301                DELIVERED
      0119  0907080303                DELIVERED
      0120  0907080308                DELIVERED
      0121  0907080315                DELIVERED
      0122  0907080316                DELIVERED
      0123  0907080317                DELIVERED
 U    0124  0907080318                DELIVERED
      0125  0907080319                DELIVERED
 U    0126  0907080321                DELIVERED
!     0127  0907080323                DELIVERED
 U    0128  0907080324                DELIVERED
 U    0129  0907080326                DELIVERED
      0130  0907080327                DELIVERED
      0131  0907080328                DELIVERED
      0132  0907080329                DELIVERED
      0133  0907080331                DELIVERED
 C    0134  0907080334                DELIVERED
      0135  0907080335                DELIVERED
 U    0136  0907080337                DELIVERED
      0137  0907080338                DELIVERED
 U    0138  0907080339                DELIVERED
      0139  0907080340                DELIVERED
 U    0140  0907080341                DELIVERED
      0141  0907080342                DELIVERED
 U    0142  0907080343                DELIVERED
      0143  0907080346                DELIVERED
 U    0144  0907080348                DELIVERED
      0145  0907080349                DELIVERED
 U    0146  0907080352                DELIVERED
      0147  0907080351                DELIVERED
      0148  0907080355                DELIVERED
      0149  0907080358                DELIVERED
      0150  0907080359                DELIVERED
!     0151  0907080360                DELIVERED
      0152  0907080363                DELIVERED
!     0153  0907080365                DELIVERED
      0154  0907080373                DELIVERED
      0155  0907080374                DELIVERED
 R    0156  0907080379                DELIVERED
      0157  0907080380                DELIVERED
      0158  0907080381                DELIVERED
      0159  0907080383                DELIVERED
      0160  0907080387                DELIVERED
!     0161  0907080390                DELIVERED
      0162  0907080392                DELIVERED
      0163  0907080395                DELIVERED
      0164  0907080396                DELIVERED
      0165  0907080397                DELIVERED
      0166  0907080404                DELIVERED
      0167  0907080406                DELIVERED
      0168  0907080408                DELIVERED
!     0169  0907080413                DELIVERED
      0170  0907080414                DELIVERED
      0171  0907080415                DELIVERED
      0172  0907080416                DELIVERED
      0173  0907080418                DELIVERED
      0174  0907080419                DELIVERED
      0175  0907080422                DELIVERED
*     0176  0907080424                DELIVERED
      0177  0907080428                DELIVERED
      0178  0907080430                DELIVERED
      0179  0907080435                DELIVERED
      0180  0907080437                DELIVERED
      0181  0907080440                DELIVERED
      0182  0907080442                DELIVERED
      0183  0907080444                DELIVERED
      0184  0907080447                DELIVERED
      0185  0907080448                DELIVERED
      0186  0907080453                DELIVERED
      0187  0907080454                DELIVERED
      0188  0907080460                DELIVERED
      0189  0907080462                DELIVERED
      0190  0907080463                DELIVERED
      0191  0907080465                DELIVERED
      0192  0907080467                DELIVERED
      0193  0907080468                DELIVERED
      0194  0907080472                DELIVERED
      0195  0907080473                DELIVERED
      0196  0907080475                DELIVERED
      0197  0907080476                DELIVERED
      0198  0907080479                DELIVERED
      0199  0907080481                DELIVERED
      0200  0907080486                DELIVERED
      0201  0907080488                DELIVERED
      0202  0907080495                DELIVERED
      0203  0907080496                DELIVERED
      0204  0907080502                DELIVERED
      0205  0907080505                DELIVERED
      0206  0907080508                DELIVERED
      0207  0907080510                DELIVERED
      0208  0907080512                DELIVERED
 U    0209  0907080516                DELIVERED
 U    0210  0907080517                DELIVERED
 U    0211  0907080519                DELIVERED
      0212  0907080520                DELIVERED
 U    0213  0907080521                DELIVERED
      0214  0907080523                DELIVERED
 U    0215  0907080526                DELIVERED
 C    0216  0907080527                DELIVERED
 U    0217  0907080529                DELIVERED
      0218  0907080530                DELIVERED
 U    0219  0907080531                DELIVERED
      0220  0907080532                DELIVERED
 U    0221  0907080533                DELIVERED
      0222  0907080534                DELIVERED
      0223  0907080541                DELIVERED
      0224  0907080542                DELIVERED
      0225  0907080548                DELIVERED
      0226  0907080552                DELIVERED
      0227  0907080553                DELIVERED
      0228  0907080554                DELIVERED
      0229  0907080555                DELIVERED
 U    0230  0907080556                DELIVERED
      0231  0907080557                DELIVERED
 U    0232  0907080559                DELIVERED
      0233  0907080560                DELIVERED
 U    0234  0907080564                DELIVERED
      0235  0907080565                DELIVERED
 U    0236  0907080566                DELIVERED
      0237  0907080568                DELIVERED
 U    0238  0907080571                DELIVERED
*     0239  0907080572                DELIVERED
 U    0240  0907080574                DELIVERED
      0241  0907080576                DELIVERED
      0242  0907080579                DELIVERED
 U    0243  0907080580                DELIVERED
 U    0244  0907080581                DELIVERED
      0245  0907080584                DELIVERED
      0246  0907080586                DELIVERED
 U    0247  0907080589                DELIVERED
      0248  0907080591                DELIVERED
 U    0249  0907080593                DELIVERED
      0250  0907080592                DELIVERED
      0251  0907080594                DELIVERED
 C    0252  0907080595                DELIVERED
 U    0253  0907080597                DELIVERED
 U    0254  0907080598                DELIVERED
      0255  0907080599                DELIVERED
 U    0256  0907080601                DELIVERED
      0257  0907080602                DELIVERED
      0258  0907080603                DELIVERED
 U    0259  0907080605                DELIVERED
      0260  0907080606                DELIVERED
      0261  0907080607                DELIVERED
 U    0262  0907080608                DELIVERED
 C    0263  0907080609                DELIVERED
 U    0264  0907080610                DELIVERED
      0265  0907080611                DELIVERED
 U    0266  0907080613                DELIVERED
      0267  0907080615                DELIVERED
 U    0268  0907080617                DELIVERED
      0269  0907080618                DELIVERED
 U    0270  0907080619                DELIVERED
      0271  0907080620                DELIVERED
      0272  0907080621                DELIVERED
 U    0273  0907080623                DELIVERED
      0274  0907080625                DELIVERED
 U    0275  0907080626                DELIVERED
      0276  0907080627                DELIVERED
      0277  0907080629                DELIVERED
 U    0278  0907080630                DELIVERED
 U    0279  0907080632                DELIVERED
      0280  0907080635                DELIVERED
      0281  0907080636                DELIVERED
      0282  0907080640                DELIVERED
      0283  0907080649                DELIVERED
      0284  0907080650                DELIVERED
      0285  0907080654                DELIVERED
      0286  0907080655                DELIVERED
      0287  0907080657                DELIVERED
      0288  0907080658                DELIVERED
      0289  0907080661                DELIVERED
      0290  0907080664                DELIVERED
      0291  0907080666                DELIVERED
      0292  0907080671                DELIVERED
      0293  0907080672                DELIVERED
      0294  0907080673                DELIVERED
      0295  0907080678                DELIVERED
*     0296  0907080680                DELIVERED
      0297  0907080681                DELIVERED
      0298  0907080683                DELIVERED
      0299  0907080687                DELIVERED
      0300  0907080689                DELIVERED
      0301  0907080693                DELIVERED
      0302  0907080694                DELIVERED
      0303  0907080695                DELIVERED
 U    0304  0907080696                DELIVERED
      0305  0907080697                DELIVERED
      0306  0907080699                DELIVERED
      0307  0907080700                DELIVERED
      0308  0907080702                DELIVERED
 U    0309  0907080704                DELIVERED
      0310  0907080703                DELIVERED
      0311  0907080710                DELIVERED
 U    0312  0907080714                DELIVERED
*     0313  0907080712                DELIVERED
      0314  0907080719                DELIVERED
 N    0315  0907080721                DELIVERED
 U    0316  0907080724                DELIVERED
 U    0317  0907080725                DELIVERED
 U    0318  0907080731                DELIVERED
 C    0319  0907080732                DELIVERED
 U    0320  0907080733                DELIVERED
 U    0321  0907080734                DELIVERED
      0322  0907080737                DELIVERED
 U    0323  0907080738                DELIVERED
 U    0324  0907080740                DELIVERED
 U    0325  0907080743                DELIVERED
 U    0326  0907080746                DELIVERED
 U    0327  0907080748                DELIVERED
 U    0328  0907080749                DELIVERED
      0329  0907080750                DELIVERED
      0330  0907080758                DELIVERED
      0331  0907080759                DELIVERED
 U    0332  0907080763                DELIVERED
      0333  0907080768                DELIVERED
 U    0334  0907080770                DELIVERED
      0335  0907080772                DELIVERED
 U    0336  0907080773                DELIVERED
 U    0337  0907080775                DELIVERED
      0338  0907080776                DELIVERED
      0339  0907080780                DELIVERED
      0340  0907080781                DELIVERED
      0341  0907080782                DELIVERED
      0342  0907080783                DELIVERED
      0343  0907080785                DELIVERED
      0344  0907080786                DELIVERED
!     0345  0907080789                DELIVERED
      0346  0907080792                DELIVERED
      0347  0907080796                DELIVERED
      0348  0907080798                DELIVERED
      0349  0907080799                DELIVERED
      0350  0907080803                DELIVERED
      0351  0907080807                DELIVERED
      0352  0907080809                DELIVERED
      0353  0907080811                DELIVERED
      0354  0907080815                DELIVERED
 M    0355  0907080816                DELIVERED
!     0356  0907080817                DELIVERED
      0357  0907080819                DELIVERED
      0358  0907080820                DELIVERED
      0359  0907080822                DELIVERED
      0360  0907080824                DELIVERED
!     0361  0907080826                DELIVERED
 U    0362  0907080828                DELIVERED
      0363  0907080829                DELIVERED
      0364  0907080832                DELIVERED
      0365  0907080835                DELIVERED
 U    0366  0907080836                DELIVERED
      0367  0907080838                DELIVERED
      0368  0907080839                DELIVERED
*     0369  0907080841                DELIVERED
      0370  0907080842                DELIVERED
      0371  0907080843                DELIVERED
 U    0372  0907080845                DELIVERED
      0373  0907080847                DELIVERED
 U    0374  0907080848                DELIVERED
      0375  0907080850                DELIVERED
 U    0376  0907080852                DELIVERED
      0377  0907080854                DELIVERED
      0378  0907080856                DELIVERED
 U    0379  0907080857                DELIVERED
      0380  0907080859                DELIVERED
      0381  0907080860                DELIVERED
      0382  0907080862                DELIVERED
!     0383  0907080863                DELIVERED
      0384  0907080864                DELIVERED
      0385  0907080867                DELIVERED
      0386  0907080869                DELIVERED
      0387  0907080872                DELIVERED
      0388  0907080873                DELIVERED
      0389  0907080877                DELIVERED
      0390  0907080879                DELIVERED
      0391  0907080880                DELIVERED
      0392  0907080883                DELIVERED
      0393  0907080886                DELIVERED
      0394  0907080888                DELIVERED
 U    0395  0907080889                DELIVERED
      0396  0907080890                DELIVERED
      0397  0907080895                DELIVERED
      0398  0907080896                DELIVERED
      0399  0907080897                DELIVERED
      0400  0907080898                DELIVERED
      0401  0907080899                DELIVERED
!     0402  0907080905                DELIVERED
      0403  0907080906                DELIVERED
      0404  0907080907                DELIVERED
      0405  0907080911                DELIVERED
      0406  0907080913                DELIVERED
      0407  0907080915                DELIVERED
      0408  0907080916                DELIVERED
      0409  0907080917                DELIVERED
      0410  0907080919                DELIVERED
      0411  0907080921                DELIVERED
      0412  0907080922                DELIVERED
      0413  0907080925                DELIVERED
      0414  0907080927                DELIVERED
      0415  0907080929                DELIVERED
      0416  0907080933                DELIVERED
      0417  0907080934                DELIVERED
      0418  0907080935                DELIVERED
!     0419  0907080938                DELIVERED
      0420  0907080940                DELIVERED
      0421  0907080942                DELIVERED
      0422  0907080944                DELIVERED
      0423  0907080946                DELIVERED
      0424  0907080947                DELIVERED
 C    0425  0907080949                DELIVERED
      0426  0907080953                DELIVERED
      0427  0907080963                DELIVERED
      0428  0907080964                DELIVERED
      0429  0907080970                DELIVERED
!     0430  0907080975                DELIVERED
 R    0431  0907080983                DELIVERED
      0432  0907080985                DELIVERED
*     0433  0907080987                DELIVERED
      0434  0907080986                DELIVERED
 R    0435  0907080988                DELIVERED
      0436  0907080994                DELIVERED
      0437  0907081003                DELIVERED
      0438  0907081005                DELIVERED
      0439  0907081007                DELIVERED
 R    0440  0907081010                DELIVERED
!     0441  0907081013                DELIVERED
      0442  0907081014                DELIVERED
      0443  0907081015                DELIVERED
      0444  0907081018                DELIVERED
 R    0445  0907081019                DELIVERED
      0446  0907081025                DELIVERED
      0447  0907081031                DELIVERED
!     0448  0907081033                DELIVERED
      0449  0907081034                DELIVERED
      0450  0907081038                DELIVERED
      0451  0907081041                DELIVERED
      0452  0907081044                DELIVERED
      0453  0907081048                DELIVERED
      0454  0907081051                DELIVERED
      0455  0907081052                DELIVERED
      0456  0907081054                DELIVERED
      0457  0907081057                DELIVERED
      0458  0907081058                DELIVERED
      0459  0907081059                DELIVERED
      0460  0907081063                DELIVERED
      0461  0907081064                DELIVERED
      0462  0907081067                DELIVERED
      0463  0907081073                DELIVERED
!     0464  0907081079                DELIVERED
      0465  0907081080                DELIVERED
      0466  0907081081                DELIVERED
      0467  0907081084                DELIVERED
      0468  0907081087                DELIVERED
      0469  0907081088                DELIVERED
      0470  0907081089                DELIVERED
      0471  0907081092                DELIVERED
      0472  0907081099                DELIVERED
 R    0473  0907081100                DELIVERED
      0474  0907081102                DELIVERED
      0475  0907081103                DELIVERED
      0476  0907081109                DELIVERED
      0477  0907081123                DELIVERED
      0478  0907081125                DELIVERED
      0479  0907081126                DELIVERED
!     0480  0907081127                DELIVERED
      0481  0907081130                DELIVERED
      0482  0907081133                DELIVERED
      0483  0907081135                DELIVERED
      0484  0907081137                DELIVERED
      0485  0907081139                DELIVERED
      0486  0907081146                DELIVERED
      0487  0907081148                DELIVERED
      0488  0907081150                DELIVERED
      0489  0907081152                DELIVERED
      0490  0907081154                DELIVERED
      0491  0907081155                DELIVERED
      0492  0907081158                DELIVERED
      0493  0907081159                DELIVERED
      0494  0907081160                DELIVERED
      0495  0907081162                DELIVERED
      0496  0907081163                DELIVERED
      0497  0907081164                DELIVERED
      0498  0907081167                DELIVERED
      0499  0907081168                DELIVERED
      0500  0907081170                DELIVERED
      0501  0907081171                DELIVERED
 N    0502  0907081173                DELIVERED
      0503  0907081174                DELIVERED
      0504  0907081176                DELIVERED
 C    0505  0907081179                DELIVERED
      0506  0907081180                DELIVERED
 C    0507  0907081183                DELIVERED
      0508  0907081185                DELIVERED
!     0509  0907081188                DELIVERED
      0510  0907081191                DELIVERED
      0511  0907081196                DELIVERED
 U    0512  0907081198                DELIVERED
 U    0513  0907081201                DELIVERED
      0514  0907081202                DELIVERED
      0515  0907081203                DELIVERED
 U    0516  0907081206                DELIVERED
      0517  0907081207                DELIVERED
      0518  0907081208                DELIVERED
 U    0519  0907081209                DELIVERED
      0520  0907081212                DELIVERED
!     0521  0907081213                DELIVERED
      0522  0907081214                DELIVERED
 U    0523  0907081216                DELIVERED
!     0524  0907081218                DELIVERED
      0525  0907081220                DELIVERED
      0526  0907081221                DELIVERED
      0527  0907081222                DELIVERED
 U    0528  0907081225                DELIVERED
 M    0529  0907081226                DELIVERED
      0530  0907081231                DELIVERED
      0531  0907081232                DELIVERED
      0532  0907081235                DELIVERED
      0533  0907081236                DELIVERED
 U    0534  0907081237                DELIVERED
      0535  0907081238                DELIVERED
      0536  0907081241                DELIVERED
      0537  0907081242                DELIVERED
      0538  0907081244                DELIVERED
      0539  0907081245                DELIVERED
      0540  0907081247                DELIVERED
 U    0541  0907081248                DELIVERED
      0542  0907081249                DELIVERED
      0543  0907081251                DELIVERED
      0544  0907081252                DELIVERED
 R    0545  0907081253                DELIVERED
      0546  0907081258                DELIVERED
      0547  0907081259                DELIVERED
      0548  0907081260                DELIVERED
 U    0549  0907081263                DELIVERED
      0550  0907081262                DELIVERED
      0551  0907081264                DELIVERED
      0552  0907081265                DELIVERED
      0553  0907081266                DELIVERED
      0554  0907081270                DELIVERED
      0555  0907081272                DELIVERED
      0556  0907081278                DELIVERED
 U    0557  0907081279                DELIVERED
      0558  0907081280                DELIVERED
      0559  0907081285                DELIVERED
      0560  0907081286                DELIVERED
 U    0561  0907081290                DELIVERED
      0562  0907081291                DELIVERED
      0563  0907081293                DELIVERED
 U    0564  0907081296                DELIVERED
      0565  0907081297                DELIVERED
      0566  0907081300                DELIVERED
      0567  0907081301                DELIVERED
      0568  0907081304                DELIVERED
      0569  0907081307                DELIVERED
      0570  0907081317                DELIVERED
      0571  0907081318                DELIVERED
!     0572  0907081320                DELIVERED
      0573  0907081323                DELIVERED
      0574  0907081327                DELIVERED
      0575  0907081330                DELIVERED
!     0576  0907081331                DELIVERED
 C    0577  0907081335                DELIVERED
 C    0578  0907081337                DELIVERED
 C    0579  0907081343                DELIVERED
      0580  0907081344                DELIVERED
      0581  0907081345                DELIVERED
      0582  0907081351                DELIVERED
      0583  0907081361                DELIVERED
      0584  0907081362                DELIVERED
      0585  0907081363                DELIVERED
!     0586  0907081364                DELIVERED
      0587  0907081373                DELIVERED
!     0588  0907081377                DELIVERED
      0589  0907081381                DELIVERED
      0590  0907081385                DELIVERED
      0591  0907081392                DELIVERED
      0592  0907081393                DELIVERED
      0593  0907081394                DELIVERED
      0594  0907081399                DELIVERED
      0595  0907081400                DELIVERED
 U    0596  0907081404                DELIVERED
      0597  0907081405                DELIVERED
 U    0598  0907081406                DELIVERED
      0599  0907081407                DELIVERED
      0600  0907081408                DELIVERED
      0601  0907081411                DELIVERED
      0602  0907081412                DELIVERED
      0603  0907081413                DELIVERED
      0604  0907081423                DELIVERED
 R    0605  0907081424                DELIVERED
      0606  0907081427                DELIVERED
      0607  0907081429                DELIVERED
!     0608  0907081438                DELIVERED
      0609  0907081439                DELIVERED
      0610  0907081452                DELIVERED
 U    0611  0907081470                DELIVERED
 U    0612  0907081472                DELIVERED
      0613  0907081473                DELIVERED
      0614  0907081479                DELIVERED
      0615  0907081487                DELIVERED
      0616  0907081488                DELIVERED
      0617  0907081490                DELIVERED
      0618  0907081494                DELIVERED
      0619  0907081509                DELIVERED
      0620  0907081510                DELIVERED
*     0621  0907081513                DELIVERED
      0622  0907081516                DELIVERED
      0623  0907081519                DELIVERED
      0624  0907081521                DELIVERED
      0625  0907081523                DELIVERED
      0626  0907081524                DELIVERED
!     0627  0907081525                DELIVERED
      0628  0907081527                DELIVERED
      0629  0907081530                DELIVERED
      0630  0907081535                DELIVERED
      0631  0907081544                DELIVERED
      0632  0907081552                DELIVERED
      0633  0907081569                DELIVERED
      0634  0907081582                DELIVERED
      0635  0907081585                DELIVERED
      0636  0907081587                DELIVERED
      0637  0907081610                DELIVERED
      0638  0907081615                DELIVERED
!     0639  0907081617                DELIVERED
      0640  0907081619                DELIVERED
 M    0641  0907081622                DELIVERED
      0642  0907081623                DELIVERED
      0643  0907081625                DELIVERED
      0644  0907081626                DELIVERED
      0645  0907081628                DELIVERED
      0646  0907081630                DELIVERED
      0647  0907081634                DELIVERED
      0648  0907081637                DELIVERED
*     0649  0907081642                DELIVERED
*     0650  0907081646                DELIVERED
      0651  0907081647                DELIVERED
      0652  0907081648                DELIVERED
      0653  0907081649                DELIVERED
      0654  0907081652                DELIVERED
      0655  0907081654                DELIVERED
      0656  0907081656                DELIVERED
      0657  0907081658                DELIVERED
      0658  0907081660                DELIVERED
      0659  0907081661                DELIVERED
      0660  0907081664                DELIVERED
      0661  0907081667                DELIVERED
      0662  0907081668                DELIVERED
      0663  0907081676                DELIVERED
      0664  0907081678                DELIVERED
      0665  0907081693                DELIVERED
      0666  0907081694                DELIVERED
      0667  0907081696                DELIVERED
 U    0668  0907081699                DELIVERED
      0669  0907081700                DELIVERED
      0670  0907081701                DELIVERED
      0671  0907081709                DELIVERED
      0672  0907081711                DELIVERED
      0673  0907081712                DELIVERED
      0674  0907081713                DELIVERED
      0675  0907081716                DELIVERED
      0676  0907081719                DELIVERED
      0677  0907081720                DELIVERED
      0678  0907081728                DELIVERED
      0679  0907081734                DELIVERED
      0680  0907081735                DELIVERED
 U    0681  0907081736                DELIVERED
      0682  0907081737                DELIVERED
      0683  0907081741                DELIVERED
 U    0684  0907081742                DELIVERED
 U    0685  0907081744                DELIVERED
 U    0686  0907081746                DELIVERED
      0687  0907081757                DELIVERED
      0688  0907081758                DELIVERED
      0689  0907081761                DELIVERED
      0690  0907081765                DELIVERED
 U    0691  0907081770                DELIVERED
      0692  0907081771                DELIVERED
      0693  0907081773                DELIVERED
      0694  0907081777                DELIVERED
      0695  0907081778                DELIVERED
      0696  0907081779                DELIVERED
      0697  0907081780                DELIVERED
 C    0698  0907081785                DELIVERED
      0699  0907081787                DELIVERED
      0700  0907081788                DELIVERED
      0701  0907081789                DELIVERED
      0702  0907081790                DELIVERED
      0703  0907081792                DELIVERED
 N    0704  0907081793                DELIVERED
      0705  0907081797                DELIVERED
      0706  0907081798                DELIVERED
 N    0707  0907081802                DELIVERED
      0708  0907081804                DELIVERED
      0709  0907081807                DELIVERED
      0710  0907081808                DELIVERED
 R    0711  0907081811                DELIVERED
      0712  0907081812                DELIVERED
      0713  0907081814                DELIVERED
 U    0714  0907081823                DELIVERED
      0715  0907081824                DELIVERED
 N    0716  0907081827                DELIVERED
 U    0717  0907081829                DELIVERED
      0718  0907081833                DELIVERED
      0719  0907081834                DELIVERED
      0720  0907081836                DELIVERED
      0721  0907081838                DELIVERED
      0722  0907081844                DELIVERED
 R    0723  0907081845                DELIVERED
      0724  0907081846                DELIVERED
      0725  0907081847                DELIVERED
      0726  0907081848                DELIVERED
      0727  0907081851                DELIVERED
      0728  0907081852                DELIVERED
 U    0729  0907081854                DELIVERED
      0730  0907081857                DELIVERED
      0731  0907081863                DELIVERED
      0732  0907081865                DELIVERED
      0733  0907081867                DELIVERED
      0734  0907081872                DELIVERED
      0735  0907081874                DELIVERED
      0736  0907081877                DELIVERED
 M    0737  0907081886                DELIVERED
      0738  0907081888                DELIVERED
      0739  0907081891                DELIVERED
      0740  0907081895                DELIVERED
      0741  0907081912                DELIVERED
      0742  0907081916                DELIVERED
      0743  0907081921                DELIVERED
      0744  0907081924                DELIVERED
 M    0745  0907081931                DELIVERED
      0746  0907081936                DELIVERED
      0747  0907081938                DELIVERED
      0748  0907081940                DELIVERED
      0749  0907081947                DELIVERED
 M    0750  0907081948                DELIVERED
 U    0751  0907081955                DELIVERED
      0752  0907081956                DELIVERED
      0753  0907081958                DELIVERED
 U    0754  0907081961                DELIVERED
      0755  0907081973                DELIVERED
      0756  0907081975                DELIVERED
      0757  0907081979                DELIVERED
      0758  0907081983                DELIVERED
      0759  0907081984                DELIVERED
      0760  0907081986                DELIVERED
      0761  0907081987                DELIVERED
      0762  0907081992                DELIVERED
      0763  0907081994                DELIVERED
      0764  0907081996                DELIVERED
      0765  0907081997                DELIVERED
      0766  0907081998                DELIVERED
      0767  0907082000                DELIVERED
      0768  0907082002                DELIVERED
      0769  0907082003                DELIVERED
      0770  0907082004                DELIVERED
      0771  0907082006                DELIVERED
      0772  0907082007                DELIVERED
      0773  0907082009                DELIVERED
      0774  0907082010                DELIVERED
      0775  0907082011                DELIVERED
      0776  0907082013                DELIVERED
      0777  0907082014                DELIVERED
      0778  0907082018                DELIVERED
      0779  0907082019                DELIVERED
      0780  0907082021                DELIVERED
*     0781  0907082022                DELIVERED
      0782  0907082024                DELIVERED
      0783  0907082028                DELIVERED
      0784  0907082029                DELIVERED
      0785  0907082032                DELIVERED
      0786  0907082036                DELIVERED
      0787  0907082040                DELIVERED
      0788  0907082041                DELIVERED
      0789  0907082043                DELIVERED
      0790  0907082044                DELIVERED
      0791  0907082045                DELIVERED
      0792  0907082047                DELIVERED
      0793  0907082048                DELIVERED
      0794  0907082049                DELIVERED
      0795  0907082053                DELIVERED
      0796  0907082054                DELIVERED
      0797  0907082056                DELIVERED
      0798  0907082058                DELIVERED
      0799  0907082059                DELIVERED
      0800  0907082060                DELIVERED
      0801  0907082061                DELIVERED
      0802  0907082064                DELIVERED
      0803  0907082066                DELIVERED
      0804  0907082067                DELIVERED
      0805  0907082068                DELIVERED
      0806  0907082070                DELIVERED
      0807  0907082071                DELIVERED
      0808  0907082073                DELIVERED
      0809  0907082074                DELIVERED
      0810  0907082077                DELIVERED
      0811  0907082078                DELIVERED
      0812  0907082079                DELIVERED
      0813  0907082080                DELIVERED
      0814  0907082086                DELIVERED
      0815  0907082088                DELIVERED
      0816  0907082089                DELIVERED
      0817  0907082090                DELIVERED
 C    0818  0907082092                DELIVERED
      0819  0907082096                DELIVERED
      0820  0907082098                DELIVERED
      0821  0907082100                DELIVERED
      0822  0907082105                DELIVERED
      0823  0907082108                DELIVERED
      0824  0907082110                DELIVERED
      0825  0907082111                DELIVERED
      0826  0907082115                DELIVERED
!     0827  0907082118                DELIVERED
!     0828  0907082128                DELIVERED
!     0829  0907082131                DELIVERED
      0830  0907082132                DELIVERED
      0831  0907082135                DELIVERED
!     0832  0907082136                DELIVERED
      0833  0907082138                DELIVERED
      0834  0907082140                DELIVERED
!     0835  0907082144                DELIVERED
      0836  0907082143                DELIVERED
      0837  0907082148                DELIVERED
      0838  0907082149                DELIVERED
      0839  0907082152                DELIVERED
      0840  0907082154                DELIVERED
      0841  0907082155                DELIVERED
      0842  0907082158                DELIVERED
      0843  0907082159                DELIVERED
 U    0844  0907082161                DELIVERED
      0845  0907082163                DELIVERED
      0846  0907082164                DELIVERED
      0847  0907082166                DELIVERED
      0848  0907082169                DELIVERED
 U    0849  0907082175                DELIVERED
      0850  0907082180                DELIVERED
 U    0851  0907082182                DELIVERED
 U    0852  0907082185                DELIVERED
      0853  0907082188                DELIVERED
 U    0854  0907082190                DELIVERED
 U    0855  0907082193                DELIVERED
 U    0856  0907082196                DELIVERED
      0857  0907082197                DELIVERED
      0858  0907082198                DELIVERED
      0859  0907082199                DELIVERED
      0860  0907082200                DELIVERED
      0861  0907082204                DELIVERED
      0862  0907082205                DELIVERED
      0863  0907082206                DELIVERED
      0864  0907082208                DELIVERED
      0865  0907082209                DELIVERED
 U    0866  0907082220                DELIVERED
 U    0867  0907082226                DELIVERED
      0868  0907082227                DELIVERED
      0869  0907082228                DELIVERED
      0870  0907082229                DELIVERED
!     0871  0907082231                DELIVERED
 U    0872  0907082232                DELIVERED
      0873  0907082234                DELIVERED
      0874  0907082235                DELIVERED
 U    0875  0907082236                DELIVERED
      0876  0907082238                DELIVERED
 U    0877  0907082239                DELIVERED
      0878  0907082240                DELIVERED
      0879  0907082241                DELIVERED
 U    0880  0907082243                DELIVERED
 U    0881  0907082244                DELIVERED
      0882  0907082245                DELIVERED
!     0883  0907082246                DELIVERED
      0884  0907082249                DELIVERED
 U    0885  0907082251                DELIVERED
      0886  0907082252                DELIVERED
      0887  0907082254                DELIVERED
      0888  0907082256                DELIVERED
      0889  0907082257                DELIVERED
      0890  0907082258                DELIVERED
      0891  0907082259                DELIVERED
      0892  0907082261                DELIVERED
      0893  0907082266                DELIVERED
      0894  0907082267                DELIVERED
      0895  0907082268                DELIVERED
      0896  0907082269                DELIVERED
      0897  0907082272                DELIVERED
*     0898  0907082273                DELIVERED
      0899  0907082276                DELIVERED
      0900  0907082277                DELIVERED
*     0901  0907082283                DELIVERED
      0902  0907082285                DELIVERED
 M    0903  0907082295                DELIVERED
      0904  0907082297                DELIVERED
      0905  0907082309                DELIVERED
      0906  0907082320                DELIVERED
      0907  0907082321                DELIVERED
      0908  0907082329                DELIVERED
      0909  0907082343                DELIVERED
      0910  0907082345                DELIVERED
 C    0911  0907082347                DELIVERED
!     0912  0907082348                DELIVERED
      0913  0907082349                DELIVERED
      0914  0907082350                DELIVERED
      0915  0907082351                DELIVERED
!     0916  0907082352                DELIVERED
      0917  0907082354                DELIVERED
      0918  0907082355                DELIVERED
      0919  0907082356                DELIVERED
      0920  0907082358                DELIVERED
      0921  0907082360                DELIVERED
      0922  0907082362                DELIVERED
      0923  0907082366                DELIVERED
      0924  0907082368                DELIVERED
      0925  0907082371                DELIVERED
      0926  0907082372                DELIVERED
      0927  0907082374                DELIVERED
      0928  0907082375                DELIVERED
      0929  0907082377                DELIVERED
      0930  0907082378                DELIVERED
      0931  0907082379                DELIVERED
FOR CODE ZZB26


NORMAL    : 705
RESEND    : 13
EMERGENCY : 43
CANCEL    : 15
MEET      : 7
NO SHOW   : 7
SURVEY    : 0
UPDATE    : 129
REMARK    : 12
DESIGN    : 0
RETRANSMIT: 0
FAILED    : 0
TOTAL FOR ZZB26: 931




LEGEND
-----------------------
C - CANCEL
! - EMERGENCY
M - MEET
  - NORMAL
N - NO SHOW
* - RESEND
S - SURVEY
V - VOID
U - UPDATE
R - REMARK
D - DESIGN

