
 
 (DIGTRACK - ORANGE & ROCKLAND UTILS) 

THE FOLLOWING MESSAGE NUMBERS WERE TRANSMITTED TO YOU TODAY.
10/21/2013               STATION: Premier
STATE: NJ
NJ132940408         00010
NJ132940433         00011
NJ132940468         00012
NJ132940644         00013
NJ132940679         00014
NJ132940826         00015
NJ132940816         00016
NJ132940714         00017
NJ132940928         00018
NJ132940944         00019
NJ132940119         00001
NJ132940989         00020
NJ132940998         00021
NJ132941087         00022
NJ132941040         00023
NJ132941241         00024
NJ132941004         00025
NJ132941505         00026
NJ132941293         00027
NJ132941542         00028
NJ132941615         00029
NJ132940145         00002
NJ132941704         00030
NJ132941711         00031
NJ132941726         00032
NJ132941763         00033
NJ132941859         00034
NJ132941861         00035
NJ132941868         00036
NJ132941921         00037
NJ132942074         00038
NJ132942022         00039
NJ132940165         00003
NJ132942384         00040
NJ132942403         00041
NJ132942401         00042
NJ132942406         00043
NJ132942399         00044
NJ132942676         00045
NJ132942734         00046
NJ132942746         00047
NJ132940187         00004
NJ132940173         00005
NJ132940262         00006
NJ132940338         00007
NJ132940448         00008
NJ132940426         00009

TOTAL = 00047
