 (DIGTRACK - ORANGE & ROCKLAND UTILS) 

THE FOLLOWING MESSAGE NUMBERS WERE TRANSMITTED TO YOU TODAY.
12/12/2013               STATION: UtiliQ-NJ
STATE: NJ
NJ133460509         00010
NJ133460543         00011
NJ133460600         00012
NJ133460768         00013
NJ133460832         00014
NJ133461068         00015
NJ133461141         00016
NJ133461044         00017
NJ133461188         00018
NJ133461218         00019
NJ133451483         00001
NJ133461260         00020
NJ133461263         00021
NJ133461280         00022
NJ133461325         00023
NJ133461398         00024
NJ133461399         00025
NJ133461449         00026
NJ133461450         00027
NJ133461460         00028
NJ133461472         00029
NJ133460164         00002
NJ133461454         00030
NJ133461526         00031
NJ133461554         00032
NJ133460219         00003
NJ133460302         00004
NJ133460338         00005
NJ133460342         00006
NJ133460366         00007
NJ133460499         00008
NJ133460494         00009

TOTAL = 00032
