
ATTD28SD 00227A USAS 04/03/12 14:55:56 A20660235-01A NORM UPDT GRID

Ticket : A20660235  Date: 04/03/12 Time: 14:54 Oper: CLA Chan: 100
Old Tkt: A20660235  Date: 03/06/12 Time: 08:52 Oper: MLC Revision: 01A

Company: A M ORTEGA CONSTRUCTION        Caller: LUIS CASTILLO
Co Addr: 10125 CHANNEL RD
City&St: LAKESIDE, CA                   Zip: 92040      Fax: 619-390-1941
Phone: 619-571-6468 Ext:      Call back: ANYTIME
Formn: LUIS CASTILLO
Email: DAVIDH@AMORTEGA.COM

State: CA County: SAN DIEGO       Place: SAN DIEGO
Delineated: Y
Delineated Method: WHITEPAINT
Address:             Street:ISLAND AVE
X/ST 1 : 28TH ST
MPM 1:             MPM 2:
Locat: S/SIDE ISLAND AVE AT APPROX 60FT W/OF  28TH ST

Excav Enters Into St/Sidewalk: Y

Grids: 1289D034     1289D042     1289E033     1289E041
Lat/Long  : 32.711157/-117.134213 32.710699/-117.133439
          : 32.710482/-117.134613 32.710023/-117.133838
Caller GPS:

Boring: N  Explosives: N  Vacuum: N
Re-Mark: N

Work : ELECTRICAL CONDUIT CONNECTION
Wkend: N  Night: N
Work date: 04/03/12 Time: 14:55 Hrs notc: 000 Work hrs: 000 Priority: 2
Instruct : WORK CONTINUING                Permit: NOT REQUIRED
Done for : SDGE

Tkt Exp: 05/01/12

                                  COMMENTS

**RESEND**UPDATE ONLY-WORK CONT PER RON GOMEZ--[CLA 04/03/12 14:55]

Mbrs : ATTD28SD      COX01  KMEPFUEL02    NEXTG  SDG01  SDGET  SND01

At&t Ticket Id: 25146129   clli code: SNDGCA01