****REGULAR****
DIG REQUEST from DSNY for: CBLVSN W NYACK Taken: 06/13/2012 10:29
To: UTILIQUEST / PRIMARY Transmitted: 06/13/2012 10:36 00021

Ticket: 06132-162-025-00 Type: Regular Previous Ticket:
------------------------------------------------------------------------------
State: NY County: ROCKLAND Place: WEST HAVERSTRAW /V
Addr: From: To: Name: TANNEYANNS LN
Cross: From: To: Name: MACKEY CT
Offset:

State: NY County: ROCKLAND Place: WEST HAVERSTRAW /V
Addr: From: To: Name: TANNEYANNS LN
Cross: From: To: Name: RAILROAD AVE E
       : PREVIOUS TICKET #03122-170-052
       :
       :
       : DEPTH OF EXCAVATION AND LENGTH / WIDTH OF SITE UNKNOWN
       : CALLER UPDATING TICKET FOR NEW START DATE/TIME
       : 03232-145-028
       :
       : ***CALLER REQUESTING THAT ALL UTILITIES PLEASE RE-MARK***
       : PREVIOUS TICKET #04052-044-030
       : Lookup Type: MANUAL
------------------------------------------------------------------------------

Members: CBLVSN W NYACK GENON BOWLINE
      : JNT REG SWR BRD O&R UTILS / RCK-ORNG
      : UNI WTR NEW YRK BELL-VALHALLA / HDSN VLY
      : VIL W HVERSTRAW


