# QMANTWO-102

formats: Colorado
source: tickets/FCO2-2015-11-09/FCO2-2015-11-09-10-26-59-861-TDBHY-modified2.txt

- transmit_date: 2015-11-09 08:24:00
- kind: NORMAL
- ticket_number: A531300318-00A
- ticket_type: NORM NEW STRT LREQ

? [x.client_code for x in t.locates]
! ['FAKE99']
