
INLEMPUTA 00009A USAS 04/24/13 11:27:01 A31140601-00A RUSH NEW GRID

Ticket : A31140601  Date: 04/24/13 Time: 11:21 Oper: LMC Chan: 100
Old Tkt: A31140601  Date: 04/24/13 Time: 11:26 Oper: LMC Revision: 00A

Company: INTERNATIONAL LINE BUILDERS    Caller: MARECIO SOLTERO
Co Addr: PO BOX 3039
City&St: RIVERSIDE, CA                  Zip: 92519
Phone: 951-682-2982 Ext:      Call back: 6AM - 3:30PM
Formn: MARECIO              Phone: 951-295-6177 Ext: CELL

State: CA County: SAN BERNARDINO  Place: CHINO
Delineated: Y
Delineated Method: WHITEPAINT
Address: 4126        Street:BERNARDO CT
X/ST 1 : PRECIADO AVE
MPM 1:             MPM 2:
Locat: CREW ON SITE NOW

Excav Enters Into St/Sidewalk: N

Grids: 0681D014
Lat/Long  : 34.010608/-117.715298 34.010675/-117.714112
          : 34.009505/-117.715236 34.009572/-117.714049
Caller GPS:

Boring: N  Explosives: N  Vacuum: N
Re-Mark: N

Work : EMERGENCY REPLACE ELECT CONDUIT DUE TO ELECT OUTAGE
Wkend: N  Night: N
Work date: 04/24/13 Time: 11:22 Hrs notc: 000 Work hrs: 000 Priority: 0
Instruct : NOW                            Permit: NOT REQUIRED
Done for : SC EDISON

Tkt Exp: 05/22/13

Mbrs : CHI01  INLEMPUTA     SCG1OD USCE34 UTWCCHNO      UVZPOM




DigAlert Group



,  
Tel: (909) 993-
Fax: 
Email: digalert@ieua.org
http://www.ieua.org