
INLEMPUTA 00003A USAS 04/22/13 09:45:20 A22090354-18A REMK REMK GRID

Ticket : A22090354  Date: 04/22/13 Time: 09:42 Oper: KKP Chan: 100
Old Tkt: A22090354  Date: 07/27/12 Time: 10:43 Oper: LRL Revision: 18A

Company: M S L                          Caller: KEVIN MOORE
Co Addr: 4580 N EISENHOWER CIRCLE
City&St: ANAHEIM, CA                    Zip: 92807      Fax: 714-693-4838
Phone: 714-693-4837 Ext:      Call back: 7-4
Formn: MIKE                 Phone: 714-863-8529
Email: KEVIN@MSLELECTRIC.COM

State: CA County: SAN BERNARDINO  Place: CHINO
Delineated: Y
Delineated Method: WHITEPAINT
Address:             Street:PINE AVE
X/ST 1 : W PRESERVE LOOP
MPM 1:             MPM 2:
Locat: FROM THE CENTERLINE TO THE S/RIGHT OF WAY ON PINE AVE FROM W PRESERVE
     : LOOP AND CONT E/TO THE W/SIDE OF HELLMAN AVE;

Excav Enters Into St/Sidewalk: Y

Grids: 0712F01      0712G0112    0712H011
Lat/Long  : 33.960501/-117.610941 33.959608/-117.610842
          : 33.958573/-117.628253 33.957680/-117.628154
Caller GPS:

Boring: N  Explosives: N  Vacuum: N
Re-Mark: Y
Re-Mark Type: WATER

Work : TRENCH TO INSTALL ELECTRIC CONDUIT
Wkend: N  Night: N
Work date: 04/22/13 Time: 09:45 Hrs notc: 000 Work hrs: 000 Priority: 2
Instruct : REQUEST REMARKS                Permit: NOT REQUIRED
Done for : ALL AMERICAN ASPHALT

Tkt Exp: 05/20/13

                                  COMMENTS

**RESEND**UPDATE ONLY-WORK CONT PER MSL ELECTRIC--[MSL222 08/20/12 07:49]
**RESEND**UPDATE ONLY-WORK CONT PER MSL ELECTRIC--[MSL222 09/13/12 09:53]
**RESEND**UPDATE ONLY-WORK CONT PER MSL ELECTRIC--[MSL222 10/10/12 07:05]
**RESEND**UPDATE ONLY-WORK CONT PER MSL ELECTRIC--[MSL222 11/07/12 09:36]
**RESEND**UPDATE ONLY-WORK CONT PER MSL ELECTRIC--[MSL222 12/03/12 08:22]
**RESEND**UPDATE ONLY-WORK CONT PER MSL ELECTRIC--[MSL222 12/26/12 07:05]
**RESEND**UPDATE ONLY-WORK CONT PER BRYAN BALLACHEY--[WEBU 01/18/13 07:58]
**RESEND**UPDATE ONLY-WORK CONT PER BRYAN BALLACHEY--[WEBU 02/14/13 10:45]
**RESEND**UPDATE ONLY-WORK CONT PER BRYAN BALLACHEY--[WEBU 03/12/13 12:53]
**RESEND**REQUEST REMARKS FROM ALL-WORK CONT PER BRYAN BALLACHEY--[WEBU 03/21/13
10:25]
**RESEND**UPDATE ONLY-WORK CONT PER BRYAN BALLACHEY--[WEBU 03/27/13 11:08]
**RESEND**REQUEST REMARKS FROM ALL-WORK CONT REQ A MEETING ON 4/1 BTWN 7AM-8AM,
PLEASE CALL JESSE @ 714-450-2898 TO CONFIRM OR WITH POSSIBLE ETA PER BRIAN--[KAW
03/27/13 15:08]
**RESEND**REQUEST REMARKS FROM TELEPHONE, ELECTRIC, WATER-WORK CONT REQ WATER,
SC EDISON, & VERIZON TO REMARK, PLEASE USE OFF-SETS, IF ANY QUESTIONS CAN MEET
JESSE HERNDNADEZ TOMORROW TO CALL JESSE HERNANDEZ AT #(714) 450-2898, PER
JESSE--[LOR 04/02/13 10:50]
**RESEND**CALLER IS CONCERED WITH THE RECLAIMED LINES THAT NEED TO BE MARKED ON
SITE. PER JESSE--[EMB 04/02/13 12:10]
**RESEND**UPDATE ONLY-WORK CONT PER BRYAN BALLACHEY--[WEBU 04/04/13 07:59]
**RESEND**REQUEST REMARKS FROM ALL-WORK CONT PER JESSE HERNANDEZ--[NHR 04/12/13
14:45]
**RESEND**REQUEST REMARKS FROM TELEPHONE,GAS,ELECTRIC,CABLE TV-WORK CONT
INSTALLING CONDUIT FROM WESTPRESERV LOOP ON PINE AVE ,BOTH SIDES OF STREET TO
HELLMAN APROX TOTAL 5000 FEET MOSTLY CONCERN FOR EDISON, TV, VERIZON & GAS PER
MIKE MOORE--[WEBU 04/18/13 21:29]
**RESEND**REQUEST REMARKS FROM WATER-WORK CONT CALLER REQ MEET AND REMARK ON TUE
4-23-13 AT 7AM FOR RECLAIMED WATER LINES PER JESSE--[KKP 04/22/13 09:45]

Mbrs : ATTDSOUTH     INLEMPUTA     SAW01  SCG1CO SCG1OD UCHARCM       USCE34
UVZPOM WMW01




DigAlert Group



,  
Tel: (909) 993-
Fax: 
Email: digalert@ieua.org
http://www.ieua.org