
INLEMPUTA 00002B USAS 04/23/13 09:57:15 A30320587-07B NORM UPDT GRID

Ticket : A30320587  Date: 04/23/13 Time: 09:57 Oper: WEBU Chan: WEB
Old Tkt: A30320587  Date: 02/01/13 Time: 11:26 Oper: MLC Revision: 07B

Company: DOWNING CONSTRUCTION           Caller: AMANDA
Co Addr: 35018 YUCAIPA BLVD
City&St: YUCAIPA, CA                    Zip: 92399      Fax: 909-797-7755
Phone: 909-797-7444 Ext:      Call back: 7-430
Formn: RUSTIN MARION        Phone: 951-968-5031
Email: AMANDA@DOWNINGCONSTRUCTION.COM

State: CA County: SAN BERNARDINO  Place: CHINO
Delineated: Y
Delineated Method: WHITEPAINT
Address:             Street:MOUNTAIN AVE
X/ST 1 : BICKMORE AVE
MPM 1:             MPM 2:
Locat: BOTH SIDES RIGHT OF WAY TO RIGHT OF WAY ON MOUNTAIN AVE APPROX 450FT N/OF
     : BICKMORE AVE THEN CONT S/BACK TO BICKMORE AVE ALSO BOTH SIDES BICKMORE
     : AVE FRM MOUNTAIN AVE CONT E/FOR APPROXIMATELY 4125FT  (  DIRECT NOTIFY
     : INLAND EMPIRE UTILITY AGENCEY PER CALLERS REQUEST)

Excav Enters Into St/Sidewalk: Y

Grids: 0712A012     0712B0112    0712C011
Lat/Long  : 33.961770/-117.667445 33.961674/-117.653120
          : 33.959703/-117.667459 33.959606/-117.653134
Caller GPS:

Boring: N  Explosives: N  Vacuum: N
Re-Mark: N

Work : INSTALL RAW WATER LINE
Wkend: N  Night: N
Work date: 04/23/13 Time: 09:57 Hrs notc: 000 Work hrs: 001 Priority: 2
Instruct : WORK CONTINUING                Permit: NOT REQUIRED
Done for : CHINO BASIN DESALTER AUTHORITY

Tkt Exp: 05/21/13

                                  COMMENTS

**RESEND**UPDATE ONLY-WORK CONT PER AMANDA ELLWANGER--[WEBU 02/14/13 08:00]
**RESEND**ADDING DIRECT NOTIFICATION FOR INLAND EMPIRE UTILITY AGENCY AND
REQUEST MEET TOMORROW 2/20 AT 9AM PLEASE CALL 951-968-5031 TO CONFIRM PER
RUSS--[NHR 02/19/13 15:35]
**RESEND**REQUEST REMARKS FROM WATER-WORK CONT REQUESTING MEET FOR REMARKS FROM
ALL MEMBERS FOR RECLAIMED WATER  TOMORROW 2/22 AT 8AM AT INTER OF BICKMORE AVE
AND SAN ANTONIO AVE PER RUSS--[NHR 02/21/13 15:44]
**RESEND**CALLER CONCERNED STILL NO SHOW FOR MEET FRM WATER (RECLAIMED WATER) &
ALSO REQ UTILIQUEST FOR S C EDISON TO PLEASE RESPOND NOW TO REVALIDATE MARKINGS
....PLEASE CALL RUSS AT 951/968-5031 WITH ETA   (CREW ON SITE) .... PER
RUSS--[CJD 02/22/13 09:58]
**RESEND**UPDATE ONLY-WORK CONT PER AMANDA ELLWANGER--[WEBU 03/01/13 09:30]
**RESEND**UPDATE ONLY-WORK CONT PER AMANDA ELLWANGER--[WEBU 03/29/13 09:57]
**RESEND**UPDATE ONLY-WORK CONT PER AMANDA ELLWANGER--[WEBU 04/23/13 09:57]

Mbrs : CHI01  CIW    INLEMPUTA     SCG1OD USCE34 UVZPOM WMW01
