
INLEMPUTA 00010B USAS 04/22/13 08:30:21 A30320840-04B NORM UPDT GRID

Ticket : A30320840  Date: 04/22/13 Time: 08:30 Oper: WEBU Chan: WEB
Old Tkt: A30320840  Date: 02/01/13 Time: 13:39 Oper: BSV Revision: 04B

Company: CASS CONSTRUCTION              Caller: MIKE KELLERMAN
Co Addr: PO BOX 309
City&St: EL CAJON, CA                   Zip: 92022
Phone: 909-208-5151 Ext:      Call back: 7-5
Formn: MIKE KELLERMAN       Phone: 909-208-5151
Email: APARRAVANO@CASSCONTRUCTION.COM

State: CA County: SAN BERNARDINO  Place: ONTARIO
Delineated: Y
Delineated Method: WHITEPAINT
Address:             Street:E INLAND EMPIRE BLVD
X/ST 1 : N TURNER AVE
MPM 1:             MPM 2:
Locat: PROPERTY LINE TO PROPERTY LINE ON E INLAND EMPIRE BLVD FRM APPROXIMATELY
     : 1300FT W/OF N TURNER AVE CONT W/FOR APPROXIMATELY 30FT

Excav Enters Into St/Sidewalk: Y

Grids: 0603A063     0603A071
Lat/Long  : 34.070771/-117.589392 34.070433/-117.588401
          : 34.070010/-117.589651 34.069672/-117.588661
Caller GPS:

Boring: N  Explosives: N  Vacuum: N
Re-Mark: N

Work : INSTALL DRY UTILITIES
Wkend: N  Night: N
Work date: 04/22/13 Time: 08:30 Hrs notc: 000 Work hrs: 001 Priority: 2
Instruct : WORK CONTINUING                Permit: NOT REQUIRED
Done for : BROOKFIELD HOMES

Tkt Exp: 05/20/13

                                  COMMENTS

**RESEND**REQUEST REMARKS FROM ALL-WORK CONT PER MIKE KELLERMAN--[MKD 02/20/13
13:42]
**RESEND**UPDATE ONLY-WORK CONT PER CHERI--[LMC 02/27/13 12:34]
**RESEND**UPDATE ONLY-WORK CONT PER ANGIE PARRAVANO--[WEBU 03/26/13 15:05]
**RESEND**UPDATE ONLY-WORK CONT PER ANGIE PARRAVANO--[WEBU 04/22/13 08:30]

Mbrs : ATTDSOUTH     CUC01  INLEMPUTA     ONTWTRSWR     SCG1OD UROCMGA
USCE34 UVZRCC




DigAlert Group



,  
Tel: (909) 993-
Fax: 
Email: digalert@ieua.org
http://www.ieua.org