
INLEMPUTA 00008B USAS 04/22/13 08:29:36 A31060407-02B NORM UPDT GRID

Ticket : A31060407  Date: 04/22/13 Time: 08:29 Oper: WEBU Chan: WEB
Old Tkt: A31060407  Date: 04/16/13 Time: 10:03 Oper: CJD Revision: 02B

Company: CASS CONSTRUCTION INC          Caller: MIKE
Co Addr: 1100 WAGNER DR
City&St: EL CAJON, CA                   Zip: 92020      Fax: 619-590-1202
Phone: 619-590-0929 Ext:      Call back: ANYTIME
Formn: MIKE                 Phone: 909-208-5151
Email: APARRAVANO@CASSCONSTRUCTION.COM

State: CA County: SAN BERNARDINO  Place: ONTARIO
Delineated: Y
Delineated Method: WHITEPAINT
Address:             Street:N TURNER AVE
X/ST 1 : E INLAND EMPIRE BLVD
MPM 1:             MPM 2:
Locat: MARK PROPERTY LINE TO PROPERTY LINE ON N TURNER AVE (MOST EAST) STARTING
     : APPROX 1600FT N/OF E INLAND EMPIRE BLVD CONT N/FOR APPROX 60FT;
     : (POSSIBLE CLOSER X/ST E JAGUAR WAY PER MAP)

Excav Enters Into St/Sidewalk: Y

Grids: 0603A062
Lat/Long  : 34.075263/-117.584793 34.074802/-117.584001
          : 34.074582/-117.585189 34.074121/-117.584397
Caller GPS:

Boring: N  Explosives: N  Vacuum: N
Re-Mark: N

Work : INSTALL WATER LINE
Wkend: N  Night: N
Work date: 04/22/13 Time: 08:29 Hrs notc: 000 Work hrs: 001 Priority: 2
Instruct : WORK CONTINUING                Permit: NOT REQUIRED
Done for : BROOKFIELD HOMES

Tkt Exp: 05/20/13

                                  COMMENTS

**RESEND**UPDATE ONLY-WORK CONT PER ANGIE PARRAVANO--[WEBU 04/22/13 08:23]
**RESEND**UPDATE ONLY-WORK CONT PER ANGIE PARRAVANO--[WEBU 04/22/13 08:29]

Mbrs : CUC01  INLEMPUTA     ONTWTRSWR     SCG1OD UROCMGA       USCE34 UVZRCC
