
INLEMPUTA 00001B USAS 04/22/13 07:32:52 A30290885-03B NORM UPDT GRID

Ticket : A30290885  Date: 04/22/13 Time: 07:32 Oper: WEBU Chan: WEB
Old Tkt: A30290885  Date: 01/29/13 Time: 14:36 Oper: LLF Revision: 03B

Company: VCI                            Caller: JON SAKAKIBARA
Co Addr: 1921 W 11TH ST
City&St: UPLAND, CA                     Zip: 91786      Fax: 909-946-0924
Phone: 909-946-0905 Ext:      Call back: ANYTIME
Formn: JOHN BRUCE           Phone: 951-757-9084
Email: JSAKAKIBARA@VCICOM.COM

State: CA County: SAN BERNARDINO  Place: ONTARIO
Delineated: Y
Delineated Method: WHITEPAINT
Address:             Street:W 5TH ST
X/ST 1 : N ELDERBERRY AVE
MPM 1:             MPM 2:
Locat: BOTH SIDES (PROPERTY LINE TO PROPERTY LINE) OF W 5TH ST FROM N ELDERBERRY
     : AVE CONT W/FOR APPROXIMATELY 300FT

Excav Enters Into St/Sidewalk: Y

Grids: 0601J053
Lat/Long  : 34.081884/-117.675518 34.081898/-117.673546
          : 34.081067/-117.675512 34.081081/-117.673540
Caller GPS:

Boring: N  Explosives: N  Vacuum: N
Re-Mark: N

Work : INSTALL WATRR PIPELINE/STORM DRAIN & SEWER
Wkend: N  Night: N
Work date: 04/22/13 Time: 07:32 Hrs notc: 000 Work hrs: 001 Priority: 2
Instruct : WORK CONTINUING                Permit: NOT REQUIRED
Done for : S D DEACON CORP

Tkt Exp: 05/20/13

                                  COMMENTS

**RESEND**UPDATE ONLY-WORK CONT PER JOHN--[MLC 02/25/13 08:18]
**RESEND**UPDATE ONLY-WORK CONT PER JOHN--[LRL 03/25/13 08:25]
**RESEND**UPDATE ONLY-WORK CONT PER JON SAKAKIBARA--[WEBU 04/22/13 07:32]

Mbrs : INLEMPUTA     MWD04  ONTWTRSWR     SCG1OD USCE34 UTWCONT       UVZRCC
