
INLEMPUTA 00016A USAS 04/23/13 14:53:03 A31050994-01A RUSH NOSH GRID

Ticket : A31050994  Date: 04/23/13 Time: 14:52 Oper: ADS Chan: 100
Old Tkt: A31050994  Date: 04/15/13 Time: 14:29 Oper: JEM Revision: 01A

Company: THE OAKS APARTMENTS            Caller: RAUL LOPEZ - THE OAKS APARTME
Co Addr: 1265 E 9TH ST
City&St: UPLAND, CA                     Zip: 91786      Fax: 909-985-4977
Phone: 909-560-5117 Ext:      Call back: 7 TO 4
Formn: DERRAL               Phone: 909-946-9835

State: CA County: SAN BERNARDINO  Place: UPLAND
Delineated: N
Address: 1265        Street:E 9TH ST
X/ST 1 : N 13TH AVE
MPM 1:             MPM 2:
Locat: WORK IS BEHIND THE BUILDING, GO THE OFFICE FOR SITE LOCATIONS IF CAN'T
     : FIND MARKING AND ASK FOR PATTY

Excav Enters Into St/Sidewalk: Y

Grids: 0602D0324
Lat/Long  : 34.096541/-117.634709 34.096556/-117.633156
          : 34.095717/-117.634701 34.095732/-117.633148
Caller GPS:

Boring: Y  Explosives: N  Vacuum: N
Re-Mark: N

Work : NEW DRAIN LINE APPROXIMATELY 1FT DEEP
Wkend: N  Night: N
Work date: 04/23/13 Time: 14:52 Hrs notc: 000 Work hrs: 000 Priority: 0
Instruct : NO SHOW                        Permit: NOT REQUIRED
Done for : THE OAKS APARTMENTS

Tkt Exp: 05/21/13

                                  COMMENTS

**RESEND**CALLER ADVISES NO SHOW FROM GAS - REQUESTS GAS MARK ASAP PER
RAUL--[ADS 04/23/13 14:52]

Mbrs : ATTDSOUTH     CUC01  INLEMPUTA     SCG1OD UPW01  USCE34 UTWCONT
UVZRCC




DigAlert Group



,  
Tel: (909) 993-
Fax: 
Email: digalert@ieua.org
http://www.ieua.org