
INLEMPUTA 00007A USAS 04/23/13 08:52:35 A30850487-01A NORM UPDT GRID

Ticket : A30850487  Date: 04/23/13 Time: 08:52 Oper: MLC Chan: 100
Old Tkt: A30420207  Date: 02/11/13 Time: 08:42 Oper: CJD Revision: 01A

Company: SAN BERNARDINO COUNTY FLOOD CONTROL Caller: MIKE FISHER
Co Addr: 825 E 3RD STREET
City&St: SAN BERNARDINO, CA             Zip: 92415      Fax: 909-899-4367
Phone: 909-899-4366 Ext:      Call back: ANYTIME
Formn: MIKE FISHER          Phone: 909-771-4167 Ext: CELL
Email: MIKE.FISHER@DPW.SBCOUNTY.GOV

State: CA County: SAN BERNARDINO  Place: CHINO HILLS
Delineated: Y
Delineated Method: WHITEPAINT
Address:             Street:CARBON CANYON CREEK CHANNEL
X/ST 1 : PIPELINE AVE
MPM 1:             MPM 2:
Locat: MARK BOTH SIDES OF THE CARBON CANYON CREEK CHANNEL FRM PIPELINE AVE CONT
     : W/TO APPROXIMATELY 792FT N/E OF PEYTON DR;   (CARBON CANYON CREEK CHANNEL
     : LOCATED CROSSING PIPELINE AVE AT APPROX 1320FT N/OF CHINO HILLS PKY)

Excav Enters Into St/Sidewalk: N

Grids: 0681C0434    0681D0434    0681E043
Lat/Long  : 33.988297/-117.731277 33.988093/-117.714613
          : 33.985997/-117.731305 33.985792/-117.714642
Caller GPS:

Boring: N  Explosives: N  Vacuum: N
Re-Mark: N

Work : REMOVE DEBRIS & VEGETATION FRM CHANNEL BOTTOM
Wkend: N  Night: N
Work date: 04/23/13 Time: 08:52 Hrs notc: 000 Work hrs: 000 Priority: 2
Instruct : WORK CONTINUING                Permit: NOT REQUIRED
Done for : SAN BERNARDINO COUNTY FLOOD CONTROL

Tkt Exp: 05/21/13

                                  COMMENTS

REF EXP TICKET A030420207, UPDATE ONLY-WORK CONT PER MICHELLE--[CAC 03/26/13
09:55]
**RESEND**UPDATE ONLY-WORK CONT PER MICHELLE--[MLC 04/23/13 08:52]

Mbrs : CHI01  CHIHLS INLEMPUTA     SCG1OD UACRIV USCE34 UTWCCHNO      UVZPOM
