
INLEMPUTA 00004B USAS 04/23/13 10:18:18 A12020172-25B REMK REMK GRID

Ticket : A12020172  Date: 04/23/13 Time: 10:18 Oper: WEBU Chan: WEB
Old Tkt: A11450438  Date: 06/22/11 Time: 11:46 Oper: LLF Revision: 25B

Company: SIERRA PACIFIC ELECTRIC        Caller: MARY WHITE
Co Addr: 2542 AVALON ST
City&St: RIVERSIDE, CA                  Zip: 92509      Fax: 951-784-4489
Phone: 951-784-1410 Ext:      Call back: 8AM-5PM
Formn: DAVID
Email: MARY@SIERRAPACIFICELECTRICAL.COM

State: CA County: SAN BERNARDINO  Place: ONTARIO
Delineated: Y
Delineated Method: WHITEPAINT
Address:             Street:N MILLIKEN AVE
X/ST 1 : E GUASTI RD
MPM 1:             MPM 2:
Locat: FROM THE S/E/CORNER OF N MILLIKEN AVE AND E GUASTI RD (MARK FROM ECR TO
     : BCR), EXTENDING S/ON E/SIDE OF MILLIKEN AVE FOR APPROX 120FT

Excav Enters Into St/Sidewalk: Y

Grids: 0603D074
Lat/Long  : 34.064489/-117.558629 34.064430/-117.557640
          : 34.063341/-117.558697 34.063282/-117.557709
Caller GPS:

Boring: Y  Explosives: N  Vacuum: Y
Re-Mark: Y
Re-Mark Type: TELEPHONE,ELECTRIC

Work : INSTALL TRAFFIC SIGNAL
Wkend: N  Night: N
Work date: 04/23/13 Time: 10:18 Hrs notc: 000 Work hrs: 001 Priority: 2
Instruct : REQUEST REMARKS                Permit: NOT REQUIRED
Done for : CC MEYERS

Tkt Exp: 05/21/13

                                  COMMENTS

REF EXP TICKET A011450438, UPDATE ONLY-WORK CONT PER MARY--[ZIM 07/21/11 08:40]
**RESEND**UPDATE ONLY-WORK CONT PER MARY--[LMC 08/18/11 12:35]
**RESEND**UPDATE ONLY-WORK CONT PER MARY--[LMC 09/15/11 09:30]
**RESEND**UPDATE ONLY-WORK CONT PER MARY--[SRT 10/13/11 08:42]
**RESEND**UPDATE ONLY-WORK CONT PER MARY--[EMB 11/10/11 10:28]
**RESEND**UPDATE ONLY-WORK CONT PER MARY--[CJD 12/08/11 08:14]
**RESEND**UPDATE ONLY-WORK CONT PER MARY--[ADS 01/05/12 12:03]
**RESEND**UPDATE ONLY-WORK CONT PER MARY--[EMB 02/02/12 11:54]
**RESEND**UPDATE ONLY-WORK CONT PER MARY--[EMB 03/01/12 11:36]
**RESEND**UPDATE ONLY-WORK CONT PER MARY--[KAW 03/29/12 12:41]
**RESEND**UPDATE ONLY-WORK CONT PER MARY--[CLA 04/26/12 10:56]
**RESEND**UPDATE ONLY-WORK CONT PER MARY--[LLF 05/24/12 15:13]
**RESEND**UPDATE ONLY-WORK CONT PER MARY--[MLC 06/21/12 11:47]
**RESEND**UPDATE ONLY-WORK CONT PER MARY--[EMB 07/19/12 10:45]
**RESEND**UPDATE ONLY-WORK CONT PER MARY--[LLF 08/16/12 12:20]
**RESEND**UPDATE ONLY-WORK CONT PER MARY--[EMB 09/13/12 15:03]
**RESEND**UPDATE ONLY-WORK CONT PER MARY--[SPEC1 10/11/12 12:37]
**RESEND**UPDATE ONLY-WORK CONT PER MARY--[SPEC1 11/08/12 14:26]
**RESEND**UPDATE ONLY-WORK CONT PER MARY--[SPEC1 12/06/12 12:11]
**RESEND**UPDATE ONLY-WORK CONT PER MARY--[MMD 01/02/13 11:58]
**RESEND**REQUEST REMARKS FROM ALL-WORK CONT PER MARY--[ADS 01/23/13 13:31]
**RESEND**UPDATE ONLY-WORK CONT PER MARY WHITE--[WEBU 02/20/13 13:18]
**RESEND**UPDATE ONLY-WORK CONT PER MARY WHITE--[WEBU 03/20/13 11:12]
**RESEND**REQUEST REMARKS FROM TELEPHONE, WATER-WORK CONT CALLER REQ MEET AND
REMARK ON 3-29-13 AT 11AM -CONTACT MIKE AT 951-830-1781 TO CONFIRM PER
MARK--[KKP 03/28/13 14:21]
**RESEND**UPDATE ONLY-WORK CONT PER MARY WHITE--[WEBU 04/17/13 11:24]
**RESEND**REQUEST REMARKS FROM TELEPHONE,ELECTRIC-WORK CONT REQUESTING REMARKS
ON THE SOUTH SIDE OF THE INTERSECTION ON MILIKEN. MARKS NO LONGER VISIBLE.
CONTACT FOREMAN, MIKE GEHL (951) 830-1781 FOR MORE INFORMATION PER PATIENCE
SPINA--[WEBU 04/23/13 10:18]

Mbrs : ATTDSOUTH     INLEMPUTA     KINDER4B00    LVL3CM MCISOCAL      ONTRAF
ONTWTRSWR     PACPIPK       SCE17  SCG1OD TWTIE  TWTLH  UACRIV USCE34 UTWCONT
UVZRCC
