
 (DIGTRACK - ORANGE & ROCKLAND UTILS) 

THE FOLLOWING MESSAGE NUMBERS WERE TRANSMITTED TO YOU TODAY.
12/12/2013               STATION: UtiliQ-NY
STATE: NY
12123-500-005-00    00001
12123-500-006-00    00002
12123-154-015-00    00003
12123-040-028-00    00004

TOTAL = 00004
