﻿<?xml version="1.0" encoding="utf-8" standalone="yes"?>
<XML Type="WorkOrder">
  <INTERNALNUMBER>V0002901</INTERNALNUMBER>
  <TYPE>NORMAL</TYPE>
  <JOBID>E7019800</JOBID>
  <ORDERNUMBER>BMDB82O00</ORDERNUMBER>
  <DUEDATE>3/9/2011 11:00:00 PM</DUEDATE>
  <MON />
  <ISSUEDATE>3/1/2011 10:44:00 AM</ISSUEDATE>
  <CUSTOMERNAME>DARIUS HIGGS</CUSTOMERNAME>
  <CUSTOMERADDRESS>13208 MAPLE GROVE AV</CUSTOMERADDRESS>
  <CUSTOMERCITY>REISTERSTOWN</CUSTOMERCITY>
  <CUSTOMERSTATE>MD</CUSTOMERSTATE>
  <CUSTOMERZIP>21136</CUSTOMERZIP>
  <CUSTOMERCONTACTNUMBER />
  <CUSTOMERBTN>(999) 999-9999</CUSTOMERBTN>
  <WIRECENTER>410429</WIRECENTER>
  <WORKCENTER>22</WORKCENTER>
  <CO>1222</CO>
  <SERVINGTERMINAL>P4 F13208 MAPLE GROVE AV</SERVINGTERMINAL>
  <TERMINALGPS>39.489152 / -76.827807</TERMINALGPS>
  <MAP>4457</MAP>
  <GRID>H2</GRID>
  <CIRCUITID>11/BURY/B82O00/ /VZMD</CIRCUITID>
  <F2CABLE>H1001</F2CABLE>
  <TERMINALPORT>1</TERMINALPORT>
  <F2PAIR>210</F2PAIR>
</XML>