﻿<?xml version="1.0" encoding="utf-8" standalone="yes"?>
<XML Type="WorkOrder">
  <INTERNALNUMBER>V0002995</INTERNALNUMBER>
  <TYPE>NORMAL</TYPE>
  <JOBID>E7022420</JOBID>
  <ORDERNUMBER>BMDAG2O00</ORDERNUMBER>
  <DUEDATE>3/18/2011 11:00:00 PM</DUEDATE>
  <MON>MD00081454032</MON>
  <ISSUEDATE>3/1/2011 4:53:00 PM</ISSUEDATE>
  <CUSTOMERNAME>SOOD AVINASH</CUSTOMERNAME>
  <CUSTOMERADDRESS>219 E DEER PARK DR</CUSTOMERADDRESS>
  <CUSTOMERCITY>GAITHERSBURG</CUSTOMERCITY>
  <CUSTOMERSTATE>MD</CUSTOMERSTATE>
  <CUSTOMERZIP>20877</CUSTOMERZIP>
  <CUSTOMERCONTACTNUMBER>(301) 595-4490</CUSTOMERCONTACTNUMBER>
  <CUSTOMERBTN>(301) 926-2283</CUSTOMERBTN>
  <WIRECENTER>301926</WIRECENTER>
  <WORKCENTER>22</WORKCENTER>
  <CO>1222</CO>
  <SERVINGTERMINAL>HH F219 E DEER PARK DR</SERVINGTERMINAL>
  <TERMINALGPS>39.137031 / -77.180665</TERMINALGPS>
  <MAP>5048</MAP>
  <GRID>A9</GRID>
  <CIRCUITID>11/BURY/AG2O00/ /VZMD</CIRCUITID>
  <F2CABLE>H3007</F2CABLE>
  <TERMINALPORT>4</TERMINALPORT>
  <F2PAIR>16</F2PAIR>
</XML>