﻿<?xml version="1.0" encoding="utf-8" standalone="yes"?>
<XML Type="WorkOrder">
  <INTERNALNUMBER>V0002847</INTERNALNUMBER>
  <TYPE>NORMAL</TYPE>
  <JOBID>E7018220</JOBID>
  <ORDERNUMBER>BMDJ32O00</ORDERNUMBER>
  <DUEDATE>3/7/2011 11:00:00 PM</DUEDATE>
  <MON>MD00091749316</MON>
  <ISSUEDATE>2/28/2011 6:52:00 PM</ISSUEDATE>
  <CUSTOMERNAME>KUO LIN</CUSTOMERNAME>
  <CUSTOMERADDRESS>14410 PEBBLE HILL LN</CUSTOMERADDRESS>
  <CUSTOMERCITY>GAITHERSBURG</CUSTOMERCITY>
  <CUSTOMERSTATE>MD</CUSTOMERSTATE>
  <CUSTOMERZIP>20878</CUSTOMERZIP>
  <CUSTOMERCONTACTNUMBER>(240) 421-4109</CUSTOMERCONTACTNUMBER>
  <CUSTOMERBTN>(A04) 107-8770</CUSTOMERBTN>
  <WIRECENTER>301251</WIRECENTER>
  <WORKCENTER>22</WORKCENTER>
  <CO>1222</CO>
  <SERVINGTERMINAL>HH 14410 PEBBLE HILL LN</SERVINGTERMINAL>
  <TERMINALGPS>39.093660 / -77.243871</TERMINALGPS>
  <MAP>5163</MAP>
  <GRID>B5</GRID>
  <CIRCUITID>11/BURY/J32O00/ /VZMD</CIRCUITID>
  <F2CABLE>H4099</F2CABLE>
  <TERMINALPORT>3</TERMINALPORT>
  <F2PAIR>107</F2PAIR>
</XML>