﻿<?xml version="1.0" encoding="utf-8" standalone="yes"?>
<XML Type="WorkOrder">
  <INTERNALNUMBER>V0002946</INTERNALNUMBER>
  <TYPE>NORMAL</TYPE>
  <JOBID>E7020970</JOBID>
  <ORDERNUMBER>BMDRB2O00</ORDERNUMBER>
  <DUEDATE>3/8/2011 11:00:00 PM</DUEDATE>
  <MON>MD00091507683</MON>
  <ISSUEDATE>3/1/2011 1:48:00 PM</ISSUEDATE>
  <CUSTOMERNAME>SHELLEY THORNE</CUSTOMERNAME>
  <CUSTOMERADDRESS>2382 AUDREY MANOR CT</CUSTOMERADDRESS>
  <CUSTOMERCOUNTY>CHARLES</CUSTOMERCOUNTY>
  <CUSTOMERCITY>WALDORF</CUSTOMERCITY>
  <CUSTOMERSTATE>MD</CUSTOMERSTATE>
  <CUSTOMERZIP>20603</CUSTOMERZIP>
  <CUSTOMERCONTACTNUMBER>(999) 999-9999</CUSTOMERCONTACTNUMBER>
  <CUSTOMERBTN>(301) 645-7917</CUSTOMERBTN>
  <WIRECENTER>301645</WIRECENTER>
  <WORKCENTER>22</WORKCENTER>
  <CO>1222</CO>
  <SERVINGTERMINAL>HH24X36 F2352 AUDREY MANOR CT</SERVINGTERMINAL>
  <TERMINALGPS>38.646819 / -76.998440</TERMINALGPS>
  <MAP>5997</MAP>
  <GRID>A7</GRID>
  <CIRCUITID>11/BURY/RB2O00/ /VZMD</CIRCUITID>
  <F2CABLE>H4026</F2CABLE>
  <TERMINALPORT>3</TERMINALPORT>
  <F2PAIR>115</F2PAIR>
</XML>