﻿<?xml version="1.0" encoding="utf-8" standalone="yes"?>
<XML Type="WorkOrder">
  <INTERNALNUMBER>V0002904</INTERNALNUMBER>
  <TYPE>NORMAL</TYPE>
  <JOBID>E7019850</JOBID>
  <ORDERNUMBER>BMDH82O00</ORDERNUMBER>
  <DUEDATE>3/8/2011 11:00:00 PM</DUEDATE>
  <MON>MD00091497310</MON>
  <ISSUEDATE>3/1/2011 10:47:00 AM</ISSUEDATE>
  <CUSTOMERNAME>BONNIE URBAN</CUSTOMERNAME>
  <CUSTOMERADDRESS>12521 CASWELL LN</CUSTOMERADDRESS>
  <CUSTOMERCOUNTY>PRINCE GEORGES</CUSTOMERCOUNTY>
  <CUSTOMERCITY>BOWIE</CUSTOMERCITY>
  <CUSTOMERSTATE>MD</CUSTOMERSTATE>
  <CUSTOMERZIP>20715</CUSTOMERZIP>
  <CUSTOMERCONTACTNUMBER>(703) 126-9864</CUSTOMERCONTACTNUMBER>
  <CUSTOMERBTN>(301) 262-8012</CUSTOMERBTN>
  <WIRECENTER>301262</WIRECENTER>
  <WORKCENTER>22</WORKCENTER>
  <CO>1222</CO>
  <SERVINGTERMINAL>HH12519 CASWELL LN</SERVINGTERMINAL>
  <TERMINALGPS>38.987605 / -76.743260</TERMINALGPS>
  <MAP>5413</MAP>
  <GRID>A3</GRID>
  <CIRCUITID>11/BURY/H82O00/ /VZMD</CIRCUITID>
  <F2CABLE>H2011</F2CABLE>
  <TERMINALPORT>2</TERMINALPORT>
  <F2PAIR>89</F2PAIR>
</XML>