﻿<?xml version="1.0" encoding="utf-8" standalone="yes"?>
<XML Type="WorkOrder">
  <INTERNALNUMBER>V0002949</INTERNALNUMBER>
  <TYPE>NORMAL</TYPE>
  <JOBID>E7021120</JOBID>
  <ORDERNUMBER>BMD9C2O00</ORDERNUMBER>
  <DUEDATE>3/24/2011 11:00:00 PM</DUEDATE>
  <MON>MD00091510286</MON>
  <ISSUEDATE>3/1/2011 2:45:00 PM</ISSUEDATE>
  <CUSTOMERNAME>LaVerne Dean</CUSTOMERNAME>
  <CUSTOMERADDRESS>538 MOUNT LUBENTIA CT E</CUSTOMERADDRESS>
  <CUSTOMERCOUNTY>PRINCE GEORGES</CUSTOMERCOUNTY>
  <CUSTOMERCITY>UPPER MARLBORO</CUSTOMERCITY>
  <CUSTOMERSTATE>MD</CUSTOMERSTATE>
  <CUSTOMERZIP>20774</CUSTOMERZIP>
  <CUSTOMERCONTACTNUMBER>(301) 908-4093</CUSTOMERCONTACTNUMBER>
  <CUSTOMERBTN>(301) 336-7818</CUSTOMERBTN>
  <WIRECENTER>301350</WIRECENTER>
  <WORKCENTER>22</WORKCENTER>
  <CO>1222</CO>
  <SERVINGTERMINAL>R538 MT LUBENTIA</SERVINGTERMINAL>
  <TERMINALGPS>38.880794 / -76.822488</TERMINALGPS>
  <MAP>5531</MAP>
  <GRID>J10</GRID>
  <CIRCUITID>11/BURY/9C2O00/ /VZMD</CIRCUITID>
  <F2CABLE>H2027</F2CABLE>
  <TERMINALPORT>3</TERMINALPORT>
  <F2PAIR>123</F2PAIR>
</XML>