﻿<?xml version="1.0" encoding="utf-8" standalone="yes"?>
<XML Type="WorkOrder">
  <INTERNALNUMBER>V0002827</INTERNALNUMBER>
  <TYPE>NORMAL</TYPE>
  <JOBID>E7017600</JOBID>
  <ORDERNUMBER>BMDP12O00</ORDERNUMBER>
  <DUEDATE>3/9/2011 11:00:00 PM</DUEDATE>
  <MON>MD00091740598</MON>
  <ISSUEDATE>2/28/2011 5:03:00 PM</ISSUEDATE>
  <CUSTOMERNAME>LYNETTE BROOKS</CUSTOMERNAME>
  <CUSTOMERADDRESS>704 CLIFFTOP DR</CUSTOMERADDRESS>
  <CUSTOMERCITY>GAITHERSBURG</CUSTOMERCITY>
  <CUSTOMERSTATE>MD</CUSTOMERSTATE>
  <CUSTOMERZIP>20878</CUSTOMERZIP>
  <CUSTOMERCONTACTNUMBER>(443) 326-0334</CUSTOMERCONTACTNUMBER>
  <CUSTOMERBTN>(301) 926-4160</CUSTOMERBTN>
  <WIRECENTER>301926</WIRECENTER>
  <WORKCENTER>22</WORKCENTER>
  <CO>1222</CO>
  <SERVINGTERMINAL>R640 LAKEWORTH DR</SERVINGTERMINAL>
  <TERMINALGPS>39.122142 / -77.215240</TERMINALGPS>
  <MAP>5163</MAP>
  <GRID>F1</GRID>
  <CIRCUITID>11/BURY/P12O00/ /VZMD</CIRCUITID>
  <F2CABLE>H4012</F2CABLE>
  <TERMINALPORT>2</TERMINALPORT>
  <F2PAIR>38</F2PAIR>
</XML>