﻿<?xml version="1.0" encoding="utf-8" standalone="yes"?>
<XML Type="WorkOrder">
  <INTERNALNUMBER>V0002985</INTERNALNUMBER>
  <TYPE>NORMAL</TYPE>
  <JOBID>E7022540</JOBID>
  <ORDERNUMBER>BMDNG2O00</ORDERNUMBER>
  <DUEDATE>3/18/2011 11:00:00 PM</DUEDATE>
  <MON>MD00091521713</MON>
  <ISSUEDATE>3/1/2011 5:07:00 PM</ISSUEDATE>
  <CUSTOMERNAME>JOAN RAMSAY</CUSTOMERNAME>
  <CUSTOMERADDRESS>8260 QUILL POINT DR</CUSTOMERADDRESS>
  <CUSTOMERCITY>BOWIE</CUSTOMERCITY>
  <CUSTOMERSTATE>MD</CUSTOMERSTATE>
  <CUSTOMERZIP>20720</CUSTOMERZIP>
  <CUSTOMERCONTACTNUMBER>(301) 464-1455</CUSTOMERCONTACTNUMBER>
  <CUSTOMERBTN>(301) 464-1455</CUSTOMERBTN>
  <WIRECENTER>301262</WIRECENTER>
  <WORKCENTER>22</WORKCENTER>
  <CO>1222</CO>
  <SERVINGTERMINAL>HH8258 QUILL POINT DR</SERVINGTERMINAL>
  <TERMINALGPS>38.996902 / -76.785985</TERMINALGPS>
  <MAP>5412</MAP>
  <GRID>E1</GRID>
  <CIRCUITID>11/BURY/NG2O00/ /VZMD</CIRCUITID>
  <F2CABLE>H4037</F2CABLE>
  <TERMINALPORT>4</TERMINALPORT>
  <F2PAIR>202</F2PAIR>
</XML>