﻿<?xml version="1.0" encoding="utf-8" standalone="yes"?>
<XML Type="WorkOrder">
  <INTERNALNUMBER>V0002952</INTERNALNUMBER>
  <TYPE>NORMAL</TYPE>
  <JOBID>E7021470</JOBID>
  <ORDERNUMBER>BMDED2O00</ORDERNUMBER>
  <DUEDATE>3/8/2011 11:00:00 PM</DUEDATE>
  <MON>MD00091511767</MON>
  <ISSUEDATE>3/1/2011 2:43:00 PM</ISSUEDATE>
  <CUSTOMERNAME>GLADYS JONES</CUSTOMERNAME>
  <CUSTOMERADDRESS>9585 FORT FOOTE RD</CUSTOMERADDRESS>
  <CUSTOMERCOUNTY>PRINCE GEORGES</CUSTOMERCOUNTY>
  <CUSTOMERCITY>FORT WASHINGTON</CUSTOMERCITY>
  <CUSTOMERSTATE>MD</CUSTOMERSTATE>
  <CUSTOMERZIP>20744</CUSTOMERZIP>
  <CUSTOMERCONTACTNUMBER>(301) 535-7152</CUSTOMERCONTACTNUMBER>
  <CUSTOMERBTN>(A03) 894-3913</CUSTOMERBTN>
  <WIRECENTER>301567</WIRECENTER>
  <WORKCENTER>22</WORKCENTER>
  <CO>1222</CO>
  <SERVINGTERMINAL>9589 FORT FOOTE RD</SERVINGTERMINAL>
  <TERMINALGPS>38.760600 / -77.010987</TERMINALGPS>
  <MAP>5764</MAP>
  <GRID>J9</GRID>
  <CIRCUITID>11/BURY/ED2O00/ /VZMD</CIRCUITID>
  <F2CABLE>H4020</F2CABLE>
  <TERMINALPORT>3</TERMINALPORT>
  <F2PAIR>367</F2PAIR>
</XML>