﻿<?xml version="1.0" encoding="utf-8" standalone="yes"?>
<XML Type="WorkOrder">
  <INTERNALNUMBER>V0002753</INTERNALNUMBER>
  <TYPE>NORMAL</TYPE>
  <JOBID>E7015260</JOBID>
  <ORDERNUMBER>BMDZT1O00</ORDERNUMBER>
  <DUEDATE>3/6/2011 11:00:00 PM</DUEDATE>
  <MON>MD00091444873</MON>
  <ISSUEDATE>2/28/2011 10:10:00 AM</ISSUEDATE>
  <CUSTOMERNAME>DOMINIC WEBB</CUSTOMERNAME>
  <CUSTOMERADDRESS>1429 SAINT MICHAELS CT</CUSTOMERADDRESS>
  <CUSTOMERCITY>EDGEWOOD</CUSTOMERCITY>
  <CUSTOMERSTATE>MD</CUSTOMERSTATE>
  <CUSTOMERZIP>21040</CUSTOMERZIP>
  <CUSTOMERCONTACTNUMBER>(410) 746-8771</CUSTOMERCONTACTNUMBER>
  <CUSTOMERBTN>(410) 671-7129</CUSTOMERBTN>
  <WIRECENTER>410538</WIRECENTER>
  <WORKCENTER>22</WORKCENTER>
  <CO>1222</CO>
  <SERVINGTERMINAL>HH F1421 SAINT MICHAELS CT</SERVINGTERMINAL>
  <TERMINALGPS>39.423606 / -76.319939</TERMINALGPS>
  <MAP>4583</MAP>
  <GRID>J3</GRID>
  <CIRCUITID>11/BURY/ZT1O00/ /VZMD</CIRCUITID>
  <F2CABLE>H3012</F2CABLE>
  <TERMINALPORT>4</TERMINALPORT>
  <F2PAIR>268</F2PAIR>
</XML>