﻿<?xml version="1.0" encoding="utf-8" standalone="yes"?>
<XML Type="WorkOrder">
  <INTERNALNUMBER>V0002935</INTERNALNUMBER>
  <TYPE>NORMAL</TYPE>
  <JOBID>E7020750</JOBID>
  <ORDERNUMBER>BMD4B2O00</ORDERNUMBER>
  <DUEDATE>3/8/2011 11:00:00 PM</DUEDATE>
  <MON>MD00091505736</MON>
  <ISSUEDATE>3/1/2011 1:01:00 PM</ISSUEDATE>
  <CUSTOMERNAME>MICHELLE GRIFFIN</CUSTOMERNAME>
  <CUSTOMERADDRESS>3811 BYXBEE RD</CUSTOMERADDRESS>
  <CUSTOMERCOUNTY>BALTIMORE</CUSTOMERCOUNTY>
  <CUSTOMERCITY>RANDALLSTOWN</CUSTOMERCITY>
  <CUSTOMERSTATE>MD</CUSTOMERSTATE>
  <CUSTOMERZIP>21133</CUSTOMERZIP>
  <CUSTOMERCONTACTNUMBER>(410) 944-2476</CUSTOMERCONTACTNUMBER>
  <CUSTOMERBTN>(A13) 211-3248</CUSTOMERBTN>
  <WIRECENTER>410521</WIRECENTER>
  <WORKCENTER>22</WORKCENTER>
  <CO>1222</CO>
  <SERVINGTERMINAL>P5 R3813 BYXBEE RD</SERVINGTERMINAL>
  <TERMINALGPS>39.378378 / -76.799518</TERMINALGPS>
  <MAP>4576</MAP>
  <GRID>C10</GRID>
  <CIRCUITID>11/BURY/4B2O00/ /VZMD</CIRCUITID>
  <F2CABLE>H4012</F2CABLE>
  <TERMINALPORT>4</TERMINALPORT>
  <F2PAIR>80</F2PAIR>
</XML>