﻿<?xml version="1.0" encoding="utf-8" standalone="yes"?>
<XML Type="WorkOrder">
  <INTERNALNUMBER>V0002849</INTERNALNUMBER>
  <TYPE>NORMAL</TYPE>
  <JOBID>E7018250</JOBID>
  <ORDERNUMBER>BMDM32O00</ORDERNUMBER>
  <DUEDATE>3/7/2011 11:00:00 PM</DUEDATE>
  <MON>MD00091746124</MON>
  <ISSUEDATE>2/28/2011 6:56:00 PM</ISSUEDATE>
  <CUSTOMERNAME>BERTHA CAMPOS</CUSTOMERNAME>
  <CUSTOMERADDRESS>5 MARCUS CT</CUSTOMERADDRESS>
  <CUSTOMERCITY>ROCKVILLE</CUSTOMERCITY>
  <CUSTOMERSTATE>MD</CUSTOMERSTATE>
  <CUSTOMERZIP>20850</CUSTOMERZIP>
  <CUSTOMERCONTACTNUMBER>(240) 426-3936</CUSTOMERCONTACTNUMBER>
  <CUSTOMERBTN>(A13) 211-0058</CUSTOMERBTN>
  <WIRECENTER>301251</WIRECENTER>
  <WORKCENTER>22</WORKCENTER>
  <CO>1222</CO>
  <SERVINGTERMINAL>HH F5 MARCUS CT</SERVINGTERMINAL>
  <TERMINALGPS>39.075053 / -77.163218</TERMINALGPS>
  <MAP>5164</MAP>
  <GRID>D9</GRID>
  <CIRCUITID>11/BURY/M32O00/ /VZMD</CIRCUITID>
  <F2CABLE>H4005</F2CABLE>
  <TERMINALPORT>1</TERMINALPORT>
  <F2PAIR>25</F2PAIR>
</XML>