﻿<?xml version="1.0" encoding="utf-8" standalone="yes"?>
<XML Type="WorkOrder">
  <INTERNALNUMBER>V0002681</INTERNALNUMBER>
  <TYPE>NORMAL</TYPE>
  <JOBID>E7013450</JOBID>
  <ORDERNUMBER>BMDVN1O00</ORDERNUMBER>
  <DUEDATE>3/29/2011 11:00:00 PM</DUEDATE>
  <MON>MD00091125238</MON>
  <ISSUEDATE>2/26/2011 7:16:00 PM</ISSUEDATE>
  <CUSTOMERNAME>DICARLO HODGE</CUSTOMERNAME>
  <CUSTOMERADDRESS>618 SNOWBERRY WAY</CUSTOMERADDRESS>
  <CUSTOMERCOUNTY>HARFORD</CUSTOMERCOUNTY>
  <CUSTOMERCITY>ABERDEEN</CUSTOMERCITY>
  <CUSTOMERSTATE>MD</CUSTOMERSTATE>
  <CUSTOMERZIP>21001</CUSTOMERZIP>
  <CUSTOMERCONTACTNUMBER>(443) 617-1485</CUSTOMERCONTACTNUMBER>
  <CUSTOMERBTN>(A13) 207-4731</CUSTOMERBTN>
  <WIRECENTER>410272</WIRECENTER>
  <WORKCENTER>22</WORKCENTER>
  <CO>1222</CO>
  <SERVINGTERMINAL>HH3 S622 SNOWBERRY WAY</SERVINGTERMINAL>
  <TERMINALGPS>39.492815 / -76.220480</TERMINALGPS>
  <MAP>4354</MAP>
  <GRID>A9</GRID>
  <CIRCUITID>11/BURY/VN1O00/ /VZMD</CIRCUITID>
  <F2CABLE>H3020</F2CABLE>
  <TERMINALPORT>2</TERMINALPORT>
  <F2PAIR>226</F2PAIR>
</XML>