﻿<?xml version="1.0" encoding="utf-8" standalone="yes"?>
<XML Type="WorkOrder">
  <INTERNALNUMBER>V0002940</INTERNALNUMBER>
  <TYPE>NORMAL</TYPE>
  <JOBID>E7020900</JOBID>
  <ORDERNUMBER>BMDKB2O00</ORDERNUMBER>
  <DUEDATE>3/8/2011 11:00:00 PM</DUEDATE>
  <MON>MD00091507624</MON>
  <ISSUEDATE>3/1/2011 1:28:00 PM</ISSUEDATE>
  <CUSTOMERNAME>Cody Pryseski</CUSTOMERNAME>
  <CUSTOMERADDRESS>627 BRICKSTON RD</CUSTOMERADDRESS>
  <CUSTOMERCITY>REISTERSTOWN</CUSTOMERCITY>
  <CUSTOMERSTATE>MD</CUSTOMERSTATE>
  <CUSTOMERZIP>21136</CUSTOMERZIP>
  <CUSTOMERCONTACTNUMBER>(410) 852-5641</CUSTOMERCONTACTNUMBER>
  <CUSTOMERBTN>(410) 526-4210</CUSTOMERBTN>
  <WIRECENTER>410429</WIRECENTER>
  <WORKCENTER>22</WORKCENTER>
  <CO>1222</CO>
  <SERVINGTERMINAL>F629 BRICKSTON RD</SERVINGTERMINAL>
  <TERMINALGPS>39.457714 / -76.805145</TERMINALGPS>
  <MAP>4458</MAP>
  <GRID>B7</GRID>
  <CIRCUITID>11/BURY/KB2O00/ /VZMD</CIRCUITID>
  <F2CABLE>H3029</F2CABLE>
  <TERMINALPORT>3</TERMINALPORT>
  <F2PAIR>307</F2PAIR>
</XML>