﻿<?xml version="1.0" encoding="utf-8" standalone="yes"?>
<XML Type="WorkOrder">
  <INTERNALNUMBER>V0002864</INTERNALNUMBER>
  <TYPE>NORMAL</TYPE>
  <JOBID>E7019280</JOBID>
  <ORDERNUMBER>BMDJ62O00</ORDERNUMBER>
  <DUEDATE>3/7/2011 11:00:00 PM</DUEDATE>
  <MON>MD00091489804</MON>
  <ISSUEDATE>3/1/2011 5:40:00 AM</ISSUEDATE>
  <CUSTOMERNAME>SALVADOR PARTOZA</CUSTOMERNAME>
  <CUSTOMERADDRESS>728 HOLLYWOOD PL</CUSTOMERADDRESS>
  <CUSTOMERCOUNTY>HARFORD</CUSTOMERCOUNTY>
  <CUSTOMERCITY>FOREST HILL</CUSTOMERCITY>
  <CUSTOMERSTATE>MD</CUSTOMERSTATE>
  <CUSTOMERZIP>21050</CUSTOMERZIP>
  <CUSTOMERCONTACTNUMBER>(443) 866-1363</CUSTOMERCONTACTNUMBER>
  <CUSTOMERBTN>(410) 877-2814</CUSTOMERBTN>
  <WIRECENTER>410877</WIRECENTER>
  <WORKCENTER>22</WORKCENTER>
  <CO>1222</CO>
  <SERVINGTERMINAL>HH F730 HOLLYWOOD PL</SERVINGTERMINAL>
  <TERMINALGPS>39.566202 / -76.384036</TERMINALGPS>
  <MAP>4238</MAP>
  <GRID>J10</GRID>
  <CIRCUITID>11/BURY/J62O00/ /VZMD</CIRCUITID>
  <F2CABLE>H4047</F2CABLE>
  <TERMINALPORT>5</TERMINALPORT>
  <F2PAIR>209</F2PAIR>
</XML>