﻿<?xml version="1.0" encoding="utf-8" standalone="yes"?>
<XML Type="WorkOrder">
  <INTERNALNUMBER>V0002951</INTERNALNUMBER>
  <TYPE>NORMAL</TYPE>
  <JOBID>E7021410</JOBID>
  <ORDERNUMBER>BMD8D2O00</ORDERNUMBER>
  <DUEDATE>3/8/2011 11:00:00 PM</DUEDATE>
  <MON>MD00091512013</MON>
  <ISSUEDATE>3/1/2011 2:39:00 PM</ISSUEDATE>
  <CUSTOMERNAME>ROXANE SMALLS</CUSTOMERNAME>
  <CUSTOMERADDRESS>7201 PERRYWOOD RD</CUSTOMERADDRESS>
  <CUSTOMERCITY>UPPER MARLBORO</CUSTOMERCITY>
  <CUSTOMERSTATE>MD</CUSTOMERSTATE>
  <CUSTOMERZIP>20772</CUSTOMERZIP>
  <CUSTOMERCONTACTNUMBER>(240) 882-1527</CUSTOMERCONTACTNUMBER>
  <CUSTOMERBTN>(A13) 211-6104</CUSTOMERBTN>
  <WIRECENTER>301856</WIRECENTER>
  <WORKCENTER>22</WORKCENTER>
  <CO>1222</CO>
  <SERVINGTERMINAL>F7201 PERRYWOOD RD</SERVINGTERMINAL>
  <TERMINALGPS>38.789592 / -76.824149</TERMINALGPS>
  <MAP>5767</MAP>
  <GRID>J4</GRID>
  <CIRCUITID>11/BURY/8D2O00/ /VZMD</CIRCUITID>
  <F2CABLE>H2036</F2CABLE>
  <TERMINALPORT>3</TERMINALPORT>
  <F2PAIR>103</F2PAIR>
</XML>