﻿<?xml version="1.0" encoding="utf-8" standalone="yes"?>
<XML Type="WorkOrder">
  <INTERNALNUMBER>V0002948</INTERNALNUMBER>
  <TYPE>NORMAL</TYPE>
  <JOBID>E7021090</JOBID>
  <ORDERNUMBER>BMD5C2O00</ORDERNUMBER>
  <DUEDATE>3/9/2011 11:00:00 PM</DUEDATE>
  <MON />
  <ISSUEDATE>3/1/2011 1:59:00 PM</ISSUEDATE>
  <CUSTOMERNAME>CAROLYN PROCTOR</CUSTOMERNAME>
  <CUSTOMERADDRESS>8325 MARSHALL CORNER RD</CUSTOMERADDRESS>
  <CUSTOMERCOUNTY>CHARLES</CUSTOMERCOUNTY>
  <CUSTOMERCITY>POMFRET</CUSTOMERCITY>
  <CUSTOMERSTATE>MD</CUSTOMERSTATE>
  <CUSTOMERZIP>20675</CUSTOMERZIP>
  <CUSTOMERCONTACTNUMBER />
  <CUSTOMERBTN>(999) 999-9999</CUSTOMERBTN>
  <WIRECENTER>301934</WIRECENTER>
  <WORKCENTER>22</WORKCENTER>
  <CO>1222</CO>
  <SERVINGTERMINAL>P59-5 MARSHALL CORNER DR</SERVINGTERMINAL>
  <TERMINALGPS>38.585265 / -77.024315</TERMINALGPS>
  <MAP>6114</MAP>
  <GRID>G7</GRID>
  <CIRCUITID>11/BURY/5C2O00/ /VZMD</CIRCUITID>
  <F2CABLE>H4008</F2CABLE>
  <TERMINALPORT>2</TERMINALPORT>
  <F2PAIR>86</F2PAIR>
</XML>