﻿<?xml version="1.0" encoding="utf-8" standalone="yes"?>
<XML Type="WorkOrder">
  <INTERNALNUMBER>V0002959</INTERNALNUMBER>
  <TYPE>NORMAL</TYPE>
  <JOBID>E7020990</JOBID>
  <ORDERNUMBER>BMDTB2O00</ORDERNUMBER>
  <DUEDATE>3/17/2011 11:00:00 PM</DUEDATE>
  <MON>MD00091508639</MON>
  <ISSUEDATE>3/1/2011 1:48:00 PM</ISSUEDATE>
  <CUSTOMERNAME>SUSAN KENGLA</CUSTOMERNAME>
  <CUSTOMERADDRESS>5915 TUDOR LN</CUSTOMERADDRESS>
  <CUSTOMERCITY>ROCKVILLE</CUSTOMERCITY>
  <CUSTOMERSTATE>MD</CUSTOMERSTATE>
  <CUSTOMERZIP>20852</CUSTOMERZIP>
  <CUSTOMERCONTACTNUMBER>(301) 919-2987</CUSTOMERCONTACTNUMBER>
  <CUSTOMERBTN>(301) 770-1912</CUSTOMERBTN>
  <WIRECENTER>301881</WIRECENTER>
  <WORKCENTER>22</WORKCENTER>
  <CO>1222</CO>
  <SERVINGTERMINAL>R5915 TUDOR LN</SERVINGTERMINAL>
  <TERMINALGPS>39.044279 / -77.119761</TERMINALGPS>
  <MAP>5285</MAP>
  <GRID>A3</GRID>
  <CIRCUITID>11/BURY/TB2O00/ /VZMD</CIRCUITID>
  <F2CABLE>H3011</F2CABLE>
  <TERMINALPORT>4</TERMINALPORT>
  <F2PAIR>260</F2PAIR>
</XML>