﻿<?xml version="1.0" encoding="utf-8" standalone="yes"?>
<XML Type="WorkOrder">
  <INTERNALNUMBER>V0003000</INTERNALNUMBER>
  <TYPE>NORMAL</TYPE>
  <JOBID>E7022810</JOBID>
  <ORDERNUMBER>BMDFH2O00</ORDERNUMBER>
  <DUEDATE>3/29/2011 11:00:00 PM</DUEDATE>
  <MON>MD00091522951</MON>
  <ISSUEDATE>3/1/2011 5:41:00 PM</ISSUEDATE>
  <CUSTOMERNAME>gradimir georgevich</CUSTOMERNAME>
  <CUSTOMERADDRESS>14408 KINGS GRANT ST</CUSTOMERADDRESS>
  <CUSTOMERCITY>GAITHERSBURG</CUSTOMERCITY>
  <CUSTOMERSTATE>MD</CUSTOMERSTATE>
  <CUSTOMERZIP>20878</CUSTOMERZIP>
  <CUSTOMERCONTACTNUMBER>(301) 461-0259</CUSTOMERCONTACTNUMBER>
  <CUSTOMERBTN>(301) 279-2969</CUSTOMERBTN>
  <WIRECENTER>301251</WIRECENTER>
  <WORKCENTER>22</WORKCENTER>
  <CO>1222</CO>
  <SERVINGTERMINAL>F14408 KINGS GRANT ST</SERVINGTERMINAL>
  <TERMINALGPS>39.091940 / -77.231888</TERMINALGPS>
  <MAP>5163</MAP>
  <GRID>C6</GRID>
  <CIRCUITID>11/BURY/FH2O00/ /VZMD</CIRCUITID>
  <F2CABLE>H4098</F2CABLE>
  <TERMINALPORT>2</TERMINALPORT>
  <F2PAIR>122</F2PAIR>
</XML>