﻿<?xml version="1.0" encoding="utf-8" standalone="yes"?>
<XML Type="WorkOrder">
  <INTERNALNUMBER>V0002725</INTERNALNUMBER>
  <TYPE>NORMAL</TYPE>
  <JOBID>E7014760</JOBID>
  <ORDERNUMBER>BMD7S1O00</ORDERNUMBER>
  <DUEDATE>3/6/2011 11:00:00 PM</DUEDATE>
  <MON>MD00091605068</MON>
  <ISSUEDATE>2/28/2011 7:56:00 AM</ISSUEDATE>
  <CUSTOMERNAME>MOHAMMAD HUSAIN</CUSTOMERNAME>
  <CUSTOMERADDRESS>304 DUFFY CT</CUSTOMERADDRESS>
  <CUSTOMERCITY>FOREST HILL</CUSTOMERCITY>
  <CUSTOMERSTATE>MD</CUSTOMERSTATE>
  <CUSTOMERZIP>21050</CUSTOMERZIP>
  <CUSTOMERCONTACTNUMBER>(410) 838-6958</CUSTOMERCONTACTNUMBER>
  <CUSTOMERBTN>(A03) 888-7434</CUSTOMERBTN>
  <WIRECENTER>410877</WIRECENTER>
  <WORKCENTER>22</WORKCENTER>
  <CO>1222</CO>
  <SERVINGTERMINAL>HH F301 DUFFY CT</SERVINGTERMINAL>
  <TERMINALGPS>39.575176 / -76.365603</TERMINALGPS>
  <MAP>4239</MAP>
  <GRID>B8</GRID>
  <CIRCUITID>11/BURY/7S1O00/ /VZMD</CIRCUITID>
  <F2CABLE>H1029</F2CABLE>
  <TERMINALPORT>8</TERMINALPORT>
  <F2PAIR>208</F2PAIR>
</XML>