﻿<?xml version="1.0" encoding="utf-8" standalone="yes"?>
<XML Type="WorkOrder">
  <INTERNALNUMBER>V0002947</INTERNALNUMBER>
  <TYPE>NORMAL</TYPE>
  <JOBID>E7021060</JOBID>
  <ORDERNUMBER>BMD0C2O00</ORDERNUMBER>
  <DUEDATE>3/7/2011 11:00:00 PM</DUEDATE>
  <MON>MD00091509701</MON>
  <ISSUEDATE>3/1/2011 1:55:00 PM</ISSUEDATE>
  <CUSTOMERNAME>YOLANDA ESCOBAR</CUSTOMERNAME>
  <CUSTOMERADDRESS>7205 25TH AV</CUSTOMERADDRESS>
  <CUSTOMERCITY>HYATTSVILLE</CUSTOMERCITY>
  <CUSTOMERSTATE>MD</CUSTOMERSTATE>
  <CUSTOMERZIP>20783</CUSTOMERZIP>
  <CUSTOMERCONTACTNUMBER>(240) 396-7567</CUSTOMERCONTACTNUMBER>
  <CUSTOMERBTN>(301) 422-3856</CUSTOMERBTN>
  <WIRECENTER>301422</WIRECENTER>
  <WORKCENTER>22</WORKCENTER>
  <CO>1222</CO>
  <SERVINGTERMINAL>7207 25TH AVE</SERVINGTERMINAL>
  <TERMINALGPS>38.976629 / -76.968229</TERMINALGPS>
  <MAP>5409</MAP>
  <GRID>F4</GRID>
  <CIRCUITID>11/BURY/0C2O00/ /VZMD</CIRCUITID>
  <F2CABLE>H3030</F2CABLE>
  <TERMINALPORT>4</TERMINALPORT>
  <F2PAIR>204</F2PAIR>
</XML>