﻿<?xml version="1.0" encoding="utf-8" standalone="yes"?>
<XML Type="WorkOrder">
  <INTERNALNUMBER>V0002970</INTERNALNUMBER>
  <TYPE>NORMAL</TYPE>
  <JOBID>E7021560</JOBID>
  <ORDERNUMBER>BMDND2O00</ORDERNUMBER>
  <DUEDATE>3/14/2011 11:00:00 PM</DUEDATE>
  <MON>MD00091513506</MON>
  <ISSUEDATE>3/1/2011 2:54:00 PM</ISSUEDATE>
  <CUSTOMERNAME>JOSHUA HARTZELL</CUSTOMERNAME>
  <CUSTOMERADDRESS>11912 LEDGEROCK CT</CUSTOMERADDRESS>
  <CUSTOMERCITY>ROCKVILLE</CUSTOMERCITY>
  <CUSTOMERSTATE>MD</CUSTOMERSTATE>
  <CUSTOMERZIP>20854</CUSTOMERZIP>
  <CUSTOMERCONTACTNUMBER>(240) 351-4415</CUSTOMERCONTACTNUMBER>
  <CUSTOMERBTN>(A13) 211-6505</CUSTOMERBTN>
  <WIRECENTER>301251</WIRECENTER>
  <WORKCENTER>22</WORKCENTER>
  <CO>1222</CO>
  <SERVINGTERMINAL>HH11913 LEDGEROCK RD</SERVINGTERMINAL>
  <TERMINALGPS>39.051751 / -77.203152</TERMINALGPS>
  <MAP>5283</MAP>
  <GRID>H2</GRID>
  <CIRCUITID>11/BURY/ND2O00/ /VZMD</CIRCUITID>
  <F2CABLE>H4035</F2CABLE>
  <TERMINALPORT>3</TERMINALPORT>
  <F2PAIR>143</F2PAIR>
</XML>