﻿<?xml version="1.0" encoding="utf-8" standalone="yes"?>
<XML Type="WorkOrder">
  <INTERNALNUMBER>V0002891</INTERNALNUMBER>
  <TYPE>NORMAL</TYPE>
  <JOBID>E7019410</JOBID>
  <ORDERNUMBER>BMD072O00</ORDERNUMBER>
  <DUEDATE>3/8/2011 11:00:00 PM</DUEDATE>
  <MON>MD00091491096</MON>
  <ISSUEDATE>3/1/2011 8:52:00 AM</ISSUEDATE>
  <CUSTOMERNAME>ARAKA BENTON</CUSTOMERNAME>
  <CUSTOMERADDRESS>70 YARDLEY CT</CUSTOMERADDRESS>
  <CUSTOMERCITY>WINDSOR MILL</CUSTOMERCITY>
  <CUSTOMERSTATE>MD</CUSTOMERSTATE>
  <CUSTOMERZIP>21244</CUSTOMERZIP>
  <CUSTOMERCONTACTNUMBER>(443) 468-1212</CUSTOMERCONTACTNUMBER>
  <CUSTOMERBTN>(A13) 211-6204</CUSTOMERBTN>
  <WIRECENTER>410281</WIRECENTER>
  <WORKCENTER>22</WORKCENTER>
  <CO>1222</CO>
  <SERVINGTERMINAL>HH F74 YARDLEY CT</SERVINGTERMINAL>
  <TERMINALGPS />
  <MAP>4696</MAP>
  <GRID>H7</GRID>
  <CIRCUITID>11/BURY/072O00/ /VZMD</CIRCUITID>
  <F2CABLE>H3947</F2CABLE>
  <TERMINALPORT>3</TERMINALPORT>
  <F2PAIR>131</F2PAIR>
</XML>