﻿<?xml version="1.0" encoding="utf-8" standalone="yes"?>
<XML Type="WorkOrder">
  <INTERNALNUMBER>V0002811</INTERNALNUMBER>
  <TYPE>NORMAL</TYPE>
  <JOBID>E7017310</JOBID>
  <ORDERNUMBER>BMDT02O00</ORDERNUMBER>
  <DUEDATE>3/8/2011 11:00:00 PM</DUEDATE>
  <MON>MD00091472495</MON>
  <ISSUEDATE>2/28/2011 4:19:00 PM</ISSUEDATE>
  <CUSTOMERNAME>Leanne Sellier</CUSTOMERNAME>
  <CUSTOMERADDRESS>11129 DEBORAH DR</CUSTOMERADDRESS>
  <CUSTOMERCOUNTY>MONTGOMERY</CUSTOMERCOUNTY>
  <CUSTOMERCITY>POTOMAC</CUSTOMERCITY>
  <CUSTOMERSTATE>MD</CUSTOMERSTATE>
  <CUSTOMERZIP>20854</CUSTOMERZIP>
  <CUSTOMERCONTACTNUMBER>(412) 216-2871</CUSTOMERCONTACTNUMBER>
  <CUSTOMERBTN>(301) 983-1304</CUSTOMERBTN>
  <WIRECENTER>301299</WIRECENTER>
  <WORKCENTER>22</WORKCENTER>
  <CO>1222</CO>
  <SERVINGTERMINAL>PED 11121 DEBORAH DR</SERVINGTERMINAL>
  <TERMINALGPS>39.038518 / -77.164133</TERMINALGPS>
  <MAP>5284</MAP>
  <GRID>D4</GRID>
  <CIRCUITID>11/BURY/T02O00/ /VZMD</CIRCUITID>
  <F2CABLE>H1037</F2CABLE>
  <TERMINALPORT>4</TERMINALPORT>
  <F2PAIR>89</F2PAIR>
</XML>