﻿<?xml version="1.0" encoding="utf-8" standalone="yes"?>
<XML Type="WorkOrder">
  <INTERNALNUMBER>V0002988</INTERNALNUMBER>
  <TYPE>NORMAL</TYPE>
  <JOBID>E7022790</JOBID>
  <ORDERNUMBER>BMDDH2O00</ORDERNUMBER>
  <DUEDATE>3/8/2011 11:00:00 PM</DUEDATE>
  <MON>MD00091524403</MON>
  <ISSUEDATE>3/1/2011 5:37:00 PM</ISSUEDATE>
  <CUSTOMERNAME>STELLA GOMEZ</CUSTOMERNAME>
  <CUSTOMERADDRESS>12026 HALLANDALE TERR</CUSTOMERADDRESS>
  <CUSTOMERCITY>BOWIE</CUSTOMERCITY>
  <CUSTOMERSTATE>MD</CUSTOMERSTATE>
  <CUSTOMERZIP>20721</CUSTOMERZIP>
  <CUSTOMERCONTACTNUMBER>(202) 713-4711</CUSTOMERCONTACTNUMBER>
  <CUSTOMERBTN>(A13) 213-8902</CUSTOMERBTN>
  <WIRECENTER>301249</WIRECENTER>
  <WORKCENTER>22</WORKCENTER>
  <CO>1222</CO>
  <SERVINGTERMINAL>S12026 HALLANDALE TER</SERVINGTERMINAL>
  <TERMINALGPS>38.903777 / -76.795671</TERMINALGPS>
  <MAP>5532</MAP>
  <GRID>C6</GRID>
  <CIRCUITID>11/BURY/DH2O00/ /VZMD</CIRCUITID>
  <F2CABLE>H4021</F2CABLE>
  <TERMINALPORT>4</TERMINALPORT>
  <F2PAIR>16</F2PAIR>
</XML>