﻿<?xml version="1.0" encoding="utf-8" standalone="yes"?>
<XML Type="WorkOrder">
  <INTERNALNUMBER>V0002737</INTERNALNUMBER>
  <TYPE>NORMAL</TYPE>
  <JOBID>E7014850</JOBID>
  <ORDERNUMBER>BMDLS1O00</ORDERNUMBER>
  <DUEDATE>3/6/2011 11:00:00 PM</DUEDATE>
  <MON />
  <ISSUEDATE>2/28/2011 8:51:00 AM</ISSUEDATE>
  <CUSTOMERNAME>ROB FARMER</CUSTOMERNAME>
  <CUSTOMERADDRESS>2301 HARFORD RD</CUSTOMERADDRESS>
  <CUSTOMERCITY>FALLSTON</CUSTOMERCITY>
  <CUSTOMERSTATE>MD</CUSTOMERSTATE>
  <CUSTOMERZIP>21047</CUSTOMERZIP>
  <CUSTOMERCONTACTNUMBER />
  <CUSTOMERBTN>(999) 999-9999</CUSTOMERBTN>
  <WIRECENTER>410877</WIRECENTER>
  <WORKCENTER>22</WORKCENTER>
  <CO>1222</CO>
  <SERVINGTERMINAL>P25 F2301 HARFORD RD</SERVINGTERMINAL>
  <TERMINALGPS>39.498946 / -76.395734</TERMINALGPS>
  <MAP>4464</MAP>
  <GRID>G1</GRID>
  <CIRCUITID>11/BURY/LS1O00/ /VZMD</CIRCUITID>
  <F2CABLE>H3025</F2CABLE>
  <TERMINALPORT>1</TERMINALPORT>
  <F2PAIR>129</F2PAIR>
</XML>