﻿<?xml version="1.0" encoding="utf-8" standalone="yes"?>
<XML Type="WorkOrder">
  <INTERNALNUMBER>V0002965</INTERNALNUMBER>
  <TYPE>NORMAL</TYPE>
  <JOBID>E7021500</JOBID>
  <ORDERNUMBER>BMDHD2O00</ORDERNUMBER>
  <DUEDATE>3/8/2011 11:00:00 PM</DUEDATE>
  <MON>MD00091512779</MON>
  <ISSUEDATE>3/1/2011 2:46:00 PM</ISSUEDATE>
  <CUSTOMERNAME>MIRIAM KING</CUSTOMERNAME>
  <CUSTOMERADDRESS>2008 NORLINDA CT</CUSTOMERADDRESS>
  <CUSTOMERCITY>OXON HILL</CUSTOMERCITY>
  <CUSTOMERSTATE>MD</CUSTOMERSTATE>
  <CUSTOMERZIP>20745</CUSTOMERZIP>
  <CUSTOMERCONTACTNUMBER>(301) 266-0504</CUSTOMERCONTACTNUMBER>
  <CUSTOMERBTN>(301) 505-0294</CUSTOMERBTN>
  <WIRECENTER>301238</WIRECENTER>
  <WORKCENTER>22</WORKCENTER>
  <CO>1222</CO>
  <SERVINGTERMINAL>HH F2006 NORLINDA CT</SERVINGTERMINAL>
  <TERMINALGPS>38.816168 / -76.974296</TERMINALGPS>
  <MAP>5649</MAP>
  <GRID>E10</GRID>
  <CIRCUITID>11/BURY/HD2O00/ /VZMD</CIRCUITID>
  <F2CABLE>H4009</F2CABLE>
  <TERMINALPORT>3</TERMINALPORT>
  <F2PAIR>75</F2PAIR>
</XML>