﻿<?xml version="1.0" encoding="utf-8" standalone="yes"?>
<XML Type="WorkOrder">
  <INTERNALNUMBER>V0002938</INTERNALNUMBER>
  <TYPE>NORMAL</TYPE>
  <JOBID>E7020810</JOBID>
  <ORDERNUMBER>BMDAB2O00</ORDERNUMBER>
  <DUEDATE>3/8/2011 11:00:00 PM</DUEDATE>
  <MON>MD00091506276</MON>
  <ISSUEDATE>3/1/2011 1:27:00 PM</ISSUEDATE>
  <CUSTOMERNAME>CORDELIA LEE</CUSTOMERNAME>
  <CUSTOMERADDRESS>3631 VALLEY TERR APT 1</CUSTOMERADDRESS>
  <CUSTOMERCITY>WINDSOR MILL</CUSTOMERCITY>
  <CUSTOMERSTATE>MD</CUSTOMERSTATE>
  <CUSTOMERZIP>21244</CUSTOMERZIP>
  <CUSTOMERCONTACTNUMBER>(443) 416-8325</CUSTOMERCONTACTNUMBER>
  <CUSTOMERBTN>(A13) 213-7953</CUSTOMERBTN>
  <WIRECENTER>410521</WIRECENTER>
  <WORKCENTER>22</WORKCENTER>
  <CO>1222</CO>
  <SERVINGTERMINAL>HH F1 3631 VALLEY TERRACE</SERVINGTERMINAL>
  <TERMINALGPS>39.356980 / -76.765045</TERMINALGPS>
  <MAP>4696</MAP>
  <GRID>H3</GRID>
  <CIRCUITID>11/BURY/AB2O00/ /VZMD</CIRCUITID>
  <F2CABLE>H2908</F2CABLE>
  <TERMINALPORT>4</TERMINALPORT>
  <F2PAIR>100</F2PAIR>
</XML>