﻿<?xml version="1.0" encoding="utf-8" standalone="yes"?>
<XML Type="WorkOrder">
  <INTERNALNUMBER>V0002944</INTERNALNUMBER>
  <TYPE>NORMAL</TYPE>
  <JOBID>X0958080</JOBID>
  <ORDERNUMBER>BMDEB2O00</ORDERNUMBER>
  <DUEDATE>3/8/2011 11:00:00 PM</DUEDATE>
  <MON />
  <ISSUEDATE>3/1/2011 1:46:00 PM</ISSUEDATE>
  <CUSTOMERNAME>VERIZON BURIED DROP</CUSTOMERNAME>
  <CUSTOMERADDRESS>194 CROSSBOW LN</CUSTOMERADDRESS>
  <CUSTOMERCITY>GAITHERSBURG</CUSTOMERCITY>
  <CUSTOMERSTATE>MD</CUSTOMERSTATE>
  <CUSTOMERZIP>20878</CUSTOMERZIP>
  <CUSTOMERCONTACTNUMBER />
  <CUSTOMERBTN>(999) 999-9999</CUSTOMERBTN>
  <WIRECENTER>301926</WIRECENTER>
  <WORKCENTER>22</WORKCENTER>
  <CO>1222</CO>
  <SERVINGTERMINAL>HH R190 CROSSBOW LN</SERVINGTERMINAL>
  <TERMINALGPS>39.113086 / -77.214853</TERMINALGPS>
  <MAP>5163</MAP>
  <GRID>F2</GRID>
  <CIRCUITID>11/BURY/EB2O00/ /VZMD</CIRCUITID>
  <F2CABLE>H4020</F2CABLE>
  <TERMINALPORT>1</TERMINALPORT>
  <F2PAIR>233</F2PAIR>
</XML>