﻿<?xml version="1.0" encoding="utf-8" standalone="yes"?>
<XML Type="WorkOrder">
  <INTERNALNUMBER>V0002790</INTERNALNUMBER>
  <TYPE>NORMAL</TYPE>
  <JOBID>E7016550</JOBID>
  <ORDERNUMBER>BMDAY1O00</ORDERNUMBER>
  <DUEDATE>3/6/2011 11:00:00 PM</DUEDATE>
  <MON />
  <ISSUEDATE>2/28/2011 2:24:00 PM</ISSUEDATE>
  <CUSTOMERNAME>EDDA GRANT</CUSTOMERNAME>
  <CUSTOMERADDRESS>1333 STOCKETT SQ</CUSTOMERADDRESS>
  <CUSTOMERCITY>BELCAMP</CUSTOMERCITY>
  <CUSTOMERSTATE>MD</CUSTOMERSTATE>
  <CUSTOMERZIP>21017</CUSTOMERZIP>
  <CUSTOMERCONTACTNUMBER />
  <CUSTOMERBTN>(999) 999-9999</CUSTOMERBTN>
  <WIRECENTER>410272</WIRECENTER>
  <WORKCENTER>22</WORKCENTER>
  <CO>1222</CO>
  <SERVINGTERMINAL>F1335 STOCKETT SQ</SERVINGTERMINAL>
  <TERMINALGPS>39.476785 / -76.244457</TERMINALGPS>
  <MAP>4467</MAP>
  <GRID>A4</GRID>
  <CIRCUITID>11/BURY/AY1O00/ /VZMD</CIRCUITID>
  <F2CABLE>H3028</F2CABLE>
  <TERMINALPORT>4</TERMINALPORT>
  <F2PAIR>164</F2PAIR>
</XML>