﻿<?xml version="1.0" encoding="utf-8" standalone="yes"?>
<XML Type="WorkOrder">
  <INTERNALNUMBER>V0003016</INTERNALNUMBER>
  <TYPE>NORMAL</TYPE>
  <JOBID>E7023180</JOBID>
  <ORDERNUMBER>BMDGI2O00</ORDERNUMBER>
  <DUEDATE>3/8/2011 11:00:00 PM</DUEDATE>
  <MON>MD00091527156</MON>
  <ISSUEDATE>3/1/2011 6:35:00 PM</ISSUEDATE>
  <CUSTOMERNAME>MAX FRANKLIN</CUSTOMERNAME>
  <CUSTOMERADDRESS>14051 GALLOP TERR</CUSTOMERADDRESS>
  <CUSTOMERCITY>GERMANTOWN</CUSTOMERCITY>
  <CUSTOMERSTATE>MD</CUSTOMERSTATE>
  <CUSTOMERZIP>20874</CUSTOMERZIP>
  <CUSTOMERCONTACTNUMBER>(301) 580-3450</CUSTOMERCONTACTNUMBER>
  <CUSTOMERBTN>(301) 528-4470</CUSTOMERBTN>
  <WIRECENTER>301353</WIRECENTER>
  <WORKCENTER>22</WORKCENTER>
  <CO>1222</CO>
  <SERVINGTERMINAL>PED14037 GALLOP TERR</SERVINGTERMINAL>
  <TERMINALGPS>39.173357 / -77.288649</TERMINALGPS>
  <MAP>5046</MAP>
  <GRID>D3</GRID>
  <CIRCUITID>11/BURY/GI2O00/ /VZMD</CIRCUITID>
  <F2CABLE>H3073</F2CABLE>
  <TERMINALPORT>5</TERMINALPORT>
  <F2PAIR>133</F2PAIR>
</XML>