﻿<?xml version="1.0" encoding="utf-8" standalone="yes"?>
<XML Type="WorkOrder">
  <INTERNALNUMBER>V0002987</INTERNALNUMBER>
  <TYPE>NORMAL</TYPE>
  <JOBID>E7022750</JOBID>
  <ORDERNUMBER>BMD9H2O00</ORDERNUMBER>
  <DUEDATE>3/8/2011 11:00:00 PM</DUEDATE>
  <MON>MD00091523287</MON>
  <ISSUEDATE>3/1/2011 5:30:00 PM</ISSUEDATE>
  <CUSTOMERNAME>BONITA BELL</CUSTOMERNAME>
  <CUSTOMERADDRESS>1603 BOARMAN CT</CUSTOMERADDRESS>
  <CUSTOMERCITY>WALDORF</CUSTOMERCITY>
  <CUSTOMERSTATE>MD</CUSTOMERSTATE>
  <CUSTOMERZIP>20602</CUSTOMERZIP>
  <CUSTOMERCONTACTNUMBER>(301) 843-5553</CUSTOMERCONTACTNUMBER>
  <CUSTOMERBTN>(A03) 950-8283</CUSTOMERBTN>
  <WIRECENTER>301645</WIRECENTER>
  <WORKCENTER>22</WORKCENTER>
  <CO>1222</CO>
  <SERVINGTERMINAL>PED F1600 BOARMAN CT</SERVINGTERMINAL>
  <TERMINALGPS>38.594840 / -76.907821</TERMINALGPS>
  <MAP>6116</MAP>
  <GRID>E5</GRID>
  <CIRCUITID>11/BURY/9H2O00/ /VZMD</CIRCUITID>
  <F2CABLE>H2022</F2CABLE>
  <TERMINALPORT>1</TERMINALPORT>
  <F2PAIR>161</F2PAIR>
</XML>