﻿<?xml version="1.0" encoding="utf-8" standalone="yes"?>
<XML Type="WorkOrder">
  <INTERNALNUMBER>V0002685</INTERNALNUMBER>
  <TYPE>NORMAL</TYPE>
  <JOBID>E7013640</JOBID>
  <ORDERNUMBER>BMDIO1O00</ORDERNUMBER>
  <DUEDATE>3/6/2011 11:00:00 PM</DUEDATE>
  <MON>MD00091563247</MON>
  <ISSUEDATE>2/27/2011 9:08:00 AM</ISSUEDATE>
  <CUSTOMERNAME>G WHEELDEN</CUSTOMERNAME>
  <CUSTOMERADDRESS>945 EDMUND ST</CUSTOMERADDRESS>
  <CUSTOMERCITY>ABERDEEN</CUSTOMERCITY>
  <CUSTOMERSTATE>MD</CUSTOMERSTATE>
  <CUSTOMERZIP>21001</CUSTOMERZIP>
  <CUSTOMERCONTACTNUMBER>(202) 999-9999</CUSTOMERCONTACTNUMBER>
  <CUSTOMERBTN>(410) 272-7046</CUSTOMERBTN>
  <WIRECENTER>410272</WIRECENTER>
  <WORKCENTER>22</WORKCENTER>
  <CO>1222</CO>
  <SERVINGTERMINAL>HH F945 EDMUND ST</SERVINGTERMINAL>
  <TERMINALGPS>39.498491 / -76.182872</TERMINALGPS>
  <MAP>4468</MAP>
  <GRID>A1</GRID>
  <CIRCUITID>11/BURY/IO1O00/ /VZMD</CIRCUITID>
  <F2CABLE>H3004</F2CABLE>
  <TERMINALPORT>1</TERMINALPORT>
  <F2PAIR>253</F2PAIR>
</XML>