﻿<?xml version="1.0" encoding="utf-8" standalone="yes"?>
<XML Type="WorkOrder">
  <INTERNALNUMBER>V0002930</INTERNALNUMBER>
  <TYPE>NORMAL</TYPE>
  <JOBID>E7020610</JOBID>
  <ORDERNUMBER>BMDOA2O00</ORDERNUMBER>
  <DUEDATE>3/8/2011 11:00:00 PM</DUEDATE>
  <MON>MD00091505909</MON>
  <ISSUEDATE>3/1/2011 12:46:00 PM</ISSUEDATE>
  <CUSTOMERNAME>OSMAN MALIK</CUSTOMERNAME>
  <CUSTOMERADDRESS>7205 WHITE BUD CT</CUSTOMERADDRESS>
  <CUSTOMERCITY>CLINTON</CUSTOMERCITY>
  <CUSTOMERSTATE>MD</CUSTOMERSTATE>
  <CUSTOMERZIP>20735</CUSTOMERZIP>
  <CUSTOMERCONTACTNUMBER>(240) 273-5126</CUSTOMERCONTACTNUMBER>
  <CUSTOMERBTN>(A13) 211-2939</CUSTOMERBTN>
  <WIRECENTER>301856</WIRECENTER>
  <WORKCENTER>22</WORKCENTER>
  <CO>1222</CO>
  <SERVINGTERMINAL>7203 WHITE BUD CT</SERVINGTERMINAL>
  <TERMINALGPS>38.744068 / -76.881791</TERMINALGPS>
  <MAP>5882</MAP>
  <GRID>J1</GRID>
  <CIRCUITID>11/BURY/OA2O00/ /VZMD</CIRCUITID>
  <F2CABLE>H4039</F2CABLE>
  <TERMINALPORT>1</TERMINALPORT>
  <F2PAIR>357</F2PAIR>
</XML>