﻿<?xml version="1.0" encoding="utf-8" standalone="yes"?>
<XML Type="WorkOrder">
  <INTERNALNUMBER>V0002906</INTERNALNUMBER>
  <TYPE>NORMAL</TYPE>
  <JOBID>E7020100</JOBID>
  <ORDERNUMBER>BMD892O00</ORDERNUMBER>
  <DUEDATE>3/8/2011 11:00:00 PM</DUEDATE>
  <MON>MD00091499782</MON>
  <ISSUEDATE>3/1/2011 11:27:00 AM</ISSUEDATE>
  <CUSTOMERNAME>JOSEPH IBETOH</CUSTOMERNAME>
  <CUSTOMERADDRESS>5807 LAWTON CT</CUSTOMERADDRESS>
  <CUSTOMERCOUNTY>PRINCE GEORGES</CUSTOMERCOUNTY>
  <CUSTOMERCITY>LANHAM</CUSTOMERCITY>
  <CUSTOMERSTATE>MD</CUSTOMERSTATE>
  <CUSTOMERZIP>20706</CUSTOMERZIP>
  <CUSTOMERCONTACTNUMBER>(301) 996-5803</CUSTOMERCONTACTNUMBER>
  <CUSTOMERBTN>(A13) 211-9549</CUSTOMERBTN>
  <WIRECENTER>301552</WIRECENTER>
  <WORKCENTER>22</WORKCENTER>
  <CO>1222</CO>
  <SERVINGTERMINAL>F5803 LAWTON CT</SERVINGTERMINAL>
  <TERMINALGPS>38.970823 / -76.828521</TERMINALGPS>
  <MAP>5411</MAP>
  <GRID>H5</GRID>
  <CIRCUITID>11/BURY/892O00/ /VZMD</CIRCUITID>
  <F2CABLE>H2009</F2CABLE>
  <TERMINALPORT>3</TERMINALPORT>
  <F2PAIR>167</F2PAIR>
</XML>