﻿<?xml version="1.0" encoding="utf-8" standalone="yes"?>
<XML Type="WorkOrder">
  <INTERNALNUMBER>V0002903</INTERNALNUMBER>
  <TYPE>NORMAL</TYPE>
  <JOBID>X0957190</JOBID>
  <ORDERNUMBER>BMD9P1O00</ORDERNUMBER>
  <DUEDATE>3/7/2011 11:00:00 PM</DUEDATE>
  <MON />
  <ISSUEDATE>3/1/2011 11:15:00 AM</ISSUEDATE>
  <CUSTOMERNAME>VERIZON BURIED DROP</CUSTOMERNAME>
  <CUSTOMERADDRESS>2748 MARLETTE PL</CUSTOMERADDRESS>
  <CUSTOMERCOUNTY>CHARLES</CUSTOMERCOUNTY>
  <CUSTOMERCITY>WALDORF</CUSTOMERCITY>
  <CUSTOMERSTATE>MD</CUSTOMERSTATE>
  <CUSTOMERZIP>20601</CUSTOMERZIP>
  <CUSTOMERCONTACTNUMBER>(999) 999-9999</CUSTOMERCONTACTNUMBER>
  <CUSTOMERBTN>(999) 999-9999</CUSTOMERBTN>
  <WIRECENTER>301645</WIRECENTER>
  <WORKCENTER>22</WORKCENTER>
  <CO>1222</CO>
  <SERVINGTERMINAL>P4 R2744 MARLETTE PL</SERVINGTERMINAL>
  <TERMINALGPS>38.634358 / -76.877364</TERMINALGPS>
  <MAP>5998</MAP>
  <GRID>K9</GRID>
  <CIRCUITID>11/BURY/9P1O00/ /VZMD</CIRCUITID>
  <F2CABLE>H1010</F2CABLE>
  <TERMINALPORT>1</TERMINALPORT>
  <F2PAIR>273</F2PAIR>
</XML>