﻿<?xml version="1.0" encoding="utf-8" standalone="yes"?>
<XML Type="WorkOrder">
  <INTERNALNUMBER>V0002998</INTERNALNUMBER>
  <TYPE>NORMAL</TYPE>
  <JOBID>E7022570</JOBID>
  <ORDERNUMBER>BMDQG2O00</ORDERNUMBER>
  <DUEDATE>3/30/2011 11:00:00 PM</DUEDATE>
  <MON>MD00091522581</MON>
  <ISSUEDATE>3/1/2011 5:11:00 PM</ISSUEDATE>
  <CUSTOMERNAME>DEAN LIN</CUSTOMERNAME>
  <CUSTOMERADDRESS>14716 SENECA CASTLE CT</CUSTOMERADDRESS>
  <CUSTOMERCITY>GAITHERSBURG</CUSTOMERCITY>
  <CUSTOMERSTATE>MD</CUSTOMERSTATE>
  <CUSTOMERZIP>20878</CUSTOMERZIP>
  <CUSTOMERCONTACTNUMBER>(917) 392-0404</CUSTOMERCONTACTNUMBER>
  <CUSTOMERBTN>(301) 424-8658</CUSTOMERBTN>
  <WIRECENTER>301251</WIRECENTER>
  <WORKCENTER>22</WORKCENTER>
  <CO>1222</CO>
  <SERVINGTERMINAL>HH F14712 SENECA CASTLE CT</SERVINGTERMINAL>
  <TERMINALGPS>39.096988 / -77.243411</TERMINALGPS>
  <MAP>5163</MAP>
  <GRID>B5</GRID>
  <CIRCUITID>11/BURY/QG2O00/ /VZMD</CIRCUITID>
  <F2CABLE>H4099</F2CABLE>
  <TERMINALPORT>1</TERMINALPORT>
  <F2PAIR>81</F2PAIR>
</XML>