﻿<?xml version="1.0" encoding="utf-8" standalone="yes"?>
<XML Type="WorkOrder">
  <INTERNALNUMBER>V0002967</INTERNALNUMBER>
  <TYPE>NORMAL</TYPE>
  <JOBID>E7021590</JOBID>
  <ORDERNUMBER>BMDQD2O00</ORDERNUMBER>
  <DUEDATE>3/9/2011 11:00:00 PM</DUEDATE>
  <MON />
  <ISSUEDATE>3/1/2011 2:54:00 PM</ISSUEDATE>
  <CUSTOMERNAME>BRUCE GORDON</CUSTOMERNAME>
  <CUSTOMERADDRESS>33 STAGS LEAP CT</CUSTOMERADDRESS>
  <CUSTOMERCITY>PIKESVILLE</CUSTOMERCITY>
  <CUSTOMERSTATE>MD</CUSTOMERSTATE>
  <CUSTOMERZIP>21208</CUSTOMERZIP>
  <CUSTOMERCONTACTNUMBER />
  <CUSTOMERBTN>(999) 999-9999</CUSTOMERBTN>
  <WIRECENTER>410358</WIRECENTER>
  <WORKCENTER>22</WORKCENTER>
  <CO>1222</CO>
  <SERVINGTERMINAL>F29STAGS LEAP CT</SERVINGTERMINAL>
  <TERMINALGPS>39.392545 / -76.744367</TERMINALGPS>
  <MAP>4577</MAP>
  <GRID>A8</GRID>
  <CIRCUITID>11/BURY/QD2O00/ /VZMD</CIRCUITID>
  <F2CABLE>H1039</F2CABLE>
  <TERMINALPORT>2</TERMINALPORT>
  <F2PAIR>102</F2PAIR>
</XML>