﻿<?xml version="1.0" encoding="utf-8" standalone="yes"?>
<XML Type="WorkOrder">
  <INTERNALNUMBER>V0002899</INTERNALNUMBER>
  <TYPE>NORMAL</TYPE>
  <JOBID>E7019780</JOBID>
  <ORDERNUMBER>BMD982O00</ORDERNUMBER>
  <DUEDATE>3/8/2011 11:00:00 PM</DUEDATE>
  <MON>MD00091496938</MON>
  <ISSUEDATE>3/1/2011 10:31:00 AM</ISSUEDATE>
  <CUSTOMERNAME>DARRELL MIMS</CUSTOMERNAME>
  <CUSTOMERADDRESS>6401 DEER PARK RD</CUSTOMERADDRESS>
  <CUSTOMERCITY>REISTERSTOWN</CUSTOMERCITY>
  <CUSTOMERSTATE>MD</CUSTOMERSTATE>
  <CUSTOMERZIP>21136</CUSTOMERZIP>
  <CUSTOMERCONTACTNUMBER>(410) 833-4741</CUSTOMERCONTACTNUMBER>
  <CUSTOMERBTN>(A13) 211-8136</CUSTOMERBTN>
  <WIRECENTER>410429</WIRECENTER>
  <WORKCENTER>22</WORKCENTER>
  <CO>1222</CO>
  <SERVINGTERMINAL>6315 DEER PARK RD</SERVINGTERMINAL>
  <TERMINALGPS>39.431680 / -76.870894</TERMINALGPS>
  <MAP>4575</MAP>
  <GRID>A1</GRID>
  <CIRCUITID>11/BURY/982O00/ /VZMD</CIRCUITID>
  <F2CABLE>H3043</F2CABLE>
  <TERMINALPORT>4</TERMINALPORT>
  <F2PAIR>216</F2PAIR>
</XML>