﻿<?xml version="1.0" encoding="utf-8" standalone="yes"?>
<XML Type="WorkOrder">
  <INTERNALNUMBER>V0002678</INTERNALNUMBER>
  <TYPE>NORMAL</TYPE>
  <JOBID>E7013320</JOBID>
  <ORDERNUMBER>BMDFN1O00</ORDERNUMBER>
  <DUEDATE>3/6/2011 11:00:00 PM</DUEDATE>
  <MON>MD00091120274</MON>
  <ISSUEDATE>2/26/2011 6:00:00 PM</ISSUEDATE>
  <CUSTOMERNAME>STACEY BROWN</CUSTOMERNAME>
  <CUSTOMERADDRESS>1731 JUDY WAY</CUSTOMERADDRESS>
  <CUSTOMERCITY>EDGEWOOD</CUSTOMERCITY>
  <CUSTOMERSTATE>MD</CUSTOMERSTATE>
  <CUSTOMERZIP>21040</CUSTOMERZIP>
  <CUSTOMERCONTACTNUMBER>(410) 676-6045</CUSTOMERCONTACTNUMBER>
  <CUSTOMERBTN>(A04) 167-6669</CUSTOMERBTN>
  <WIRECENTER>410538</WIRECENTER>
  <WORKCENTER>22</WORKCENTER>
  <CO>1222</CO>
  <SERVINGTERMINAL>S1733 JUDY WAY</SERVINGTERMINAL>
  <TERMINALGPS>39.433047 / -76.317721</TERMINALGPS>
  <MAP>4583</MAP>
  <GRID>K1</GRID>
  <CIRCUITID>11/BURY/FN1O00/ /VZMD</CIRCUITID>
  <F2CABLE>H2014</F2CABLE>
  <TERMINALPORT>2</TERMINALPORT>
  <F2PAIR>318</F2PAIR>
</XML>