﻿<?xml version="1.0" encoding="utf-8" standalone="yes"?>
<XML Type="WorkOrder">
  <INTERNALNUMBER>V0002919</INTERNALNUMBER>
  <TYPE>NORMAL</TYPE>
  <JOBID>E7020350</JOBID>
  <ORDERNUMBER>BMDX92O00</ORDERNUMBER>
  <DUEDATE>3/8/2011 11:00:00 PM</DUEDATE>
  <MON>MD00091501706</MON>
  <ISSUEDATE>3/1/2011 12:08:00 PM</ISSUEDATE>
  <CUSTOMERNAME>Michael Edmonds</CUSTOMERNAME>
  <CUSTOMERADDRESS>35 PAGNELL CIR</CUSTOMERADDRESS>
  <CUSTOMERCITY>WALDORF</CUSTOMERCITY>
  <CUSTOMERSTATE>MD</CUSTOMERSTATE>
  <CUSTOMERZIP>20602</CUSTOMERZIP>
  <CUSTOMERCONTACTNUMBER>(301) 848-5766</CUSTOMERCONTACTNUMBER>
  <CUSTOMERBTN>(301) 705-5421</CUSTOMERBTN>
  <WIRECENTER>301645</WIRECENTER>
  <WORKCENTER>22</WORKCENTER>
  <CO>1222</CO>
  <SERVINGTERMINAL>PED F35 PAGNELL CIR</SERVINGTERMINAL>
  <TERMINALGPS>38.597431 / -76.920555</TERMINALGPS>
  <MAP>6116</MAP>
  <GRID>C5</GRID>
  <CIRCUITID>11/BURY/X92O00/ /VZMD</CIRCUITID>
  <F2CABLE>H2028</F2CABLE>
  <TERMINALPORT>3</TERMINALPORT>
  <F2PAIR>67</F2PAIR>
</XML>