﻿<?xml version="1.0" encoding="utf-8" standalone="yes"?>
<XML Type="WorkOrder">
  <INTERNALNUMBER>V0002808</INTERNALNUMBER>
  <TYPE>NORMAL</TYPE>
  <JOBID>E7017220</JOBID>
  <ORDERNUMBER>BMDI02O00</ORDERNUMBER>
  <DUEDATE>3/8/2011 11:00:00 PM</DUEDATE>
  <MON>MD00091471694</MON>
  <ISSUEDATE>2/28/2011 4:46:00 PM</ISSUEDATE>
  <CUSTOMERNAME>SAMPSON EDUFUL</CUSTOMERNAME>
  <CUSTOMERADDRESS>12436 QUAIL WOODS DR</CUSTOMERADDRESS>
  <CUSTOMERCITY>GERMANTOWN</CUSTOMERCITY>
  <CUSTOMERSTATE>MD</CUSTOMERSTATE>
  <CUSTOMERZIP>20874</CUSTOMERZIP>
  <CUSTOMERCONTACTNUMBER>(240) 423-5712</CUSTOMERCONTACTNUMBER>
  <CUSTOMERBTN>(A13) 208-3967</CUSTOMERBTN>
  <WIRECENTER>301353</WIRECENTER>
  <WORKCENTER>22</WORKCENTER>
  <CO>1222</CO>
  <SERVINGTERMINAL>12432 QUAIL WOODS DR</SERVINGTERMINAL>
  <TERMINALGPS>39.172553 / -77.256088</TERMINALGPS>
  <MAP>5046</MAP>
  <GRID>J3</GRID>
  <CIRCUITID>11/BURY/I02O00/ /VZMD</CIRCUITID>
  <F2CABLE>H2015</F2CABLE>
  <TERMINALPORT>6</TERMINALPORT>
  <F2PAIR>66</F2PAIR>
</XML>