﻿<?xml version="1.0" encoding="utf-8" standalone="yes"?>
<XML Type="WorkOrder">
  <INTERNALNUMBER>V0002683</INTERNALNUMBER>
  <TYPE>NORMAL</TYPE>
  <JOBID>E7013530</JOBID>
  <ORDERNUMBER>BMD3O1O00</ORDERNUMBER>
  <DUEDATE>3/6/2011 11:00:00 PM</DUEDATE>
  <MON>MD00091126086</MON>
  <ISSUEDATE>2/26/2011 8:28:00 PM</ISSUEDATE>
  <CUSTOMERNAME>JANNETTE EMMANUELLI</CUSTOMERNAME>
  <CUSTOMERADDRESS>3010 EBBTIDE DR</CUSTOMERADDRESS>
  <CUSTOMERCOUNTY>HARFORD</CUSTOMERCOUNTY>
  <CUSTOMERCITY>EDGEWOOD</CUSTOMERCITY>
  <CUSTOMERSTATE>MD</CUSTOMERSTATE>
  <CUSTOMERZIP>21040</CUSTOMERZIP>
  <CUSTOMERCONTACTNUMBER>(443) 243-0738</CUSTOMERCONTACTNUMBER>
  <CUSTOMERBTN>(410) 676-2454</CUSTOMERBTN>
  <WIRECENTER>410538</WIRECENTER>
  <WORKCENTER>22</WORKCENTER>
  <CO>1222</CO>
  <SERVINGTERMINAL>F3006 EBBTIDE DR</SERVINGTERMINAL>
  <TERMINALGPS>39.434028 / -76.278656</TERMINALGPS>
  <MAP>4584</MAP>
  <GRID>F1</GRID>
  <CIRCUITID>11/BURY/3O1O00/ /VZMD</CIRCUITID>
  <F2CABLE>H2031</F2CABLE>
  <TERMINALPORT>2</TERMINALPORT>
  <F2PAIR>238</F2PAIR>
</XML>