
BP     TICKET SUMMARY REPORT AS OF 12/09/08 03:04:22 AM FOR BP         PAGE 1
******************************************************************************
*         THIS IS THE END-OF-DAY SUMMARY AUDIT OF MESSAGES TRANSMITTED       *
*              12/08/08 FROM PENNSYLVANIA ONE CALL SYSTEM, INC.              *
******************************************************************************

  SEQ TICKET      PRI TIME  SEQ TICKET      PRI TIME  SEQ TICKET      PRI TIME
    1 20083435235  E  0844    2 20083435334  N  0914    3 20083435343  N  0915  
    4 20083435356  N  0918    5 20083435443  E  0940    6 20083435664  N  1042  
    7 20083435687  N  1048    8 20083435688  N  1048    9 20083435697  N  1050  
   10 20083435709  N  1053   11 20083435716  N  1055   12 20083435729  N  1059  
   13 20083435737  N  1059   14 20083435747  N  1103   15 20083435748  N  1103  
   16 20083435758  N  1105   17 20083435776  N  1109   18 20083435790  N  1113  
   19 20083435910  N  1148   20 20083435950  N  1208   21 20083436125  N  1320  
   22 20083405586  HY 1344   23 20083436206  N  1344   24 20083436220  N  1349  
   25 20083436328  N  1419   26 20083436392  E  1435   27 20083436516  N  1504  
   28 20083436532  N  1508   29 20083436537  E  1509   30 20083436536  N  1509  
   31 20083436543  N  1510   32 20083436569  N  1515   33 20083436579  N  1518  
   34 20083436582  N  1518   35 20083436587  N  1520   36 20083436588  N  1520  
   37 20083436591  N  1520   38 20083436678  N  1549   39 20083436730  N  1557  
   40 20083436731  N  1557   41 20083436733  E  1557   42 20083436779  N  1606  
   43 20083436785  N  1608   44 20083436910  N  1639   45 20083436939  N  1647  
   46 20083436949  N  1651   47 20083436956  N  1654   48 20083437062  E  1822  
   49 20083437082  E  1943   50 20083437108  N  2006   51 20083437109  N  2007  
   52 20083437110  N  2008   53 20083437180  N  2144   54 20083437182  N  2145  
   55 20083437183  N  2147  

Total: 55
