
UTILMEMPH  00001 TNOCS 10/12/04 14:39:00 042861573 NORMAL GRID 

========//  TNOCS LOCATE REQUEST  //========

TICKET NUMBER--[042861573]  
OLD TICKET NUM-[042712135]  

MESSAGE TYPE---[NORMAL] LEAD TIME--[72]
PREPARED-------[10/12/04]  AT  [1439]  BY  [LINDSEY]

CONTRACTOR--[GARNEY CONSTRUCTION]   CALLER--[BRIAN WHITNEL]
ADDRESS-----[1333 NW VIVIAN RD]
CITY--------[KANSAS CITY]   STATE--[MO]   ZIP--[64118]
CALL BACK---[(615) 350-7975]   PHONE--[(615) 350-7975]
CONTACT-----[BRIAN WHITNEL]   PHONE--[(615) 350-7975]
CONTACT FAX-[]

WORK TO BEGIN--[10/15/04] AT [1445]      STATE--[TN]
COUNTY---[DAVIDSON]  PLACE--[NASHVILLE]

ADDRESS--[]   STREET--[N][9TH][ST][]
NEAREST INTERSECTION--------[W EASTLAND AVE]
LATITUDE--[36.1854355172546]    LONGITUDE--[-86.7583796695119]
SECONDARY LATITUDE--[36.1835182728023]    SECONDARY
LONGITUDE--[-86.7581983085502]

ADDITIONAL ADDRESSES IN LOCATION--[N]

LOCATION INFORMATION--
[WATER REHABILITATION...MARK FROM INTER GOING S FOR 250FT TO CLEVELAND ST      ]
[MARKING BOTH SIDES OF RD TO WATER METERS & MARKING FOR 100FT ON ALL SIDE      ]
[STS...UPDATE / REMARK...PER BRIAN WHITNEL...TKT 042712135                     ]

WORK TYPE--[WATER LINE MAINT.]  DONE FOR--[METRO WATER]
EXTENT-----[]

EXPLOSIVES--[N]    WHITE PAINT--[N]    GRID GIVEN--[N]

MAP REF.--[]
GRIDS-----
          [82D              ] [82E              ] 

UTILITIES NOTIFIED--
  CODE       NAME                         CODE       NAME                      
  ---------- --------------------------   ---------- --------------------------
  B01        BELLSOUTH - NASHVILLE        INTMC      COMCAST - METRO CENTER ...
  MPW        METRO PUBLIC WORKS           MWS        METRO WATER & SEWER       
  NES        NASHVILLE ELECTRIC SVC ...   NYG        NASHVILLE GAS             
  WILCMN     WILTEL COMMUNICATIONS, ... 





UTILMEMPH  00002 TNOCS 10/12/04 14:35:00 042861570 NORMAL GRID 

========//  TNOCS LOCATE REQUEST  //========

TICKET NUMBER--[042861570]  
OLD TICKET NUM-[]  

MESSAGE TYPE---[NORMAL] LEAD TIME--[72]
PREPARED-------[10/12/04]  AT  [1435]  BY  [DANIELLE]

CONTRACTOR--[TURFCO PEST CONTROL]   CALLER--[KARLA DURHAM]
ADDRESS-----[P.O. BOX 1864]
CITY--------[CORDOVA]   STATE--[TN]   ZIP--[38088-1864]
CALL BACK---[901-381-9300]   PHONE--[(901) 381-9300]
CONTACT-----[KARLA DURHAM]   PHONE--[(901) 381-9300]
CONTACT FAX-[]

WORK TO BEGIN--[10/15/04] AT [1445]      STATE--[TN]
COUNTY---[SHELBY]  PLACE--[MEMPHIS]

ADDRESS--[1306]   STREET--[][ISLAND PLACE][][E]
NEAREST INTERSECTION--------[ISLAND POINTE DR]
LATITUDE--[35.1745989274448]    LONGITUDE--[-90.0507182791798]
SECONDARY LATITUDE--[35.1720640504732]    SECONDARY
LONGITUDE--[-90.0468911119874]

ADDITIONAL ADDRESSES IN LOCATION--[N]

LOCATION INFORMATION--
[INSTALLING GROUND GUARD SIMILIAR TO SENTRICON...MARK 10 FT PERIMETER/RADIUS   ]
[AROUND RESIDENCE...**DO NOT MARK ON PAVED AREAS**...HANDY MAP PG 20 J...      ]

WORK TYPE--[SENTRICON]  DONE FOR--[ARTHUR SCOTT]
EXTENT-----[]

EXPLOSIVES--[N]    WHITE PAINT--[N]    GRID GIVEN--[N]

MAP REF.--[]
GRIDS-----
          [05924            ] [05928            ] 

UTILITIES NOTIFIED--
  CODE       NAME                         CODE       NAME                      
  ---------- --------------------------   ---------- --------------------------
  B11        BELLSOUTH - MEMPHIS          CSI        XO COMMUNICATIONS - MEM...
  MU         MEMPHIS LIGHT, GAS & WATER   TWC        TIME WARNER CATV          





UTILMEMPH  00003 TNOCS 10/12/04 14:29:00 042861542 NORMAL GRID 

========//  TNOCS LOCATE REQUEST  //========

TICKET NUMBER--[042861542]  
OLD TICKET NUM-[]  

MESSAGE TYPE---[NORMAL] LEAD TIME--[72]
PREPARED-------[10/12/04]  AT  [1429]  BY  [KATHY]

CONTRACTOR--[OLIVE BRANCH PLUMBING]   CALLER--[PAM GROSS]
ADDRESS-----[PO BOX 211]
CITY--------[OLIVE BRANCH]   STATE--[MS]   ZIP--[38654]
CALL BACK---[662-893-0346]   PHONE--[(662) 893-0346]
CONTACT-----[PAM GROSS]   PHONE--[(662) 893-0346]
CONTACT FAX-[]

WORK TO BEGIN--[10/15/04] AT [1430]      STATE--[TN]
COUNTY---[SHELBY]  PLACE--[MEMPHIS]

ADDRESS--[767]   STREET--[N][PERKINS][RD][]
NEAREST INTERSECTION--------[TUTWILER AVE]
LATITUDE--[35.1523258919031]    LONGITUDE--[-89.908013662162]
SECONDARY LATITUDE--[0]    SECONDARY LONGITUDE--[0]

ADDITIONAL ADDRESSES IN LOCATION--[N]

LOCATION INFORMATION--
[MARK ENTIRE PROP....LOT 2...PERKINS GROVE SUBD....                            ]

WORK TYPE--[SEWER LINE, INSTL AND/OR REPAIR]  DONE FOR--[TERRY AND TERRY]
EXTENT-----[]

EXPLOSIVES--[N]    WHITE PAINT--[N]    GRID GIVEN--[N]

MAP REF.--[]
GRIDS-----
          [07409            ] 

UTILITIES NOTIFIED--
  CODE       NAME                         CODE       NAME                      
  ---------- --------------------------   ---------- --------------------------
  B11        BELLSOUTH - MEMPHIS          CSI        XO COMMUNICATIONS - MEM...
  MUAH       MEMPHIS LIGHT, GAS & WATER   TWC        TIME WARNER CATV          





UTILMEMPH  00004 TNOCS 10/12/04 14:24:00 042861545 EMERGENCY GRID 

========//  TNOCS LOCATE REQUEST  //========

TICKET NUMBER--[042861545]   == E M E R G E N C Y ==
OLD TICKET NUM-[]  

MESSAGE TYPE---[EMERGENCY] LEAD TIME--[18]
PREPARED-------[10/12/04]  AT  [1424]  BY  [DESI]

CONTRACTOR--[CITY OF ROSSVILLE]   CALLER--[RANDY REEVES]
ADDRESS-----[PO BOX 27]
CITY--------[ROSSVILLE]   STATE--[TN]   ZIP--[38066]
CALL BACK---[(901) 854-6341]   PHONE--[(901) 854-6341]
CONTACT-----[RANDY REEVES]   PHONE--[(901) 854-6341]
CONTACT FAX-[]

WORK TO BEGIN--[10/13/04] AT [0800]      STATE--[TN]
COUNTY---[FAYETTE]  PLACE--[ROSSVILLE]

ADDRESS--[6175]   STREET--[][HWY 57][][]
NEAREST INTERSECTION--------[HIGH ST]
LATITUDE--[35.0416204731852]    LONGITUDE--[-89.5405206182975]
SECONDARY LATITUDE--[35.0411662145099]    SECONDARY
LONGITUDE--[-89.5316878107213]

ADDITIONAL ADDRESSES IN LOCATION--[N]

LOCATION INFORMATION--
[IMPENDING EMERG - UTIL IS REQUIRED BY LAW TO MARK U/G FACILITIES WITHIN THE   ]
[SPECIFIED START TIME LISTED ABOVE...MARK FRONT OF PROP ......                 ]

WORK TYPE--[SEWER LINE, INSTL AND/OR REPAIR]  DONE FOR--[CITY OF ROSSVILLE]
EXTENT-----[]

EXPLOSIVES--[N]    WHITE PAINT--[N]    GRID GIVEN--[N]

MAP REF.--[]
GRIDS-----
          [166O             ] [181C             ] [181B             ] 

UTILITIES NOTIFIED--
  CODE       NAME                         CODE       NAME                      
  ---------- --------------------------   ---------- --------------------------
  B11        BELLSOUTH - MEMPHIS          HFU        HARDEMAN FAYETTE UTIL DIST
  TWC002     TIME WARNER CATV - FAYE... 





UTILMEMPH  00005 TNOCS 10/12/04 14:28:00 042861535 NORMAL GRID 

========//  TNOCS LOCATE REQUEST  //========

TICKET NUMBER--[042861535]  
OLD TICKET NUM-[]  

MESSAGE TYPE---[NORMAL] LEAD TIME--[72]
PREPARED-------[10/12/04]  AT  [1428]  BY  [GR.WILLIE.P]

CONTRACTOR--[MEMPHIS LIGHT GAS AND WATER DIVISION]   CALLER--[WILLIE PYRDAM]
ADDRESS-----[6012 WINCHESTER]
CITY--------[MEMPHIS]   STATE--[TN]   ZIP--[38115]
CALL BACK---[   901-367-3304]   PHONE--[(901) 367-3303]
CONTACT-----[WILLIE PYRDAM]   PHONE--[(901) 367-3304]
CONTACT FAX-[]

WORK TO BEGIN--[10/15/04] AT [1430]      STATE--[TN]
COUNTY---[SHELBY]  PLACE--[MEMPHIS]

ADDRESS--[1015]   STREET--[][CASSABELLA ][CV][]
NEAREST INTERSECTION--------[]
LATITUDE--[35.1548500061035]    LONGITUDE--[-89.7813339233398]
SECONDARY LATITUDE--[35.1488990783691]    SECONDARY
LONGITUDE--[-89.7709197998047]

ADDITIONAL ADDRESSES IN LOCATION--[N]

LOCATION INFORMATION--
[MARK ENTIRE PROPERTY                                                          ]

WORK TYPE--[ELEC & GAS, INSTL U/G]  DONE FOR--[MEMPHIS LIGHT GAS AND WATER
DIVISION]
EXTENT-----[]

EXPLOSIVES--[N]    WHITE PAINT--[N]    GRID GIVEN--[Y]

MAP REF.--[]
GRIDS-----
          [07710            ] 

UTILITIES NOTIFIED--
  CODE       NAME                         CODE       NAME                      
  ---------- --------------------------   ---------- --------------------------
  B11        BELLSOUTH - MEMPHIS          CSI        XO COMMUNICATIONS - MEM...
  MCI        MCI                          MU         MEMPHIS LIGHT, GAS & WATER
  TWC        TIME WARNER CATV           





UTILMEMPH  00006 TNOCS 10/12/04 14:27:00 042861528 NORMAL GRID 

========//  TNOCS LOCATE REQUEST  //========

TICKET NUMBER--[042861528]  
OLD TICKET NUM-[]  

MESSAGE TYPE---[NORMAL] LEAD TIME--[72]
PREPARED-------[10/12/04]  AT  [1427]  BY  [GR.WILLIE.P]

CONTRACTOR--[MEMPHIS LIGHT GAS AND WATER DIVISION]   CALLER--[WILLIE PYRDAM]
ADDRESS-----[6012 WINCHESTER]
CITY--------[MEMPHIS]   STATE--[TN]   ZIP--[38115]
CALL BACK---[   901-367-3304]   PHONE--[(901) 367-3303]
CONTACT-----[WILLIE PYRDAM]   PHONE--[(901) 367-3304]
CONTACT FAX-[]

WORK TO BEGIN--[10/15/04] AT [1430]      STATE--[TN]
COUNTY---[SHELBY]  PLACE--[MEMPHIS]

ADDRESS--[1011]   STREET--[][CASSABELLA ][CV][]
NEAREST INTERSECTION--------[]
LATITUDE--[35.1548500061035]    LONGITUDE--[-89.7813339233398]
SECONDARY LATITUDE--[35.1488990783691]    SECONDARY
LONGITUDE--[-89.7709197998047]

ADDITIONAL ADDRESSES IN LOCATION--[N]

LOCATION INFORMATION--
[MARK ENTIRE PROPERTY                                                          ]

WORK TYPE--[ELEC & GAS, INSTL U/G]  DONE FOR--[MEMPHIS LIGHT GAS AND WATER
DIVISION]
EXTENT-----[]

EXPLOSIVES--[N]    WHITE PAINT--[N]    GRID GIVEN--[Y]

MAP REF.--[]
GRIDS-----
          [07710            ] 

UTILITIES NOTIFIED--
  CODE       NAME                         CODE       NAME                      
  ---------- --------------------------   ---------- --------------------------
  B11        BELLSOUTH - MEMPHIS          CSI        XO COMMUNICATIONS - MEM...
  MCI        MCI                          MU         MEMPHIS LIGHT, GAS & WATER
  TWC        TIME WARNER CATV           





UTILMEMPH  00007 TNOCS 10/12/04 14:26:00 042861527 NORMAL GRID 

========//  TNOCS LOCATE REQUEST  //========

TICKET NUMBER--[042861527]  
OLD TICKET NUM-[]  

MESSAGE TYPE---[NORMAL] LEAD TIME--[72]
PREPARED-------[10/12/04]  AT  [1426]  BY  [LINDSEY]

CONTRACTOR--[MEMPHIS LIGHT, GAS, AND WATER]   CALLER--[CHRIS ENOS]
ADDRESS-----[1060 TUPELO]
CITY--------[MEMPHIS]   STATE--[TN]   ZIP--[38115]
CALL BACK---[901-320-1560]   PHONE--[(901) 320-1560]
CONTACT-----[CHRIS ENOS]   PHONE--[]
CONTACT FAX-[]

WORK TO BEGIN--[10/15/04] AT [1430]      STATE--[TN]
COUNTY---[SHELBY]  PLACE--[MEMPHIS]

ADDRESS--[1439]   STREET--[][MOREHEAD][ST][]
NEAREST INTERSECTION--------[CORRINE AVE]
LATITUDE--[35.1793413930483]    LONGITUDE--[-90.0238921779723]
SECONDARY LATITUDE--[0]    SECONDARY LONGITUDE--[0]

ADDITIONAL ADDRESSES IN LOCATION--[N]

LOCATION INFORMATION--
[MARK 50FT RADIUS OF WHITE MARKINGS IN THE NW CORNER OF SUBSTATION 2 ON THE    ]
[OUTSIDE OF THE FENCE                                                          ]

WORK TYPE--[POLE(S), INSTL AND/OR REPL]  DONE FOR--[MEMPHIS LIGHT, GAS, AND
WATER]
EXTENT-----[]

EXPLOSIVES--[N]    WHITE PAINT--[Y]    GRID GIVEN--[N]

MAP REF.--[]
GRIDS-----
          [06018            ] [06022            ] 

UTILITIES NOTIFIED--
  CODE       NAME                         CODE       NAME                      
  ---------- --------------------------   ---------- --------------------------
  B11        BELLSOUTH - MEMPHIS          MU         MEMPHIS LIGHT, GAS & WATER
  TWC        TIME WARNER CATV           





UTILMEMPH  00008 TNOCS 10/12/04 14:27:00 042861522 NORMAL GRID 

========//  TNOCS LOCATE REQUEST  //========

TICKET NUMBER--[042861522]  
OLD TICKET NUM-[]  

MESSAGE TYPE---[NORMAL] LEAD TIME--[72]
PREPARED-------[10/12/04]  AT  [1427]  BY  [GR.WILLIE.P]

CONTRACTOR--[MEMPHIS LIGHT GAS AND WATER DIVISION]   CALLER--[WILLIE PYRDAM]
ADDRESS-----[6012 WINCHESTER]
CITY--------[MEMPHIS]   STATE--[TN]   ZIP--[38115]
CALL BACK---[   901-367-3304]   PHONE--[(901) 367-3303]
CONTACT-----[WILLIE PYRDAM]   PHONE--[(901) 367-3304]
CONTACT FAX-[]

WORK TO BEGIN--[10/15/04] AT [1430]      STATE--[TN]
COUNTY---[SHELBY]  PLACE--[MEMPHIS]

ADDRESS--[1030]   STREET--[][CASSABELLA ][CV][]
NEAREST INTERSECTION--------[]
LATITUDE--[35.1548500061035]    LONGITUDE--[-89.7813339233398]
SECONDARY LATITUDE--[35.1488990783691]    SECONDARY
LONGITUDE--[-89.7709197998047]

ADDITIONAL ADDRESSES IN LOCATION--[N]

LOCATION INFORMATION--
[MARK ENTIRE PROPERTY                                                          ]

WORK TYPE--[ELEC & GAS, INSTL U/G]  DONE FOR--[MEMPHIS LIGHT GAS AND WATER
DIVISION]
EXTENT-----[]

EXPLOSIVES--[N]    WHITE PAINT--[N]    GRID GIVEN--[Y]

MAP REF.--[]
GRIDS-----
          [07710            ] 

UTILITIES NOTIFIED--
  CODE       NAME                         CODE       NAME                      
  ---------- --------------------------   ---------- --------------------------
  B11        BELLSOUTH - MEMPHIS          CSI        XO COMMUNICATIONS - MEM...
  MCI        MCI                          MU         MEMPHIS LIGHT, GAS & WATER
  TWC        TIME WARNER CATV           





