
ATL01  00050 GAUPC 03/05/02 08:28:37 03042-016-065-000 NORMAL UPDATE
Underground Notification
Ticket : 03042-016-065 Date: 03/04/02 Time: 17:37 Revision: 000
Old Tkt: 02112-054-107 Date: 02/14/02 Time: 00:11

State: GA  County: FULTON       Place: ATLANTA
Addr : From: 294    To:        Name:    LINCOLN                        ST
Cross: From:        To:        Name:
Offset:
Subdivision:
RR Subdivision:            RR Marker:            Mile Marker:
Locat: LOC ENTIRE PROPERTY AND BOTH SIDES OF THE STREET

Grids    : 3343D8423B   3342B8423A   3342A8423A   3343D8423A
Work type: REPAIR GAS MAIN LEAK
Work date: 03/08/02 Time: 07:00 Hrs notc: 085 Priority: 3
Legal day: 03/08/02 Time: 07:00 Good thru: 03/26/02 Restake by: 03/21/02
RespondBy: 03/07/02 Time: 23:59 Duration : 8 HRS
Done for : ATLANTA GAS LIGHT
Crew on Site: N  White-lined: N  Railroad: N  Blasting: N  Boring: N

Remarks : *** NEAR STREET ***   JOYLAND PL

Company : ATLANTA GAS LIGHT                         Type: MEMB
Co addr : 1251 CAROLINE ST.
City    : ATLANTA                        State   : GA Zip: 30302
Caller  : WAYNE PEARCE                   Phone   : 404-584-4458
Fax     :                                Alt. Ph.:

Submitted date: 03/04/02 Time: 17:37 Oper: 016 Chan: WEB
Mbrs : ABS01  AGL102 ATL01  ATTBB  BSCA   DOTI   EPC01  FUL02  GP141B MCI02
     : NU103  OMN01  USW01
-------------------------------------------------------------------------------
TK305081.722 #00041



ATL01  00051 GAUPC 03/05/02 08:28:44 03042-016-066-000 NORMAL UPDATE
Underground Notification
Ticket : 03042-016-066 Date: 03/04/02 Time: 17:38 Revision: 000
Old Tkt: 02132-104-083 Date: 02/16/02 Time: 00:12

State: GA  County: DEKALB       Place: ATLANTA
Addr : From: 650    To:        Name:    CLIFTON                        RD   SE
Cross: From:        To:        Name:
Offset:
Subdivision:
RR Subdivision:            RR Marker:            Mile Marker:
Locat: LOC ENTIRE PROPERTY ROW BOTH  SIDES

Grids    : 3344C8419A   3344B8419A
Work type: RPR GAS MAIN
Work date: 03/08/02 Time: 07:00 Hrs notc: 085 Priority: 3
Legal day: 03/08/02 Time: 07:00 Good thru: 03/26/02 Restake by: 03/21/02
RespondBy: 03/07/02 Time: 23:59 Duration : 8HRS
Done for : AGL
Crew on Site: N  White-lined: N  Railroad: N  Blasting: N  Boring: Y

Remarks : *** NEAR STREET ***   FLAT SHOALS RD
        : *** WILL BORE N0NE
        : *** LOOKUP BY MANUAL

Company : ATLANTA GAS LIGHT                         Type: MEMB
Co addr : 1251 CAROLINE ST.
City    : ATLANTA                        State   : GA Zip: 30302
Caller  : WAYNE PEARCE                   Phone   : 404-584-4458
Fax     :                                Alt. Ph.:

Submitted date: 03/04/02 Time: 17:38 Oper: 016 Chan: WEB
Mbrs : AGL102 ATL01  ATTBB  BSCA   DCTS01 DCWS01 DOTI   GP832  USW01
-------------------------------------------------------------------------------
TK305081.750 #00042


ATL01  00052 GAUPC 03/05/02 08:28:51 03042-016-067-000 NORMAL UPDATE
Underground Notification
Ticket : 03042-016-067 Date: 03/04/02 Time: 17:38 Revision: 000
Old Tkt: 02112-054-101 Date: 02/14/02 Time: 00:11

State: GA  County: FULTON       Place: ATLANTA
Addr : From: 678    To:        Name:    SOMERSET                       TER  NE
Cross: From:        To:        Name:
Offset:
Subdivision:
RR Subdivision:            RR Marker:            Mile Marker:
Locat: LOC ENTIRE PROPERTY AND BOTH SIDES OF THE STREET

Grids    : 3346D8421B   3346C8421B   3346D8421A   3346C8421A
Work type: REPAIR GAS MAIN LEAK
Work date: 03/08/02 Time: 07:00 Hrs notc: 085 Priority: 3
Legal day: 03/08/02 Time: 07:00 Good thru: 03/26/02 Restake by: 03/21/02
RespondBy: 03/07/02 Time: 23:59 Duration : 8 HRS
Done for : ATLANTA GAS LIGHT
Crew on Site: N  White-lined: N  Railroad: N  Blasting: N  Boring: N

Remarks : *** NEAR STREET ***   NORTH AV

Company : ATLANTA GAS LIGHT                         Type: MEMB
Co addr : 1251 CAROLINE ST.
City    : ATLANTA                        State   : GA Zip: 30302
Caller  : WAYNE PEARCE                   Phone   : 404-584-4458
Fax     :                                Alt. Ph.:

Submitted date: 03/04/02 Time: 17:38 Oper: 016 Chan: WEB
Mbrs : AGL103 ATL01  ATTBB  BSCA   DOTI   FUL02  GP104  OMN01  QWEST8 USW01
-------------------------------------------------------------------------------
TK305081.757 #00043


ATL01  00053 GAUPC 03/05/02 08:28:57 03042-016-068-000 NORMAL UPDATE
Underground Notification
Ticket : 03042-016-068 Date: 03/04/02 Time: 17:39 Revision: 000
Old Tkt: 02112-054-100 Date: 02/14/02 Time: 00:11

State: GA  County: FULTON       Place: ATLANTA
Addr : From: 1164   To:        Name:    SPRING VALLEY                  LN   NE
Cross: From:        To:        Name:
Offset:
Subdivision:
RR Subdivision:            RR Marker:            Mile Marker:
Locat: LOC ENTIRE PROPERTY AND BOTH SIDES OF THE STREET

Grids    : 3347C8420A   3347B8420A   3347C8421D   3347B8421D
Work type: REPAIR GAS MAIN LEAK
Work date: 03/08/02 Time: 07:00 Hrs notc: 085 Priority: 3
Legal day: 03/08/02 Time: 07:00 Good thru: 03/26/02 Restake by: 03/21/02
RespondBy: 03/07/02 Time: 23:59 Duration : 8 HRS
Done for : ATLANTA GAS LIGHT
Crew on Site: N  White-lined: N  Railroad: N  Blasting: N  Boring: N

Remarks : *** NEAR STREET ***   UNIVERSITY LANIER BLVD

Company : ATLANTA GAS LIGHT                         Type: MEMB
Co addr : 1251 CAROLINE ST.
City    : ATLANTA                        State   : GA Zip: 30302
Caller  : WAYNE PEARCE                   Phone   : 404-584-4458
Fax     :                                Alt. Ph.:

Submitted date: 03/04/02 Time: 17:39 Oper: 016 Chan: WEB
Mbrs : AGL102 AGL103 ATL01  ATTBB  BSCA   DCTS01 DCWS01 DOTI   FUL02  GP107
     : GP832  GP833  OMN01  USW01
-------------------------------------------------------------------------------
TK305081.804 #00044


ATL01  00054 GAUPC 03/05/02 08:29:04 03042-016-069-000 NORMAL
Underground Notification
Ticket : 03042-016-069 Date: 03/04/02 Time: 17:39 Revision: 000

State: GA  County: FULTON       Place: ATLANTA
Addr : From: 485    To:        Name:    SUNSET                         AV   NW
Cross: From:        To:        Name:
Offset:
Subdivision:
RR Subdivision:            RR Marker:            Mile Marker:
Locat: LOC ENTIRE PROP--LOC BOTH SIDES OF THE RD

Grids    : 3346D8424B
Work type: REPAIR GAS MAIN LEAK
Work date: 03/08/02 Time: 07:00 Hrs notc: 085 Priority: 3
Legal day: 03/08/02 Time: 07:00 Good thru: 03/26/02 Restake by: 03/21/02
RespondBy: 03/07/02 Time: 23:59 Duration : 8 HRS
Done for : ATLANTA GAS LIGHT
Crew on Site: N  White-lined: N  Railroad: N  Blasting: N  Boring: N

Remarks : *** NEAR STREET ***   KENNEDY ST
        : *** LOOKUP BY MANUAL

Company : ATLANTA GAS LIGHT                         Type: MEMB
Co addr : 1251 CAROLINE ST.
City    : ATLANTA                        State   : GA Zip: 30302
Caller  : WAYNE PEARCE                   Phone   : 404-584-4458
Fax     :                                Alt. Ph.:

Submitted date: 03/04/02 Time: 17:39 Oper: 016 Chan: WEB
Mbrs : ABS01  AGL102 AGL103 ATL01  ATTBB  BSCA   DOTI   FUL02  GP103  MCI02
     : NU103  OMN01  USW01
-------------------------------------------------------------------------------
TK305081.811 #00045


ATL01  00055 GAUPC 03/05/02 08:29:11 03042-017-041-000 NORMAL
Underground Notification
Ticket : 03042-017-041 Date: 03/04/02 Time: 17:26 Revision: 000

State: GA  County: FULTON       Place: ATLANTA
Addr : From: 4717   To:        Name:    DUDLEY                         LN   NW
Cross: From:        To:        Name:
Offset:
Subdivision:
RR Subdivision:            RR Marker:            Mile Marker:
Locat: LOC L SIDE OF PROP

Grids    : 3352B8423C   3352A8423C
Work type: INSTAL FENCE
Work date: 03/08/02 Time: 07:00 Hrs notc: 085 Priority: 3
Legal day: 03/08/02 Time: 07:00 Good thru: 03/26/02 Restake by: 03/21/02
RespondBy: 03/07/02 Time: 23:59 Duration : 1 D
Done for : ANDY BEEN
Crew on Site: N  White-lined: N  Railroad: N  Blasting: N  Boring: N

Remarks : *** NEAR STREET ***   POWERS FERRY RD
        : *** LOOKUP BY MANUAL

Company : AMERICAN LANDMARK FENCE                   Type: CONT
Co addr : 1501 CANTON RD
City    : MARIETTA                       State   : GA Zip: 30066
Caller  : MATT CHISOLM                   Phone   : 770-795-9100
Fax     :                                Alt. Ph.:

Submitted date: 03/04/02 Time: 17:26 Oper: 017 Chan: WEB
Mbrs : AGL123 ATL01  ATTBB  BSNE   DOTI   FUL02  GP106  OMN01  USW01
-------------------------------------------------------------------------------
TK305081.817 #00046


ATL01  00056 GAUPC 03/05/02 08:29:17 03042-026-096-000 NORMAL UPDATE
Underground Notification
Ticket : 03042-026-096 Date: 03/04/02 Time: 17:36 Revision: 000
Old Tkt: 02142-028-044 Date: 02/19/02 Time: 00:06

State: GA  County: DEKALB       Place: ATLANTA
Addr : From: 1500   To:        Name:    MCCLENDON                      AV   NE
Cross: From:        To:        Name:
Offset:
Subdivision:
RR Subdivision:            RR Marker:            Mile Marker:
Locat: AROUND TENNIS COURTS

Grids    : 3345A8420C   3346D8420C   3345A8420B   3346D8420B
Work type: INSTL TENNIS COURT LITING
Work date: 03/08/02 Time: 07:00 Hrs notc: 085 Priority: 3
Legal day: 03/08/02 Time: 07:00 Good thru: 03/26/02 Restake by: 03/21/02
RespondBy: 03/07/02 Time: 23:59 Duration : 4 DAY
Done for : CY OF ATL PARKS AND REC
Crew on Site: N  White-lined: N  Railroad: N  Blasting: N  Boring: N

Remarks : *** NEAR STREET ***   OAKDALE RD
        : *** LOOKUP BY MANUAL

Company : NEWCO INC.                                Type: CONT
Co addr : 190 STACIE LN
City    : DAWSONVILLE                    State   : GA Zip: 30534
Caller  : MONTREE DICKERSON              Phone   : 706-216-0007
Fax     :                                Alt. Ph.:

Submitted date: 03/04/02 Time: 17:36 Oper: 026 Chan: WEB
Mbrs : AGL102 ATL01  ATT02  ATTBB  BSCA   DCTS01 DCWS01 DOTI   GP832  MCI02
     : USW01  WCI01
-------------------------------------------------------------------------------
TK305081.823 #00047


ATL01  00057 GAUPC 03/05/02 08:29:25 03042-031-093-000 NORMAL
Underground Notification
Ticket : 03042-031-093 Date: 03/04/02 Time: 16:45 Revision: 000

State: GA  County: FULTON       Place: ATLANTA
Addr : From: 4563   To:        Name:    TALL PINES                     DR   NW
Cross: From:        To:        Name:
Offset:
Subdivision:
RR Subdivision:            RR Marker:            Mile Marker:
Locat: LOCATE FRONT &amp; B/S OF PROPERTY

Grids    : 3352B8423C   3352A8423C   3353D8423C   3352A8423B   3353D8423B
Work type: INSTL SPRINKLER
Work date: 03/08/02 Time: 07:00 Hrs notc: 086 Priority: 3
Legal day: 03/08/02 Time: 07:00 Good thru: 03/26/02 Restake by: 03/21/02
RespondBy: 03/07/02 Time: 23:59 Duration : 3 DYS
Done for : ARMSTRONG
Crew on Site: N  White-lined: N  Railroad: N  Blasting: N  Boring: Y

Remarks : THE ADDRESS IS 1 BLOCK FROM CHASTAIN PARK // LAKE FOREST DR IS
        : ANOTHER CROSS
        : *** NEAR STREET ***   BARBARA LN
        : *** WILL BORE DRIVEWAY

Company : WILSON  DESIGNS                           Type: CONT
Co addr : 1640 LOBLOLLY LANE
City    : CUMMING                        State   : GA Zip: 30041
Caller  : SAM WILSON                     Phone   : 770-781-9745
Fax     :                                Alt. Ph.:

Submitted date: 03/04/02 Time: 16:45 Oper: 031 Chan: WEB
Mbrs : AGL123 ATL01  ATTBB  BSNE   CPL81  DOTI   FUL02  GP106  OMN01  PPL01
     : USW01
-------------------------------------------------------------------------------
TK305081.831 #00048


ATL01  00058 GAUPC 03/05/02 08:29:32 03042-099-033-000 NORMAL
Underground Notification
Ticket : 03042-099-033 Date: 03/04/02 Time: 16:52 Revision: 000

State: GA  County: FULTON       Place: ATLANTA
Addr : From:        To:        Name:    GLENWOOD                       AV   SE
Cross: From:        To:        Name:
Offset:
Subdivision:
RR Subdivision:            RR Marker:            Mile Marker:
Locat: LOC THE ENTIRE PROPERTY AT THE VACANT LOT ACROSS FROM 915 GLENWOOD AVE

Grids    : 3344C8421D   3344C8421C   3344C8421B
Work type: SOIL TEST BORINGS
Work date: 03/08/02 Time: 07:00 Hrs notc: 086 Priority: 3
Legal day: 03/08/02 Time: 07:00 Good thru: 03/26/02 Restake by: 03/21/02
RespondBy: 03/07/02 Time: 23:59 Duration : 2 WEEKS
Done for : CITY OF ATLANTA
Crew on Site: N  White-lined: N  Railroad: N  Blasting: N  Boring: N

Remarks : CHESTER AV IS AKA 154 CONNECTOR
        : *** NEAR STREET ***   CHESTER AV
        : *** LOOKUP BY MANUAL

Company : CW MATTHEWS                               Type: CONT
Co addr : 1600 KENVIEW DR
City    : MARIETTA                       State   : GA Zip: 30061
Caller  : WYATT HOLCOMB                  Phone   : 770-235-6119
Fax     :                                Alt. Ph.: 770-422-7555 Ext: 131

Submitted date: 03/04/02 Time: 16:52 Oper: 099 Chan: WEB
Mbrs : AGL103 ATL01  ATTBB  BSCA   DOTI   FUL02  GP104  MCI02  OMN01  USW01
-------------------------------------------------------------------------------
TK305081.838 #00049

ATL01  00059 GAUPC 03/05/02 08:29:39 03042-501-035-000 NORMAL
Underground Notification
Ticket : 03042-501-035 Date: 03/04/02 Time: 17:13 Revision: 000

State: GA  County: FULTON       Place: ATLANTA
Addr : From: 1445   To: 1445   Name:    MAYNARD                        RD   NW
Cross: From:        To:        Name:
Offset:
Subdivision: BLALOCK ELEMENTARY SCHOOL
RR Subdivision:            RR Marker:            Mile Marker:
Locat: LOCATE DRIVEWAY&apos;S AND PARKING AREA&apos;S FOR INSTALLATION OF LIGHT POLES.

Grids    : 3347B8429A   3347B8430D
Work type: SETTING POLES
Work date: 03/08/02 Time: 07:00 Hrs notc: 085 Priority: 3
Legal day: 03/08/02 Time: 07:00 Good thru: 03/26/02 Restake by: 03/21/02
RespondBy: 03/07/02 Time: 23:59 Duration : 8 HRS
Done for : GA. POWER CO.
Crew on Site: N  White-lined: Y  Railroad: N  Blasting: N  Boring: N

Remarks : POLES ARE STAKED.
        : *** NEAR STREET ***   BANKHEAD HWY NW

Company : GEORGIA POWER                             Type: MEMB
Co addr : 890 PONCE-DE-LEON PL. N E
City    : ATLANTA                        State   : GA Zip: 30306
Caller  : JERRY O&apos;KELLEY                 Phone   : 404-685-4647
Fax     : 404-817-3029                   Alt. Ph.: 404-685-4647
Email   : JLOKELLE@SOUTHERNCO.COM
Cellular: 404-405-2496

Submitted date: 03/04/02 Time: 17:13 Oper: 501 Chan: 999
Mbrs : AGL102 ATL01  ATTBB  BSCA   DOTI   FUL02  GP105  GP131  OMN01  USW01
-------------------------------------------------------------------------------
TK305081.845 #00050


ATL01  00060 GAUPC 03/05/02 08:29:46 03042-501-036-000 NORMAL
Underground Notification
Ticket : 03042-501-036 Date: 03/04/02 Time: 17:23 Revision: 000

State: GA  County: FULTON       Place: ATLANTA
Addr : From: 1475   To: 1475   Name:    MAYNARD                        RD   NW
Cross: From:        To:        Name:
Offset:
Subdivision: BANKHEAD COMMUNITY CENTER
RR Subdivision:            RR Marker:            Mile Marker:
Locat: LOCATE PARKING LOT.

Grids    : 3347B8429A   3347B8430D
Work type: SETTING POLES
Work date: 03/08/02 Time: 07:00 Hrs notc: 085 Priority: 3
Legal day: 03/08/02 Time: 07:00 Good thru: 03/26/02 Restake by: 03/21/02
RespondBy: 03/07/02 Time: 23:59 Duration : 8 HRS
Done for : GA. POWER CO.
Crew on Site: N  White-lined: Y  Railroad: N  Blasting: N  Boring: N

Remarks : POLES ARE STAKED.
        : *** NEAR STREET ***   BANKHEAD HWY NW

Company : GEORGIA POWER                             Type: MEMB
Co addr : 890 PONCE-DE-LEON PL. N E
City    : ATLANTA                        State   : GA Zip: 30306
Caller  : JERRY O&apos;KELLEY                 Phone   : 404-685-4647
Fax     : 404-817-3029                   Alt. Ph.: 404-685-4647
Email   : JLOKELLE@SOUTHERNCO.COM
Cellular: 404-405-2496

Submitted date: 03/04/02 Time: 17:23 Oper: 501 Chan: 999
Mbrs : AGL102 ATL01  ATTBB  BSCA   DOTI   FUL02  GP105  GP131  OMN01  USW01
-------------------------------------------------------------------------------
TK305081.852 #00051

ATL01  00061 GAUPC 03/05/02 08:29:53 03042-915-001-000 NORMAL
Underground Notification
Ticket : 03042-915-001 Date: 03/04/02 Time: 17:15 Revision: 000

State: GA  County: FULTON       Place: ATLANTA
Addr : From: 2001   To:        Name:    JAMES JACKSON                  PKWY NW
Cross: From:        To:        Name:    BOLTON                         RD   NW
Offset:
Subdivision:
RR Subdivision:            RR Marker:            Mile Marker:
Locat: LOCATE AROUND TEMPORARY POLE WITH ELECTRICAL SERVICE. NEAR WHITE TRAILER
     : SOUTH EAST CORNER

Grids    : 3348B8428B
Work type: SETTING POLES AND ANCHORS
Work date: 03/08/02 Time: 07:00 Hrs notc: 085 Priority: 3
Legal day: 03/08/02 Time: 07:00 Good thru: 03/26/02 Restake by: 03/21/02
RespondBy: 03/07/02 Time: 23:59 Duration : 1 DAY
Done for : GEORGIA POWER
Crew on Site: N  White-lined: N  Railroad: N  Blasting: N  Boring: N

Remarks : *** NEAR STREET ***   PARROTT AVE

Company : GEORGIA POWER COMPANY                     Type: MEMB
Co addr : 760 RALPH MCGILL BLVD
City    : ATLANTA                        State   : GA Zip: 30308
Caller  : BRAD BARTLING                  Phone   : 404-572-7636
Fax     :                                Alt. Ph.:

Submitted date: 03/04/02 Time: 17:15 Oper: 915 Chan: 999
Mbrs : AGL102 ATL01  ATTBB  BSCA   DOTI   FUL02  GP105  LEV3   OMN01  USW01
-------------------------------------------------------------------------------
TK305081.900 #00052

ATL01  00062 GAUPC 03/05/02 08:30:00 03052-024-006-000 NORMAL UPDATE
Underground Notification
Ticket : 03052-024-006 Date: 03/05/02 Time: 08:28 Revision: 000
Old Tkt: 02142-018-099 Date: 02/19/02 Time: 00:04

State: GA  County: FULTON       Place: ATLANTA
Addr : From:        To:        Name:    NORTHSIDE                      PKWY NW
Cross: From:        To:        Name:    MOUNT PARAN                    RD   NW
Offset:

State: GA  County: FULTON       Place: ATLANTA
Addr : From:        To:        Name:    NORTHSIDE                      PKWY NW
Cross: From:        To:        Name:    RIVER RIDGE                    DR   SE
Offset:
Subdivision:
RR Subdivision:            RR Marker:            Mile Marker:
Locat: LOCATE BTH SIDES OF NORTHSIDE PKWY FROM RIVER RIDGE DR TO MOUNT PARAN RD

Grids    : 3351B8426C   3351A8426C   3351A8426B   3351A8426A   3351A8427D
Work type: GRADING
Work date: 03/08/02 Time: 07:00 Hrs notc: 070 Priority: 3
Legal day: 03/08/02 Time: 07:00 Good thru: 03/26/02 Restake by: 03/21/02
RespondBy: 03/07/02 Time: 23:59 Duration : 3-6 MONTHS
Done for : BEERS CONSTRUCTION
Crew on Site: N  White-lined: N  Railroad: N  Blasting: N  Boring: N

Remarks : RESTAKE OF: 12271-040-042
        : RESTAKE OF: 01112-022-054
        : RESTAKE OF: 01292-033-032
        : * AGL123 WAS NOT ON THE ORIGINAL VERSION OF THIS TICKET
        : *** LOOKUP BY MANUAL

Company : PLATEAU EXCAVATION                        Type: CONT
Co addr : PINEVIEW DR
City    : POWDER SPGS                    State   : GA Zip: 30073
Caller  : ROMNIE WOOD                    Phone   : 770-948-2600
Fax     :                                Alt. Ph.:

Submitted date: 03/05/02 Time: 08:28 Oper: 024 Chan: WEB
Mbrs : AGL123 ATL01  ATT02  ATTBB  BSCA   COB01  CPL81  DOTI   FUL02  GP105
     : GP801B MBL91  MCI02  OMN01  PPL01  SMV30  USW01
-------------------------------------------------------------------------------
TK305081.906 #00053

ATL01  00063 GAUPC 03/05/02 08:30:09 03052-654-002-000 NORMAL
Underground Notification
Ticket : 03052-654-002 Date: 03/05/02 Time: 08:16 Revision: 000

State: GA  County: FULTON       Place: ATLANTA
Addr : From: 380    To:        Name:    NORTH                          AV   NE
Cross: From:        To:        Name:
Offset:
Subdivision:
RR Subdivision:            RR Marker:            Mile Marker:
Locat: BOTH SIDES OF STREET

Grids    : 3346D8420A   3346C8420A   3346D8421D   3346C8421D   3346D8421C
Grids    : 3346C8421C   3346D8421B   3346C8421B   3346D8421A   3346C8421A
Grids    : 3346D8422D   3346C8422D   3346D8422C   3346C8422C   3346D8422B
Grids    : 3346C8422B   3346D8422A   3346C8422A   3346D8423D   3346C8423D
Grids    : 3346D8423C   3346C8423C
Work type: WATER METER INSTALLATION
Work date: 03/08/02 Time: 07:00 Hrs notc: 070 Priority: 3
Legal day: 03/08/02 Time: 07:00 Good thru: 03/26/02 Restake by: 03/21/02
RespondBy: 03/07/02 Time: 23:59 Duration : 2 WKS
Done for : UNITED WATER SERVICES
Crew on Site: N  White-lined: N  Railroad: N  Blasting: N  Boring: Y

Remarks : CROSS STREETS BETWEEN GRAY &amp; MARIETTA ST. TAP AT GRAY
        : *** NEAR STREET ***   GRAY
        : *** WILL BORE ROAD, DRIVEWAY &amp; SIDEWALK

Company : CIVIL WORKS                               Type: CONT
Co addr : 3342 INTERNATIONAL PARK DR
City    : ATLANTA                        State   : GA Zip: 30316
Caller  : TRACY ELLISON                  Phone   : 404-799-7200
Fax     :                                Alt. Ph.:
Email   : TELLISON@THRASHERTRUCKING.COM

Submitted date: 03/05/02 Time: 08:16 Oper: 654 Chan: 999
Mbrs : ACS03  AGL102 AGL103 ATL01  ATT02  ATTBB  BSCA   DCTS01 DCWS01 DOTI
     : FUL02  GP103  GP104  GP832  LEV3   LGN01  MCI02  MFN02  MT104  NU103
     : NU104  OMN01  QWEST8 TWT90  USW01  WCI01
-------------------------------------------------------------------------------
TK305081.915 #00054

ATL01  00064 GAUPC 03/05/02 08:34:10 03042-016-065-000 NORMAL UPDATE
Underground Notification
Ticket : 03042-016-065 Date: 03/04/02 Time: 17:37 Revision: 000
Old Tkt: 02112-054-107 Date: 02/14/02 Time: 00:11

State: GA  County: FULTON       Place: ATLANTA
Addr : From: 294    To:        Name:    LINCOLN                        ST
Cross: From:        To:        Name:
Offset:
Subdivision:
RR Subdivision:            RR Marker:            Mile Marker:
Locat: LOC ENTIRE PROPERTY AND BOTH SIDES OF THE STREET

Grids    : 3343D8423B   3342B8423A   3342A8423A   3343D8423A
Work type: REPAIR GAS MAIN LEAK
Work date: 03/08/02 Time: 07:00 Hrs notc: 085 Priority: 3
Legal day: 03/08/02 Time: 07:00 Good thru: 03/26/02 Restake by: 03/21/02
RespondBy: 03/07/02 Time: 23:59 Duration : 8 HRS
Done for : ATLANTA GAS LIGHT
Crew on Site: N  White-lined: N  Railroad: N  Blasting: N  Boring: N

Remarks : *** NEAR STREET ***   JOYLAND PL

Company : ATLANTA GAS LIGHT                         Type: MEMB
Co addr : 1251 CAROLINE ST.
City    : ATLANTA                        State   : GA Zip: 30302
Caller  : WAYNE PEARCE                   Phone   : 404-584-4458
Fax     :                                Alt. Ph.:

Submitted date: 03/04/02 Time: 17:37 Oper: 016 Chan: WEB
Mbrs : ABS01  AGL102 ATL01  ATTBB  BSCA   DOTI   EPC01  FUL02  GP141B MCI02
     : NU103  OMN01  USW01
-------------------------------------------------------------------------------
TK305082.257 #00055

ATL01  00065 GAUPC 03/05/02 08:34:17 03042-016-066-000 NORMAL UPDATE
Underground Notification
Ticket : 03042-016-066 Date: 03/04/02 Time: 17:38 Revision: 000
Old Tkt: 02132-104-083 Date: 02/16/02 Time: 00:12

State: GA  County: DEKALB       Place: ATLANTA
Addr : From: 650    To:        Name:    CLIFTON                        RD   SE
Cross: From:        To:        Name:
Offset:
Subdivision:
RR Subdivision:            RR Marker:            Mile Marker:
Locat: LOC ENTIRE PROPERTY ROW BOTH  SIDES

Grids    : 3344C8419A   3344B8419A
Work type: RPR GAS MAIN
Work date: 03/08/02 Time: 07:00 Hrs notc: 085 Priority: 3
Legal day: 03/08/02 Time: 07:00 Good thru: 03/26/02 Restake by: 03/21/02
RespondBy: 03/07/02 Time: 23:59 Duration : 8HRS
Done for : AGL
Crew on Site: N  White-lined: N  Railroad: N  Blasting: N  Boring: Y

Remarks : *** NEAR STREET ***   FLAT SHOALS RD
        : *** WILL BORE N0NE
        : *** LOOKUP BY MANUAL

Company : ATLANTA GAS LIGHT                         Type: MEMB
Co addr : 1251 CAROLINE ST.
City    : ATLANTA                        State   : GA Zip: 30302
Caller  : WAYNE PEARCE                   Phone   : 404-584-4458
Fax     :                                Alt. Ph.:

Submitted date: 03/04/02 Time: 17:38 Oper: 016 Chan: WEB
Mbrs : AGL102 ATL01  ATTBB  BSCA   DCTS01 DCWS01 DOTI   GP832  USW01
-------------------------------------------------------------------------------
TK305082.325 #00056

ATL01  00066 GAUPC 03/05/02 08:34:24 03042-016-067-000 NORMAL UPDATE
Underground Notification
Ticket : 03042-016-067 Date: 03/04/02 Time: 17:38 Revision: 000
Old Tkt: 02112-054-101 Date: 02/14/02 Time: 00:11

State: GA  County: FULTON       Place: ATLANTA
Addr : From: 678    To:        Name:    SOMERSET                       TER  NE
Cross: From:        To:        Name:
Offset:
Subdivision:
RR Subdivision:            RR Marker:            Mile Marker:
Locat: LOC ENTIRE PROPERTY AND BOTH SIDES OF THE STREET

Grids    : 3346D8421B   3346C8421B   3346D8421A   3346C8421A
Work type: REPAIR GAS MAIN LEAK
Work date: 03/08/02 Time: 07:00 Hrs notc: 085 Priority: 3
Legal day: 03/08/02 Time: 07:00 Good thru: 03/26/02 Restake by: 03/21/02
RespondBy: 03/07/02 Time: 23:59 Duration : 8 HRS
Done for : ATLANTA GAS LIGHT
Crew on Site: N  White-lined: N  Railroad: N  Blasting: N  Boring: N

Remarks : *** NEAR STREET ***   NORTH AV

Company : ATLANTA GAS LIGHT                         Type: MEMB
Co addr : 1251 CAROLINE ST.
City    : ATLANTA                        State   : GA Zip: 30302
Caller  : WAYNE PEARCE                   Phone   : 404-584-4458
Fax     :                                Alt. Ph.:

Submitted date: 03/04/02 Time: 17:38 Oper: 016 Chan: WEB
Mbrs : AGL103 ATL01  ATTBB  BSCA   DOTI   FUL02  GP104  OMN01  QWEST8 USW01
-------------------------------------------------------------------------------
TK305082.331 #00057

ATL01  00067 GAUPC 03/05/02 08:34:30 03042-016-068-000 NORMAL UPDATE
Underground Notification
Ticket : 03042-016-068 Date: 03/04/02 Time: 17:39 Revision: 000
Old Tkt: 02112-054-100 Date: 02/14/02 Time: 00:11

State: GA  County: FULTON       Place: ATLANTA
Addr : From: 1164   To:        Name:    SPRING VALLEY                  LN   NE
Cross: From:        To:        Name:
Offset:
Subdivision:
RR Subdivision:            RR Marker:            Mile Marker:
Locat: LOC ENTIRE PROPERTY AND BOTH SIDES OF THE STREET

Grids    : 3347C8420A   3347B8420A   3347C8421D   3347B8421D
Work type: REPAIR GAS MAIN LEAK
Work date: 03/08/02 Time: 07:00 Hrs notc: 085 Priority: 3
Legal day: 03/08/02 Time: 07:00 Good thru: 03/26/02 Restake by: 03/21/02
RespondBy: 03/07/02 Time: 23:59 Duration : 8 HRS
Done for : ATLANTA GAS LIGHT
Crew on Site: N  White-lined: N  Railroad: N  Blasting: N  Boring: N

Remarks : *** NEAR STREET ***   UNIVERSITY LANIER BLVD

Company : ATLANTA GAS LIGHT                         Type: MEMB
Co addr : 1251 CAROLINE ST.
City    : ATLANTA                        State   : GA Zip: 30302
Caller  : WAYNE PEARCE                   Phone   : 404-584-4458
Fax     :                                Alt. Ph.:

Submitted date: 03/04/02 Time: 17:39 Oper: 016 Chan: WEB
Mbrs : AGL102 AGL103 ATL01  ATTBB  BSCA   DCTS01 DCWS01 DOTI   FUL02  GP107
     : GP832  GP833  OMN01  USW01
-------------------------------------------------------------------------------
TK305082.338 #00058

ATL01  00068 GAUPC 03/05/02 08:34:37 03042-016-069-000 NORMAL
Underground Notification
Ticket : 03042-016-069 Date: 03/04/02 Time: 17:39 Revision: 000

State: GA  County: FULTON       Place: ATLANTA
Addr : From: 485    To:        Name:    SUNSET                         AV   NW
Cross: From:        To:        Name:
Offset:
Subdivision:
RR Subdivision:            RR Marker:            Mile Marker:
Locat: LOC ENTIRE PROP--LOC BOTH SIDES OF THE RD

Grids    : 3346D8424B
Work type: REPAIR GAS MAIN LEAK
Work date: 03/08/02 Time: 07:00 Hrs notc: 085 Priority: 3
Legal day: 03/08/02 Time: 07:00 Good thru: 03/26/02 Restake by: 03/21/02
RespondBy: 03/07/02 Time: 23:59 Duration : 8 HRS
Done for : ATLANTA GAS LIGHT
Crew on Site: N  White-lined: N  Railroad: N  Blasting: N  Boring: N

Remarks : *** NEAR STREET ***   KENNEDY ST
        : *** LOOKUP BY MANUAL

Company : ATLANTA GAS LIGHT                         Type: MEMB
Co addr : 1251 CAROLINE ST.
City    : ATLANTA                        State   : GA Zip: 30302
Caller  : WAYNE PEARCE                   Phone   : 404-584-4458
Fax     :                                Alt. Ph.:

Submitted date: 03/04/02 Time: 17:39 Oper: 016 Chan: WEB
Mbrs : ABS01  AGL102 AGL103 ATL01  ATTBB  BSCA   DOTI   FUL02  GP103  MCI02
     : NU103  OMN01  USW01
-------------------------------------------------------------------------------
TK305082.345 #00059

ATL01  00069 GAUPC 03/05/02 08:34:44 03042-017-041-000 NORMAL
Underground Notification
Ticket : 03042-017-041 Date: 03/04/02 Time: 17:26 Revision: 000

State: GA  County: FULTON       Place: ATLANTA
Addr : From: 4717   To:        Name:    DUDLEY                         LN   NW
Cross: From:        To:        Name:
Offset:
Subdivision:
RR Subdivision:            RR Marker:            Mile Marker:
Locat: LOC L SIDE OF PROP

Grids    : 3352B8423C   3352A8423C
Work type: INSTAL FENCE
Work date: 03/08/02 Time: 07:00 Hrs notc: 085 Priority: 3
Legal day: 03/08/02 Time: 07:00 Good thru: 03/26/02 Restake by: 03/21/02
RespondBy: 03/07/02 Time: 23:59 Duration : 1 D
Done for : ANDY BEEN
Crew on Site: N  White-lined: N  Railroad: N  Blasting: N  Boring: N

Remarks : *** NEAR STREET ***   POWERS FERRY RD
        : *** LOOKUP BY MANUAL

Company : AMERICAN LANDMARK FENCE                   Type: CONT
Co addr : 1501 CANTON RD
City    : MARIETTA                       State   : GA Zip: 30066
Caller  : MATT CHISOLM                   Phone   : 770-795-9100
Fax     :                                Alt. Ph.:

Submitted date: 03/04/02 Time: 17:26 Oper: 017 Chan: WEB
Mbrs : AGL123 ATL01  ATTBB  BSNE   DOTI   FUL02  GP106  OMN01  USW01
-------------------------------------------------------------------------------
TK305082.351 #00060

ATL01  00070 GAUPC 03/05/02 08:34:50 03042-026-096-000 NORMAL UPDATE
Underground Notification
Ticket : 03042-026-096 Date: 03/04/02 Time: 17:36 Revision: 000
Old Tkt: 02142-028-044 Date: 02/19/02 Time: 00:06

State: GA  County: DEKALB       Place: ATLANTA
Addr : From: 1500   To:        Name:    MCCLENDON                      AV   NE
Cross: From:        To:        Name:
Offset:
Subdivision:
RR Subdivision:            RR Marker:            Mile Marker:
Locat: AROUND TENNIS COURTS

Grids    : 3345A8420C   3346D8420C   3345A8420B   3346D8420B
Work type: INSTL TENNIS COURT LITING
Work date: 03/08/02 Time: 07:00 Hrs notc: 085 Priority: 3
Legal day: 03/08/02 Time: 07:00 Good thru: 03/26/02 Restake by: 03/21/02
RespondBy: 03/07/02 Time: 23:59 Duration : 4 DAY
Done for : CY OF ATL PARKS AND REC
Crew on Site: N  White-lined: N  Railroad: N  Blasting: N  Boring: N

Remarks : *** NEAR STREET ***   OAKDALE RD
        : *** LOOKUP BY MANUAL

Company : NEWCO INC.                                Type: CONT
Co addr : 190 STACIE LN
City    : DAWSONVILLE                    State   : GA Zip: 30534
Caller  : MONTREE DICKERSON              Phone   : 706-216-0007
Fax     :                                Alt. Ph.:

Submitted date: 03/04/02 Time: 17:36 Oper: 026 Chan: WEB
Mbrs : AGL102 ATL01  ATT02  ATTBB  BSCA   DCTS01 DCWS01 DOTI   GP832  MCI02
     : USW01  WCI01
-------------------------------------------------------------------------------
TK305082.358 #00061

ATL01  00071 GAUPC 03/05/02 08:34:57 03042-031-093-000 NORMAL
Underground Notification
Ticket : 03042-031-093 Date: 03/04/02 Time: 16:45 Revision: 000

State: GA  County: FULTON       Place: ATLANTA
Addr : From: 4563   To:        Name:    TALL PINES                     DR   NW
Cross: From:        To:        Name:
Offset:
Subdivision:
RR Subdivision:            RR Marker:            Mile Marker:
Locat: LOCATE FRONT &amp; B/S OF PROPERTY

Grids    : 3352B8423C   3352A8423C   3353D8423C   3352A8423B   3353D8423B
Work type: INSTL SPRINKLER
Work date: 03/08/02 Time: 07:00 Hrs notc: 086 Priority: 3
Legal day: 03/08/02 Time: 07:00 Good thru: 03/26/02 Restake by: 03/21/02
RespondBy: 03/07/02 Time: 23:59 Duration : 3 DYS
Done for : ARMSTRONG
Crew on Site: N  White-lined: N  Railroad: N  Blasting: N  Boring: Y

Remarks : THE ADDRESS IS 1 BLOCK FROM CHASTAIN PARK // LAKE FOREST DR IS
        : ANOTHER CROSS
        : *** NEAR STREET ***   BARBARA LN
        : *** WILL BORE DRIVEWAY

Company : WILSON  DESIGNS                           Type: CONT
Co addr : 1640 LOBLOLLY LANE
City    : CUMMING                        State   : GA Zip: 30041
Caller  : SAM WILSON                     Phone   : 770-781-9745
Fax     :                                Alt. Ph.:

Submitted date: 03/04/02 Time: 16:45 Oper: 031 Chan: WEB
Mbrs : AGL123 ATL01  ATTBB  BSNE   CPL81  DOTI   FUL02  GP106  OMN01  PPL01
     : USW01
-------------------------------------------------------------------------------
TK305082.405 #00062

ATL01  00072 GAUPC 03/05/02 08:35:04 03042-099-033-000 NORMAL
Underground Notification
Ticket : 03042-099-033 Date: 03/04/02 Time: 16:52 Revision: 000

State: GA  County: FULTON       Place: ATLANTA
Addr : From:        To:        Name:    GLENWOOD                       AV   SE
Cross: From:        To:        Name:
Offset:
Subdivision:
RR Subdivision:            RR Marker:            Mile Marker:
Locat: LOC THE ENTIRE PROPERTY AT THE VACANT LOT ACROSS FROM 915 GLENWOOD AVE

Grids    : 3344C8421D   3344C8421C   3344C8421B
Work type: SOIL TEST BORINGS
Work date: 03/08/02 Time: 07:00 Hrs notc: 086 Priority: 3
Legal day: 03/08/02 Time: 07:00 Good thru: 03/26/02 Restake by: 03/21/02
RespondBy: 03/07/02 Time: 23:59 Duration : 2 WEEKS
Done for : CITY OF ATLANTA
Crew on Site: N  White-lined: N  Railroad: N  Blasting: N  Boring: N

Remarks : CHESTER AV IS AKA 154 CONNECTOR
        : *** NEAR STREET ***   CHESTER AV
        : *** LOOKUP BY MANUAL

Company : CW MATTHEWS                               Type: CONT
Co addr : 1600 KENVIEW DR
City    : MARIETTA                       State   : GA Zip: 30061
Caller  : WYATT HOLCOMB                  Phone   : 770-235-6119
Fax     :                                Alt. Ph.: 770-422-7555 Ext: 131

Submitted date: 03/04/02 Time: 16:52 Oper: 099 Chan: WEB
Mbrs : AGL103 ATL01  ATTBB  BSCA   DOTI   FUL02  GP104  MCI02  OMN01  USW01
-------------------------------------------------------------------------------
TK305082.412 #00063

ATL01  00073 GAUPC 03/05/02 08:35:11 03042-501-035-000 NORMAL
Underground Notification
Ticket : 03042-501-035 Date: 03/04/02 Time: 17:13 Revision: 000

State: GA  County: FULTON       Place: ATLANTA
Addr : From: 1445   To: 1445   Name:    MAYNARD                        RD   NW
Cross: From:        To:        Name:
Offset:
Subdivision: BLALOCK ELEMENTARY SCHOOL
RR Subdivision:            RR Marker:            Mile Marker:
Locat: LOCATE DRIVEWAY&apos;S AND PARKING AREA&apos;S FOR INSTALLATION OF LIGHT POLES.

Grids    : 3347B8429A   3347B8430D
Work type: SETTING POLES
Work date: 03/08/02 Time: 07:00 Hrs notc: 085 Priority: 3
Legal day: 03/08/02 Time: 07:00 Good thru: 03/26/02 Restake by: 03/21/02
RespondBy: 03/07/02 Time: 23:59 Duration : 8 HRS
Done for : GA. POWER CO.
Crew on Site: N  White-lined: Y  Railroad: N  Blasting: N  Boring: N

Remarks : POLES ARE STAKED.
        : *** NEAR STREET ***   BANKHEAD HWY NW

Company : GEORGIA POWER                             Type: MEMB
Co addr : 890 PONCE-DE-LEON PL. N E
City    : ATLANTA                        State   : GA Zip: 30306
Caller  : JERRY O&apos;KELLEY                 Phone   : 404-685-4647
Fax     : 404-817-3029                   Alt. Ph.: 404-685-4647
Email   : JLOKELLE@SOUTHERNCO.COM
Cellular: 404-405-2496

Submitted date: 03/04/02 Time: 17:13 Oper: 501 Chan: 999
Mbrs : AGL102 ATL01  ATTBB  BSCA   DOTI   FUL02  GP105  GP131  OMN01  USW01
-------------------------------------------------------------------------------
TK305082.419 #00064

ATL01  00074 GAUPC 03/05/02 08:35:18 03042-501-036-000 NORMAL
Underground Notification
Ticket : 03042-501-036 Date: 03/04/02 Time: 17:23 Revision: 000

State: GA  County: FULTON       Place: ATLANTA
Addr : From: 1475   To: 1475   Name:    MAYNARD                        RD   NW
Cross: From:        To:        Name:
Offset:
Subdivision: BANKHEAD COMMUNITY CENTER
RR Subdivision:            RR Marker:            Mile Marker:
Locat: LOCATE PARKING LOT.

Grids    : 3347B8429A   3347B8430D
Work type: SETTING POLES
Work date: 03/08/02 Time: 07:00 Hrs notc: 085 Priority: 3
Legal day: 03/08/02 Time: 07:00 Good thru: 03/26/02 Restake by: 03/21/02
RespondBy: 03/07/02 Time: 23:59 Duration : 8 HRS
Done for : GA. POWER CO.
Crew on Site: N  White-lined: Y  Railroad: N  Blasting: N  Boring: N

Remarks : POLES ARE STAKED.
        : *** NEAR STREET ***   BANKHEAD HWY NW

Company : GEORGIA POWER                             Type: MEMB
Co addr : 890 PONCE-DE-LEON PL. N E
City    : ATLANTA                        State   : GA Zip: 30306
Caller  : JERRY O&apos;KELLEY                 Phone   : 404-685-4647
Fax     : 404-817-3029                   Alt. Ph.: 404-685-4647
Email   : JLOKELLE@SOUTHERNCO.COM
Cellular: 404-405-2496

Submitted date: 03/04/02 Time: 17:23 Oper: 501 Chan: 999
Mbrs : AGL102 ATL01  ATTBB  BSCA   DOTI   FUL02  GP105  GP131  OMN01  USW01
-------------------------------------------------------------------------------
TK305082.426 #00065

ATL01  00075 GAUPC 03/05/02 08:35:25 03042-915-001-000 NORMAL
Underground Notification
Ticket : 03042-915-001 Date: 03/04/02 Time: 17:15 Revision: 000

State: GA  County: FULTON       Place: ATLANTA
Addr : From: 2001   To:        Name:    JAMES JACKSON                  PKWY NW
Cross: From:        To:        Name:    BOLTON                         RD   NW
Offset:
Subdivision:
RR Subdivision:            RR Marker:            Mile Marker:
Locat: LOCATE AROUND TEMPORARY POLE WITH ELECTRICAL SERVICE. NEAR WHITE TRAILER
     : SOUTH EAST CORNER

Grids    : 3348B8428B
Work type: SETTING POLES AND ANCHORS
Work date: 03/08/02 Time: 07:00 Hrs notc: 085 Priority: 3
Legal day: 03/08/02 Time: 07:00 Good thru: 03/26/02 Restake by: 03/21/02
RespondBy: 03/07/02 Time: 23:59 Duration : 1 DAY
Done for : GEORGIA POWER
Crew on Site: N  White-lined: N  Railroad: N  Blasting: N  Boring: N

Remarks : *** NEAR STREET ***   PARROTT AVE

Company : GEORGIA POWER COMPANY                     Type: MEMB
Co addr : 760 RALPH MCGILL BLVD
City    : ATLANTA                        State   : GA Zip: 30308
Caller  : BRAD BARTLING                  Phone   : 404-572-7636
Fax     :                                Alt. Ph.:

Submitted date: 03/04/02 Time: 17:15 Oper: 915 Chan: 999
Mbrs : AGL102 ATL01  ATTBB  BSCA   DOTI   FUL02  GP105  LEV3   OMN01  USW01
-------------------------------------------------------------------------------
TK305082.433 #00066

ATL01  00077 GAUPC 03/05/02 08:35:40 03052-024-019-000 NORMAL UPDATE
Underground Notification
Ticket : 03052-024-019 Date: 03/05/02 Time: 08:35 Revision: 000
Old Tkt: 02142-018-102 Date: 02/19/02 Time: 00:04

State: GA  County: FULTON       Place: COLLEGE PARK
Addr : From:        To:        Name:    GODBY                          RD
Cross: From:        To:        Name:
Offset:
Subdivision:
RR Subdivision:            RR Marker:            Mile Marker:
Locat: LOC LAND LOT 62. IN THE 13TH DIST..FRM E PROP LINE..LOC NORTH SIDE OF
     : GODBY RD 1300 LINEAR FT  HEADED IN THE N.W. DIR

Grids    : 3336A8428D   3337D8428D   3336A8428C   3337D8428C   3336A8428B
Grids    : 3337D8428B
Work type: GRADING
Work date: 03/08/02 Time: 07:00 Hrs notc: 070 Priority: 3
Legal day: 03/08/02 Time: 07:00 Good thru: 03/26/02 Restake by: 03/21/02
RespondBy: 03/07/02 Time: 23:59 Duration : 6 MTHS
Done for : GLADE PROP.
Crew on Site: N  White-lined: N  Railroad: N  Blasting: N  Boring: N

Remarks : RESTAKE OF: 01112-020-065
        : RESTAKE OF: 01292-033-035
        : * AGL108 WAS NOT ON THE ORIGINAL VERSION OF THIS TICKET
        : *** NEAR STREET ***   GODBY PL
        : *** LOOKUP BY MANUAL

Company : PLATEAU EXCAVATION                        Type: CONT
Co addr : PINEVIEW DR
City    : POWDER SPGS                    State   : GA Zip: 30073
Caller  : ROMNIE WOOD                    Phone   : 770-948-2600
Fax     :                                Alt. Ph.:

Submitted date: 03/05/02 Time: 08:35 Oper: 024 Chan: WEB
Mbrs : AGL108 ATL01  ATTBB  BSCA   CPK50  CPK51  DOTI   FUL02  GP131  OMN01
-------------------------------------------------------------------------------
TK305082.448 #00068

ATL01  00078 GAUPC 03/05/02 08:35:48 03052-101-014-000 NORMAL
Underground Notification
Ticket : 03052-101-014 Date: 03/05/02 Time: 08:30 Revision: 000

State: GA  County: FULTON       Place: ATLANTA
Addr : From:        To:        Name:    TECHWOOD                       DR   NW
Cross: From:        To:        Name:
Offset:
Subdivision:
RR Subdivision:            RR Marker:            Mile Marker:
Locat: LOC TECHWOOD FROM 14TH TO 150FT N OF 16TH ST.

Grids    : 3347D8423C   3347C8423C   3347D8423B   3347C8423B
Work type: UTILITIES RELOCATE
Work date: 03/08/02 Time: 07:00 Hrs notc: 070 Priority: 3
Legal day: 03/08/02 Time: 07:00 Good thru: 03/26/02 Restake by: 03/21/02
RespondBy: 03/07/02 Time: 23:59 Duration : MO
Done for : CWM/APAC JOINT VENTURES
Crew on Site: N  White-lined: N  Railroad: N  Blasting: N  Boring: N

Remarks : *** NEAR STREET ***   16TH ST
        : *** LOOKUP BY MANUAL

Company : RAKESTRAW PIPELINE                        Type: CONT
Co addr : PO BOX 71432
City    : MARIETTA                       State   : GA Zip: 30007
Caller  : WAYNE RAKESTRAW                Phone   : 770-943-3054
Fax     :                                Alt. Ph.:

Submitted date: 03/05/02 Time: 08:30 Oper: 101 Chan: WEB
Mbrs : ACS03  AGL103 ATL01  ATTBB  BSCA   DOTI   FUL02  GP106  LEV3   MCI02
     : MFN02  MT104  MT106  OMN01  TWT90  USW01  WCI01
-------------------------------------------------------------------------------
TK305082.455 #00069

ATL01  00086 GAUPC 03/05/02 08:45:28 03052-026-010-000 NORMAL
Underground Notification
Ticket : 03052-026-010 Date: 03/05/02 Time: 08:33 Revision: 000

State: GA  County: FULTON       Place: ATLANTA
Addr : From:        To:        Name:    HARRIS                         ST   NW
Cross: From:        To:        Name:    WILLIAMS                       ST   NW
Offset:
Subdivision:
RR Subdivision:            RR Marker:            Mile Marker:
Locat: LOC INTER 200FT ALL DIRECTIONS

Grids    : 3345B8423C
Work type: LAYING PIPE
Work date: 03/08/02 Time: 07:00 Hrs notc: 070 Priority: 3
Legal day: 03/08/02 Time: 07:00 Good thru: 03/26/02 Restake by: 03/21/02
RespondBy: 03/07/02 Time: 23:59 Duration : 1 WK
Done for : ACSI
Crew on Site: N  White-lined: N  Railroad: N  Blasting: N  Boring: Y

Remarks : *** WILL BORE N0NE

Company : THE FISHEL COMPANY                        Type: CONT
Co addr : 6523 MARBUT RD
City    : LITHONIA                       State   : GA Zip: 30058
Caller  : BRUCE EDWARDS                  Phone   : 770-482-7550
Fax     :                                Alt. Ph.:
Email   : CSHINTON@FISHELCOMPANY.COMM
Cellular: 352-212-3427
Submitted date: 03/05/02 Time: 08:33 Oper: 026 Chan: WEB
Mbrs : ACS03  AGL103 ATL01  ATT02  ATTBB  BSCA   DOTI   EPC01  FUL02  GP103
     : LEV3   LGN01  MCI02  MT104  NU103  OMN01  ST005  TWT90  USW01  WCI01
-------------------------------------------------------------------------------
TK305083.434 #00077

ATL01  00087 GAUPC 03/05/02 08:45:35 03052-026-011-000 NORMAL
Underground Notification
Ticket : 03052-026-011 Date: 03/05/02 Time: 08:40 Revision: 000

State: GA  County: FULTON       Place: ATLANTA
Addr : From:        To:        Name:    MARIETTA                       ST   NW
Cross: From:        To:        Name:    SPRING                         ST   NW
Offset:
Subdivision:
RR Subdivision:            RR Marker:            Mile Marker:
Locat: LOC INTER 200FT ALL DIRECTIONS

Grids    : 3345C8423B
Work type: LAYING PIPE
Work date: 03/08/02 Time: 07:00 Hrs notc: 070 Priority: 3
Legal day: 03/08/02 Time: 07:00 Good thru: 03/26/02 Restake by: 03/21/02
RespondBy: 03/07/02 Time: 23:59 Duration : 1 WK
Done for : ACSI
Crew on Site: N  White-lined: N  Railroad: N  Blasting: N  Boring: Y

Remarks : *** WILL BORE N0NE

Company : THE FISHEL COMPANY                        Type: CONT
Co addr : 6523 MARBUT RD
City    : LITHONIA                       State   : GA Zip: 30058
Caller  : BRUCE EDWARDS                  Phone   : 770-482-7550
Fax     :                                Alt. Ph.:
Email   : CSHINTON@FISHELCOMPANY.COMM
Cellular: 352-212-3427
Submitted date: 03/05/02 Time: 08:40 Oper: 026 Chan: WEB
Mbrs : ACS03  AGL103 ATL01  ATT02  ATTBB  BSCA   DOTI   EPC01  FUL02  GP103
     : LEV3   LGN01  MCI02  MEA70  MFN02  MT103  NU103  OMN01  QWEST8 ST005
     : TWT90  USW01  WCI01  YIP01
-------------------------------------------------------------------------------
TK305083.441 #00078

ATL01  00090 GAUPC 03/05/02 08:46:00 03052-106-002-000 NORMAL RESTAKE
Underground Notification
Ticket : 03052-106-002 Date: 03/05/02 Time: 08:40 Revision: 000
Old Tkt: 02152-107-061 Date: 02/20/02 Time: 00:10

State: GA  County: FULTON       Place: ATLANTA
Addr : From:        To:        Name:    ALLENE                         AV   SW
Cross: From:        To:        Name:    AVON                           AV   SW
Offset:

State: GA  County: FULTON       Place: ATLANTA
Addr : From:        To:        Name:    ALLENE                         AV   SW
Cross: From:        To:        Name:    WOODROW                        ST   SW
Offset:
Subdivision:
RR Subdivision:            RR Marker:            Mile Marker:
Locat: LOC B/S OF ALLENE AVE FROM AVON AV TO WOODROW ST

Grids    : 3343C8424B   3343C8424A
Work type: INSTALL FIBER OPTICS CABLE
Work date: 11/09/01 Time: 07:00 Hrs notc: 000 Priority: 3
Legal day: 03/08/02 Time: 07:00 Good thru: 03/26/02 Restake by: 03/21/02
RespondBy: 03/07/02 Time: 23:59 Duration : 2-3 WKS
Done for : ADELPHIA
Crew on Site: N  White-lined: N  Railroad: N  Blasting: N  Boring: Y

Remarks : RXMT TO E-MAIL THE TKT....BORING SIDEWALKS AND DRWYS
        : RESTAKE OF: 11061-028-018
        : RESTAKE OF: 11191-045-041
        : RESTAKE OF: 12041-102-035 * MEA70 WAS NOT ON THE ORIGINAL VERSION OF
        : THIS TICKET RESTAKE OF: 12181-015-025 * IFN01 WAS NOT ON THE ORIGINAL
        : VERSION OF THIS TICKET
        : RESTAKE OF: 12311-035-100
        : RESTAKE OF: 01152-108-032
        : RESTAKE OF: 01312-033-034
        : * AGL102 WAS NOT ON THE ORIGINAL VERSION OF THIS TICKET
        : RESTAKE OF: 02152-107-061
        : * ATL01 WAS NOT ON THE ORIGINAL VERSION OF THIS TICKET
        : *** WILL BORE BOTH SIDES OF ROAD

Company : SHIFLETT ENTERPRISES INC                  Type: CONT
Co addr : 751 CORINTH RD
City    : NEWNAN                         State   : GA Zip: 30263
Caller  : PAM SHIFLETT                   Phone   : 770-502-1565
Fax     : 770-502-1576                   Alt. Ph.:
Email   : SHIFENT@BELLSOUTH.NET

Submitted date: 03/05/02 Time: 08:40 Oper: 106 Chan: 999
Mbrs : AGL102 ATL01  ATT02  ATTBB  BSCA   DOTI   FUL02  GP103  GP145  IFN01
     : MCI02  MEA70  MT103  OMN01  USW01
-------------------------------------------------------------------------------
TK305083.507 #00081

ATL01  00091 GAUPC 03/05/02 08:48:31 03052-101-016-000 EMERG
Underground Notification
Ticket : 03052-101-016 Date: 03/05/02 Time: 08:39 Revision: 000

State: GA  County: FULTON       Place: ATLANTA
Addr : From: 3200   To:        Name:    STONE                          RD   SW
Cross: From:        To:        Name:
Offset:
Subdivision:
RR Subdivision:            RR Marker:            Mile Marker:
Locat: LOC FRONT OF PROPERTY

Emergency *** Urgent work *** GAAS main &amp; service lines
Grids    : 3340B8430C   3340A8430C   3341D8430C   3340A8430B   3341D8430B
Grids    : 3341D8430A
Work type: REPAIRING WATER SERVICE LINE
Work date: 03/05/02 Time: 08:47 Hrs notc: 000 Priority: 1
Legal day: 03/05/02 Time: 08:47 Good thru: 03/05/02 Restake by: 03/05/02
RespondBy: 03/05/02 Time: 08:47 Duration : ?
Done for : WIND JAMMER APTS
Crew on Site: Y  White-lined: N  Railroad: N  Blasting: N  Boring: N

Remarks : LOC IS AT WIND JAMMER APTS
        : EMERGENCY: WATER IS ESCAPING U/G
        : *** NEAR STREET ***   GREEN BRIAR PKWY
        : *** LOOKUP BY MANUAL

Company : WIND JAMMER APTS                          Type: CONT
Co addr : 3200 STONE ROAD
City    : ATLANTA , GA                   State   : GA Zip: 30331
Caller  : GREG PAYTON                    Phone   : 404-349-0100
Fax     :                                Alt. Ph.:
Contact : ROY BURNETT

Submitted date: 03/05/02 Time: 08:39 Oper: 101 Chan: WEB
Mbrs : AGL108 ATL01  ATTBB  BSCA   DOTI   FUL02  GP131  OMN01  SNG80  USW01
-------------------------------------------------------------------------------
TK305083.719 #00082

ATL01  00092 GAUPC 03/05/02 08:48:39 03052-104-003-000 EMERG
Underground Notification
Ticket : 03052-104-003 Date: 03/05/02 Time: 08:44 Revision: 000

State: GA  County: FULTON       Place: ATLANTA
Addr : From: 948    To:        Name:    BOULEVARD                           SE
Cross: From:        To:        Name:
Offset:
Subdivision:
RR Subdivision:            RR Marker:            Mile Marker:
Locat: LOC ENTIRE PROPERTY

Emergency *** Urgent work *** GAAS main &amp; service lines
Grids    : 3343D8421B   3343C8421B   3343B8421B   3343A8421B   3344D8421B
Grids    : 3343D8421A   3343C8421A   3343B8421A   3343A8421A   3344D8421A
Grids    : 3343D8422D   3343C8422D   3343B8422D   3343A8422D   3344D8422D
Work type: RPR SWR SVC
Work date: 03/05/02 Time: 08:46 Hrs notc: 000 Priority: 1
Legal day: 03/05/02 Time: 08:46 Good thru: 03/05/02 Restake by: 03/05/02
RespondBy: 03/05/02 Time: 08:46 Duration : 2DAYS
Done for : CITY OF ATLANTA
Crew on Site: Y  White-lined: N  Railroad: N  Blasting: N  Boring: N

Remarks : EMERGENCY: SVC IS OUT
        : *** NEAR STREET ***   ROBINSON AV
        : *** LOOKUP BY MANUAL

Company : CITY OF ATLANTA                           Type: CONT
Co addr : 3067 PEACHTREE RD NE
City    : ATLANTA                        State   : GA Zip: 30305
Caller  : CORLENE DOWNING                Phone   : 404-624-0753
Fax     :                                Alt. Ph.:
Contact : ARETH A BOOKER

Submitted date: 03/05/02 Time: 08:44 Oper: 104 Chan: WEB
Mbrs : AGL102 ATL01  ATTBB  BSCA   DOTI   EPC01  FUL02  GP104  LEV3   MCI02
     : NU104  OMN01  USW01
-------------------------------------------------------------------------------
TK305083.747 #00083

ATL01  00094 GAUPC 03/05/02 09:13:23 03052-024-032-000 NORMAL
Underground Notification
Ticket : 03052-024-032 Date: 03/05/02 Time: 09:08 Revision: 000

State: GA  County: FULTON       Place: ATLANTA
Addr : From: 83     To:        Name:    ANDERSON                       AV   NW
Cross: From:        To:        Name:
Offset:
Subdivision:
RR Subdivision:            RR Marker:            Mile Marker:
Locat: LOCATE THE FRONT SIDE OF THE PROPERTY

Grids    : 3345C8426A   3345B8426A   3345C8427D   3345B8427D
Work type: INSTALLING A SEWER SVC LINE
Work date: 03/08/02 Time: 07:00 Hrs notc: 069 Priority: 3
Legal day: 03/08/02 Time: 07:00 Good thru: 03/26/02 Restake by: 03/21/02
RespondBy: 03/07/02 Time: 23:59 Duration : 3DAYS
Done for : CITY OF ATLANTA
Crew on Site: N  White-lined: N  Railroad: N  Blasting: N  Boring: N

Remarks : *** NEAR STREET ***   WATERBURY DR
        : *** LOOKUP BY MANUAL

Company : CITY OF ATLANTA                           Type: CONT
Co addr : 3067 PEACHTREE RD NE
City    : ATLANTA                        State   : GA Zip: 30305
Caller  : ANTONIO WALLACE                Phone   : 404-624-0753
Fax     :                                Alt. Ph.:

Submitted date: 03/05/02 Time: 09:08 Oper: 024 Chan: WEB
Mbrs : AGL102 ATL01  ATT02  ATTBB  BSCA   DOTI   FUL02  GP105  MT105  OMN01
     : USW01
-------------------------------------------------------------------------------
TK305090.230 #00085

ATL01  00095 GAUPC 03/05/02 09:13:30 03052-024-033-000 NORMAL
Underground Notification
Ticket : 03052-024-033 Date: 03/05/02 Time: 09:11 Revision: 000

State: GA  County: FULTON       Place: ATLANTA
Addr : From: 681    To:        Name:    ALTA                           PL   NW
Cross: From:        To:        Name:
Offset:
Subdivision:
RR Subdivision:            RR Marker:            Mile Marker:
Locat: LOCATE THE FRONT SIDE OF THE PROPERTY

Grids    : 3346C8427C   3346B8427C
Work type: INSTALLING A SEWER SVC LINE
Work date: 03/08/02 Time: 07:00 Hrs notc: 069 Priority: 3
Legal day: 03/08/02 Time: 07:00 Good thru: 03/26/02 Restake by: 03/21/02
RespondBy: 03/07/02 Time: 23:59 Duration : 3DAYS
Done for : CITY OF ATLANTA
Crew on Site: N  White-lined: N  Railroad: N  Blasting: N  Boring: N

Remarks : *** NEAR STREET ***   SARAH ST

Company : CITY OF ATLANTA                           Type: CONT
Co addr : 3067 PEACHTREE RD NE
City    : ATLANTA                        State   : GA Zip: 30305
Caller  : ANTONIO WALLACE                Phone   : 404-624-0753
Fax     :                                Alt. Ph.:

Submitted date: 03/05/02 Time: 09:11 Oper: 024 Chan: WEB
Mbrs : AGL102 ATL01  ATTBB  BSCA   DOTI   FUL02  GP105  OMN01  USW01
-------------------------------------------------------------------------------
TK305090.237 #00086

ATL01  00096 GAUPC 03/05/02 09:13:36 03052-024-034-000 NORMAL
Underground Notification
Ticket : 03052-024-034 Date: 03/05/02 Time: 09:12 Revision: 000

State: GA  County: FULTON       Place: ATLANTA
Addr : From: 992    To:        Name:    VIRGINIA                       AV
Cross: From:        To:        Name:
Offset:
Subdivision:
RR Subdivision:            RR Marker:            Mile Marker:
Locat: LOCATE THE FRONT SIDE OF THE PROPERTY

Grids    : 3346A8420A   3346A8421D   3347D8421D   3346A8421C   3347D8421C
Work type: INSTALLING A SEWER SVC LINE
Work date: 03/08/02 Time: 07:00 Hrs notc: 069 Priority: 3
Legal day: 03/08/02 Time: 07:00 Good thru: 03/26/02 Restake by: 03/21/02
RespondBy: 03/07/02 Time: 23:59 Duration : 3DAYS
Done for : CITY OF ATLANTA
Crew on Site: N  White-lined: N  Railroad: N  Blasting: N  Boring: N

Remarks : *** NEAR STREET ***   N HIGHLAND AV
        : *** LOOKUP BY MANUAL

Company : CITY OF ATLANTA                           Type: CONT
Co addr : 3067 PEACHTREE RD NE
City    : ATLANTA                        State   : GA Zip: 30305
Caller  : ANTONIO WALLACE                Phone   : 404-624-0753
Fax     :                                Alt. Ph.:

Submitted date: 03/05/02 Time: 09:12 Oper: 024 Chan: WEB
Mbrs : AGL102 AGL103 ATL01  ATTBB  BSCA   DCTS01 DCWS01 DOTI   FUL02  GP104
     : GP107  GP832  MCI02  OMN01  USW01
-------------------------------------------------------------------------------
TK305090.243 #00087

ATL01  00096 GAUPC 03/05/02 09:16:43 03052-024-034-000 NORMAL
Underground Notification
Ticket : 03052-024-034 Date: 03/05/02 Time: 09:12 Revision: 000

State: GA  County: FULTON       Place: ATLANTA
Addr : From: 992    To:        Name:    VIRGINIA                       AV
Cross: From:        To:        Name:
Offset:
Subdivision:
RR Subdivision:            RR Marker:            Mile Marker:
Locat: LOCATE THE FRONT SIDE OF THE PROPERTY

Grids    : 3346A8420A   3346A8421D   3347D8421D   3346A8421C   3347D8421C
Work type: INSTALLING A SEWER SVC LINE
Work date: 03/08/02 Time: 07:00 Hrs notc: 069 Priority: 3
Legal day: 03/08/02 Time: 07:00 Good thru: 03/26/02 Restake by: 03/21/02
RespondBy: 03/07/02 Time: 23:59 Duration : 3DAYS
Done for : CITY OF ATLANTA
Crew on Site: N  White-lined: N  Railroad: N  Blasting: N  Boring: N

Remarks : *** NEAR STREET ***   N HIGHLAND AV
        : *** LOOKUP BY MANUAL

Company : CITY OF ATLANTA                           Type: CONT
Co addr : 3067 PEACHTREE RD NE
City    : ATLANTA                        State   : GA Zip: 30305
Caller  : ANTONIO WALLACE                Phone   : 404-624-0753
Fax     :                                Alt. Ph.:

Submitted date: 03/05/02 Time: 09:12 Oper: 024 Chan: WEB
Mbrs : AGL102 AGL103 ATL01  ATTBB  BSCA   DCTS01 DCWS01 DOTI   FUL02  GP104
     : GP107  GP832  MCI02  OMN01  USW01
-------------------------------------------------------------------------------
TK305090.531 #00088

