ZORK00 00096 UNCC 07/30/02 09:35 AM 0459500-000 NORM UPDT GRID LREQ

Ticket Nbr: 0459500 Update of: 0439675
Original Call Date: 07/22/02  Time: 08:15 AM  Op: CMJ
Contr Excav Date  : 08/02/02  Time: 07:00 AM  Extended job: N
Locate By Date    : 08/01/02  Time: 11:59 PM  Hrs Notice: 070  Meet: N
State: CO     County: ADAMS            City: COMMERCE CITY
Addr:  10501  Street: TUSCON ST
Near Intersection(s): 105TH AVE
Grids: 02S067W12**              :              :               Legal: N
Type of Work: RUNNING IRRIGATION LNS                     Exp.: N  Boring: N
Location: LOC ENTIRE LOT *PAINT/FLAG* **ACCESS OPEN** POTOMAC FARMS SUB DIV
        : THIS AREA IS BOUNDED BY HWY 2, POTOMAC ST, AND 104TH AVE ** UPDATE DUE
        : TO MARKS NEED REFRESHING **
Company : PIPELINE PLUS INC
Caller  : DOROTHY FARNER             Phone: (303)659-3530
Fax: (303)659-0423  Email:
Done for: ADARE HOMES
Remarks:

Members :ATDN00 :ATND15 :BRW01  :CDOT06 :LVL311 :PCND00 :PSND15 :PSNG04 :RKMAR1
Members :SPRN01 :SPRNTA :TCHAM1 :UNPR04 :UQND00 :USND15

PCSPCSPCNC00 00147 UNCC 0PCNC00 00107 UNCC 0PCNPCSD00 00251 UNCC 0PCPCNC00 00148 UNCC 0PCSD00 00254 UNCC 0PCNPCSD00 00255 UNCC 0PCSPCSPCNC00 00149 UNCC 0PCNC00 00150 UNCC 0
