
UTIL11 *EOD* VUPSa 07/04/02 00:05:52

********************************************************************************
        THIS IS YOUR END OF DAY TICKET SUMMARY FOR 07/03/02 FROM VUPS
********************************************************************************

00001 A218400074-00A 07:10 E  00002 A000343973-01A 07:10 E
00003 A218200948-01A 07:10 EC 00004 A218201311-00A 07:10 NS
00005 A218201321-00A 07:10 NS 00006 A218201331-00A 07:10 NS
00007 A218201334-00A 07:10 NS 00008 A218201335-00A 07:10 NS
00009 A218201343-00A 07:10 NS 00010 A218201347-00A 07:10 NS
00011 A218201351-00A 07:10 NS 00012 A218201362-00A 07:10 NS
00013 A218201363-00A 07:10 NS 00014 A218201372-00A 07:10 NS
00015 A218201378-00A 07:10 NS 00016 A218201381-00A 07:10 NS
00017 A218201382-00A 07:10 NS 00018 A218201384-00A 07:10 NS
00019 A218201389-00A 07:10 NS 00020 A218201399-00A 07:10 NS
00021 A218201401-00A 07:10 NS 00022 A218201405-00A 07:10 NS
00023 A218201412-00A 07:10 NS 00024 A218201425-00A 07:10 NS
00025 A218201426-00A 07:10 NS 00026 A218201430-00A 07:10 NS
00027 A218201435-00A 07:10 NS 00028 A218201448-00A 07:10 NS
00029 A218201452-00A 07:10 NS 00030 A218201482-00A 07:10 NS
00031 A218201484-00A 07:10 NS 00032 A218201490-00A 07:10 NS
00033 A218201492-00A 07:10 NS 00034 A218201505-00A 07:10 NS
00035 A218201518-00A 07:10 NS 00036 A218201525-00A 07:10 NS
00037 A218201558-00A 07:10 NS 00038 A218201569-00A 07:10 NS
00039 A218300060-00A 07:10 NS 00040 A218300123-00A 07:10 NS
00041 A218300127-00A 07:10 NS 00042 A218300190-00A 07:10 NS
00043 A218300224-00A 07:10 NS 00044 A218300287-00A 07:10 NS
00045 A218300322-00A 07:10 NS 00046 A218300356-00A 07:11 NS
00047 A218300378-00A 07:11 NS 00048 A218300456-00A 07:11 NS
00049 A218300467-00A 07:11 NS 00050 A218300669-00A 07:11 NS
00051 A218300940-00A 07:11 NS 00052 A218300963-00A 07:11 NS
00053 A218301006-00A 07:11 NS 00054 A218301090-00A 07:11 NS
00055 A218301202-00A 07:11 NS 00056 A218301215-00A 07:11 NS
00057 A218301218-00A 07:11 NS 00058 A218301225-00A 07:11 NS
00059 A218301230-00A 07:11 NS 00060 A218301233-00A 07:11 NS
00061 A218301239-00A 07:11 NS 00062 A218301243-00A 07:11 NS
00063 A218301251-00A 07:11 NS 00064 A218301255-00A 07:11 NS
00065 A218301261-00A 07:11 NS 00066 A000346001-01A 07:11 EL
00067 A218301277-00A 07:11 NS 00068 A218301305-00A 07:11 NS
00069 A218301342-00A 07:11 NS 00070 A218301365-00A 07:11 NS
00071 A218301374-00A 07:11 NS 00072 A218301382-00A 07:11 NS
00073 A218301396-00A 07:11 NS 00074 A218301410-00A 07:11 NS
00075 A218301419-00A 07:11 NS 00076 A218301425-00A 07:11 NS
00077 A218301450-00A 07:11 NS 00078 A218301458-00A 07:11 NS
00079 A218301466-00A 07:11 NS 00080 A218301472-00A 07:11 NS
00081 A218301480-00A 07:11 NS 00082 A218301492-00A 07:11 NS
00083 A218301498-00A 07:11 NS 00084 A218301528-00A 07:11 NS
00085 A218301538-00A 07:11 NS 00086 A218301546-00A 07:11 NS
00087 A218301556-00A 07:12 NS 00088 A218301732-00A 07:12 NS
00089 A218301886-00A 07:12 NS 00090 A218301928-00A 07:12 NS
00091 A218302139-00A 07:12 NS 00092 A218302146-00A 07:12 NS
00093 A218302183-00A 07:12 N  00094 A218302185-00A 07:12 N
00095 A218302186-00A 07:12 N  00096 A218302188-00A 07:12 N
00097 A218302191-00A 07:12 N  00098 A218302193-00A 07:12 N
00099 A218302195-00A 07:12 N  00100 A218302199-00A 07:12 N
00101 A218302200-00A 07:12 N  00102 A218302202-00A 07:12 N
00103 A218300108-01A 07:12 NR 00104 A218300235-01A 07:12 NR
00105 A218200135-01A 07:12 NR 00106 A218200890-01A 07:12 NR
00107 A218200900-01A 07:12 NR 00108 A218200912-01A 07:12 NR
00109 A218300479-00A 07:12 N  00110 A218300216-01A 07:12 NR
00111 A218302216-00A 07:12 N  00112 A218302217-00A 07:12 N
00113 A218302219-00A 07:12 N  00114 A218302220-00A 07:12 N
00115 A218302221-00A 07:12 N  00116 A218302222-00A 07:12 N
00117 A218302223-00A 07:12 N  00118 A218302224-00A 07:12 N
00119 A218302225-00A 07:12 N  00120 A218300135-00A 07:12 N
00121 A218302226-00A 07:12 N  00122 A218302227-00A 07:12 N
00123 A218302228-00A 07:12 N  00124 A218302229-00A 07:12 N
00125 A218302230-00A 07:12 N  00126 A218302231-00A 07:12 N
00127 A218302232-00A 07:12 N  00128 A218302233-00A 07:12 N
00129 A218302234-00A 07:12 N  00130 A218302235-00A 07:12 N
00131 A218302236-00A 07:12 N  00132 A218302238-00A 07:12 N
00133 A218302239-00A 07:12 N  00134 A218302240-00A 07:13 N
00135 A218302241-00A 07:13 N  00136 A218302242-00A 07:13 N
00137 A218302243-00A 07:13 N  00138 A218302244-00A 07:13 N
00139 A218400001-00A 07:13 N  00140 A218400002-00A 07:13 N
00141 A218400004-00A 07:13 N  00142 A218400005-00A 07:13 N
00143 A218400006-00A 07:13 N  00144 A218400007-00A 07:13 N
00145 A218400008-00A 07:13 N  00146 A218400009-00A 07:13 N
00147 A218400010-00A 07:13 N  00148 A218400011-00A 07:13 N
00149 A218400012-00A 07:13 N  00150 A218400013-00A 07:13 N
00151 A218400014-00A 07:13 N  00152 A218400015-00A 07:13 N
00153 A218400016-00A 07:13 N  00154 A218400017-00A 07:21 N
00155 A218400018-00A 07:21 N  00156 A218400019-00A 07:21 N
00157 A218400020-00A 07:21 N  00158 A218400021-00A 07:21 N
00159 A218400022-00A 07:21 N  00160 A218400023-00A 07:21 N
00161 A218400024-00A 07:21 N  00162 A218400025-00A 07:21 N
00163 A218400026-00A 07:21 N  00164 A218400027-00A 07:21 N
00165 A218400028-00A 07:21 N  00166 A218400029-00A 07:21 N
00167 A218400030-00A 07:21 N  00168 A218400031-00A 07:21 N
00169 A218400032-00A 07:21 N  00170 A218400033-00A 07:21 N
00171 A218400034-00A 07:21 N  00172 A218400035-00A 07:21 N
00173 A218400036-00A 07:21 N  00174 A218400037-00A 07:21 N
00175 A218400038-00A 07:21 N  00176 A218400039-00A 07:21 N
00177 A218400040-00A 07:21 N  00178 A218400041-00A 07:21 N
00179 A218400042-00A 07:21 N  00180 A218400043-00A 07:21 N
00181 A218400044-00A 07:21 N  00182 A218400045-00A 07:21 N
00183 A218400046-00A 07:21 N  00184 A218400047-00A 07:21 N
00185 A218400048-00A 07:21 N  00186 A218400049-00A 07:21 N
00187 A218400050-00A 07:21 N  00188 A218400051-00A 07:22 N
00189 A218400052-00A 07:22 N  00190 A218400053-00A 07:22 N
00191 A218400054-00A 07:22 N  00192 A218400055-00A 07:22 N
00193 A218300189-00A 07:22 N  00194 A218400056-00A 07:22 N
00195 A218400057-00A 07:22 N  00196 A218300536-00A 07:22 N
00197 A218400058-00A 07:22 N  00198 A218400059-00A 07:22 N
00199 A218400061-00A 07:22 N  00200 A218400062-00A 07:22 N
00201 A218400063-00A 07:22 N  00202 A218400064-00A 07:22 N
00203 A218300598-00A 07:22 N  00204 A218400065-00A 07:22 N
00205 A218400066-00A 07:22 N  00206 A218300618-00A 07:22 N
00207 A218400067-00A 07:22 N  00208 A218300625-00A 07:22 N
00209 A218400069-00A 07:22 N  00210 A218400070-00A 07:22 N
00211 A218400071-00A 07:22 N  00212 A218400073-00A 07:22 N
00213 A218400075-00A 07:22 N  00214 A218400076-00A 07:22 N
00215 A218300887-00A 07:22 N  00216 A218400080-00A 07:22 N
00217 A000345100-00A 07:22 NL 00218 A000345101-00A 07:22 NL
00219 A000345103-00A 07:22 NL 00220 A000345126-00A 07:22 NL
00221 A000345113-00A 07:22 NL 00222 A000345115-00A 07:22 NL
00223 A000345116-00A 07:22 NL 00224 A000345118-00A 07:22 NL
00225 A000345119-00A 07:22 NL 00226 A000345133-00A 07:22 NL
00227 A000345138-00A 07:22 NL 00228 A000345139-00A 07:22 NL
00229 A000345140-00A 07:22 NL 00230 A000345144-00A 07:22 NL
00231 A000345145-00A 07:22 NL 00232 A000345146-00A 07:22 NL
00233 A000345149-00A 07:22 NL 00234 A000345150-00A 07:23 NL
00235 A000345166-00A 07:23 NL 00236 A000345167-00A 07:23 NL
00237 A000345168-00A 07:23 NL 00238 A000345169-00A 07:23 NL
00239 A000345172-00A 07:23 NL 00240 A000345174-00A 07:23 NL
00241 A000345175-00A 07:23 NL 00242 A000345177-00A 07:23 NL
00243 A000345181-00A 07:23 NL 00244 A000345182-00A 07:23 NL
00245 A000345183-00A 07:23 NL 00246 A218400083-00A 07:23 N
00247 A218400084-00A 07:23 N  00248 A000345188-00A 07:23 NL
00249 A000345189-00A 07:23 NL 00250 A000345190-00A 07:23 NL
00251 A000345191-00A 07:23 NL 00252 A000345194-00A 07:23 NL
00253 A000345195-00A 07:23 NL 00254 A000345196-00A 07:23 NL
00255 A000345199-00A 07:23 NL 00256 A000345202-00A 07:23 NL
00257 A000345204-00A 07:23 NL 00258 A000345208-00A 07:23 NL
00259 A000345214-00A 07:23 NL 00260 A000345218-00A 07:23 NL
00261 A000345127-00A 07:23 NL 00262 A000345219-00A 07:23 NL
00263 A000345220-00A 07:23 NL 00264 A000345221-00A 07:23 NL
00265 A000345223-00A 07:23 NL 00266 A218400086-00A 07:23 N
00267 A000345242-00A 07:23 NL 00268 A000345243-00A 07:23 NL
00269 A000345246-00A 07:23 NL 00270 A000345248-00A 07:23 NL
00271 A000345249-00A 07:23 NL 00272 A000345250-00A 07:23 NL
00273 A000345260-00A 07:23 NL 00274 A000345268-00A 07:23 NL
00275 A000345269-00A 07:24 NL 00276 A000345270-00A 07:24 NL
00277 A000345271-00A 07:24 NL 00278 A000345272-00A 07:24 NL
00279 A000345273-00A 07:24 NL 00280 A000345274-00A 07:24 NL
00281 A000345275-00A 07:24 NL 00282 A000345277-00A 07:24 NL
00283 A000345307-00A 07:24 NL 00284 A000345309-00A 07:24 NL
00285 A000345310-00A 07:24 NL 00286 A000345312-00A 07:24 NL
00287 A000345251-00A 07:24 NL 00288 A000345252-00A 07:24 NL
00289 A000345253-00A 07:24 NL 00290 A000345254-00A 07:24 NL
00291 A000345255-00A 07:24 NL 00292 A000345256-00A 07:24 NL
00293 A000345257-00A 07:24 NL 00294 A000345258-00A 07:24 NL
00295 A000345276-00A 07:24 NL 00296 A000345311-00A 07:24 NL
00297 A000345318-00A 07:24 NL 00298 A000345320-00A 07:24 NL
00299 A000345326-00A 07:24 NL 00300 A000345327-00A 07:24 NL
00301 A000345329-00A 07:24 NL 00302 A000345344-00A 07:24 NL
00303 A000345345-00A 07:24 NL 00304 A000345346-00A 07:24 NL
00305 A000345347-00A 07:24 NL 00306 A000345348-00A 07:24 NL
00307 A000345349-00A 07:24 NL 00308 A000345365-00A 07:24 NL
00309 A000345367-00A 07:24 NL 00310 A000345368-00A 07:24 NL
00311 A000345369-00A 07:24 NL 00312 A000345370-00A 07:24 NL
00313 A000345378-00A 07:24 NL 00314 A000345379-00A 07:25 NL
00315 A000345384-00A 07:25 NL 00316 A000345340-00A 07:25 NL
00317 A000345390-00A 07:25 NL 00318 A000345391-00A 07:25 NL
00319 A000345392-00A 07:25 NL 00320 A000345393-00A 07:25 NL
00321 A000345394-00A 07:25 NL 00322 A000345395-00A 07:25 NL
00323 A000345396-00A 07:25 NL 00324 A000345397-00A 07:25 NL
00325 A000345414-00A 07:25 NL 00326 A000345449-00A 07:33 NL
00327 A218400091-00A 07:33 E  00328 A218400100-00A 07:33 E
00329 A218400121-00A 07:33 E  00330 A218400138-00A 07:33 E
00331 A218400104-00A 07:33 H  00332 A000345463-00A 07:33 NL
00333 A000345469-00A 07:34 NL 00334 A000345470-00A 07:34 NL
00335 A000345477-00A 07:34 NL 00336 A000345479-00A 07:34 NL
00337 A000345430-00A 07:34 NL 00338 A000345481-00A 07:34 NL
00339 A000345482-00A 07:34 NL 00340 A000345484-00A 07:34 NL
00341 A000345486-00A 07:34 NL 00342 A000345499-00A 07:34 NL
00343 A000345500-00A 07:34 NL 00344 A000345501-00A 07:34 NL
00345 A000345503-00A 07:34 NL 00346 A000345510-00A 07:34 NL
00347 A000345515-00A 07:34 NL 00348 A000345516-00A 07:34 NL
00349 A000345518-00A 07:34 NL 00350 A000345520-00A 07:34 NL
00351 A000345521-00A 07:34 NL 00352 A000345522-00A 07:34 NL
00353 A000345523-00A 07:34 NL 00354 A000345533-00A 07:34 NL
00355 A000345535-00A 07:34 NL 00356 A000345536-00A 07:34 NL
00357 A000345437-00A 07:34 NL 00358 A000345438-00A 07:34 NL
00359 A000345439-00A 07:34 NL 00360 A000345540-00A 07:34 NL
00361 A000345541-00A 07:34 NL 00362 A000345551-00A 07:34 NL
00363 A000345558-00A 07:34 NL 00364 A000345561-00A 07:34 NL
00365 A000345574-00A 07:34 NL 00366 A000345575-00A 07:34 NL
00367 A000345578-00A 07:34 NL 00368 A000345581-00A 07:34 NL
00369 A000345582-00A 07:34 NL 00370 A000345598-00A 07:34 NL
00371 A000345579-00A 07:34 NL 00372 A000345603-00A 07:34 NL
00373 A000345609-00A 07:38 NL 00374 A218400149-00A 07:38 E
00375 A218400153-00A 07:38 H  00376 A000345610-00A 07:38 NL
00377 A000345612-00A 07:38 NL 00378 A000345613-00A 07:38 NL
00379 A000345614-00A 07:38 NL 00380 A000345618-00A 07:38 NL
00381 A000345619-00A 07:38 NL 00382 A000345626-00A 07:38 NL
00383 A000345636-00A 07:38 NL 00384 A000345637-00A 07:38 NL
00385 A000345639-00A 07:38 NL 00386 A000345645-00A 07:38 NL
00387 A000345647-00A 07:38 NL 00388 A000345648-00A 07:38 NL
00389 A000345661-00A 07:38 NL 00390 A000345663-00A 07:38 NL
00391 A000345664-00A 07:38 NL 00392 A000345665-00A 07:38 NL
00393 A000345672-00A 07:38 NL 00394 A000345675-00A 07:39 NL
00395 A000345684-00A 07:39 NL 00396 A000345666-00A 07:39 NL
00397 A000345667-00A 07:39 NL 00398 A000345668-00A 07:39 NL
00399 A000345669-00A 07:39 NL 00400 A000345670-00A 07:39 NL
00401 A000345679-00A 07:39 NL 00402 A000345680-00A 07:39 NL
00403 A000345701-00A 07:39 NL 00404 A000345703-00A 07:39 NL
00405 A000345704-00A 07:39 NL 00406 A000345705-00A 07:39 NL
00407 A000345711-00A 07:39 NL 00408 A000345715-00A 07:39 NL
00409 A000345719-00A 07:39 NL 00410 A000345721-00A 07:39 NL
00411 A000345722-00A 07:39 NL 00412 A000345723-00A 07:39 NL
00413 A000345724-00A 07:39 NL 00414 A000345725-00A 07:39 NL
00415 A000345726-00A 07:39 NL 00416 A000345740-00A 07:39 NL
00417 A000345741-00A 07:39 NL 00418 A000345744-00A 07:39 NL
00419 A000345749-00A 07:39 NL 00420 A000345750-00A 07:39 NL
00421 A000345751-00A 07:39 NL 00422 A000345758-00A 07:39 NL
00423 A000345759-00A 07:39 NL 00424 A000345761-00A 07:39 NL
00425 A000345757-00A 07:39 NL 00426 A000345771-00A 07:39 NL
00427 A000345772-00A 07:39 NL 00428 A000345773-00A 07:39 NL
00429 A000345774-00A 07:39 NL 00430 A000345775-00A 07:39 NL
00431 A000345776-00A 07:39 NL 00432 A000345777-00A 07:39 NL
00433 A000345778-00A 07:39 NL 00434 A000345779-00A 07:39 NL
00435 A000345780-00A 07:39 NL 00436 A000345781-00A 07:39 NL
00437 A000345782-00A 07:39 NL 00438 A000345784-00A 07:39 NL
00439 A000345788-00A 07:39 NL 00440 A000345789-00A 07:39 NL
00441 A000345791-00A 07:39 NL 00442 A000345793-00A 07:39 NL
00443 A000345794-00A 07:40 NL 00444 A000345798-00A 07:40 NL
00445 A000345807-00A 07:40 NL 00446 A000345811-00A 07:40 NL
00447 A000345812-00A 07:40 NL 00448 A000345813-00A 07:40 NL
00449 A000345816-00A 07:40 NL 00450 A000345818-00A 07:40 NL
00451 A000345820-00A 07:40 NL 00452 A000345821-00A 07:40 NL
00453 A000345826-00A 07:40 NL 00454 A000345827-00A 07:40 NL
00455 A000345828-00A 07:40 NL 00456 A000345802-00A 07:40 NL
00457 A000345803-00A 07:40 NL 00458 A000345804-00A 07:40 NL
00459 A000345817-00A 07:40 NL 00460 A000345839-00A 07:40 NL
00461 A000345846-00A 07:40 NL 00462 A000345847-00A 07:40 NL
00463 A000345849-00A 07:40 NL 00464 A000345854-00A 07:40 NL
00465 A000345857-00A 07:40 NL 00466 A000345858-00A 07:40 NL
00467 A000345859-00A 07:40 NL 00468 A000345860-00A 07:40 NL
00469 A000345861-00A 07:40 NL 00470 A000345862-00A 07:40 NL
00471 A000345867-00A 07:40 NL 00472 A000345870-00A 07:40 NL
00473 A000345875-00A 07:40 NL 00474 A000345876-00A 07:40 NL
00475 A000345877-00A 07:40 NL 00476 A000345878-00A 07:40 NL
00477 A000345879-00A 07:40 NL 00478 A000345880-00A 07:40 NL
00479 A000345885-00A 07:40 NL 00480 A000345889-00A 07:40 NL
00481 A000345893-00A 07:40 NL 00482 A000345894-00A 07:40 NL
00483 A000345895-00A 07:40 NL 00484 A000345898-00A 07:40 NL
00485 A000345899-00A 07:40 NL 00486 A000345900-00A 07:40 NL
00487 A000345903-00A 07:40 NL 00488 A000345851-00A 07:40 NL
00489 A000345896-00A 07:40 NL 00490 A000345897-00A 07:40 NL
00491 A000345906-00A 07:41 NL 00492 A000345910-00A 07:41 NL
00493 A000345912-00A 07:41 NL 00494 A000345913-00A 07:41 NL
00495 A000345914-00A 07:41 NL 00496 A000345919-00A 07:41 NL
00497 A000345920-00A 07:44 NL 00498 A000345921-00A 07:44 NL
00499 A000345922-00A 07:44 NL 00500 A000345924-00A 07:44 NL
00501 A000345925-00A 07:44 NL 00502 A000345926-00A 07:44 NL
00503 A000345927-00A 07:44 NL 00504 A000345928-00A 07:44 NL
00505 A000345929-00A 07:44 NL 00506 A000345935-00A 07:44 NL
00507 A000345937-00A 07:45 NL 00508 A000345938-00A 07:45 NL
00509 A000345965-00A 07:45 NL 00510 A000345967-00A 07:45 NL
00511 A000345969-00A 07:45 NL 00512 A000345973-00A 07:45 NL
00513 A000345976-00A 07:45 NL 00514 A000345977-00A 07:45 NL
00515 A000345978-00A 07:45 NL 00516 A000345979-00A 07:45 NL
00517 A000345980-00A 07:45 NL 00518 A000345986-00A 07:45 NL
00519 A000345992-00A 07:45 NL 00520 A000345993-00A 07:45 NL
00521 A000345994-00A 07:45 NL 00522 A000345998-00A 07:45 NL
00523 A000345982-00A 07:45 NL 00524 A000346002-00A 07:45 NL
00525 A000346004-00A 07:45 NL 00526 A000346006-00A 07:45 NL
00527 A000346007-00A 07:45 NL 00528 A000346008-00A 07:45 NL
00529 A000346009-00A 07:45 NL 00530 A000346010-00A 07:45 NL
00531 A000346011-00A 07:45 NL 00532 A000346013-00A 07:45 NL
00533 A000346015-00A 07:45 NL 00534 A000346018-00A 07:45 NL
00535 A000346020-00A 07:45 NL 00536 A000346021-00A 07:45 NL
00537 A000346025-00A 07:45 NL 00538 A000346035-00A 07:45 NL
00539 A000346041-00A 07:45 NL 00540 A000346042-00A 07:45 NL
00541 A000346043-00A 07:45 NL 00542 A000346044-00A 07:45 NL
00543 A000346048-00A 07:45 NL 00544 A000346051-00A 07:45 NL
00545 A000346053-00A 07:45 NL 00546 A000345806-00A 07:45 NL
00547 A000345823-00A 07:45 NL 00548 A000346049-00A 07:45 NL
00549 A000346056-00A 07:45 NL 00550 A000346057-00A 07:45 NL
00551 A000346058-00A 07:45 NL 00552 A000346059-00A 07:45 NL
00553 A000346060-00A 07:45 NL 00554 A000346082-00A 07:45 NL
00555 A000346085-00A 07:46 NL 00556 A000346086-00A 07:46 NL
00557 A000346088-00A 07:46 NL 00558 A000346089-00A 07:46 NL
00559 A000346090-00A 07:46 NL 00560 A000346093-00A 07:46 NL
00561 A000346094-00A 07:46 NL 00562 A000346097-00A 07:46 NL
00563 A000346100-00A 07:46 NL 00564 A000346101-00A 07:46 NL
00565 A000346109-00A 07:46 NL 00566 A000346110-00A 07:46 NL
00567 A000346111-00A 07:46 NL 00568 A000345845-00A 07:46 NL
00569 A000345856-00A 07:46 NL 00570 A000345866-00A 07:46 NL
00571 A000345868-00A 07:46 NL 00572 A000345873-00A 07:46 NL
00573 A000345883-00A 07:46 NL 00574 A000345884-00A 07:46 NL
00575 A000345886-00A 07:46 NL 00576 A000345904-00A 07:46 NL
00577 A000346061-00A 07:46 NL 00578 A000346062-00A 07:46 NL
00579 A000346063-00A 07:46 NL 00580 A000346064-00A 07:46 NL
00581 A000346098-00A 07:46 NL 00582 A000346113-00A 07:46 NL
00583 A000346115-00A 07:46 NL 00584 A000346123-00A 07:46 NL
00585 A000346127-00A 07:46 NL 00586 A000346140-00A 07:46 NL
00587 A000346145-00A 07:46 NL 00588 A000346151-00A 07:46 NL
00589 A000345907-00A 07:46 NL 00590 A000345909-00A 07:46 NL
00591 A000345931-00A 07:46 NL 00592 A000345932-00A 07:46 NL
00593 A000345933-00A 07:46 NL 00594 A000345934-00A 07:46 NL
00595 A000345968-00A 07:46 NL 00596 A000345971-00A 07:46 NL
00597 A000345984-00A 07:46 NL 00598 A000345991-00A 07:46 NL
00599 A000345995-00A 07:46 NL 00600 A000346075-00A 07:46 NL
00601 A000346076-00A 07:46 NL 00602 A000346077-00A 07:46 NL
00603 A000346152-00A 07:46 NL 00604 A000346153-00A 07:46 NL
00605 A000346166-00A 07:47 NL 00606 A000346168-00A 07:47 NL
00607 A000346169-00A 07:47 NL 00608 A000346171-00A 07:47 NL
00609 A000346172-00A 07:47 NL 00610 A000346173-00A 07:47 NL
00611 A000346175-00A 07:47 NL 00612 A000346178-00A 07:47 NL
00613 A000346189-00A 07:47 NL 00614 A000346191-00A 07:47 NL
00615 A000346193-00A 07:47 NL 00616 A000346194-00A 07:47 NL
00617 A000346196-00A 07:47 NL 00618 A000346012-00A 07:47 NL
00619 A000346017-00A 07:47 NL 00620 A000346176-00A 07:47 NL
00621 A000346222-00A 07:47 NL 00622 A000346227-00A 07:55 NL
00623 A218400191-00A 07:55 E  00624 A218400193-00A 07:55 E
00625 A218400196-00A 07:55 E  00626 A000346228-00A 07:55 NL
00627 A000346230-00A 07:55 NL 00628 A000346232-00A 07:55 NL
00629 A000346233-00A 07:55 NL 00630 A000346234-00A 07:55 NL
00631 A000346235-00A 07:55 NL 00632 A000346236-00A 07:55 NL
00633 A000346237-00A 07:55 NL 00634 A000346242-00A 07:55 NL
00635 A000346243-00A 07:55 NL 00636 A000346245-00A 07:55 NL
00637 A000346246-00A 07:55 NL 00638 A000346247-00A 07:55 NL
00639 A000346248-00A 07:55 NL 00640 A000346249-00A 07:55 NL
00641 A000346250-00A 07:55 NL 00642 A000346251-00A 07:55 NL
00643 A000346265-00A 07:55 NL 00644 A000346268-00A 07:55 NL
00645 A000346274-00A 07:55 NL 00646 A000346277-00A 07:55 NL
00647 A000346255-00A 07:55 NL 00648 A000346256-00A 07:55 NL
00649 A000346257-00A 07:55 NL 00650 A000346258-00A 07:55 NL
00651 A000346259-00A 07:55 NL 00652 A000346260-00A 07:55 NL
00653 A000346261-00A 07:55 NL 00654 A000346264-00A 07:55 NL
00655 A000346288-00A 07:55 NL 00656 A000346294-00A 07:55 NL
00657 A000346298-00A 07:55 NL 00658 A000346302-00A 07:55 NL
00659 A000346303-00A 07:55 NL 00660 A000346304-00A 07:55 NL
00661 A000346305-00A 07:55 NL 00662 A000346306-00A 07:55 NL
00663 A000346310-00A 07:55 NL 00664 A000346311-00A 07:55 NL
00665 A000346312-00A 07:55 NL 00666 A000346318-00A 07:55 NL
00667 A000346323-00A 07:55 NL 00668 A000346324-00A 07:55 NL
00669 A000346313-00A 07:56 NL 00670 A000346314-00A 07:56 NL
00671 A000346325-00A 07:56 NL 00672 A218301002-00A 07:56 N
00673 A000346331-00A 07:56 NL 00674 A218400200-00A 07:56 H
00675 A000346333-00A 07:56 NL 00676 A000346336-00A 07:56 NL
00677 A000346337-00A 07:56 NL 00678 A000346341-00A 07:56 NL
00679 A000346342-00A 07:56 NL 00680 A000346343-00A 07:56 NL
00681 A000346344-00A 07:56 NL 00682 A000346345-00A 07:56 NL
00683 A000346346-00A 07:56 NL 00684 A000346348-00A 07:56 NL
00685 A000346350-00A 07:56 NL 00686 A000346351-00A 07:56 NL
00687 A000346354-00A 07:56 NL 00688 A000346356-00A 07:56 NL
00689 A000346358-00A 07:56 NL 00690 A000346359-00A 07:56 NL
00691 A000346360-00A 07:56 NL 00692 A000346361-00A 07:56 NL
00693 A000346362-00A 07:56 NL 00694 A000346363-00A 07:56 NL
00695 A000346364-00A 07:56 NL 00696 A000346365-00A 07:56 NL
00697 A000346366-00A 07:56 NL 00698 A000346368-00A 07:56 NL
00699 A000346369-00A 07:56 NL 00700 A000346371-00A 07:56 NL
00701 A000346373-00A 07:56 NL 00702 A000346375-00A 07:56 NL
00703 A000346376-00A 07:56 NL 00704 A000346377-00A 07:56 NL
00705 A218301076-00A 07:56 N  00706 A218400090-00A 07:56 N
00707 A218400095-00A 07:56 N  00708 A218400096-00A 07:56 N
00709 A218400097-00A 07:56 N  00710 A218400098-00A 07:56 N
00711 A218400101-00A 07:56 N  00712 A218400105-00A 07:56 N
00713 A218400108-00A 07:56 N  00714 A218400109-00A 07:56 N
00715 A218400110-00A 07:56 N  00716 A000346380-00A 07:56 NL
00717 A000346384-00A 07:57 NL 00718 A000346385-00A 07:57 NL
00719 A000346388-00A 07:57 NL 00720 A000346391-00A 07:57 NL
00721 A000346392-00A 07:57 NL 00722 A000346394-00A 07:57 NL
00723 A000346397-00A 07:57 NL 00724 A000346398-00A 07:57 NL
00725 A000346399-00A 07:57 NL 00726 A000346401-00A 07:57 NL
00727 A000346403-00A 07:57 NL 00728 A000346404-00A 07:57 NL
00729 A218400113-00A 07:57 N  00730 A218400116-00A 07:57 N
00731 A000346405-00A 07:57 NL 00732 A000346406-00A 07:57 NL
00733 A000346407-00A 07:57 NL 00734 A000346408-00A 07:57 NL
00735 A000346409-00A 07:57 NL 00736 A000346410-00A 07:57 NL
00737 A000346411-00A 07:57 NL 00738 A000346416-00A 07:57 NL
00739 A000346418-00A 07:57 NL 00740 A000346419-00A 07:57 NL
00741 A000346439-00A 07:57 NL 00742 A000346420-00A 07:57 NL
00743 A000346421-00A 07:57 NL 00744 A000346422-00A 07:57 NL
00745 A000346423-00A 07:57 NL 00746 A000346424-00A 07:57 NL
00747 A000346425-00A 07:57 NL 00748 A000346426-00A 07:57 NL
00749 A000346427-00A 07:57 NL 00750 A000346428-00A 07:57 NL
00751 A218400120-00A 07:57 N  00752 A000346444-00A 07:57 NL
00753 A000346445-00A 07:57 NL 00754 A000346446-00A 07:57 NL
00755 A000346447-00A 07:57 NL 00756 A000346448-00A 07:57 NL
00757 A000346449-00A 07:57 NL 00758 A000346450-00A 07:57 NL
00759 A000346452-00A 07:57 NL 00760 A000346455-00A 07:57 NL
00761 A000346456-00A 07:57 NL 00762 A000346457-00A 07:57 NL
00763 A000346458-00A 07:57 NL 00764 A000346465-00A 08:05 NL
00765 A000346466-00A 08:05 NL 00766 A000346468-00A 08:05 NL
00767 A000346470-00A 08:05 NL 00768 A000346476-00A 08:05 NL
00769 A000346429-00A 08:05 NL 00770 A000346430-00A 08:05 NL
00771 A000346431-00A 08:05 NL 00772 A000346432-00A 08:05 NL
00773 A000346433-00A 08:05 NL 00774 A000346434-00A 08:05 NL
00775 A000346435-00A 08:05 NL 00776 A000346436-00A 08:05 NL
00777 A000346437-00A 08:05 NL 00778 A000346459-00A 08:05 NL
00779 A000346460-00A 08:05 NL 00780 A000346461-00A 08:05 NL
00781 A000346462-01A 08:05 NL 00782 A000346463-00A 08:05 NL
00783 A000346478-00A 08:05 NL 00784 A000346480-00A 08:05 NL
00785 A000346482-00A 08:05 NL 00786 A000346484-00A 08:06 NL
00787 A000346487-00A 08:06 NL 00788 A000346505-00A 08:06 NL
00789 A000346509-00A 08:06 NL 00790 A000346510-00A 08:06 NL
00791 A000346513-00A 08:06 NL 00792 A000346514-00A 08:06 NL
00793 A000346515-00A 08:06 NL 00794 A000346516-00A 08:06 NL
00795 A000346517-00A 08:06 NL 00796 A000346518-00A 08:06 NL
00797 A000346520-00A 08:06 NL 00798 A000346547-00A 08:06 NL
00799 A000346548-00A 08:06 NL 00800 A000346489-00A 08:06 NL
00801 A000346494-00A 08:06 NL 00802 A000346521-00A 08:06 NL
00803 A000346522-00A 08:06 NL 00804 A000346551-00A 08:06 NL
00805 A000346561-00A 08:06 NL 00806 A000346567-00A 08:06 NL
00807 A000346570-00A 08:06 NL 00808 A000346573-00A 08:06 NL
00809 A000346574-00A 08:06 NL 00810 A000346578-00A 08:06 NL
00811 A000346580-00A 08:06 NL 00812 A000346589-00A 08:06 NL
00813 A000346590-00A 08:06 NL 00814 A000346591-00A 08:06 NL
00815 A000346575-00A 08:06 NL 00816 A000346576-00A 08:06 NL
00817 A000346592-00A 08:06 NL 00818 A000346593-00A 08:06 NL
00819 A000346597-00A 08:06 NL 00820 A000346599-00A 08:06 NL
00821 A000346600-00A 08:06 NL 00822 A000346602-00A 08:06 NL
00823 A000346608-00A 08:06 NL 00824 A000346612-00A 08:06 NL
00825 A000346613-00A 08:06 NL 00826 A000346614-00A 08:06 NL
00827 A000346616-00A 08:06 NL 00828 A000346620-00A 08:06 NL
00829 A000346622-00A 08:06 NL 00830 A000346626-00A 08:14 NL
00831 A218400229-00A 08:14 E  00832 A000346627-00A 08:14 NL
00833 A000346628-00A 08:14 NL 00834 A000346629-00A 08:14 NL
00835 A000346630-00A 08:14 NL 00836 A000346631-00A 08:14 NL
00837 A000346632-00A 08:14 NL 00838 A000346633-00A 08:14 NL
00839 A000346652-00A 08:14 NL 00840 A000346655-00A 08:14 NL
00841 A000346656-00A 08:14 NL 00842 A000346658-00A 08:14 NL
00843 A000346661-00A 08:14 NL 00844 A000346662-00A 08:14 NL
00845 A000346665-00A 08:14 NL 00846 A000346634-00A 08:14 NL
00847 A000346635-00A 08:14 NL 00848 A000346670-00A 08:14 NL
00849 A000346672-01A 08:15 NL 00850 A000346673-00A 08:15 NL
00851 A000346676-00A 08:15 NL 00852 A000346678-00A 08:15 NL
00853 A000346679-00A 08:15 NL 00854 A000346682-00A 08:15 NL
00855 A000346683-00A 08:15 NL 00856 A000346685-00A 08:15 NL
00857 A000346686-00A 08:22 NL 00858 A218400280-00A 08:22 E
00859 A000346687-00A 08:22 NL 00860 A000346690-00A 08:22 NL
00861 A000346693-00A 08:22 NL 00862 A000346694-00A 08:22 NL
00863 A000346695-00A 08:22 NL 00864 A000346696-00A 08:23 NL
00865 A000346697-00A 08:23 NL 00866 A000346698-00A 08:23 NL
00867 A000346700-00A 08:23 NL 00868 A000346701-00A 08:23 NL
00869 A000346705-00A 08:23 NL 00870 A000346706-00A 08:23 NL
00871 A000346731-00A 08:23 NL 00872 A000346684-00A 08:23 NL
00873 A000346743-00A 08:23 NL 00874 A000346747-00A 08:23 NL
00875 A000346748-00A 08:23 NL 00876 A000346749-00A 08:23 NL
00877 A000346751-00A 08:23 NL 00878 A000346752-00A 08:23 NL
00879 A000346753-00A 08:23 NL 00880 A000346754-00A 08:23 NL
00881 A000346759-00A 08:23 NL 00882 A000346762-00A 08:23 NL
00883 A000346763-00A 08:23 NL 00884 A000346764-00A 08:23 NL
00885 A000346765-00A 08:23 NL 00886 A000346766-00A 08:23 NL
00887 A000346767-00A 08:23 NL 00888 A000346769-00A 08:23 NL
00889 A000346771-00A 08:23 NL 00890 A000346775-00A 08:23 NL
00891 A000346796-00A 08:23 NL 00892 A000346797-00A 08:23 NL
00893 A000346798-00A 08:23 NL 00894 A000346799-00A 08:23 NL
00895 A000346801-00A 08:23 NL 00896 A000346829-00A 08:23 NL
00897 A000346832-00A 08:23 NL 00898 A000346837-00A 08:23 NL
00899 A000346838-00A 08:23 NL 00900 A000346746-00A 08:23 NL
00901 A000346784-00A 08:23 NL 00902 A000346833-00A 08:23 NL
00903 A000346834-00A 08:23 NL 00904 A000346835-00A 08:23 NL
00905 A000346836-00A 08:23 NL 00906 A000346839-00A 08:23 NL
00907 A000346840-00A 08:23 NL 00908 A000346841-00A 08:23 NL
00909 A000346842-00A 08:23 NL 00910 A000346843-00A 08:23 NL
00911 A000346846-00A 08:23 NL 00912 A000346849-00A 08:24 NL
00913 A000346851-00A 08:24 NL 00914 A000346852-00A 08:24 NL
00915 A000346853-00A 08:24 NL 00916 A000346856-00A 08:24 NL
00917 A000346858-00A 08:24 NL 00918 A000346859-00A 08:24 NL
00919 A000346864-00A 08:24 NL 00920 A000346865-00A 08:24 NL
00921 A000346868-00A 08:24 NL 00922 A000346870-00A 08:24 NL
00923 A000346871-00A 08:24 NL 00924 A000346872-00A 08:24 NL
00925 A000346875-00A 08:24 NL 00926 A000346876-00A 08:24 NL
00927 A000346878-00A 08:24 NL 00928 A000346880-00A 08:24 NL
00929 A000346881-00A 08:24 NL 00930 A000346889-00A 08:24 NL
00931 A218400286-00A 08:24 E  00932 A000346891-00A 08:24 NL
00933 A000346892-00A 08:24 NL 00934 A000346893-00A 08:24 NL
00935 A000346896-00A 08:24 NL 00936 A000346897-00A 08:24 NL
00937 A000346898-00A 08:24 NL 00938 A000346899-00A 08:24 NL
00939 A000346900-00A 08:24 NL 00940 A218400287-00A 08:24 E
00941 A000346901-00A 08:24 NL 00942 A000346904-00A 08:24 NL
00943 A000346933-00A 08:24 NL 00944 A000346945-00A 08:24 NL
00945 A000346946-00A 08:24 NL 00946 A000346956-00A 08:24 NL
00947 A000346659-00A 08:24 NL 00948 A000346660-00A 08:24 NL
00949 A000346664-00A 08:24 NL 00950 A000346791-00A 08:24 NL
00951 A000346902-00A 08:24 NL 00952 A000346903-00A 08:24 NL
00953 A000346934-00A 08:38 NL 00954 A218400297-00A 08:38 H
00955 A000346935-00A 08:38 NL 00956 A218400333-00A 08:38 E
00957 A000346936-00A 08:38 NL 00958 A000346937-00A 08:38 NL
00959 A000346938-00A 08:38 NL 00960 A000346939-00A 08:38 NL
00961 A000346940-00A 08:38 NL 00962 A000346941-00A 08:38 NL
00963 A000346942-00A 08:38 NL 00964 A000346943-00A 08:38 NL
00965 A000346944-00A 08:38 NL 00966 A000346957-00A 08:38 NL
00967 A000346963-00A 08:38 NL 00968 A000346965-00A 08:38 NL
00969 A000346966-00A 08:38 NL 00970 A000346969-00A 08:38 NL
00971 A000346971-00A 08:38 NL 00972 A000346975-00A 08:38 NL
00973 A000346980-00A 08:38 NL 00974 A000346981-00A 08:38 NL
00975 A000346982-00A 08:38 NL 00976 A000346983-00A 08:38 NL
00977 A000346986-00A 08:38 NL 00978 A000346990-00A 08:38 NL
00979 A000346991-00A 08:38 NL 00980 A000346992-00A 08:38 NL
00981 A000346995-00A 08:38 NL 00982 A000346996-00A 08:38 NL
00983 A000346997-00A 08:38 NL 00984 A000346998-00A 08:38 NL
00985 A000347035-00A 08:38 NL 00986 A000347036-00A 08:45 NL
00987 A218400340-00A 08:45 E  00988 A218400196-01A 08:45 EC
00989 A000346413-01A 08:45 E  00990 A000346666-00A 08:45 NL
00991 A000346688-00A 08:45 NL 00992 A000346793-00A 08:45 NL
00993 A000346800-00A 08:45 NL 00994 A000347044-00A 08:45 NL
00995 A000347047-00A 08:53 NL 00996 A218400359-00A 08:53 H
00997 A218400370-00A 08:53 H  00998 A218400370-01A 08:53 HR
00999 A000347048-00A 08:53 NL 01000 A000347051-00A 08:53 NL
01001 A000347052-00A 08:53 NL 01002 A000347053-00A 08:53 NL
01003 A000347060-00A 08:53 NL 01004 A000347061-00A 08:53 NL
01005 A000347062-00A 08:53 NL 01006 A000347065-00A 08:53 NL
01007 A000347067-00A 08:53 NL 01008 A000347070-00A 08:53 NL
01009 A000347072-00A 08:53 NL 01010 A000347073-00A 08:53 NL
01011 A000347074-00A 08:53 NL 01012 A000347078-00A 08:53 NL
01013 A218301298-00A 08:53 N  01014 A000347079-00A 08:53 NL
01015 A000347080-00A 08:53 NL 01016 A000347081-00A 08:53 NL
01017 A000347089-00A 08:53 NL 01018 A000347092-00A 08:53 NL
01019 A000347094-00A 08:53 NL 01020 A000347096-00A 08:53 NL
01021 A000347097-00A 08:53 NL 01022 A000347100-00A 08:53 NL
01023 A000347114-00A 08:53 NL 01024 A000347115-00A 08:53 NL
01025 A000347118-00A 08:53 NL 01026 A000346756-00A 08:53 NL
01027 A000346803-00A 08:53 NL 01028 A000346828-00A 08:53 NL
01029 A000346831-00A 08:54 NL 01030 A000346845-00A 08:54 NL
01031 A000346848-00A 08:54 NL 01032 A000346869-00A 08:54 NL
01033 A000346873-00A 08:54 NL 01034 A000346948-00A 08:54 NL
01035 A000347105-00A 08:54 NL 01036 A000347107-00A 08:54 NL
01037 A000347112-00A 08:54 NL 01038 A000347122-00A 09:01 NL
01039 A000347123-00A 09:01 NL 01040 A000347124-00A 09:01 NL
01041 A000347125-00A 09:01 NL 01042 A000347126-00A 09:01 NL
01043 A000347127-00A 09:02 NL 01044 A000347133-00A 09:02 NL
01045 A000347135-00A 09:02 NL 01046 A000347139-00A 09:02 NL
01047 A000347140-00A 09:02 NL 01048 A000347142-00A 09:02 NL
01049 A000347148-00A 09:02 NL 01050 A000347161-00A 09:05 NL
01051 A218400419-00A 09:05 E  01052 A218400412-00A 09:05 H
01053 A000347168-00A 09:05 NL 01054 A000347169-00A 09:05 NL
01055 A218400422-00A 09:05 E  01056 A000346847-00A 09:05 NL
01057 A000346850-00A 09:05 NL 01058 A000346854-00A 09:05 NL
01059 A000346882-00A 09:05 NL 01060 A000346967-00A 09:05 NL
01061 A000346978-00A 09:06 NL 01062 A000346985-00A 09:06 NL
01063 A000346988-00A 09:06 NL 01064 A218400123-00A 09:06 N
01065 A000347042-00A 09:06 NL 01066 A000347055-00A 09:06 NL
01067 A000347087-00A 09:06 NL 01068 A000347149-00A 09:06 NL
01069 A000347150-00A 09:06 NL 01070 A000347151-00A 09:06 NL
01071 A000347152-00A 09:06 NL 01072 A000347153-00A 09:06 NL
01073 A000347170-00A 09:06 NL 01074 A000347175-00A 09:06 NL
01075 A000347176-00A 09:06 NL 01076 A000347177-00A 09:06 NL
01077 A000347178-00A 09:06 NL 01078 A000347179-00A 09:06 NL
01079 A000347180-00A 09:06 NL 01080 A000347181-00A 09:06 NL
01081 A000347182-00A 09:06 NL 01082 A000347183-00A 09:06 NL
01083 A000347184-00A 09:06 NL 01084 A000347187-00A 09:06 NL
01085 A000347190-00A 09:06 NL 01086 A000347191-00A 09:06 NL
01087 A000347192-00A 09:06 NL 01088 A000347193-00A 09:06 NL
01089 A000347194-00A 09:06 NL 01090 A000347195-00A 09:06 NL
01091 A000347196-00A 09:06 NL 01092 A000347199-00A 09:06 NL
01093 A000347203-00A 09:06 NL 01094 A000347207-00A 09:06 NL
01095 A000347210-00A 09:06 NL 01096 A000347211-00A 09:06 NL
01097 A000347213-00A 09:06 NL 01098 A000347215-00A 09:06 NL
01099 A000347216-00A 09:06 NL 01100 A000347217-00A 09:06 NL
01101 A000346970-00A 09:06 NL 01102 A000346972-00A 09:06 NL
01103 A000346976-00A 09:14 NL 01104 A218400435-00A 09:14 E
01105 A218400439-00A 09:14 H  01106 A000346987-00A 09:14 NL
01107 A000346994-00A 09:14 NL 01108 A000347075-00A 09:14 NL
01109 A000347076-00A 09:14 NL 01110 A000347095-00A 09:14 NL
01111 A000347128-00A 09:14 NL 01112 A000347154-00A 09:14 NL
01113 A000347155-00A 09:14 NL 01114 A000347219-00A 09:14 NL
01115 A000347220-00A 09:14 NL 01116 A000347221-00A 09:14 NL
01117 A000347232-00A 09:15 NL 01118 A000347233-00A 09:15 NL
01119 A000347236-00A 09:15 NL 01120 A000347237-00A 09:15 NL
01121 A000347238-00A 09:15 NL 01122 A000347239-00A 09:15 NL
01123 A000347240-00A 09:15 NL 01124 A000347245-00A 09:15 NL
01125 A000347247-00A 09:15 NL 01126 A000347249-00A 09:15 NL
01127 A000347262-00A 09:15 NL 01128 A000347264-00A 09:15 NL
01129 A000347265-00A 09:15 NL 01130 A000347266-00A 09:15 NL
01131 A000347267-00A 09:15 NL 01132 A000347271-00A 09:15 NL
01133 A000347272-00A 09:15 NL 01134 A000347274-00A 09:15 NL
01135 A000347275-00A 09:15 NL 01136 A000347277-00A 09:15 NL
01137 A000347286-00A 09:15 NL 01138 A000347287-00A 09:15 NL
01139 A000347292-00A 09:15 NL 01140 A000347098-00A 09:15 NL
01141 A000347099-00A 09:15 NL 01142 A000347117-00A 09:15 NL
01143 A000347120-00A 09:15 NL 01144 A000347121-00A 09:15 NL
01145 A000347129-00A 09:15 NL 01146 A000347134-00A 09:15 NL
01147 A000347241-00A 09:15 NL 01148 A000347242-00A 09:15 NL
01149 A000347293-00A 09:15 NL 01150 A000347299-00A 09:15 NL
01151 A000347303-00A 09:15 NL 01152 A000347307-00A 09:15 NL
01153 A000347308-00A 09:15 NL 01154 A000347309-00A 09:15 NL
01155 A000347310-00A 09:15 NL 01156 A000347311-00A 09:15 NL
01157 A000347312-00A 09:15 NL 01158 A000347313-00A 09:15 NL
01159 A000347314-00A 09:15 NL 01160 A000347334-00A 09:15 NL
01161 A000347336-00A 09:15 NL 01162 A000347337-00A 09:15 NL
01163 A000347145-00A 09:16 NL 01164 A000347341-00A 09:16 NL
01165 A000347342-00A 09:16 NL 01166 A000347343-00A 09:16 NL
01167 A000347344-00A 09:16 NL 01168 A000347345-00A 09:16 NL
01169 A000347346-00A 09:16 NL 01170 A000347347-00A 09:16 NL
01171 A000347348-00A 09:16 NL 01172 A000347349-00A 09:16 NL
01173 A000347350-00A 09:16 NL 01174 A000347351-00A 09:16 NL
01175 A000347352-00A 09:16 NL 01176 A000347353-00A 09:16 NL
01177 A000347354-00A 09:23 NL 01178 A218400467-00A 09:23 E
01179 A218400450-00A 09:23 H  01180 A218400455-00A 09:23 H
01181 A218400468-00A 09:23 H  01182 A000347355-00A 09:23 NL
01183 A000347356-00A 09:23 NL 01184 A000347357-00A 09:23 NL
01185 A000347358-00A 09:23 NL 01186 A000347359-00A 09:23 NL
01187 A000347360-00A 09:24 NL 01188 A000347362-00A 09:24 NL
01189 A000347363-00A 09:24 NL 01190 A000347364-00A 09:24 NL
01191 A000347368-00A 09:24 NL 01192 A000347369-00A 09:24 NL
01193 A000347371-00A 09:31 NL 01194 A218400476-00A 09:31 E
01195 A218400485-00A 09:31 E  01196 A000347374-00A 09:32 NL
01197 A000347375-00A 09:32 NL 01198 A000347379-00A 09:32 NL
01199 A000347380-00A 09:32 NL 01200 A000347204-00A 09:32 NL
01201 A000347208-00A 09:32 NL 01202 A000347376-00A 09:32 NL
01203 A000347377-00A 09:32 NL 01204 A000347378-00A 09:32 NL
01205 A000347381-00A 09:32 NL 01206 A000347382-00A 09:32 NL
01207 A000347383-00A 09:32 NL 01208 A000347393-00A 09:32 NL
01209 A000347396-00A 09:32 NL 01210 A000347401-00A 09:32 NL
01211 A000347403-00A 09:32 NL 01212 A000347406-00A 09:32 NL
01213 A000347410-00A 09:32 NL 01214 A000347411-00A 09:32 NL
01215 A000347414-00A 09:32 NL 01216 A000347415-00A 09:32 NL
01217 A000347426-00A 09:32 NL 01218 A000347429-00A 09:32 NL
01219 A000347430-00A 09:32 NL 01220 A000347431-00A 09:32 NL
01221 A000347437-00A 09:32 NL 01222 A000347438-00A 09:32 NL
01223 A000347446-00A 09:32 NL 01224 A218400125-00A 09:32 N
01225 A218400126-00A 09:32 N  01226 A000347243-00A 09:32 NL
01227 A000347291-00A 09:32 NL 01228 A000347422-00A 09:32 NL
01229 A000347432-00A 09:32 NL 01230 A000347442-00A 09:32 NL
01231 A000347443-00A 09:32 NL 01232 A000347444-00A 09:40 NL
01233 A000347445-00A 09:40 NL 01234 A000347448-00A 09:40 NL
01235 A000347451-00A 09:40 NL 01236 A000347459-00A 09:40 NL
01237 A000347460-00A 09:40 NL 01238 A000347461-00A 09:40 NL
01239 A000347462-00A 09:40 NL 01240 A000347464-00A 09:40 NL
01241 A000347466-00A 09:40 NL 01242 A000347467-00A 09:40 NL
01243 A000347479-00A 09:40 NL 01244 A000347482-00A 09:40 NL
01245 A000347483-00A 09:40 NL 01246 A000347484-00A 09:41 NL
01247 A000347485-00A 09:41 NL 01248 A000347487-00A 09:41 NL
01249 A000347295-00A 09:41 NL 01250 A000347297-00A 09:41 NL
01251 A000347298-00A 09:48 NL 01252 A218400395-00A 09:48 E
01253 A218400539-00A 09:48 E  01254 A218400531-00A 09:48 H
01255 A000347302-00A 09:48 NL 01256 A000347304-00A 09:48 NL
01257 A000347306-00A 09:49 NL 01258 A000347476-00A 09:49 NL
01259 A000347491-00A 09:49 NL 01260 A000347493-00A 09:49 NL
01261 A000347494-00A 09:49 NL 01262 A000347495-00A 09:49 NL
01263 A000347496-00A 09:49 NL 01264 A000347497-00A 09:49 NL
01265 A000347499-00A 09:57 NL 01266 A000347504-00A 09:57 NL
01267 A000347395-00A 09:57 NL 01268 A000347397-00A 09:57 NL
01269 A000347412-00A 09:57 NL 01270 A000347416-00A 09:57 NL
01271 A000347428-00A 09:57 NL 01272 A218400591-00A 09:57 H
01273 A218400131-00A 09:57 N  01274 A218400132-00A 09:57 N
01275 A218400133-00A 09:57 N  01276 A218400134-00A 09:57 N
01277 A218400135-00A 09:57 N  01278 A218400137-00A 09:57 N
01279 A218400139-00A 09:57 N  01280 A218400140-00A 09:57 N
01281 A218400146-00A 09:57 N  01282 A218400148-00A 09:57 N
01283 A218301456-00A 09:57 N  01284 A218400152-00A 09:57 N
01285 A218400154-00A 09:57 N  01286 A218400155-00A 09:57 N
01287 A218400156-00A 09:57 N  01288 A218400159-00A 09:57 N
01289 A218400162-00A 09:57 N  01290 A218400164-00A 09:57 N
01291 A218400165-00A 09:57 N  01292 A218400170-00A 10:05 N
01293 A218400615-00A 10:05 H  01294 A218301452-00A 10:05 N
01295 A218400172-00A 10:05 N  01296 A218400176-00A 10:05 N
01297 A218400177-00A 10:05 N  01298 A218400182-00A 10:05 N
01299 A218400183-00A 10:05 N  01300 A218400184-00A 10:05 N
01301 A218400187-00A 10:05 N  01302 A218400190-00A 10:05 N
01303 A218400194-00A 10:05 N  01304 A218400195-00A 10:05 N
01305 A218400197-00A 10:05 N  01306 A218400198-00A 10:05 N
01307 A218301495-00A 10:05 N  01308 A218400201-00A 10:05 N
01309 A218400203-00A 10:05 N  01310 A218400208-00A 10:05 N
01311 A218301525-00A 10:05 N  01312 A218400168-00A 10:05 N
01313 A218400211-00A 10:05 N  01314 A218301533-00A 10:05 N
01315 A218400216-00A 10:05 N  01316 A218400217-00A 10:05 N
01317 A218301514-00A 10:05 N  01318 A218400218-00A 10:05 N
01319 A218400219-00A 10:05 N  01320 A218400221-00A 10:05 N
01321 A218400230-00A 10:05 N  01322 A218400234-00A 10:05 N
01323 A218400236-00A 10:05 N  01324 A218400241-00A 10:05 N
01325 A218400242-00A 10:05 N  01326 A218400244-00A 10:13 N
01327 A218400649-00A 10:13 E  01328 A218400651-00A 10:13 H
01329 A218400245-00A 10:13 N  01330 A218400247-00A 10:13 N
01331 A218400248-00A 10:13 N  01332 A218400253-00A 10:13 N
01333 A218400254-00A 10:13 N  01334 A218400257-00A 10:13 N
01335 A218400258-00A 10:13 N  01336 A218400262-00A 10:13 N
01337 A218400263-00A 10:13 N  01338 A218301540-00A 10:13 N
01339 A218400264-00A 10:13 N  01340 A218400265-00A 10:13 N
01341 A218400267-00A 10:13 N  01342 A218400269-00A 10:13 N
01343 A218400275-00A 10:13 N  01344 A218400278-00A 10:13 N
01345 A218400279-00A 10:13 N  01346 A218400282-00A 10:13 N
01347 A218400283-00A 10:13 N  01348 A218400285-00A 10:13 N
01349 A218400288-00A 10:13 N  01350 A218400291-00A 10:13 N
01351 A218400293-00A 10:13 N  01352 A218400294-00A 10:13 N
01353 A218400296-00A 10:13 N  01354 A218400299-00A 10:13 N
01355 A218400300-00A 10:13 N  01356 A218400302-00A 10:14 N
01357 A218400303-00A 10:14 N  01358 A218300953-00A 10:14 N
01359 A218400305-00A 10:14 N  01360 A218400306-00A 10:21 N
01361 A218400659-00A 10:21 E  01362 A218400662-00A 10:21 E
01363 A218400308-00A 10:21 N  01364 A218400309-00A 10:21 N
01365 A218301982-00A 10:21 N  01366 A218400313-00A 10:21 N
01367 A218400315-00A 10:21 N  01368 A218400316-00A 10:21 N
01369 A218400317-00A 10:21 N  01370 A218400318-00A 10:21 N
01371 A218400322-00A 10:21 N  01372 A218400326-00A 10:21 N
01373 A218400327-00A 10:21 N  01374 A218400330-00A 10:21 N
01375 A218301909-00A 10:21 N  01376 A218400331-00A 10:21 N
01377 A218400334-00A 10:21 N  01378 A218400335-00A 10:21 N
01379 A218400337-00A 10:21 N  01380 A218400339-00A 10:21 N
01381 A218400343-00A 10:21 N  01382 A218400344-00A 10:21 N
01383 A218400345-00A 10:21 N  01384 A218400346-00A 10:21 N
01385 A218400348-00A 10:21 N  01386 A218301998-00A 10:21 N
01387 A218400353-00A 10:21 N  01388 A218400356-00A 10:21 N
01389 A218400357-00A 10:21 N  01390 A218400358-00A 10:21 N
01391 A218400360-00A 10:21 N  01392 A218302000-00A 10:21 N
01393 A218400361-00A 10:21 N  01394 A218400362-00A 10:21 N
01395 A218400363-00A 10:21 N  01396 A218400368-00A 10:21 N
01397 A218400371-00A 10:21 N  01398 A218400372-00A 10:21 N
01399 A218400375-00A 10:22 N  01400 A218400377-00A 10:35 N
01401 A218400724-00A 10:35 E  01402 A218400378-00A 10:35 N
01403 A218400334-01A 10:35 NR 01404 A218400382-00A 10:35 N
01405 A218400389-00A 10:35 N  01406 A218301108-00A 10:35 N
01407 A218400394-00A 10:35 N  01408 A218400399-00A 10:35 N
01409 A218400401-00A 10:35 N  01410 A218400402-00A 10:35 N
01411 A218400408-00A 10:36 N  01412 A218400410-00A 10:36 N
01413 A218400411-00A 10:36 N  01414 A218400414-00A 10:36 N
01415 A218400416-00A 10:36 N  01416 A218400418-00A 10:36 N
01417 A218400424-00A 10:36 N  01418 A218400426-00A 10:36 N
01419 A218400431-00A 10:36 N  01420 A218400432-00A 10:36 N
01421 A218400433-00A 10:36 N  01422 A218400434-00A 10:36 N
01423 A218400440-00A 10:36 N  01424 A218400443-00A 10:36 N
01425 A218400445-00A 10:36 N  01426 A218400446-00A 10:36 N
01427 A218400447-00A 10:36 N  01428 A218400448-00A 10:36 N
01429 A218400451-00A 10:36 N  01430 A218400453-00A 10:36 N
01431 A218400454-00A 10:36 N  01432 A218400457-00A 10:36 N
01433 A218400447-01A 10:36 NR 01434 A218400463-00A 10:36 N
01435 A218302194-00A 10:36 N  01436 A218400470-00A 10:36 N
01437 A218400471-00A 10:36 N  01438 A218400472-00A 10:36 N
01439 A218400474-00A 10:36 N  01440 A218400479-00A 10:36 N
01441 A218400482-00A 10:36 N  01442 A218400484-00A 10:36 N
01443 A218400487-00A 10:36 N  01444 A218400493-00A 10:36 N
01445 A218400494-00A 10:36 N  01446 A218400496-00A 10:36 N
01447 A218400497-00A 10:36 N  01448 A218400498-00A 10:36 N
01449 A218400499-00A 10:36 N  01450 A218400500-00A 10:36 N
01451 A218400501-00A 10:36 N  01452 A218400504-00A 10:36 N
01453 A218400506-00A 10:36 N  01454 A218400508-00A 10:36 N
01455 A218400510-00A 10:37 N  01456 A218400511-00A 10:37 N
01457 A218400512-00A 10:37 N  01458 A218400513-00A 10:37 N
01459 A218400514-00A 10:37 N  01460 A218400517-00A 10:37 N
01461 A218400519-00A 10:37 N  01462 A218400521-00A 10:37 N
01463 A218400523-00A 10:37 N  01464 A218400524-00A 10:37 N
01465 A218400526-00A 10:37 N  01466 A218400527-00A 10:37 N
01467 A218400529-00A 10:37 N  01468 A218400533-00A 10:37 N
01469 A218400534-00A 10:37 N  01470 A218400542-00A 10:37 N
01471 A218400544-00A 10:37 N  01472 A218400545-00A 10:37 N
01473 A218400547-00A 10:37 N  01474 A218400548-00A 10:37 N
01475 A218400549-00A 10:37 N  01476 A218400550-00A 10:37 N
01477 A218400551-00A 10:37 N  01478 A218400556-00A 10:37 N
01479 A218400557-00A 10:37 N  01480 A218400558-00A 10:45 N
01481 A218400752-00A 10:45 E  01482 A000346946-01A 10:45 E
01483 A218400761-00A 10:45 E  01484 A218400559-00A 10:45 N
01485 A218400561-00A 10:45 N  01486 A218400562-00A 10:45 N
01487 A218400564-00A 10:45 N  01488 A218400568-00A 10:45 N
01489 A218400569-00A 10:45 N  01490 A218300109-00A 10:45 N
01491 A218400572-00A 10:45 N  01492 A218400573-00A 10:45 N
01493 A218400575-00A 10:45 N  01494 A218400541-00A 10:45 N
01495 A218400576-00A 10:45 N  01496 A218400577-00A 10:45 N
01497 A218400578-00A 10:45 N  01498 A218400579-00A 10:45 N
01499 A218400581-00A 10:45 N  01500 A218400582-00A 10:45 N
01501 A218400583-00A 10:45 N  01502 A218400584-00A 10:45 N
01503 A218400585-00A 10:45 N  01504 A218400589-00A 10:45 N
01505 A218400590-00A 10:45 N  01506 A218400592-00A 10:45 N
01507 A218400593-00A 10:45 N  01508 A218400596-00A 10:46 N
01509 A218400598-00A 10:46 N  01510 A218400599-00A 10:46 N
01511 A218400604-00A 10:46 N  01512 A218400605-00A 10:46 N
01513 A218400606-00A 10:46 N  01514 A218400775-00A 10:46 E
01515 A218400607-00A 10:46 N  01516 A218400611-00A 10:46 N
01517 A218400612-00A 10:46 N  01518 A218400613-00A 10:46 N
01519 A218400616-00A 10:46 N  01520 A218300654-00A 10:46 N
01521 A218400618-00A 10:46 N  01522 A218400619-00A 10:48 N
01523 A218400785-00A 10:48 E  01524 A218400620-00A 10:49 N
01525 A218400624-00A 10:49 N  01526 A218400625-00A 10:49 N
01527 A218400629-00A 10:49 N  01528 A218400630-00A 10:49 N
01529 A218400631-00A 10:49 N  01530 A218400633-00A 10:49 N
01531 A218400635-00A 10:49 N  01532 A218400636-00A 10:49 N
01533 A218400637-00A 10:49 N  01534 A218400640-00A 10:49 N
01535 A218400641-00A 10:49 N  01536 A218400642-00A 10:49 N
01537 A218400503-00A 10:49 N  01538 A218400605-01A 10:49 NR
01539 A218400646-00A 10:49 N  01540 A218300936-00A 10:49 N
01541 A218400647-00A 10:49 N  01542 A218400652-00A 10:49 N
01543 A218400654-00A 10:49 N  01544 A218400655-00A 10:49 N
01545 A218400658-00A 10:49 N  01546 A218400663-00A 10:49 N
01547 A218400483-00A 10:49 N  01548 A218400669-00A 10:49 N
01549 A218400672-00A 10:49 N  01550 A218400673-00A 10:49 N
01551 A218400634-00A 10:49 N  01552 A218400676-00A 10:49 N
01553 A218400679-00A 10:49 N  01554 A218400682-00A 10:49 N
01555 A218400683-00A 10:49 N  01556 A218400685-00A 10:49 N
01557 A218400688-00A 10:49 N  01558 A218400689-00A 10:49 N
01559 A218301638-00A 10:49 N  01560 A218400694-00A 10:49 N
01561 A218400695-00A 10:49 N  01562 A218400700-00A 10:49 N
01563 A218400708-00A 10:49 N  01564 A218400709-00A 10:49 N
01565 A218400710-00A 10:49 N  01566 A218400711-00A 10:49 N
01567 A218400712-00A 10:50 N  01568 A218400713-00A 10:50 N
01569 A218301532-00A 10:50 N  01570 A218400716-00A 10:50 N
01571 A218400717-00A 10:50 N  01572 A218400719-00A 10:50 N
01573 A218400721-00A 10:50 N  01574 A218400723-00A 10:50 N
01575 A218400731-00A 10:50 N  01576 A218400735-00A 10:50 N
01577 A218400736-00A 10:50 N  01578 A218400737-00A 10:50 N
01579 A218400741-00A 10:50 N  01580 A218400742-00A 10:50 N
01581 A218400743-00A 10:50 N  01582 A218400745-00A 10:50 N
01583 A218400758-00A 10:50 N  01584 A218400759-00A 10:50 N
01585 A218400763-00A 10:50 N  01586 A218400764-00A 10:50 N
01587 A218400770-00A 10:50 N  01588 A218400776-00A 10:50 N
01589 A218400780-00A 10:50 N  01590 A218400782-00A 10:50 N
01591 A218400770-01A 10:50 NR 01592 A218400790-00A 10:50 N
01593 A218400797-00A 10:51 N  01594 A218400801-00A 10:53 N
01595 A218400803-00A 10:53 N  01596 A218400806-00A 10:53 N
01597 A218400808-00A 10:54 N  01598 A000345798-01A 10:54 E
01599 A218400811-00A 10:54 N  01600 A218400815-00A 10:56 N
01601 A218400822-00A 10:58 E  01602 A218400819-00A 10:58 N
01603 A218400826-00A 11:06 N  01604 A218400840-00A 11:06 E
01605 A218400858-00A 11:06 E  01606 A218400830-00A 11:06 N
01607 A218400832-00A 11:06 N  01608 A218400833-00A 11:06 N
01609 A218400837-00A 11:06 N  01610 A218400838-00A 11:06 N
01611 A218400842-00A 11:06 N  01612 A218400851-00A 11:06 N
01613 A218400852-00A 11:06 N  01614 A218400853-00A 11:06 N
01615 A218400855-00A 11:06 N  01616 A218400856-00A 11:06 N
01617 A218400862-00A 11:06 N  01618 A218400865-00A 11:06 N
01619 A218400867-00A 11:07 N  01620 A218400874-00A 11:10 N
01621 A218400877-00A 11:10 N  01622 A218400879-00A 11:11 N
01623 A218400886-00A 11:12 E  01624 A218400883-00A 11:12 N
01625 A218400885-00A 11:12 N  01626 A218400887-00A 11:12 N
01627 A218400888-00A 11:13 N  01628 A218400893-00A 11:13 N
01629 A218400898-00A 11:15 N  01630 A218400901-00A 11:15 N
01631 A218400903-00A 11:17 N  01632 A218400906-00A 11:17 E
01633 A218400908-00A 11:18 E  01634 A218400909-00A 11:18 N
01635 A218400911-00A 11:18 N  01636 A218400916-00A 11:19 E
01637 A218400917-00A 11:20 N  01638 A218400918-00A 11:20 N
01639 A218400920-00A 11:20 N  01640 A218400923-00A 11:21 N
01641 A218400924-00A 11:21 N  01642 A218400926-00A 11:21 N
01643 A218400928-00A 11:22 N  01644 A218400931-00A 11:22 N
01645 A218400932-00A 11:22 N  01646 A218400933-00A 11:23 N
01647 A218400935-00A 11:23 N  01648 A218400936-00A 11:23 N
01649 A218400939-00A 11:25 N  01650 A218400942-00A 11:26 N
01651 A218400944-00A 11:26 N  01652 A218400947-00A 11:27 N
01653 A218400948-00A 11:27 N  01654 A218400949-00A 11:28 N
01655 A218400952-00A 11:28 N  01656 A218400958-00A 11:30 N
01657 A218400959-00A 11:30 N  01658 A218400962-00A 11:30 N
01659 A218400963-00A 11:30 N  01660 A218400965-00A 11:31 N
01661 A218400971-00A 11:33 N  01662 A218400973-00A 11:33 N
01663 A218400975-00A 11:33 N  01664 A218400976-00A 11:34 H
01665 A218400978-00A 11:34 N  01666 A218400980-00A 11:34 N
01667 A000337475-01A 11:34 E  01668 A218400984-00A 11:35 N
01669 A218400985-00A 11:35 N  01670 A218400986-00A 11:35 N
01671 A218400987-00A 11:35 N  01672 A218400990-00A 11:36 N
01673 A218400991-00A 11:36 N  01674 A218400992-00A 11:36 N
01675 A218400993-00A 11:36 N  01676 A218400995-00A 11:36 N
01677 A218301564-00A 11:37 N  01678 A218401001-00A 11:37 N
01679 A218401002-00A 11:38 N  01680 A218401003-00A 11:38 N
01681 A218401007-00A 11:38 N  01682 A218401009-00A 11:39 N
01683 A218401012-00A 11:40 N  01684 A218401013-00A 11:40 N
01685 A218300636-00A 11:40 N  01686 A218401017-00A 11:41 N
01687 A218401021-00A 11:42 N  01688 A218401022-00A 11:42 N
01689 A218401024-00A 11:42 N  01690 A218401030-00A 11:43 N
01691 A218401033-00A 11:44 N  01692 A218401035-00A 11:44 N
01693 A218401036-00A 11:44 N  01694 A218401039-00A 11:45 N
01695 A218401040-00A 11:45 N  01696 A218401041-00A 11:46 N
01697 A218401047-00A 11:46 E  01698 A218401043-00A 11:46 N
01699 A218401044-00A 11:54 N  01700 A218401071-00A 11:54 E
01701 A218401053-00A 11:54 E  01702 A218401049-00A 11:54 H
01703 A218401045-00A 11:54 N  01704 A218401050-00A 11:54 N
01705 A218401055-00A 11:54 N  01706 A218401056-00A 11:54 N
01707 A218401057-00A 11:54 N  01708 A218401058-00A 11:54 N
01709 A218401059-00A 11:54 N  01710 A218401060-00A 11:54 N
01711 A218401062-00A 11:54 N  01712 A218401064-00A 12:02 N
01713 A218400447-02A 12:02 EC 01714 A218400859-00A 12:02 N
01715 A218401069-00A 12:02 N  01716 A218401073-00A 12:02 N
01717 A218401074-00A 12:02 N  01718 A218401075-00A 12:02 N
01719 A218401078-00A 12:02 N  01720 A218401079-00A 12:02 N
01721 A218401081-00A 12:02 N  01722 A218401083-00A 12:02 N
01723 A218401088-00A 12:02 N  01724 A218401089-00A 12:02 N
01725 A218401090-00A 12:02 N  01726 A218401094-00A 12:02 N
01727 A218401095-00A 12:02 N  01728 A218401098-00A 12:02 N
01729 A218401100-00A 12:02 N  01730 A218401101-00A 12:02 N
01731 A218401106-00A 12:02 N  01732 A218401107-00A 12:02 N
01733 A218401108-00A 12:03 N  01734 A218401114-00A 12:03 N
01735 A218401119-00A 12:03 N  01736 A218401120-00A 12:03 N
01737 A218401121-00A 12:03 N  01738 A218401125-00A 12:03 N
01739 A218401126-00A 12:03 N  01740 A218400345-01A 12:04 NR
01741 A218401128-00A 12:04 N  01742 A218401131-00A 12:05 N
01743 A218401133-00A 12:08 N  01744 A218401136-00A 12:08 N
01745 A218401137-00A 12:08 N  01746 A218401141-00A 12:09 N
01747 A218401142-00A 12:10 N  01748 A218401143-00A 12:10 N
01749 A218401144-00A 12:10 N  01750 A218401146-00A 12:11 N
01751 A218401148-00A 12:13 N  01752 A218401149-00A 12:13 N
01753 A218401152-00A 12:14 N  01754 A218401153-00A 12:14 N
01755 A218401154-00A 12:15 N  01756 A218401155-00A 12:15 N
01757 A218401156-00A 12:16 N  01758 A218401157-00A 12:16 N
01759 A218401160-00A 12:16 N  01760 A218401161-00A 12:16 N
01761 A218401164-00A 12:18 E  01762 A218401165-00A 12:18 N
01763 A218401166-00A 12:18 N  01764 A218401168-00A 12:20 N
01765 A218401169-00A 12:20 N  01766 A218401171-00A 12:20 N
01767 A218401173-00A 12:21 E  01768 A218401172-00A 12:21 N
01769 A218401175-00A 12:21 N  01770 A218401176-00A 12:21 N
01771 A218401177-00A 12:22 H  01772 A218401178-00A 12:23 N
01773 A218401180-00A 12:24 N  01774 A218401183-00A 12:25 N
01775 A218401185-00A 12:25 N  01776 A218401186-00A 12:25 N
01777 A218401189-00A 12:26 N  01778 A218401190-00A 12:26 N
01779 A218401192-00A 12:26 N  01780 A218401195-00A 12:28 N
01781 A218401196-00A 12:28 N  01782 A218401197-00A 12:28 N
01783 A218401199-00A 12:29 N  01784 A218401200-00A 12:29 N
01785 A218401203-00A 12:30 N  01786 A218401204-00A 12:30 N
01787 A218401205-00A 12:31 N  01788 A218401206-00A 12:31 N
01789 A218401207-00A 12:31 N  01790 A218401208-00A 12:31 N
01791 A218401209-00A 12:32 N  01792 A218401210-00A 12:32 H
01793 A218401211-00A 12:33 N  01794 A218401213-00A 12:34 N
01795 A218401214-00A 12:36 N  01796 A218401215-00A 12:36 N
01797 A218401216-00A 12:36 N  01798 A218401217-00A 12:36 N
01799 A218401086-00A 12:36 N  01800 A218401221-00A 12:37 N
01801 A218401222-00A 12:38 N  01802 A218401225-00A 12:39 N
01803 A218401226-00A 12:40 N  01804 A218401229-00A 12:41 N
01805 A218401230-00A 12:41 N  01806 A218401232-00A 12:41 N
01807 A218401233-00A 12:43 N  01808 A218401234-00A 12:43 N
01809 A218401236-00A 12:44 N  01810 A218401237-00A 12:45 N
01811 A218401240-00A 12:46 N  01812 A218401241-00A 12:46 N
01813 A218401244-00A 12:47 N  01814 A218401245-00A 12:48 N
01815 A218401249-00A 12:51 N  01816 A218401251-00A 12:51 N
01817 A218401252-00A 12:52 N  01818 A218401253-00A 12:52 N
01819 A218401254-00A 12:53 N  01820 A218401255-00A 12:54 N
01821 A218401256-00A 12:54 N  01822 A218401258-00A 12:54 N
01823 A218401259-00A 12:55 N  01824 A218401261-00A 12:55 N
01825 A218401262-00A 12:56 N  01826 A218401263-00A 12:58 N
01827 A218401264-00A 12:58 N  01828 A218401265-00A 12:58 N
01829 A218401266-00A 12:59 N  01830 A218401267-00A 13:00 N
01831 A218401269-00A 13:01 N  01832 A218401270-00A 13:02 N
01833 A218401272-00A 13:02 N  01834 A218401273-00A 13:02 N
01835 A218401274-00A 13:03 N  01836 A218401277-00A 13:03 N
01837 A218401278-00A 13:03 N  01838 A218401279-00A 13:04 N
01839 A218401283-00A 13:08 N  01840 A218401284-00A 13:08 N
01841 A218401286-00A 13:09 N  01842 A218401290-00A 13:11 N
01843 A218401291-00A 13:11 N  01844 A218401293-00A 13:11 N
01845 A218401294-00A 13:12 N  01846 A218401296-00A 13:13 N
01847 A218401298-00A 13:13 N  01848 A218401299-00A 13:13 N
01849 A218401301-00A 13:14 N  01850 A218401303-00A 13:14 N
01851 A218401304-00A 13:15 N  01852 A218401260-00A 13:16 N
01853 A218401305-00A 13:16 N  01854 A218401306-00A 13:16 N
01855 A218401308-00A 13:17 N  01856 A218401309-00A 13:18 N
01857 A218401310-00A 13:18 N  01858 A218401311-00A 13:18 N
01859 A218401312-00A 13:19 N  01860 A218401314-00A 13:19 N
01861 A218401316-00A 13:20 N  01862 A218401317-00A 13:21 N
01863 A218401319-00A 13:22 N  01864 A000345348-00A 13:22 NS
01865 A000345757-00A 13:22 NS 01866 A000346265-00A 13:22 NS
01867 A000347346-00A 13:30 NS 01868 A218400548-00A 13:30 NS
01869 A218401325-00A 13:30 N  01870 A218401329-00A 13:30 N
01871 A218401330-00A 13:30 N  01872 A218401333-00A 13:30 N
01873 A218401334-00A 13:30 N  01874 A218401339-00A 13:31 N
01875 A218401321-00A 13:33 N  01876 A218401342-00A 13:33 N
01877 A218401346-00A 13:33 N  01878 A218401347-00A 13:33 N
01879 A218401351-00A 13:34 E  01880 A218401355-00A 13:35 N
01881 A218401356-00A 13:49 N  01882 A218401371-00A 13:49 E
01883 A218401357-00A 13:49 N  01884 A218401358-00A 13:49 N
01885 A218401359-00A 13:49 N  01886 A218401364-00A 13:49 N
01887 A218401366-00A 13:49 N  01888 A218401368-00A 13:49 N
01889 A218401369-00A 13:49 N  01890 A218401373-00A 13:49 N
01891 A218401376-00A 13:49 N  01892 A218401377-00A 13:49 N
01893 A218401379-00A 13:49 N  01894 A218401382-00A 13:49 N
01895 A218401383-00A 13:49 N  01896 A218401385-00A 13:49 N
01897 A218401386-00A 13:49 N  01898 A218401387-00A 13:49 N
01899 A218401388-00A 13:49 N  01900 A218401389-00A 13:49 N
01901 A218401390-00A 13:49 N  01902 A218401392-00A 13:49 N
01903 A218401393-00A 13:49 N  01904 A218401400-00A 13:49 N
01905 A218401403-00A 13:49 N  01906 A218401404-00A 13:50 N
01907 A218401406-00A 13:50 E  01908 A218401407-00A 13:51 N
01909 A218401409-00A 13:51 N  01910 A218401410-00A 13:51 N
01911 A218401411-00A 13:52 N  01912 A218401413-00A 13:53 N
01913 A218401414-00A 13:53 N  01914 A218401415-00A 13:53 N
01915 A218401417-00A 13:54 N  01916 A218401418-00A 13:54 N
01917 A218401420-00A 13:54 E  01918 A218401421-00A 13:54 N
01919 A218401422-00A 13:55 N  01920 A218401423-00A 13:55 N
01921 A218401424-00A 13:56 N  01922 A218401426-00A 13:59 N
01923 A218401428-00A 13:59 N  01924 A218401429-00A 14:00 N
01925 A218401431-00A 14:00 N  01926 A218401435-00A 14:01 N
01927 A218401437-00A 14:01 N  01928 A218401440-00A 14:01 N
01929 A218401442-00A 14:01 N  01930 A218401443-00A 14:01 N
01931 A218401445-00A 14:01 N  01932 A218401449-00A 14:03 N
01933 A218401452-00A 14:04 N  01934 A218401453-00A 14:04 N
01935 A218401454-00A 14:04 N  01936 A218401457-00A 14:06 N
01937 A218401458-00A 14:06 N  01938 A218401460-00A 14:06 N
01939 A218401461-00A 14:06 N  01940 A218401462-00A 14:06 N
01941 A218401463-00A 14:06 N  01942 A218401464-00A 14:06 N
01943 A218401465-00A 14:06 N  01944 A218401467-00A 14:08 N
01945 A218401468-00A 14:08 N  01946 A218401472-00A 14:08 N
01947 A218401477-00A 14:08 N  01948 A218401480-00A 14:10 N
01949 A218401483-00A 14:10 N  01950 A218401484-00A 14:10 N
01951 A218401486-00A 14:11 N  01952 A218401488-00A 14:11 N
01953 A218401494-00A 14:13 N  01954 A218401495-00A 14:13 N
01955 A218401496-00A 14:13 N  01956 A218401498-00A 14:13 N
01957 A218401499-00A 14:14 N  01958 A218401500-00A 14:14 N
01959 A218401501-00A 14:14 N  01960 A218401507-00A 14:15 N
01961 A218401508-00A 14:16 N  01962 A218401510-00A 14:16 N
01963 A218401511-00A 14:16 N  01964 A218401514-00A 14:17 N
01965 A218401516-00A 14:18 N  01966 A218401517-00A 14:18 N
01967 A218401518-00A 14:18 N  01968 A218401520-00A 14:18 N
01969 A218300337-00A 14:18 N  01970 A218401525-00A 14:19 N
01971 A218401526-00A 14:20 N  01972 A218401527-00A 14:20 N
01973 A218401531-00A 14:20 N  01974 A218401535-00A 14:22 N
01975 A218401536-00A 14:22 N  01976 A218401537-00A 14:22 N
01977 A218401539-00A 14:23 N  01978 A218401540-00A 14:23 N
01979 A218401543-00A 14:24 N  01980 A218401544-00A 14:24 N
01981 A218401547-00A 14:24 N  01982 A218401548-00A 14:25 N
01983 A218401550-00A 14:25 N  01984 A218401551-00A 14:25 N
01985 A218401552-00A 14:26 N  01986 A218401554-00A 14:26 N
01987 A218401556-00A 14:27 N  01988 A218401557-00A 14:27 N
01989 A218401560-00A 14:27 N  01990 A218401562-00A 14:28 N
01991 A218401564-00A 14:28 N  01992 A218401567-00A 14:29 N
01993 A218401568-00A 14:29 N  01994 A218400077-00A 14:29 N
01995 A218401570-00A 14:30 N  01996 A218400082-00A 14:30 N
01997 A218401573-00A 14:31 N  01998 A218401574-00A 14:31 N
01999 A218401576-00A 14:32 N  02000 A218401580-00A 14:32 N
02001 A218401582-00A 14:32 N  02002 A218401584-00A 14:33 N
02003 A218401586-00A 14:34 N  02004 A218401588-00A 14:34 N
02005 A218401589-00A 14:47 N  02006 A218401389-01A 14:47 EC
02007 A218401614-00A 14:47 E  02008 A218401631-00A 14:47 E
02009 A218401592-00A 14:55 N  02010 A218401645-00A 14:55 E
02011 A218401644-00A 14:55 H  02012 A218401594-00A 14:55 N
02013 A218401596-00A 14:55 N  02014 A218401599-00A 14:55 N
02015 A218401600-00A 14:55 N  02016 A218401603-00A 14:55 N
02017 A218401604-00A 14:55 N  02018 A218401605-00A 14:55 N
02019 A218401606-00A 14:55 N  02020 A218401607-00A 14:55 N
02021 A218401608-00A 14:55 N  02022 A218401613-00A 14:55 N
02023 A218401615-00A 14:55 N  02024 A218401617-00A 14:55 N
02025 A218401618-00A 14:55 N  02026 A218401619-00A 14:55 N
02027 A218401622-00A 14:55 N  02028 A218401624-00A 14:55 N
02029 A218401626-00A 14:55 N  02030 A218401629-00A 14:55 N
02031 A218401630-00A 14:55 N  02032 A218401632-00A 14:55 N
02033 A218401635-00A 14:55 N  02034 A218401638-00A 14:55 N
02035 A218401639-00A 14:55 N  02036 A218401641-00A 14:55 N
02037 A218401642-00A 14:55 N  02038 A218401643-00A 14:55 N
02039 A218401646-00A 14:55 N  02040 A218401648-00A 14:55 N
02041 A218401649-00A 14:56 N  02042 A218401650-00A 14:56 N
02043 A218401651-00A 14:56 N  02044 A218401652-00A 14:56 N
02045 A218401653-00A 14:56 N  02046 A218401654-00A 14:56 N
02047 A218401655-00A 14:56 N  02048 A218401656-00A 14:56 N
02049 A218401659-00A 14:56 N  02050 A218401660-00A 14:56 N
02051 A218401661-00A 14:56 N  02052 A218401662-00A 14:56 N
02053 A218401663-00A 14:56 N  02054 A218401664-00A 14:56 N
02055 A218401665-00A 14:56 N  02056 A218401669-00A 14:56 N
02057 A218401672-00A 14:56 N  02058 A218401674-00A 14:56 N
02059 A218401677-00A 14:56 N  02060 A218401681-00A 14:56 N
02061 A218401682-00A 14:56 N  02062 A218401684-00A 14:57 N
02063 A218401686-00A 14:57 N  02064 A218401689-00A 14:57 N
02065 A218401690-00A 14:57 N  02066 A218401693-00A 14:58 N
02067 A218401695-00A 14:58 N  02068 A218401697-00A 14:59 N
02069 A218401698-00A 14:59 N  02070 A218401703-00A 15:00 N
02071 A218401704-00A 15:01 N  02072 A218401705-00A 15:01 N
02073 A218401707-00A 15:01 N  02074 A218401708-00A 15:01 N
02075 A218401710-00A 15:02 N  02076 A218401711-00A 15:02 N
02077 A218401718-00A 15:04 N  02078 A218401723-00A 15:05 N
02079 A218401724-00A 15:05 N  02080 A218401725-00A 15:05 N
02081 A218401727-00A 15:05 N  02082 A218401730-00A 15:06 N
02083 A218401738-00A 15:07 E  02084 A218401737-00A 15:07 N
02085 A218401739-00A 15:07 N  02086 A218401744-00A 15:08 N
02087 A218401746-00A 15:09 N  02088 A218401749-00A 15:09 N
02089 A218401751-00A 15:10 N  02090 A218401752-00A 15:10 N
02091 A218401753-00A 15:10 N  02092 A218401755-00A 15:11 N
02093 A218401758-00A 15:12 N  02094 A218401761-00A 15:12 N
02095 A218401762-00A 15:13 N  02096 A218401763-00A 15:13 N
02097 A218401765-00A 15:13 N  02098 A218401768-00A 15:13 N
02099 A218401769-00A 15:13 N  02100 A218401772-00A 15:14 N
02101 A218401773-00A 15:14 N  02102 A218401776-00A 15:15 N
02103 A218401777-00A 15:15 N  02104 A218401778-00A 15:15 N
02105 A218401779-00A 15:16 N  02106 A218401781-00A 15:16 N
02107 A218401783-00A 15:16 N  02108 A218401786-00A 15:16 N
02109 A218401787-00A 15:16 N  02110 A218401788-00A 15:16 N
02111 A218401789-00A 15:17 H  02112 A218401791-00A 15:17 N
02113 A218401783-01A 15:17 EC 02114 A218401794-00A 15:18 N
02115 A218401795-00A 15:18 N  02116 A218401796-00A 15:18 N
02117 A218401799-00A 15:19 N  02118 A218401800-00A 15:19 N
02119 A218401822-00A 15:25 H  02120 A218401801-00A 15:25 N
02121 A218401803-00A 15:25 N  02122 A218401805-00A 15:25 N
02123 A218401806-00A 15:25 N  02124 A218401807-00A 15:25 N
02125 A218401808-00A 15:25 N  02126 A218401809-00A 15:25 N
02127 A218401811-00A 15:25 N  02128 A218401812-00A 15:25 N
02129 A218401813-00A 15:25 N  02130 A218401814-00A 15:25 N
02131 A218401817-00A 15:25 N  02132 A218401819-00A 15:25 N
02133 A218401823-00A 15:25 N  02134 A218401825-00A 15:25 N
02135 A218401827-00A 15:26 N  02136 A218401828-00A 15:27 N
02137 A218401829-00A 15:27 N  02138 A218401830-00A 15:27 N
02139 A218401832-00A 15:27 N  02140 A218401833-00A 15:27 N
02141 A218401834-00A 15:28 N  02142 A218401835-00A 15:28 N
02143 A218401837-00A 15:28 N  02144 A218401838-00A 15:28 N
02145 A218401839-00A 15:29 N  02146 A218401840-00A 15:29 N
02147 A218401842-00A 15:30 N  02148 A218401843-00A 15:30 N
02149 A218401845-00A 15:30 N  02150 A218401846-00A 15:31 N
02151 A218401848-00A 15:31 N  02152 A218401813-01A 15:31 NR
02153 A218401852-00A 15:31 E  02154 A218401849-00A 15:31 N
02155 A218401851-00A 15:31 N  02156 A218401853-00A 15:32 N
02157 A218401854-00A 15:32 N  02158 A218401855-00A 15:32 N
02159 A218401857-00A 15:33 N  02160 A218401858-00A 15:33 N
02161 A218401859-00A 15:33 N  02162 A218401860-00A 15:34 N
02163 A218401862-00A 15:34 N  02164 A218401864-00A 15:34 N
02165 A218401868-00A 15:35 N  02166 A218401871-00A 15:36 E
02167 A218401869-00A 15:36 N  02168 A218401872-00A 15:36 N
02169 A218401874-00A 15:37 N  02170 A218401877-00A 15:40 N
02171 A218401878-00A 15:40 N  02172 A218401879-00A 15:40 N
02173 A218401880-00A 15:41 H  02174 A218401881-00A 15:41 N
02175 A218401882-00A 15:41 N  02176 A218401885-00A 15:42 N
02177 A218401886-00A 15:42 N  02178 A218401887-00A 15:42 N
02179 A218401889-00A 15:43 N  02180 A218401894-00A 15:44 N
02181 A218401896-00A 15:44 N  02182 A218401898-00A 15:45 N
02183 A218401899-00A 15:45 N  02184 A218401903-00A 15:46 E
02185 A218401901-00A 15:46 N  02186 A218401902-00A 15:46 N
02187 A218401904-00A 15:46 N  02188 A218401905-00A 15:46 N
02189 A218401907-00A 15:47 N  02190 A218401909-00A 15:48 N
02191 A218401910-00A 15:48 N  02192 A218401913-00A 15:49 N
02193 A218401914-00A 15:49 N  02194 A218401915-00A 15:49 N
02195 A218401917-00A 15:50 N  02196 A218401921-00A 15:52 E
02197 A218401920-00A 15:52 N  02198 A218401923-00A 15:53 N
02199 A218401924-00A 15:53 N  02200 A218401926-00A 15:53 N
02201 A218401930-00A 15:54 E  02202 A218401928-00A 15:54 N
02203 A218401929-00A 15:54 N  02204 A218401932-00A 15:55 N
02205 A218401934-00A 15:56 N  02206 A218401935-00A 15:56 N
02207 A218401937-00A 15:56 N  02208 A218401938-00A 15:57 N
02209 A218401939-00A 15:58 E  02210 A218401399-00A 16:00 N
02211 A218401941-00A 16:00 N  02212 A218401942-00A 16:00 N
02213 A218401943-00A 16:00 N  02214 A218401945-00A 16:00 E
02215 A218401948-00A 16:01 N  02216 A218401950-00A 16:02 E
02217 A218401954-00A 16:03 N  02218 A218401955-00A 16:03 N
02219 A218401957-00A 16:04 N  02220 A218401960-00A 16:05 N
02221 A218401962-00A 16:07 N  02222 A218401963-00A 16:07 N
02223 A218401964-00A 16:07 N  02224 A218401966-00A 16:07 N
02225 A218401967-00A 16:08 N  02226 A218401968-00A 16:08 H
02227 A218200485-01A 16:08 NR 02228 A218401969-00A 16:08 E
02229 A218200485-02A 16:10 NR 02230 A218401972-00A 16:10 N
02231 A218401973-00A 16:10 N  02232 A218401974-00A 16:10 N
02233 A218401977-00A 16:12 N  02234 A218401981-00A 16:14 N
02235 A218401982-00A 16:14 N  02236 A218401983-00A 16:14 N
02237 A218401987-00A 16:14 N  02238 A218401988-00A 16:14 N
02239 A218401989-00A 16:16 E  02240 A218401990-00A 16:16 N
02241 A218401992-00A 16:16 N  02242 A218401993-00A 16:16 E
02243 A218401997-00A 16:17 H  02244 A218401995-00A 16:17 N
02245 A218401996-00A 16:24 N  02246 A218401998-00A 16:24 N
02247 A218402000-00A 16:24 N  02248 A218402002-00A 16:24 N
02249 A218402003-00A 16:24 N  02250 A218402004-00A 16:24 N
02251 A218402006-00A 16:24 N  02252 A218402007-00A 16:24 N
02253 A218402008-00A 16:24 N  02254 A218402009-00A 16:24 N
02255 A218402010-00A 16:24 N  02256 A218401529-00A 16:24 N
02257 A218402014-00A 16:24 N  02258 A218402016-00A 16:24 N
02259 A218402019-00A 16:25 E  02260 A218402018-00A 16:25 N
02261 A218402020-00A 16:25 N  02262 A218402021-00A 16:26 N
02263 A218402022-00A 16:26 N  02264 A218401989-01A 16:26 ER
02265 A218402023-00A 16:26 N  02266 A218401598-00A 16:27 N
02267 A218402024-00A 16:27 N  02268 A218402027-00A 16:28 N
02269 A218402030-00A 16:30 N  02270 A218402032-00A 16:30 N
02271 A218402033-00A 16:30 N  02272 A218402035-00A 16:31 N
02273 A218402036-00A 16:31 N  02274 A218402039-00A 16:31 N
02275 A218401217-01A 16:32 EC 02276 A218402041-00A 16:32 N
02277 A218402045-00A 16:33 N  02278 A218402046-00A 16:33 N
02279 A218402049-00A 16:34 N  02280 A218402050-00A 16:35 N
02281 A218402053-00A 16:35 N  02282 A218402055-00A 16:36 N
02283 A218402057-00A 16:37 N  02284 A218402058-00A 16:37 N
02285 A218402059-00A 16:37 N  02286 A218402061-00A 16:38 N
02287 A218402062-00A 16:39 N  02288 A218402064-00A 16:39 N
02289 A218402067-00A 16:40 N  02290 A218402069-00A 16:41 N
02291 A218402070-00A 16:42 N  02292 A218402072-00A 16:42 N
02293 A218402074-00A 16:44 N  02294 A218402077-00A 16:44 E
02295 A218402085-00A 16:47 N  02296 A218402086-00A 16:47 N
02297 A218402089-00A 16:47 N  02298 A218402094-00A 16:49 N
02299 A218402095-00A 16:49 N  02300 A218402097-00A 16:50 N
02301 A218402099-00A 16:50 N  02302 A218402100-00A 16:50 N
02303 A218402105-00A 16:51 E  02304 A218402102-00A 16:51 N
02305 A218402108-00A 16:52 N  02306 A218402077-01A 16:53 ER
02307 A218402111-00A 16:53 N  02308 A218402112-00A 16:53 N
02309 A218402113-00A 16:53 N  02310 A218402114-00A 16:53 N
02311 A218402115-00A 16:53 N  02312 A218402118-00A 16:54 N
02313 A218402120-00A 16:55 N  02314 A218402122-00A 16:55 N
02315 A218402128-00A 16:59 N  02316 A218402131-00A 16:59 N
02317 A218402132-00A 16:59 N  02318 A218402133-00A 16:59 N
02319 A218402137-00A 16:59 N  02320 A218402139-00A 17:01 N
02321 A218402142-00A 17:02 N  02322 A218402143-00A 17:03 N
02323 A218402144-00A 17:03 N  02324 A218402145-00A 17:03 E
02325 A218402147-00A 17:04 N  02326 A218402148-00A 17:04 N
02327 A218402150-00A 17:05 N  02328 A218402152-00A 17:06 N
02329 A218402154-00A 17:07 N  02330 A218402156-00A 17:07 N
02331 A218402159-00A 17:09 N  02332 A218402160-00A 17:10 N
02333 A218402161-00A 17:10 E  02334 A218402162-00A 17:11 N
02335 A218402163-00A 17:12 N  02336 A218402165-00A 17:13 N
02337 A218402167-00A 17:14 N  02338 A218402168-00A 17:14 N
02339 A218402169-00A 17:16 N  02340 A218402171-00A 17:20 N
02341 A218402172-00A 17:20 N  02342 A218402175-00A 17:22 N
02343 A218402179-00A 17:24 N  02344 A218402180-00A 17:24 N
02345 A218402183-00A 17:26 N  02346 A218402185-00A 17:28 N
02347 A218402185-01A 17:30 EC 02348 A218402187-00A 17:30 N
02349 A218402188-00A 17:30 N  02350 A218402192-00A 17:33 N
02351 A218402194-00A 17:35 N  02352 A218402196-00A 17:37 N
02353 A218402197-00A 17:37 N  02354 A218402198-00A 17:38 N
02355 A218402200-00A 17:39 N  02356 A218402202-00A 17:40 N
02357 A218402204-00A 17:42 N  02358 A218402205-00A 17:42 E
02359 A218402210-00A 17:51 N  02360 A218402211-00A 17:53 N
02361 A218402213-00A 17:57 N  02362 A218402220-00A 18:04 N
02363 A218402222-00A 18:11 E  02364 A218402224-00A 18:16 N
02365 A218402225-00A 18:16 N  02366 A218402226-00A 18:16 N
02367 A218402233-00A 18:25 H  02368 A218402234-00A 18:25 N
02369 A218402236-00A 18:27 H  02370 A218402238-00A 18:29 H
02371 A218402239-00A 18:30 H  02372 A218402240-00A 18:31 N
02373 A218402241-00A 18:32 N  02374 A218402243-00A 18:34 N
02375 A218402245-00A 18:35 H  02376 A218402247-00A 18:37 N
02377 A218402248-00A 18:37 N  02378 A218402249-00A 18:38 N
02379 A218402252-00A 18:38 H  02380 A218402253-00A 18:39 N
02381 A218402254-00A 18:40 N  02382 A218402255-00A 18:40 N
02383 A218402257-00A 18:42 H  02384 A218402258-00A 18:43 N
02385 A218402260-00A 18:45 N  02386 A218402262-00A 18:47 N
02387 A218402264-00A 18:48 H  02388 A218402265-00A 18:48 N
02389 A218402268-00A 18:53 N  02390 A218402274-00A 18:56 N
02391 A218402276-00A 18:57 N  02392 A218402279-00A 19:00 N
02393 A218402280-00A 19:01 N  02394 A218402281-00A 19:02 N
02395 A218402285-00A 19:08 N  02396 A218402286-00A 19:09 N
02397 A218402290-00A 19:11 N  02398 A218402292-00A 19:13 N
02399 A218402293-00A 19:14 N  02400 A218402294-00A 19:15 N
02401 A218402295-00A 19:17 N  02402 A218402296-00A 19:19 N
02403 A218402297-00A 19:19 N  02404 A218402300-00A 19:20 N
02405 A218402301-00A 19:21 N  02406 A218402302-00A 19:23 N
02407 A218402303-00A 19:24 N  02408 A218402304-00A 19:25 N
02409 A218402305-00A 19:25 N  02410 A218402306-00A 19:25 N
02411 A218402307-00A 19:26 N  02412 A218402308-00A 19:26 N
02413 A218402310-00A 19:28 N  02414 A218402311-00A 19:28 N
02415 A218402312-00A 19:28 N  02416 A218402313-00A 19:29 N
02417 A218402314-00A 19:30 N  02418 A218402315-00A 19:30 N
02419 A218402317-00A 19:30 N  02420 A218402318-00A 19:31 N
02421 A218402321-00A 19:35 N  02422 A218402322-00A 19:36 N
02423 A218402324-00A 19:39 N  02424 A218402325-00A 19:39 N
02425 A218402326-00A 19:45 N  02426 A218402327-00A 19:46 N
02427 A218402328-00A 19:50 N  02428 A218402329-00A 19:51 N
02429 A218402330-00A 19:51 N  02430 A218402331-00A 19:51 N
02431 A218402333-00A 19:53 N  02432 A218402334-00A 19:54 N
02433 A218402335-00A 19:54 N  02434 A218402336-00A 19:55 N
02435 A218402337-00A 19:56 N  02436 A218402338-00A 19:57 N
02437 A218402339-00A 19:57 N  02438 A218402340-00A 19:57 N
02439 A218402341-00A 19:58 N  02440 A218402342-00A 19:58 N
02441 A218402343-00A 19:58 N  02442 A218402344-00A 19:58 N
02443 A218402345-00A 20:00 N  02444 A218402346-00A 20:00 N
02445 A218402347-00A 20:01 N  02446 A218402349-00A 20:02 N
02447 A218402350-00A 20:02 N  02448 A218402351-00A 20:03 N
02449 A218402352-00A 20:04 N  02450 A218402353-00A 20:05 N
02451 A218402354-00A 20:05 N  02452 A218402355-00A 20:05 N
02453 A218402356-00A 20:07 N  02454 A218402357-00A 20:07 N
02455 A218402358-00A 20:08 N  02456 A218402359-00A 20:08 N
02457 A218402360-00A 20:08 N  02458 A218402361-00A 20:10 N
02459 A218402362-00A 20:13 N  02460 A218402363-00A 20:15 N
02461 A218402364-00A 20:16 N  02462 A218402365-00A 20:17 N
02463 A218402366-00A 20:19 N  02464 A218402367-00A 20:19 N
02465 A218402368-00A 20:20 N  02466 A218402369-00A 20:21 N
02467 A218402370-00A 20:21 N  02468 A218402371-00A 20:22 N
02469 A218402372-00A 20:22 N  02470 A218402373-00A 20:23 N
02471 A218402375-00A 20:25 N  02472 A218402376-00A 20:25 N
02473 A218402377-00A 20:26 N  02474 A218402378-00A 20:26 N
02475 A218402379-00A 20:27 H  02476 A218402382-00A 20:31 N
02477 A218402385-00A 20:34 N  02478 A218402387-00A 20:38 N
02479 A218402389-00A 20:49 N  02480 A218402392-00A 20:57 N
02481 A218402393-00A 21:07 H  02482 A218402394-00A 21:12 N
02483 A218402395-00A 21:16 H  02484 A218402396-00A 21:26 N
02485 A218402397-00A 21:30 N  02486 A218402398-00A 21:31 N
02487 A218402399-00A 21:32 N  02488 A218402401-00A 21:40 H
02489 A218402403-00A 21:44 N  02490 A218402407-00A 22:11 N
02491 A218402409-00A 22:16 N  02492 A218402410-00A 22:20 N
02493 A218402412-00A 22:23 N  02494 A218402413-00A 22:30 N
02495 A218402414-00A 22:35 N  02496 A218402415-00A 22:42 N
02497 A218402416-00A 22:46 N  02498 A218402417-00A 22:51 N
02499 A218402418-00A 23:14 N  02500 A218402419-00A 23:15 N
02501 A218402420-00A 23:21 N  02502 A218402421-00A 23:23 N
02503 A218402422-00A 23:28 N  02504 A218402423-00A 23:30 N
02505 A218402424-00A 23:32 N  02506 A218402425-00A 23:35 N
02507 A218402424-01A 23:40 EC 02508 A218402426-00A 23:43 N

(R) REVISED    - 00018
(C) CANCEL     - 00008
(S) RESENT     - 00093
(Y) RENOTIFY   - 00000
(L) LATE RESP  - 00997
(U) UNGRIDDED  - 00000
( ) NORMAL     - 01392
    TOTAL      - 02508

