
UTIL11 *EOD* VUPSa 07/12/02 00:05:20

********************************************************************************
        THIS IS YOUR END OF DAY TICKET SUMMARY FOR 07/11/02 FROM VUPS
********************************************************************************

00001 A219200001-00A 00:19 N  00002 A219200002-00A 00:19 N
00003 A219200003-00A 00:19 N  00004 A219200004-00A 00:19 N
00005 A219200005-00A 00:26 N  00006 A219200006-00A 00:31 N
00007 A219200007-00A 00:41 N  00008 A219200008-00A 00:43 N
00009 A219200009-00A 00:48 N  00010 A219200010-00A 00:53 N
00011 A219200011-00A 00:58 N  00012 A219200012-00A 01:01 N
00013 A219200013-00A 01:16 N  00014 A219200014-00A 01:21 N
00015 A219200015-00A 01:24 N  00016 A219200016-00A 01:59 N
00017 A219101363-01A 07:57 EC 00018 A218900237-01A 07:57 E
00019 A219200033-00A 07:57 E  00020 A218600746-01A 07:57 E
00021 A218600628-01A 07:57 E  00022 A218900127-01A 07:57 E
00023 A218900039-01A 07:58 E  00024 A219200063-00A 07:58 E
00025 A219200079-00A 08:05 E  00026 A219003071-01A 08:05 EC
00027 A218900090-01A 08:05 E  00028 A219200093-00A 08:05 E
00029 A219200108-00A 08:05 E  00030 A219200061-00A 08:05 E
00031 A218900303-01A 08:05 E  00032 A218901461-00A 08:05 EL
00033 A218902290-01A 08:12 E  00034 A218900051-01A 08:12 E
00035 A219200140-00A 08:12 E  00036 A219200159-00A 08:19 E
00037 A219200162-00A 08:19 E  00038 A219102020-01A 08:19 EC
00039 A219200170-00A 08:19 E  00040 A219200176-00A 08:19 E
00041 A219102429-01A 08:27 EC 00042 A219200204-00A 08:27 E
00043 A219200221-00A 08:34 E  00044 A219200231-00A 08:34 E
00045 A218900062-01A 08:34 E  00046 A219100895-01A 08:41 EC
00047 A219200286-00A 08:48 E  00048 A219200296-00A 08:48 E
00049 A218301249-01A 08:48 E  00050 A218900075-01A 08:48 E
00051 A218900089-01A 08:56 E  00052 A219200082-00A 08:56 E
00053 A000340526-01A 08:56 E  00054 A218900535-01A 08:56 E
00055 A218600776-01A 09:03 E  00056 A219100644-01A 09:03 EC
00057 A219100654-01A 09:03 EC 00058 A219100664-01A 09:03 EC
00059 A219200419-00A 09:10 E  00060 A218500047-01A 09:17 E
00061 A219200458-00A 09:17 E  00062 A219101317-01A 09:17 EC
00063 A218901985-01A 09:17 E  00064 A218900651-01A 09:17 E
00065 A218601102-01A 09:17 E  00066 A219100683-01A 09:25 EC
00067 A218901534-01A 09:25 E  00068 A219200471-00A 09:25 E
00069 A218901626-01A 09:25 E  00070 A218902048-01A 09:25 E
00071 A218901991-01A 09:25 E  00072 A218601173-01A 09:25 E
00073 A218601221-01A 09:25 E  00074 A219200490-00A 09:25 E
00075 A218600674-01A 09:32 E  00076 A219002379-01A 09:32 EC
00077 A219200511-00A 09:32 E  00078 A219200513-00A 09:32 E
00079 A218300544-01A 09:39 E  00080 A219200563-00A 09:39 E
00081 A219200587-00A 09:47 E  00082 A219200594-00A 09:47 E
00083 A219200596-00A 09:54 E  00084 A218901467-01A 09:54 E
00085 A218300933-01A 09:54 E  00086 A219200607-00A 09:54 E
00087 A219100499-01A 09:54 EC 00088 A218600788-01A 09:54 E
00089 A218300738-01A 09:54 E  00090 A218400168-01A 10:03 E
00091 A219200694-00A 10:11 E  00092 A219200022-00A 10:18 N
00093 A219200023-00A 10:18 N  00094 A219200025-00A 10:18 N
00095 A219200027-00A 10:18 N  00096 A219200028-00A 10:18 N
00097 A219200030-00A 10:18 N  00098 A219200032-00A 10:18 N
00099 A219200040-00A 10:18 N  00100 A219200049-00A 10:18 N
00101 A219200052-00A 10:18 N  00102 A219200053-00A 10:18 N
00103 A219200054-00A 10:18 N  00104 A219200056-00A 10:34 N
00105 A219200739-00A 10:34 E  00106 A218201238-01A 10:39 E
00107 A218300525-01A 10:39 E  00108 A219200784-00A 10:39 E
00109 A219200803-00A 10:39 E  00110 A218401801-01A 10:39 E
00111 A219200773-01A 10:45 EC 00112 A219101718-01A 10:52 EC
00113 A218400711-01A 10:52 E  00114 A219003335-01A 10:52 EC
00115 A219200950-00A 10:58 E  00116 A219200953-00A 10:58 E
00117 A218600646-01A 11:05 E  00118 A218402036-01A 11:05 E
00119 A218600603-01A 11:05 E  00120 A219200984-00A 11:05 E
00121 A219200998-00A 11:05 E  00122 A218902002-01A 11:11 E
00123 A219201016-00A 11:11 E  00124 A219200057-00A 11:16 N
00125 A219200058-00A 11:16 N  00126 A219200059-00A 11:16 N
00127 A219200062-00A 11:16 N  00128 A219200066-00A 11:16 N
00129 A219200069-00A 11:16 N  00130 A219200070-00A 11:16 N
00131 A219200072-00A 11:16 N  00132 A219200074-00A 11:16 N
00133 A219200077-00A 11:16 N  00134 A219200078-00A 11:16 N
00135 A219200081-00A 11:16 N  00136 A219200083-00A 11:16 N
00137 A219200085-00A 11:16 N  00138 A219200086-00A 11:16 N
00139 A219200088-00A 11:16 N  00140 A219200089-00A 11:16 N
00141 A219200090-00A 11:16 N  00142 A219200035-00A 11:16 N
00143 A219200092-00A 11:16 N  00144 A219200094-00A 11:16 N
00145 A219200095-00A 11:16 N  00146 A219200099-00A 11:16 N
00147 A219200100-00A 11:16 N  00148 A219200101-00A 11:16 N
00149 A219200105-00A 11:16 N  00150 A219200051-00A 11:16 N
00151 A219200106-00A 11:16 N  00152 A219200055-00A 11:16 N
00153 A219002677-00A 11:16 N  00154 A219200114-00A 11:16 N
00155 A218402037-00A 11:16 NL 00156 A219200115-00A 11:16 N
00157 A219200117-00A 11:16 N  00158 A219102541-00A 11:16 N
00159 A219200065-00A 11:16 N  00160 A218600046-00A 11:16 NL
00161 A218600120-00A 11:16 NL 00162 A218600253-00A 11:17 NL
00163 A218600500-00A 11:17 NL 00164 A219200122-00A 11:17 N
00165 A218601120-00A 11:17 NL 00166 A218601203-00A 11:17 NL
00167 A219200125-00A 11:17 N  00168 A219200128-00A 11:17 N
00169 A218900581-00A 11:17 NL 00170 A219200130-00A 11:17 N
00171 A218900779-00A 11:17 NL 00172 A218900811-00A 11:17 NL
00173 A218900872-00A 11:17 NL 00174 A218901108-00A 11:17 NL
00175 A218901289-00A 11:17 NL 00176 A218901663-00A 11:17 NL
00177 A218901879-00A 11:17 NL 00178 A218901892-00A 11:17 NL
00179 A219200132-00A 11:17 N  00180 A218902185-00A 11:17 NL
00181 A218902602-00A 11:17 NL 00182 A218902724-00A 11:17 NL
00183 A218902756-00A 11:17 NL 00184 A218903047-00A 11:17 NL
00185 A219200119-00A 11:17 N  00186 A219200135-00A 11:17 N
00187 A219200136-00A 11:17 N  00188 A219200142-00A 11:17 N
00189 A219200145-00A 11:17 N  00190 A219200146-00A 11:17 N
00191 A219200149-00A 11:17 N  00192 A219200091-00A 11:17 N
00193 A219200152-00A 11:17 N  00194 A219200155-00A 11:17 N
00195 A219200156-00A 11:18 N  00196 A219200158-00A 11:18 N
00197 A219200161-00A 11:18 N  00198 A219200164-00A 11:18 N
00199 A219200044-00A 11:18 N  00200 A219102020-00A 11:18 N
00201 A219200167-00A 11:18 N  00202 A219200168-00A 11:18 N
00203 A219200171-00A 11:19 N  00204 A219200175-00A 11:19 N
00205 A219102429-00A 11:19 N  00206 A219200178-00A 11:19 N
00207 A219200181-00A 11:19 N  00208 A219200184-00A 11:19 N
00209 A219200187-00A 11:19 N  00210 A219200188-00A 11:19 N
00211 A219200191-00A 11:19 N  00212 A219200192-00A 11:19 N
00213 A219200194-00A 11:19 N  00214 A219200195-00A 11:23 N
00215 A219201080-00A 11:23 E  00216 A219201098-00A 11:23 E
00217 A218600968-01A 11:30 E  00218 A219201117-00A 11:30 H
00219 A219200196-00A 11:37 N  00220 A219200198-00A 11:37 N
00221 A219200203-00A 11:37 N  00222 A219103189-00A 11:37 N
00223 A219200207-00A 11:37 N  00224 A219200208-00A 11:37 N
00225 A219200210-00A 11:37 N  00226 A219200213-00A 11:37 N
00227 A219200216-00A 11:51 N  00228 A218600316-01A 11:51 E
00229 A218600620-01A 11:51 E  00230 A219201241-00A 11:51 E
00231 A219201232-00A 11:51 H  00232 A219200217-00A 11:52 N
00233 A219200222-00A 11:52 N  00234 A219200223-00A 11:59 N
00235 A219201281-00A 11:59 E  00236 A219201292-00A 11:59 H
00237 A219201332-00A 12:13 E  00238 A218302089-01A 12:13 E
00239 A219201349-00A 12:13 H  00240 A219201352-00A 12:21 E
00241 A219201373-00A 12:21 E  00242 A219201261-00A 12:42 H
00243 A219201391-00A 12:42 E  00244 A219201406-00A 12:42 E
00245 A218200084-01A 12:42 E  00246 A218200017-01A 12:42 E
00247 A219201444-00A 12:42 E  00248 A219201445-00A 12:42 E
00249 A219200229-00A 12:49 N  00250 A219200233-00A 12:49 N
00251 A219200235-00A 12:49 N  00252 A219200236-00A 12:49 N
00253 A219200238-00A 12:49 N  00254 A219200239-00A 12:49 N
00255 A219200242-00A 12:49 N  00256 A219200243-00A 12:49 N
00257 A219200103-00A 12:49 N  00258 A219200177-00A 12:49 N
00259 A219200249-00A 12:49 N  00260 A219200252-00A 12:49 N
00261 A219200254-00A 12:50 N  00262 A219102712-00A 12:50 N
00263 A219200257-00A 12:50 N  00264 A219200047-00A 12:50 N
00265 A219200259-00A 12:50 N  00266 A219200260-00A 12:50 N
00267 A219200249-01A 12:50 NR 00268 A219103039-00A 12:50 N
00269 A219200269-00A 12:50 N  00270 A219200271-00A 12:50 N
00271 A219200272-00A 12:50 N  00272 A219200278-00A 12:50 N
00273 A219200281-00A 12:50 N  00274 A219103005-00A 12:50 N
00275 A219200285-00A 12:50 N  00276 A219200287-00A 12:50 N
00277 A219200290-00A 12:50 N  00278 A219200293-00A 12:50 N
00279 A219103191-00A 12:50 N  00280 A219200215-00A 12:50 N
00281 A219200303-00A 12:50 N  00282 A219200220-00A 12:50 N
00283 A219200306-00A 12:50 N  00284 A219200309-00A 12:50 N
00285 A219200314-00A 12:50 N  00286 A219200315-00A 12:50 N
00287 A219200234-00A 12:50 N  00288 A219200319-00A 12:50 N
00289 A219200325-00A 12:50 N  00290 A219200247-00A 12:50 N
00291 A219200246-00A 12:50 N  00292 A219200328-00A 12:50 N
00293 A219200329-00A 12:50 N  00294 A219200253-00A 12:50 N
00295 A219200150-00A 12:50 N  00296 A219200331-00A 12:50 N
00297 A219200263-00A 12:50 N  00298 A219200256-00A 12:50 N
00299 A219200339-00A 12:50 N  00300 A219200258-00A 12:50 N
00301 A219200345-00A 12:50 N  00302 A219200273-00A 12:50 N
00303 A219200347-00A 12:50 N  00304 A219200274-00A 12:50 N
00305 A219200280-00A 12:50 N  00306 A219200348-00A 12:51 N
00307 A219200349-00A 12:51 N  00308 A219200353-00A 12:51 N
00309 A219200291-00A 12:51 N  00310 A219200358-00A 12:51 N
00311 A219200360-00A 12:51 N  00312 A219200297-00A 12:51 N
00313 A219200361-00A 12:51 N  00314 A219200362-00A 12:51 N
00315 A219200301-00A 12:51 N  00316 A219200364-00A 12:51 N
00317 A219200366-00A 12:51 N  00318 A219200310-00A 12:51 N
00319 A219200367-00A 12:51 N  00320 A219200369-00A 12:51 N
00321 A219200371-00A 12:51 N  00322 A219200372-00A 12:51 N
00323 A219200377-00A 12:51 N  00324 A219200326-00A 12:51 N
00325 A219200381-00A 12:51 N  00326 A219200382-00A 12:51 N
00327 A219200333-00A 12:51 N  00328 A219200384-00A 12:51 N
00329 A219200386-00A 12:51 N  00330 A219200389-00A 12:51 N
00331 A219200320-00A 12:51 N  00332 A219200392-00A 13:18 N
00333 A218200901-01A 13:18 E  00334 A218903118-01A 13:18 E
00335 A219201540-00A 13:18 E  00336 A219201550-00A 13:25 E
00337 A218900967-01A 13:25 E  00338 A000339786-01A 13:25 E
00339 A219200395-00A 13:32 N  00340 A219200197-00A 13:32 N
00341 A219200342-00A 13:32 N  00342 A219200397-00A 13:32 N
00343 A219200398-00A 13:32 N  00344 A219200400-00A 13:32 N
00345 A219200401-00A 13:32 N  00346 A219200402-00A 13:32 N
00347 A219200338-00A 13:32 N  00348 A219200406-00A 13:32 N
00349 A219200407-00A 13:32 N  00350 A219200357-00A 13:32 N
00351 A219200409-00A 13:32 N  00352 A219200410-00A 13:32 N
00353 A219200365-00A 13:32 N  00354 A219200411-00A 13:33 N
00355 A219200299-00A 13:33 N  00356 A219200412-00A 13:33 N
00357 A219200414-00A 13:33 N  00358 A219200368-00A 13:33 N
00359 A219200415-00A 13:33 N  00360 A219200375-00A 13:33 N
00361 A219200417-00A 13:33 N  00362 A219200418-00A 13:33 N
00363 A219200421-00A 13:33 N  00364 A219200383-00A 13:33 N
00365 A219200422-00A 13:33 N  00366 A219200427-00A 13:33 N
00367 A219200431-00A 13:33 N  00368 A219200437-00A 13:33 N
00369 A219200438-00A 13:33 N  00370 A219200394-00A 13:33 N
00371 A219200399-00A 13:33 N  00372 A219200449-00A 13:33 N
00373 A219200452-00A 13:33 N  00374 A219200404-00A 13:33 N
00375 A219200453-00A 13:33 N  00376 A219200403-00A 13:33 N
00377 A219200455-00A 13:33 N  00378 A219200456-00A 13:33 N
00379 A219100614-00A 13:33 N  00380 A219200413-00A 13:33 N
00381 A219200461-00A 13:33 N  00382 A219200465-00A 13:33 N
00383 A219200433-00A 13:33 N  00384 A219200473-00A 13:33 N
00385 A219200214-00A 13:33 N  00386 A219200440-00A 13:33 N
00387 A219200432-00A 13:33 N  00388 A219200475-00A 13:33 N
00389 A219200477-00A 13:33 N  00390 A219200484-00A 13:33 N
00391 A219200485-00A 13:33 N  00392 A219200485-01A 13:33 NR
00393 A219200450-00A 13:33 N  00394 A219200500-00A 13:33 N
00395 A219200501-00A 13:33 N  00396 A219200502-00A 13:33 N
00397 A219200503-00A 13:33 N  00398 A219200505-00A 13:33 N
00399 A219200506-00A 13:34 N  00400 A219200510-00A 13:34 N
00401 A219200476-00A 13:34 N  00402 A219200516-00A 13:34 N
00403 A219200519-00A 13:34 N  00404 A219200520-00A 13:34 N
00405 A219200523-00A 13:34 N  00406 A219200527-00A 13:34 N
00407 A219200528-00A 13:34 N  00408 A219200491-00A 13:34 N
00409 A219200530-00A 13:34 N  00410 A219200533-00A 13:34 N
00411 A219200535-00A 13:54 N  00412 A219201612-00A 13:54 E
00413 A218901555-02A 13:54 EC 00414 A219201635-00A 13:54 E
00415 A219200496-00A 13:54 N  00416 A219200538-00A 13:54 N
00417 A219200542-00A 13:55 N  00418 A219200543-00A 13:55 N
00419 A219200545-00A 13:55 N  00420 A219200547-00A 13:55 N
00421 A219200549-00A 13:55 N  00422 A219200550-00A 13:55 N
00423 A219200483-00A 13:55 N  00424 A219200504-00A 13:55 N
00425 A219200552-00A 13:55 N  00426 A219200553-00A 13:55 N
00427 A219200556-00A 14:02 N  00428 A219201673-00A 14:02 E
00429 A219200558-00A 14:02 N  00430 A219200514-00A 14:03 N
00431 A219200515-00A 14:03 N  00432 A219200559-00A 14:03 N
00433 A219200560-00A 14:03 N  00434 A219200561-00A 14:03 N
00435 A219200562-00A 14:03 N  00436 A219102140-00A 14:03 N
00437 A219200567-00A 14:03 N  00438 A219200568-00A 14:10 N
00439 A219102881-01A 14:10 EC 00440 A219200570-00A 14:10 N
00441 A219200573-00A 14:10 N  00442 A219200311-00A 14:10 N
00443 A219200552-01A 14:10 NR 00444 A219200581-00A 14:10 N
00445 A219200582-00A 14:10 N  00446 A219200585-00A 14:10 N
00447 A219200589-00A 14:10 N  00448 A219200591-00A 14:10 N
00449 A219200334-00A 14:10 N  00450 A219200569-00A 14:11 N
00451 A219200601-00A 14:11 N  00452 A219200603-00A 14:11 N
00453 A219200574-00A 14:11 N  00454 A219200586-00A 14:11 N
00455 A219200610-00A 14:11 N  00456 A219200579-00A 14:11 N
00457 A219200612-00A 14:11 N  00458 A219200619-00A 14:11 N
00459 A219200620-00A 14:11 N  00460 A219200580-00A 14:11 N
00461 A219200625-00A 14:11 N  00462 A219200632-00A 14:11 N
00463 A219200608-00A 14:11 N  00464 A219200636-00A 14:11 N
00465 A219200639-00A 14:11 N  00466 A219200640-00A 14:11 N
00467 A219200642-00A 14:11 N  00468 A219200643-00A 14:11 N
00469 A219200645-00A 14:11 N  00470 A219200657-00A 14:11 N
00471 A219200659-00A 14:11 N  00472 A219200661-00A 14:11 N
00473 A219200666-00A 14:11 N  00474 A219200668-00A 14:11 N
00475 A219200670-00A 14:11 N  00476 A219200673-00A 14:11 N
00477 A219200674-00A 14:11 N  00478 A219200675-00A 14:11 N
00479 A219200676-00A 14:11 N  00480 A219200677-00A 14:11 N
00481 A219200683-00A 14:11 N  00482 A219200686-00A 14:11 N
00483 A219200688-00A 14:11 N  00484 A219200638-00A 14:11 N
00485 A219200690-00A 14:11 N  00486 A219200691-00A 14:11 N
00487 A219200693-00A 14:11 N  00488 A219200695-00A 14:11 N
00489 A219200697-00A 14:11 N  00490 A219200635-00A 14:11 N
00491 A219200330-00A 14:11 N  00492 A219200701-00A 14:11 N
00493 A219200324-00A 14:11 N  00494 A219200704-00A 14:11 N
00495 A219200705-00A 14:12 N  00496 A219200707-00A 14:12 N
00497 A219200708-00A 14:12 N  00498 A219200711-00A 14:12 N
00499 A219200715-00A 14:12 N  00500 A219200639-01A 14:12 NR
00501 A219200718-00A 14:12 N  00502 A219200612-01A 14:12 NR
00503 A219200646-00A 14:12 N  00504 A219200721-00A 14:12 N
00505 A219200722-00A 14:12 N  00506 A219200723-00A 14:12 N
00507 A219200724-00A 14:12 N  00508 A219200663-00A 14:12 N
00509 A219200669-00A 14:12 N  00510 A219200612-02A 14:12 NR
00511 A219200726-00A 14:12 N  00512 A219200731-00A 14:12 N
00513 A219200732-00A 14:12 N  00514 A219200591-01A 14:12 NR
00515 A219200682-00A 14:12 N  00516 A219200738-00A 14:25 N
00517 A219201757-00A 14:25 E  00518 A219201800-00A 14:25 E
00519 A218401829-02A 14:25 E  00520 A219201814-00A 14:32 E
00521 A219201819-00A 14:32 E  00522 A219201814-01A 14:32 ER
00523 A219201801-00A 14:40 H  00524 A219201850-00A 14:40 H
00525 A219201895-00A 14:48 E  00526 A219201905-00A 14:48 E
00527 A219201187-01A 14:55 EC 00528 A219201898-00A 15:03 H
00529 A219202021-00A 15:12 H  00530 A218600283-01A 15:21 E
00531 A219202029-00A 15:21 E  00532 A219202029-01A 15:21 ER
00533 A219201800-01A 15:21 EC 00534 A219101796-01A 15:28 EC
00535 A219200740-00A 15:35 N  00536 A219200552-02A 15:35 NR
00537 A219200741-00A 15:35 N  00538 A219200742-00A 15:35 N
00539 A219200745-00A 15:35 N  00540 A219200659-01A 15:35 NR
00541 A219200750-00A 15:35 N  00542 A219200753-00A 15:35 N
00543 A219200754-00A 15:35 N  00544 A219200755-00A 15:35 N
00545 A219200520-01A 15:35 NR 00546 A219200757-00A 15:35 N
00547 A219200760-00A 15:35 N  00548 A219200761-00A 15:35 N
00549 A219200503-01A 15:35 NR 00550 A219200763-00A 15:35 N
00551 A219200764-00A 15:35 N  00552 A219200769-00A 15:35 N
00553 A219200770-00A 15:35 N  00554 A219200773-00A 15:35 N
00555 A219200774-00A 15:35 N  00556 A219200780-00A 15:35 N
00557 A219200782-00A 15:35 N  00558 A219200783-00A 15:35 N
00559 A219200786-00A 15:35 N  00560 A219200787-00A 15:35 N
00561 A219200788-00A 15:35 N  00562 A219200790-00A 15:35 N
00563 A219200710-00A 15:35 N  00564 A219200797-00A 15:35 N
00565 A219200798-00A 15:35 N  00566 A219200714-00A 15:35 N
00567 A219200799-00A 15:35 N  00568 A219200698-00A 15:35 N
00569 A219200800-00A 15:54 N  00570 A219202125-00A 15:54 E
00571 A218601371-01A 15:54 E  00572 A219200802-00A 15:54 N
00573 A219200807-00A 15:54 N  00574 A219200810-00A 15:54 N
00575 A219200725-00A 15:54 N  00576 A219200812-00A 15:54 N
00577 A219200814-00A 15:54 N  00578 A219200817-00A 15:54 N
00579 A219200819-00A 15:54 N  00580 A219200820-00A 15:54 N
00581 A219200821-00A 15:54 N  00582 A219200822-00A 15:54 N
00583 A219200824-00A 15:54 N  00584 A219200825-00A 15:54 N
00585 A219200826-00A 15:54 N  00586 A219200831-00A 15:54 N
00587 A219200832-00A 15:54 N  00588 A219200746-00A 15:54 N
00589 A219200835-00A 15:54 N  00590 A219200836-00A 15:54 N
00591 A219200837-00A 15:54 N  00592 A219200838-00A 15:54 N
00593 A219200840-00A 15:54 N  00594 A219200841-00A 15:54 N
00595 A219200843-00A 15:54 N  00596 A219200844-00A 15:54 N
00597 A219200848-00A 15:54 N  00598 A219200850-00A 15:54 N
00599 A219200851-00A 15:54 N  00600 A219200853-00A 15:54 N
00601 A219200747-00A 15:54 N  00602 A219200857-00A 16:03 N
00603 A219000475-01A 16:03 EC 00604 A219200858-00A 16:11 N
00605 A219200860-00A 16:11 N  00606 A219200864-00A 16:11 N
00607 A219200865-00A 16:11 N  00608 A219200866-00A 16:11 N
00609 A219200869-00A 16:11 N  00610 A219200870-00A 16:11 N
00611 A219200872-00A 16:11 N  00612 A219200873-00A 16:11 N
00613 A219200874-00A 16:11 N  00614 A219200875-00A 16:11 N
00615 A219200878-00A 16:11 N  00616 A219200795-00A 16:11 N
00617 A219200881-00A 16:11 N  00618 A219200883-00A 16:11 N
00619 A219200884-00A 16:11 N  00620 A219200885-00A 16:11 N
00621 A219200623-00A 16:11 N  00622 A219200651-00A 16:11 N
00623 A219200888-00A 16:11 N  00624 A219200889-00A 16:11 N
00625 A219200892-00A 16:11 N  00626 A219200893-00A 16:11 N
00627 A219200896-00A 16:11 N  00628 A219200816-00A 16:11 N
00629 A219200899-00A 16:11 N  00630 A219200809-00A 16:11 N
00631 A219200902-00A 16:11 N  00632 A219200903-00A 16:11 N
00633 A219200829-00A 16:11 N  00634 A219200905-00A 16:11 N
00635 A219200906-00A 16:11 N  00636 A219200834-00A 16:11 N
00637 A219200907-00A 16:11 N  00638 A219200908-00A 16:11 N
00639 A219200855-00A 16:11 N  00640 A219200913-00A 16:11 N
00641 A219200856-00A 16:11 N  00642 A219200801-00A 16:11 N
00643 A219200918-00A 16:11 N  00644 A219200920-00A 16:11 N
00645 A219200862-00A 16:11 N  00646 A219200924-00A 16:27 N
00647 A218600896-01A 16:27 E  00648 A218901215-01A 16:27 E
00649 A219202322-00A 16:27 E  00650 A219202282-00A 16:39 E
00651 A219202399-00A 16:46 E  00652 A219202413-00A 16:53 E
00653 A218600774-01A 17:01 E  00654 A219200925-00A 17:08 N
00655 A219200926-00A 17:08 N  00656 A219200929-00A 17:08 N
00657 A219200930-00A 17:08 N  00658 A219200931-00A 17:08 N
00659 A219200863-00A 17:09 N  00660 A219200936-00A 17:09 N
00661 A219200830-00A 17:09 N  00662 A219200941-00A 17:09 N
00663 A219200942-00A 17:09 N  00664 A219200944-00A 17:09 N
00665 A219200945-00A 17:09 N  00666 A219200947-00A 17:09 N
00667 A219200952-00A 17:09 N  00668 A219200895-00A 17:09 N
00669 A219200880-00A 17:09 N  00670 A219200955-00A 17:09 N
00671 A219200960-00A 17:09 N  00672 A219200897-00A 17:09 N
00673 A219200962-00A 17:09 N  00674 A219200963-00A 17:09 N
00675 A219200968-00A 17:09 N  00676 A219200974-00A 17:09 N
00677 A219200975-00A 17:09 N  00678 A219200976-00A 17:09 N
00679 A219200977-00A 17:09 N  00680 A219200979-00A 17:09 N
00681 A219200980-00A 17:09 N  00682 A219200981-00A 17:09 N
00683 A219200911-00A 17:09 N  00684 A219200987-00A 17:09 N
00685 A219200988-00A 17:09 N  00686 A219200989-00A 17:09 N
00687 A219200990-00A 17:09 N  00688 A219200915-00A 17:09 N
00689 A219200993-00A 17:09 N  00690 A219200917-00A 17:09 N
00691 A219200996-00A 17:09 N  00692 A219201001-00A 17:09 N
00693 A219201003-00A 17:09 N  00694 A219201004-00A 17:09 N
00695 A219201005-00A 17:09 N  00696 A219200727-00A 17:09 N
00697 A219200927-00A 17:09 N  00698 A219201010-00A 17:09 N
00699 A219201013-00A 17:09 N  00700 A219200932-00A 17:09 N
00701 A219201014-00A 17:09 N  00702 A219201019-00A 17:09 N
00703 A219201020-00A 17:09 N  00704 A219200937-00A 17:09 N
00705 A219201021-00A 17:09 N  00706 A219201025-00A 17:09 N
00707 A219201026-00A 17:10 N  00708 A219201027-00A 17:10 N
00709 A219201029-00A 17:10 N  00710 A219201013-01A 17:10 NR
00711 A219200919-00A 17:10 N  00712 A219201039-00A 17:10 N
00713 A219201044-00A 17:10 N  00714 A218900039-02A 17:10 NR
00715 A219201047-00A 17:30 N  00716 A219201053-00A 17:30 N
00717 A219201056-00A 17:30 N  00718 A219200898-00A 17:30 N
00719 A219201058-00A 17:30 N  00720 A219201059-00A 17:30 N
00721 A219201064-00A 17:30 N  00722 A219200901-00A 17:30 N
00723 A219200806-00A 17:30 N  00724 A219201068-00A 17:30 N
00725 A219201071-00A 17:30 N  00726 A219200969-00A 17:30 N
00727 A219200972-00A 17:30 N  00728 A219201073-00A 17:30 N
00729 A219201077-00A 17:31 N  00730 A219200985-00A 17:31 N
00731 A219201078-00A 17:31 N  00732 A219201081-00A 17:31 N
00733 A219200991-00A 17:31 N  00734 A219201082-00A 17:31 N
00735 A219201083-00A 17:31 N  00736 A219201084-00A 17:31 N
00737 A219201085-00A 17:31 N  00738 A219201088-00A 17:31 N
00739 A219201011-00A 17:31 N  00740 A219201089-00A 17:31 N
00741 A219201092-00A 17:31 N  00742 A219201094-00A 17:31 N
00743 A219201097-00A 17:31 N  00744 A219201100-00A 17:31 N
00745 A219200940-00A 17:31 N  00746 A219201103-00A 17:31 N
00747 A219201104-00A 17:31 N  00748 A219201108-00A 17:31 N
00749 A219201109-00A 17:31 N  00750 A219201048-00A 17:31 N
00751 A219201112-00A 17:31 N  00752 A219201066-00A 17:31 N
00753 A219201122-00A 17:31 N  00754 A219201127-00A 17:31 N
00755 A219201070-00A 17:31 N  00756 A219201128-00A 17:31 N
00757 A219201131-00A 17:31 N  00758 A219201133-00A 17:31 N
00759 A219201134-00A 17:31 N  00760 A219201136-00A 17:31 N
00761 A219201140-00A 17:31 N  00762 A219201143-00A 17:31 N
00763 A219201145-00A 17:31 N  00764 A219201149-00A 17:31 N
00765 A219201152-00A 17:31 N  00766 A219201154-00A 17:31 N
00767 A219201156-00A 17:31 N  00768 A219201157-00A 17:31 N
00769 A219201158-00A 17:31 N  00770 A219201096-00A 17:31 N
00771 A219201160-00A 17:31 N  00772 A219201163-00A 17:31 N
00773 A219201046-00A 17:31 N  00774 A219201166-00A 17:31 N
00775 A219201042-00A 17:32 N  00776 A219102564-01A 17:32 NR
00777 A219201169-00A 17:32 N  00778 A219201170-00A 17:32 N
00779 A219201114-00A 17:32 N  00780 A219201176-00A 17:32 N
00781 A219201178-00A 17:32 N  00782 A218900651-02A 17:32 NR
00783 A219201184-00A 17:32 N  00784 A219201186-00A 17:32 N
00785 A219201188-00A 17:32 N  00786 A219200493-00A 17:32 N
00787 A219201125-00A 17:32 N  00788 A219201191-00A 17:32 N
00789 A219201132-00A 17:32 N  00790 A219201195-00A 17:32 N
00791 A219201196-00A 17:32 N  00792 A219201198-00A 17:32 N
00793 A219201199-00A 17:32 N  00794 A219201135-00A 17:32 N
00795 A219201201-00A 17:32 N  00796 A219201202-00A 17:32 N
00797 A219201208-00A 17:32 N  00798 A219201110-00A 17:32 N
00799 A219201162-00A 17:32 N  00800 A219201212-00A 17:32 N
00801 A219201222-00A 17:32 N  00802 A219201224-00A 17:32 N
00803 A219201227-00A 17:32 N  00804 A219201231-00A 17:32 N
00805 A219201172-00A 17:32 N  00806 A219201173-00A 17:32 N
00807 A219201233-00A 17:32 N  00808 A219201236-00A 17:32 N
00809 A219201237-00A 17:32 N  00810 A219201181-00A 17:32 N
00811 A219201238-00A 17:32 N  00812 A219201240-00A 17:32 N
00813 A219201243-00A 17:47 N  00814 A218601377-01A 17:47 E
00815 A219202491-01A 17:54 EC 00816 A219200938-00A 18:02 N
00817 A219201185-00A 18:02 N  00818 A219201248-00A 18:02 N
00819 A219201249-00A 18:02 N  00820 A219201252-00A 18:02 N
00821 A219201253-00A 18:02 N  00822 A219201260-00A 18:02 N
00823 A219200772-00A 18:02 N  00824 A219201268-00A 18:02 N
00825 A219201270-00A 18:02 N  00826 A219201272-00A 18:02 N
00827 A219201273-00A 18:02 N  00828 A219201276-00A 18:02 N
00829 A219200886-00A 18:02 N  00830 A219201279-00A 18:02 N
00831 A219201282-00A 18:02 N  00832 A219201287-00A 18:02 N
00833 A219201291-00A 18:02 N  00834 A219201235-00A 18:02 N
00835 A219201299-00A 18:02 N  00836 A219201301-00A 18:02 N
00837 A219201302-00A 18:02 N  00838 A219201305-00A 18:02 N
00839 A219201306-00A 18:02 N  00840 A219201106-00A 18:02 N
00841 A219201301-01A 18:02 NR 00842 A219201308-00A 18:02 N
00843 A219201309-00A 18:02 N  00844 A219201312-00A 18:02 N
00845 A219201313-00A 18:17 N  00846 A219202518-00A 18:17 E
00847 A219201315-00A 18:17 N  00848 A219201317-00A 18:17 N
00849 A219201318-00A 18:17 N  00850 A219201320-00A 18:17 N
00851 A219201324-00A 18:17 N  00852 A219201326-00A 18:17 N
00853 A219201326-01A 18:17 NR 00854 A219201331-00A 18:17 N
00855 A219201334-00A 18:18 N  00856 A219201335-00A 18:18 N
00857 A219201336-00A 18:18 N  00858 A219201339-00A 18:18 N
00859 A219201341-00A 18:18 N  00860 A219201348-00A 18:18 N
00861 A219201258-00A 18:18 N  00862 A219201355-00A 18:18 N
00863 A219201356-00A 18:18 N  00864 A219201358-00A 18:18 N
00865 A219201359-00A 18:18 N  00866 A219201363-00A 18:18 N
00867 A219201365-00A 18:18 N  00868 A219201366-00A 18:18 N
00869 A219201367-00A 18:18 N  00870 A219201369-00A 18:18 N
00871 A219201359-01A 18:18 NR 00872 A219201371-00A 18:18 N
00873 A219201283-00A 18:18 N  00874 A219201375-00A 18:18 N
00875 A219201289-00A 18:18 N  00876 A219201381-00A 18:18 N
00877 A219201384-00A 18:18 N  00878 A219201387-00A 18:18 N
00879 A219201388-00A 18:18 N  00880 A219201323-00A 18:18 N
00881 A219201393-00A 18:18 N  00882 A219201397-00A 18:18 N
00883 A219201399-00A 18:18 N  00884 A219201403-00A 18:18 N
00885 A219201409-00A 18:18 N  00886 A219201340-00A 18:18 N
00887 A219201410-00A 18:18 N  00888 A219201413-00A 18:18 N
00889 A219201414-00A 18:18 N  00890 A219201428-00A 18:18 N
00891 A219201433-00A 18:18 N  00892 A219201434-00A 18:18 N
00893 A219201345-00A 18:18 N  00894 A219201435-00A 18:18 N
00895 A219201436-00A 18:18 N  00896 A219201441-00A 18:18 N
00897 A219201443-00A 18:18 N  00898 A219201447-00A 18:18 N
00899 A219201448-00A 18:18 N  00900 A219201449-00A 18:18 N
00901 A219201450-00A 18:19 N  00902 A219201451-00A 18:19 N
00903 A219201453-00A 18:19 N  00904 A219201456-00A 18:19 N
00905 A219201350-00A 18:19 N  00906 A219201457-00A 18:19 N
00907 A219200637-00A 18:19 N  00908 A219201460-00A 18:19 N
00909 A219201461-00A 18:19 N  00910 A219201462-00A 18:19 N
00911 A219201463-00A 18:19 N  00912 A219201466-00A 18:19 N
00913 A219201468-00A 18:19 N  00914 A219201469-00A 18:19 N
00915 A219201370-00A 18:19 N  00916 A219201470-00A 18:19 N
00917 A219201471-00A 18:19 N  00918 A219201473-00A 18:19 N
00919 A219201476-00A 18:19 N  00920 A219201479-00A 18:19 N
00921 A219201482-00A 18:19 N  00922 A219201484-00A 18:19 N
00923 A219201377-00A 18:19 N  00924 A219201364-00A 18:19 N
00925 A219201491-00A 18:19 N  00926 A219201389-00A 18:19 N
00927 A219201493-00A 18:19 N  00928 A219201494-00A 18:19 N
00929 A219201394-00A 18:19 N  00930 A219201496-00A 18:19 N
00931 A219201404-00A 18:19 N  00932 A219201411-00A 18:19 N
00933 A219201405-00A 18:19 N  00934 A219201396-00A 18:19 N
00935 A219201426-00A 18:19 N  00936 A219201429-00A 18:19 N
00937 A219201497-00A 18:19 N  00938 A219201432-00A 18:19 N
00939 A219201500-00A 18:19 N  00940 A219201440-00A 18:19 N
00941 A219201504-00A 18:19 N  00942 A219200096-00A 18:19 N
00943 A219201506-00A 18:19 N  00944 A219201507-00A 18:19 N
00945 A219201514-00A 18:19 N  00946 A219201515-00A 18:19 N
00947 A219201516-00A 18:20 N  00948 A219201519-00A 18:20 N
00949 A219201478-00A 18:27 N  00950 A219201480-00A 18:27 N
00951 A219201278-00A 18:27 N  00952 A219201521-00A 18:27 N
00953 A219201524-00A 18:27 N  00954 A219201526-00A 18:28 N
00955 A219201528-00A 18:35 N  00956 A219201487-00A 18:35 N
00957 A219201534-00A 18:35 N  00958 A219201535-00A 18:35 N
00959 A219201495-00A 18:36 N  00960 A219201538-00A 18:36 N
00961 A219201539-00A 18:36 N  00962 A219201412-00A 18:36 N
00963 A219201545-00A 18:36 N  00964 A219201499-00A 18:36 N
00965 A219200808-00A 18:36 N  00966 A219201554-00A 18:36 N
00967 A219201556-00A 18:36 N  00968 A219201557-00A 18:43 N
00969 A219201558-00A 18:44 N  00970 A219201454-00A 18:44 N
00971 A219201563-00A 18:44 N  00972 A219201565-00A 18:44 N
00973 A219201376-00A 18:44 N  00974 A219201383-00A 18:51 N
00975 A219201575-00A 18:51 N  00976 A219201522-00A 18:51 N
00977 A219201483-00A 18:51 N  00978 A219200859-00A 18:51 N
00979 A219201529-00A 18:51 N  00980 A219201592-00A 18:51 N
00981 A219201542-00A 18:51 N  00982 A219201604-00A 18:51 N
00983 A219201605-00A 18:51 N  00984 A219201607-00A 18:51 N
00985 A219201610-00A 18:51 N  00986 A219201615-00A 18:52 N
00987 A219201513-00A 18:52 N  00988 A219201544-00A 18:52 N
00989 A219201553-00A 18:52 N  00990 A219201623-00A 18:52 N
00991 A219201560-00A 18:52 N  00992 A219201566-00A 18:52 N
00993 A219201628-00A 18:52 N  00994 A219201577-00A 18:52 N
00995 A219201636-00A 18:52 N  00996 A219201579-00A 18:52 N
00997 A219201570-00A 18:52 N  00998 A219201552-00A 18:52 N
00999 A219201646-00A 18:52 N  01000 A219201649-00A 18:52 N
01001 A219201651-00A 18:52 N  01002 A219201654-00A 18:52 N
01003 A219201472-00A 18:52 N  01004 A219201658-00A 18:52 N
01005 A219201660-00A 18:52 N  01006 A219201608-00A 18:52 N
01007 A219201666-00A 18:52 N  01008 A219201669-00A 18:52 N
01009 A219201672-00A 18:52 N  01010 A219201674-00A 18:52 N
01011 A219201675-00A 18:52 N  01012 A219201677-00A 18:52 N
01013 A219201678-00A 18:52 N  01014 A219201679-00A 18:52 N
01015 A219201680-00A 18:52 N  01016 A219201683-00A 18:52 N
01017 A219001090-01A 18:52 NR 01018 A219201685-00A 18:52 N
01019 A219201686-00A 18:52 N  01020 A219201687-00A 18:52 N
01021 A219201688-00A 18:52 N  01022 A218200724-01A 18:52 NR
01023 A219201689-00A 18:52 N  01024 A219201347-00A 18:52 N
01025 A219201691-00A 18:52 N  01026 A219201693-00A 18:52 N
01027 A219201694-00A 18:52 N  01028 A219201696-00A 18:52 N
01029 A219201697-00A 18:52 N  01030 A219201647-00A 18:52 N
01031 A219201706-00A 18:52 N  01032 A219201708-00A 18:52 N
01033 A219201709-00A 18:52 N  01034 A219201648-00A 18:53 N
01035 A219201711-00A 18:53 N  01036 A219201712-00A 18:53 N
01037 A219201714-00A 18:53 N  01038 A219201715-00A 18:53 N
01039 A219201716-00A 18:53 N  01040 A219201717-00A 18:53 N
01041 A219201718-00A 18:53 N  01042 A219201719-00A 18:53 N
01043 A219201720-00A 18:53 N  01044 A219201721-00A 18:53 N
01045 A219201723-00A 18:53 N  01046 A219201724-00A 18:53 N
01047 A219201725-00A 18:53 N  01048 A219201727-00A 18:53 N
01049 A219201728-00A 18:53 N  01050 A219201729-00A 18:53 N
01051 A219201730-00A 18:53 N  01052 A219201731-00A 18:53 N
01053 A219201735-00A 18:53 N  01054 A219201737-00A 18:53 N
01055 A219201738-00A 18:53 N  01056 A219201741-00A 18:53 N
01057 A219201744-00A 18:53 N  01058 A219201745-00A 18:53 N
01059 A219201747-00A 18:53 N  01060 A219201749-00A 18:53 N
01061 A219200654-00A 18:53 N  01062 A219201751-00A 18:53 N
01063 A219201754-00A 18:53 N  01064 A219201756-00A 18:53 N
01065 A219201758-00A 18:53 N  01066 A219201759-00A 18:53 N
01067 A219201760-00A 18:53 N  01068 A219201761-00A 18:53 N
01069 A219201764-00A 18:53 N  01070 A219201400-00A 19:14 N
01071 A219201765-00A 19:14 N  01072 A219201767-00A 19:14 N
01073 A219201769-00A 19:14 N  01074 A219201771-00A 19:14 N
01075 A219201772-00A 19:14 N  01076 A219201774-00A 19:14 N
01077 A219201776-00A 19:14 N  01078 A219201777-00A 19:14 N
01079 A219201778-00A 19:14 N  01080 A219201779-00A 19:14 N
01081 A219201781-00A 19:14 N  01082 A219201783-00A 19:14 N
01083 A219201784-00A 19:14 N  01084 A219201785-00A 19:14 N
01085 A219201787-00A 19:14 N  01086 A219201789-00A 19:14 N
01087 A219201091-00A 19:14 N  01088 A219201792-00A 19:14 N
01089 A219201793-00A 19:14 N  01090 A219201795-00A 19:14 N
01091 A219201797-00A 19:14 N  01092 A219201802-00A 19:14 N
01093 A219201806-00A 19:14 N  01094 A219201807-00A 19:14 N
01095 A219201809-00A 19:14 N  01096 A219201582-00A 19:14 N
01097 A219201813-00A 19:14 N  01098 A219201815-00A 19:14 N
01099 A219201722-00A 19:14 N  01100 A219201818-00A 19:14 N
01101 A219201822-00A 19:14 N  01102 A219201733-00A 19:14 N
01103 A219201825-00A 19:14 N  01104 A219201828-00A 19:14 N
01105 A219201829-00A 19:14 N  01106 A219201541-00A 19:14 N
01107 A219201833-00A 19:14 N  01108 A219201549-00A 19:14 N
01109 A219201742-00A 19:15 N  01110 A219201837-00A 19:15 N
01111 A219201839-00A 19:15 N  01112 A219201841-00A 19:15 N
01113 A219201842-00A 19:15 N  01114 A219201844-00A 19:15 N
01115 A219201847-00A 19:15 N  01116 A219201849-00A 19:15 N
01117 A219201851-00A 19:15 N  01118 A219201852-00A 19:15 N
01119 A219201854-00A 19:15 N  01120 A219201856-00A 19:15 N
01121 A219201858-00A 19:15 N  01122 A219201164-00A 19:15 N
01123 A219201860-00A 19:15 N  01124 A219201862-00A 19:15 N
01125 A219201863-00A 19:15 N  01126 A219201864-00A 19:15 N
01127 A219201865-00A 19:15 N  01128 A219201790-00A 19:15 N
01129 A219201866-00A 19:15 N  01130 A219201867-00A 19:15 N
01131 A219201858-01A 19:15 NR 01132 A219201871-00A 19:15 N
01133 A219201810-00A 19:15 N  01134 A219201873-00A 19:15 N
01135 A219201874-00A 19:15 N  01136 A219201875-00A 19:15 N
01137 A219201876-00A 19:15 N  01138 A219201877-00A 19:15 N
01139 A219201878-00A 19:15 N  01140 A219201664-00A 19:15 N
01141 A219201879-00A 19:15 N  01142 A219201880-00A 19:15 N
01143 A219201881-00A 19:15 N  01144 A219102000-00A 19:15 N
01145 A219201886-00A 19:15 N  01146 A219201887-00A 19:15 N
01147 A219201888-00A 19:15 N  01148 A219201889-00A 19:15 N
01149 A219201537-00A 19:15 N  01150 A219201890-00A 19:15 N
01151 A219201547-00A 19:15 N  01152 A219201891-00A 19:15 N
01153 A219201893-00A 19:15 N  01154 A219201894-00A 19:15 N
01155 A219201896-00A 19:15 N  01156 A219201900-00A 19:15 N
01157 A219201901-00A 19:16 N  01158 A219201906-00A 19:16 N
01159 A219201908-00A 19:16 N  01160 A219201910-00A 19:16 N
01161 A219201755-00A 19:16 N  01162 A219201913-00A 19:16 N
01163 A219201916-00A 19:16 N  01164 A219200313-00A 19:16 N
01165 A219201917-00A 19:16 N  01166 A219201857-00A 19:16 N
01167 A219201920-00A 19:16 N  01168 A219201187-00A 19:16 N
01169 A219201923-00A 19:16 N  01170 A219201925-00A 19:16 N
01171 A219201928-00A 19:16 N  01172 A219201933-00A 19:16 N
01173 A219201936-00A 19:16 N  01174 A219201937-00A 19:16 N
01175 A219201938-00A 19:16 N  01176 A219201939-00A 19:16 N
01177 A219201940-00A 19:16 N  01178 A219201941-00A 19:16 N
01179 A219201942-00A 19:16 N  01180 A219201943-00A 19:16 N
01181 A219201944-00A 19:16 N  01182 A219201945-00A 19:16 N
01183 A219201907-00A 19:16 N  01184 A219201949-00A 19:16 N
01185 A219201950-00A 19:16 N  01186 A219201951-00A 19:16 N
01187 A219201916-01A 19:16 NR 01188 A219201955-00A 19:16 N
01189 A219201957-00A 19:16 N  01190 A219201958-00A 19:16 N
01191 A219201959-00A 19:16 N  01192 A219201965-00A 19:16 N
01193 A219201966-00A 19:16 N  01194 A219201967-00A 19:16 N
01195 A219201969-00A 19:16 N  01196 A219201970-00A 19:16 N
01197 A219201971-00A 19:24 N  01198 A219201972-00A 19:24 N
01199 A219201973-00A 19:24 N  01200 A219201974-00A 19:24 N
01201 A219201975-00A 19:24 N  01202 A219201978-00A 19:24 N
01203 A219201983-00A 19:24 N  01204 A219201984-00A 19:24 N
01205 A219201988-00A 19:24 N  01206 A219201989-00A 19:24 N
01207 A219201994-00A 19:24 N  01208 A219201995-00A 19:24 N
01209 A219201996-00A 19:24 N  01210 A219202001-00A 19:24 N
01211 A219202002-00A 19:24 N  01212 A219202008-00A 19:24 N
01213 A219201946-00A 19:24 N  01214 A219201952-00A 19:24 N
01215 A219202014-00A 19:24 N  01216 A219202015-00A 19:24 N
01217 A219202016-00A 19:24 N  01218 A219202017-00A 19:24 N
01219 A219202022-00A 19:24 N  01220 A219201961-00A 19:24 N
01221 A219202024-00A 19:24 N  01222 A219202027-00A 19:24 N
01223 A219202028-00A 19:24 N  01224 A219202030-00A 19:24 N
01225 A219202031-00A 19:25 N  01226 A219201193-00A 19:25 N
01227 A219202033-00A 19:25 N  01228 A219202034-00A 19:25 N
01229 A219202035-00A 19:25 N  01230 A219202036-00A 19:25 N
01231 A219202038-00A 19:25 N  01232 A219201985-00A 19:25 N
01233 A219202041-00A 19:25 N  01234 A219202042-00A 19:25 N
01235 A219202044-00A 19:25 N  01236 A219202045-00A 19:25 N
01237 A219202046-00A 19:25 N  01238 A219202047-00A 19:25 N
01239 A219202049-00A 19:25 N  01240 A219202054-00A 19:25 N
01241 A219202055-00A 19:25 N  01242 A219202058-00A 19:25 N
01243 A219202059-00A 19:25 N  01244 A219202061-00A 19:25 N
01245 A219202062-00A 19:32 N  01246 A219202063-00A 19:32 N
01247 A219202065-00A 19:32 N  01248 A219202066-00A 19:32 N
01249 A219202067-00A 19:33 N  01250 A219202070-00A 19:33 N
01251 A219202072-00A 19:33 N  01252 A219202075-00A 19:33 N
01253 A219202076-00A 19:33 N  01254 A219202078-00A 19:33 N
01255 A219202081-00A 19:33 N  01256 A219201194-00A 19:33 N
01257 A219202084-00A 19:33 N  01258 A219202086-00A 19:33 N
01259 A219202087-00A 19:33 N  01260 A219202088-00A 19:33 N
01261 A219202090-00A 19:33 N  01262 A219202092-00A 19:33 N
01263 A219202032-00A 19:33 N  01264 A219202093-00A 19:33 N
01265 A219202094-00A 19:33 N  01266 A219202095-00A 19:33 N
01267 A219202096-00A 19:33 N  01268 A219202098-00A 19:33 N
01269 A219202100-00A 19:33 N  01270 A219202103-00A 19:33 N
01271 A219202104-00A 19:33 N  01272 A219202109-00A 19:33 N
01273 A219202111-00A 19:33 N  01274 A219202112-00A 19:33 N
01275 A219202113-00A 19:33 N  01276 A219202114-00A 19:33 N
01277 A219202127-00A 19:33 N  01278 A219201531-00A 19:33 N
01279 A219202129-00A 19:33 N  01280 A219202060-00A 19:33 N
01281 A219202132-00A 19:33 N  01282 A219202057-00A 19:33 N
01283 A219202134-00A 19:33 N  01284 A219202135-00A 19:33 N
01285 A219202137-00A 19:33 N  01286 A219202147-00A 19:33 N
01287 A219202148-00A 19:33 N  01288 A219202158-00A 19:33 N
01289 A219202018-00A 19:33 N  01290 A219202163-00A 19:33 N
01291 A219202085-00A 19:33 N  01292 A219202167-00A 19:33 N
01293 A219202099-00A 19:33 N  01294 A219202169-00A 19:33 N
01295 A219202106-00A 19:33 N  01296 A219202175-00A 19:33 N
01297 A219202080-00A 19:34 N  01298 A219202177-00A 19:34 N
01299 A219202178-00A 19:34 N  01300 A219202180-00A 19:34 N
01301 A219202126-00A 19:34 N  01302 A219202186-00A 19:34 N
01303 A219201057-00A 19:34 N  01304 A219202189-00A 19:34 N
01305 A219202192-00A 19:34 N  01306 A219202197-00A 19:34 N
01307 A219202198-00A 19:34 N  01308 A219202199-00A 19:34 N
01309 A219202151-00A 19:34 N  01310 A219202200-00A 19:34 N
01311 A219202162-00A 19:34 N  01312 A219202205-00A 19:34 N
01313 A219202209-00A 19:34 N  01314 A219202211-00A 19:34 N
01315 A219202213-00A 19:34 N  01316 A219202171-00A 19:34 N
01317 A219202172-00A 19:34 N  01318 A219202173-00A 19:34 N
01319 A219202217-00A 19:42 N  01320 A219202218-00A 19:42 N
01321 A219202219-00A 19:42 N  01322 A219201934-00A 19:42 N
01323 A219202181-00A 19:42 N  01324 A219202223-00A 19:42 N
01325 A219202225-00A 19:42 N  01326 A219202226-00A 19:42 N
01327 A219202231-00A 19:42 N  01328 A219202232-00A 19:42 N
01329 A219202234-00A 19:42 N  01330 A219202236-00A 19:42 N
01331 A219202239-00A 19:42 N  01332 A219202243-00A 19:42 N
01333 A219202194-00A 19:42 N  01334 A219202247-00A 19:42 N
01335 A219202249-00A 19:42 N  01336 A219202252-00A 19:42 N
01337 A219202196-00A 19:42 N  01338 A219202256-00A 19:42 N
01339 A219202261-00A 19:42 N  01340 A219202203-00A 19:42 N
01341 A219202268-00A 19:42 N  01342 A219202208-00A 19:42 N
01343 A219202269-00A 19:42 N  01344 A219202271-00A 19:42 N
01345 A219202215-00A 19:42 N  01346 A219201962-00A 19:42 N
01347 A219201924-00A 19:42 N  01348 A219202220-00A 19:42 N
01349 A219202284-00A 19:42 N  01350 A219202287-00A 19:42 N
01351 A219202227-00A 19:42 N  01352 A219202292-00A 19:42 N
01353 A219202293-00A 19:42 N  01354 A219202294-00A 19:42 N
01355 A219202296-00A 19:42 N  01356 A219202301-00A 19:42 N
01357 A219202303-00A 19:50 N  01358 A219202240-00A 19:50 N
01359 A219202307-00A 19:50 N  01360 A219202296-01A 19:50 NR
01361 A219202313-00A 19:50 N  01362 A219202314-00A 19:50 N
01363 A219202319-00A 19:50 N  01364 A219202321-00A 19:50 N
01365 A219202323-00A 19:50 N  01366 A219202324-00A 19:50 N
01367 A219202332-00A 19:50 N  01368 A219202333-00A 19:50 N
01369 A219202193-00A 19:50 N  01370 A219202338-00A 19:50 N
01371 A219202342-00A 19:51 N  01372 A219202257-00A 19:51 N
01373 A219202345-00A 19:51 N  01374 A219202263-00A 19:51 N
01375 A219202350-00A 19:51 N  01376 A219202251-00A 19:51 N
01377 A219202259-00A 19:51 N  01378 A219202354-00A 19:51 N
01379 A219202357-00A 19:51 N  01380 A219202358-00A 19:51 N
01381 A219202270-00A 19:51 N  01382 A219202364-00A 19:51 N
01383 A219202366-00A 19:51 N  01384 A219202368-00A 19:51 N
01385 A219202372-00A 19:51 N  01386 A219202374-00A 19:51 N
01387 A219202375-00A 19:51 N  01388 A219202157-00A 19:59 N
01389 A219202378-00A 19:59 N  01390 A219202380-00A 19:59 N
01391 A219202381-00A 19:59 N  01392 A219202384-00A 19:59 N
01393 A219101033-01A 19:59 NR 01394 A219202388-00A 19:59 N
01395 A219202389-00A 19:59 N  01396 A219202392-00A 19:59 N
01397 A219202396-00A 19:59 N  01398 A219202400-00A 19:59 N
01399 A219202402-00A 19:59 N  01400 A219202408-00A 19:59 N
01401 A219100877-01A 19:59 NR 01402 A219202409-00A 19:59 N
01403 A219202344-00A 19:59 N  01404 A219202340-00A 19:59 N
01405 A219202414-00A 19:59 N  01406 A219202415-00A 19:59 N
01407 A219202416-00A 19:59 N  01408 A219202417-00A 19:59 N
01409 A219202419-00A 19:59 N  01410 A219202420-00A 19:59 N
01411 A219202343-00A 19:59 N  01412 A219202421-00A 19:59 N
01413 A218200299-01A 19:59 NR 01414 A219202424-00A 19:59 N
01415 A219202425-00A 19:59 N  01416 A219202427-00A 19:59 N
01417 A219200429-00A 19:59 N  01418 A219202433-00A 19:59 N
01419 A219201898-01A 19:59 NR 01420 A219202288-00A 19:59 N
01421 A219202373-00A 19:59 N  01422 A219202436-00A 19:59 N
01423 A219202438-00A 19:59 N  01424 A219202441-00A 19:59 N
01425 A219202083-00A 20:00 N  01426 A219202290-00A 20:00 N
01427 A219202387-00A 20:00 N  01428 A219202391-00A 20:00 N
01429 A219202444-00A 20:00 N  01430 A219202445-00A 20:00 N
01431 A219202393-00A 20:00 N  01432 A219202395-00A 20:00 N
01433 A219202451-00A 20:00 N  01434 A219202454-00A 20:00 N
01435 A219202457-00A 20:00 N  01436 A219201903-00A 20:00 N
01437 A219202459-00A 20:00 N  01438 A219202460-00A 20:00 N
01439 A219202462-00A 20:00 N  01440 A219202463-00A 20:00 N
01441 A219202464-00A 20:00 N  01442 A219202434-00A 20:00 N
01443 A219202467-00A 20:00 N  01444 A219201486-00A 20:00 N
01445 A219202469-00A 20:00 N  01446 A219202470-00A 20:00 N
01447 A219202473-00A 20:00 N  01448 A219202404-00A 20:00 N
01449 A219202475-00A 20:00 N  01450 A219202476-00A 20:00 N
01451 A219202477-00A 20:00 N  01452 A219202478-00A 20:00 N
01453 A219202365-00A 20:00 N  01454 A219002629-00A 20:00 N
01455 A219202479-00A 20:00 N  01456 A219202480-00A 20:00 N
01457 A219202482-00A 20:00 N  01458 A219202483-00A 20:00 N
01459 A219202484-00A 20:00 N  01460 A219202487-00A 20:00 N
01461 A219202491-00A 20:00 N  01462 A219202492-00A 20:00 N
01463 A219202494-00A 20:00 N  01464 A219202495-00A 20:00 N
01465 A219202499-00A 20:00 N  01466 A219202500-00A 20:00 N
01467 A219202502-00A 20:00 N  01468 A219202504-00A 20:00 N
01469 A219202505-00A 20:00 N  01470 A219202497-00A 20:00 N
01471 A219202506-00A 20:00 N  01472 A219202507-00A 20:00 N
01473 A219202508-00A 20:00 N  01474 A219202509-00A 20:01 N
01475 A219202510-00A 20:01 N  01476 A219202512-00A 20:01 N
01477 A219202513-00A 20:01 N  01478 A219202514-00A 20:01 N
01479 A219202450-00A 20:01 N  01480 A219202516-00A 20:01 N
01481 A219202517-00A 20:01 N  01482 A219202520-00A 20:01 N
01483 A219202521-00A 20:01 N  01484 A219202522-00A 20:01 N
01485 A219202524-00A 20:01 N  01486 A219202525-00A 20:01 N
01487 A219202526-00A 20:01 N  01488 A219202527-00A 20:01 N
01489 A219202465-00A 20:01 N  01490 A219202468-00A 20:01 N
01491 A219201977-00A 20:01 N  01492 A219202530-00A 20:01 N
01493 A219201796-00A 20:01 N  01494 A219202531-00A 20:01 N
01495 A219202515-00A 20:01 N  01496 A219202170-00A 20:01 N
01497 A219202187-00A 20:01 N  01498 A219201853-00A 20:01 N
01499 A219202511-00A 20:01 N  01500 A219202536-00A 20:01 N
01501 A219100564-00A 20:01 N  01502 A219202538-00A 20:01 N
01503 A219202540-00A 21:12 N  01504 A219202541-00A 21:25 N
01505 A219202542-00A 21:40 N  01506 A219202543-00A 21:56 N
01507 A219202544-00A 22:11 N  01508 A219202545-00A 22:20 N
01509 A219202547-00A 22:24 N  01510 A219202548-00A 22:56 E

(R) REVISED    - 00029
(C) CANCEL     - 00022
(S) RESENT     - 00000
(Y) RENOTIFY   - 00000
(L) LATE RESP  - 00022
(U) UNGRIDDED  - 00000
( ) NORMAL     - 01437
    TOTAL      - 01510

