
GP293 CALL SUNSHINE 02/04/03 23:42:42ET

***************************************************************************
* NOW ENDING TRANSMISSION FOR TODAY - THIS IS YOUR END OF DAY AUDIT       *
* PLEASE VERIFY YOU RECEIVED ALL TKTS - IF ERRORS, PLEASE CALL THE CENTER *
***************************************************************************

00027 03530649-000 08:29   00047 03530816-000 09:10   00050 03530816-001 09:12   
00059 03531167-000 09:17   00060 03531198-000 09:19   00108 03531763-000 10:12   
00110 03531784-000 10:14   00115 03531990-000 10:33   00121 03532097-000 10:42   
00126 02933860-001 10:54   00127 03532244-000 10:57   00134 03034870-001 11:19   
00135 03532494-000 11:22   00139 03532100-000 11:30   00147 03532648-000 11:37   
00161 03532920-000 12:03   00164 03533017-000 12:13   00175 03533328-000 12:52   
00176 03533421-000 13:02   00179 03533590-000 13:22   00222 03534618-000 15:06   
00266 03535351-000 16:31   00275 03535573-000 16:56   00309 03535767-000 17:45   

Total: 24


