

Ticket No:  7441346               2 FULL BUSINESS DAYS 
Send To: TEST02     Seq No:  142  Map Ref:  

Transmit      Date: 12/11/07   Time:  2:41 PM    Op: ordavi 
Original Call Date: 12/11/07   Time:  2:40 PM    Op: ordavi 
Work to Begin Date: 12/14/07   Time: 12:00 AM 

State: WA            County: PIERCE                  Place: PUYALLUP 
Address:    101      Street: 23RD ST SE 
Nearest Intersecting Street: E MAIN 

Twp: 20N     Rng: 4E      Sect-Qtr: 26-NW-NE,40,51-SW-NW,44-SE 
Twp:         Rng:         Sect-Qtr:        

Type of Work: INSTALL GAS SRVC 
Location of Work: ADD IS APX 150FT S OF ABV INTER ON THE E SIDE OF 23RD. MARK
: AREA MARKED IN WHITE ON W SIDE OF BUILDING AT ABV ADD. 

Remarks: CALLER GAVE THOMAS GUIDE PAGE 805 F-7 
:  

Company     : POTELCO                          Best Time:   
Contact Name: MARK JANSSON CALL 1ST!!!         Phone: (253)405-2703 
Alt. Contact: TOM MILLER CALL 2ND!             Phone: (253)606-2239 
Contact Fax : (253)841-6228 
Work Being Done For: PSE 
Additional Members:  
ATT08      CC7711     LEVL301    MCI01      PSEELC45   PSEGAS41   PUYLUP01 
 QLNWA24