

This is your End of Day Audit from IRTHNet for items sent
since 12/18/2007 2:00 AM (Pacific Standard Time)

Seq   Ticket                    Registration Code                  
-------------------------------------------------------------------
1     7446358                   TEST02 (WOC)                       
2     7446397                   TEST02 (WOC)                       
3     7446402                   TEST02 (WOC)                       
4     7446407                   TEST02 (WOC)                       
5     7446404                   TEST02 (WOC)                       
6     7446403                   TEST02 (WOC)                       
7     7446432                   TEST02 (WOC)                       
8     7446459                   TEST02 (WOC)                       
9     7446547                   TEST02 (WOC)                       
10    7446553                   TEST02 (WOC)                       
11    7446549                   TEST02 (WOC)                       
12    7446564                   TEST02 (WOC)                       
13    7446558                   TEST02 (WOC)                       
14    7446566                   TEST02 (WOC)                       
15    7446577                   TEST02 (WOC)                       
16    7446586                   TEST02 (WOC)                       
17    7446588                   TEST02 (WOC)                       
18    7446595                   TEST02 (WOC)                       
19    7446598                   TEST02 (WOC)                       
20    7446607                   TEST02 (WOC)                       
21    7446602                   TEST02 (WOC)                       
22    7446619                   TEST02 (WOC)                       
23    7446635                   TEST02 (WOC)                       
24    7445688                   CC7700 (WOC)                       

Total Items Sent: 24