
Ticket No: 6204651
Notification Type: 
Send To: NNG01
Map Ref: 1038027
Transmit Date: 09/26/2006 08:36:53
Original Call Date: 09/26/2006 08:19:00
Work Begin Date: 09/28/2006
Work Begin Time: 08:30:00
State: OR
County: MU
Place: PORTLAND
Address: 1246     
Street: SW HUME                   ST     
Nearest Intersecting Street: SW 12TH AVE
Twp: 01-S Rng: 01-E Sect-Qtr: 21-SW
Type of Work: INSTALL FENCE 
Location of Work:  MARK ENTIRE PROPERTY OTHER THAN ROCK LANDSCAPING & PAVED   AREAS 
Remarks:  CALLER GAVE THOMAS GUIDE PAGE #626-D6                                                                      
Company: RICKS CUSTOM FENCING AND DECK
Contact Name: SHARON
Phone: (503)640-5434
Alt. Contact: 
Phone: 
Work Being Done For: TODD LOWLES


