
UQSTNO USAN 10/11/02 00:07:53
**************************************************************************
* THIS IS YOUR DAILY TICKET RECAP FOR 10/10/02.  IF THERE ARE ANY        *
* DISCREPANCIES, PLEASE NOTIFY THE USAN CENTER AT (925) 798-9504 EXT 1.  *
**************************************************************************

0425741 00001 / 0425748 00002 / 0425768 00010 / 0425776 00011 / 0425778 00012
0425779 00013 / 0425796 00021 / 0425801 00024 / 0425809 00025 / 0425818 00026
0425819 00027 / 0425832 00028 / 0425832!00029 / 0425835 00030 / 0425854 00031
0425892 00032 / 0412333+00033 / 0425880 00037 / 0374195+00039 / 0374204+00040
0374208+00041 / 0374211+00042 / 0374218+00043 / 0425900 00044 / 0425903 00045
0374151+00050 / 0374158+00051 / 0374167+00052 / 0374172+00053 / 0374180+00054
0425996 00057 / 0394289+00059 / 0394298+00060 / 0394305+00061 / 0426014 00062
0426030 00065 / 0426045 00066 / 0394313+00067 / 0394324+00068 / 0394330+00069
0394337+00070 / 0394341+00071 / 0394345+00072 / 0394347+00073 / 0394362+00074
0394368+00075 / 0394373+00077 / 0394376+00078 / 0394381+00079 / 0394393+00080
0394409+00081 / 0426088 00082 / 0426085 00083 / 0426104 00084 / 0426142 00085
0426187 00086 / 0407378+00087 / 0413523+00088 / 0426165 00089 / 0426191 00090
0426195 00091 / 0426198 00092 / 0426201 00093 / 0426209 00094 / 0426187!00095
0426229 00096 / 0426234 00098 / 0426235 00099 / 0426290 00100 / 0412167+00101
0412172+00102 / 0412176+00103 / 0426269 00104 / 0426309 00105 / 0283633+00106
0426317 00107 / 0426327 00109 / 0426332 00110 / 0426335 00112 / 0426342 00113
0426346 00115 / 0374847+00116 / 0374849+00117 / 0374856+00118 / 0426349 00119
0426377 00121 / 0426388 00122 / 0426400 00123 / 0426453 00124 / 0413095+00125
0426423 00126 / 0426425 00127 / 0391599+00128 / 0426464 00129 / 0426467 00130
0426483 00131 / 0426484 00132 / 0426490 00133 / 0426496 00134 / 0426502 00136
0426544 00138 / 0426548 00139 / 0426551 00141 / 0426558 00142 / 0299144+00144
0299242+00145 / 0300080+00146 / 0300091+00147 / 0300094+00148 / 0300158+00149
0300168+00150 / 0300170+00151 / 0300177+00152 / 0393246+00153 / 0393254+00154
0413305+00155 / 0426609 00156 / 0426635 00157 / 0413690+00158 / 0426676 00159
0426685 00160 / 0340867+00161 / 0380906+00162 / 0413259+00163 / 0426544!00164
0426728 00165 / 0426731 00166 / 0426751 00167 / 0426802 00169 / 0426806 00170
0426812 00171 / 0426860 00172 / 0426855 00176 / 0426860-00178 / 0340867-00180
0380906-00181 / 0413259-00184 / 0413305-00185 / 0413690-00186 / 0426544-00187
0426609-00188 / 0426635-00189 / 0426676-00190 / 0426685-00191 / 0426728-00192
0426731-00193 / 0426751-00194 / 0426802-00195 / 0426806-00196 / 0426812-00197
0426855-00198 / 0426887 00203 / 0426922 00205 / 0426908 00206 / 0426973 00207
0426935 00208 / 0426998 00209 / 0426999 00211 / 0427016 00212 / 0206212+00213
0362589+00214 / 0391904+00215 / 0392596+00216 / 0392602+00217 / 0427035 00218
0427043 00219 / 0427046 00220 / 0427050 00221 / 0300841+00223 / 0206229+00224
0206242+00225 / 0229948+00226 / 0248369+00227 / 0342317+00229 / 0342374+00230
0342392+00231 / 0342929+00232 / 0427088 00233 / 0427091 00234 / 0427098 00236
0427114 00237 / 0427103 00238 / 0361203+00241 / 0413157+00243 / 0427145 00244
0427178 00247 / 0427181 00248 / 0301781+00249 / 0408718+00250 / 0427204 00251
0427209 00252 / 0427212 00253 / 0427247 00254 / 0420804+00260 / 0427223 00261
0427224 00262 / 0427237 00264 / 0427240 00265 / 0427242 00266 / 0427244 00267
0409845+00269 / 0409852+00270 / 0409857+00271 / 0413978+00272 / 0413979+00273
0413985+00274 / 0413987+00275 / 0413988+00276 / 0427275 00278 / 0413990+00280
0413992+00281 / 0427282 00282 / 0427299 00283 / 0427307 00284 / 0427355 00288
0427358 00289 / 0427359 00290 / 0427358+00292 / 0266122+00295 / 0301181+00296
0424155+00298 / 0427378 00299 / 0427380 00300 / 0427380+00301 / 0427388 00303
0427393 00304 / 0427400 00305 / 0427399 00306 / 0321947+00307 / 0427402 00308
0427411 00310 / 0394417+00311 / 0427415 00312 / 0427417 00313 / 0427421 00314
0427422 00315 / 0427423 00316 / 0427426 00317 / 0427428 00318 / 0427429 00319
0427434 00320 / 0427435 00321 / 0427436 00322 / 0372829+00324 / 0424513+00325
0427470 00328

(+) RETRANSMIT - 00093
(!) CANCEL     - 00003
(-) RESENT     - 00018
(*) BROADCAST  - 00000
( ) NORMAL     - 00132

    TOTAL      - 00246


