BEC01  00664 NCOCa 02/06/02 17:48:34 A0062728-00A NORM NEW PLCE

North Carolina One Call

Ticket : A0062728 Date: 02/06/02 Time: 17:47 Oper: PLH Chan:999
Old Tkt: A0062728 Date: 02/06/02 Time: 17:47 Oper: PLH Rev :00A

State: NC Cnty: MECKLENBURG Place: CHARLOTTE OUT In/Out: B
Subdivision: CHURCHFIELD

Address :
Street  : CHURCHFIELD LN   Intersection: N
Cross 1 : CAROLINA ACADEMY RD
Location: LOCATE BOTH SIDES OF THE RD FROM XST FOR ENTIRE LENGTH OF THE RD FOR
APPROX 1/4 MILE
ALL INFO CALLER COULD GIVE, CALL IF QUESTIONS FOR RANDY
WORK WILL BEGIN AT DAY AND TIME ON TICKET
:
Grids   :

Work type:POWER INSTALLATION
Work date:02/08/02  Time: 17:47  Hours notice: 48/48  Priority: NORM
Ug/Oh/Both: U  Blasting: N  Boring: N  Railroad: N     Emergency: N
Duration: 3 MONTHS  Done for: DUKE POWER

Company : MASTEC  Type: CONT
Co addr : 5550-A WILKINSON BLVD
City    : CHARLOTTE State: NC Zip: 28208
Caller  : RANDY NORTON Phone: 704-393-2250
BestTime:

Remarks : --SEE ORIGINAL TICKET#: A0025484-00A
:
Submitted date: 02/06/02 Time: 17:47
Members: ABS01* ATT01  BEC01  CHA01  CSR01  CSR02  DPC1L* ETS01  MCI01  MCT02*
Members: NOC30P PLP01  PNG02* QST01  SBT31* VCN01*

~~~~~
BEC02  00140 NCOCa 02/06/02 17:48:39 A0062729-00A NORM NEW STRT

North Carolina One Call

Ticket : A0062729 Date: 02/06/02 Time: 17:46 Oper: JHM Chan:999
Old Tkt: A0062729 Date: 02/06/02 Time: 17:48 Oper: JHM Rev :00A

State: NC Cnty: GASTON Place: GASTONIA OUT In/Out: B
Subdivision: NONE

Address : 1660
Street  : PACOLET CT   Intersection: N
Cross 1 : JENKINS DAIRY RD
Location: HOW FAR IS THE JOB SITE FROM THE CLOSEST CROSS STREET? WITHIN 1/4
MILE....LOCATE ENTIRE PROPERTY INCLUDING THE HILL
:
Grids   : 3517C8113B   3517C8113C   3517D8113B   3517D8113C

Work type:INSTALL FENCE
Work date:02/08/02  Time: 17:46  Hours notice: 48/48  Priority: NORM
Ug/Oh/Both: U  Blasting: N  Boring: N  Railroad: N     Emergency: N
Duration: 1 DAY  Done for: SIGN CONNECTIONS

Company : BUSHCO FENCE  Type: OTHR
Co addr : P O BOX 195
City    : CASER State: NC Zip: 28020
Caller  : JESSICA DEW Phone: 704-538-8600
BestTime:

Submitted date: 02/06/02 Time: 17:48
Members: BEC02  COG01  CSR01  CSR02  DPC79* JIN01* NOC30P PSG05  REM01  SBT31*
Members: TBC01  TCP01  TCP03
~~~~~

BEC02  00141 NCOCa 02/06/02 18:09:17 A0062748-00A NORM NEW STRT

North Carolina One Call

Ticket : A0062748 Date: 02/06/02 Time: 18:07 Oper: JHM Chan:999
Old Tkt: A0062748 Date: 02/06/02 Time: 18:08 Oper: JHM Rev :00A

State: NC Cnty: BURKE Place: MORGANTON In/Out: B
Subdivision: NONE

Address : 2253
Street  : PROPST RD   Intersection: N
Cross 1 : HOPEWELL RD
Location: HOW FAR IS THE JOB SITE FROM THE CLOSEST CROSS STREET? ABOUT
700FT...LOCATE 30FT RADIUS AROUND THE POLE BESIDE THE RESIDENCE
:
Grids   : 3542D8143A- 3542D8144D-

Work type:SET ANCHORS
Work date:02/08/02  Time: 18:07  Hours notice: 48/48  Priority: NORM
Ug/Oh/Both: U  Blasting: N  Boring: N  Railroad: N     Emergency: N
Duration: 10 MINUTES  Done for: CHARTER COMMUNICATIONS

Company : SUNCOAST COMMUNICATIONS  Type: CONT
Co addr : 3207 HWY127 S
City    : HICKORY State: NC Zip: 28602
Caller  : RONNIE LAIL Phone: 828-294-0282
BestTime:

Submitted date: 02/06/02 Time: 18:08
Members: BEC02  BTV01  CSR01  DPC13* PRO01  REM02  SBT44*

~~~~~
BEC02  00049 NCOCc 02/06/02 18:17:51 C0032013-00C NORM NEW STRT

North Carolina One Call

Ticket : C0032013 Date: 02/06/02 Time: 18:13 Oper: SJM Chan:999
Old Tkt: C0032013 Date: 02/06/02 Time: 18:16 Oper: SJM Rev :00C

State: NC Cnty: GASTON Place: GASTONIA In/Out: B
Subdivision: GASTON COUNTRY CLUB ESTATES

Address : 1625
Street  : LAKEFIELD CIR   Intersection: N
Cross 1 : RAINTREE DR
Location: HOW FAR IS THE JOB SITE FROM THE CLOSEST CROSS STREET?    CROSS STREET
IS W/IN 1/4 MILE   LOCATE ENTIRE PROPERTY AND THE EMPTY LOT TO THE RIGHT OF THIS
ADDRESS ALL THE WAY TO THE DIP POLE    WORK WILL START AFTER 48HR NOTICE
:
Grids   : 3512A8109D

Work type:REPLACING PRIMARY
Work date:02/08/02  Time: 18:13  Hours notice: 48/48  Priority: NORM
Ug/Oh/Both: U  Blasting: N  Boring: N  Railroad: N     Emergency: N
Duration: 3 WEEKS  Done for: DUKE

Company : MASTEC  Type: CONT
Co addr : 5550-A WILKINSON BLVD
City    : CHARLOTTE State: NC Zip: 28208
Caller  : KENNY MASHBURN Phone: 704-393-2250
Contact : KENNY Phone: 704-506-6848
BestTime:

Submitted date: 02/06/02 Time: 18:16
Members: BEC02  COG01  COP01  CSR01  CSR02  DPC79* JIN01* NOC30P PSG05  REM01
Members: SBT31*

~~~~~
BEC02  00050 NCOCc 02/06/02 18:17:56 C0032015-00C NORM NEW STRT

North Carolina One Call

Ticket : C0032015 Date: 02/06/02 Time: 18:17 Oper: SJM Chan:999
Old Tkt: C0032015 Date: 02/06/02 Time: 18:17 Oper: SJM Rev :00C

State: NC Cnty: GASTON Place: GASTONIA In/Out: B
Subdivision: GASTON COUNTRY CLUB ESTATES

Address : 1633
Street  : LAKEFIELD CIR   Intersection: N
Cross 1 : RAINTREE DR
Location: HOW FAR IS THE JOB SITE FROM THE CLOSEST CROSS STREET?    CROSS STREET
IS W/IN 1/4 MILE   LOCATE ENTIRE PROPERTY    WORK WILL START AFTER 48HR NOTICE
:
Grids   : 3512A8109D

Work type:REPLACING PRIMARY
Work date:02/08/02  Time: 18:17  Hours notice: 48/48  Priority: NORM
Ug/Oh/Both: U  Blasting: N  Boring: N  Railroad: N     Emergency: N
Duration: 3 WEEKS  Done for: DUKE

Company : MASTEC  Type: CONT
Co addr : 5550-A WILKINSON BLVD
City    : CHARLOTTE State: NC Zip: 28208
Caller  : KENNY MASHBURN Phone: 704-393-2250
Contact : KENNY Phone: 704-506-6848
BestTime:

Submitted date: 02/06/02 Time: 18:17
Members: BEC02  COG01  COP01  CSR01  CSR02  DPC79* JIN01* NOC30P PSG05  REM01
Members: SBT31*

~~~~~
BEC02  00051 NCOCc 02/06/02 18:20:38 C0032016-00C NORM NEW STRT

North Carolina One Call

Ticket : C0032016 Date: 02/06/02 Time: 18:17 Oper: SJM Chan:999
Old Tkt: C0032016 Date: 02/06/02 Time: 18:18 Oper: SJM Rev :00C

State: NC Cnty: GASTON Place: GASTONIA In/Out: B
Subdivision: GASTON COUNTRY CLUB ESTATES

Address : 1641
Street  : LAKEFIELD CIR   Intersection: N
Cross 1 : RAINTREE DR
Location: HOW FAR IS THE JOB SITE FROM THE CLOSEST CROSS STREET?    CROSS STREET
IS W/IN 1/4 MILE   LOCATE ENTIRE PROPERTY  TO INCLUDE THE TWO EMPLY LOTS TO THE
LEFT OF ADDRESS(ONE IS WOODED AREA) TO THE DIP POLE THAT IS LOCATED IN THE
WOODED AREA   WORK WILL START AFTER 48HR NOTICE
:
Grids   : 3512A8109D

Work type:REPLACING PRIMARY
Work date:02/08/02  Time: 18:17  Hours notice: 48/48  Priority: NORM
Ug/Oh/Both: U  Blasting: N  Boring: N  Railroad: N     Emergency: N
Duration: 3 WEEKS  Done for: DUKE

Company : MASTEC  Type: CONT
Co addr : 5550-A WILKINSON BLVD
City    : CHARLOTTE State: NC Zip: 28208
Caller  : KENNY MASHBURN Phone: 704-393-2250
Contact : KENNY Phone: 704-506-6848
BestTime:

Submitted date: 02/06/02 Time: 18:18
Members: BEC02  COG01  COP01  CSR01  CSR02  DPC79* JIN01* NOC30P PSG05  REM01
Members: SBT31*

~~~~~
BEC02  00052 NCOCc 02/06/02 18:21:49 C0032018-00C NORM NEW STRT

North Carolina One Call

Ticket : C0032018 Date: 02/06/02 Time: 18:18 Oper: SJM Chan:999
Old Tkt: C0032018 Date: 02/06/02 Time: 18:20 Oper: SJM Rev :00C

State: NC Cnty: GASTON Place: GASTONIA In/Out: B
Subdivision: GASTON COUNTRY CLUB ESTATES

Address : 1641
Street  : RAINTREE DR   Intersection: N
Cross 1 : LAKEFIELD CIR
Cross 2 : STONEGATE CT
Location: HOW FAR IS THE JOB SITE FROM THE CLOSEST CROSS STREET?    CROSS STREET
IS W/IN 1/4 MILE   LOCATE BOTH SIDES OF RAINTREE DR STARTING AT LAKEFIELD CIR TO
STONEGATE CT  RD BORE   WORK WILL START AFTER 48HR NOTICE
:
Grids   : 3512*8109D-

Work type:REPLACING PRIMARY
Work date:02/08/02  Time: 18:18  Hours notice: 48/48  Priority: NORM
Ug/Oh/Both: U  Blasting: N  Boring: Y  Railroad: N     Emergency: N
Duration: 3 WEEKS  Done for: DUKE

Company : MASTEC  Type: CONT
Co addr : 5550-A WILKINSON BLVD
City    : CHARLOTTE State: NC Zip: 28208
Caller  : KENNY MASHBURN Phone: 704-393-2250
Contact : KENNY Phone: 704-506-6848
BestTime:

Submitted date: 02/06/02 Time: 18:20
Members: BEC02  COG01  COP01  CSR01  CSR02  DPC79* JIN01* NOC30P PSG05  REM01
Members: SBT31*

~~~~~
BEC02  00053 NCOCc 02/06/02 18:24:04 C0032020-00C NORM NEW STRT

North Carolina One Call

Ticket : C0032020 Date: 02/06/02 Time: 18:20 Oper: SJM Chan:999
Old Tkt: C0032020 Date: 02/06/02 Time: 18:23 Oper: SJM Rev :00C

State: NC Cnty: GASTON Place: GASTONIA In/Out: B
Subdivision: GASTON COUNTRY CLUB ESTATES

Address :
Street  : CLUB COLONY DR E   Intersection: N
Cross 1 : SHERWOOD CIR
Location: HOW FAR IS THE JOB SITE FROM THE CLOSEST CROSS STREET?    CROSS STREET
IS W/IN 1/4 MILE   LOCATE BOTH SIDES OF CLUB COLONY DR E FOR THE ENTIRE LENGTH
RD BORE   ANY QUESTIONS CALL KENNY AT 704-506-6848      WORK WILL START AFTER
48HR NOTICE
:
Grids   : 3512A8109C   3512A8109D   3512B8109C   3512B8109D

Work type:REPLACING PRIMARY
Work date:02/08/02  Time: 18:20  Hours notice: 48/48  Priority: NORM
Ug/Oh/Both: U  Blasting: N  Boring: Y  Railroad: N     Emergency: N
Duration: 3 WEEKS  Done for: DUKE

Company : MASTEC  Type: CONT
Co addr : 5550-A WILKINSON BLVD
City    : CHARLOTTE State: NC Zip: 28208
Caller  : KENNY MASHBURN Phone: 704-393-2250
Contact : KENNY Phone: 704-506-6848
BestTime:

Submitted date: 02/06/02 Time: 18:23
Members: BEC02  COG01  COP01  CSR01  CSR02  DPC79* JIN01* NOC30P PSG05  REM01
Members: SBT31*

~~~~~
BEC02  00054 NCOCc 02/06/02 18:25:11 C0032021-00C NORM NEW STRT

North Carolina One Call

Ticket : C0032021 Date: 02/06/02 Time: 18:23 Oper: SJM Chan:999
Old Tkt: C0032021 Date: 02/06/02 Time: 18:24 Oper: SJM Rev :00C

State: NC Cnty: GASTON Place: GASTONIA In/Out: B
Subdivision: GASTON COUNTRY CLUB ESTATES

Address : 3628
Street  : RAINTREE DR   Intersection: N
Cross 1 : LAKEFIELD CIR
Location: HOW FAR IS THE JOB SITE FROM THE CLOSEST CROSS STREET?    CROSS STREET
IS W/IN 1/4 MILE     LOCATE ENTIRE PROPERTY   ANY QUESTIONS CALL KENNY AT
704-506-6848   WORK WILL START AFTER 48HR NOTICE
:
Grids   : 3512A8109D

Work type:REPLACING PRIMARY
Work date:02/08/02  Time: 18:23  Hours notice: 48/48  Priority: NORM
Ug/Oh/Both: U  Blasting: N  Boring: N  Railroad: N     Emergency: N
Duration: 3 WEEKS  Done for: DUKE

Company : MASTEC  Type: CONT
Co addr : 5550-A WILKINSON BLVD
City    : CHARLOTTE State: NC Zip: 28208
Caller  : KENNY MASHBURN Phone: 704-393-2250
Contact : KENNY Phone: 704-506-6848
BestTime:

Submitted date: 02/06/02 Time: 18:24
Members: BEC02  COG01  COP01  CSR01  CSR02  DPC79* JIN01* NOC30P PSG05  REM01
Members: SBT31*

~~~~~
BEC02  00055 NCOCc 02/06/02 18:25:16 C0032022-00C NORM NEW STRT

North Carolina One Call

Ticket : C0032022 Date: 02/06/02 Time: 18:24 Oper: SJM Chan:999
Old Tkt: C0032022 Date: 02/06/02 Time: 18:24 Oper: SJM Rev :00C

State: NC Cnty: GASTON Place: GASTONIA In/Out: B
Subdivision: GASTON COUNTRY CLUB ESTATES

Address : 3629
Street  : RAINTREE DR   Intersection: N
Cross 1 : LAKEFIELD CIR
Location: HOW FAR IS THE JOB SITE FROM THE CLOSEST CROSS STREET?    CROSS STREET
IS W/IN 1/4 MILE     LOCATE ENTIRE PROPERTY   ANY QUESTIONS CALL KENNY AT
704-506-6848   WORK WILL START AFTER 48HR NOTICE
:
Grids   : 3512A8109D

Work type:REPLACING PRIMARY
Work date:02/08/02  Time: 18:24  Hours notice: 48/48  Priority: NORM
Ug/Oh/Both: U  Blasting: N  Boring: N  Railroad: N     Emergency: N
Duration: 3 WEEKS  Done for: DUKE

Company : MASTEC  Type: CONT
Co addr : 5550-A WILKINSON BLVD
City    : CHARLOTTE State: NC Zip: 28208
Caller  : KENNY MASHBURN Phone: 704-393-2250
Contact : KENNY Phone: 704-506-6848
BestTime:

Submitted date: 02/06/02 Time: 18:24
Members: BEC02  COG01  COP01  CSR01  CSR02  DPC79* JIN01* NOC30P PSG05  REM01
Members: SBT31*

~~~~~
BEC02  00056 NCOCc 02/06/02 18:25:21 C0032023-00C NORM NEW STRT

North Carolina One Call

Ticket : C0032023 Date: 02/06/02 Time: 18:24 Oper: SJM Chan:999
Old Tkt: C0032023 Date: 02/06/02 Time: 18:24 Oper: SJM Rev :00C

State: NC Cnty: GASTON Place: GASTONIA In/Out: B
Subdivision: GASTON COUNTRY CLUB ESTATES

Address : 3639
Street  : RAINTREE DR   Intersection: N
Cross 1 : LAKEFIELD CIR
Location: HOW FAR IS THE JOB SITE FROM THE CLOSEST CROSS STREET?    CROSS STREET
IS W/IN 1/4 MILE     LOCATE ENTIRE PROPERTY   ANY QUESTIONS CALL KENNY AT
704-506-6848   WORK WILL START AFTER 48HR NOTICE
:
Grids   : 3512A8109D

Work type:REPLACING PRIMARY
Work date:02/08/02  Time: 18:24  Hours notice: 48/48  Priority: NORM
Ug/Oh/Both: U  Blasting: N  Boring: N  Railroad: N     Emergency: N
Duration: 3 WEEKS  Done for: DUKE

Company : MASTEC  Type: CONT
Co addr : 5550-A WILKINSON BLVD
City    : CHARLOTTE State: NC Zip: 28208
Caller  : KENNY MASHBURN Phone: 704-393-2250
Contact : KENNY Phone: 704-506-6848
BestTime:

Submitted date: 02/06/02 Time: 18:24
Members: BEC02  COG01  COP01  CSR01  CSR02  DPC79* JIN01* NOC30P PSG05  REM01
Members: SBT31*

~~~~~
BEC02  00057 NCOCc 02/06/02 18:27:32 C0032024-00C NORM NEW STRT

North Carolina One Call

Ticket : C0032024 Date: 02/06/02 Time: 18:25 Oper: SJM Chan:999
Old Tkt: C0032024 Date: 02/06/02 Time: 18:26 Oper: SJM Rev :00C

State: NC Cnty: GASTON Place: GASTONIA In/Out: B
Subdivision: GASTON COUNTRY CLUB ESTATES

Address : 1642
Street  : STONEGATE CT   Intersection: N
Cross 1 : RAINTREE DR
Location: HOW FAR IS THE JOB SITE FROM THE CLOSEST CROSS STREET?    CROSS STREET
IS W/IN 1/4 MILE     LOCATE ENTIRE PROPERTY AND THE ENTIRE PROPERTY OF THE HOUSE
TO THE RIGHT OF THIS ADDRESS THAT HAS NO ADDRESS ONLY TWO HOUSES ON STONEGATE CT
LEFT OF THE CUL DA SAC   ANY QUESTIONS CALL KENNY AT 704-506-6848   WORK WILL
START AFTER 48HR NOTICE
:
Grids   : 3512A8109D

Work type:REPLACING PRIMARY
Work date:02/08/02  Time: 18:25  Hours notice: 48/48  Priority: NORM
Ug/Oh/Both: U  Blasting: N  Boring: N  Railroad: N     Emergency: N
Duration: 3 WEEKS  Done for: DUKE

Company : MASTEC  Type: CONT
Co addr : 5550-A WILKINSON BLVD
City    : CHARLOTTE State: NC Zip: 28208
Caller  : KENNY MASHBURN Phone: 704-393-2250
Contact : KENNY Phone: 704-506-6848
BestTime:

Submitted date: 02/06/02 Time: 18:26
Members: BEC02  COG01  COP01  CSR01  CSR02  DPC79* JIN01* NOC30P PSG05  REM01
Members: SBT31*

~~~~~
BEC02  00058 NCOCc 02/06/02 18:28:35 C0032025-00C NORM NEW STRT

North Carolina One Call

Ticket : C0032025 Date: 02/06/02 Time: 18:26 Oper: SJM Chan:999
Old Tkt: C0032025 Date: 02/06/02 Time: 18:27 Oper: SJM Rev :00C

State: NC Cnty: GASTON Place: GASTONIA In/Out: B
Subdivision: GASTON COUNTRY CLUB ESTATES

Address : 3749
Street  : SANDWEDGE DR   Intersection: N
Cross 1 : TURF CT
Location: HOW FAR IS THE JOB SITE FROM THE CLOSEST CROSS STREET?    CROSS STREET
IS W/IN 1/4 MILE     LOCATE ENTIRE PROPERTY    ANY QUESTIONS CALL KENNY AT
704-506-6848   WORK WILL START AFTER 48HR NOTICE
:
Grids   : 3512A8109C

Work type:REPLACING PRIMARY
Work date:02/08/02  Time: 18:26  Hours notice: 48/48  Priority: NORM
Ug/Oh/Both: U  Blasting: N  Boring: N  Railroad: N     Emergency: N
Duration: 3 WEEKS  Done for: DUKE

Company : MASTEC  Type: CONT
Co addr : 5550-A WILKINSON BLVD
City    : CHARLOTTE State: NC Zip: 28208
Caller  : KENNY MASHBURN Phone: 704-393-2250
Contact : KENNY Phone: 704-506-6848
BestTime:

Submitted date: 02/06/02 Time: 18:27
Members: BEC02  COG01  COP01  CSR01  CSR02  DPC79* JIN01* NOC30P PSG05  REM01
Members: SBT31*

~~~~~
BEC02  00059 NCOCc 02/06/02 18:28:40 C0032027-00C NORM NEW STRT

North Carolina One Call

Ticket : C0032027 Date: 02/06/02 Time: 18:27 Oper: SJM Chan:999
Old Tkt: C0032027 Date: 02/06/02 Time: 18:28 Oper: SJM Rev :00C

State: NC Cnty: GASTON Place: GASTONIA In/Out: B
Subdivision: GASTON COUNTRY CLUB ESTATES

Address : 3759
Street  : SANDWEDGE DR   Intersection: N
Cross 1 : TURF CT
Location: HOW FAR IS THE JOB SITE FROM THE CLOSEST CROSS STREET?    CROSS STREET
IS W/IN 1/4 MILE     LOCATE ENTIRE PROPERTY    ANY QUESTIONS CALL KENNY AT
704-506-6848   WORK WILL START AFTER 48HR NOTICE
:
Grids   : 3512A8109C   3512A8109D

Work type:REPLACING PRIMARY
Work date:02/08/02  Time: 18:27  Hours notice: 48/48  Priority: NORM
Ug/Oh/Both: U  Blasting: N  Boring: N  Railroad: N     Emergency: N
Duration: 3 WEEKS  Done for: DUKE

Company : MASTEC  Type: CONT
Co addr : 5550-A WILKINSON BLVD
City    : CHARLOTTE State: NC Zip: 28208
Caller  : KENNY MASHBURN Phone: 704-393-2250
Contact : KENNY Phone: 704-506-6848
BestTime:

Submitted date: 02/06/02 Time: 18:28
Members: BEC02  COG01  COP01  CSR01  CSR02  DPC79* JIN01* NOC30P PSG05  REM01
Members: SBT31*

~~~~~
BEC01  00380 NCOCc 02/06/02 18:28:45 C0032026-00C NORM NEW STRT

North Carolina One Call

Ticket : C0032026 Date: 02/06/02 Time: 18:24 Oper: PEH Chan:999
Old Tkt: C0032026 Date: 02/06/02 Time: 18:27 Oper: PEH Rev :00C

State: NC Cnty: ROWAN Place: SALISBURY In/Out: B
Subdivision: NO

Address : 1415
Street  : JAKE ALEXANDER BLVD S   Intersection: N
Cross 1 : I85
Location: HOW FAR IS THE JOB SITE FROM THE CLOSEST CROSS STREET? CROSS STREET IS
W/IN 1/4 MILE       BSN:  VOIGHT PAPER SE       LOCATE ENTIRE PROPERTY
WORK WILL START AFTER 48HR NOTICE
:
Grids   : 3538*8028*-

Work type:SOIL TEST BORES
Work date:02/08/02  Time: 18:24  Hours notice: 48/48  Priority: NORM
Ug/Oh/Both: U  Blasting: N  Boring: N  Railroad: N     Emergency: N
Duration: 1-2 DAYS  Done for: VOIGHT PAPER

Company : MC LAREN/ HART  Type: OTHR
Co addr :
City    : PEWAUKEE State: WI Zip: 53072
Caller  : GEORGE BAYER Phone: 262-523-2040
BestTime:

Submitted date: 02/06/02 Time: 18:27
Members: BEC01  CSR01  CSR02  DPC21* MCI01  PNG05* PRO01  SAL01  SBT44* SVC01*
