WGL904 *EOD* VUPSb 02/07/08 00:03:26

********************************************************************************
        THIS IS YOUR END OF DAY TICKET SUMMARY FOR 02/06/08 FROM VUPS
********************************************************************************

00001 B803602702-00B 00:03 N  00002 B803700002-00B 06:23 N
00003 B803700003-00B 06:42 N  00004 B803700009-00B 06:57 N
00005 B803200531-00B 07:00 NL 00006 B803201475-00B 07:00 NL
00007 B803201564-00B 07:00 NL 00008 B803201710-00B 07:00 NL
00009 B803700016-00B 07:17 N  00010 B803700017-00B 07:17 N
00011 B803700021-00B 07:19 N  00012 B803700022-00B 07:20 N
00013 B803700032-00B 07:36 N  00014 B803700043-00B 07:39 NU
00015 B803700044-00B 07:39 NU 00016 B803100530-01B 07:46 EY
00017 B803700052-00B 07:46 NU 00018 B803700053-00B 07:47 NK
00019 B803700055-00B 07:47 NU 00020 B802401618-01B 07:51 EY
00021 B802401627-01B 07:54 EY 00022 B803700084-00B 08:00 N
00023 B803700107-00B 08:09 N  00024 B803700115-00B 08:14 N
00025 B803700127-00B 08:17 N  00026 B803700129-00B 08:17 N
00027 B803700136-00B 08:19 NU 00028 B803700138-00B 08:19 NU
00029 B803700142-00B 08:20 NU 00030 B803700153-00B 08:22 N
00031 B803700155-00B 08:23 NU 00032 B803700158-00B 08:23 NU
00033 B803700161-00B 08:23 NU 00034 B803700163-00B 08:24 N
00035 B803700164-00B 08:24 NU 00036 B803700165-00B 08:24 NU
00037 B803700170-00B 08:25 EE 00038 B803700171-00B 08:25 N
00039 B803700174-00B 08:26 NU 00040 B803700178-00B 08:26 N
00041 B803700179-00B 08:26 NU 00042 B803700181-00B 08:26 NU
00043 B803700184-00B 08:27 NU 00044 B803700186-00B 08:27 NU
00045 B803700189-00B 08:28 N  00046 B803700191-00B 08:28 N
00047 B803700192-00B 08:28 NU 00048 B803700199-00B 08:29 NU
00049 B803700208-00B 08:30 NU 00050 B803700214-00B 08:31 N
00051 B803700216-00B 08:32 NU 00052 B803700219-00B 08:33 N
00053 B803700221-00B 08:33 NU 00054 B803700225-00B 08:34 NU
00055 B803700229-00B 08:35 NU 00056 B803700231-00B 08:36 N
00057 B803700232-00B 08:36 N  00058 B803700233-00B 08:36 N
00059 B803700240-00B 08:39 N  00060 B803700245-00B 08:40 N
00061 B803700257-00B 08:42 N  00062 B803700263-00B 08:43 EE
00063 B803700262-00B 08:43 N  00064 B803700264-00B 08:43 N
00065 B803700268-00B 08:43 N  00066 B803700277-00B 08:45 N
00067 B803700279-00B 08:45 N  00068 B803700286-00B 08:47 EE
00069 B803700295-00B 08:49 N  00070 B803700299-00B 08:50 N
00071 B803700309-00B 08:51 N  00072 B803700318-00B 08:54 N
00073 B803700322-00B 08:55 NU 00074 B803700323-00B 08:55 NU
00075 B803700329-00B 08:57 N  00076 B803700332-00B 08:58 N
00077 B803700336-00B 08:59 NU 00078 B803700337-00B 08:59 N
00079 B803700341-00B 09:01 N  00080 B803700346-00B 09:03 N
00081 B803700349-00B 09:04 N  00082 B803700355-00B 09:06 N
00083 B803700357-00B 09:07 EE 00084 B803700359-00B 09:09 N
00085 B803700360-00B 09:09 N  00086 B803700361-00B 09:10 N
00087 B803700362-00B 09:10 NU 00088 B803700364-00B 09:11 N
00089 B803700366-00B 09:12 NU 00090 B803700375-00B 09:14 N
00091 B803700376-00B 09:14 N  00092 B803700377-00B 09:15 EE
00093 B803700379-00B 09:15 NU 00094 B803700384-00B 09:16 N
00095 B803700386-00B 09:16 N  00096 B803700392-00B 09:18 N
00097 B803700395-00B 09:18 NU 00098 B803700397-00B 09:20 N
00099 B803700401-00B 09:22 N  00100 B803700402-00B 09:22 NU
00101 B803700404-00B 09:22 EE 00102 B803700403-00B 09:22 NU
00103 B803700412-00B 09:24 NU 00104 B803700421-00B 09:25 N
00105 B803700424-00B 09:26 NU 00106 B803700427-00B 09:27 N
00107 B803700430-00B 09:27 N  00108 B803700433-00B 09:29 NU
00109 B803700434-00B 09:29 N  00110 B803700435-00B 09:30 N
00111 B803700437-00B 09:30 N  00112 B803700439-00B 09:31 N
00113 B803700441-00B 09:31 N  00114 B803700442-00B 09:31 NU
00115 B803700450-00B 09:33 N  00116 B803700451-00B 09:33 NU
00117 B803700453-00B 09:34 N  00118 B803700457-00B 09:36 N
00119 B803201409-01B 09:38 EY 00120 B803700466-00B 09:38 N
00121 B803700467-00B 09:39 NU 00122 B803700473-00B 09:40 N
00123 B803700475-00B 09:41 N  00124 B803700480-00B 09:42 N
00125 B803700486-00B 09:43 N  00126 B803700487-00B 09:44 NU
00127 B803700499-00B 09:47 N  00128 B803700501-00B 09:48 NK
00129 B803700508-00B 09:51 N  00130 B803700520-00B 09:54 NU
00131 B803700521-00B 09:54 N  00132 B803700535-00B 09:58 NU
00133 B803700541-00B 10:00 NU 00134 B803700543-00B 10:00 NU
00135 B803700545-00B 10:01 NU 00136 B803700547-00B 10:01 NU
00137 B803700549-00B 10:02 NU 00138 B803700551-00B 10:02 NU
00139 B803700558-00B 10:05 N  00140 B803700560-00B 10:07 N
00141 B803700584-00B 10:17 N  00142 B803700594-00B 10:21 N
00143 B803700595-00B 10:21 NU 00144 B803700600-00B 10:22 N
00145 B803700601-00B 10:22 NU 00146 B803700603-00B 10:22 NU
00147 B803700600-01B 10:22 NR 00148 B803700604-00B 10:23 N
00149 B803700605-00B 10:23 NU 00150 B803700609-00B 10:25 N
00151 B803700611-00B 10:26 N  00152 B803700612-00B 10:26 N
00153 B803700614-00B 10:27 N  00154 B803700615-00B 10:27 N
00155 B803700617-00B 10:28 N  00156 B803700620-00B 10:29 N
00157 B803700628-00B 10:34 N  00158 B803700629-00B 10:34 N
00159 B803700643-00B 10:40 N  00160 B803700644-00B 10:40 N
00161 B803700649-00B 10:41 N  00162 B803700650-00B 10:42 NK
00163 B803700653-00B 10:43 N  00164 B803700656-00B 10:44 N
00165 B803700659-00B 10:44 N  00166 B803700663-00B 10:45 N
00167 B803700667-00B 10:46 N  00168 B803700672-00B 10:47 N
00169 B803700673-00B 10:47 N  00170 B803700680-00B 10:49 N
00171 B803700681-00B 10:49 NU 00172 B803700684-00B 10:50 NU
00173 B803700688-00B 10:51 N  00174 B803700689-00B 10:51 NU
00175 B803700691-00B 10:52 NU 00176 B803700697-00B 10:53 NU
00177 B803700699-00B 10:55 NU 00178 B803700710-00B 10:57 N
00179 B803700714-00B 10:59 N  00180 B803700717-00B 10:59 N
00181 B803700718-00B 11:00 N  00182 B803700726-00B 11:03 N
00183 B803700730-00B 11:05 N  00184 B803700731-00B 11:06 N
00185 B803700733-00B 11:07 N  00186 B803700735-00B 11:07 N
00187 B803700737-00B 11:08 N  00188 B803700738-00B 11:08 N
00189 B803700740-00B 11:09 N  00190 B803700741-00B 11:10 N
00191 B803700742-00B 11:10 N  00192 B803700747-00B 11:12 N
00193 B803700749-00B 11:12 N  00194 B803700751-00B 11:13 N
00195 B803700754-00B 11:15 N  00196 B803700755-00B 11:16 N
00197 B803700758-00B 11:17 N  00198 B803700761-00B 11:19 N
00199 B803700763-00B 11:21 N  00200 B803700765-00B 11:22 EE
00201 B803700769-00B 11:24 N  00202 B803700771-00B 11:25 N
00203 B803700772-00B 11:25 N  00204 B803700774-00B 11:26 N
00205 B803700777-00B 11:27 N  00206 B803700781-00B 11:29 N
00207 B803700785-00B 11:30 N  00208 B803700787-00B 11:33 N
00209 B803700788-00B 11:33 N  00210 B803700791-00B 11:34 N
00211 B803700792-00B 11:34 N  00212 B803700793-00B 11:35 N
00213 B803700795-00B 11:35 N  00214 B803700796-00B 11:36 N
00215 B803700797-00B 11:36 N  00216 B803700802-00B 11:37 N
00217 B803700804-00B 11:38 N  00218 B803700808-00B 11:38 N
00219 B803700812-00B 11:40 N  00220 B803700813-00B 11:40 N
00221 B803700815-00B 11:41 N  00222 B803700816-00B 11:41 N
00223 B803700818-00B 11:42 EE 00224 B803700819-00B 11:42 N
00225 B803700822-00B 11:42 N  00226 B803700828-00B 11:44 NK
00227 B803700830-00B 11:44 NK 00228 B803700834-00B 11:45 NK
00229 B803501881-01B 11:48 EC 00230 B803700844-00B 11:48 N
00231 B803700845-00B 11:49 N  00232 B803700859-00B 11:51 N
00233 B803700871-00B 11:54 N  00234 B803700872-00B 11:54 N
00235 B803700880-00B 11:56 N  00236 B803700906-00B 12:04 N
00237 B803700913-00B 12:07 N  00238 B803700932-00B 12:11 N
00239 B803700939-00B 12:13 N  00240 B803700947-00B 12:16 N
00241 B803700955-00B 12:18 N  00242 B803700956-00B 12:19 N
00243 B803700957-00B 12:19 N  00244 B803700964-00B 12:20 N
00245 B803700972-00B 12:22 N  00246 B803700973-00B 12:22 N
00247 B803700976-00B 12:24 N  00248 B803700994-00B 12:29 N
00249 B803701000-00B 12:32 N  00250 B803701004-00B 12:32 N
00251 B803701010-00B 12:34 N  00252 B803701011-00B 12:34 N
00253 B803701012-00B 12:35 N  00254 B803701013-00B 12:35 N
00255 B803701014-00B 12:35 N  00256 B803701017-00B 12:36 N
00257 B803701024-00B 12:39 N  00258 B803701030-00B 12:41 N
00259 B803701031-00B 12:41 N  00260 B803701033-00B 12:41 N
00261 B803701034-00B 12:41 N  00262 B803701038-00B 12:42 NK
00263 B803701040-00B 12:43 NK 00264 B803701053-00B 12:45 N
00265 A803700517-01B 12:46 NR 00266 B803701060-00B 12:46 N
00267 B803701061-00B 12:46 N  00268 B803701065-00B 12:48 N
00269 B803701066-00B 12:48 N  00270 B803701069-00B 12:48 N
00271 B803701072-00B 12:49 N  00272 B803701075-00B 12:50 N
00273 B803701076-00B 12:50 N  00274 B803701077-00B 12:50 N
00275 A803001022-01B 12:51 EY 00276 B803701084-00B 12:52 N
00277 B803701087-00B 12:52 N  00278 B803701094-00B 12:56 N
00279 B803701103-00B 12:58 N  00280 B803701117-00B 13:01 N
00281 B803701119-00B 13:02 N  00282 B803701122-00B 13:03 N
00283 B803701137-00B 13:06 N  00284 B803701138-00B 13:07 N
00285 B803701140-00B 13:07 N  00286 B803701144-00B 13:08 N
00287 B803701148-00B 13:09 N  00288 B803701151-00B 13:10 N
00289 B803701152-00B 13:10 NK 00290 B803701154-00B 13:10 N
00291 B803701155-00B 13:11 NK 00292 B803701156-00B 13:11 N
00293 B803701157-00B 13:11 NK 00294 B803701161-00B 13:12 N
00295 B803701163-00B 13:12 N  00296 B803701166-00B 13:13 N
00297 B803701168-00B 13:13 N  00298 B803701173-00B 13:14 N
00299 B803701179-00B 13:16 N  00300 B803701191-00B 13:18 N
00301 B803701192-00B 13:18 N  00302 B803701194-00B 13:19 N
00303 B803701196-00B 13:20 N  00304 B803701197-00B 13:20 N
00305 B803701199-00B 13:21 N  00306 B803701202-00B 13:22 N
00307 B803701203-00B 13:22 N  00308 B803701205-00B 13:23 N
00309 B803701207-00B 13:23 N  00310 B803701209-00B 13:23 N
00311 B803701212-00B 13:24 N  00312 B803701214-00B 13:24 N
00313 B803701217-00B 13:25 N  00314 B803701230-00B 13:28 N
00315 B803701233-00B 13:29 N  00316 B803701236-00B 13:30 N
00317 B803701240-00B 13:31 N  00318 B803701243-00B 13:32 N
00319 B803701244-00B 13:32 N  00320 B803701250-00B 13:33 N
00321 B803701252-00B 13:33 N  00322 B803701254-00B 13:34 N
00323 B803701255-00B 13:34 N  00324 B803701259-00B 13:35 N
00325 B803701260-00B 13:35 N  00326 B803701261-00B 13:35 N
00327 B803701262-00B 13:35 N  00328 B803701265-00B 13:36 N
00329 B803701267-00B 13:36 N  00330 B803701268-00B 13:36 NU
00331 B803701269-00B 13:37 NU 00332 B803701271-00B 13:37 N
00333 B803701274-00B 13:37 N  00334 B803701275-00B 13:37 N
00335 B803701292-00B 13:41 N  00336 B803701305-00B 13:44 N
00337 B803701315-00B 13:46 N  00338 B803701319-00B 13:47 N
00339 B803701324-00B 13:48 N  00340 B803701325-00B 13:48 N
00341 B803701339-00B 13:52 N  00342 B803701343-00B 13:52 N
00343 B803701355-00B 13:54 N  00344 B803701361-00B 13:56 N
00345 B803701376-00B 14:02 N  00346 B803701377-00B 14:02 N
00347 B803701381-00B 14:04 N  00348 B803701387-00B 14:06 N
00349 B803701412-00B 14:14 N  00350 B803701413-00B 14:14 N
00351 B803701418-00B 14:15 N  00352 B803701422-00B 14:16 NU
00353 B803701425-00B 14:17 NU 00354 B803701428-00B 14:17 N
00355 B803701434-00B 14:19 NU 00356 B803701439-00B 14:20 NU
00357 B803701440-00B 14:20 N  00358 B803701441-00B 14:20 N
00359 B803701445-00B 14:20 NU 00360 B803701446-00B 14:21 NU
00361 B803701449-00B 14:21 N  00362 B803701450-00B 14:22 NU
00363 B803701454-00B 14:22 NU 00364 B803701455-00B 14:23 NU
00365 B803701458-00B 14:24 NU 00366 B803701463-00B 14:25 NU
00367 B803701464-00B 14:25 N  00368 B803701465-00B 14:25 NU
00369 B803701466-00B 14:25 NU 00370 B803701470-00B 14:26 NU
00371 B803701471-00B 14:26 NU 00372 B803701475-00B 14:27 NU
00373 B803701477-00B 14:28 NU 00374 B803701478-00B 14:28 NU
00375 B803701479-00B 14:28 NU 00376 B803701480-00B 14:29 NU
00377 B803701481-00B 14:29 NU 00378 B803701486-00B 14:29 NU
00379 B803701488-00B 14:30 NU 00380 B803701490-00B 14:30 NU
00381 B803701492-00B 14:30 NU 00382 B803701495-00B 14:30 NU
00383 B803701497-00B 14:31 N  00384 B803701498-00B 14:31 N
00385 B803701499-00B 14:31 NU 00386 B803701504-00B 14:33 N
00387 B803701509-00B 14:33 N  00388 B803701511-00B 14:34 N
00389 B803701514-00B 14:35 N  00390 B803701516-00B 14:36 N
00391 B803701521-00B 14:38 N  00392 B803701524-00B 14:39 N
00393 B803701528-00B 14:40 N  00394 B803701529-00B 14:40 N
00395 B803701533-00B 14:42 N  00396 B803701547-00B 14:46 NU
00397 B803701553-00B 14:47 N  00398 B803701555-00B 14:47 N
00399 B803701558-00B 14:48 N  00400 B803701563-00B 14:49 N
00401 B803701566-00B 14:50 N  00402 B803701571-00B 14:51 N
00403 B803701577-00B 14:52 NU 00404 B803701578-00B 14:52 N
00405 B803701582-00B 14:53 N  00406 B803701584-00B 14:53 NU
00407 B803701591-00B 14:56 N  00408 B803701595-00B 14:56 N
00409 B803701597-00B 14:57 NK 00410 B803701598-00B 14:57 N
00411 B803701601-00B 14:58 N  00412 B803701604-00B 14:58 N
00413 B803701606-00B 14:58 N  00414 B803701608-00B 14:59 N
00415 B803701612-00B 15:00 N  00416 B803701613-00B 15:00 N
00417 B803701617-00B 15:01 N  00418 B803701619-00B 15:01 N
00419 B803701621-00B 15:01 N  00420 B803701624-00B 15:02 N
00421 B803701630-00B 15:02 N  00422 B803701633-00B 15:03 N
00423 B803701635-00B 15:03 N  00424 B803701636-00B 15:03 N
00425 A803100299-01B 15:03 EY 00426 B803701641-00B 15:04 N
00427 B803701642-00B 15:04 N  00428 B803701643-00B 15:04 N
00429 B803701647-00B 15:06 N  00430 A803100319-01B 15:06 EY
00431 B803701651-00B 15:06 N  00432 B803701653-00B 15:07 N
00433 B803701659-00B 15:08 N  00434 B803701664-00B 15:10 N
00435 B803701667-00B 15:10 N  00436 B803701672-00B 15:11 N
00437 B803701674-00B 15:12 N  00438 B803701677-00B 15:12 N
00439 B803701679-00B 15:13 N  00440 B803701680-00B 15:13 NU
00441 B803701681-00B 15:13 N  00442 B803701682-00B 15:13 N
00443 B803701685-00B 15:14 N  00444 B803701688-00B 15:14 N
00445 B803701690-00B 15:15 N  00446 B803701696-00B 15:16 N
00447 B803701697-00B 15:16 N  00448 B803701698-00B 15:16 N
00449 B803701699-00B 15:16 N  00450 B803701703-00B 15:16 N
00451 B803701705-00B 15:17 N  00452 B803701708-00B 15:17 N
00453 B803701712-00B 15:18 N  00454 B803701719-00B 15:19 N
00455 B803701721-00B 15:20 N  00456 B803701741-00B 15:23 N
00457 B803701745-00B 15:23 N  00458 B803701787-00B 15:31 N
00459 B803701798-00B 15:34 N  00460 B803701803-00B 15:35 N
00461 B803701812-00B 15:36 N  00462 B803701813-00B 15:37 EE
00463 B803701814-00B 15:37 N  00464 B803701816-00B 15:37 N
00465 B803701818-00B 15:37 N  00466 B803701823-00B 15:38 N
00467 B803701826-00B 15:38 N  00468 B803701828-00B 15:39 N
00469 B803701829-00B 15:40 N  00470 B803701830-00B 15:40 N
00471 B803701833-00B 15:41 N  00472 B803701839-00B 15:42 N
00473 B803701848-00B 15:43 N  00474 B803701849-00B 15:43 N
00475 B803701851-00B 15:43 N  00476 B803701853-00B 15:44 N
00477 B803701857-00B 15:44 N  00478 B803701859-00B 15:45 N
00479 B803701862-00B 15:45 N  00480 B803701863-00B 15:45 N
00481 B803701866-00B 15:46 N  00482 B803701867-00B 15:46 N
00483 B803701870-00B 15:46 N  00484 B803701874-00B 15:48 N
00485 B803701875-00B 15:48 N  00486 B803701877-00B 15:48 N
00487 B803701881-00B 15:49 N  00488 B803701888-00B 15:50 N
00489 B803701889-00B 15:50 N  00490 B803701894-00B 15:50 N
00491 B803701896-00B 15:51 N  00492 B803701899-00B 15:51 N
00493 B803701901-00B 15:51 N  00494 B803701905-00B 15:52 N
00495 B803701908-00B 15:52 N  00496 B803701914-00B 15:52 N
00497 B803701916-00B 15:52 N  00498 B803701917-00B 15:52 N
00499 B803701923-00B 15:53 N  00500 B803701924-00B 15:53 N
00501 B803701927-00B 15:53 N  00502 B803701930-00B 15:54 N
00503 B803701931-00B 15:54 NU 00504 B803701935-00B 15:55 N
00505 B803701937-00B 15:55 N  00506 B803701940-00B 15:55 N
00507 B803701943-00B 15:56 N  00508 B803701946-00B 15:56 N
00509 B803701951-00B 15:57 N  00510 B803701955-00B 15:57 N
00511 B803701957-00B 15:57 N  00512 B803701959-00B 15:58 N
00513 B803701961-00B 15:59 N  00514 B803701964-00B 15:59 N
00515 B803701965-00B 15:59 N  00516 B803701966-00B 15:59 N
00517 B803701968-00B 16:00 N  00518 B803701969-00B 16:00 N
00519 B803701970-00B 16:00 N  00520 B803701972-00B 16:00 N
00521 B803701976-00B 16:01 N  00522 B803701977-00B 16:01 N
00523 B803701978-00B 16:01 N  00524 B803701984-00B 16:02 EE
00525 B803701985-00B 16:02 N  00526 B803701986-00B 16:02 N
00527 B803701990-00B 16:03 N  00528 B803701994-00B 16:04 N
00529 B803701996-00B 16:04 N  00530 B803701997-00B 16:05 N
00531 B803702004-00B 16:05 N  00532 B803702005-00B 16:06 N
00533 B803702006-00B 16:06 N  00534 B803702007-00B 16:06 N
00535 B803702009-00B 16:07 N  00536 B803702010-00B 16:07 N
00537 B803702012-00B 16:07 N  00538 B803702014-00B 16:07 N
00539 B803702018-00B 16:08 N  00540 B803702023-00B 16:09 N
00541 B803702024-00B 16:09 N  00542 B803702025-00B 16:09 N
00543 B803702030-00B 16:10 N  00544 B803702033-00B 16:11 N
00545 B803702037-00B 16:12 N  00546 B803702038-00B 16:12 N
00547 B803702040-00B 16:13 N  00548 B803702045-00B 16:15 N
00549 B803702052-00B 16:16 N  00550 B803702055-00B 16:17 N
00551 B803702057-00B 16:17 N  00552 B803702062-00B 16:18 N
00553 B803702066-00B 16:19 N  00554 A803601249-01B 16:19 EC
00555 B803702072-00B 16:21 N  00556 B803702074-00B 16:22 N
00557 B803702077-00B 16:23 N  00558 B803702080-00B 16:24 N
00559 B803702085-00B 16:25 N  00560 B803702087-00B 16:26 N
00561 B803702093-00B 16:27 N  00562 B803702097-00B 16:28 N
00563 B803702101-00B 16:29 N  00564 B803702103-00B 16:30 N
00565 B803702105-00B 16:31 N  00566 B803702106-00B 16:31 N
00567 B803702109-00B 16:32 N  00568 B803702111-00B 16:32 N
00569 B803702114-00B 16:33 N  00570 B803702116-00B 16:33 N
00571 B803702119-00B 16:34 N  00572 B803702120-00B 16:34 N
00573 B803702125-00B 16:35 N  00574 B803702127-00B 16:36 N
00575 B803702131-00B 16:37 N  00576 B803702135-00B 16:38 N
00577 B803702136-00B 16:38 NK 00578 B803702142-00B 16:40 N
00579 B803702146-00B 16:40 NK 00580 B803702156-00B 16:45 N
00581 B803702158-00B 16:46 N  00582 B803702159-00B 16:48 N
00583 B803702161-00B 16:50 N  00584 B803702163-00B 16:51 N
00585 B803702166-00B 16:52 N  00586 B803702167-00B 16:53 N
00587 B803702169-00B 16:54 N  00588 B803702170-00B 16:54 N
00589 B803702172-00B 16:54 N  00590 B803702174-00B 16:55 N
00591 B803702176-00B 16:56 N  00592 B803702177-00B 16:56 N
00593 B803702180-00B 16:57 N  00594 B803702181-00B 16:57 N
00595 B803702182-00B 16:58 N  00596 B803702186-00B 17:01 N
00597 B803702191-00B 17:07 N  00598 B803702192-00B 17:09 N
00599 B803702193-00B 17:09 N  00600 B803702196-00B 17:10 N
00601 B803702197-00B 17:10 N  00602 B803702201-00B 17:14 N
00603 B803702206-00B 17:18 N  00604 B803702212-00B 17:23 N
00605 B803702219-00B 17:26 N  00606 B803702230-00B 17:32 N
00607 B803702234-00B 17:34 N  00608 B803702235-00B 17:35 N
00609 B803702236-00B 17:35 N  00610 B803702238-00B 17:37 N
00611 B803702242-00B 17:38 N  00612 B803702244-00B 17:38 N
00613 B803702246-00B 17:39 N  00614 B803702249-00B 17:40 N
00615 B803702250-00B 17:41 N  00616 B803702253-00B 17:42 N
00617 B803702254-00B 17:43 N  00618 B803702259-00B 17:44 N
00619 B803702262-00B 17:45 N  00620 B803702266-00B 17:47 N
00621 B803702268-00B 17:48 N  00622 B803702270-00B 17:48 N
00623 B803702273-00B 17:50 N  00624 B803702274-00B 17:50 N
00625 B803702277-00B 17:51 N  00626 B803702279-00B 17:52 N
00627 B803702283-00B 17:53 N  00628 B803702287-00B 17:55 N
00629 B803702290-00B 17:57 N  00630 B803702293-00B 17:58 N
00631 B803702294-00B 17:58 N  00632 B803702297-00B 18:00 N
00633 B803702299-00B 18:01 N  00634 B803702300-00B 18:02 N
00635 B803702302-00B 18:02 N  00636 B803702303-00B 18:04 N
00637 B803702305-00B 18:05 N  00638 B803702306-00B 18:06 N
00639 B803702307-00B 18:07 N  00640 B803702308-00B 18:07 N
00641 B803702310-00B 18:09 N  00642 B803702312-00B 18:09 N
00643 B803702313-00B 18:10 N  00644 B803702316-00B 18:13 N
00645 B803702319-00B 18:16 N  00646 B803702323-00B 18:18 N
00647 B803702328-00B 18:23 N  00648 B803702331-00B 18:26 N
00649 B803702335-00B 18:30 N  00650 B803702337-00B 18:31 N
00651 B803702339-00B 18:34 N  00652 B803702340-00B 18:36 N
00653 B803702341-00B 18:37 N  00654 B803702342-00B 18:38 N
00655 B803702343-00B 18:39 N  00656 B803702346-00B 18:41 N
00657 B803702347-00B 18:43 N  00658 B803702348-00B 18:44 N
00659 B803702349-00B 18:44 N  00660 B803702351-00B 18:46 N
00661 B803702354-00B 18:47 N  00662 B803702357-00B 18:49 N
00663 B803702359-00B 18:50 N  00664 B803702360-00B 18:52 N
00665 B803702361-00B 18:53 N  00666 B803702402-00B 21:02 N
00667 B803702407-00B 21:20 N

( ) NORMAL       - 00536
(E) EMERGENCY    - 00010
(P) SPCL PROJECT - 00000
(D) DESIGNER     - 00000
(M) MEETING      - 00000
(U) UPDATE       - 00092
(K) REMARK       - 00014
(Y) 3HR RENOTIFY - 00007
(C) CANCEL       - 00002
(R) CORRECTION   - 00002
(S) RESENT       - 00000
(L) NO SHOW/LATE - 00004
    TOTAL        - 00667


