

SEQUENCE NUMBER 0003   CDC = CCI

NJ1C audit for CDC of CCI on 020313
Serial# & Seq# &XTime   Serial# & Seq# &Xtime   Serial# & Seq# &XTime
020720308        0222   020720373 0215   0943   020720943 0587   1249   
020721019 0634   1314   020721096 0678   1329   020721638 1031   1610   
020721809 1148   1747   
Total number of Emergencies          0001
Total number of Routine Notices      0005
Total number of Messages for CCI     0006
If this audit does not match your manual tracking 
then call the Call Center and request a retransmission.
~~~~~




SEQUENCE NUMBER 0003   CDC = EG1

NJ1C audit for CDC of EG1 on 020313
Serial# & Seq# &XTime   Serial# & Seq# &Xtime   Serial# & Seq# &XTime
020720309        0222   020720022 0018   0642   020720025 0020   0642   
020720031 0022   0650   020720035 0026   0703   020720043 0031   0718   
020720085 0056   0736   020720084 0060   0736   020720089 0062   0736   
020720133 0089   0820   020720157 0097   0825   020720154 0098   0825   
020720205 0105   0845   020720281 0157   0919   020720292 0166   0920   
020720433 0258   1014   020720444 0263   1014   020720470 0276   1016   
020720478 0279   1017   020720481 0280   1017   020720486 0283   1017   
020720539 0316   1046   020720558 0325   1047   020720614 0356   1051   
020720653 0385   1055   020720661 0393   1111   020720703 0428   1116   
020720782 0470   1144   020720905 0559   1230   020721322 0775   1417   
020721272 0778   1417   020721307 0795   1420   020721357 0827   1438   
020721378 0840   1439   020721392 0850   1458   020721403 0860   1500   
020721413 0867   1501   020721426 0877   1502   020721461 0898   1505   
020721467 0904   1506   020721504 0914   1518   020721510 0934   1520   
020721558 0969   1551   020721562 0976   1552   020721564 0978   1552   
020721569 0983   1553   020721576 0988   1554   020721643 1036   1611   
020721755 1071   1654   020721756 1107   1659   020721773 1118   1721   
020721774 1119   1721   020721776 1121   1722   020721782 1126   1722   
020721805 1144   1741   020721813 1152   1819   020721835 1168   2143   
Total number of Emergencies          0009
Total number of Routine Notices      0047
Total number of Messages for EG1     0056
If this audit does not match your manual tracking 
then call the Call Center and request a retransmission.
~~~~~




SEQUENCE NUMBER 0003   CDC = EG3

NJ1C audit for CDC of EG3 on 020313
Serial# & Seq# &XTime   Serial# & Seq# &Xtime   Serial# & Seq# &XTime
020720310        0222   020720061 0046   0720   020720095 0075   0749   
020720145 0079   0819   020720148 0080   0819   020720132 0088   0820   
020720235 0127   0859   020720259 0140   0917   020720369 0188   0939   
020720394 0231   0949   020720458 0271   1016   020720460 0272   1016   
020720465 0273   1016   020720487 0284   1017   020720538 0315   1046   
020720659 0391   1111   020720718 0434   1116   020720729 0438   1117   
020720739 0444   1118   020720829 0500   1204   020720856 0519   1207   
020721161 0709   1349   020721168 0714   1350   020721291 0789   1419   
020721328 0793   1419   020721375 0838   1439   020721460 0897   1505   
020721751 1104   1658   020721767 1115   1721   020721775 1120   1721   
020721796 1137   1723   020721797 1138   1740   020721799 1139   1740   
020721800 1140   1741   020721802 1141   1741   020721806 1145   1741   
020721807 1146   1741   020721829 1165   2009   
Total number of Emergencies          0005
Total number of Routine Notices      0032
Total number of Messages for EG3     0037
If this audit does not match your manual tracking 
then call the Call Center and request a retransmission.
~~~~~




SEQUENCE NUMBER 0003   CDC = NJN

NJ1C audit for CDC of NJN on 020313
Serial# & Seq# &XTime   Serial# & Seq# &Xtime   Serial# & Seq# &XTime
020720311        0222   020720312        0223   020720313        0223   
020720314        0223   020720006 0003   0627   020720007 0004   0628   
020720009 0005   0628   020720010 0006   0628   020720011 0007   0628   
020720012 0008   0628   020720013 0009   0628   020720014 0010   0628   
020720015 0011   0628   020720016 0012   0629   020720017 0013   0629   
020720018 0014   0629   020720019 0015   0629   020720021 0017   0642   
020720024 0019   0642   020720030 0021   0642   020720037 0023   0703   
020720038 0024   0703   020720034 0025   0703   020720036 0027   0703   
020720042 0030   0718   020720044 0032   0719   020720064 0033   0719   
020720047 0036   0719   020720048 0037   0719   020720050 0038   0719   
020720051 0040   0720   020720052 0041   0720   020720054 0042   0720   
020720056 0043   0720   020720065 0047   0720   020720068 0048   0721   
020720071 0051   0724   020720074 0052   0724   020720076 0053   0727   
020720077 0054   0727   020720079 0055   0728   020720083 0059   0736   
020720107 0064   0748   020720092 0074   0749   020720099 0076   0749   
020720100 0077   0750   020720109 0081   0819   020720112 0082   0819   
020720137 0091   0820   020720147 0093   0820   020720152 0095   0821   
020720153 0096   0821   020720161 0100   0826   020720156 0102   0826   
020720167 0106   0845   020720182 0109   0846   020720187 0110   0846   
020720192 0111   0846   020720203 0114   0846   020720208 0115   0847   
020720215 0119   0858   020720218 0121   0859   020720221 0122   0859   
020720228 0124   0859   020720230 0125   0859   020720238 0128   0859   
020720241 0130   0900   020720242 0131   0900   020720245 0133   0900   
020720247 0134   0900   020720250 0136   0900   020720260 0142   0917   
020720261 0143   0917   020720263 0144   0917   020720269 0147   0918   
020720271 0148   0918   020720272 0149   0918   020720275 0151   0918   
020720276 0152   0918   020720277 0153   0919   020720279 0155   0919   
020720280 0156   0919   020720282 0158   0919   020720283 0159   0919   
020720284 0160   0919   020720285 0161   0920   020720288 0162   0920   
020720289 0163   0920   020720291 0165   0920   020720294 0168   0920   
020720296 0170   0921   020720297 0171   0921   020720302 0173   0921   
020720308 0178   0922   020720310 0179   0922   020720312 0181   0922   
020720313 0182   0922   020720316 0184   0922   020720320 0187   0923   
020720324 0191   0940   020720327 0192   0940   020720337 0196   0940   
020720345 0200   0941   020720347 0201   0941   020720355 0204   0941   
020720358 0205   0941   020720360 0206   0942   020720361 0207   0942   
020720362 0208   0942   020720365 0210   0942   020720366 0211   0942   
020720379 0220   0943   020720380 0221   0943   020720382 0223   0944   
020720385 0224   0944   020720386 0225   0944   020720391 0228   0944   
020720399 0230   0949   020720397 0234   0949   020720398 0235   0949   
020720401 0236   0950   020720402 0237   0950   020720403 0238   0950   
020720404 0239   0950   020720405 0240   0950   020720406 0241   0950   
020720407 0242   0950   020720408 0243   0950   020720409 0245   1012   
020720411 0246   1012   020720415 0248   1013   020720420 0251   1013   
020720422 0252   1013   020720429 0254   1013   020720434 0259   1014   
020720435 0260   1014   020720440 0262   1014   020720445 0264   1015   
020720449 0266   1015   020720451 0267   1015   020720476 0278   1016   
020720485 0282   1017   020720490 0286   1017   020720499 0292   1018   
020720506 0295   1018   020720507 0296   1019   020720515 0299   1019   
020720517 0300   1019   020720519 0302   1019   020720525 0306   1020   
~~~~~




SEQUENCE NUMBER 0003   CDC = NJN

020720531 0309   1020   020720534 0312   1046   020720549 0321   1047   
020720553 0323   1047   020720560 0326   1048   020720563 0327   1048   
020720565 0328   1048   020720568 0329   1048   020720571 0331   1048   
020720576 0334   1048   020720583 0336   1049   020720586 0337   1049   
020720587 0338   1049   020720589 0339   1049   020720593 0341   1049   
020720594 0342   1050   020720595 0343   1050   020720597 0344   1050   
020720599 0345   1050   020720603 0348   1050   020720606 0349   1050   
020720607 0350   1051   020720608 0351   1051   020720609 0352   1051   
020720611 0354   1051   020720616 0357   1051   020720619 0359   1052   
020720622 0361   1052   020720624 0362   1052   020720626 0363   1052   
020720627 0365   1052   020720628 0366   1053   020720630 0367   1053   
020720631 0368   1053   020720632 0369   1053   020720633 0370   1053   
020720635 0372   1053   020720637 0373   1053   020720638 0374   1054   
020720641 0376   1054   020720644 0377   1054   020720645 0378   1054   
020720647 0380   1054   020720649 0381   1055   020720651 0383   1055   
020720652 0384   1055   020720657 0388   1055   020720662 0394   1111   
020720663 0395   1111   020720667 0398   1112   020720669 0400   1112   
020720670 0401   1112   020720672 0402   1112   020720675 0404   1112   
020720686 0412   1113   020720687 0413   1114   020720690 0416   1114   
020720691 0417   1114   020720696 0421   1115   020720697 0422   1115   
020720700 0425   1115   020720701 0426   1115   020720711 0430   1116   
020720714 0431   1116   020720715 0432   1116   020720717 0433   1116   
020720725 0437   1117   020720734 0441   1117   020720743 0448   1118   
020720752 0453   1142   020720756 0455   1142   020720764 0459   1143   
020720765 0460   1143   020720768 0462   1143   020720773 0463   1143   
020720781 0469   1144   020720786 0473   1144   020720789 0475   1145   
020720792 0477   1145   020720793 0478   1145   020720795 0479   1145   
020720797 0480   1145   020720800 0482   1145   020720803 0484   1146   
020720806 0486   1146   020720813 0488   1146   020720820 0492   1203   
020720821 0493   1203   020720823 0494   1204   020720826 0497   1204   
020720827 0498   1204   020720828 0499   1204   020720830 0501   1204   
020720831 0502   1205   020720833 0503   1205   020720837 0507   1205   
020720839 0508   1205   020720841 0509   1205   020720842 0510   1206   
020720846 0511   1206   020720868 0513   1206   020720849 0514   1206   
020720851 0515   1206   020720852 0516   1206   020720855 0518   1207   
020720859 0520   1207   020720860 0521   1207   020720864 0523   1207   
020720865 0524   1207   020720866 0525   1207   020720869 0526   1208   
020720870 0527   1208   020720872 0529   1208   020720873 0530   1208   
020720875 0532   1208   020720912 0534   1226   020720878 0535   1227   
020720880 0536   1227   020720881 0537   1227   020720883 0539   1227   
020720886 0542   1227   020720887 0543   1228   020720888 0544   1228   
020720889 0545   1228   020720890 0546   1228   020720892 0548   1228   
020720893 0549   1228   020720894 0550   1228   020720895 0551   1229   
020720896 0552   1229   020720897 0553   1229   020720898 0554   1229   
020720899 0555   1229   020720902 0557   1229   020720908 0562   1230   
020720909 0563   1230   020720910 0564   1230   020720911 0565   1230   
020720919 0567   1231   020720920 0568   1231   020720921 0569   1231   
020720923 0571   1231   020720924 0572   1231   020720926 0574   1231   
020720930 0576   1248   020720934 0579   1248   020720941 0585   1249   
020720943 0588   1250   020720949 0593   1250   020720958 0599   1251   
020720967 0605   1252   020720970 0606   1252   020720975 0608   1252   
~~~~~




SEQUENCE NUMBER 0003   CDC = NJN

020720979 0609   1253   020720986 0612   1253   020720988 0613   1253   
020720990 0615   1253   020720991 0616   1253   020720992 0617   1254   
020720995 0618   1312   020720996 0619   1313   020720998 0620   1313   
020721000 0622   1313   020721001 0623   1313   020721003 0624   1313   
020721004 0625   1313   020721007 0626   1313   020721008 0627   1313   
020721009 0628   1314   020721010 0629   1314   020721011 0630   1314   
020721012 0631   1314   020721013 0632   1314   020721018 0633   1314   
020721020 0636   1315   020721025 0639   1315   020721028 0641   1315   
020721033 0645   1316   020721037 0646   1316   020721044 0650   1316   
020721053 0655   1317   020721056 0658   1317   020721058 0660   1318   
020721059 0661   1318   020721061 0662   1318   020721064 0664   1318   
020721066 0665   1318   020721067 0666   1319   020721070 0668   1319   
020721078 0670   1319   020721085 0673   1320   020721086 0674   1320   
020721089 0675   1320   020721133 0677   1329   020721098 0679   1329   
020721103 0682   1330   020721106 0684   1330   020721108 0685   1330   
020721113 0687   1330   020721114 0688   1330   020721115 0689   1330   
020721119 0691   1331   020721121 0692   1331   020721126 0693   1331   
020721132 0696   1331   020721145 0701   1332   020721157 0705   1332   
020721162 0710   1349   020721167 0713   1350   020721171 0716   1350   
020721189 0725   1351   020721194 0727   1351   020721195 0728   1352   
020721202 0731   1352   020721204 0732   1352   020721212 0735   1352   
020721220 0736   1353   020721225 0740   1353   020721228 0742   1353   
020721229 0743   1353   020721236 0749   1354   020721237 0750   1354   
020721239 0751   1354   020721240 0752   1355   020721242 0755   1414   
020721243 0756   1414   020721244 0757   1415   020721245 0758   1415   
020721246 0759   1415   020721247 0760   1415   020721252 0763   1415   
020721253 0764   1416   020721257 0767   1416   020721258 0768   1416   
020721262 0770   1416   020721265 0771   1417   020721267 0773   1417   
020721269 0774   1417   020721270 0776   1417   020721273 0779   1418   
020721275 0780   1418   020721282 0783   1418   020721285 0785   1418   
020721288 0786   1418   020721300 0791   1419   020721305 0794   1420   
020721308 0796   1420   020721311 0798   1420   020721312 0799   1420   
020721317 0803   1421   020721321 0804   1421   020721327 0805   1421   
020721329 0806   1421   020721333 0808   1421   020721335 0809   1421   
020721336 0811   1436   020721339 0813   1436   020721343 0814   1436   
020721345 0816   1436   020721348 0818   1437   020721350 0820   1437   
020721352 0822   1437   020721354 0824   1437   020721359 0828   1438   
020721360 0829   1438   020721362 0830   1438   020721365 0832   1438   
020721367 0833   1438   020721371 0835   1439   020721373 0836   1439   
020721374 0837   1439   020721377 0839   1439   020721380 0842   1440   
020721387 0847   1458   020721402 0859   1459   020721414 0868   1501   
020721418 0870   1501   020721423 0874   1501   020721443 0886   1503   
020721463 0900   1505   020721468 0905   1506   020721497 0909   1517   
020721481 0919   1518   020721486 0922   1519   020721493 0926   1519   
020721499 0928   1519   020721541 0938   1530   020721525 0947   1531   
020721529 0949   1531   020721535 0953   1532   020721536 0954   1532   
020721552 0966   1533   020721560 0974   1552   020721568 0982   1553   
020721571 0985   1553   020721573 0986   1554   020721575 0987   1554   
020721581 0991   1554   020721582 0992   1554   020721586 0994   1555   
020721591 0996   1555   020721592 0997   1555   020721599 1001   1555   
020721604 1004   1556   020721608 1006   1556   020721615 1012   1557   
~~~~~




SEQUENCE NUMBER 0003   CDC = NJN

020721616 1013   1557   020721620 1015   1603   020721618 1016   1603   
020721623 1020   1604   020721624 1021   1604   020721625 1022   1604   
020721626 1023   1604   020721628 1024   1604   020721635 1027   1605   
020721637 1028   1610   020721638 1030   1610   020721640 1033   1610   
020721646 1039   1611   020721648 1041   1628   020721653 1044   1629   
020721655 1045   1629   020721662 1050   1629   020721667 1053   1630   
020721672 1057   1630   020721677 1060   1631   020721681 1062   1631   
020721683 1063   1631   020721686 1065   1631   020721692 1066   1637   
020721689 1067   1637   020721696 1070   1654   020721701 1073   1655   
020721703 1075   1655   020721706 1076   1655   020721707 1077   1655   
020721709 1079   1655   020721710 1080   1656   020721717 1083   1656   
020721718 1084   1656   020721719 1085   1656   020721720 1086   1656   
020721726 1088   1656   020721728 1089   1657   020721735 1092   1657   
020721736 1093   1657   020721738 1095   1657   020721740 1096   1657   
020721742 1097   1658   020721746 1099   1658   020721747 1100   1658   
020721748 1101   1658   020721750 1103   1658   020721753 1105   1659   
020721758 1109   1659   020721760 1110   1659   020721765 1113   1700   
020721772 1114   1721   020721769 1116   1721   020721777 1122   1722   
020721778 1123   1722   020721780 1124   1722   020721781 1125   1722   
020721784 1128   1722   020721785 1129   1722   020721786 1130   1723   
020721787 1131   1723   020721788 1132   1723   020721790 1133   1723   
020721792 1134   1723   020721804 1143   1741   020721808 1147   1741   
020721814 1153   1819   020721817 1154   1858   020721818 1155   1919   
020721819 1156   1919   020721820 1157   1919   020721821 1158   1919   
020721822 1159   1919   020721823 1160   1936   020721824 1161   1936   
020721825 1162   1936   020721826 1163   1936   020721827 1164   1936   
020721830 1166   2030   
Total number of Emergencies          0015
Total number of Routine Notices      0516
Total number of Messages for NJN     0531
If this audit does not match your manual tracking 
then call the Call Center and request a retransmission.
~~~~~




SEQUENCE NUMBER 0003   CDC = SJG

NJ1C audit for CDC of SJG on 020313
Serial# & Seq# &XTime   Serial# & Seq# &Xtime   Serial# & Seq# &XTime
020720315        0223   020720316        0224   020720317        0224   
020720004 0001   0533   020720053 0028   0718   020720045 0034   0719   
020720046 0035   0719   020720058 0045   0720   020720106 0078   0750   
020720118 0083   0819   020720123 0084   0819   020720126 0085   0819   
020720127 0086   0820   020720130 0087   0820   020720135 0090   0820   
020720138 0092   0820   020720150 0094   0821   020720158 0099   0825   
020720155 0101   0826   020720166 0103   0845   020720204 0104   0845   
020720172 0107   0845   020720177 0108   0846   020720195 0112   0846   
020720198 0113   0846   020720210 0116   0847   020720237 0117   0858   
020720217 0120   0858   020720233 0126   0859   020720239 0129   0900   
020720244 0132   0900   020720249 0135   0900   020720252 0138   0917   
020720253 0139   0917   020720266 0145   0918   020720274 0150   0918   
020720278 0154   0919   020720290 0164   0920   020720293 0167   0920   
020720295 0169   0921   020720299 0172   0921   020720304 0174   0921   
020720305 0175   0921   020720306 0176   0921   020720307 0177   0922   
020720311 0180   0922   020720314 0183   0922   020720317 0185   0923   
020720318 0186   0923   020720321 0189   0939   020720323 0190   0940   
020720330 0193   0940   020720332 0194   0940   020720338 0197   0940   
020720343 0198   0941   020720351 0202   0941   020720353 0203   0941   
020720364 0209   0942   020720368 0212   0942   020720372 0214   0943   
020720373 0216   0943   020720375 0217   0943   020720377 0219   0943   
020720381 0222   0944   020720387 0226   0944   020720390 0227   0944   
020720392 0229   0944   020720395 0232   0949   020720396 0233   0949   
020720412 0247   1012   020720419 0250   1013   020720425 0253   1013   
020720430 0255   1013   020720431 0256   1014   020720432 0257   1014   
020720436 0261   1014   020720446 0265   1015   020720452 0268   1015   
020720454 0269   1015   020720469 0275   1016   020720472 0277   1016   
020720489 0285   1017   020720491 0287   1018   020720492 0288   1018   
020720494 0289   1018   020720495 0290   1018   020720498 0291   1018   
020720501 0293   1018   020720502 0294   1018   020720511 0297   1019   
020720514 0298   1019   020720518 0301   1019   020720524 0305   1020   
020720529 0308   1020   020720532 0310   1045   020720535 0313   1046   
020720540 0317   1046   020720547 0320   1047   020720551 0322   1047   
020720569 0330   1048   020720573 0332   1048   020720601 0346   1050   
020720610 0353   1051   020720612 0355   1051   020720620 0360   1052   
020720634 0371   1053   020720646 0379   1054   020720650 0382   1055   
020720654 0386   1055   020720658 0389   1056   020720709 0390   1111   
020720665 0397   1112   020720676 0405   1113   020720678 0407   1113   
020720680 0409   1113   020720683 0410   1113   020720688 0414   1114   
020720689 0415   1114   020720692 0418   1114   020720693 0419   1114   
020720694 0420   1115   020720698 0423   1115   020720699 0424   1115   
020720710 0429   1116   020720723 0436   1117   020720732 0440   1117   
020720740 0445   1118   020720744 0449   1118   020720748 0451   1119   
020720755 0454   1142   020720758 0456   1142   020720759 0457   1142   
020720766 0461   1143   020720775 0464   1143   020720779 0467   1144   
020720780 0468   1144   020720783 0471   1144   020720787 0474   1144   
020720790 0476   1145   020720801 0483   1146   020720804 0485   1146   
020720808 0487   1146   020720825 0496   1204   020720834 0504   1205   
020720835 0505   1205   020720848 0512   1206   020720863 0522   1207   
020720871 0528   1208   020720874 0531   1208   020720882 0538   1227   
~~~~~




SEQUENCE NUMBER 0003   CDC = SJG

020720884 0540   1227   020720891 0547   1228   020720901 0556   1229   
020720906 0560   1230   020720922 0570   1231   020720928 0575   1248   
020720931 0577   1248   020720935 0580   1249   020720936 0581   1249   
020720937 0582   1249   020720938 0583   1249   020720939 0584   1249   
020720942 0586   1249   020720943 0589   1250   020720946 0591   1250   
020720953 0595   1251   020720981 0598   1251   020720959 0600   1251   
020720960 0601   1251   020720961 0602   1252   020720962 0603   1252   
020720964 0604   1252   020720974 0607   1252   020720983 0610   1253   
020720999 0621   1313   020721019 0635   1314   020721021 0637   1315   
020721024 0638   1315   020721027 0640   1315   020721029 0642   1315   
020721030 0643   1316   020721032 0644   1316   020721038 0647   1316   
020721040 0648   1316   020721042 0649   1316   020721045 0651   1316   
020721047 0652   1317   020721050 0654   1317   020721054 0656   1317   
020721055 0657   1317   020721057 0659   1318   020721063 0663   1318   
020721075 0669   1319   020721080 0671   1319   020721082 0672   1319   
020721093 0676   1320   020721099 0680   1329   020721100 0681   1329   
020721105 0683   1330   020721111 0686   1330   020721130 0695   1331   
020721139 0698   1332   020721141 0699   1332   020721142 0700   1332   
020721148 0702   1332   020721149 0703   1332   020721156 0704   1332   
020721158 0707   1349   020721159 0708   1349   020721163 0711   1349   
020721166 0712   1350   020721169 0715   1350   020721174 0717   1350   
020721175 0718   1350   020721177 0719   1350   020721180 0720   1351   
020721181 0721   1351   020721184 0722   1351   020721187 0723   1351   
020721188 0724   1351   020721196 0729   1352   020721201 0730   1352   
020721209 0733   1352   020721211 0734   1352   020721223 0738   1353   
020721227 0741   1353   020721230 0744   1354   020721232 0745   1354   
020721233 0746   1354   020721234 0747   1354   020721235 0748   1354   
020721241 0753   1414   020721287 0754   1414   020721249 0762   1415   
020721254 0765   1416   020721261 0769   1416   020721266 0772   1417   
020721271 0777   1417   020721280 0782   1418   020721283 0784   1418   
020721326 0788   1419   020721295 0790   1419   020721309 0797   1420   
020721314 0800   1420   020721315 0801   1420   020721316 0802   1421   
020721330 0807   1421   020721338 0812   1436   020721344 0815   1436   
020721347 0817   1436   020721349 0819   1437   020721351 0821   1437   
020721353 0823   1437   020721355 0825   1437   020721356 0826   1438   
020721364 0831   1438   020721441 0843   1457   020721385 0845   1458   
020721388 0848   1458   020721389 0849   1458   020721448 0851   1458   
020721394 0852   1459   020721397 0854   1459   020721399 0856   1459   
020721400 0857   1459   020721405 0861   1500   020721406 0862   1500   
020721410 0865   1500   020721412 0866   1500   020721415 0869   1501   
020721420 0872   1501   020721425 0876   1502   020721447 0887   1503   
020721453 0890   1504   020721454 0891   1504   020721456 0893   1504   
020721459 0896   1504   020721496 0908   1517   020721474 0911   1517   
020721476 0913   1517   020721480 0917   1518   020721485 0921   1519   
020721489 0924   1519   020721490 0925   1519   020721500 0929   1520   
020721502 0930   1520   020721505 0931   1520   020721508 0932   1520   
020721509 0933   1520   020721511 0935   1520   020721512 0936   1520   
020721513 0937   1521   020721517 0939   1530   020721518 0940   1530   
020721519 0941   1530   020721520 0942   1530   020721521 0943   1530   
020721522 0944   1530   020721523 0945   1531   020721524 0946   1531   
020721526 0948   1531   020721530 0950   1531   020721532 0951   1531   
~~~~~




SEQUENCE NUMBER 0003   CDC = SJG

020721533 0952   1531   020721539 0955   1532   020721540 0956   1532   
020721542 0957   1532   020721543 0958   1532   020721544 0959   1532   
020721545 0960   1532   020721546 0961   1532   020721547 0962   1533   
020721548 0963   1533   020721549 0964   1533   020721550 0965   1533   
020721553 0967   1533   020721554 0968   1533   020721555 0970   1551   
020721556 0971   1552   020721557 0972   1552   020721559 0973   1552   
020721561 0975   1552   020721566 0980   1553   020721578 0989   1554   
020721584 0993   1554   020721590 0995   1555   020721594 0999   1555   
020721598 1000   1555   020721603 1003   1556   020721606 1005   1556   
020721609 1007   1556   020721610 1008   1556   020721613 1010   1557   
020721614 1011   1557   020721617 1014   1557   020721622 1019   1604   
020721629 1025   1604   020721631 1026   1605   020721636 1029   1610   
020721638 1032   1610   020721641 1034   1610   020721644 1037   1611   
020721645 1038   1611   020721647 1040   1611   020721649 1042   1628   
020721650 1043   1629   020721656 1046   1629   020721657 1047   1629   
020721660 1048   1629   020721661 1049   1629   020721663 1051   1630   
020721665 1052   1630   020721668 1054   1630   020721670 1055   1630   
020721671 1056   1630   020721673 1058   1630   020721676 1059   1631   
020721679 1061   1631   020721685 1064   1631   020721690 1068   1637   
020721694 1072   1655   020721708 1078   1655   020721725 1087   1656   
020721730 1090   1657   020721734 1091   1657   020721737 1094   1657   
020721757 1108   1659   020721763 1111   1659   020721764 1112   1659   
020721794 1135   1723   020721795 1136   1723   020721803 1142   1741   
020721809 1149   1747   020721831 1167   2100   020721836 1169   2143   
020721837 1170   2201   020721838 1172   2201   020721839 1173   2201   
020721840 1174   2201   020721841 1175   2201   020721849 1177   2256   
020721850 1178   2256   020721851 1179   2256   020721852 1180   2341   
Total number of Emergencies          0013
Total number of Routine Notices      0368
Total number of Messages for SJG     0381
If this audit does not match your manual tracking 
then call the Call Center and request a retransmission.
~~~~~




SEQUENCE NUMBER 0003   CDC = UW4

NJ1C audit for CDC of UW4 on 020313
Serial# & Seq# &XTime   Serial# & Seq# &Xtime   Serial# & Seq# &XTime
020720318        0224   020720005 0002   0627   020720029 0016   0642   
020720059 0029   0718   020720067 0039   0719   020720057 0044   0720   
020720070 0049   0723   020720072 0050   0723   020720086 0061   0736   
020720108 0065   0748   020720212 0118   0858   020720226 0123   0859   
020720267 0146   0918   020720333 0195   0940   020720344 0199   0941   
020720371 0213   0942   020720376 0218   0943   020720418 0244   1012   
020720416 0249   1013   020720467 0274   1016   020720484 0281   1017   
020720522 0304   1020   020720527 0307   1020   020720533 0311   1046   
020720537 0314   1046   020720543 0318   1046   020720546 0319   1047   
020720555 0324   1047   020720574 0333   1048   020720580 0335   1049   
020720592 0340   1049   020720602 0347   1050   020720648 0364   1052   
020720640 0375   1054   020720656 0387   1055   020720660 0392   1111   
020720664 0396   1111   020720668 0399   1112   020720673 0403   1112   
020720677 0406   1113   020720679 0408   1113   020720685 0411   1113   
020720721 0435   1116   020720738 0443   1117   020720741 0446   1118   
020720742 0447   1118   020720745 0450   1118   020720750 0452   1142   
020720763 0458   1142   020720776 0465   1143   020720777 0466   1143   
020720784 0472   1144   020720798 0481   1145   020720814 0489   1146   
020720817 0490   1146   020720824 0495   1204   020720836 0506   1205   
020720915 0533   1226   020720885 0541   1227   020720904 0558   1229   
020720907 0561   1230   020720916 0566   1230   020720985 0611   1253   
020720989 0614   1253   020721068 0667   1319   020721118 0690   1331   
020721127 0694   1331   020721138 0697   1331   020721198 0706   1349   
020721191 0726   1351   020721224 0739   1353   020721256 0766   1416   
020721277 0781   1418   020721290 0787   1419   020721303 0792   1419   
020721372 0810   1436   020721427 0878   1502   020721431 0882   1502   
020721506 0918   1518   020721563 0977   1552   020721565 0979   1553   
020721567 0981   1553   020721570 0984   1553   020721579 0990   1554   
020721593 0998   1555   020721601 1002   1556   020721611 1009   1556   
020721619 1017   1603   020721621 1018   1604   020721642 1035   1611   
020721702 1074   1655   020721713 1081   1656   020721744 1098   1658   
020721749 1102   1658   020721754 1106   1659   020721771 1117   1721   
020721783 1127   1722   020721810 1150   1819   020721812 1151   1819   
020721842 1171   2201   
Total number of Emergencies          0011
Total number of Routine Notices      0088
Total number of Messages for UW4     0099
If this audit does not match your manual tracking 
then call the Call Center and request a retransmission.
~~~~~




SEQUENCE NUMBER 0003   CDC = UW5

NJ1C audit for CDC of UW5 on 020313
Serial# & Seq# &XTime   Serial# & Seq# &Xtime   Serial# & Seq# &XTime
020720319        0224   020720081 0058   0736   020720251 0137   0917   
020720520 0303   1019   020720617 0358   1052   020720702 0427   1115   
020720730 0439   1117   020720735 0442   1117   020720818 0491   1147   
020720854 0517   1206   020720925 0573   1231   020720932 0578   1248   
020720945 0590   1250   020720948 0592   1250   020720951 0594   1250   
020720954 0596   1251   020720957 0597   1251   020721049 0653   1317   
020721221 0737   1353   020721248 0761   1415   020721369 0834   1438   
020721379 0841   1439   020721384 0844   1458   020721386 0846   1458   
020721395 0853   1459   020721398 0855   1459   020721401 0858   1459   
020721407 0863   1500   020721408 0864   1500   020721419 0871   1501   
020721422 0873   1501   020721424 0875   1502   020721428 0879   1502   
020721429 0880   1502   020721430 0881   1502   020721433 0883   1503   
020721438 0884   1503   020721440 0885   1503   020721451 0888   1503   
020721452 0889   1503   020721455 0892   1504   020721457 0894   1504   
020721458 0895   1504   020721462 0899   1505   020721464 0901   1505   
020721465 0902   1505   020721466 0903   1505   020721469 0906   1506   
020721471 0907   1506   020721472 0910   1517   020721475 0912   1517   
020721477 0915   1518   020721479 0916   1518   020721484 0920   1518   
020721488 0923   1519   020721494 0927   1519   020721691 1069   1637   
020721714 1082   1656   020721848 1176   2238   
Total number of Emergencies          0001
Total number of Routine Notices      0057
Total number of Messages for UW5     0058
If this audit does not match your manual tracking 
then call the Call Center and request a retransmission.
~~~~~




SEQUENCE NUMBER 0003   CDC = UW8

NJ1C audit for CDC of UW8 on 020313
Serial# & Seq# &XTime   Serial# & Seq# &Xtime   Serial# & Seq# &XTime
020720320        0224   020720456 0270   1015   
Total number of Emergencies          0000
Total number of Routine Notices      0001
Total number of Messages for UW8     0001
If this audit does not match your manual tracking 
then call the Call Center and request a retransmission.
~~~~~




SEQUENCE NUMBER 0003   CDC = UW9

NJ1C audit for CDC of UW9 on 020313
Serial# & Seq# &XTime   Serial# & Seq# &Xtime   Serial# & Seq# &XTime
020720321        0224   020720259 0141   0917   
Total number of Emergencies          0000
Total number of Routine Notices      0001
Total number of Messages for UW9     0001
If this audit does not match your manual tracking 
then call the Call Center and request a retransmission.
~~~~~




SEQUENCE NUMBER 0003   CDC = XXX

NJ1C audit for CDC of XXX on 020313
Serial# & Seq# &XTime   Serial# & Seq# &Xtime   Serial# & Seq# &XTime
020700309 0057   0736   020710316 0063   0748   020700309 0066   0748   
020710318 0067   0748   020710320 0068   0749   020710321 0069   0749   
020710324 0070   0749   020710327 0071   0749   020710328 0072   0749   
020710329 0073   0749   
Total number of Emergencies          0000
Total number of Routine Notices      0010
Total number of Messages for XXX     0010
If this audit does not match your manual tracking 
then call the Call Center and request a retransmission.
~~~~~






