+++Ht5/4/`KaT

FROM MSOCS
UTILIQUEST
RC1
AUDIT FOR 11/3/02

FOR CODE RC1

TYPE  SEQ#  TICKET                    STATUS                                
----  ----  ------------------------  ------------------------------------- 
!     0001  02110314580002            DELIVERED

NORMAL    : 0
RESEND    : 0
EMERGENCY : 1
FAILED    : 0
TOTAL FOR RC1: 1




LEGEND
-----------------------
  - NORMAL
* - RESEND
! - EMERGENCY


+++$4;?dS"{
