
FROM MSOCS
UTILIQUEST
RC7
AUDIT FOR 11/30/02

FOR CODE RC7

TYPE  SEQ#  TICKET                    STATUS                                
----  ----  ------------------------  ------------------------------------- 
!     0001  02113007360001            DELIVERED
      0002  02113010240002            DELIVERED
      0003  02113010260004            DELIVERED

NORMAL    : 2
RESEND    : 0
EMERGENCY : 1
FAILED    : 0
TOTAL FOR RC7: 3




LEGEND
-----------------------
  - NORMAL
* - RESEND
! - EMERGENCY


+++	M~
