
NOTICE OF INTENT TO EXCAVATE                                    UPDATE 
Ticket No: 2202898                Update Of: 2202896 
Transmit   Date: 05/12/11         Time: 03:29 PM           Op: mdshan 
Release    Date: 05/12/11         Time: 03:28 PM           Op: mdshan 
Response Due By: 05/16/11         Time: 11:59 PM 
Expiration Date: 05/30/11         Time: 11:59 PM 

Place: TEST 
Address: 1234        Street: TEST DR 
Nearest Intersecting Street: TEST RD 

Type of Work: TEST TICKET - PLEASE CONTACT SHANNON STULTZ, BELOW. 
Extent of Work: THIS IS A TEST FOR THE MISS UTILITY CALL CENTER TICKET FORMAT
: CHANGES. PLEASE CONFIRM YOU HAVE ACCURATELY RECEIVED ALL CHANGES BY EMAILING
: SHANNONSTULTZ@MISSUTILITY.NET OR FAXING 410-712-0062. WE MUST HAVE YOUR
: WRITTEN CONFIRMATION. IF YOU RECEIVE TICKETS TO ANOTHER FAX/EMAIL, PLEASE
: CHECK THOSE AS WELL AND LOOK FOR SPECIFIC INSTRUCTIONS. WE MUST HAVE
: CONFIMATION FOR EACH RECEIVING STATION. THE CHANGES TO THE FORMAT ARE AS
: FOLLOWS:
:   - "MPG" WILL NOW READ "MNG"
:   - "WORK TO BEGIN DATE" WILL NOW READ "RESPONSE DUE BY"
:   - "REMARKS" WILL NOW READ "COMMENTS"
:   - "ORIGINAL CALL" WILL NOW READ "RELEASE DATE"
:   - "CALLER PROVIDED" WILL NOW READ "TICKET MAPPING"
: FOR MARYLAND TICKETS, WE WILL TRANSMIT TESTS FOR THE NEW HEADER, OMBN.
: ALL AREAS WILL RECEIVE TESTS FOR NEW TICKET TYPES, REMARK AND UPDATE.
: TICKET CHECK TICKET TYPE, DISPUTE CANNOT BE TESTED AS THIS IS A LIVE CODE.
: PLEASE MAKE SURE YOU ARE ABLE TO HANDLE THE DISPUTE - TICKET CHECK TRANSMIT.
: 
: WE WIL GO LIVE WITH THIS NEW TICKET FORMAT IN JUNE 2011.  IF WE DO NOT HEAR
: FROM YOU, WE WILL CONSIDER THIS TEST TO YOUR RECEIVING STATION SUCCESSFUL. 
: THANK YOU.
: REMARK 05/12/11 03:27 pm: REMARK TEST. CONFIRM RECEIPT AS NOTED ABOVE
Comments: UPDATE TEST. CONFIRM RECEIPT AS NOTED ABOVE 
: COMMENTS 2 LINE 

Company      : MISS UTILITY CENTER 
Contact Name : SHANNON STULTZ                           Fax: (410)712-0062 
Contact Phone: (410)782-2057                            Ext:  
Caller Address: 7223 PARKWAY DR 
                HANOVER, MD 21076 
Email Address:  shannonstultz@missutility.net 
Alt. Contact :  CALLER ID FOR SHANNON S ONLY !   Alt. Phone:  
Work Being Done For: YOUR CONFIRMATION IS REQUIRED 
State: MD              County: ANNE ARUNDEL 
MNG:  N 
Ticket Mapping    :  Map Name: AA    Map#: 5059 Grid Cells: H2 
Computer Generated:  Map Name: AA    Map#: 5059 Grid Cells: H2 

Lat:               Lon:                        Zone:  
Ex. Coord NW Lat: 39.1812885 Lon:-76.4562415 SE Lat: 39.1750164 Lon:-76.4500092 
Explosives: N 
CCL01      HCFN01     HCU01      JUC01      KFD01      KFD01C     LTC01 
 LTC02      VCH 
Send To: VAA       Seq No: 0004   Map Ref:  
