
------=_Part_30_8434024.1359609470808
Content-Type: text/plain; charset=ISO-8859-1
Content-Transfer-Encoding: 7bit

ATT322* 00395 NCOCa 01/29/13 16:02:50 A130293125-00A NORM NEW GRID LR

North Carolina 811

Ticket : A130293125 Date: 01/29/13 Time: 15:57 Oper: TAP Chan:999
Old Tkt: A130293125 Date: 01/29/13 Time: 16:02 Oper: TAP Rev :00A

State: NC Cnty: WAKE Place: RALEIGH In/Out: B
Subdivision: UNKNOWN

Address :
Street  : LEMUEL DR   Intersection: N
Cross 1 : DORRINGTON TRL
Location: LOCATE BY 02/01/13 12:01 AM
FROM THE INTERSECTION LOCATE ON BOTH SIDES OF THE ROAD AND IN THE ROAD FOR RD
BORES TO ADDRESSES 2313 AND 2312 WORDED PER CALLER
APPROXIMATELY DISTANCE 200FT
:
Grids   : 3553C7835A   3553D7835A   3553C7836D   3553D7836D

Work type:REPLACING AT&T PHONE DROP
Work date:02/01/13  Time: 00:01  Hours notice: 48/48  Priority: NORM
Ug/Oh/Both: U  Blasting: N  Boring: Y  Railroad: N     Emergency: N
Duration: 2 HRS  Done for: ANSCO AND ASSOCIATIES

Company : M P C CONSTRUCTION  Type: CONT
Co addr : 11095 HWY96
City    : ZEBULON State: NC Zip: 27597
Caller  : MARK CHILDERS Phone: 919-376-5154
Contact : SAME CELL Phone:
BestTime:
Cellular: 919-376-5154
Email   : MPCCONSTRUCTION1@AOL.COM

Submitted date: 01/29/13 Time: 16:02
Members: ATT322*       CLS01  COR01  CPL10* CSR02  CVI04* DET01  MCI01  PSG01


------=_Part_30_8434024.1359609470808--