
AGL101  GAUPC  ClickScreener EOD for 01/07/2010

Ticket         Rev  Seq     Mc TypeOfMsg                Sent To                                 Sent Time           
=============  ===  ======  =  =======================  ======================================  ==================  
01040-235-028  1    00040      Normal Notice            emailtkts.3004@tickets.utiliquest.com   01/07/2010 00:58    
01070-237-010  0    00257      Emergency Notice         emailtkts.3004@tickets.utiliquest.com   01/07/2010 08:42    
01070-231-009  0    00345      Normal Notice            emailtkts.3004@tickets.utiliquest.com   01/07/2010 09:20    
01070-231-010  0    00382      Normal Notice            emailtkts.3004@tickets.utiliquest.com   01/07/2010 09:20    
01070-231-011  0    00406      Normal Notice            emailtkts.3004@tickets.utiliquest.com   01/07/2010 09:38    
01070-231-012  0    00451      Normal Notice            emailtkts.3004@tickets.utiliquest.com   01/07/2010 09:42    
01070-231-012  0    00451      Normal Notice            emailtkts.3004@tickets.utiliquest.com   01/07/2010 09:43    
01070-300-193  0    00468      Normal Notice            emailtkts.3004@tickets.utiliquest.com   01/07/2010 09:44    
01070-300-193  0    00468      Normal Notice            emailtkts.3004@tickets.utiliquest.com   01/07/2010 09:44    
01070-253-003  0    00533      Normal Notice            emailtkts.3004@tickets.utiliquest.com   01/07/2010 09:49    
01070-253-003  0    00533      Normal Notice            emailtkts.3004@tickets.utiliquest.com   01/07/2010 09:49    
01070-242-011  0    00535      Normal Notice            emailtkts.3004@tickets.utiliquest.com   01/07/2010 09:49    
01070-242-011  0    00535      Normal Notice            emailtkts.3004@tickets.utiliquest.com   01/07/2010 09:49    
01070-215-015  0    00581      Normal Notice            emailtkts.3004@tickets.utiliquest.com   01/07/2010 09:57    
01070-246-006  0    00591      Normal Notice            emailtkts.3004@tickets.utiliquest.com   01/07/2010 10:07    
01070-256-016  0    00592      Normal Notice            emailtkts.3004@tickets.utiliquest.com   01/07/2010 10:07    
01070-300-285  0    00605      Normal Notice            emailtkts.3004@tickets.utiliquest.com   01/07/2010 10:07    
01070-300-305  0    00630      Normal Notice            emailtkts.3004@tickets.utiliquest.com   01/07/2010 10:08    
01070-300-359  0    00723      Normal Notice            emailtkts.3004@tickets.utiliquest.com   01/07/2010 10:29    
01070-300-384  0    00755      Normal Notice            Cleared                                 01/07/2010 10:36    
01070-300-398  0    00781      Normal Notice            emailtkts.3004@tickets.utiliquest.com   01/07/2010 10:44    
01070-300-420  0    00806      Normal Notice            emailtkts.3004@tickets.utiliquest.com   01/07/2010 10:44    
01070-300-432  0    00821      Normal Notice            emailtkts.3004@tickets.utiliquest.com   01/07/2010 10:46    
01070-300-447  0    00844      Normal Notice            emailtkts.3004@tickets.utiliquest.com   01/07/2010 10:49    
01070-267-028  0    00861      Normal Notice            emailtkts.3004@tickets.utiliquest.com   01/07/2010 10:53    
01070-269-016  0    00862      Normal Notice            emailtkts.3004@tickets.utiliquest.com   01/07/2010 10:53    
01070-248-018  0    00873      Normal Notice            emailtkts.3004@tickets.utiliquest.com   01/07/2010 10:53    
01070-269-017  0    00875      Normal Notice            emailtkts.3004@tickets.utiliquest.com   01/07/2010 10:53    
01070-267-029  0    00876      Normal Notice            emailtkts.3004@tickets.utiliquest.com   01/07/2010 10:53    
01070-269-018  0    00879      Normal Notice            emailtkts.3004@tickets.utiliquest.com   01/07/2010 10:54    
01070-267-030  0    00882      Normal Notice            emailtkts.3004@tickets.utiliquest.com   01/07/2010 10:56    
01070-269-019  0    00886      Normal Notice            emailtkts.3004@tickets.utiliquest.com   01/07/2010 10:57    
01070-248-019  0    00887      Normal Notice            emailtkts.3004@tickets.utiliquest.com   01/07/2010 10:57    
01070-300-472  0    00890      Normal Notice            emailtkts.3004@tickets.utiliquest.com   01/07/2010 10:57    
01070-269-020  0    00894      Normal Notice            emailtkts.3004@tickets.utiliquest.com   01/07/2010 10:57    
01070-267-031  0    00900      Normal Notice            emailtkts.3004@tickets.utiliquest.com   01/07/2010 10:57    
01070-269-021  0    00904      Normal Notice            emailtkts.3004@tickets.utiliquest.com   01/07/2010 10:57    
01070-269-022  0    00908      Normal Notice            emailtkts.3004@tickets.utiliquest.com   01/07/2010 10:57    
01070-267-032  0    00909      Normal Notice            emailtkts.3004@tickets.utiliquest.com   01/07/2010 10:57    
01070-269-023  0    00915      Normal Notice            emailtkts.3004@tickets.utiliquest.com   01/07/2010 10:59    
01070-267-033  0    00916      Normal Notice            emailtkts.3004@tickets.utiliquest.com   01/07/2010 10:59    
01070-269-024  0    00920      Normal Notice            emailtkts.3004@tickets.utiliquest.com   01/07/2010 11:31    
01070-267-034  0    00925      Normal Notice            emailtkts.3004@tickets.utiliquest.com   01/07/2010 11:31    
01070-267-035  0    00932      Normal Notice            emailtkts.3004@tickets.utiliquest.com   01/07/2010 11:31    
01070-269-025  0    00934      Normal Notice            emailtkts.3004@tickets.utiliquest.com   01/07/2010 11:00    
01070-269-026  0    00937      Normal Notice            emailtkts.3004@tickets.utiliquest.com   01/07/2010 11:00    
01070-267-036  0    00940      Normal Notice            emailtkts.occ3@tickets.utiliquest.com   01/07/2010 11:16    
01070-269-027  0    00942      Normal Notice            emailtkts.3004@tickets.utiliquest.com   01/07/2010 11:23    
01070-269-028  0    00946      Normal Notice            emailtkts.3004@tickets.utiliquest.com   01/07/2010 11:32    
01070-269-029  0    00954      Normal Notice            emailtkts.3004@tickets.utiliquest.com   01/07/2010 11:32    
01070-267-037  0    00957      Normal Notice            emailtkts.3004@tickets.utiliquest.com   01/07/2010 11:32    
01070-269-030  0    00958      Normal Notice            emailtkts.3004@tickets.utiliquest.com   01/07/2010 11:32    
01070-212-014  0    00964      Normal Notice            emailtkts.3004@tickets.utiliquest.com   01/07/2010 11:32    
01070-300-518  0    00974      Normal Notice            emailtkts.3004@tickets.utiliquest.com   01/07/2010 11:32    
01070-267-038  0    00981      Normal Notice            emailtkts.3004@tickets.utiliquest.com   01/07/2010 11:32    
01070-300-527  0    00985      Normal Notice            emailtkts.3004@tickets.utiliquest.com   01/07/2010 11:33    
01070-267-039  0    00987      Normal Notice            emailtkts.3004@tickets.utiliquest.com   01/07/2010 11:33    
01070-215-021  0    00999      Normal Notice            emailtkts.3004@tickets.utiliquest.com   01/07/2010 11:33    
01070-267-040  0    01005      Normal Notice            emailtkts.3004@tickets.utiliquest.com   01/07/2010 11:33    
01070-215-022  0    01008      Normal Notice            emailtkts.3004@tickets.utiliquest.com   01/07/2010 11:33    
01070-267-041  0    01013      Normal Notice            emailtkts.3004@tickets.utiliquest.com   01/07/2010 11:33    
01070-215-023  0    01019      Normal Notice            emailtkts.3004@tickets.utiliquest.com   01/07/2010 11:33    
01070-267-042  0    01021      Normal Notice            emailtkts.3004@tickets.utiliquest.com   01/07/2010 11:34    
01070-267-043  0    01028      Normal Notice            emailtkts.3004@tickets.utiliquest.com   01/07/2010 11:34    
01070-215-024  0    01032      Normal Notice            emailtkts.3004@tickets.utiliquest.com   01/07/2010 11:34    
01070-215-025  0    01042      Normal Notice            emailtkts.3004@tickets.utiliquest.com   01/07/2010 11:34    
01070-248-024  0    01086      Normal Notice            emailtkts.3004@tickets.utiliquest.com   01/07/2010 11:35    
01070-250-023  0    01093      Normal Notice            emailtkts.3004@tickets.utiliquest.com   01/07/2010 11:35    
01070-248-025  0    01097      Normal Notice            emailtkts.3004@tickets.utiliquest.com   01/07/2010 11:36    
01070-238-019  0    01230      Normal Notice            emailtkts.3004@tickets.utiliquest.com   01/07/2010 12:05    
01070-300-712  0    01260      Normal Notice            emailtkts.3004@tickets.utiliquest.com   01/07/2010 12:09    
01070-246-027  0    01304      Normal Notice            emailtkts.3004@tickets.utiliquest.com   01/07/2010 12:21    
01070-300-755  0    01319      Normal Notice            Cleared                                 01/07/2010 12:29    
01070-250-026  0    01321      Emergency Notice         emailtkts.3004@tickets.utiliquest.com   01/07/2010 12:29    
01070-266-022  0    01410      Emergency Notice         emailtkts.3004@tickets.utiliquest.com   01/07/2010 13:01    
01070-252-024  0    01464      Emergency Notice         emailtkts.3004@tickets.utiliquest.com   01/07/2010 13:14    
01070-267-052  0    01544      Emergency Notice         emailtkts.3004@tickets.utiliquest.com   01/07/2010 13:33    
01070-269-043  0    01661      Normal Notice            emailtkts.3004@tickets.utiliquest.com   01/07/2010 13:58    
01070-239-032  0    01707      Normal Notice            emailtkts.3004@tickets.utiliquest.com   01/07/2010 14:05    
01070-256-042  0    01721      Emergency Notice         emailtkts.3004@tickets.utiliquest.com   01/07/2010 14:08    
01070-231-045  0    01731      Normal Notice            emailtkts.3004@tickets.utiliquest.com   01/07/2010 14:10    
01070-270-035  0    01750      Normal Notice            emailtkts.3004@tickets.utiliquest.com   01/07/2010 14:14    
01070-250-042  0    01768      Normal Notice            emailtkts.3004@tickets.utiliquest.com   01/07/2010 14:14    
01070-270-037  0    01798      Normal Notice            emailtkts.3004@tickets.utiliquest.com   01/07/2010 14:19    
01070-301-284  0    02082      Normal Notice            emailtkts.3004@tickets.utiliquest.com   01/07/2010 15:26    
01070-236-028  0    02098      Normal Notice            emailtkts.3004@tickets.utiliquest.com   01/07/2010 15:33    
01070-301-315  0    02147      Normal Notice            emailtkts.3004@tickets.utiliquest.com   01/07/2010 15:42    
01070-301-332  0    02177      Normal Notice            emailtkts.3004@tickets.utiliquest.com   01/07/2010 15:49    
01070-260-047  0    02366      Normal Notice            emailtkts.3004@tickets.utiliquest.com   01/07/2010 16:48    
01070-246-076  0    02370      Normal Notice            emailtkts.3004@tickets.utiliquest.com   01/07/2010 16:49    
01070-267-077  0    02378      Normal Notice            emailtkts.3004@tickets.utiliquest.com   01/07/2010 16:51    
01070-242-068  0    02409      Insufficient Notice      emailtkts.3004@tickets.utiliquest.com   01/07/2010 17:10    


       Count   TypeOfMsg                
=============  =======================  
           6   Emergency Notice         
           1   Insufficient Notice      
          85   Normal Notice            
=============  =======================  
          92   Total Tickets            
