
AGL102  GAUPC  ClickScreener EOD for 01/07/2010

Ticket         Rev  Seq     Mc TypeOfMsg                Sent To                                 Sent Time           
=============  ===  ======  =  =======================  ======================================  ==================  
01070-252-001  0    00001      Emergency Notice         emailtkts.3004@tickets.utiliquest.com   01/07/2010 00:18    
01030-300-001  1    00003      Normal Notice            emailtkts.3004@tickets.utiliquest.com   01/07/2010 00:50    
01040-400-259  1    00017      Normal Notice            emailtkts.3004@tickets.utiliquest.com   01/07/2010 00:54    
01040-400-335  1    00059      Large Project Meeting Notemailtkts.3004@tickets.utiliquest.com   01/07/2010 00:55    
01040-240-053  1    00032      Normal Notice            emailtkts.3004@tickets.utiliquest.com   01/07/2010 00:57    
01040-401-022  1    00048      Normal Notice            emailtkts.3004@tickets.utiliquest.com   01/07/2010 00:58    
01040-401-168  1    00057      Normal Notice            emailtkts.3004@tickets.utiliquest.com   01/07/2010 00:58    
01070-243-002  0    00060      Emergency Notice         emailtkts.3004@tickets.utiliquest.com   01/07/2010 02:54    
12289-400-074  1    00062      Large Project Excavation emailtkts.3004@tickets.utiliquest.com   01/07/2010 05:33    
01070-400-014  0    00073      Normal Notice            emailtkts.3004@tickets.utiliquest.com   01/07/2010 07:08    
01070-400-021  0    00079      Normal Notice            emailtkts.3004@tickets.utiliquest.com   01/07/2010 07:09    
01070-400-021  0    00079      Normal Notice            emailtkts.3004@tickets.utiliquest.com   01/07/2010 07:10    
01070-234-001  0    00085      Emergency Notice         emailtkts.3004@tickets.utiliquest.com   01/07/2010 07:18    
01070-257-001  0    00093      Emergency Notice         emailtkts.3004@tickets.utiliquest.com   01/07/2010 07:30    
01070-258-002  0    00102      Emergency Notice         emailtkts.3004@tickets.utiliquest.com   01/07/2010 07:39    
01070-249-002  0    00106      Normal Notice            emailtkts.3004@tickets.utiliquest.com   01/07/2010 07:44    
01070-300-021  0    00123      Normal Notice            emailtkts.3004@tickets.utiliquest.com   01/07/2010 07:55    
01070-265-007  0    00150      Emergency Notice         emailtkts.3004@tickets.utiliquest.com   01/07/2010 08:09    
01070-300-040  0    00168      Normal Notice            emailtkts.3004@tickets.utiliquest.com   01/07/2010 08:15    
01070-265-008  0    00177      Emergency Notice         emailtkts.3004@tickets.utiliquest.com   01/07/2010 08:18    
01070-300-044  0    00184      Normal Notice            emailtkts.3004@tickets.utiliquest.com   01/07/2010 08:22    
01070-300-047  0    00188      Normal Notice            emailtkts.3004@tickets.utiliquest.com   01/07/2010 08:22    
01070-217-003  0    00190      Normal Notice            emailtkts.3004@tickets.utiliquest.com   01/07/2010 08:22    
01070-300-056  0    00195      Normal Notice            emailtkts.3004@tickets.utiliquest.com   01/07/2010 08:26    
01070-300-071  0    00227      Normal Notice            emailtkts.3004@tickets.utiliquest.com   01/07/2010 08:33    
01070-217-005  0    00236      Normal Notice            emailtkts.3004@tickets.utiliquest.com   01/07/2010 08:37    
01070-217-006  0    00245      Normal Notice            emailtkts.3004@tickets.utiliquest.com   01/07/2010 08:38    
01070-217-007  0    00247      Normal Notice            emailtkts.3004@tickets.utiliquest.com   01/07/2010 08:40    
01070-263-007  0    00258      Normal Notice            emailtkts.3004@tickets.utiliquest.com   01/07/2010 08:45    
01070-300-083  0    00259      Normal Notice            emailtkts.3004@tickets.utiliquest.com   01/07/2010 08:52    
01070-212-002  0    00266      Emergency Notice         emailtkts.3004@tickets.utiliquest.com   01/07/2010 09:17    
01070-249-007  0    00271      Emergency Notice         emailtkts.3004@tickets.utiliquest.com   01/07/2010 09:17    
01070-244-021  0    00276      Emergency Notice         emailtkts.3004@tickets.utiliquest.com   01/07/2010 09:17    
01070-300-093  0    00285      Normal Notice            emailtkts.3004@tickets.utiliquest.com   01/07/2010 09:17    
01070-300-098  0    00295      Normal Notice            emailtkts.3004@tickets.utiliquest.com   01/07/2010 09:18    
01070-257-008  0    00301      Normal Notice            emailtkts.3004@tickets.utiliquest.com   01/07/2010 09:18    
01070-248-007  0    00321      Emergency Notice         emailtkts.3004@tickets.utiliquest.com   01/07/2010 09:19    
01070-300-115  0    00322      Normal Notice            emailtkts.3004@tickets.utiliquest.com   01/07/2010 09:19    
01070-248-008  0    00330      Normal Notice            emailtkts.3004@tickets.utiliquest.com   01/07/2010 09:19    
01070-268-007  0    00350      Emergency Notice         emailtkts.3004@tickets.utiliquest.com   01/07/2010 09:20    
01070-242-007  0    00352      Normal Notice            emailtkts.3004@tickets.utiliquest.com   01/07/2010 09:20    
01070-232-007  0    00359      Normal Notice            emailtkts.3004@tickets.utiliquest.com   01/07/2010 09:20    
01070-300-133  0    00363      Normal Notice            emailtkts.3004@tickets.utiliquest.com   01/07/2010 09:20    
01070-265-014  0    00365      Emergency Notice         emailtkts.3004@tickets.utiliquest.com   01/07/2010 09:20    
01070-268-008  0    00370      Normal Notice            emailtkts.3004@tickets.utiliquest.com   01/07/2010 09:20    
01070-253-001  0    00372      Emergency Notice         emailtkts.3004@tickets.utiliquest.com   01/07/2010 09:20    
01070-300-154  0    00403      Normal Notice            emailtkts.3004@tickets.utiliquest.com   01/07/2010 09:38    
01070-300-158  0    00413      Normal Notice            emailtkts.3004@tickets.utiliquest.com   01/07/2010 09:40    
01070-244-027  0    00433      Normal Notice            emailtkts.3004@tickets.utiliquest.com   01/07/2010 09:41    
01070-254-001  0    00445      Emergency Notice         emailtkts.3004@tickets.utiliquest.com   01/07/2010 09:42    
01070-260-012  0    00453      Normal Notice            emailtkts.3004@tickets.utiliquest.com   01/07/2010 09:42    
01070-254-001  0    00445      Emergency Notice         emailtkts.3004@tickets.utiliquest.com   01/07/2010 09:43    
01070-260-012  0    00453      Normal Notice            emailtkts.3004@tickets.utiliquest.com   01/07/2010 09:44    
01070-300-186  0    00459      Normal Notice            emailtkts.3004@tickets.utiliquest.com   01/07/2010 09:44    
01070-241-012  0    00462      Normal Notice            emailtkts.3004@tickets.utiliquest.com   01/07/2010 09:44    
01070-241-012  0    00462      Normal Notice            emailtkts.3004@tickets.utiliquest.com   01/07/2010 09:44    
01070-241-013  0    00476      Normal Notice            emailtkts.3004@tickets.utiliquest.com   01/07/2010 09:44    
01070-241-014  0    00480      Normal Notice            emailtkts.3004@tickets.utiliquest.com   01/07/2010 09:44    
01070-241-013  0    00476      Normal Notice            emailtkts.occ3@tickets.utiliquest.com   01/07/2010 09:45    
01070-241-014  0    00480      Normal Notice            emailtkts.3004@tickets.utiliquest.com   01/07/2010 09:45    
01070-300-209  0    00492      Normal Notice            emailtkts.3004@tickets.utiliquest.com   01/07/2010 09:45    
01070-241-015  0    00497      Normal Notice            emailtkts.3004@tickets.utiliquest.com   01/07/2010 09:45    
01070-300-217  0    00501      Normal Notice            emailtkts.3004@tickets.utiliquest.com   01/07/2010 09:46    
01070-241-015  0    00497      Normal Notice            emailtkts.3004@tickets.utiliquest.com   01/07/2010 09:46    
01070-241-016  0    00503      Normal Notice            emailtkts.3004@tickets.utiliquest.com   01/07/2010 09:46    
01070-265-018  0    00505      Emergency Notice         emailtkts.3004@tickets.utiliquest.com   01/07/2010 09:46    
01070-300-217  0    00501      Normal Notice            emailtkts.3004@tickets.utiliquest.com   01/07/2010 09:46    
01070-300-228  0    00512      Normal Notice            emailtkts.3004@tickets.utiliquest.com   01/07/2010 09:46    
01070-241-017  0    00515      Normal Notice            emailtkts.3004@tickets.utiliquest.com   01/07/2010 09:46    
01070-241-016  0    00503      Normal Notice            emailtkts.3004@tickets.utiliquest.com   01/07/2010 09:46    
01070-265-018  0    00505      Emergency Notice         emailtkts.3004@tickets.utiliquest.com   01/07/2010 09:46    
01070-300-233  0    00525      Normal Notice            emailtkts.3004@tickets.utiliquest.com   01/07/2010 09:47    
01070-241-018  0    00540      Normal Notice            emailtkts.3004@tickets.utiliquest.com   01/07/2010 09:49    
01070-300-245  0    00547      Normal Notice            emailtkts.3004@tickets.utiliquest.com   01/07/2010 09:50    
01070-241-019  0    00551      Normal Notice            emailtkts.3004@tickets.utiliquest.com   01/07/2010 09:50    
01070-300-249  0    00556      Normal Notice            emailtkts.3004@tickets.utiliquest.com   01/07/2010 09:52    
01070-241-020  0    00557      Normal Notice            emailtkts.3004@tickets.utiliquest.com   01/07/2010 09:52    
01070-300-249  0    00556      Normal Notice            emailtkts.3004@tickets.utiliquest.com   01/07/2010 09:52    
01070-241-020  0    00557      Normal Notice            emailtkts.3004@tickets.utiliquest.com   01/07/2010 09:54    
01070-241-021  0    00564      Normal Notice            emailtkts.3004@tickets.utiliquest.com   01/07/2010 09:54    
01070-300-257  0    00566      Normal Notice            emailtkts.3004@tickets.utiliquest.com   01/07/2010 09:54    
01070-300-258  0    00567      Normal Notice            emailtkts.3004@tickets.utiliquest.com   01/07/2010 09:54    
01070-241-022  0    00571      Normal Notice            emailtkts.3004@tickets.utiliquest.com   01/07/2010 09:56    
01070-241-023  0    00582      Normal Notice            emailtkts.3004@tickets.utiliquest.com   01/07/2010 09:57    
01070-241-024  0    00586      Normal Notice            emailtkts.3004@tickets.utiliquest.com   01/07/2010 09:58    
01070-231-014  0    00589      Normal Notice            emailtkts.3004@tickets.utiliquest.com   01/07/2010 10:07    
01070-241-025  0    00599      Normal Notice            emailtkts.3004@tickets.utiliquest.com   01/07/2010 10:07    
01070-258-016  0    00611      Normal Notice            emailtkts.3004@tickets.utiliquest.com   01/07/2010 10:07    
01070-241-026  0    00618      Normal Notice            emailtkts.3004@tickets.utiliquest.com   01/07/2010 10:07    
01070-249-011  0    00621      Normal Notice            emailtkts.3004@tickets.utiliquest.com   01/07/2010 10:07    
01070-214-010  0    00628      Insufficient Notice      emailtkts.3004@tickets.utiliquest.com   01/07/2010 10:08    
01070-231-015  0    00647      Normal Notice            emailtkts.3004@tickets.utiliquest.com   01/07/2010 10:09    
01070-231-016  0    00655      Normal Notice            emailtkts.3004@tickets.utiliquest.com   01/07/2010 10:13    
01070-250-014  0    00670      Emergency Notice         emailtkts.3004@tickets.utiliquest.com   01/07/2010 10:13    
01070-231-017  0    00674      Normal Notice            emailtkts.3004@tickets.utiliquest.com   01/07/2010 10:17    
01070-231-018  0    00678      Normal Notice            emailtkts.3004@tickets.utiliquest.com   01/07/2010 10:17    
01070-231-019  0    00690      Normal Notice            emailtkts.3004@tickets.utiliquest.com   01/07/2010 10:20    
01070-231-020  0    00698      Normal Notice            emailtkts.3004@tickets.utiliquest.com   01/07/2010 10:22    
01070-231-021  0    00706      Normal Notice            emailtkts.3004@tickets.utiliquest.com   01/07/2010 10:25    
01070-300-346  0    00707      Normal Notice            emailtkts.3004@tickets.utiliquest.com   01/07/2010 10:25    
01070-300-348  0    00708      Normal Notice            emailtkts.3004@tickets.utiliquest.com   01/07/2010 10:25    
01070-300-350  0    00710      Normal Notice            emailtkts.3004@tickets.utiliquest.com   01/07/2010 10:25    
01070-231-022  0    00712      Normal Notice            emailtkts.3004@tickets.utiliquest.com   01/07/2010 10:25    
01070-300-360  0    00724      Normal Notice            emailtkts.3004@tickets.utiliquest.com   01/07/2010 10:29    
01070-231-025  0    00747      Normal Notice            emailtkts.3004@tickets.utiliquest.com   01/07/2010 10:35    
01070-300-382  0    00751      Normal Notice            emailtkts.3004@tickets.utiliquest.com   01/07/2010 10:35    
01070-231-026  0    00752      Normal Notice            emailtkts.3004@tickets.utiliquest.com   01/07/2010 10:35    
01070-300-383  0    00753      Normal Notice            emailtkts.3004@tickets.utiliquest.com   01/07/2010 10:35    
01070-258-018  0    00761      Emergency Notice         emailtkts.3004@tickets.utiliquest.com   01/07/2010 10:43    
01070-231-027  0    00762      Normal Notice            emailtkts.3004@tickets.utiliquest.com   01/07/2010 10:43    
01070-300-391  0    00766      Normal Notice            emailtkts.3004@tickets.utiliquest.com   01/07/2010 10:43    
01070-300-393  0    00771      Normal Notice            emailtkts.3004@tickets.utiliquest.com   01/07/2010 10:44    
01070-231-028  0    00773      Normal Notice            emailtkts.3004@tickets.utiliquest.com   01/07/2010 10:44    
01070-246-013  0    00774      Emergency Notice         emailtkts.3004@tickets.utiliquest.com   01/07/2010 10:44    
01070-300-396  0    00778      Normal Notice            emailtkts.3004@tickets.utiliquest.com   01/07/2010 10:44    
01070-231-029  0    00787      Normal Notice            emailtkts.3004@tickets.utiliquest.com   01/07/2010 10:44    
01070-257-001  1    00796      Emergency Notice         emailtkts.3004@tickets.utiliquest.com   01/07/2010 10:44    
01070-300-421  0    00809      Normal Notice            emailtkts.3004@tickets.utiliquest.com   01/07/2010 10:44    
01070-300-436  0    00826      Normal Notice            emailtkts.3004@tickets.utiliquest.com   01/07/2010 10:46    
01070-220-014  0    00830      Emergency Notice         emailtkts.3004@tickets.utiliquest.com   01/07/2010 10:48    
01070-300-444  0    00842      Normal Notice            emailtkts.3004@tickets.utiliquest.com   01/07/2010 10:49    
01070-266-013  0    00847      Normal Notice            emailtkts.3004@tickets.utiliquest.com   01/07/2010 10:49    
01070-220-015  0    00849      Normal Notice            emailtkts.3004@tickets.utiliquest.com   01/07/2010 10:49    
01070-300-450  0    00852      Normal Notice            emailtkts.3004@tickets.utiliquest.com   01/07/2010 10:49    
01070-231-023  0    00731      Normal Notice            emailtkts.3004@tickets.utiliquest.com   01/07/2010 10:51    
01070-254-006  0    00734      Emergency Notice         emailtkts.3004@tickets.utiliquest.com   01/07/2010 10:51    
01070-231-024  0    00736      Normal Notice            emailtkts.3004@tickets.utiliquest.com   01/07/2010 10:51    
01070-300-370  0    00739      Normal Notice            emailtkts.3004@tickets.utiliquest.com   01/07/2010 10:52    
01070-300-458  0    00867      Normal Notice            emailtkts.3004@tickets.utiliquest.com   01/07/2010 10:53    
01070-266-014  0    00872      Normal Notice            emailtkts.3004@tickets.utiliquest.com   01/07/2010 10:53    
01070-300-467  0    00880      Normal Notice            emailtkts.3004@tickets.utiliquest.com   01/07/2010 10:54    
01070-258-020  0    00889      Emergency Notice         emailtkts.3004@tickets.utiliquest.com   01/07/2010 10:57    
01070-266-015  0    00895      Normal Notice            emailtkts.3004@tickets.utiliquest.com   01/07/2010 10:57    
01070-300-478  0    00901      Normal Notice            emailtkts.3004@tickets.utiliquest.com   01/07/2010 10:57    
01070-266-016  0    00911      Normal Notice            emailtkts.3004@tickets.utiliquest.com   01/07/2010 10:58    
01070-266-017  0    00922      Normal Notice            emailtkts.3004@tickets.utiliquest.com   01/07/2010 11:31    
01070-300-497  0    00941      Normal Notice            emailtkts.3004@tickets.utiliquest.com   01/07/2010 11:23    
01070-258-021  0    00945      Emergency Notice         emailtkts.3004@tickets.utiliquest.com   01/07/2010 11:32    
01070-300-499  0    00947      Normal Notice            emailtkts.3004@tickets.utiliquest.com   01/07/2010 11:32    
01070-300-506  0    00956      Normal Notice            emailtkts.3004@tickets.utiliquest.com   01/07/2010 11:32    
01070-300-509  0    00967      Normal Notice            emailtkts.3004@tickets.utiliquest.com   01/07/2010 11:32    
01070-300-519  0    00976      Normal Notice            emailtkts.3004@tickets.utiliquest.com   01/07/2010 11:32    
01070-300-520  0    00978      Normal Notice            emailtkts.3004@tickets.utiliquest.com   01/07/2010 11:32    
01070-300-525  0    00984      Normal Notice            emailtkts.3004@tickets.utiliquest.com   01/07/2010 11:33    
01070-300-531  0    00990      Normal Notice            emailtkts.3004@tickets.utiliquest.com   01/07/2010 11:33    
01070-300-533  0    00994      Normal Notice            emailtkts.3004@tickets.utiliquest.com   01/07/2010 11:33    
01070-266-018  0    01009      Normal Notice            emailtkts.3004@tickets.utiliquest.com   01/07/2010 11:33    
01070-300-541  0    01011      Normal Notice            emailtkts.3004@tickets.utiliquest.com   01/07/2010 11:33    
01070-300-545  0    01016      Normal Notice            emailtkts.3004@tickets.utiliquest.com   01/07/2010 11:33    
01070-246-020  0    01027      Normal Notice            emailtkts.3004@tickets.utiliquest.com   01/07/2010 11:34    
01070-300-556  0    01037      Normal Notice            emailtkts.3004@tickets.utiliquest.com   01/07/2010 11:34    
01070-300-559  0    01045      Normal Notice            emailtkts.3004@tickets.utiliquest.com   01/07/2010 11:34    
01070-257-019  0    01050      Normal Notice            emailtkts.3004@tickets.utiliquest.com   01/07/2010 11:34    
01070-300-574  0    01068      Normal Notice            emailtkts.3004@tickets.utiliquest.com   01/07/2010 11:35    
01070-256-023  0    01076      Damage Notice            emailtkts.3004@tickets.utiliquest.com   01/07/2010 11:35    
01070-232-019  0    01098      Normal Notice            emailtkts.3004@tickets.utiliquest.com   01/07/2010 11:36    
01070-220-021  0    01121      Emergency Notice         emailtkts.3004@tickets.utiliquest.com   01/07/2010 11:37    
01070-300-620  0    01132      Normal Notice            emailtkts.3004@tickets.utiliquest.com   01/07/2010 11:41    
01070-300-622  0    01136      Normal Notice            emailtkts.3004@tickets.utiliquest.com   01/07/2010 11:41    
01070-300-626  0    01143      Normal Notice            emailtkts.3004@tickets.utiliquest.com   01/07/2010 11:42    
01070-300-641  0    01167      Normal Notice            emailtkts.3004@tickets.utiliquest.com   01/07/2010 11:46    
01070-300-651  0    01181      Normal Notice            emailtkts.3004@tickets.utiliquest.com   01/07/2010 11:49    
01070-236-010  0    01212      Emergency Notice         emailtkts.3004@tickets.utiliquest.com   01/07/2010 11:54    
01070-270-015  0    01216      Emergency Notice         emailtkts.3004@tickets.utiliquest.com   01/07/2010 11:56    
01070-300-681  0    01219      Normal Notice            emailtkts.3004@tickets.utiliquest.com   01/07/2010 11:57    
01070-202-004  0    01243      Normal Notice            emailtkts.3004@tickets.utiliquest.com   01/07/2010 12:05    
01070-300-703  0    01246      Normal Notice            emailtkts.3004@tickets.utiliquest.com   01/07/2010 12:05    
01070-300-705  0    01248      Normal Notice            emailtkts.3004@tickets.utiliquest.com   01/07/2010 12:05    
01070-248-030  0    01250      Normal Notice            emailtkts.3004@tickets.utiliquest.com   01/07/2010 12:05    
01070-270-016  0    01255      Normal Notice            emailtkts.3004@tickets.utiliquest.com   01/07/2010 12:08    
01070-220-025  0    01270      Emergency Notice         emailtkts.3004@tickets.utiliquest.com   01/07/2010 12:13    
01070-270-019  0    01285      Normal Notice            emailtkts.3004@tickets.utiliquest.com   01/07/2010 12:16    
01070-256-028  0    01289      Emergency Notice         emailtkts.3004@tickets.utiliquest.com   01/07/2010 12:16    
01070-258-022  0    01291      Normal Notice            emailtkts.3004@tickets.utiliquest.com   01/07/2010 12:17    
01070-270-020  0    01295      Normal Notice            emailtkts.3004@tickets.utiliquest.com   01/07/2010 12:21    
01070-256-029  0    01303      Emergency Notice         emailtkts.3004@tickets.utiliquest.com   01/07/2010 12:21    
01070-244-041  0    01328      Normal Notice            emailtkts.3004@tickets.utiliquest.com   01/07/2010 12:32    
01070-400-031  0    01330      Large Project Meeting Notemailtkts.3004@tickets.utiliquest.com   01/07/2010 12:32    
01070-220-027  0    01334      Normal Notice            emailtkts.3004@tickets.utiliquest.com   01/07/2010 12:35    
01070-250-027  0    01349      Emergency Notice         emailtkts.3004@tickets.utiliquest.com   01/07/2010 12:47    
01070-267-047  0    01357      Emergency Notice         emailtkts.3004@tickets.utiliquest.com   01/07/2010 12:47    
01070-267-048  0    01369      Normal Notice            emailtkts.3004@tickets.utiliquest.com   01/07/2010 12:49    
01070-300-798  0    01378      Normal Notice            emailtkts.3004@tickets.utiliquest.com   01/07/2010 12:50    
01070-300-821  0    01416      Normal Notice            emailtkts.3004@tickets.utiliquest.com   01/07/2010 13:01    
01070-300-828  0    01425      Normal Notice            emailtkts.3004@tickets.utiliquest.com   01/07/2010 13:05    
01070-300-829  0    01427      Normal Notice            emailtkts.3004@tickets.utiliquest.com   01/07/2010 13:05    
01070-300-837  0    01437      Normal Notice            emailtkts.3004@tickets.utiliquest.com   01/07/2010 13:09    
01070-300-838  0    01438      Normal Notice            emailtkts.3004@tickets.utiliquest.com   01/07/2010 13:09    
01070-257-022  0    01441      Emergency Notice         emailtkts.3004@tickets.utiliquest.com   01/07/2010 13:10    
01070-257-023  0    01452      Normal Notice            emailtkts.3004@tickets.utiliquest.com   01/07/2010 13:12    
01070-234-031  0    01484      Normal Notice            emailtkts.3004@tickets.utiliquest.com   01/07/2010 13:17    
01070-238-026  0    01492      Emergency Notice         emailtkts.3004@tickets.utiliquest.com   01/07/2010 13:21    
01070-217-045  0    01534      Normal Notice            emailtkts.3004@tickets.utiliquest.com   01/07/2010 13:30    
01070-217-046  0    01542      Normal Notice            emailtkts.3004@tickets.utiliquest.com   01/07/2010 13:32    
01070-217-047  0    01549      Normal Notice            emailtkts.3004@tickets.utiliquest.com   01/07/2010 13:33    
01070-217-048  0    01557      Normal Notice            emailtkts.3004@tickets.utiliquest.com   01/07/2010 13:37    
01070-300-040  1    01561      Normal Notice            emailtkts.3004@tickets.utiliquest.com   01/07/2010 13:37    
01070-300-920  0    01570      Normal Notice            emailtkts.3004@tickets.utiliquest.com   01/07/2010 13:39    
01070-266-025  0    01575      Normal Notice            emailtkts.3004@tickets.utiliquest.com   01/07/2010 13:41    
01070-260-031  0    01581      Damage Notice            emailtkts.3004@tickets.utiliquest.com   01/07/2010 13:42    
01040-253-041  3    01589      Normal Notice            emailtkts.3004@tickets.utiliquest.com   01/07/2010 13:43    
01070-264-010  0    01592      Normal Notice            emailtkts.3004@tickets.utiliquest.com   01/07/2010 13:44    
01070-246-042  0    01613      Normal Notice            emailtkts.3004@tickets.utiliquest.com   01/07/2010 13:48    
01070-236-023  0    01615      Emergency Notice         emailtkts.3004@tickets.utiliquest.com   01/07/2010 13:48    
01070-246-043  0    01619      Normal Notice            emailtkts.3004@tickets.utiliquest.com   01/07/2010 13:49    
01070-269-042  0    01628      Emergency Notice         emailtkts.3004@tickets.utiliquest.com   01/07/2010 13:49    
01070-249-026  0    01646      Normal Notice            emailtkts.3004@tickets.utiliquest.com   01/07/2010 13:53    
01070-258-034  0    01656      Normal Notice            emailtkts.3004@tickets.utiliquest.com   01/07/2010 13:58    
01070-267-057  0    01709      Normal Notice            emailtkts.3004@tickets.utiliquest.com   01/07/2010 14:05    
01070-250-041  0    01734      Design Notice            emailtkts.3004@tickets.utiliquest.com   01/07/2010 14:10    
01070-301-054  0    01763      Normal Notice            emailtkts.3004@tickets.utiliquest.com   01/07/2010 14:14    
01070-220-033  0    01766      Emergency Notice         emailtkts.3004@tickets.utiliquest.com   01/07/2010 14:14    
01070-256-043  0    01769      Normal Notice            Cleared                                 01/07/2010 14:15    
01070-256-044  0    01793      Normal Notice            emailtkts.3004@tickets.utiliquest.com   01/07/2010 14:17    
01070-249-028  0    01842      Normal Notice            emailtkts.3004@tickets.utiliquest.com   01/07/2010 14:28    
01070-220-036  0    01861      Emergency Notice         emailtkts.3004@tickets.utiliquest.com   01/07/2010 14:32    
01070-254-020  0    01893      Normal Notice            emailtkts.3004@tickets.utiliquest.com   01/07/2010 14:40    
01070-252-033  0    01897      Normal Notice            emailtkts.3004@tickets.utiliquest.com   01/07/2010 14:41    
01070-237-021  0    01907      Emergency Notice         emailtkts.3004@tickets.utiliquest.com   01/07/2010 14:42    
01070-252-034  0    01917      Normal Notice            emailtkts.3004@tickets.utiliquest.com   01/07/2010 14:46    
01070-301-180  0    01919      Normal Notice            emailtkts.3004@tickets.utiliquest.com   01/07/2010 14:47    
01070-301-198  0    01945      Normal Notice            emailtkts.3004@tickets.utiliquest.com   01/07/2010 14:53    
01070-263-029  0    01958      Emergency Notice         emailtkts.3004@tickets.utiliquest.com   01/07/2010 14:56    
01070-253-033  0    01963      Normal Notice            Cleared                                 01/07/2010 15:00    
01070-301-230  0    01991      Normal Notice            emailtkts.3004@tickets.utiliquest.com   01/07/2010 15:09    
01070-268-038  0    02032      Normal Notice            emailtkts.3004@tickets.utiliquest.com   01/07/2010 15:17    
01070-301-261  0    02038      Normal Notice            emailtkts.3004@tickets.utiliquest.com   01/07/2010 15:17    
01070-265-057  0    02051      Emergency Notice         emailtkts.3004@tickets.utiliquest.com   01/07/2010 15:22    
01070-268-039  0    02052      Normal Notice            emailtkts.3004@tickets.utiliquest.com   01/07/2010 15:22    
01070-249-030  0    02062      Normal Notice            emailtkts.3004@tickets.utiliquest.com   01/07/2010 15:22    
01070-217-059  0    02067      Normal Notice            emailtkts.3004@tickets.utiliquest.com   01/07/2010 15:26    
01070-246-053  0    02068      Insufficient Notice      emailtkts.3004@tickets.utiliquest.com   01/07/2010 15:26    
01070-251-003  0    02080      Normal Notice            emailtkts.3004@tickets.utiliquest.com   01/07/2010 15:26    
01070-249-031  0    02090      Normal Notice            emailtkts.3004@tickets.utiliquest.com   01/07/2010 15:29    
01070-268-040  0    02096      Normal Notice            emailtkts.3004@tickets.utiliquest.com   01/07/2010 15:29    
01070-249-032  0    02103      Normal Notice            emailtkts.3004@tickets.utiliquest.com   01/07/2010 15:33    
01070-251-004  0    02105      Normal Notice            emailtkts.3004@tickets.utiliquest.com   01/07/2010 15:33    
01070-231-052  0    02113      Normal Notice            emailtkts.3004@tickets.utiliquest.com   01/07/2010 15:33    
01070-249-033  0    02117      Normal Notice            emailtkts.3004@tickets.utiliquest.com   01/07/2010 15:37    
01070-265-060  0    02126      Insufficient Notice      emailtkts.3004@tickets.utiliquest.com   01/07/2010 15:37    
01070-249-034  0    02127      Normal Notice            emailtkts.3004@tickets.utiliquest.com   01/07/2010 15:37    
01070-249-035  0    02138      Normal Notice            emailtkts.3004@tickets.utiliquest.com   01/07/2010 15:40    
01070-268-041  0    02145      Normal Notice            emailtkts.3004@tickets.utiliquest.com   01/07/2010 15:42    
01070-249-036  0    02146      Normal Notice            emailtkts.3004@tickets.utiliquest.com   01/07/2010 15:42    
01070-249-037  0    02173      Normal Notice            emailtkts.3004@tickets.utiliquest.com   01/07/2010 15:48    
01070-234-056  0    02193      Normal Notice            emailtkts.3004@tickets.utiliquest.com   01/07/2010 15:54    
01070-238-037  0    02254      Emergency Notice         emailtkts.3004@tickets.utiliquest.com   01/07/2010 16:20    
01070-217-065  0    02256      Normal Notice            emailtkts.3004@tickets.utiliquest.com   01/07/2010 16:20    
01070-301-381  0    02286      Normal Notice            emailtkts.3004@tickets.utiliquest.com   01/07/2010 16:20    
01070-251-008  0    02299      Emergency Notice         emailtkts.3004@tickets.utiliquest.com   01/07/2010 16:21    
01070-301-384  0    02301      Normal Notice            emailtkts.3004@tickets.utiliquest.com   01/07/2010 16:21    
01070-301-384  1    02305      Normal Notice            Cleared                                 01/07/2010 16:22    
01070-301-392  0    02318      Normal Notice            emailtkts.3004@tickets.utiliquest.com   01/07/2010 16:26    
01070-250-053  0    02337      Emergency Notice         emailtkts.3004@tickets.utiliquest.com   01/07/2010 16:36    
01070-242-064  0    02338      Normal Notice            emailtkts.3004@tickets.utiliquest.com   01/07/2010 16:36    
01070-300-541  1    02382      Normal Notice            Cleared                                 01/07/2010 16:54    
01070-268-048  0    02398      Emergency Notice         emailtkts.3004@tickets.utiliquest.com   01/07/2010 17:03    
01070-238-045  0    02416      Emergency Notice         emailtkts.3004@tickets.utiliquest.com   01/07/2010 17:53    
01070-238-046  0    02417      Emergency Notice         emailtkts.3004@tickets.utiliquest.com   01/07/2010 17:53    
01070-256-057  0    02419      Emergency Notice         emailtkts.3004@tickets.utiliquest.com   01/07/2010 17:54    
01070-259-050  0    02421      Emergency Notice         emailtkts.3004@tickets.utiliquest.com   01/07/2010 18:09    
01070-247-009  0    02427      Emergency Notice         emailtkts.3004@tickets.utiliquest.com   01/07/2010 20:10    
01070-247-011  0    02441      Emergency Notice         emailtkts.3004@tickets.utiliquest.com   01/07/2010 20:41    
01070-301-475  0    02468      Normal Notice            emailtkts.3004@tickets.utiliquest.com   01/07/2010 22:37    


       Count   TypeOfMsg                
=============  =======================  
           2   Damage Notice            
           1   Design Notice            
          53   Emergency Notice         
           3   Insufficient Notice      
           1   Large Project Excavation 
           2   Large Project Meeting Not
         202   Normal Notice            
=============  =======================  
         264   Total Tickets            
