
INLEMPUTA 00008A USAS 04/23/13 09:23:25 A31130329-00A NORM NEW GRID

Ticket : A31130329  Date: 04/23/13 Time: 09:18 Oper: LAC Chan: 100
Old Tkt: A31130329  Date: 04/23/13 Time: 09:23 Oper: LAC Revision: 00A

Company: SUPERIOR SOD                   Caller: SHERRI
Co Addr: 16600 HELLMAN AVE
City&St: CORONA, CA                     Zip: 92880      Fax: 909-786-4920
Phone: 909-923-5068 Ext:      Call back: 730-5
Formn: JOSE                 Phone: 661-304-3261

State: CA County: SAN BERNARDINO  Place: CHINO
Delineated: Y
Delineated Method: WHITEPAINT
Address: 8348        Street:KIMBALL AVE
X/ST 1 : WALKER AVE
MPM 1:             MPM 2:
Locat:

Excav Enters Into St/Sidewalk: N

Grids: 0682F064     0682F0712    0682G063     0682G071
Lat/Long  : 33.969165/-117.623906 33.969203/-117.618455
          : 33.968342/-117.623900 33.968379/-117.618449
Caller GPS:

Boring: Y  Explosives: N  Vacuum: N
Re-Mark: N

Work : PLANTING SOD
Wkend: Y  Night: Y
Work date: 04/25/13 Time: 09:19 Hrs notc: 048 Work hrs: 048 Priority: 2
Instruct : MARK BY                        Permit: NOT REQUIRED
Done for : SUPERIOR SOD

Tkt Exp: 05/21/13

Mbrs : CHI01  INLEMPUTA     JCS01  SCG1OD SCG29T USCE34 UTWCCHNO      UVZPOM




DigAlert Group



,  
Tel: (909) 993-
Fax: 
Email: digalert@ieua.org
http://www.ieua.org