
INLEMPUTA 00005B USAS 04/22/13 08:28:23 A30870233-01B NORM UPDT GRID

Ticket : A30870233  Date: 04/22/13 Time: 08:28 Oper: WEBU Chan: WEB
Old Tkt: A30870233  Date: 03/28/13 Time: 08:51 Oper: LYD Revision: 01B

Company: CASS CONSTRUCTION              Caller: MIKE KELLERMAN
Co Addr: PO BOX 309
City&St: EL CAJON, CA                   Zip: 92022
Phone: 909-208-5151 Ext:      Call back: ANYTIME
Formn: MIKE
Email: APARRAVANO@CASSCONTRUCTION.COM

State: CA County: SAN BERNARDINO  Place: CHINO
Delineated: Y
Delineated Method: WHITEPAINT
Address:             Street:PINE AVE
X/ST 1 : HELMAN AVE
MPM 1:             MPM 2:
Locat: N/SIDE OF PINE AVE MARKING FRM EDGE OF ASPHALT TO PROPERTY LINE AT APPROX
     : 1340FT & 2380FT W/OF HELLMAN AVE MARK BOTH POINTS W FOR 20FT

Excav Enters Into St/Sidewalk: N

Grids: 0712G0112
Lat/Long  : 33.959457/-117.619484 33.960117/-117.614860
          : 33.958644/-117.619368 33.959304/-117.614744
Caller GPS:

Boring: N  Explosives: N  Vacuum: N
Re-Mark: N

Work : INSTALL UGRND UTILS
Wkend: N  Night: N
Work date: 04/22/13 Time: 08:28 Hrs notc: 000 Work hrs: 001 Priority: 2
Instruct : WORK CONTINUING                Permit: NOT REQUIRED
Done for : WESTERN NATIONAL CONSTRUCTORS

Tkt Exp: 05/20/13

                                  COMMENTS

**RESEND**UPDATE ONLY-WORK CONT PER ANGIE PARRAVANO--[WEBU 04/22/13 08:28]

Mbrs : INLEMPUTA     SAW01  SCG1OD UVZPOM
