
INLEMPUTA 00005A USAS 04/23/13 08:08:27 A30861109-01A REMK REMK GRID

Ticket : A30861109  Date: 04/23/13 Time: 08:06 Oper: EVA Chan: 100
Old Tkt: A30530653  Date: 02/22/13 Time: 13:28 Oper: MMD Revision: 01A

Company: BEMUS LANDSCAPE                Caller: MIGUEL BOYZO
Co Addr: 1001 CALLE AMANECER
City&St: SAN CLEMENTE, CA               Zip: 92673      Fax: 888-557-7911
Phone: 888-557-7910 Ext:      Call back: ANYTIME
Formn: JOSE OROZCO          Phone: 714-720-8530

State: CA County: SAN BERNARDINO  Place: CHINO
Delineated: Y
Delineated Method: WHITEPAINT
Address:             Street:EUCALYPTUS AVE
X/ST 1 : SAN ANTONIO AVE
MPM 1:             MPM 2:
Locat: MARK AREA EXTENDING FROM S/SIDE OF EUCALYPTUS AVE S/FOR APPROX 80FT FROM
     : SAN ANTONIO AVE W/FOR 750FT

Excav Enters Into St/Sidewalk: Y

Grids: 0682B041
Lat/Long  : 33.990601/-117.661547 33.990631/-117.658086
          : 33.989777/-117.661540 33.989807/-117.658078
Caller GPS:

Boring: N  Explosives: N  Vacuum: N
Re-Mark: Y
Re-Mark Type: ALL

Work : INSTALL DRAIN LINES/IRRIGATION/LANDSCAPE
Wkend: Y  Night: N
Work date: 04/23/13 Time: 08:08 Hrs notc: 000 Work hrs: 000 Priority: 2
Instruct : REQUEST REMARKS                Permit: NOT REQUIRED
Done for : STANDARD PACIFIC HOMES

Tkt Exp: 05/21/13

                                  COMMENTS

REF EXP TICKET A030530653, REQUEST REMARKS FROM ALL-WORK CONT PER MIGUEL--[KKP
03/27/13 16:17]
**RESEND**REQUEST REMARKS FROM ALL-WORK CONT PER MIGUEL BOYZO--[EVA 04/23/13
08:08]

Mbrs : CHI01  INLEMPUTA     SCG1OD USCE34 UTWCCHNO      UVZPOM
