
INLEMPUTA 00011A USAS 04/22/13 16:59:09 A31121381-00A NORM NEW GRID

Ticket : A31121381  Date: 04/22/13 Time: 16:36 Oper: BSV Chan: 100
Old Tkt: A31121381  Date: 04/22/13 Time: 16:58 Oper: BSV Revision: 00A

Company: CROWN CONTRACTING              Caller: REX
Co Addr: 7311 HOPI TRL
City&St: YUCCA VALLEY, CA               Zip: 92284      Fax: 760-203-0170
Phone: 651-492-6821 Ext:      Call back: DAYTIME
Formn: REX                  Phone: 760-203-1733 Ext: OFFIC
Email: INFO@CROWNCONTRACTINGONLINE.COM

State: CA County: SAN BERNARDINO  Place: CHINO
Delineated: Y
Delineated Method: OTHER
Address:             Street:EUCLID AVE
X/ST 1 : PINE AVE
MPM 1:             MPM 2:
Locat: WORKING WITHIN THE PRADO REGIONAL PARK AND WORK IS WITHIN FENCED AREA AT
     : PARKING LOT 3 MAINTENANCE YARD     ((CALLER STATES PARK HAS ADDRESSESS OF
     : 34 JOHNSON AND 16700 EUCLID AVE X/ST PINE ST))  -UPON ARRIVAL PLEASE GO
     : TO ENTRANCE GATE, OR IF ANY QUESTIONS PLEASE CALL REX-   *AREA HAS BEEN
     : DELINEATED WITH YELLOW PAINT ON THE GROUND* [MAP REVIEWED WITH PEG]

Excav Enters Into St/Sidewalk: N

Grids: 0712C0234    0712C03      0712C0412    0712D02234
Grids: 0712D03      0712D04      0712E04123
Lat/Long  : 33.948226/-117.656030 33.954055/-117.637433
          : 33.930216/-117.650384 33.936045/-117.631788
Caller GPS:

Boring: N  Explosives: N  Vacuum: N
Re-Mark: N

Work : REPLACE MAIN SWITCH GEAR
Wkend: N  Night: N
Work date: 04/30/13 Time: 08:00 Hrs notc: 183 Work hrs: 135 Priority: 2
Instruct : MARK BY                        Permit: NOT REQUIRED
Done for : CO/OF SAN BERNARDINO

Tkt Exp: 05/20/13

Mbrs : CHI01  INLEMPUTA     SAW01  SCG1OD USCE34 UVZPOM WMW01




DigAlert Group



,  
Tel: (909) 993-
Fax: 
Email: digalert@ieua.org
http://www.ieua.org