
INLEMPUTA 00001A USAS 04/23/13 07:31:05 A31130073-00A RUSH NEW GRID

Ticket : A31130073  Date: 04/23/13 Time: 07:12 Oper: LOR Chan: 100
Old Tkt: A31130073  Date: 04/23/13 Time: 07:30 Oper: LOR Revision: 00A

Company: J & L SIGNS                    Caller: MARK GULLEY (M G GRAPHICS)
Co Addr: UNKNOWN
City&St:                                Zip:
Phone: 951-205-4260 Ext: CELL Call back: ANYTIME
Formn: JOHN
Email: MARK.GULLEY@MGGRAPHICSANDSIGNS.COM

State: CA County: SAN BERNARDINO  Place: RANCHO CUCAMONGA
Delineated: N
Address:             Street:ETIWANDA AVE
X/ST 1 : ARROW ROUTE
MPM 1:             MPM 2:
Locat: W/SIDE OF ETIWANDA AVE, APPROX 300FT, 600FT, 900FT, 1200FT, & 1500FT S/OF
     : ARROW ROUTE; S/W COR/OF ARROW ROUTE & ETIWANDA AVE; S/SIDE OF ARROW
     : ROUTE, APPROX 300FT, 600FT, 900FT, 1200FT, 1500FT, 1800FT, 2100FT, &
     : 2400FT W/OF ETIWANDA AVE;  (LOC WILL BE DELINEATED WITH CHALK TODAY:
     : 4-23-13, BY 8:45AM)

Excav Enters Into St/Sidewalk: N

Grids: 0603G024     0603H0234    0603H0312
Lat/Long  : 34.099671/-117.532283 34.099404/-117.523250
          : 34.094721/-117.532430 34.094454/-117.523396
Caller GPS:

Boring: Y  Explosives: N  Vacuum: N
Re-Mark: N

Work : INSTALL SIGNS (14: APPROX 36 INCHES DEEP)
Wkend: N  Night: N
Work date: 04/23/13 Time: 09:00 Hrs notc: 001 Work hrs: 001 Priority: 0
Instruct : MARK BY                        Permit: NOT AVAILABLE
Done for : M G GRAPHICS

Tkt Exp: 05/21/13

Mbrs : ATTATL ATTDSOUTH     CUC01  FWC01  INLEMPUTA     MWD04  NEXTGLAVEN
SCE17  SCG1OD SCG28T UCHRTCM       UROCMGA       USCE06 USCE83RIV     UTWCONT
UVZRCC
