
INLEMPUTA 00009B USAS 04/22/13 08:29:50 A30840666-02B NORM UPDT GRID

Ticket : A30840666  Date: 04/22/13 Time: 08:29 Oper: WEBU Chan: WEB
Old Tkt: A30840666  Date: 03/25/13 Time: 11:13 Oper: CAC Revision: 02B

Company: CASS CONSTRUCTION              Caller: MIKE KELLERMAN
Co Addr: PO BOX 309
City&St: EL CAJON, CA                   Zip: 92022
Phone: 909-208-5151 Ext:      Call back: ANYTIME
Formn: MIKE                 Phone: 619-590-0929
Email: APARRAVANO@CASSCONTRUCTION.COM

State: CA County: SAN BERNARDINO  Place: ONTARIO
Delineated: Y
Delineated Method: WHITEPAINT
Address:             Street:N ARCHIBALD AVE
X/ST 1 : E INLAND EMPIRE BLVD
MPM 1:             MPM 2:
Locat: ENTIRE INTER/OF N ARCHIBALD AVE AND E INLAND EMPIRE BLVD;   FROM PROPERTY
     : LINE TO PROPERTY LINE ON E INLAND EMPIRE BLVD FROM N ARCHIBALD AVE CONT
     : E/FOR APPROX. 2650 FT TO N TURNER AVE

Excav Enters Into St/Sidewalk: Y

Grids: 0602J064     0602J072     0603A0634    0603A0712
Lat/Long  : 34.070696/-117.593883 34.070606/-117.584072
          : 34.069845/-117.593891 34.069754/-117.584080
Caller GPS:

Boring: N  Explosives: N  Vacuum: N
Re-Mark: N

Work : WET UTILITY INSTALLATION
Wkend: N  Night: N
Work date: 04/22/13 Time: 08:29 Hrs notc: 000 Work hrs: 001 Priority: 2
Instruct : WORK CONTINUING                Permit: NOT REQUIRED
Done for : BROOKFIELD HOMES

Tkt Exp: 05/20/13

                                  COMMENTS

**RESEND**REQUEST REMARKS FROM WATER-WORK CONT PLEASE ONLY INLAND EMPIRE
UTILITIES  RESPOND FOR WATER PER ANGIE--[LLF 04/15/13 11:14]
**RESEND**UPDATE ONLY-WORK CONT PER ANGIE PARRAVANO--[WEBU 04/22/13 08:29]

Mbrs : ATTDSOUTH     CUC01  INLEMPUTA     ONTRAF ONTWTRSWR     SBC01  SCG1OD
TWTIE  UACRIV UROCMGA       USCE34 UTWCONT       UVZRCC
