
INLEMPUTA 00011A USAS 04/23/13 12:09:21 A30700887-05A NORM RXMT GRID

Ticket : A30700887  Date: 04/23/13 Time: 12:06 Oper: LLF Chan: 100
Old Tkt: A30700887  Date: 03/11/13 Time: 15:01 Oper: NHR Revision: 05A

Company: SHAWNEE CONSTRUCTION           Caller: TAMMY
Co Addr: PO BOX 1166
City&St: CHINO, CA                      Zip: 91708      Fax: 909-393-7191
Phone: 909-393-5271 Ext: 301  Call back: 7A-5PM
Formn: BOB                  Phone: 909-721-3313
Email: SHWNEECO@AOL.COM

State: CA County: SAN BERNARDINO  Place: ONTARIO
Delineated: Y
Delineated Method: WHITEPAINT
Address:             Street:ONTARIO MILLS PKY
X/ST 1 : VINTAGE AVE
MPM 1:             MPM 2:
Locat: MARK FROM S/CURB TO THE N/PROPERTY LINE ON ONTARIO MILLS PKY FROM 5250
     : ONTARIO MILLS PKY CONT W/FOR APPROX 1000FT  TO THE DAY CREEK CHANNEL -
     : DAY CREEK CHANNEL IS LOCATION IS BTWN W/MOST VINTAGE AVE AND 15FRWY   (
     : REQUESTING STAND BY WITH SC GAS  ON THURSDAY 3/14 AT 7AM)

Excav Enters Into St/Sidewalk: Y

Grids: 0603F0634
Lat/Long  : 34.070386/-117.542337 34.070327/-117.538011
          : 34.069567/-117.542349 34.069508/-117.538023
Caller GPS:

Boring: N  Explosives: N  Vacuum: N
Re-Mark: N

Work : WATER AND STORM DRAIN WORK
Wkend: N  Night: N
Work date: 04/23/13 Time: 12:07 Hrs notc: 000 Work hrs: 000 Priority: 2
Instruct :                                Permit: NOT REQUIRED
Done for : HILLWOOD CONSTRUCTION

Tkt Exp: 05/21/13

                                  COMMENTS

**RESEND**CALLER REQ A STAND BY FROM SC GAS TRANSMISSION AND DISTRIBUTION FOR
3/27 @ 8:00AM PER TAMMY--[LLF 03/20/13 09:49]
**RESEND**UPDATE ONLY-WORK CONT PER TAMMY--[EMB 04/01/13 15:05]
**RESEND**REQUEST REMARKS FROM ALL-WORK CONT PER TAMMY--[LAC 04/03/13 08:41]
**RESEND**CALLER REQUESTING GAS STAND BY 4/8/13 7:30 AM, PLEASE CALL BOB TO
CONFIRM REQUEST 909 721-3313 PER TAMMY--[LAC 04/03/13 08:43]
**RESEND**CALLER REQ UTILIQUEST FOR VERIZON AND SCE PLEASE RESPOND TO CLARIFY
MARKINGS, UNABLE TO LOC LINES WHERE MARKED, CREW IS ONSITE WAITING, PLEASE CALL
BOB LOCKWOOD @ 909-721-3313 WITH ETA PER TAMMY--[LLF 04/23/13 12:09]

Mbrs : CUC01  INLEMPUTA     ONTWTRSWR     SCG1OD SCG28T USCE34 UVZRCC
