
INLEMPUTA 00017A USAS 04/23/13 16:25:40 A31131209-00A NORM NEW GRID

Ticket : A31131209  Date: 04/23/13 Time: 16:13 Oper: RKC Chan: 100
Old Tkt: A31131209  Date: 04/23/13 Time: 16:25 Oper: RKC Revision: 00A

Company: OPTIMUM INC                    Caller: TONY ROSS
Co Addr: 193 N ORANGE ST
City&St: RIVERSIDE, CA                  Zip: 92501      Fax: 951-213-2234
Phone: 951-213-2233 Ext:      Call back: DAYTIME
Formn: TONY                 Phone: 951-526-9931
Email: OPTIMUMTONY@LA.TWCBC.COM

State: CA County: SAN BERNARDINO  Place: RANCHO CUCAMONGA
Delineated: Y
Delineated Method: WHITEPAINT
Address:             Street:MILLIKEN AVE
X/ST 1 : TERRA VISTA PKY E
MPM 1:             MPM 2:
Locat: FROM THE N/E/CORNER OF TERRA VISTA PKY E (AKA TERRA VISTA PKY W) AND
     : MILLIKEN AVE CONT N/ON THE E/SIDE OF MILLIKEN AVE FOR APPROXIMATELY
     : 620FT; FROM THE N/E/CORNER OF TERRA VISTA PKY E AND MILLIKEN AVE CONT
     : E/ON THE N/SIDE OF TERRA VISTA PKY E TO THE N/W/CORNER OF OF ELLENA W AND
     : TERRA VISTA PKY E;  FROM THE N/W/CORNER OF ELLENA W AND TERRA VISTA PKY E
     : CONT N/ON THE W/SIDE OF ELLENA W FOR APPROXIMATELY 25FT AT THIS POINT
     : CROSS TO THE S/W/CORNER OF ELLENA W AND TERRA VISTA PKY E;

Excav Enters Into St/Sidewalk: Y

Grids: 0573D063     0573D0712
Lat/Long  : 34.119970/-117.560060 34.121555/-117.558628
          : 34.117339/-117.557147 34.118924/-117.555715
Caller GPS:

Boring: Y  Explosives: N  Vacuum: N
Re-Mark: N

Work : PLACE CONDUIT AND VAULTS
Wkend: N  Night: N
Work date: 04/25/13 Time: 16:14 Hrs notc: 048 Work hrs: 048 Priority: 2
Instruct : MARK BY                        Permit: NOT AVAILABLE
Done for : CHARTER COMMUNICATIONS

Tkt Exp: 05/21/13

Mbrs : CUC01  INLEMPUTA     NEXTGLAVEN    SCE17  SCG1OD SGV01TRNS     UCHRTCM
UROCMGA       USCE06 UVZPOM
