
INLEMPUTA 00001B USAS 04/23/13 08:18:58 A23341069-12B NORM UPDT GRID

Ticket : A23341069  Date: 04/23/13 Time: 08:18 Oper: WEBU Chan: WEB
Old Tkt: A23341069  Date: 11/29/12 Time: 17:19 Oper: LLF Revision: 12B

Company: R.I.C. CONSTRUCTION CO., INC.  Caller: KAREN JACOBS
Co Addr: 10675 E AVE
City&St: HESPERIA, CA                   Zip: 92345
Phone: 760-244-7749 Ext:      Call back: 7AM - 4PM
Formn: TOM COOK             Phone: 760-617-8965
Email: KAREN.JACOBS@RICCONSTRUCTION.COM

State: CA County: SAN BERNARDINO  Place: ONTARIO
Delineated: Y
Delineated Method: WHITEPAINT
Address:             Street:S BON VIEW AVE
X/ST 1 : WOODLAWN ST
X/ST 2 : E FRANCIS ST
MPM 1:             MPM 2:
Locat: 1425 AND 1333 S BONVIEW AVE, X/ST BTWN WOODLAWN ST AND E FRANCIS ST,
     : (CALLER STATES ADDRESSES ARE ADJACENT TO EACH OTHER)

Excav Enters Into St/Sidewalk: Y

Grids: 0642D024     0642D0324    0642D042
Lat/Long  : 34.050891/-117.637883 34.050906/-117.636788
          : 34.040763/-117.637739 34.040779/-117.636644
Caller GPS:

Boring: N  Explosives: N  Vacuum: Y
Re-Mark: N

Work : SITE MITIGATION AND SITE ELECTRICAL AND SECURITY IMPROVEMENT
Wkend: N  Night: N
Work date: 04/23/13 Time: 08:18 Hrs notc: 000 Work hrs: 001 Priority: 2
Instruct : WORK CONTINUING                Permit: NOT REQUIRED
Done for : C/OF ONTARIO

Tkt Exp: 05/21/13

                                  COMMENTS

**RESEND**REQUEST REMARKS FROM ALL-WORK CONT RIC CONSTRUCTION WOULD LIKE TO
REQUEST A MEET & MARK ON WEDS 12/5 IN THE AFTERNOON.  CONTACT SUPERINTENDENT TOM
COOK 760-617-8965 PER SITE MITIGATION AND SITE ELECT--[DIGRIC 12/03/12 17:05]
**RESEND**REQUEST REMARKS FROM GAS,WATER-WORK CONT WATER LINES AND HIGH PRESSURE
GAS LINES WERE NOT ORIGINALLY MARKED.  REQUESTING MARKS FOR THOSE FACILITIES.
PER STORM WATER MITIGATION--[DIGRIC 12/10/12 16:04]
**RESEND**UPDATE ONLY-WORK CONT PER STORM WATER--[DIGRIC 12/27/12 10:25]
**RESEND**REQUEST REMARKS FROM ALL-WORK CONT REQUEST FOR REMARKS AT THE 1425
BONVIEW AVE PROPERTY ONLY ON MONDAY 01/07/2013 PER KAREN JACOBS--[WEBU 01/04/13
11:27]
**RESEND**UPDATE ONLY-WORK CONT PER KAREN JACOBS--[WEBU 01/22/13 13:48]
**RESEND**UPDATE ONLY-WORK CONT PER KAREN JACOBS--[WEBU 02/01/13 08:27]
**RESEND**UPDATE ONLY-WORK CONT PER KAREN JACOBS--[WEBU 02/18/13 11:41]
**RESEND**UPDATE ONLY-WORK CONT PER KAREN JACOBS--[WEBU 02/28/13 08:28]
**RESEND**UPDATE ONLY-WORK CONT PER KAREN JACOBS--[WEBU 03/14/13 16:37]
**RESEND**UPDATE ONLY-WORK CONT PER KAREN JACOBS--[WEBU 03/27/13 12:29]
**RESEND**UPDATE ONLY-WORK CONT PER KAREN JACOBS--[WEBU 04/10/13 09:22]
**RESEND**UPDATE ONLY-WORK CONT PER KAREN JACOBS--[WEBU 04/23/13 08:18]

Mbrs : GEOMTX INLEMPUTA     ONTWTRSWR     SCG1OD SPRINT1       SUNESYSLLC
TERRADEX      USCE34 USCE83RIV     UTWCONT       UVZRCC




DigAlert Group



,  
Tel: (909) 993-
Fax: 
Email: digalert@ieua.org
http://www.ieua.org