
PACBEL 01036 USAN 08/22/13 10:18:20 0326837 NORMAL NOTICE 

Message Number: 0326837 Received by USAN at 10:14 on 08/22/13 by AMC

Work Begins:    08/26/13 at 10:30   Notice: 020 hrs      Priority: 2
Night Work: N    Weekend Work: N

Expires: 09/19/13 at 23:59   Update By: 09/17/13 at 16:59

Caller:         DAVE MARTINEZ            
Company:        MARTINEZ CONSTRUCTION              
Address:        2667 TORREY PINES DR, CONCORD           
City:           BRENTWOOD                     State: CA Zip: 94513
Business Tel:   925-525-6660                  Fax: 925-516-6281                
Email Address:  DMTZCONSTRUCTION@GMAIL.COM                                  

Nature of Work: BKHO TO INST NEW SWR L                  
Done for:       P/O RONCO                     Explosives: N
Foreman:        CALLER                   
Field Tel:                                    Cell Tel: 925-525-6660           
Area Premarked: Y   Premark Method: WHITE PAINT                                
Permit Type:    NO                            
Vac / Pwr Equip Use In The Approx Location Of Member Facilities Requested: N
Excavation Enters Into Street Or Sidewalk Area: Y

Location: 
Street Address:         150 SMITH RD
  Cross Street:         CROSS RD

    WRK IN FRT/O ADDR 

Place: ALAMO, CO AREA               County: CONTRA COSTA         State: CA

Long/Lat Long: -121.990889 Lat:  37.842984 Long: -121.989744 Lat:  37.843782 


Sent to:
CENTRL = CENTRAL SANITARY             CTYDAN = CITY DANVILLE                
COMLIV = COMCAST-LIVERMORE            EBWCMS = EAST BAY WATER               
PACBEL = PACIFIC BELL                 PGECND = PGE DISTR CONCORD            





At&t Ticket Id: 26470191   clli code: DAVLCA12   OCC Tkt No: 0326837-000