
INLEMPUTA *EOD*B USAS 04/22/13 19:22:23

*****************************************************************************
THIS IS YOUR DAILY AUDIT FOR 04/22/13. IF THERE ARE ANY DISCREPANCIES PLEASE
CALL POLLY, AMBER, SUE, OR ANN AFTER 7AM AT 951-808-8100 PRESS # THEN 1 ONCE
THE MESSAGE STARTS.  THANK YOU AND GOOD NIGHT.
*****************************************************************************

00001 A30290885-03B 07:32 U 00002 A30110352-06B 07:33 U
00003 A31060399-01B 08:22 U 00004 A31060407-01B 08:23 U
00005 A30870233-01B 08:28 U 00006 A30850501-01B 08:28 U
00007 A31060399-02B 08:29 U 00008 A31060407-02B 08:29 U
00009 A30840666-02B 08:29 U 00010 A30320840-04B 08:30 U
00011 A30320823-06B 08:30 U 00012 A30040225-10B 08:30 U
00013 B31120103-00B 11:27   00014 B22910130-08B 14:46 U
00015 A23181239-06B 14:57 U 00016 A23181239-07B 14:58 U
00017 B30860177-01B 15:05 U

( ) NEW          - 00001
(U) UPDATE       - 00016
(R) RETRANSMIT   - 00000
(K) REMARK       - 00000
(N) NO SHOW      - 00000
(D) DAMAGE/EXPOSE- 00000
(C) CANCEL       - 00000
(S) RESENT       - 00000
    TOTAL        - 00017




DigAlert Group



,  
Tel: (909) 993-
Fax: 
Email: digalert@ieua.org
http://www.ieua.org