
REPORT PROG: DP22052 - REV 52B                            WEST NASSAU - LONG ISLAND                                 : TIME :MILEAGE:
REPORT DATE: 06/02/06 03:45 pm                    * * INSTALLER COVER SHEETS * *                              ------:------:-------:
CORP#      :  7858                                          06/03/06                                          START :......:.......:
INSTALLER #:861   P  PRINCE                                                                                   LUNCH :......:.......:
TOTAL JOBS :  4                                                                                               FINISH:......:.......:
TOTAL UNITS: 106                                                                                              TOTAL :......:.......:
====================================================================================================================================
JB#:  JOB   :              ADDRESS                :             TASKS/PROBLEMS              :          COD/SPCL INSTRUCTIONS   ROUTE
PTS:  TIME  :ACCT #/NAME                   PHONES :                                         :               WIP COMMENT        AMP
---:--------:-------------------------------------:-----------------------------------------:---------------------------------------
 1 :CHG SVC :315 GRANT AV                         :Up/Down Serv         ** 3iOBox(Rates>)   :                        NoDBSBil   131
34:8AM-11AM  Woodmere         NY 11598 :5165694311:Up/Down Serv         Boost On OOL        :NoProof                          J33201
   :        :873004- 2  E  SCHOENFELD     337-7888: 3 Add'l Outlet(COS) DBS Winback         :OV#(516)596-7421PGRADE W/B IO SILV (MRF
4  :                                              :Code Change          Remv Full Vid Trap  :                                       
---:--------:-------------------------------------:-----------------------------------------:---------------------------------------
 2 :INSTALL :37 -5F WOODMERE BL                   :Rec Primary Video    Inst OV w/OOL       :                        NoProof    127
26:11AM-2PM  Woodmere         NY 11598 :5615680223:iO Silver            ConnectToExistWirng :NoProof                 NoProof  J34024
   :        :871491-12  R  POLON                  :** 1iOBox(Rates>)    InstInterconnectJack:ASIGN TN#516-596-7306              (27O
4  :                                              :A/O & Software       ** OV Modem         :                                       
---:--------:-------------------------------------:-----------------------------------------:---------------------------------------
 3 :CHG SVC :924 PENINSULA BL                     :** OV Modem                              :                        NoProof    129
10:2PM-4PM   Woodmere         NY 11598 :5165694328:InstInterconnectJack                     :NoSpInst                         J33111
   :        :874905- 3  D  HERTZMAN               :ConnectToExistWirng                      :Ported TN:516-569-4328 OV Number 51(DHG
   :                                              :Port Tele#                               :                                       
---:--------:-------------------------------------:-----------------------------------------:---------------------------------------
 4 :INSTALL :7 EDWARD AV # 7B                     :Inst Primary Video   A/O & Software      :                                   131
36:2PM-4PM   Woodmere         NY 11598 :5168129781: 2 Add'l Outlet(Acq) Inst OV w/OOL       :NoProof                          J33204
   :        :532544- 1  S  SANTOS         582-9846:iO Silver            ConnectToExistWirng :IO SLV OOL OV                      (29G
   :                                              :** 2iOBox(Rates>)    InstInterconnectJack:                                       
---:--------:-------------------------------------:-----------------------------------------:---------------------------------------
REPORT PROG: DP22052 - REV 52B                            WEST NASSAU - LONG ISLAND                                 : TIME :MILEAGE:
REPORT DATE: 06/02/06 03:45 pm                    * * INSTALLER COVER SHEETS * *                              ------:------:-------:
CORP#      :  7858                                          06/03/06                                          START :......:.......:
INSTALLER #:862   P  PRINCE                                                                                   LUNCH :......:.......:
TOTAL JOBS :  5                                                                                               FINISH:......:.......:
TOTAL UNITS: 104                                                                                              TOTAL :......:.......:
====================================================================================================================================
JB#:  JOB   :              ADDRESS                :             TASKS/PROBLEMS              :          COD/SPCL INSTRUCTIONS   ROUTE
PTS:  TIME  :ACCT #/NAME                   PHONES :                                         :               WIP COMMENT        AMP
---:--------:-------------------------------------:-----------------------------------------:---------------------------------------
 1 :CHG SVC :160 GORDON RD                        :Certify Drop         InstInterconnectJack:                                   110
19:8AM-11AM  Valley Stream    NY 11581 :5168256651:A/O & Software       ConnectToExistWirng :                                 J03903
   :        :839199- 4  L  COELHO         747-4151:** OV Modem          Port Tele#          :Ported TN:516-825-6651 OV Number 51(D36
A  :R/S APPT                                      :Inst OV w/OOL                            :R/S APPT                               
---:--------:-------------------------------------:-----------------------------------------:---------------------------------------
 2 :INSTALL :617 A ROCKAWAY AVE                   :Rec Primary Video    Certify Drop        :                                   109
32:11AM-2PM  Valley Stream    NY 11581 :5167926178: 2 Add'l Outlet(Acq) Inst OV w/OOL       :NoProof                          J03700
   :        :840345- 6  G  BIENEFELD      930-9018:** 2iOBox(Rates>)    ConnectToExistWirng :M/T                                (26P
   :                                              :A/O & Software       InstInterconnectJack:                                       
---:--------:-------------------------------------:-----------------------------------------:---------------------------------------
 3 :CHG SVC :14 A SANDALWOOD AVE                  :Inst BBasic Trap                         :                                   109
 3:2PM-5PM   Valley Stream    NY 11581 :5165612734:                                         :PWO                              J03701
   :        :839576- 2  D  LENT           352-6800:                                         :X-ROCKAWAY AV                      (KVA
   :                                              :                                         :                                       
---:--------:-------------------------------------:-----------------------------------------:---------------------------------------
 4 :INSTALL :64 -1A GIBSON BLVD                   :Rec Primary Video    A/O & Software      :                                   109
32:2PM-5PM   Valley Stream    NY 11581 :5165991901: 2 Add'l Outlet(Acq) Inst OV w/OOL       :NoProof                          J04103
   :        :840671-11  J  GREEN                  :Family               ConnectToExistWirng :CUSTOMER NOT SURE OF CROSS ST,NEXT (30W
4  :                                              :** 2iOBox(Rates>)    InstInterconnectJack:                                       
---:--------:-------------------------------------:-----------------------------------------:---------------------------------------
 5 :INSTALL :133 -A1 DUBOIS AVE                   :Rec Primary Video                        :                        CallHome   109
18:2PM-5PM   Valley Stream    NY 11581 :6462800174:Install Primary OOL                      :NoProof                 CallHome J04103
   :        :840858- 5  B  EDELSTEIN              :Inst Full Video Trap                     :.                                  (20Y
4  :                                              :** Modem                                 :                                       
---:--------:-------------------------------------:-----------------------------------------:---------------------------------------
REPORT PROG: DP22052 - REV 52B                            WEST NASSAU - LONG ISLAND                                 : TIME :MILEAGE:
REPORT DATE: 06/02/06 03:45 pm                    * * INSTALLER COVER SHEETS * *                              ------:------:-------:
CORP#      :  7858                                          06/03/06                                          START :......:.......:
INSTALLER #:863   P  PRINCE                                                                                   LUNCH :......:.......:
TOTAL JOBS :  4                                                                                               FINISH:......:.......:
TOTAL UNITS: 109                                                                                              TOTAL :......:.......:
====================================================================================================================================
JB#:  JOB   :              ADDRESS                :             TASKS/PROBLEMS              :          COD/SPCL INSTRUCTIONS   ROUTE
PTS:  TIME  :ACCT #/NAME                   PHONES :                                         :               WIP COMMENT        AMP
---:--------:-------------------------------------:-----------------------------------------:---------------------------------------
 1 :INSTALL :27 GALE DR                           :Rec Primary Video    ** 4 DVR Box(Rates>):                        CallHome   125
43:8AM-11AM  Valley Stream    NY 11581 :5167910750: 4 Add'l Outlet(Acq) A/O & Software      :NoProof                          J03108
   :        :887388- 2  K  FINK           586-6200:DBS Winback          ** Modem            :M/T  DBS  BRING 2 IO BOXES, 2 DVRs (64D
0  :                                              :** 4iOBox(Rates>)                        :                                       
---:--------:-------------------------------------:-----------------------------------------:---------------------------------------
 2 :CHG SVC :205 STUART RD                        :Up/Down Serv         Code Change         :                        NoProof    110
20:11AM-2PM  Valley Stream    NY 11581 :5165618520:9.95iO/Nav           Add OV to OOL       :NoSpInst                         J03903
   :        :839155- 1  M  GIOCASTRO      872-8090:** 1iOBox(Rates>)    ConnectToExistWirng :Ported TN:516-561-8520 OV Number 51(29J
1  :                                              :Retrieve Eq          InstInterconnectJack:                                       
---:--------:-------------------------------------:-----------------------------------------:---------------------------------------
 3 :CHG SVC :192 E EUCLID ST                      :Up/Down Serv         ConnectToExistWirng :                                   104
21:11AM-2PM  Valley Stream    NY 11580 :5168256679:9.95iO/Nav           InstInterconnectJack:NoProof                          J03008
   :        :832811- 2  C  BERGER                 :** 1 HDBox(Rates>)   ** OV Modem         :CUST ORDERED OV PORT # 516-825-6679(25C
4  :ORDER UPDATE                                  :Add OV to OOL        Port Tele#          :ORDER UPDATE                           
---:--------:-------------------------------------:-----------------------------------------:---------------------------------------
 4 :CHG SVC :83 MARTENS AVE # MAIN                :Up/Down Serv         Remv Bbasic Trap    :                                   106
25:2PM-4PM   Valley Stream    NY 11580 :5168875049:Family               Inst OV w/OOL       :NoSpInst                         J02300
   :        : 64927- 4  M  CASTANEDA              :** 1iOBox(Rates>)    ConnectToExistWirng :TRIPLE ON 1 OOLOV W/PORT           (22G
   :                                              :A/O & Software       InstInterconnectJack:                                       
---:--------:-------------------------------------:-----------------------------------------:---------------------------------------
REPORT PROG: DP22052 - REV 52B                            WEST NASSAU - LONG ISLAND                                 : TIME :MILEAGE:
REPORT DATE: 06/02/06 03:45 pm                    * * INSTALLER COVER SHEETS * *                              ------:------:-------:
CORP#      :  7858                                          06/03/06                                          START :......:.......:
INSTALLER #:864   P  PRINCE                                                                                   LUNCH :......:.......:
TOTAL JOBS :  4                                                                                               FINISH:......:.......:
TOTAL UNITS: 108                                                                                              TOTAL :......:.......:
====================================================================================================================================
JB#:  JOB   :              ADDRESS                :             TASKS/PROBLEMS              :          COD/SPCL INSTRUCTIONS   ROUTE
PTS:  TIME  :ACCT #/NAME                   PHONES :                                         :               WIP COMMENT        AMP
---:--------:-------------------------------------:-----------------------------------------:---------------------------------------
 1 :INSTALL :182 E CHESTER ST # 2FLR              :Rec Primary Video    A/O & Software      :                                   104
30:8AM-11AM  Valley Stream    NY 11580 :9176089104: 1 Add'l Outlet(Acq) Inst OV w/OOL       :NoProof                          J03007
   :        :832984-11  D  LEE LEBRON             :Family               ConnectToExistWirng :OOL/OV#516-596-7259                (24N
4  :                                              :** 1iOBox(Rates>)    InstInterconnectJack:                                       
---:--------:-------------------------------------:-----------------------------------------:---------------------------------------
 2 :INSTALL :122 E MAPLE ST UPST                  :Rec Primary Video    A/O & Software      :                                   104
32:11AM-2PM  Valley Stream    NY 11580 :5163127518: 2 Add'l Outlet(Acq) Inst OV w/OOL       :NoProof                          J03411
   :        :498539- 2  R  RICHE                  :Family               ConnectToExistWirng :IOFAM TRPL OOL OV                  (29G
   :                                              :** 2iOBox(Rates>)    InstInterconnectJack:                                       
---:--------:-------------------------------------:-----------------------------------------:---------------------------------------
 3 :INSTALL :24 FAIRMOUNT ST                      :Rec Primary Video    A/O & Software      :                                   107
38:11AM-2PM  Valley Stream    NY 11580 :3473920468: 3 Add'l Outlet(Acq) Inst OV w/OOL       :NoProof                          J02012
   :        :830282- 2  E  SANTIAGO               :Family               ConnectToExistWirng :M/T 3 IO BOXES/REM +OOL/OV#        (22J
   :                                              :** 3iOBox(Rates>)    InstInterconnectJack:                                       
---:--------:-------------------------------------:-----------------------------------------:---------------------------------------
 4 :CHG SVC :26 FOSTER AVE                        :Up/Down Serv                             :                        KnockHrd   117
 8:2PM-5PM   Valley Stream    NY 11580 :5162850445:** 1 DVR Box(Rates>)                     :NoProof                          J04713
   :        :859914- 3  T  LANZELOTTI     684-7966:                                         :SWAP IO BOX FOR DVR.               (23P
   :                                              :                                         :                                       
---:--------:-------------------------------------:-----------------------------------------:---------------------------------------
REPORT PROG: DP22052 - REV 52B                            WEST NASSAU - LONG ISLAND                                 : TIME :MILEAGE:
REPORT DATE: 06/02/06 03:45 pm                    * * INSTALLER COVER SHEETS * *                              ------:------:-------:
CORP#      :  7858                                          06/03/06                                          START :......:.......:
INSTALLER #:865   P  PRINCE                                                                                   LUNCH :......:.......:
TOTAL JOBS :  4                                                                                               FINISH:......:.......:
TOTAL UNITS: 100                                                                                              TOTAL :......:.......:
====================================================================================================================================
JB#:  JOB   :              ADDRESS                :             TASKS/PROBLEMS              :          COD/SPCL INSTRUCTIONS   ROUTE
PTS:  TIME  :ACCT #/NAME                   PHONES :                                         :               WIP COMMENT        AMP
---:--------:-------------------------------------:-----------------------------------------:---------------------------------------
 1 :INSTALL :182 BUSCHER AVE UP                   :Rec Primary Video    A/O & Software      :                                   107
32:8AM-11AM  Valley Stream    NY 11580 :5165936147: 2 Add'l Outlet(Acq) Inst OV w/OOL       :GetProof                         J01605
   :        :402569- 4  B  ACAITURRI              :DBS Winback          ConnectToExistWirng :CUSTOMER RESCHEDULED FOR 6/3       (17G
4  :                                              :** 2iOBox(Rates>)    InstInterconnectJack:                                       
---:--------:-------------------------------------:-----------------------------------------:---------------------------------------
 2 :INSTALL :240 E JAMAICA AVE                    :Rec Primary Video    A/O & Software      :                                   108
35:11AM-2PM  Valley Stream    NY 11580 :5165996262: 1 Add'l Outlet(Acq) Inst OV w/OOL       :NoProof                          J02905
   :        :833183- 4  A  INOYATOV               :Family               ConnectToExistWirng :FAM IOTRIPLEPLY/1 BOX PORT #516/599(26D
4  :                                              :** 1iOBox(Rates>)    InstInterconnectJack:                                       
---:--------:-------------------------------------:-----------------------------------------:---------------------------------------
 3 :CHG SVC :1786 JASEN AVE                       :Up/Down Serv         Code Change         :                                   114
12:11AM-2PM  Valley Stream    NY 11580 :5162857722: 2 Add'l Outlet(COS)                     :NoProof                          J04600
   :        :531787- 1  S  CASERES        251-4171:** 2iOBox(Rates>)                        :BRING 2 IO BOXES                   (22Y
   :                                              :DBS Winback                              :                                       
---:--------:-------------------------------------:-----------------------------------------:---------------------------------------
 4 :CHG SVC :24 AUDREY AV                         :Up/Down Serv         Add OV to OOL       :                                   112
21:2PM-4PM   Elmont           NY 11003 :5168726776:Family               ConnectToExistWirng :                                 J06704
   :        :853022- 3  L  STEINBERG      220-5200:** 1iOBox(Rates>)    InstInterconnectJack:PORT TN#5168726776                 (60B
   :                                              :Remv Full Vid Trap   ** OV Modem         :                                       
---:--------:-------------------------------------:-----------------------------------------:---------------------------------------
REPORT PROG: DP22052 - REV 52B                            WEST NASSAU - LONG ISLAND                                 : TIME :MILEAGE:
REPORT DATE: 06/02/06 03:45 pm                    * * INSTALLER COVER SHEETS * *                              ------:------:-------:
CORP#      :  7858                                          06/03/06                                          START :......:.......:
INSTALLER #:866   P  PRINCE                                                                                   LUNCH :......:.......:
TOTAL JOBS :  6                                                                                               FINISH:......:.......:
TOTAL UNITS:  96                                                                                              TOTAL :......:.......:
====================================================================================================================================
JB#:  JOB   :              ADDRESS                :             TASKS/PROBLEMS              :          COD/SPCL INSTRUCTIONS   ROUTE
PTS:  TIME  :ACCT #/NAME                   PHONES :                                         :               WIP COMMENT        AMP
---:--------:-------------------------------------:-----------------------------------------:---------------------------------------
 1 :INSTALL :4 HOLLAND AV RER CTTG                :Rec Primary Video                        :                                   121
10:8AM-11AM  Elmont           NY 11003 :5163524371:Family                                   :                                 J07813
   :        : 75762- 5  M  RUTLEDGE               :9.95iO/Nav                               :X=HEMP TPK HAS BOX                 (60G
   :                                              :** 1iOBox(Rates>)                        :                                       
---:--------:-------------------------------------:-----------------------------------------:---------------------------------------
 2 :INSTALL :128 S COVERT AV # UP                 :Rec Primary Video    A/O & Software      :                                   111
30:8AM-11AM  Elmont           NY 11003 :7185251075: 1 Add'l Outlet(Acq) Inst OV w/OOL       :                                 J09000
   :        : 61427- 2  A  CHRISPIN               :Family               ConnectToExistWirng :OV# 516-302-8480 PLS CALL 917-443-9(35H
1  :                                              :** 1iOBox(Rates>)    InstInterconnectJack:                                       
---:--------:-------------------------------------:-----------------------------------------:---------------------------------------
 3 :CHG SVC :181 HILLSBORO AV BSMT                :Up/Down Serv         ** 1 DVR Box(Rates>):                                   118
19:11AM-2PM  Elmont           NY 11003 :5165026227: 1 Add'l Outlet(COS) Remv Full Vid Trap  :NoProof                          J08904
   :        :514521- 1  E  MORALES        502-6227:iO Gold              Certify Drop        :3 TV'S/1 IO BOX/1 HD BOX           (18T
   :                                              :** 1iOBox(Rates>)                        :                                       
---:--------:-------------------------------------:-----------------------------------------:---------------------------------------
 4 :CHG SVC :320 HUNNEWELL AV                     :Certify Drop         InstInterconnectJack:                        NoProof    100
19:11AM-2PM  Elmont           NY 11003 :5164377483:A/O & Software       ConnectToExistWirng :NoSpInst                         J08403
   :        :847728- 2  J  JOHNSON        872-0786:** OV Modem          Port Tele#          :Ported TN:516-437-7483 OV Number 51(DHG
   :                                              :Inst OV w/OOL                            :                                       
---:--------:-------------------------------------:-----------------------------------------:---------------------------------------
 5 :CHG SVC :734 DAUNTLESS PKY                    : 1 Add'l Outlet(COS)                     :                        CallHome   112
 6:10AM-8PM  Elmont           NY 11003 :5168125325:                                         :NoProof                          J06803
   :        :853460- 2  A  TORRES         523-0461:                                         :ADDING ADDL. OUTLET                (37H
   :                                              :                                         :                                       
---:--------:-------------------------------------:-----------------------------------------:---------------------------------------
 6 :INSTALL :332 NORFELD BL                       :Install Primary OOL                      :                                   120
12:2PM-5PM   Elmont           NY 11003 :5163555204:Inst Full Video Trap                     :GetProof                         J07217
   :        :863088- 5  G  DEVASTEY               :** Modem                                 :BRG OOL                            (62U
   :                                              :                                         :                                       
---:--------:-------------------------------------:-----------------------------------------:---------------------------------------
REPORT PROG: DP22052 - REV 52B                            WEST NASSAU - LONG ISLAND                                 : TIME :MILEAGE:
REPORT DATE: 06/02/06 03:45 pm                    * * INSTALLER COVER SHEETS * *                              ------:------:-------:
CORP#      :  7858                                          06/03/06                                          START :......:.......:
INSTALLER #:867   P  PRINCE                                                                                   LUNCH :......:.......:
TOTAL JOBS :  6                                                                                               FINISH:......:.......:
TOTAL UNITS:  98                                                                                              TOTAL :......:.......:
====================================================================================================================================
JB#:  JOB   :              ADDRESS                :             TASKS/PROBLEMS              :          COD/SPCL INSTRUCTIONS   ROUTE
PTS:  TIME  :ACCT #/NAME                   PHONES :                                         :               WIP COMMENT        AMP
---:--------:-------------------------------------:-----------------------------------------:---------------------------------------
 1 :INSTALL :14 LOUIS AV # DOWN                   :Rec Primary Video    ** 1iOBox(Rates>)   :                                   119
21:8AM-11AM  Elmont           NY 11003 :9049457681: 1 Add'l Outlet(Acq) A/O & Software      :GetProof                         J08900
   :        :858172- 6  L  GRAHAM         328-8456:Family                                   :CNCL OV PORT AND OOL TV ONLY       (D27
A  :HARD CNCL ZOOM CUST REQ TV ONLY               :9.95iO/Nav                               :HARD CNCL ZOOM CUST REQ TV ONLY        
---:--------:-------------------------------------:-----------------------------------------:---------------------------------------
 2 :CHG SVC :409 CLEMENT AV                       : 1 Add'l Outlet(COS)                     :                                   115
 8:11AM-2PM  Elmont           NY 11003 :5163262240:** 1iOBox(Rates>)                        :                                 J08408
   :        :855648- 2  M  CATALANO       326-2240:                                         :INST ADDSET                        (24O
0  :                                              :                                         :                                       
---:--------:-------------------------------------:-----------------------------------------:---------------------------------------
 3 :INSTALL :16 ROBERT AV                         :Rec Primary Video                        :                                   119
20:11AM-2PM  Elmont           NY 11003 :5162634346: 1 Add'l Outlet(Acq)                     :GetProof                         J08702
   :        :857925- 4  M  GARCIA                 :** 1 DVR Box(Rates>)                     :FAM                                (27B
4  :                                              :                                         :                                       
---:--------:-------------------------------------:-----------------------------------------:---------------------------------------
 4 :INSTALL :147 BENSON AV # UPST                 :Rec Primary Video                        :                        GetProof   118
16:11AM-2PM  Elmont           NY 11003 :5164107388: 2 Add'l Outlet(Acq)                     :GetProof                         J08100
   :        :957961-11  R  RODRIGUEZ              :** 2iOBox(Rates>)                        :                                       
   :                                              :                                         :                                       
---:--------:-------------------------------------:-----------------------------------------:---------------------------------------
 5 :CHG SVC :1008 2ND AV                          :ConnectToExistWirng                      :                        NoProof     97
10:2PM-4PM   Franklin Square  NY 11010 :5166169668:Port Existing                            :NoSpInst                         J25409
   :        :843139- 4  P  BAILEY         738-4822:** OV Modem                              :Ported TN:516-616-9668 OV Number 51(WHT
G  :ADDED UU RATE CODE                            :Port Tele#                               :ADDED UU RATE CODE                     
---:--------:-------------------------------------:-----------------------------------------:---------------------------------------
 6 :CHG SVC :15 HARRISON AV                       :Up/Down Serv         Remv Full Vid Trap  :                                   102
23:2PM-4PM   Franklin Square  NY 11010 :5164371025:Family               Inst OV w/OOL       :NoProof                          J26605
   :        :461928- 1  T  CHOHAN                 :** 1iOBox(Rates>)    ConnectToExistWirng :UPGRADE TPL IOFAM/1/OV             (28B
4  :                                              :A/O & Software       InstInterconnectJack:                                       
---:--------:-------------------------------------:-----------------------------------------:---------------------------------------
REPORT PROG: DP22052 - REV 52B                            WEST NASSAU - LONG ISLAND                                 : TIME :MILEAGE:
REPORT DATE: 06/02/06 03:45 pm                    * * INSTALLER COVER SHEETS * *                              ------:------:-------:
CORP#      :  7858                                          06/03/06                                          START :......:.......:
INSTALLER #:871   P  PRINCE                                                                                   LUNCH :......:.......:
TOTAL JOBS :  4                                                                                               FINISH:......:.......:
TOTAL UNITS: 103                                                                                              TOTAL :......:.......:
====================================================================================================================================
JB#:  JOB   :              ADDRESS                :             TASKS/PROBLEMS              :          COD/SPCL INSTRUCTIONS   ROUTE
PTS:  TIME  :ACCT #/NAME                   PHONES :                                         :               WIP COMMENT        AMP
---:--------:-------------------------------------:-----------------------------------------:---------------------------------------
 1 :CHG SVC :1028 WINDERMERE RD                   :Up/Down Serv         Inst OV w/OOL       :                                    97
26:8AM-11AM  Franklin Square  NY 11010 :5168727509: 1 Add'l Outlet(COS) ConnectToExistWirng :NoProof                          J25114
   :        :842646- 3  W  IZZO                   :iO Silver            InstInterconnectJack:IO UPGR/1DVR/OVPORT#516-872-7509   (64E
A  :SUB RSCHD DUE TO PORT ISSUES                  :** 1 DVR Box(Rates>) ** OV Modem         :SUB RSCHD DUE TO PORT ISSUES           
---:--------:-------------------------------------:-----------------------------------------:---------------------------------------
 2 :CHG SVC :403 ST LUKE PL                       :Certify Drop         InstInterconnectJack:                        NoProof     98
19:11AM-2PM  Franklin Square  NY 11010 :5163266775:A/O & Software       ConnectToExistWirng :NoSpInst                         J25200
   :        :843734- 2  G  ASADOORIAN             :** OV Modem          Port Tele#          :Ported TN:516-326-6775 OV Number 51(JKH
F  :CUST CANCEL SIGNED WORK ORDER                 :Inst OV w/OOL                            :CUST CANCEL SIGNED WORK ORDER          
---:--------:-------------------------------------:-----------------------------------------:---------------------------------------
 3 :CHG SVC :999 OAKS DR # MAIN                   :** 1iOBox(Rates>)    ConnectToExistWirng :                        NoProof     98
21:2PM-4PM   Franklin Square  NY 11010 :5163546477:A/O & Software       InstInterconnectJack:NoSpInst                         J25205
   :        : 83152- 1  C  DE VITO        652-5293:Certify Drop         ** OV Modem         :OOL/OV#516-354-6477                (27B
4  :                                              :Inst OV w/OOL        Port Tele#          :                                       
---:--------:-------------------------------------:-----------------------------------------:---------------------------------------
 4 :INSTALL :205 S WHITEHALL RD                   :Rec Primary Video    A/O & Software      :                        NoSpInst   101
37:2PM-4PM   Garden City      NY 11530 :5164816024: 2 Add'l Outlet(Acq) Inst OV w/OOL       :NoProof                          J26307
   :        :850005- 2  R  OSHEA                  :iO Silver            ConnectToExistWirng :PORT TN# 516-481-6024/INSTRIIOSIL/2(36G
Y  :                                              :** 2iOBox(Rates>)    InstInterconnectJack:                                       
---:--------:-------------------------------------:-----------------------------------------:---------------------------------------
REPORT PROG: DP22052 - REV 52B                            WEST NASSAU - LONG ISLAND                                 : TIME :MILEAGE:
REPORT DATE: 06/02/06 03:45 pm                    * * INSTALLER COVER SHEETS * *                              ------:------:-------:
CORP#      :  7858                                          06/03/06                                          START :......:.......:
INSTALLER #:872   P  PRINCE                                                                                   LUNCH :......:.......:
TOTAL JOBS :  4                                                                                               FINISH:......:.......:
TOTAL UNITS: 103                                                                                              TOTAL :......:.......:
====================================================================================================================================
JB#:  JOB   :              ADDRESS                :             TASKS/PROBLEMS              :          COD/SPCL INSTRUCTIONS   ROUTE
PTS:  TIME  :ACCT #/NAME                   PHONES :                                         :               WIP COMMENT        AMP
---:--------:-------------------------------------:-----------------------------------------:---------------------------------------
 1 :INSTALL :209 BROMPTON RD                      :Rec Primary Video    ** 2iOBox(Rates>)   :                                   208
44:8AM-11AM  Garden City      NY 11530 :5166801561: 2 Add'l Outlet(Acq) ** 2 DVR Box(Rates>):NoProof                          J32714
   :        :974804- 4  P  ROUSAKIS               :DBS Winback          A/O & Software      :X= MERILLON AVE                    (10O
4  :CELL# 516-680-1561                            :Code Change          Inst OV w/OOL       :CELL# 516-680-1561                     
---:--------:-------------------------------------:-----------------------------------------:---------------------------------------
 2 :CHG SVC :104 HARRISON ST                      :Up/Down Serv                             :                                   201
14:11AM-2PM  Garden City      NY 11530 :5163546408:Up/Down Serv                             :                                 J32620
   :        :955574- 2     BAGDORF        734-3933:** 2 HD DVR(Rates>)                      :INSTALL 2 HD DVR BOXES             (MHZ
   :                                              :                                         :                                       
---:--------:-------------------------------------:-----------------------------------------:---------------------------------------
 3 :INSTALL :75 STEWART AVE                       :Rec Primary Video    Code Change         :                                   201
40:2PM-4PM   Garden City      NY 11530 :9174342866: 3 Add'l Outlet(Acq) ** 3iOBox(Rates>)   :NoProof                          J31700
   :        :462570- 2  A  ALVES                  : 3 Add'l Outlet(Acq) ** 3 HDBox(Rates>)  :DBSIOSILVER+1HD BOX+3 IO BOX       (33E
A  :HARD CNCL OV PORT CUST WILL SPLIT             :DBS Winback          A/O & Software      :HARD CNCL OV PORT CUST WILL SPLIT      
---:--------:-------------------------------------:-----------------------------------------:---------------------------------------
 4 :CHG SVC :90 SOMERSET AVE                      :Up/Down Serv                             :                                   209
 5:10AM-8PM  Garden City      NY 11530 :5167412648:Family                                   :SDoorman                         J32518
   :        :975611- 1  M  ATHANS         764-9068:Remv Bbasic Trap                         :X=WEYFORD TERRACE REMOVE BB TRAP   (3CI
   :                                              :                                         :                                       
---:--------:-------------------------------------:-----------------------------------------:---------------------------------------
REPORT PROG: DP22052 - REV 52B                            WEST NASSAU - LONG ISLAND                                 : TIME :MILEAGE:
REPORT DATE: 06/02/06 03:45 pm                    * * INSTALLER COVER SHEETS * *                              ------:------:-------:
CORP#      :  7858                                          06/03/06                                          START :......:.......:
INSTALLER #:873   P  PRINCE                                                                                   LUNCH :......:.......:
TOTAL JOBS :  4                                                                                               FINISH:......:.......:
TOTAL UNITS:  99                                                                                              TOTAL :......:.......:
====================================================================================================================================
JB#:  JOB   :              ADDRESS                :             TASKS/PROBLEMS              :          COD/SPCL INSTRUCTIONS   ROUTE
PTS:  TIME  :ACCT #/NAME                   PHONES :                                         :               WIP COMMENT        AMP
---:--------:-------------------------------------:-----------------------------------------:---------------------------------------
 1 :CHG SVC :130 -4 COVERT AVE                    :Certify Drop         InstInterconnectJack:                        NoProof    151
19:8AM-11AM  Garden City      NY 11530 :5164372969:A/O & Software       ** OV Modem         :NoSpInst                         J31806
   :        :913194- 8  G  MUGHAL         616-1514:Inst OV w/OOL        Port Tele#          :Ported TN:516-437-2969 OV Number 51(27B
4  :                                              :ConnectToExistWirng                      :                                       
---:--------:-------------------------------------:-----------------------------------------:---------------------------------------
 2 :INSTALL :12 STEWART AVE                       :Rec Primary Video    ** 1 HDBox(Rates>)  :                                   151
33:11AM-2PM  Garden City      NY 11530 :9178077859: 1 Add'l Outlet(Acq) A/O & Software      :                                 J32300
   :        :912831- 2  D  PERSAUD                :iO Gold              Inst OV w/OOL       :INSTALL 1 HD/IO BOX/OOL/OV TEL# 516(24H
4  :                                              :** 1iOBox(Rates>)    ConnectToExistWirng :                                       
---:--------:-------------------------------------:-----------------------------------------:---------------------------------------
 3 :INSTALL :365 STEWART AVE # C24                :Rec Primary Video                        :                                   151
10:11AM-2PM  Garden City      NY 11530 :5168357200:iO Silver                                :                                 C56B10
   :        : 60226- 4  I  STEIN                  :** 1iOBox(Rates>)                        :                                       
   :                                              :                                         :                                       
---:--------:-------------------------------------:-----------------------------------------:---------------------------------------
 4 :INSTALL :163 GARDEN PL                        :Inst Primary Video   A/O & Software      :                                    86
37:2PM-4PM   West Hempstead   NY 11552 :5165659246: 2 Add'l Outlet(Acq) Inst OV w/OOL       :NoDBSBil                         J06400
   :        :803777- 1  R  RAMIREZ                :DBS Winback          ConnectToExistWirng :CELL #516-238-3765                 (L30
4  :UG WAS COMPLETED                              :** 2iOBox(Rates>)    InstInterconnectJack:UG WAS COMPLETED                       
---:--------:-------------------------------------:-----------------------------------------:---------------------------------------
REPORT PROG: DP22052 - REV 52B                            WEST NASSAU - LONG ISLAND                                 : TIME :MILEAGE:
REPORT DATE: 06/02/06 03:45 pm                    * * INSTALLER COVER SHEETS * *                              ------:------:-------:
CORP#      :  7858                                          06/03/06                                          START :......:.......:
INSTALLER #:875   P  PRINCE                                                                                   LUNCH :......:.......:
TOTAL JOBS :  4                                                                                               FINISH:......:.......:
TOTAL UNITS: 102                                                                                              TOTAL :......:.......:
====================================================================================================================================
JB#:  JOB   :              ADDRESS                :             TASKS/PROBLEMS              :          COD/SPCL INSTRUCTIONS   ROUTE
PTS:  TIME  :ACCT #/NAME                   PHONES :                                         :               WIP COMMENT        AMP
---:--------:-------------------------------------:-----------------------------------------:---------------------------------------
 1 :INSTALL :299 14E JACKSON ST                   :Rec Primary Video                        :                                   140
22:8AM-11AM  Hempstead        NY 11550 :5169673752: 3 Add'l Outlet(Acq)                     :GetProof                         C50A01
   :        :219130- 6  J  CASTELLANO             :DBS Winback                              :BRING 2 IO BXS ONLY.               (AEP
0  :                                              :** 3iOBox(Rates>)                        :                                       
---:--------:-------------------------------------:-----------------------------------------:---------------------------------------
 2 :INSTALL :166 BEVERLY RD                       :Inst Primary Video   Certify Drop        :                                   138
29:11AM-2PM  Hempstead        NY 11550 :3392228855: 3 Add'l Outlet(Acq) ** Modem            :                                 C46A09
   :        :883639- 2  W  PANAGAKO               :** 3iOBox(Rates>)                        :3 iO W/ FAM RUN LINE D/O MDM       (35Y
   :                                              :A/O & Software                           :                                       
---:--------:-------------------------------------:-----------------------------------------:---------------------------------------
 3 :INSTALL :20 BEDELL ST # 2A                    :Rec Primary Video                        :                                     0
18:2PM-5PM   Hempstead        NY 11550 :5164813920: 1 Add'l Outlet(Acq)                     :GetProof                         C52C06
   :        :905122- 5  L  BRAZIL                 :** 1iOBox(Rates>)                        :1 IO BOX/RM                        (36R
   :                                              :                                         :                                       
---:--------:-------------------------------------:-----------------------------------------:---------------------------------------
 4 :RESTART :269 WINDSOR PKWY                     :Rec Primary Video    A/O & Software      :                                   139
33:10AM-8PM  Hempstead        NY 11550 :5164830309: 2 Add'l Outlet(Acq) Inst OV w/OOL       :                                 C44C01
   :        :288214- 2  P  SPOONER                :DBS Winback          ConnectToExistWirng :PORTED TN:516-483-0309/GET DISH BIL(21Y
4  :                                              :** 2iOBox(Rates>)    InstInterconnectJack:                                       
---:--------:-------------------------------------:-----------------------------------------:---------------------------------------
