
REPORT PROG: DP22052 - REV 52B                            WEST NASSAU - LONG ISLAND                                 : TIME :MILEAGE:
REPORT DATE: 06/07/06 02:52 pm                    * * INSTALLER COVER SHEETS * *                              ------:------:-------:
CORP#      :  7858                                          06/08/06                                          START :......:.......:
INSTALLER #:860   P  PRINCE                                                                                   LUNCH :......:.......:
TOTAL JOBS :  1                                                                                               FINISH:......:.......:
TOTAL UNITS:   7                                                                                              TOTAL :......:.......:
====================================================================================================================================
JB#:  JOB   :              ADDRESS                :             TASKS/PROBLEMS              :          COD/SPCL INSTRUCTIONS   ROUTE
PTS:  TIME  :ACCT #/NAME                   PHONES :                                         :               WIP COMMENT        AMP
---:--------:-------------------------------------:-----------------------------------------:---------------------------------------
 1A:CHG SVC :265 CLEVELAND ST                     :ReRun/Relocate Drop                      :                                    99
 7:10AM-8PM  Franklin Square  NY 11010 :5164371087:                                         :PWO                              J25608
   :        :857624- 1  L  PASSALACQUA            :                                         :PER TECH 659 PWO RERUN DROP. AS PER(L33
4  :                                         15:31:                                         :AS PER JOHN LYNN..R/S FROM 863 6/7     
---:--------:-------------------------------------:-----------------------------------------:---------------------------------------
REPORT PROG: DP22052 - REV 52B                            WEST NASSAU - LONG ISLAND                                 : TIME :MILEAGE:
REPORT DATE: 06/07/06 02:52 pm                    * * INSTALLER COVER SHEETS * *                              ------:------:-------:
CORP#      :  7858                                          06/08/06                                          START :......:.......:
INSTALLER #:861   P  PRINCE                                                                                   LUNCH :......:.......:
TOTAL JOBS :  5                                                                                               FINISH:......:.......:
TOTAL UNITS: 102                                                                                              TOTAL :......:.......:
====================================================================================================================================
 1 :CHG SVC :232 RINTIN ST                        :** OV Modem          Port Tele#          :                        NoProof     99
12:8AM-11AM  Franklin Square  NY 11010 :5163523456:Inst OV w/OOL                            :NoSpInst                         J26000
   :        :844726- 1  S  SCHEMMER       455-9986:InstInterconnectJack                     :Ported TN:516-352-3456 OV Number 51(DHG
   :                                              :ConnectToExistWirng                      :                                       
---:--------:-------------------------------------:-----------------------------------------:---------------------------------------
 2 :CHG SVC :190 KRUZE ST                         :Up/Down Serv         DBS Winback         :                                    99
19:8AM-11AM  Franklin Square  NY 11010 :5164145431: 1 Add'l Outlet(COS) Remv Full Vid Trap  :                                 J26008
   :        :844241- 3  J  JOSE           209-1827:** 1 HDBox(Rates>)   ** OV Modem         :DBS/IO FAM                         (25P
1  :                                         14:06:A/O & Software       Boost On OOL        :.                                      
---:--------:-------------------------------------:-----------------------------------------:---------------------------------------
 3 :INSTALL :216 FIELDMERE ST                     :Rec Primary Video    A/O & Software      :                                   121
30:11AM-2PM  Elmont           NY 11003 :5167320661: 1 Add'l Outlet(Acq) Certify Drop        :GetProof                         J07804
   :        :860458- 3  H  POWELL         066-1   :iO Gold              Inst OV w/OOL       :OOL/OV#516-216-1034                (24N
4  :                                              :** 1iOBox(Rates>)    ConnectToExistWirng :                                       
---:--------:-------------------------------------:-----------------------------------------:---------------------------------------
 4 :INSTALL :405 MEACHAM AV                       :Install Primary OOL                      :                                   115
12:11AM-2PM  Elmont           NY 11003 :7183009756:Inst Full Video Trap                     :NoProof                          J08617
   :        :532749- 1  J  SIERRA                 :** Modem                                 :OOL ONLY/1MDM/KIT                  (36D
   :                                              :                                         :                                       
---:--------:-------------------------------------:-----------------------------------------:---------------------------------------
 5 :RESTART :163 RAFF AV UP RGHT                  :Rec Primary Video    Inst OV w/OOL       :                                   119
29:2PM-4PM   Elmont           NY 11003 :          :DBS Winback          ConnectToExistWirng :NoProof                          J08711
   :        :287890- 3  P  KOPROWSKI      343-8430:** 1 HD DVR(Rates>)  InstInterconnectJack:                                       
4  :                                              :A/O & Software       ** OV Modem         :                                       
---:--------:-------------------------------------:-----------------------------------------:---------------------------------------
REPORT PROG: DP22052 - REV 52B                            WEST NASSAU - LONG ISLAND                                 : TIME :MILEAGE:
REPORT DATE: 06/07/06 02:52 pm                    * * INSTALLER COVER SHEETS * *                              ------:------:-------:
CORP#      :  7858                                          06/08/06                                          START :......:.......:
INSTALLER #:862   P  PRINCE                                                                                   LUNCH :......:.......:
TOTAL JOBS :  6                                                                                               FINISH:......:.......:
TOTAL UNITS: 104                                                                                              TOTAL :......:.......:
====================================================================================================================================
JB#:  JOB   :              ADDRESS                :             TASKS/PROBLEMS              :          COD/SPCL INSTRUCTIONS   ROUTE
PTS:  TIME  :ACCT #/NAME                   PHONES :                                         :               WIP COMMENT        AMP
---:--------:-------------------------------------:-----------------------------------------:---------------------------------------
 1 :CHG SVC :39 ROSS CT                           :** OV Modem                              :                        NoProof    184
16:8AM-11AM  Malverne         NY 11565 :5165996904:Add OV to OOL                            :NoSpInst                         H00702
   :        :188744- 2  A  RIKER          476-4642:ConnectToExistWirng                      :Ported TN:516-599-6904 OV Number 51(D15
A  :R/S TO 6/8                                    :Port Tele#                               :R/S TO 6/8                             
---:--------:-------------------------------------:-----------------------------------------:---------------------------------------
 2 :CHG SVC :63 ADAIR CT                          :ConnectToExistWirng                      :                        NoProof    184
10:11AM-2PM  Malverne         NY 11565 :5165938350:InstInterconnectJack                     :NoSpInst                         H00707
   :        :188762- 1  H  SCHWARTZ               :** OV Modem                              :Ported TN:516-593-8350 OV Number 51(31D
4  :                                              :Port Tele#                               :                                       
---:--------:-------------------------------------:-----------------------------------------:---------------------------------------
 3 :CHG SVC :49 MONROE ST 1ST FLR                 :Certify Drop         InstInterconnectJack:                        NoProof    102
22:11AM-2PM  Franklin Square  NY 11010 :5163261138:A/O & Software       ConnectToExistWirng :NoSpInst                         J26604
   :        :850248- 8  S  FERSTLER               :** OV Modem                              :Assigned TN(s):516-216-5507        (L36
0  :SUB RSCHD                                     :Add OV to OOL                            :SUB RSCHD                              
---:--------:-------------------------------------:-----------------------------------------:---------------------------------------
 4 :CHG SVC :15 POPPY AV                          :Up/Down Serv                             :                                   102
 8:11AM-2PM  Franklin Square  NY 11010 :5164814063:Up/Down Serv                             :                                 J26208
   :        :848373- 2  L  MONACHELLI             :** 1iOBox(Rates>)                        :                                       
   :                                              :                                         :                                       
---:--------:-------------------------------------:-----------------------------------------:---------------------------------------
 5 :INSTALL :888 JACKSON AV # 2FL                 :Inst Primary Video   Inst OV w/OOL       :                                    98
38:2PM-4PM   Franklin Square  NY 11010 :6312586795: 1 Add'l Outlet(Acq) ConnectToExistWirng :NoProof                          J25300
   :        :532565- 1  B  SMITH                  :Family               InstInterconnectJack:INSTL IOFAM/2BOXES/1ADD OTLT/OOL/  (30A
   :                                              :** 1iOBox(Rates>)    ** OV Modem         :                                       
---:--------:-------------------------------------:-----------------------------------------:---------------------------------------
 6 :INSTALL :166 FENDALE ST                       :Rec Primary Video                        :                        GetProof    99
10:2PM-5PM   Franklin Square  NY 11010 :5164831808:** 1iOBox(Rates>)                        :RingBell                         J26002
   :        :844410- 2  R  PERRY                  :                                         :INST IOFAM ON 1                    (28Q
4  :                                              :                                         :                                       
---:--------:-------------------------------------:-----------------------------------------:---------------------------------------
REPORT PROG: DP22052 - REV 52B                            WEST NASSAU - LONG ISLAND                                 : TIME :MILEAGE:
REPORT DATE: 06/07/06 02:52 pm                    * * INSTALLER COVER SHEETS * *                              ------:------:-------:
CORP#      :  7858                                          06/08/06                                          START :......:.......:
INSTALLER #:863   P  PRINCE                                                                                   LUNCH :......:.......:
TOTAL JOBS :  5                                                                                               FINISH:......:.......:
TOTAL UNITS:  97                                                                                              TOTAL :......:.......:
====================================================================================================================================
JB#:  JOB   :              ADDRESS                :             TASKS/PROBLEMS              :          COD/SPCL INSTRUCTIONS   ROUTE
PTS:  TIME  :ACCT #/NAME                   PHONES :                                         :               WIP COMMENT        AMP
---:--------:-------------------------------------:-----------------------------------------:---------------------------------------
 1 :CHG SVC :883 DANA AVE                         :*******************                      :                                   113
 4:          Valley Stream    NY 11580 :5168125357:*     THIS JOB    *                      :                                 J01509
RS :        :856261- 4  G  NEELY          577-7479:*     HAS BEEN    *                      :                                       
D  :PU BOXES @ LYNBROOK                           :*   RESCHEDULED   *                      :PU BOXES @ LYNBROOK                    
---:--------:-------------------------------------:-----------------------------------------:---------------------------------------
 2 :INSTALL :25 ETHEL ST # DWN                    :Inst Primary Video   Inst OV w/OOL       :                                   106
30:8AM-11AM  Valley Stream    NY 11580 :3477514749:iO Silver            ConnectToExistWirng :CallHome                         J02609
   :        :532746- 1  R  RAMDEEN                :** 1iOBox(Rates>)    InstInterconnectJack:OV#516-792-3046/OOL/1 BOX          (26F
4  :                                              :A/O & Software       ** OV Modem         :                                       
---:--------:-------------------------------------:-----------------------------------------:---------------------------------------
 3 :CHG SVC :159 N CENTRAL AVE # 1ST              :Certify Drop         ConnectToExistWirng :                        NoProof    106
19:11AM-2PM  Valley Stream    NY 11580 :5165961915:A/O & Software       Port Tele#          :NoSpInst                         J02408
   :        :462178- 2  P  MAHADEO        244-4743:** OV Modem                              :Ported TN:516-596-1915 OV Number 51(DHG
   :                                              :Inst OV w/OOL                            :                                       
---:--------:-------------------------------------:-----------------------------------------:---------------------------------------
 4 :INSTALL :30 LOIS PL # MAIN                    :Rec Primary Video    ** 1iOBox(Rates>)   :                                   108
30:2PM-4PM   Valley Stream    NY 11580 :5163137772: 1 Add'l Outlet(Acq) Inst OV w/OOL       :                                 J02912
   :        :833093- 6  R  DIAZ           313-7772:Family               ConnectToExistWirng :OV#516-8120988                     (TIB
H  :1218P ANS MACH/BEIGE & BRWN HOUSE             :9.95iO/Nav           InstInterconnectJack:1218P ANS MACH/BEIGE & BRWN HOUSE      
---:--------:-------------------------------------:-----------------------------------------:---------------------------------------
 5 :CHG SVC :759 ARCADIAN AVE                     :ReRun/Relocate Insde                     :                                   112
14:2PM-5PM   Valley Stream    NY 11580 :5168128482:ReRun/Relocate Insde                     :                                 J07012
   :        :852689- 3  C  CREW                   :Up/Down Serv                             :X=Q ST/HOMERUN LINE FROM G.B. TO   (L22
4  :                                              :                                         :                                       
---:--------:-------------------------------------:-----------------------------------------:---------------------------------------
REPORT PROG: DP22052 - REV 52B                            WEST NASSAU - LONG ISLAND                                 : TIME :MILEAGE:
REPORT DATE: 06/07/06 02:52 pm                    * * INSTALLER COVER SHEETS * *                              ------:------:-------:
CORP#      :  7858                                          06/08/06                                          START :......:.......:
INSTALLER #:864   P  PRINCE                                                                                   LUNCH :......:.......:
TOTAL JOBS :  3                                                                                               FINISH:......:.......:
TOTAL UNITS: 101                                                                                              TOTAL :......:.......:
====================================================================================================================================
JB#:  JOB   :              ADDRESS                :             TASKS/PROBLEMS              :          COD/SPCL INSTRUCTIONS   ROUTE
PTS:  TIME  :ACCT #/NAME                   PHONES :                                         :               WIP COMMENT        AMP
---:--------:-------------------------------------:-----------------------------------------:---------------------------------------
 1 :RESTART :3 DEAN ST                            :Rec Primary Video    A/O & Software      :                                   162
39:8AM-11AM  Lynbrook         NY 11563 :5165994368: 3 Add'l Outlet(Acq) Inst OV w/OOL       :NoProof                          H31416
   :        :930372- 1  D  SHEA                   :DBS Winback          ConnectToExistWirng :3BXS/DBS/PORT TN: 516 599 4368     (62O
F  :SUB NEEDS ELECTRICAN. SWO..                   :** 3iOBox(Rates>)    InstInterconnectJack:SUB NEEDS ELECTRICAN. SWO..            
---:--------:-------------------------------------:-----------------------------------------:---------------------------------------
 2 :CHG SVC :1 WILLOW PL                          :** OV Modem          Port Tele#          :                        NoProof    184
16:11AM-2PM  Malverne         NY 11565 :5165938533:Add OV to OOL                            :NoSpInst                         H00214
   :        :189047- 2  R  FORMAN                 :InstInterconnectJack                     :Ported TN:516-593-8533 OV Number 51(DHG
   :                                              :ConnectToExistWirng                      :                                       
---:--------:-------------------------------------:-----------------------------------------:---------------------------------------
 3 :INSTALL :204 HEMPSTEAD AV SDE APT             :Rec Primary Video    ** 2 HDBox(Rates>)  :                                   183
46:2PM-4PM   Malverne         NY 11565 :5163028893: 2 Add'l Outlet(Acq) A/O & Software      :NoProof                          H00123
   :        :501013- 3  X  FLO            561-2624: 2 Add'l Outlet(Acq) Inst OV w/OOL       :2IO/5OUTLETS.OOL.OV#516-7923105.   (23Q
0  :                                              :Family               ConnectToExistWirng :                                       
---:--------:-------------------------------------:-----------------------------------------:---------------------------------------
REPORT PROG: DP22052 - REV 52B                            WEST NASSAU - LONG ISLAND                                 : TIME :MILEAGE:
REPORT DATE: 06/07/06 02:52 pm                    * * INSTALLER COVER SHEETS * *                              ------:------:-------:
CORP#      :  7858                                          06/08/06                                          START :......:.......:
INSTALLER #:865   P  PRINCE                                                                                   LUNCH :......:.......:
TOTAL JOBS :  7                                                                                               FINISH:......:.......:
TOTAL UNITS:  99                                                                                              TOTAL :......:.......:
====================================================================================================================================
JB#:  JOB   :              ADDRESS                :             TASKS/PROBLEMS              :          COD/SPCL INSTRUCTIONS   ROUTE
PTS:  TIME  :ACCT #/NAME                   PHONES :                                         :               WIP COMMENT        AMP
---:--------:-------------------------------------:-----------------------------------------:---------------------------------------
 1 :CHG SVC :143 S MONTGOMERY ST                  :ConnectToExistWirng  Port Tele#          :                                   107
10:8AM-11AM  Valley Stream    NY 11580 :5166130925:InstInterconnectJack                     :Prewire                          J02106
   :        :829167- 6  U  BHATTI                 :Port Existing                            :PORTING TN 516-561-2736            (IIV
0  :DO NOT ADD UU RATE CODE                       :** OV Modem                              :DO NOT ADD UU RATE CODE                
---:--------:-------------------------------------:-----------------------------------------:---------------------------------------
 2 :INSTALL :1031 -3 FENWOOD DR                   :Rec Primary Video    A/O & Software      :                        CallHome   114
36:8AM-11AM  Valley Stream    NY 11580 :6318750001: 1 Add'l Outlet(Acq) Inst OV w/OOL       :NoProof                          J04600
   :        :854425- 4  J  WHITE                  :Family               ConnectToExistWirng :X=OLIVER 1ST CALL IF POSSIBLE  IO F(28L
0  :                                              :** 1 HD DVR(Rates>)  InstInterconnectJack:                                       
---:--------:-------------------------------------:-----------------------------------------:---------------------------------------
 3 :CHG SVC :189 FIR ST # 1 FL                    :Add OV to OOL        ** OV Modem         :                        NoProof    107
19:11AM-2PM  Valley Stream    NY 11580 :5162855818:ConnectToExistWirng                      :NoSpInst                         J01712
   :        :511130- 1  G  SUN                    :InstInterconnectJack                     :Assigned TN(s):516-792-3048        (12U
4  :                                              :OV EnhancedWiring                        :                                       
---:--------:-------------------------------------:-----------------------------------------:---------------------------------------
 4 :CHG SVC :714 UNIVERSITY ST                    :ReRun/Relocate Insde                     :                                   128
 7:2PM-5PM   Valley Stream    NY 11581 :5167915082:                                         :NoSpInst                         J34121
   :        :875482- 2  K  FORKOSH                :                                         :X=RANCH BLVD 516-791-5082          (CHO
   :                                              :                                         :                                       
---:--------:-------------------------------------:-----------------------------------------:---------------------------------------
 5 :RESTART :722 EAGLE DR                         :Rec Primary Video                        :                        CallHome   128
10:2PM-5PM   Valley Stream    NY 11581 :5167918679:** 1iOBox(Rates>)                        :NoProof                          J34111
   :        :875388- 1  P  URBAN                  :                                         :INSTALL 1TV FAMILYIO -             (24L
   :                                              :                                         :                                       
---:--------:-------------------------------------:-----------------------------------------:---------------------------------------
 6 :CHG SVC :51 MARLBORO RD                       :Up/Down Serv         ** 1iOBox(Rates>)   :                                   110
11:2PM-5PM   Valley Stream    NY 11581 :5167916714: 1 Add'l Outlet(COS) Remv Bbasic Trap    :NoProof                          J03900
   :        :839227- 2  K  REGAN          693-6593:Family                                   :                                       
0  :                                              :9.95iO/Nav                               :                                       
---:--------:-------------------------------------:-----------------------------------------:---------------------------------------
 7 :CHG SVC :39 SOUTH DR                          :Up/Down Serv                             :                                   110
 6:2PM-5PM   Valley Stream    NY 11581 :5167911342:** 1iOBox(Rates>)                        :NoProof                          J03801
   :        :841131- 3  R  GENDRON                :                                         :INSTALL LINE WITH BOX IN BEDROOM   (64B
4  :CHANGE TIME                                   :                                         :CHANGE TIME                            
---:--------:-------------------------------------:-----------------------------------------:---------------------------------------
REPORT PROG: DP22052 - REV 52B                            WEST NASSAU - LONG ISLAND                                 : TIME :MILEAGE:
REPORT DATE: 06/07/06 02:52 pm                    * * INSTALLER COVER SHEETS * *                              ------:------:-------:
CORP#      :  7858                                          06/08/06                                          START :......:.......:
INSTALLER #:866   P  PRINCE                                                                                   LUNCH :......:.......:
TOTAL JOBS :  3                                                                                               FINISH:......:.......:
TOTAL UNITS: 105                                                                                              TOTAL :......:.......:
====================================================================================================================================
JB#:  JOB   :              ADDRESS                :             TASKS/PROBLEMS              :          COD/SPCL INSTRUCTIONS   ROUTE
PTS:  TIME  :ACCT #/NAME                   PHONES :                                         :               WIP COMMENT        AMP
---:--------:-------------------------------------:-----------------------------------------:---------------------------------------
 1 :INSTALL :72 S TERRACE PL # UP                 :Rec Primary Video    ** 1iOBox(Rates>)   :                        NoProof    107
38:8AM-11AM  Valley Stream    NY 11580 :3477312089: 1 Add'l Outlet(Acq) ** 1 DVR Box(Rates>):CallHome                         J01607
   :        :513048- 3  T  MYRRE                  :iO Silver            A/O & Software      :IO SLV TRI PLY ON 1 IO 1 DVR       (20C
4  :PLS CALL SUB AHEAD INHOUSE HD BOX             :Code Change          Inst OV w/OOL       :PLS CALL SUB AHEAD INHOUSE HD BOX      
---:--------:-------------------------------------:-----------------------------------------:---------------------------------------
 2 :CHG SVC :39 WELLSBORO RD                      :Up/Down Serv         Remv Bbasic Trap    :                                   114
29:11AM-2PM  Valley Stream    NY 11580 :5165680817: 2 Add'l Outlet(COS) Inst OV w/OOL       :NoProof                          J04911
   :        :854439- 2  S  SONGVEERAGHAM          :Family               ConnectToExistWirng :IOFAM/2TV/2IOSETS/OOL-O/V#         (37A
   :                                              :** 2iOBox(Rates>)    ** OV Modem         :                                       
---:--------:-------------------------------------:-----------------------------------------:---------------------------------------
 3 :INSTALL :87 B GOLD ST                         :Rec Primary Video    A/O & Software      :                                   107
38:2PM-4PM   Valley Stream    NY 11580 :5166402926: 3 Add'l Outlet(Acq) Inst OV w/OOL       :NoProof                          J01713
   :        :829817- 3  J  RAMOS                  :Family               ConnectToExistWirng :BRG IO/OOL/OV NEW#516-792-3037     (35R
0  :                                              :** 3iOBox(Rates>)    InstInterconnectJack:                                       
---:--------:-------------------------------------:-----------------------------------------:---------------------------------------
REPORT PROG: DP22052 - REV 52B                            WEST NASSAU - LONG ISLAND                                 : TIME :MILEAGE:
REPORT DATE: 06/07/06 02:52 pm                    * * INSTALLER COVER SHEETS * *                              ------:------:-------:
CORP#      :  7858                                          06/08/06                                          START :......:.......:
INSTALLER #:867   P  PRINCE                                                                                   LUNCH :......:.......:
TOTAL JOBS :  5                                                                                               FINISH:......:.......:
TOTAL UNITS:  90                                                                                              TOTAL :......:.......:
====================================================================================================================================
JB#:  JOB   :              ADDRESS                :             TASKS/PROBLEMS              :          COD/SPCL INSTRUCTIONS   ROUTE
PTS:  TIME  :ACCT #/NAME                   PHONES :                                         :               WIP COMMENT        AMP
---:--------:-------------------------------------:-----------------------------------------:---------------------------------------
 1 :CHG SVC :43 ETON ST                           :** 3iOBox(Rates>)                        :                                   110
 8:8AM-11AM  Valley Stream    NY 11581 :5167918056:                                         :                                 J03600
   :        :841024- 1  J  KELLY          360-3005:                                         :SWAP SONYS FOR 3 SA'S              (L27
   :                                              :                                         :                                       
---:--------:-------------------------------------:-----------------------------------------:---------------------------------------
 2 :CHG SVC :884 PARK LN                          :*******************  InstInterconnectJack:                        NoProof    125
19:11AM-2PM  Valley Stream    NY 11581 :5167920722:*     THIS JOB    *  ConnectToExistWirng :NoSpInst                         J34313
RS :        :867277- 1  P  SKORA                  :*     HAS BEEN    *  Port Tele#          :Ported TN:516-792-0722 after 9:00 i(DHG
0  :                                              :*   RESCHEDULED   *                      :                                       
---:--------:-------------------------------------:-----------------------------------------:---------------------------------------
 3 :RESTART :38 GIBSON BLVD                       :Rec Primary Video                        :                                   109
12:8AM-11AM  Valley Stream    NY 11581 :5165610515:** 2iOBox(Rates>)                        :NoProof                          J04103
   :        :840631- 3  G  BOYD           581-6226:                                         :X=SANDWOODAV 2IOBX                 (39M
4  :                                              :                                         :                                       
---:--------:-------------------------------------:-----------------------------------------:---------------------------------------
 4 :INSTALL :902 HEWLETT DR                       :Rec Primary Video    Inst OV w/OOL       :                                   125
26:2PM-4PM   Valley Stream    NY 11581 :5168416987:Family               ConnectToExistWirng :RingBell                         J34305
   :        :867476- 3  H  KIM                    :** 1iOBox(Rates>)    InstInterconnectJack:TRPL FAM/1BOX/OV#516-812-7867      (70W
4  :                                              :A/O & Software       ** OV Modem         :                                       
---:--------:-------------------------------------:-----------------------------------------:---------------------------------------
 5 :INSTALL :153 HARRIS AV                        :Rec Primary Video    A/O & Software      :                        NoProof    124
25:2PM-5PM   Hewlett          NY 11557 :5169712455: 1 Add'l Outlet(Acq) Certify Drop        :NoSpInst                         H29721
   :        :866598- 2  J  STANLEY                :iO Gold              ** Modem            :GOLD OOL 1 MODEM                   (27B
4  :SUB RESCHED TO 6/08/06                        :** 1iOBox(Rates>)                        :SUB RESCHED TO 6/08/06                 
---:--------:-------------------------------------:-----------------------------------------:---------------------------------------
REPORT PROG: DP22052 - REV 52B                            WEST NASSAU - LONG ISLAND                                 : TIME :MILEAGE:
REPORT DATE: 06/07/06 02:52 pm                    * * INSTALLER COVER SHEETS * *                              ------:------:-------:
CORP#      :  7858                                          06/08/06                                          START :......:.......:
INSTALLER #:871   P  PRINCE                                                                                   LUNCH :......:.......:
TOTAL JOBS :  5                                                                                               FINISH:......:.......:
TOTAL UNITS:  94                                                                                              TOTAL :......:.......:
====================================================================================================================================
JB#:  JOB   :              ADDRESS                :             TASKS/PROBLEMS              :          COD/SPCL INSTRUCTIONS   ROUTE
PTS:  TIME  :ACCT #/NAME                   PHONES :                                         :               WIP COMMENT        AMP
---:--------:-------------------------------------:-----------------------------------------:---------------------------------------
 1 :CHG SVC :125 N WOOD LN                        : 1 Add'l Outlet(COS) ConnectToExistWirng :                        NoProof    127
23:8AM-11AM  Woodmere         NY 11598 :5165693314:Certify Drop         InstInterconnectJack:NoSpInst                         J33801
   :        :872623- 3  R  KOLB           247-2048:A/O & Software       ** OV Modem         :Ported TN:516-569-3314 OV Number 51(39K
4  :                                              :Inst OV w/OOL        Port Tele#          :                                       
---:--------:-------------------------------------:-----------------------------------------:---------------------------------------
 2 :RESTART :107 OCEAN AV                         :Rec Primary Video                        :                        PWO        181
10:8AM-11AM  Woodmere         NY 11598 :5165697564:** 1iOBox(Rates>)                        :NoProof                          H30603
   :        :188426- 2  M  LEITER         636-8796:                                         :POLE WORK ONLY/1 BOX               (38S
   :                                              :                                         :                                       
---:--------:-------------------------------------:-----------------------------------------:---------------------------------------
 3 :CHG SVC :980 EAST END                         :Up/Down Serv         Code Change         :                        PWO        129
 5:10AM-8PM  Woodmere         NY 11598 :5162954748:iO Silver                                :PWO                     PWO      J33120
   :        :873981- 2  I  MEHL                   :Remv Bbasic Trap                         :UNTRAP FAMILY AT POLE              (RL8
0  :                                              :Code Change                              :                                       
---:--------:-------------------------------------:-----------------------------------------:---------------------------------------
 4 :INSTALL :646 FLANDERS DR                      :Rec Primary Video    A/O & Software      :                                   128
38:2PM-4PM   Valley Stream    NY 11581 :6462514733: 3 Add'l Outlet(Acq) Inst OV w/OOL       :NoProof                          J32900
   :        :874804- 4  E  WEISFELD               :Family               ConnectToExistWirng :INSTALL TRIPLEPLAY                 (35T
0  :                                              :** 3iOBox(Rates>)    InstInterconnectJack:                                       
---:--------:-------------------------------------:-----------------------------------------:---------------------------------------
 5 :CHG SVC :49 -2 5TH ST                         :Certify Drop         InstInterconnectJack:                        NoProof    109
18:2PM-4PM   Valley Stream    NY 11581 :5168250426:A/O & Software       ConnectToExistWirng :NoSpInst                         J03500
   :        :840512- 4  E  STEIN                  :** OV Modem                              :Assigned TN(s):516-792-3103        (DHG
   :                                              :Inst OV w/OOL                            :                                       
---:--------:-------------------------------------:-----------------------------------------:---------------------------------------
REPORT PROG: DP22052 - REV 52B                            WEST NASSAU - LONG ISLAND                                 : TIME :MILEAGE:
REPORT DATE: 06/07/06 02:52 pm                    * * INSTALLER COVER SHEETS * *                              ------:------:-------:
CORP#      :  7858                                          06/08/06                                          START :......:.......:
INSTALLER #:872   P  PRINCE                                                                                   LUNCH :......:.......:
TOTAL JOBS :  3                                                                                               FINISH:......:.......:
TOTAL UNITS: 109                                                                                              TOTAL :......:.......:
====================================================================================================================================
JB#:  JOB   :              ADDRESS                :             TASKS/PROBLEMS              :          COD/SPCL INSTRUCTIONS   ROUTE
PTS:  TIME  :ACCT #/NAME                   PHONES :                                         :               WIP COMMENT        AMP
---:--------:-------------------------------------:-----------------------------------------:---------------------------------------
 1 :INSTALL :35 CLUBSIDE DR                       :Rec Primary Video    A/O & Software      :                        NoProof    127
34:8AM-11AM  Woodmere         NY 11598 :5165246005: 2 Add'l Outlet(Acq) A/O & Software      :NoSpInst                         J33900
   :        : 62874- 3  S  KAHN           374-2559:iO Silver            Certify Drop        :XST=BROADWAY                       (60J
4  :                                              :** 2 DVR Box(Rates>) ** Modem            :                                       
---:--------:-------------------------------------:-----------------------------------------:---------------------------------------
 2 :INSTALL :19 OAK ST                            :Rec Primary Video    ** 2 HDBox(Rates>)  :                                   109
39:11AM-2PM  Valley Stream    NY 11581 :6465330426: 2 Add'l Outlet(Acq) A/O & Software      :NoProof                          J04109
   :        :840789- 3  C  SANCHEZ                :Family               Inst OV w/OOL       :NEW OV#732-792-3025/3 IO BOXES     (63W
4  :                                              :** 2iOBox(Rates>)    ConnectToExistWirng :                                       
---:--------:-------------------------------------:-----------------------------------------:---------------------------------------
 3 :INSTALL :624 DERBY AV                         :Rec Primary Video    ** 2 HDBox(Rates>)  :                        NoProof    131
36:2PM-4PM   Woodmere         NY 11598 :5162954395: 2 Add'l Outlet(Acq) A/O & Software      :CallHome                         J33012
   :        :871044- 2  B  BENZAEKEIN             :DBS Winback          Inst OV w/OOL       :IOSILVER TRIPLY ON 3BX             (20I
H  :ALARM NOT COMP TO OV                          :** 2iOBox(Rates>)    ConnectToExistWirng :ALARM NOT COMP TO OV                   
---:--------:-------------------------------------:-----------------------------------------:---------------------------------------
REPORT PROG: DP22052 - REV 52B                            WEST NASSAU - LONG ISLAND                                 : TIME :MILEAGE:
REPORT DATE: 06/07/06 02:52 pm                    * * INSTALLER COVER SHEETS * *                              ------:------:-------:
CORP#      :  7858                                          06/08/06                                          START :......:.......:
INSTALLER #:873   P  PRINCE                                                                                   LUNCH :......:.......:
TOTAL JOBS :  5                                                                                               FINISH:......:.......:
TOTAL UNITS:  86                                                                                              TOTAL :......:.......:
====================================================================================================================================
JB#:  JOB   :              ADDRESS                :             TASKS/PROBLEMS              :          COD/SPCL INSTRUCTIONS   ROUTE
PTS:  TIME  :ACCT #/NAME                   PHONES :                                         :               WIP COMMENT        AMP
---:--------:-------------------------------------:-----------------------------------------:---------------------------------------
 1 :CHG SVC :284 -D3 CEDARHURST AV                :ReRun/Relocate Insde                     :                                   174
 7:8AM-11AM  Cedarhurst       NY 11516 :5165694425:                                         :CustEdu                          J34728
   :        :954008- 3  H  ROTHSTEIN              :                                         :RE-RUN CABLE-LINE IN HOME          (GSG
   :                                              :                                         :                                       
---:--------:-------------------------------------:-----------------------------------------:---------------------------------------
 2 :CHG SVC :51 LOCUST AV                         :ReRun/Relocate Insde                     :                                   175
 7:11AM-2PM  Cedarhurst       NY 11516 :5165690322:                                         :                                 J34600
   :        :213832- 1  M  KOPPEL         724-0934:                                         :X=BROADWAY/CALL BOTH NUMBERS       (RS4
4  :                                              :                                         :                                       
---:--------:-------------------------------------:-----------------------------------------:---------------------------------------
 3 :CHG SVC :451 FIFTH AV                         :Up/Down Serv         A/O & Software      :                                   174
26:11AM-2PM  Cedarhurst       NY 11516 :5165697141:Up/Down Serv         Remv Bbasic Trap    :                                 J34723
   :        :953650- 3  T  GRINSPAN       569-7141:Family               Inst OV w/OOL       :FAMILY/IO  1IOBX                   (36L
   :                                              :** 1iOBox(Rates>)    ConnectToExistWirng :                                       
---:--------:-------------------------------------:-----------------------------------------:---------------------------------------
 4 :CHG SVC :1188 BROADWAY # 4                    :ReRun/Relocate Drop  Xtra Span Req       :                                   124
26:2PM-5PM   Hewlett          NY 11557 :5162954306:ReRun/Relocate Drop  ReRun/Relocate Insde:                                 J33600
   :        :206001- 3  A  ABILA                  :ReRun/Relocate Drop                      :3 POLE RUN & 1 INDOOR              (L19
   :                                              :Xtra Span Req                            :                                       
---:--------:-------------------------------------:-----------------------------------------:---------------------------------------
 5 :CHG SVC :63 PROSPECT AV # 1A                  :** OV Modem          OV EnhancedWiring   :                        NoProof    124
20:2PM-4PM   Hewlett          NY 11557 :5168870412:Add OV to OOL        Port Tele#          :NoSpInst                         H29620
   :        :866714- 6  R  BRODSKY                :InstInterconnectJack                     :Ported TN:516-887-0412 OV Number 51(DHG
   :                                              :ConnectToExistWirng                      :                                       
---:--------:-------------------------------------:-----------------------------------------:---------------------------------------
REPORT PROG: DP22052 - REV 52B                            WEST NASSAU - LONG ISLAND                                 : TIME :MILEAGE:
REPORT DATE: 06/07/06 02:52 pm                    * * INSTALLER COVER SHEETS * *                              ------:------:-------:
CORP#      :  7858                                          06/08/06                                          START :......:.......:
INSTALLER #:875   P  PRINCE                                                                                   LUNCH :......:.......:
TOTAL JOBS :  7                                                                                               FINISH:......:.......:
TOTAL UNITS:  77                                                                                              TOTAL :......:.......:
====================================================================================================================================
JB#:  JOB   :              ADDRESS                :             TASKS/PROBLEMS              :          COD/SPCL INSTRUCTIONS   ROUTE
PTS:  TIME  :ACCT #/NAME                   PHONES :                                         :               WIP COMMENT        AMP
---:--------:-------------------------------------:-----------------------------------------:---------------------------------------
 1 :CHG SVC :114 HENRY ST # UPST                  :Up/Down Serv                             :                                   132
 5:10AM-8PM  Inwood           NY 11096 :5163710829:Inst BBasic Trap                         :                                 J36529
   :        :227630- 3  F  JORELLANA              :Code Change                              :                                       
   :                                              :                                         :                                       
---:--------:-------------------------------------:-----------------------------------------:---------------------------------------
 2 :CHG SVC :264 MORRIS AV # 1R                   :ConnectToExistWirng                      :                                   133
 9:8AM-11AM  Inwood           NY 11096 :5162393043:InstInterconnectJack                     :                                 J36702
   :        :531856- 1  S  FUENTES                :                                         :PARKED TN# 516-239-3043/CALL DISPTH(L22
4  :                                              :                                         :                                       
---:--------:-------------------------------------:-----------------------------------------:---------------------------------------
 3 :CHG SVC :29 WATERFRONT BL                     :Up/Down Serv                             :                                   133
 6:8AM-11AM  Inwood           NY 11096 :5162392837:iO Silver                                :NoSpInst                         J36818
   :        :877979- 1  P  CARACCIOLO             :Code Change                              :EXCHANGE 1 BX  ANF ADDED SILVER    (37Y
   :                                              :** 1iOBox(Rates>)                        :                                       
---:--------:-------------------------------------:-----------------------------------------:---------------------------------------
 4 :INSTALL :388 SHERIDAN BL                      :Install Primary OOL                      :                                   133
12:11AM-2PM  Inwood           NY 11096 :5162399097:Inst Full Video Trap                     :NoProof                          J36813
   :        : 37404- 3  E  RONCANCIO              :** Modem                                 :SELF OOL                           (20H
   :                                              :                                         :                                       
---:--------:-------------------------------------:-----------------------------------------:---------------------------------------
 5 :INSTALL :9 AUGUSTINA ST                       :*******************                      :                                   132
18:2PM-5PM   Inwood           NY 11096 :5164252933:*     THIS JOB    *                      :GetProof                         J36606
RS :        :876090- 7  C  DAVIS                  :*     HAS BEEN    *                      :INSTALL 3AO/1IO BX                 (32A
4  :                                              :*   RESCHEDULED   *                      :                                       
---:--------:-------------------------------------:-----------------------------------------:---------------------------------------
 6 :CHG SVC :63 WEST AV                           : 1 Add'l Outlet(COS)                     :                                   130
 8:11AM-2PM  Lawrence         NY 11559 :5163712576:** 1iOBox(Rates>)                        :NoProof                          J36500
   :        :870916- 3  J  CHAVES         219-4827:                                         :ADDNTL OUTLET/1SA BX               (20H
   :                                              :                                         :                                       
---:--------:-------------------------------------:-----------------------------------------:---------------------------------------
 7 :INSTALL :353 CENTRAL AV # 2                   :A/O & Software       InstInterconnectJack:                        CallHome   132
19:2PM-4PM   Lawrence         NY 11559 :5169931185:Inst Full Video Trap ** OV Modem         :GetProof                         H38200
   :        :509896- 3  C  DUND                   :Inst OV w/OOL                            :OOL/OV                             (60B
1  :                                              :ConnectToExistWirng                      :                                       
---:--------:-------------------------------------:-----------------------------------------:---------------------------------------
