
TESTDC     20    AROCS 12/30/08 10:35:00 081230-0350 NORMAL NOGRID 

==============//  AOC TICKET  //==============

TICKET NUMBER--[081230-0350]  
OLD TICKET NUM-[081230-0344]  

MESSAGE TYPE---[CHANGE INFORMATION REQUEST] LEAD TIME--[20]
PREPARED-------[12/30/08]  AT  [1035]  BY  [HKEY]

CONTRACTOR--[JIM RUNYAN]   CALLER--[JIM RUNYAN]
ADDRESS-----[41 S BUMBLEBEE RD]
CITY--------[GLENWOOD]   STATE--[AR]   ZIP--[71943]
CALL BACK---[SAME]   PHONE--[(870) 356-2489]
COMPANY FAX-[(999) 999-9999]
CONTACT-----[JIM RUNYAN]   PHONE--[(870) 356-2489]
EMAIL-------[]
CONTACT FAX-[(999) 999-9999]

WORK TO BEGIN--[01/02/09] AT [1045]      STATE--[AR]
COUNTY---[MONTGOMERY]  PLACE--[RURAL]

ADDRESS--[149]   STREET--[S][BUMBLEBEE][RD][]
NEAREST INTERSECTION--------[HWY 70 E ]
LATITUDE--[34.3506673290437]    LONGITUDE--[-93.4742279052734]
SECONDARY LATITUDE--[0]    SECONDARY LONGITUDE--[0]

ADDITIONAL ADDRESSES IN LOCATION--[N]

LOCATION INFORMATION--
[RURAL OF GLENWOOD - WORKING APPX .4 MI S OF HWY 70 E ON S BUMBLEBEE RD - TO   ]
[ADDR - W SIDE OF RD - LOCATE RT SIDE OF PPTY                                  ]
[                                                                              ]
[*CHANGE OF INFO - CALLER NOW REQ LOCATORS CALL BEFORE LOCATING TO BE MET ON   ]
[SITE - JIM RUNYAN (870) 356-2489*                                             ]

WORK TYPE--[FENCE, INSTALL]  DONE FOR--[JIM RUNYAN]
EXTENT-----[UNKNOWN]

EXPLOSIVES--[N]    WHITE PAINT--[N]    GRID GIVEN--[N]
DIRECTIONAL BORING--[N]

MAP REF.--[]
GRIDS-----
          [                 ] 

UTILITIES NOTIFIED--
  CODE       NAME                         CODE       NAME                      
  ---------- --------------------------   ---------- --------------------------
  ALLTPK     WINDSTREAM - PIKE COUNTY     KIMZEY     JAMES KIMZEY REGIONAL W...
  MOBIL2     MOBIL PL - GLENWOOD, AR      REARC097   CENTERPOINT ENERGY ARKL...




