
TESTDC     14    AROCS 12/30/08 08:51:00 081230-0179 EMERGENCY NOGRID 

==============//  AOC TICKET  //==============

TICKET NUMBER--[081230-0179]   == E M E R G E N C Y ==
OLD TICKET NUM-[]  

MESSAGE TYPE---[EMERGENCY] LEAD TIME--[9]
PREPARED-------[12/30/08]  AT  [0851]  BY  [MMACE]

CONTRACTOR--[CRAWFORD PLUMBING LLC]   CALLER--[RENEE CRAWFORD]
ADDRESS-----[373 PATTERSON LOOP]
CITY--------[EL DORADO]   STATE--[AR]   ZIP--[71730]
CALL BACK---[(870) 310-9560]   PHONE--[(870) 862-0340]
COMPANY FAX-[(870) 862-0889]
CONTACT-----[RENEE CRAWFORD]   PHONE--[(870) 862-0340]
EMAIL-------[DCPLMB@SUDDENLINK.NET]
CONTACT FAX-[]

WORK TO BEGIN--[12/31/08] AT [0800]      STATE--[AR]
COUNTY---[UNION]  PLACE--[EL DORADO]

ADDRESS--[610]   STREET--[][ROBINSON][][]
NEAREST INTERSECTION--------[THOMPSON]
LATITUDE--[33.2160828259526]    LONGITUDE--[-92.6706449547575]
SECONDARY LATITUDE--[0]    SECONDARY LONGITUDE--[0]

ADDITIONAL ADDRESSES IN LOCATION--[N]

LOCATION INFORMATION--
[REAR OF PPTY                                                                  ]
[                                                                              ]
[EMERGENCY - CREW WILL BE ON SITE 12/31 8AM                                    ]

WORK TYPE--[SEWER, REPLACE SERVICE LINE]  DONE FOR--[ERIC MILLAM]
EXTENT-----[.5 DAY]

EXPLOSIVES--[N]    WHITE PAINT--[Y]    GRID GIVEN--[N]
DIRECTIONAL BORING--[N]

MAP REF.--[]
GRIDS-----
          [                 ] 

UTILITIES NOTIFIED--
  CODE       NAME                         CODE       NAME                      
  ---------- --------------------------   ---------- --------------------------
  ATT01      AT&T ARKANSAS                COXELD     SUDDENLINK - EL DORADO    
  ELDORADO   EL DORADO WATER UTILITIES    ENT16A     ENTERGY - EL DORADO       
  REAFC139   CENTERPOINT ENERGY ARKL... 




