
TESTDC     18    AROCS 12/30/08 09:59:00 081230-0289 NON-COMPLIANT NOGRID 

==============//  AOC TICKET  //==============

TICKET NUMBER--[081230-0289]  
OLD TICKET NUM-[081230-0251]  

MESSAGE TYPE---[CHANGE INFORMATION REQUEST] LEAD TIME--[8]
PREPARED-------[12/30/08]  AT  [0959]  BY  [LVANDYKE]

CONTRACTOR--[INGLE FENCE COMPANY]   CALLER--[ALICIA DAYS]
ADDRESS-----[9019 HWY 161]
CITY--------[NORTH LITTLE ROCK]   STATE--[AR]   ZIP--[72117]
CALL BACK---[SAME]   PHONE--[(501) 982-1412]
COMPANY FAX-[(501) 982-7579]
CONTACT-----[ALICIA DAYS]   PHONE--[(501) 982-1412]
EMAIL-------[]
CONTACT FAX-[(501) 982-7579]

WORK TO BEGIN--[12/31/08] AT [0900]      STATE--[AR]
COUNTY---[PULASKI]  PLACE--[LITTLE ROCK]

ADDRESS--[317]   STREET--[][COMMENTRY][WAY][]
NEAREST INTERSECTION--------[COMMENTRY DR]
LATITUDE--[34.8139896077555]    LONGITUDE--[-92.5166141299674]
SECONDARY LATITUDE--[0]    SECONDARY LONGITUDE--[0]

ADDITIONAL ADDRESSES IN LOCATION--[N]

LOCATION INFORMATION--
[ADDR APPX 200' S OF INT - E SIDE OF RD - REAR AND BOTH SIDES OF PPTY          ]
[                                                                              ]
[**CHANGE OF INFO - CALLER CALLED BACK AND REQ LINES MARKED BY WEDNESDAY AT    ]
[9AM**                                                                         ]

WORK TYPE--[FENCE, INSTALL]  DONE FOR--[FRED BOARD]
EXTENT-----[1 DAY]

EXPLOSIVES--[N]    WHITE PAINT--[Y]    GRID GIVEN--[N]
DIRECTIONAL BORING--[N]

MAP REF.--[]
GRIDS-----
          [                 ] 

UTILITIES NOTIFIED--
  CODE       NAME                         CODE       NAME                      
  ---------- --------------------------   ---------- --------------------------
  ATT01      AT&T ARKANSAS                CENARWTS   CENTRAL ARKANSAS WATER ...
  COMCAST    COMCAST CABLEVISION OF ...   ENT20WM    ENTERGY - LITTLE ROCK     
  LRWASTE    LITTLE ROCK WASTEWATER       MAUMELLE   MAUMELLE WATER MGMT - CITY
  REARC119   CENTERPOINT ENERGY ARKL... 




