
TESTDC     23    AROCS 12/30/08 10:07:00 081230-0300 NORMAL NOGRID 

==============//  AOC TICKET  //==============

TICKET NUMBER--[081230-0300]  
OLD TICKET NUM-[]  

MESSAGE TYPE---[MAJOR PROJECT] LEAD TIME--[20]
PREPARED-------[12/30/08]  AT  [1007]  BY  [JLONG]

CONTRACTOR--[OZARKS ELECTRIC COOP.]   CALLER--[NATHAN TERRY]
ADDRESS-----[3641 WEDINGTON DRIVE]
CITY--------[FAYETTEVILLE]   STATE--[AR]   ZIP--[72704]
CALL BACK---[SAME]   PHONE--[(479) 521-2900]
COMPANY FAX-[(479) 444-0943]
CONTACT-----[NATHAN TERRY]   PHONE--[(479) 521-2900]
EMAIL-------[]
CONTACT FAX-[(479) 444-0943]

WORK TO BEGIN--[01/02/09] AT [1015]      STATE--[AR]
COUNTY---[WASHINGTON]  PLACE--[SPRINGDALE]

ADDRESS--[]   STREET--[E][FRIENDSHIP][RD][]
NEAREST INTERSECTION--------[BUTTERFIELD COACH RD]
LATITUDE--[36.1736876015805]    LONGITUDE--[-94.0942734913724]
SECONDARY LATITUDE--[36.1691993386671]    SECONDARY LONGITUDE--[-94.0882077636693]

ADDITIONAL ADDRESSES IN LOCATION--[N]

LOCATION INFORMATION--
[WORKING APPX 674' E OF INT - TO ENTRANCE TO NEW EASTVIEW ESTATES SUBD - S     ]
[SIDE OF RD - START ON W SIDE OF ENTRANCE - EXTEND W - APPX 386' - TRN &       ]
[EXTEND S - APPX 1264' - TRN & EXTEND E - APPX 1109' - TRN & EXTEND N - APPX   ]
[474' - TRN & EXTEND E - APPX 592' - TRN & EXTEND N - APPX 154' - TRN &        ]
[EXTEND W - APPX 610' TRN & EXTEND N - APPX 260' - TRN & EXTEND W - APPX       ]
[703' - TRN & EXTEND N - APPX 434' - IN REAR LOTS OF THIS PORTION OF SUBD      ]
[(NOTE FRONT & E PORTION OF SUBD HAS NOT BEEN WHITE FLAGGED & WILL BE CALLED   ]
[AT A LATER DATE) THIS IS NEAR MAP #20-05-4460                                 ]
[**MAJOR PROJECT**                                                             ]

WORK TYPE--[ELECTRIC, INSTALL PRIMARY]  DONE FOR--[EASTVIEW ESTATES SUBD]
EXTENT-----[3 WEEKS]

EXPLOSIVES--[Y]    WHITE PAINT--[Y]    GRID GIVEN--[N]
DIRECTIONAL BORING--[N]

MAP REF.--[]
GRIDS-----
          [                 ] 

UTILITIES NOTIFIED--
  CODE       NAME                         CODE       NAME                      
  ---------- --------------------------   ---------- --------------------------
  ATT01      AT&T ARKANSAS                AWG13      AWG - FAYETTEVILLE        
  COXSPR     COX COMMUNICATION - SPR...   OZARKELC   OZARKS ELECTRIC COOPERA...
  SPGDLTF    CITY OF SPRINGDALE - TR...   SPRGDALE   SPRINGDALE WATER UTILITIES




