
TESTDC     1     AROCS 12/30/08 06:01:00 081230-0001 NORMAL NOGRID 

==============//  AOC TICKET  //==============

TICKET NUMBER--[081230-0001]  
OLD TICKET NUM-[]  

MESSAGE TYPE---[NORMAL] LEAD TIME--[20]
PREPARED-------[12/30/08]  AT  [0601]  BY  [MMACE]

CONTRACTOR--[S.A.C. WIRELINE]   CALLER--[STEVE COOK]
ADDRESS-----[19638 HWY 51]
CITY--------[MALVERN]   STATE--[AR]   ZIP--[72104]
CALL BACK---[501/626-5975 CELL]   PHONE--[(501) 332-5555]
COMPANY FAX-[(501) 609-2455]
CONTACT-----[STEVE COOK]   PHONE--[(501) 626-5975]
EMAIL-------[SCOOK@SACWIRELINE.COM]
CONTACT FAX-[(501) 609-2455]

WORK TO BEGIN--[01/02/09] AT [0700]      STATE--[AR]
COUNTY---[HOT SPRING]  PLACE--[RURAL]

ADDRESS--[6211]   STREET--[][POSSUM TROT][RD][]
NEAREST INTERSECTION--------[DENHAM RD]
LATITUDE--[34.3764624324275]    LONGITUDE--[-92.9418512181874]
SECONDARY LATITUDE--[34.3631114390422]    SECONDARY LONGITUDE--[-92.9293479069217]

ADDITIONAL ADDRESSES IN LOCATION--[N]

LOCATION INFORMATION--
[RURAL OF SOCIAL HILL - WORKING APPX 2.4 MI E OF INT - TERM 4821 - APPX 500'   ]
[DROP - CUST MODER                                                             ]

WORK TYPE--[TELEPHONE, INSTALL DROP(S)]  DONE FOR--[AT&T]
EXTENT-----[1 DAY]

EXPLOSIVES--[N]    WHITE PAINT--[Y]    GRID GIVEN--[N]
DIRECTIONAL BORING--[N]

MAP REF.--[]
GRIDS-----
          [                 ] 

UTILITIES NOTIFIED--
  CODE       NAME                         CODE       NAME                      
  ---------- --------------------------   ---------- --------------------------
  ATT01      AT&T ARKANSAS                ENT26      ENTERGY - MALVERN         
  KIMZEY     JAMES KIMZEY REGIONAL W... 




