
TESTDC     13    AROCS 12/30/08 08:46:00 081230-0176 EMERGENCY NOGRID 

==============//  AOC TICKET  //==============

TICKET NUMBER--[081230-0176]   == E M E R G E N C Y ==
OLD TICKET NUM-[]  

MESSAGE TYPE---[EMERGENCY] LEAD TIME--[0]
PREPARED-------[12/30/08]  AT  [0846]  BY  [CPALMERE]

CONTRACTOR--[BILL WATSON]   CALLER--[BILL WATSON]
ADDRESS-----[1076 N PHELPS CIR]
CITY--------[ARKADELPHIA]   STATE--[AR]   ZIP--[71923]
CALL BACK---[870-275-5632 - CELL]   PHONE--[(870) 246-5126]
COMPANY FAX-[(999) 999-9999]
CONTACT-----[BILL WATSON]   PHONE--[(870) 246-5126]
EMAIL-------[]
CONTACT FAX-[(999) 999-9999]

WORK TO BEGIN--[12/30/08] AT [0900]      STATE--[AR]
COUNTY---[CLARK]  PLACE--[ARKADELPHIA]

ADDRESS--[1076]   STREET--[][PHELPS][CIR][]
NEAREST INTERSECTION--------[CARTER RD]
LATITUDE--[34.1373758629944]    LONGITUDE--[-93.0577666977277]
SECONDARY LATITUDE--[0]    SECONDARY LONGITUDE--[0]

ADDITIONAL ADDRESSES IN LOCATION--[N]

LOCATION INFORMATION--
[**EMERGENCY - CREW ON SITE NOW**                                              ]
[                                                                              ]
[WORKING APPX 300' N OF THE W MOST INT - LOCATE THE NE CORNER OF THE PPTY      ]

WORK TYPE--[SEWER, REPLACE SERVICE LINE]  DONE FOR--[BOB RILEY]
EXTENT-----[2 HRS]

EXPLOSIVES--[N]    WHITE PAINT--[Y]    GRID GIVEN--[N]
DIRECTIONAL BORING--[N]

MAP REF.--[]
GRIDS-----
          [                 ] 

UTILITIES NOTIFIED--
  CODE       NAME                         CODE       NAME                      
  ---------- --------------------------   ---------- --------------------------
  ARKADELP   ARKADELPHIA WATER & SEW...   ATT01      AT&T ARKANSAS             
  ENT40      ENTERGY - ARKADELPHIA        REARC019   CENTERPOINT ENERGY ARKL...




