
BEC03  *EOD* NCOCa 06/27/10 00:03:48

***************************************************************************
* Summary for 06/26/10 - BEC03                                            *
***************************************************************************


Total: 0
