
BEC03  *EOD* NCOCa 06/24/10 00:05:29

***************************************************************************
* Summary for 06/23/10 - BEC03                                            *
***************************************************************************


Total: 0
