
BEC03  *EOD* NCOCa 06/22/10 00:04:40

***************************************************************************
* Summary for 06/21/10 - BEC03                                            *
***************************************************************************


Total: 0
