
New Jersey One Call System        SEQUENCE NUMBER 0095    CDC = TK8 

Transmit:  Date: 06/30/11   At: 15:03 

*** R O U T I N E         *** Request No.: 111811528 

Operators Notified: 
BAN     = VERIZON                       GPS     = JERSEY CENTRAL POWER & LI      
NJN     = NEW JERSEY NATURAL GAS CO     OBM     = OLD BRIDGE M.U.A.              
P29     = PUBLIC SERVICE ELECTRIC &     TK8     = CABLEVISION OF RARITAN VA      

Start Date/Time:    07/07/11   At 00:15  Expiration Date: 09/02/11 

Location Information: 
County: MIDDLESEX              Municipality: OLD BRIDGE 
Subdivision/Community:  
Street:               8 WINCHESTER CT 
Nearest Intersection: DORCHESTER CT 
Other Intersection:    
Lat/Lon: 
Type of Work: INSTALL GAS SERVICE 
Block: 12360          Lot:  29            Depth: 3FT 
Extent of Work: CURB TO ENTIRE PROPERTY. 
Remarks:  
  Working For Contact:  GREGG JOHNSON 

Working For: GREGG JOHNSON 
Address:     8 WINCHESTER COURT 
City:        MATAWAN, NJ  07747 
Phone:       732-441-9114   Ext:  

Excavator Information: 
Caller:      PATTY ILARDI 
Phone:       732-363-4373   Ext:  

Excavator:   NEIL BROOKS PHC INC 
Address:     14 S HOPE CHAPEL ROAD 
City:        JACKSON, NJ  08527 
Phone:       732-363-4373   Ext:          Fax:  732-901-7938 
Cellular:    732-363-4373 
Email:       neilbrooksphc@aol.com 
End Request 
