
B05002RCV  00063 TNOCS 01/07/09 11:09:00 090070682 NORMAL GRID 

========//  TNOCS LOCATE REQUEST  //========

TICKET NUMBER--[090070682]  
OLD TICKET NUM-[]  

MESSAGE TYPE---[NORMAL] LEAD TIME--[72]
PREPARED-------[01/07/09]  AT  [1109]  BY  [WESLEY]

CONTRACTOR--[WEST TN UTILITY CONSTRUCTION]   CALLER--[KATIE STEWART]
ADDRESS-----[2983 OLD MEDINA RD]
CITY--------[JACKSON]   STATE--[TN]   ZIP--[38305]
CALL BACK---[731-424-6767]   PHONE--[(731) 424-6767]
CONTACT-----[KATIE STEWART]   PHONE--[(731) 424-6767]
CONTACT FAX-[]

WORK TO BEGIN--[01/12/09] AT [1115]      STATE--[TN]
COUNTY---[MADISON]  PLACE--[BEECH BLUFF]

ADDRESS--[4904]   STREET--[][BEECH BLUFF][RD][]
NEAREST INTERSECTION--------[MCABEE RD]
LATITUDE--[35.5791081686453]    LONGITUDE--[-88.6456315416246]
SECONDARY LATITUDE--[0]    SECONDARY LONGITUDE--[0]

ADDITIONAL ADDRESSES IN LOCATION--[N]

LOCATION INFORMATION--
[FROM INTER GO 400FT S TO PROP....MARK FROM POLE TO HOUSE....                  ]

WORK TYPE--[CATV LINE(S) AND/OR DROP(S), INSTL]  DONE FOR--[CHARTER
COMMUNICATIONS]
EXTENT-----[]

EXPLOSIVES--[N]    WHITE PAINT--[N]    GRID GIVEN--[N]

MAP REF.--[JCSN 2601,3205]
GRIDS-----
          [103L             ] 

UTILITIES NOTIFIED--
  CODE       NAME                         CODE       NAME                      
  ---------- --------------------------   ---------- --------------------------
  B05        ATT/D-JACKS (615)661-3758    JUD        JACKSON ENERGY AUTHORITY  
  SWEMJA     SOUTHWEST ELECTRIC MEMB... 




