
B05002RCV  00059 TNOCS 01/09/09 13:18:00 090090992 NORMAL GRID 

========//  TNOCS LOCATE REQUEST  //========

TICKET NUMBER--[090090992]  
OLD TICKET NUM-[]  

MESSAGE TYPE---[NORMAL] LEAD TIME--[72]
PREPARED-------[01/09/09]  AT  [1318]  BY  [SAM]

CONTRACTOR--[CITY OF MIDDLETON]   CALLER--[JERRY MILLS]
ADDRESS-----[POB 40]
CITY--------[MIDDLETON]   STATE--[TN]   ZIP--[38052]
CALL BACK---[731- 609-0727]   PHONE--[(731) 376-8409]
CONTACT-----[JERRY MILLS]   PHONE--[(731) 376-8409]
CONTACT FAX-[]

WORK TO BEGIN--[01/14/09] AT [1330]      STATE--[TN]
COUNTY---[HARDEMAN]  PLACE--[MIDDLETON]

ADDRESS--[1415]   STREET--[][POWELL CHAPEL][RD][]
NEAREST INTERSECTION--------[POWERS RD]
LATITUDE--[35.0768585166654]    LONGITUDE--[-88.8714021813362]
SECONDARY LATITUDE--[0]    SECONDARY LONGITUDE--[0]

ADDITIONAL ADDRESSES IN LOCATION--[N]

LOCATION INFORMATION--
[FROM INTER GO SW APPX 1600 FT TO PROP...MARK S SIDE OF RD IN FRONT OF         ]
[PROP...AREA WILL BE MARKED W/ WHITE...                                        ]

WORK TYPE--[SEWER FORCE MAIN, INSTL AND/OR REPAIR]  DONE FOR--[CITY OF
MIDDLETON]
EXTENT-----[]

EXPLOSIVES--[N]    WHITE PAINT--[Y]    GRID GIVEN--[N]

MAP REF.--[MDTN 0101,0404]
GRIDS-----
          [157C             ] [157F             ] 

UTILITIES NOTIFIED--
  CODE       NAME                         CODE       NAME                      
  ---------- --------------------------   ---------- --------------------------
  B05        ATT/D-JACKS (615)661-3758    BGD        BOLIVAR GAS               
  TWC002     COMCAST (TIME WARNER CA... 




