
INLEMPUTA *EOD*B USAS 04/24/13 19:21:40

*****************************************************************************
THIS IS YOUR DAILY AUDIT FOR 04/24/13. IF THERE ARE ANY DISCREPANCIES PLEASE
CALL POLLY, AMBER, SUE, OR ANN AFTER 7AM AT 951-808-8100 PRESS # THEN 1 ONCE
THE MESSAGE STARTS.  THANK YOU AND GOOD NIGHT.
*****************************************************************************

00001 B31140053-00B 09:58   00002 A30860186-01B 15:50 U

( ) NEW          - 00001
(U) UPDATE       - 00001
(R) RETRANSMIT   - 00000
(K) REMARK       - 00000
(N) NO SHOW      - 00000
(D) DAMAGE/EXPOSE- 00000
(C) CANCEL       - 00000
(S) RESENT       - 00000
    TOTAL        - 00002
