
INLEMPUTA *EOD*B USAS 04/23/13 19:21:56

*****************************************************************************
THIS IS YOUR DAILY AUDIT FOR 04/23/13. IF THERE ARE ANY DISCREPANCIES PLEASE
CALL POLLY, AMBER, SUE, OR ANN AFTER 7AM AT 951-808-8100 PRESS # THEN 1 ONCE
THE MESSAGE STARTS.  THANK YOU AND GOOD NIGHT.
*****************************************************************************

00001 A23341069-12B 08:18 U 00002 A30320587-07B 09:57 U
00003 A30320598-06B 09:57 U 00004 A12020172-25B 10:18 K
00005 B31130257-00B 16:41

( ) NEW          - 00001
(U) UPDATE       - 00003
(R) RETRANSMIT   - 00000
(K) REMARK       - 00001
(N) NO SHOW      - 00000
(D) DAMAGE/EXPOSE- 00000
(C) CANCEL       - 00000
(S) RESENT       - 00000
    TOTAL        - 00005
