locate_id	ticket_id	closed	closed_date	ticket_number	ticket_format	client_code	status	qty_marked	closed_how	transmit_date	ticket_type	work_address_number	work_address_number_2	work_address_street	work_city	work_state	due_date	work_county	con_name	invoiced	locator_id	work_cross	work_lat	work_long	client_id	call_date	parent_ticket_id	company	work_type	initial_status_date	emp_number	short_name	area_name	transmit_count	work_description	work_date
136161	18216	True	4/8/2002 2:14:32 PM	020922165	NewJersey	AE1	N	1	Detail	4/2/2002 5:06:00 PM	ROUTINE			659 E CLAYTON AVE	CLAYTON	NJ	4/8/2002 11:59:00 PM	GLOUCESTER	UNITY CONTRACTING COMPANY		286
138413	18711	True	4/8/2002 12:14:31 PM	020930526	NewJersey	NJN	M	2	Detail	4/3/2002 10:12:00 AM	ROUTINE			10 REVERE CT	RANDOLPH	NJ	4/8/2002 11:59:00 PM	MORRIS	TKR CABLE		219
139925	19132	True	4/8/2002 11:30:48 AM	020931027	NewJersey	NJN	M	2	Detail	4/3/2002 12:28:00 PM	ROUTINE			31 POPPER ST	STAFFORD	NJ	4/8/2002 11:59:00 PM	OCEAN	C AND R PLUMBING		224
141080	19509	True	4/8/2002 2:09:56 PM	020931554	NewJersey	SJG	M	1	Detail	4/3/2002 2:50:00 PM	ROUTINE			1100 HADDONFIELD BERLIN RD	VOORHEES	NJ	4/8/2002 11:59:00 PM	CAMDEN	GROUNDWATER AND ENVIRONMENTAL SVC		234
142243	19851	True	4/8/2002 4:25:24 PM	020932126	NewJersey	AE1	N	1	Detail	4/3/2002 4:59:00 PM	ROUTINE			258 MERMAID DR	STAFFORD	NJ	4/8/2002 11:59:00 PM	OCEAN	CARL'S FENCING		224
143520	20173	True	4/9/2002 1:38:38 PM	020940260	NewJersey	EG1	M	2	Detail	4/4/2002 8:59:00 AM	ROUTINE			550 OAK ST	ROSELLE PARK	NJ	4/11/2002 11:59:00 PM	UNION	ELIZABETHTOWN WATER COMPANY		280
144845	20458	True	4/9/2002 3:40:42 PM	020940571	NewJersey	NJN	M	7	Detail	4/4/2002 10:41:00 AM	ROUTINE			0 OCEAN BLVD	LONG BRANCH	NJ	4/9/2002 11:59:00 PM	MONMOUTH	JOSEPH JINGOLI & SONS		272
146080	20757	True	4/9/2002 2:01:34 PM	020940966	NewJersey	SJG	M	1	Detail	4/4/2002 1:06:00 PM	ROUTINE			135 NORTH AVE	BERLIN TWP	NJ	4/9/2002 11:59:00 PM	CAMDEN	LONE STAR MECHANICAL		238
146459	20950	True	4/8/2002 4:39:45 PM	020941288	NewJersey	NJN	M	1	Detail	4/4/2002 2:44:00 PM	ROUTINE			1 HURLEY ST	KEYPORT	NJ	4/10/2002 11:59:00 PM	MONMOUTH	NICHOLAS POOLS		260
147077	21128	True	4/8/2002 12:03:42 PM	020941506	NewJersey	AE1	N	1	Detail	4/4/2002 3:59:00 PM	ROUTINE			1894 MCKEE AVE	HAMILTON	NJ	4/9/2002 11:59:00 PM	ATLANTIC	TRINITY INDUSTRIES		244
147429	21292	True	4/9/2002 2:38:19 PM	020941713	NewJersey	AE1	M	1	Quick	4/4/2002 5:09:00 PM	ROUTINE			4401 BRIGANTINE BLVD	BRIGANTINE	NJ	4/9/2002 11:59:00 PM	ATLANTIC	TARGET ENVIRONMENTAL COMPANY		236
147990	21515	True	4/8/2002 7:56:12 AM	020950151	NewJersey	EG3	M	2	Detail	4/5/2002 8:29:00 AM	EMERGENCY			110 SWARTHMORE TER	WOODBRIDGE	NJ	4/10/2002 11:59:00 PM	MIDDLESEX	MIDDLESEX WATER CO.		277
148775	21682	True	4/8/2002 10:02:42 AM	020950292	NewJersey	EG3	NC	1	Detail	4/5/2002 10:19:00 AM	ROUTINE			44 - 46 MOFFETT ST	WOODBRIDGE	NJ	4/10/2002 11:59:00 PM	MIDDLESEX	FARHAT ALI		223
148911	21780	True	4/10/2002 9:33:15 AM	020950473	NewJersey	AE1	M	1	Quick	4/5/2002 10:37:00 AM	ROUTINE			103 GOODWIN PKWY	WASHINGTON	NJ	4/10/2002 11:59:00 PM	GLOUCESTER	KLINE CONSTRUCTION COMP		235
149334	21898	True	4/10/2002 10:59:09 AM	020950617	NewJersey	AE1	M	1	Detail	4/5/2002 11:11:00 AM	ROUTINE			1097 B - 1097 C LONG BEACH BLVD	LONG BEACH	NJ	4/10/2002 11:59:00 PM	OCEAN	ATLANTIC ELECTRIC		251
182259	26866	True	4/12/2002 9:12:06 AM	020990315	NewJersey	AE1	N	1	Detail	4/9/2002 9:16:00 AM	ROUTINE			0 WHITE HORSE PIKE	LINDENWOLD	NJ	4/12/2002 11:59:00 PM	CAMDEN	HENKELS & MCCOY, INC.	False	238
182260	26866	True	4/12/2002 9:12:06 AM	020990315	NewJersey	SJG	M	1	Detail	4/9/2002 9:16:00 AM	ROUTINE			0 WHITE HORSE PIKE	LINDENWOLD	NJ	4/12/2002 11:59:00 PM	CAMDEN	HENKELS & MCCOY, INC.	False	238
182261	26867	True	4/11/2002 1:09:03 PM	020990317	NewJersey	AE1	M	1	Quick	4/9/2002 9:16:00 AM	ROUTINE			14 FARMHOUSE LN	VOORHEES	NJ	4/12/2002 11:59:00 PM	CAMDEN	J & S LAWNMAN INC	False	234
182262	26867	True	4/11/2002 1:09:03 PM	020990317	NewJersey	SJG	M	1	Quick	4/9/2002 9:16:00 AM	ROUTINE			14 FARMHOUSE LN	VOORHEES	NJ	4/12/2002 11:59:00 PM	CAMDEN	J & S LAWNMAN INC	False	234
182263	26868	True	4/10/2002 12:45:22 PM	020990318	NewJersey	NJN	M	1	Detail	4/9/2002 9:16:00 AM	ROUTINE			206 MAIN ST	ASBURY PARK	NJ	4/12/2002 11:59:00 PM	MONMOUTH	JF KIELY CONSTRUCTION COMPANY	False	263
182264	26869	True	4/9/2002 8:55:39 PM	020990320	NewJersey	SJG	N	1	Quick	4/9/2002 9:16:00 AM	UPDATE			0 ROUTE 70	CHERRY HILL	NJ	4/12/2002 11:59:00 PM	CAMDEN	H P DRILLING,INC.	False	234
182265	26870	True	4/9/2002 2:54:32 PM	020990322	NewJersey	NJN	M	8	Detail	4/9/2002 9:16:00 AM	ROUTINE			0 LUDLOW RD	PARSIPPANY-TROY HILLS	NJ	4/12/2002 11:59:00 PM	MORRIS	TOMARO CONTRACTING COMPANY INC	False	221
182266	26871	True	4/9/2002 12:20:18 PM	020990323	NewJersey	UW5	M	1	Detail	4/9/2002 9:16:00 AM	ROUTINE			552 PALISADE AVE	JERSEY CITY	NJ	4/12/2002 11:59:00 PM	HUDSON	A-1 TANK CLEANING SERVICE	False	256
182267	26872	True	4/10/2002 12:46:02 PM	020990325	NewJersey	NJN	M	1	Detail	4/9/2002 9:17:00 AM	ROUTINE			400 MAIN ST	ASBURY PARK	NJ	4/12/2002 11:59:00 PM	MONMOUTH	JF KIELY CONSTRUCTION COMPANY	False	263
182268	26873	True	4/9/2002 1:02:26 PM	020990333	NewJersey	UW4	M	2	Detail	4/9/2002 9:19:00 AM	EMERGENCY			658 GLENWOOD AVE	TEANECK	NJ	4/12/2002 11:59:00 PM	BERGEN	PSE&G	False	257
182270	26875	True	4/9/2002 8:56:08 PM	020990330	NewJersey	SJG	N	1	Quick	4/9/2002 9:19:00 AM	ROUTINE			0 SPRINGDALE RD	CHERRY HILL	NJ	4/12/2002 11:59:00 PM	CAMDEN	HENKELS & MCCOY, INC.	False	234
182271	26876	True	4/11/2002 12:17:27 PM	020990331	NewJersey	NJN	M	2	Detail	4/9/2002 9:19:00 AM	ROUTINE			14 CHARLES CT	FAIR HAVEN	NJ	4/12/2002 11:59:00 PM	MONMOUTH	L C MECH CONTRACTORS	False	253
182272	26877	True	4/10/2002 1:27:12 PM	020990332	NewJersey	NJN	M	2	Detail	4/9/2002 9:20:00 AM	ROUTINE			414 - 428 MAIN ST	ASBURY PARK	NJ	4/12/2002 11:59:00 PM	MONMOUTH	JF KIELY CONSTRUCTION COMPANY	False	263
182905	27007	True	4/9/2002 11:58:10 AM	020990492	NewJersey	AE1	N	1	Detail	4/9/2002 10:01:00 AM	EMERGENCY			145 54TH ST	SEA ISLE	NJ	4/12/2002 11:59:00 PM	CAPE MAY	CITY OF SEA ISLE CITY	False	248
182906	27007	True	4/9/2002 11:58:10 AM	020990492	NewJersey	SJG	M	2	Detail	4/9/2002 10:01:00 AM	EMERGENCY			145 54TH ST	SEA ISLE	NJ	4/12/2002 11:59:00 PM	CAPE MAY	CITY OF SEA ISLE CITY	False	248
185096	27610	True	4/9/2002 10:19:04 PM	020991178	NewJersey	UW4	M	1	Detail	4/9/2002 12:45:00 PM	ROUTINE			209 STATE HWY 17	UPPER SADDLE RIVER	NJ	4/12/2002 11:59:00 PM	BERGEN	S MAURO BUILDERS	False	258
185097	27611	True	4/12/2002 7:32:15 AM	020991179	NewJersey	AE1	N	1	Detail	4/9/2002 12:45:00 PM	ROUTINE			73 EUSTON RD	EVESHAM	NJ	4/12/2002 11:59:00 PM	BURLINGTON	KM SYSTEMS	False	270
185098	27611	True	4/12/2002 7:32:15 AM	020991179	NewJersey	SJG	M	1	Detail	4/9/2002 12:45:00 PM	ROUTINE			73 EUSTON RD	EVESHAM	NJ	4/12/2002 11:59:00 PM	BURLINGTON	KM SYSTEMS	False	270
185099	27612	True	4/9/2002 10:00:33 PM	020991181	NewJersey	UW4	M	1	Detail	4/9/2002 12:46:00 PM	ROUTINE			1 PARKWAY	UPPER SADDLE RIVER	NJ	4/12/2002 11:59:00 PM	BERGEN	S MAURO BUILDERS	False	258
185100	27613	True	4/12/2002 12:16:09 PM	020991183	NewJersey	AE1	N	1	Detail	4/9/2002 12:46:00 PM	ROUTINE			815 COOLIDGE RD	OCEAN CITY	NJ	4/12/2002 11:59:00 PM	CAPE MAY	DENNISVILLE FENCE CO	False	237
185102	27614	True	4/11/2002 1:25:48 PM	020991184	NewJersey	AE1	M	1	Detail	4/9/2002 12:46:00 PM	ROUTINE			46 - 48 HERON DR	AVALON	NJ	4/12/2002 11:59:00 PM	CAPE MAY	KLINE CONSTRUCTION	False	276
185103	27614	True	4/11/2002 1:25:48 PM	020991184	NewJersey	SJG	M	1	Detail	4/9/2002 12:46:00 PM	ROUTINE			46 - 48 HERON DR	AVALON	NJ	4/12/2002 11:59:00 PM	CAPE MAY	KLINE CONSTRUCTION	False	276
185104	27615	True	4/11/2002 4:42:26 PM	020991186	NewJersey	NJN	M	1	Quick	4/9/2002 12:46:00 PM	ROUTINE			7 HASTINGS RD	HOLMDEL	NJ	4/12/2002 11:59:00 PM	MONMOUTH	LANDSCAPE MANAGEMENT SPECIALISTS	False	240
185105	27616	True	4/11/2002 1:52:17 PM	020991188	NewJersey	CCI	N	1	Detail	4/9/2002 12:47:00 PM	ROUTINE			337 - 339 SUPERIOR RD	EGG HARBOR TWP	NJ	4/12/2002 11:59:00 PM	ATLANTIC	KLINE CONSTRUCTION	False	239
185106	27616	True	4/11/2002 1:52:17 PM	020991188	NewJersey	NJN	NC	1	Detail	4/9/2002 12:47:00 PM	ROUTINE			337 - 339 SUPERIOR RD	EGG HARBOR TWP	NJ	4/12/2002 11:59:00 PM	ATLANTIC	KLINE CONSTRUCTION	False	239
185107	27616	True	4/11/2002 1:52:17 PM	020991188	NewJersey	AE1	M	1	Detail	4/9/2002 12:47:00 PM	ROUTINE			337 - 339 SUPERIOR RD	EGG HARBOR TWP	NJ	4/12/2002 11:59:00 PM	ATLANTIC	KLINE CONSTRUCTION	False	239
185108	27616	True	4/11/2002 1:52:17 PM	020991188	NewJersey	SJG	M	2	Detail	4/9/2002 12:47:00 PM	ROUTINE			337 - 339 SUPERIOR RD	EGG HARBOR TWP	NJ	4/12/2002 11:59:00 PM	ATLANTIC	KLINE CONSTRUCTION	False	239
185109	27617	True	4/9/2002 5:00:52 PM	020991229	NewJersey	UW4	M	1	Quick	4/9/2002 12:47:00 PM	EMERGENCY			1 CONNOR DR	ENGLEWOOD CLIFFS	NJ	4/12/2002 11:59:00 PM	BERGEN	UNITED WATER	False	257
185803	27736	True	4/10/2002 12:36:36 PM	020991309	NewJersey	EG3	M	2	Detail	4/9/2002 1:19:00 PM	ROUTINE			160 BORMAN AVE	WOODBRIDGE	NJ	4/12/2002 11:59:00 PM	MIDDLESEX	J FLETCHER CREAMER	False	223
185804	27737	True	4/10/2002 12:51:16 PM	020991311	NewJersey	NJN	M	1	Detail	4/9/2002 1:19:00 PM	ROUTINE			513 BROADWAY	MIDDLETOWN	NJ	4/12/2002 11:59:00 PM	MONMOUTH	CUSTOM LAWNS & IRRIGATION	False	261
185805	27738	True	4/12/2002 10:56:18 AM	020991312	NewJersey	NJN	M	2	Detail	4/9/2002 1:19:00 PM	ROUTINE			0 SEVEN OAKS CIR	HOLMDEL	NJ	4/12/2002 11:59:00 PM	MONMOUTH	SHORELANDS WATER COMPANY	False	240
185806	27739	True	4/10/2002 10:39:34 AM	020991313	NewJersey	AE1	N	1	Detail	4/9/2002 1:20:00 PM	ROUTINE			377 W 4TH ST	SURF CITY	NJ	4/12/2002 11:59:00 PM	OCEAN	GRAY SUPPLY CORP	False	251
188677	28379	True	4/10/2002 8:07:46 PM	020992140	NewJersey	UW4	M	1	Quick	4/9/2002 4:48:00 PM	ROUTINE			74 COLONIAL RD	MIDLAND PARK	NJ	4/12/2002 11:59:00 PM	BERGEN	R & S LANDSCAPING	False	258
189265	28501	True	4/10/2002 2:04:26 PM	020992278	NewJersey	UW4	M	5	Detail	4/9/2002 8:50:00 PM	ROUTINE			0 DESOTO PL	CLIFFSIDE PARK	NJ	4/15/2002 11:59:00 PM	BERGEN	GOTTHOLD PAVING	False	259
189266	28502	True	4/10/2002 11:01:37 AM	020992279	NewJersey	UW4	M	6	Detail	4/9/2002 8:50:00 PM	ROUTINE			0 COLUMBUS PL	CLIFFSIDE PARK	NJ	4/15/2002 11:59:00 PM	BERGEN	GOTTHOLD PAVING	False	259
189267	28503	True	4/10/2002 11:02:01 AM	020992280	NewJersey	UW4	M	6	Detail	4/9/2002 8:51:00 PM	UPDATE			0 COLUMBUS PL	CLIFFSIDE PARK	NJ	4/15/2002 11:59:00 PM	BERGEN	GOTTHOLD PAVING	False	259
189270	28505	True	4/10/2002 9:43:51 AM	020992282	NewJersey	NJN	M	1	Detail	4/9/2002 8:51:00 PM	ROUTINE			35 PRINCE WILLIAM RD	MARLBORO	NJ	4/15/2002 11:59:00 PM	MONMOUTH	COUNTY IRRIGATION COMPANY	False	262
189271	28506	True	4/10/2002 9:32:26 AM	020992286	NewJersey	NJN	M	1	Detail	4/9/2002 9:19:00 PM	EMERGENCY			118 CHESTNUT WAY	MANALAPAN	NJ	4/12/2002 11:59:00 PM	MONMOUTH	GPU ENERGY	False	213
189272	28507	True	4/11/2002 10:17:15 AM	020992284	NewJersey	AE1	N	1	Detail	4/9/2002 9:19:00 PM	ROUTINE			265 SCHOONER AVE	STAFFORD	NJ	4/15/2002 11:59:00 PM	OCEAN	ROBERT INGINO	False	229
189273	28507	True	4/11/2002 10:17:15 AM	020992284	NewJersey	NJN	N	1	Detail	4/9/2002 9:19:00 PM	ROUTINE			265 SCHOONER AVE	STAFFORD	NJ	4/15/2002 11:59:00 PM	OCEAN	ROBERT INGINO	False	229
189274	28508	True	4/12/2002 11:08:18 AM	020992285	NewJersey	NJN	M	1	Detail	4/9/2002 9:19:00 PM	ROUTINE			961 WESTMINSTER DR	DOVER	NJ	4/15/2002 11:59:00 PM	OCEAN	BAHR & SONS ELECTRICAL CONTRACTORS	False	226
189275	28509	True	4/10/2002 10:25:18 AM	020992289	NewJersey	NJN	M	2	Detail	4/9/2002 9:42:00 PM	EMERGENCY			12 BRIARCLIFF RD	MOUNTAIN LAKES	NJ	4/12/2002 11:59:00 PM	MORRIS	BILL KLINGENER PLUMBING AND HEATING	False	221
189276	28510	True	4/12/2002 11:00:36 AM	020992291	NewJersey	NJN	M	1	Detail	4/9/2002 10:15:00 PM	ROUTINE			919 GOOSE CREEK RD	DOVER	NJ	4/15/2002 11:59:00 PM	OCEAN	GUZZI MASON CONTRACTORS INC	False	226
189277	28511	True	4/12/2002 10:26:49 AM	020992292	NewJersey	NJN	M	1	Detail	4/9/2002 10:15:00 PM	ROUTINE			1877 ENZING CT	DOVER	NJ	4/15/2002 11:59:00 PM	OCEAN	GUZZI MASON CONTRACTORS INC	False	226
189278	28512	True	4/11/2002 1:58:49 PM	020992294	NewJersey	NJN	M	1	Detail	4/9/2002 10:15:00 PM	ROUTINE			180 CHARLETTEVILLE DR	BERKELEY	NJ	4/15/2002 11:59:00 PM	OCEAN	GUZZI MASON CONTRACTORS INC	False	224
189309	28515	True	4/10/2002 6:11:30 AM	021000008	NewJersey	EG1	N	1	Detail	4/10/2002 2:55:00 AM	EMERGENCY			370 S FRONT ST	ELIZABETH	NJ	4/15/2002 11:59:00 PM	UNION	VERIZON	False	220
189310	28516	True	4/10/2002 7:52:17 AM	021000009	NewJersey	EG3	NC	1	Detail	4/10/2002 5:46:00 AM	EMERGENCY			0 DUCLOS LN	EDISON	NJ	4/15/2002 11:59:00 PM	MIDDLESEX	ELIZABETHTOWN WATER COMPANY	False	220
189311	28517	True	4/10/2002 9:32:39 AM	021000010	NewJersey	NJN	M	1	Detail	4/10/2002 6:05:00 AM	EMERGENCY			118 CHESTNUT WAY	MANALAPAN	NJ	4/15/2002 11:59:00 PM	MONMOUTH	DANELLA INC	False	213
189312	28518	True	4/10/2002 10:21:53 AM	021000016	NewJersey	UW4	M	2	Detail	4/10/2002 6:25:00 AM	EMERGENCY			0 WALKER ST	CLIFFSIDE PARK	NJ	4/15/2002 11:59:00 PM	BERGEN	J FLETCHER CREAMER & SON	False	259
194832	29583	True	4/11/2002 12:16:59 PM	021001099	NewJersey	UW4	M	1	Quick	4/10/2002 1:22:00 PM	ROUTINE			53 S WOODLAND ST	ENGLEWOOD	NJ	4/15/2002 11:59:00 PM	BERGEN	METRO FIRE & SAFETY EQUIP CO INC	False	257
195566	29719	True	4/10/2002 7:28:08 PM	021001326	NewJersey	NJN	M	1	Detail	4/10/2002 2:15:00 PM	EMERGENCY			116 OTIS AVE	TUCKERTON	NJ	4/15/2002 11:59:00 PM	OCEAN	BOROUGH OF TUCKERTON	False	229
195567	29720	True	4/10/2002 3:04:53 PM	021001283	NewJersey	UW4	M	1	Quick	4/10/2002 2:15:00 PM	ROUTINE			4810 - 4814 KENNEDY BLVD	UNION CITY	NJ	4/15/2002 11:59:00 PM	HUDSON	MAZZOCCHI WRECKING INC	False	259
195568	29721	True	4/12/2002 7:32:27 AM	021001284	NewJersey	NJN	M	1	Quick	4/10/2002 2:15:00 PM	ROUTINE			67 OAKMONT LN	JACKSON	NJ	4/15/2002 11:59:00 PM	OCEAN	MR JOHN PEPINO	False	227
195572	29725	True	4/11/2002 9:31:38 AM	021001308	NewJersey	NJN	N	1	Detail	4/10/2002 2:16:00 PM	ROUTINE			0 GARDEN STATE PKWY	MATAWAN BORO	NJ	4/16/2002 11:59:00 PM	MONMOUTH	J. FLETCHER CREAMER & SON, INC.	False	260
195573	29726	True	4/11/2002 10:31:10 AM	021001311	NewJersey	NJN	M	2	Detail	4/10/2002 2:16:00 PM	ROUTINE			29 HIGHLAND AVE	FAIR HAVEN	NJ	4/15/2002 11:59:00 PM	MONMOUTH	CUSTOM LAWNS & IRRIGATION	False	253
195576	29728	True	4/11/2002 11:03:45 AM	021001314	NewJersey	SJG	M	1	Detail	4/10/2002 2:17:00 PM	ROUTINE			42 LAUREL RD E	STRATFORD	NJ	4/15/2002 11:59:00 PM	CAMDEN	HENKELS & MCCOY, INC.	False	238
195579	29730	True	4/10/2002 9:19:12 PM	021001342	NewJersey	AE1	N	1	Detail	4/10/2002 2:17:00 PM	EMERGENCY			0 WHITE HORSE PIKE	LINDENWOLD	NJ	4/15/2002 11:59:00 PM	CAMDEN	HENKELS & MCCOY, INC.	False	238
195580	29730	True	4/10/2002 9:19:12 PM	021001342	NewJersey	SJG	M	1	Detail	4/10/2002 2:17:00 PM	EMERGENCY			0 WHITE HORSE PIKE	LINDENWOLD	NJ	4/15/2002 11:59:00 PM	CAMDEN	HENKELS & MCCOY, INC.	False	238
195581	29731	True	4/12/2002 12:49:50 PM	021001320	NewJersey	NJN	M	1	Detail	4/10/2002 2:18:00 PM	ROUTINE			7 TEABURY LN	OCEAN	NJ	4/15/2002 11:59:00 PM	MONMOUTH	CUSTOM LAWNS & IRRIGATION	False	261
195582	29732	True	4/11/2002 9:51:03 AM	021001324	NewJersey	EG3	M	3	Detail	4/10/2002 2:18:00 PM	ROUTINE			2161 US HWY 1 N	RAHWAY	NJ	4/15/2002 11:59:00 PM	UNION	SANDRO CONSTR INC	False	222
195583	29732	True	4/11/2002 9:51:03 AM	021001324	NewJersey	UW9	M	3	Detail	4/10/2002 2:18:00 PM	ROUTINE			2161 US HWY 1 N	RAHWAY	NJ	4/15/2002 11:59:00 PM	UNION	SANDRO CONSTR INC	False	222
195588	29735	True	4/12/2002 11:54:48 AM	021001330	NewJersey	NJN	M	1	Detail	4/10/2002 2:19:00 PM	ROUTINE			12 DWIGHT DR	OCEAN	NJ	4/16/2002 11:59:00 PM	MONMOUTH	CUSTOM LAWNS & IRRIGATION	False	261
195590	29737	True	4/12/2002 2:26:53 PM	021001337	NewJersey	NJN	M	2	Detail	4/10/2002 2:19:00 PM	ROUTINE			6 - 8 MORNING GLORY	OCEAN	NJ	4/15/2002 11:59:00 PM	MONMOUTH	WATERS & BUGBEE, INC.	False	213
195591	29738	True	4/12/2002 7:31:59 AM	021001338	NewJersey	NJN	M	1	Quick	4/10/2002 2:19:00 PM	ROUTINE			71 OAKMONT LN	JACKSON	NJ	4/15/2002 11:59:00 PM	OCEAN	MR JOHN PEPINO	False	227
199482	30757	True	4/11/2002 3:10:30 PM	021010281	NewJersey	NJN	N	1	Detail	4/11/2002 8:50:00 AM	ROUTINE			54 WATERMAN AVE	RUMSON	NJ	4/16/2002 11:59:00 PM	MONMOUTH	INFOCUS PROPS. INC.	False	253
199483	30758	True	4/11/2002 9:29:16 AM	021010284	NewJersey	UW5	N	1	Quick	4/11/2002 8:50:00 AM	UPDATE			1 NEWARK POMPTON TPKE	LITTLE FALLS	NJ	4/16/2002 11:59:00 PM	PASSAIC	BRANVALL CONSTRUCTION	False	259
199484	30759	True	4/12/2002 2:38:20 PM	021010292	NewJersey	AE1	M	1	Detail	4/11/2002 8:50:00 AM	ROUTINE			101B LONG BEACH BLVD	LONG BEACH	NJ	4/16/2002 11:59:00 PM	OCEAN	GPS PLUMBING	False	251
199485	30759	True	4/12/2002 2:38:20 PM	021010292	NewJersey	NJN	M	1	Detail	4/11/2002 8:50:00 AM	ROUTINE			101B LONG BEACH BLVD	LONG BEACH	NJ	4/16/2002 11:59:00 PM	OCEAN	GPS PLUMBING	False	251
200540	30962	True	4/11/2002 11:52:08 AM	021010550	NewJersey	UW5	N	1	Detail	4/11/2002 10:11:00 AM	ROUTINE			726 SECOND AVE	LYNDHURST	NJ	4/16/2002 11:59:00 PM	BERGEN	LYNDHURST WATER COMPANY	False	259
200545	30965	True	4/11/2002 11:52:53 AM	021010554	NewJersey	UW5	N	1	Detail	4/11/2002 10:11:00 AM	ROUTINE			640 SECOND AVE	LYNDHURST	NJ	4/16/2002 11:59:00 PM	BERGEN	LYNDHURST WATER COMPANY	False	259
200550	30968	True	4/11/2002 11:54:00 AM	021010557	NewJersey	UW5	N	1	Detail	4/11/2002 10:12:00 AM	ROUTINE			616 SECOND AVE	LYNDHURST	NJ	4/16/2002 11:59:00 PM	BERGEN	LYNDHURST WATER COMPANY	False	259
200551	30969	True	4/12/2002 2:57:03 PM	021010563	NewJersey	AE1	N	1	Detail	4/11/2002 10:12:00 AM	ROUTINE			61 HEARTHSTONE LN	EVESHAM	NJ	4/16/2002 11:59:00 PM	BURLINGTON	AMERICAN DISCOUNT FENCE	False	270
200552	30969	True	4/12/2002 2:57:03 PM	021010563	NewJersey	SJG	N	1	Detail	4/11/2002 10:12:00 AM	ROUTINE			61 HEARTHSTONE LN	EVESHAM	NJ	4/16/2002 11:59:00 PM	BURLINGTON	AMERICAN DISCOUNT FENCE	False	270
200558	30973	True	4/11/2002 5:54:03 PM	021010577	NewJersey	CCI	M	1	Quick	4/11/2002 10:13:00 AM	EMERGENCY			910 N INDIANA AVE	ATLANTIC CITY	NJ	4/16/2002 11:59:00 PM	ATLANTIC	ATLANTIC CITY M.U.A	False	236
200559	30973	True	4/11/2002 5:54:03 PM	021010577	NewJersey	SJG	M	1	Quick	4/11/2002 10:13:00 AM	EMERGENCY			910 N INDIANA AVE	ATLANTIC CITY	NJ	4/16/2002 11:59:00 PM	ATLANTIC	ATLANTIC CITY M.U.A	False	236
200560	30974	True	4/11/2002 2:55:47 PM	021010571	NewJersey	NJN	M	2	Detail	4/11/2002 10:13:00 AM	ROUTINE			14 SHERATON LN	RUMSON	NJ	4/16/2002 11:59:00 PM	MONMOUTH	GRANT ELECTRIC INC.	False	253
200562	30976	True	4/11/2002 11:54:14 AM	021010573	NewJersey	UW5	N	1	Detail	4/11/2002 10:14:00 AM	ROUTINE			631 MILTON AVE	LYNDHURST	NJ	4/16/2002 11:59:00 PM	BERGEN	LYNDHURST WATER COMPANY	False	259
207249	32552	True	4/12/2002 2:56:24 PM	021020242	NewJersey	NJN	M	3	Detail	4/12/2002 9:06:00 AM	ROUTINE			0 BRACKEN CT	HOWELL	NJ	4/17/2002 11:59:00 PM	MONMOUTH	GPU ENERGY	False	226
207250	32553	True	4/12/2002 3:43:03 PM	021020243	NewJersey	AE1	N	1	Detail	4/12/2002 9:07:00 AM	ROUTINE			2059 BLACK HORSE PIKE	MONROE	NJ	4/17/2002 11:59:00 PM	GLOUCESTER	DAVID GREEN INC	False	292
207251	32553	True	4/12/2002 3:43:03 PM	021020243	NewJersey	SJG	M	1	Detail	4/12/2002 9:07:00 AM	ROUTINE			2059 BLACK HORSE PIKE	MONROE	NJ	4/17/2002 11:59:00 PM	GLOUCESTER	DAVID GREEN INC	False	292
207366	32566	True	4/12/2002 12:23:19 PM	021020262	NewJersey	UW4	M	2	Detail	4/12/2002 9:17:00 AM	EMERGENCY			319 HOWLAND AVE	ENGLEWOOD	NJ	4/17/2002 11:59:00 PM	BERGEN	PSE&G	False	257
207380	32576	True	4/12/2002 10:41:59 AM	021020266	NewJersey	UW5	N	1	Detail	4/12/2002 9:19:00 AM	ROUTINE			40 PIER LN W	FAIRFIELD	NJ	4/17/2002 11:59:00 PM	ESSEX	TECHNOLOGY STANDARD ASSOC.	False	254
207384	32579	True	4/12/2002 9:56:02 AM	021020270	NewJersey	NJN	NC	1	Detail	4/12/2002 9:19:00 AM	UPDATE			0 REMSEN MILL RD	WALL	NJ	4/17/2002 11:59:00 PM	MONMOUTH	LUCAS BROTHERS	False	225
207440	32586	True	4/12/2002 10:27:21 AM	021020286	NewJersey	NJN	N	1	Detail	4/12/2002 9:28:00 AM	EMERGENCY			62 BELINDA CT	BRICK	NJ	4/17/2002 11:59:00 PM	OCEAN	BRICK UTILITIES	False	225
207750	32623	True	4/12/2002 10:04:08 AM	021020303	NewJersey	NJN	M	3	Detail	4/12/2002 9:42:00 AM	ROUTINE			3 SOUTHWIND DR	MOUNT OLIVE	NJ	4/17/2002 11:59:00 PM	MORRIS	GPU ENERGY	False	219
