WGL904 00055 VUPSa 04/07/08 08:10:50 B808801291-01A 3 HOUR

Ticket No: B808801291-01A 3HRS GRID RUSH LREQ
Transmit Date: 04/07/08 Time: 08:10 AM Op: 1RDR
Call Date: 04/07/08 Time: 08:10 AM
Due By Date: 04/07/08 Time: 11:10 AM
Update By Date: 04/16/08 Time: 11:59 PM
Expires Date: 04/21/08 Time: 07:00 AM
Old Tkt No: B808801291
Original Call Date: 03/28/08 Time: 12:50 PM Op: WLSCHUERHOLZ

City/Co:FAIRFAX Place: State:VA
Address: 2043-2061 Street: WINGED FOOT COURT
Cross 1: GLENCOURSE LANE
Cross 2: SOAPSTONE DRIVE

Type of Work: VZN: FTTP ?WORK ORDER NUMBER
Work Done For: VERIZON FTTP
Excavation area:LOCATE UTILITIES/SERVICES EASEMENTS OF ENTIRE PROPERTY OF 2043
                WINGED FOOT COURT AND REAR UTILITIES/SERVICES EASEMENTS FROM
                2045 WINGED FOOT COURT THROUGH 2061 WINGED FOOT COURT, GO SE AND
                CROSS GLENCOURSE LANE TO NE CORNER OF 2101 GLENCOURSE LANE,
                CONTINUE TO SOAPSTONE DRIVE, GOING SOUTH AND CROSS SOAPSTONE
                DRIVE TO MH6817 AT THE INTERSECTION OF RIDGE HEIGHTS ROAD AND
                SOAPSTONE DRIVE.
Instructions: 3 HOUR NOTICE - THE CALLER DISPUTES THE RESPONSE POSTED BY THESE
                UTILITIES: CODE 60 FOR DVP, VERIZON, WASH GAS. CALLER STATES
                AGREEMENT WAS MADE AND STILL NO MARKINGS. CREW IS ON SITE
                CALLER MAP REF: NONE
                VZN: FTTP WORK ORDER NUMBER 8A06929/74096/5845C/INSTALLING
                CONDUIT/MARK USING PAINT AND FLAGS!
                PRINT FOOTAGE 699'

Whitelined: N Blasting: N Boring: Y

Company: IVY H SMITH LLC Type: CONT
Co. Address: 13876 PARK CENTER RD First Time: N
City: HERNDON State:VA Zip:20171
Company Phone: 703-796-1740
Contact Name: LORELEI SCHUERHOLZ Contact Phone:703-796-1740
Email: lschuerholz@ivysmith.com
Field Contact: BILLY REED
Fld. Contact Phone:571-274-2984

Mapbook: 6C6
Grids: 3856C7720A-13 3856C7720A-14 3856C7720A-24 3856C7720A-34
Grids: 3856C7720B-20 3856C7720B-30 3856C7720B-31

Members:
DOM400 = DOMINION VIRGINIA POWER (DOM) VZN906 = VERIZON (VZN)
WGL904 = WASHINGTON GAS (WGL)

Seq No: 55 A

