<?xml version="1.0" standalone="no"?>
<!DOCTYPE svg PUBLIC "-//W3C//DTD SVG 1.1//EN" "http://www.w3.org/Graphics/SVG/1.1/DTD/svg11.dtd" >
<svg xmlns="http://www.w3.org/2000/svg">
<metadata>Generated by IcoMoon</metadata>
<defs>
<font id="icomoon" horiz-adv-x="512">
<font-face units-per-em="512" ascent="480" descent="-32" />
<missing-glyph horiz-adv-x="512" />
<glyph unicode="&#x20;" d="" horiz-adv-x="256" />
<glyph unicode="&#xe600;" d="M1.768 430.664c22.83 0 44.416 0 67.317 0 0-22.080 0-43.545 0-65.009s0-42.928 0-66.234c4.814 2.723 8.090 4.653 11.431 6.455 111.78 60.311 224.046 61.043 335.447 0.212 19.692-10.753 37.626-27.526 52.17-45.191 40.034-48.627 38.304-109.872-2.281-157.94-33.143-39.254-76.414-61.171-124.414-73.541-81.931-21.114-162.196-16.276-239.536 20.354-30.907 14.639-57.791 35.118-77.945 63.964-14.47 20.712-22.764 43.767-22.834 69.365-0.219 79.833-0.085 159.667-0.051 239.501 0.001 2.386 0.401 4.773 0.696 8.066zM250.701 54.817c3.999 0.293 9.516 0.68 15.030 1.105 43.611 3.356 83.654 16.512 117.584 46.013 51.327 44.63 53 111.51 3.647 158.349-34.726 32.957-77.219 46.919-123.308 49.708-52.88 3.2-102.259-8.401-144.798-42.687-57.877-46.647-58.279-120.361-1.159-167.933 38.313-31.909 83.403-43.029 133.005-44.555zM365.275 191.132c0-5.931 0-11.862 0-17.793-0.23-1.783-0.472-3.563-0.688-5.348-2.239-18.517-8.608-35.514-19.079-50.918-10.004-14.718-22.726-26.589-38.159-35.519-11.491-6.649-23.744-11.23-36.814-13.558-4.112-0.733-8.269-1.209-12.406-1.803-5.931 0-11.862 0-17.793 0-1.782 0.23-3.563 0.471-5.346 0.688-18.513 2.248-35.516 8.608-50.919 19.078-14.718 10.005-26.59 22.726-35.517 38.161-6.646 11.491-11.25 23.736-13.56 36.813-0.727 4.113-1.209 8.27-1.803 12.407 0 5.931 0 11.862 0 17.793 0.102 0.502 0.23 1 0.303 1.505 0.634 4.394 1.012 8.841 1.925 13.175 5.428 25.767 18.106 47.314 38.040 64.541 15.434 13.338 33.173 22.050 53.167 26.077 4.784 0.964 9.654 1.5 14.484 2.233 5.416 0 10.831 0 16.246 0 0.63-0.104 1.259-0.215 1.89-0.313 5.846-0.904 11.782-1.426 17.518-2.792 9.541-2.271 18.661-5.776 27.32-10.503 10.142-5.536 19.361-12.264 27.397-20.539 6.197-6.382 11.827-13.244 16.504-20.862 7.598-12.375 12.908-25.624 15.46-39.934 0.744-4.173 1.228-8.392 1.831-12.589zM194.136 157.916c0.133 0.070 0.267 0.14 0.4 0.21-0.163 0.594-0.357 1.181-0.486 1.782-0.496 2.33-1.037 4.654-1.4 7.005-0.077 0.5 0.487 1.539 0.817 1.567 0.596 0.049 1.378-0.346 1.822-0.806 0.407-0.422 0.547-1.159 0.674-1.784 0.894-4.392 2.565-8.474 4.574-12.473 0.775-1.544 1.156-3.471 1.101-5.204-0.080-2.529 0.467-3.884 2.63-5.188 1.909-1.151 3.789-2.411 5.465-3.872 2.266-1.974 4.652-3.558 7.553-4.495 3.612-1.168 7.206-2.463 10.658-4.032 4.165-1.893 7.85-4.437 9.405-9.135 0.245-0.74 0.805-1.682 1.452-1.933 3.13-1.216 6.088-3.152 9.763-2.341 1.142 0.252 2.444-0.014 3.626-0.262 0.43-0.091 1.012-0.809 1.030-1.26 0.061-1.539 0.008-3.101-0.2-4.627-0.298-2.182-0.97-4.15-3.555-4.688-2.216-0.462-2.873-2.346-3.157-4.182-0.298-1.928-0.554-4.003 1.687-5.284 5.261-3.007 9.674-7.009 13.499-11.693 0.337-0.413 0.94-0.673 1.47-0.853 2.238-0.759 2.906-2.045 2.17-4.356-0.156-0.49-0.401-0.954-0.548-1.446-0.521-1.745-0.017-2.388 1.731-1.972 6.199 1.475 12.502 2.654 18.541 4.63 11.84 3.875 22.698 9.758 32.623 17.334 1.964 1.5 4.129 2.74 3.768 5.743-0.048 0.404 0.196 0.888 0.414 1.272 1.771 3.119 3.507 6.26 5.378 9.318 1.123 1.835 1.098 2.586-0.88 3.385-0.79 0.319-1.871 0.166-2.756-0.043-4-0.944-8.012-1.869-11.952-3.027-3.2-0.94-5.365 0.281-7.005 2.824-1.19 1.846-2.764 2.449-4.906 2.3-5.438-0.377-10.645 0.57-15.548 3.048-0.606 0.307-1.37 0.524-2.031 0.461-3.963-0.375-7.917-0.84-11.873-1.288-0.315-0.036-0.663-0.103-0.92-0.27-1.529-0.998-3.083-0.803-4.596-0.055-2.488 1.23-4.627 0.515-6.617-1.083-1.003-0.805-1.88-1.784-2.939-2.498-0.745-0.502-1.702-0.965-2.563-0.962-1.596 0.005-3.198 0.324-4.785 0.585-4.332 0.712-6.076 3.425-4.946 7.632 0.636 2.37 0.142 3.63-2.179 4.365-1.688 0.534-3.516 0.738-5.296 0.838-2.751 0.156-3.468 1.3-2.359 3.901 0.472 1.109 0.788 2.31 0.995 3.5 0.315 1.803-0.895 2.958-2.612 2.375-1.022-0.347-2.053-1.057-2.75-1.882-1.085-1.281-2.352-1.819-3.909-1.546-4.487 0.789-7.733 4.608-7.649 9.116 0.129 6.935 4.986 11.495 11.484 9.849 2.21-0.56 4.167-1.084 6.293 0.097 0.553 0.308 1.387 0.198 2.083 0.146 3.816-0.283 6.681-1.965 8.474-5.493 0.478-0.941 1.644-1.532 2.494-2.284-0.050 1.193 0.287 2.596-0.224 3.539-1.584 2.921-0.952 5.616 0.741 7.986 1.192 1.669 2.972 2.986 4.672 4.207 2.032 1.461 2.827 3.252 3.278 5.738 0.498 2.757 1.553 5.744 3.308 7.846 1.643 1.969 2.952 4.106 4.459 6.131 1.013 1.361 2.192 2.386 4.101 1.534 0.324-0.144 0.897-0.017 1.227 0.19 1.574 0.986 3.133 2 4.63 3.096 0.505 0.37 0.81 1.012 1.205 1.529-0.672 0.174-1.361 0.541-2.013 0.483-1.637-0.144-2.91 0.014-3.432 1.92-0.384 1.403-1.436 1.269-2.46 0.658-0.826-0.493-1.565-1.169-2.438-1.536-0.531-0.223-1.243-0.014-1.873 0 0.12 0.651 0.027 1.497 0.406 1.915 0.848 0.938 1.816 1.921 2.942 2.425 2.272 1.019 4.706 1.673 7.029 2.589 2.144 0.846 2.782 2.283 1.745 4.286-0.788 1.522-1.724 3.104-2.986 4.217-2.848 2.514-5.447 5.546-9.767 5.68-1.001 0.031-2.059 0.622-2.952 1.178-1.492 0.928-2.776 2.231-4.332 3.005-1.173 0.583-2.636 0.585-3.969 0.846-0.167-1.418-0.53-2.845-0.459-4.25 0.173-3.395 2.053-6.676 0.252-10.219-0.666-1.31-0.523-3.024-0.8-4.545-0.084-0.464-0.339-0.896-0.605-1.565-2.49 1.526-4.474 3.405-4.72 6.017-0.233 2.476-1.613 3.115-3.45 3.678-0.738 0.227-1.499 0.383-2.246 0.58-2.364 0.622-3.292 1.993-3.464 4.45-0.25 3.596 1.286 6.412 3.7 8.784 2.245 2.206 4.749 4.149 7.030 6.321 0.545 0.519 1.063 1.603 0.885 2.226-0.318 1.119-1.38 0.964-2.43 0.688-2.487-0.653-4.119 0.494-4.534 2.975-0.167 0.999-0.418 1.984-0.631 2.976-0.218-0.008-0.435-0.018-0.654-0.026-0.218-0.895-0.214-1.946-0.709-2.646-0.643-0.91-1.615-2.035-2.567-2.163-1.188-0.16-1.639 1.156-1.674 2.373-0.024 0.834-0.203 1.663-0.252 2.498-0.115 1.975-0.671 3.609-2.649 4.569-0.683 0.331-1.167 1.16-1.629 1.838-1.262 1.852-3.624 1.75-4.692 0.066 0.738-1.455 1.343-2.758 2.054-4 0.375-0.653 0.865-1.279 1.428-1.777 1.665-1.473 1.84-2.375 0.612-4.601-0.484 0.26-1.028 0.455-1.456 0.796-3.53 2.805-7.090 5.577-10.538 8.481-2.659 2.239-4.905 4.778-4.628 8.656 0.048 0.681-0.268 1.386-0.393 2.083-0.33 1.86-1.449 2.613-3.296 2.434-2.215-0.214-4.448-0.304-6.644-0.638-0.612-0.093-1.419-0.758-1.62-1.34-0.694-2.003-1.79-2.727-3.949-2.198-2.149 0.527-3.585-0.296-4.597-2.266-0.499-0.97-0.941-1.988-1.252-3.031-0.467-1.565-1.388-2.061-2.916-1.559-0.44 0.144-0.901 0.221-1.352 0.329-0.054-0.155-0.108-0.309-0.162-0.463 2.313-0.905 4.642-1.77 6.935-2.721 4.392-1.822 5.921-2.799 5.863-8.353-0.041-3.91-1.149-7.859-2.149-11.696-1.124-4.313-1.587-8.578-0.884-12.995 0.132-0.832-0.149-1.976-0.673-2.63-3.907-4.887-6.635-10.26-7.194-16.575-0.311-3.519-1.314-7.211-0.619-10.536 1.326-6.341 3.625-12.481 5.577-18.687 0.205-0.651 0.789-1.184 1.197-1.772zM331.915 242.988c0.735 0.563 0.999 0.909 1.329 0.992 1.163 0.292 2.38 0.395 3.514 0.763 0.736 0.238 1.505 0.7 1.969 1.289 0.195 0.247-0.195 1.383-0.599 1.606-2.939 1.613-3.005 4.32-3.108 7.17-0.104 2.877-1.048 5.539-3.089 7.685-4.983 5.242-10.325 10.066-16.286 14.192-9.267 6.415-19.099 11.694-29.836 15.237-11.592 3.825-23.488 5.783-35.683 5.908-11.359 0.117-22.465-1.623-33.338-4.842-3.471-1.028-6.862-2.327-10.462-3.561 3.988-3.582 3.457-6.795-1.124-8.806-0.118-0.052-0.231-0.118-0.352-0.158-1.752-0.586-2.63-1.548-2.155-3.611 0.393-1.71-1.427-4.23-2.672-4.951-1.678-0.971-3.174-2.269-4.685-3.503-0.254-0.207-0.397-0.931-0.233-1.202 0.892-1.489 1.403-3.351 3.766-3.356 1.587-0.003 2.182-1.255 1.502-2.714-0.336-0.721-0.764-1.399-1.151-2.097 0.117-0.128 0.234-0.256 0.351-0.384 0.826 0.405 1.801 0.648 2.449 1.245 2.22 2.046 4.213 4.351 6.516 6.291 1.382 1.165 2.299 2.329 2.347 4.151 0.036 1.378 0.784 2.048 2.186 2.183 1.339 0.129 2.694 0.348 3.97 0.751 0.511 0.161 1.243 1 1.169 1.401-0.424 2.326 1.188 2.743 2.77 3.152 0.992 0.257 2.111 0.127 3.034 0.508 0.867 0.357 2.084 1.061 2.21 1.779 0.321 1.822 1.44 2.294 2.921 2.524 1.46 0.228 2.941 0.346 4.387 0.639 1.032 0.209 2.001 0.742 3.035 0.93 1.547 0.28 3.137 0.572 4.684 0.468 0.59-0.039 1.095-1.168 1.667-1.774 0.258-0.273 0.549-0.579 0.887-0.703 3.563-1.302 7.258-1.76 10.714-0.058 3.221 1.587 6.395 1.444 9.557 0.497 2.149-0.644 3.783-0.337 5.248 1.21 1.18 1.246 2.355 1.403 3.711 0.287 3.66-3.013 8.234-4.755 11.449-8.451 0.942-1.084 2.728-1.436 2.175-3.999 1.329 0.524 2.173 0.993 3.077 1.175 0.804 0.163 1.958 0.339 2.443-0.082 0.674-0.586 0.995-1.701 1.17-2.644 0.039-0.211-1.13-0.741-1.798-0.96-0.726-0.239-1.574-0.15-2.265-0.446-1.192-0.51-2.304-1.207-3.45-1.826 0.853-1.144 1.511-2.55 2.607-3.372 1.579-1.183 3.428-2.054 5.25-2.857 3.119-1.374 5.534-3.361 7.108-6.477 1.209-2.393 3.738-2.986 6.118-3.601 0.307-0.079 0.842 0.069 1.033 0.304 0.873 1.081 1.66 2.23 2.507 3.393-2.683 2.019-5.959 4.483-9.346 7.032 0.22 0.232 0.674 0.595 0.969 1.059 0.236 0.371 0.349 0.859 0.39 1.307 0.061 0.675 0.012 1.36 0.009 2.041 0.824-0.062 1.729 0.076 2.454-0.224 1.658-0.686 3.302-1.471 4.805-2.442 0.883-0.57 1.649-1.482 2.176-2.406 0.85-1.486 1.257-3.251 2.219-4.643 1.437-2.081 2.288-4.251 2.539-6.765 0.238-2.383 1.012-4.374 3.135-6.082 2.219-1.784 3.694-4.516 3.704-7.581 0.014-4.705-0.089-4.823 4.463-5.817 2.080-0.454 2.91-1.573 2.702-3.459-0.094-0.856-0.707-1.72-1.262-2.447-1.152-1.512-1.048-3.154 0.18-4.508 0.729-0.803 1.019-2.012 1.768-2.787 1.019-1.053 2.185-2.108 3.498-2.659 0.495-0.207 1.94 0.817 2.32 1.591 0.812 1.656 1.252 3.503 1.745 5.3 0.089 0.327-0.226 0.836-0.474 1.175-2.492 3.421-5.212 6.721-5.092 11.334 0.015 0.606-0.353 1.229-0.573 1.833-1.341 3.673-1.241 3.841 2.466 4.432 0.395 0.063 0.75 0.374 1.124 0.569-0.277 0.378-0.476 0.895-0.848 1.107-1.038 0.589-2.149 1.052-3.611 1.744zM342.764 249.138c-0.221-0.107-0.442-0.215-0.662-0.322 0.175-0.861 0.454-1.717 0.497-2.584 0.039-0.796 0.118-1.877-0.33-2.357-1.358-1.456-0.724-2.502 0.361-3.579 1.673-1.66 2.171-3.727 2.177-5.991 0.003-1.17-0.337-1.913-1.704-1.584-1.679 0.405-2.426-0.349-2.478-1.984-0.13-4.043-0.227-8.088-0.429-12.128-0.053-1.050-0.261-2.17-0.714-3.104-0.914-1.889-1.368-3.71-0.452-5.729 0.584-1.288 1.159-2.603 1.52-3.963 0.503-1.896 1.021-3.831 1.147-5.774 0.283-4.36-0.031-8.784 0.554-13.094 0.873-6.435 3-12.487 7.491-17.457 2.255-2.496 4.858-2.272 6.714 0.414 1.214 1.757 2.829 3.235 4.178 4.906 0.409 0.507 0.694 1.229 0.762 1.881 0.933 9.002 0.695 18.002-0.675 26.928-1.971 12.837-6.027 25.017-12.381 36.376-1.741 3.113-3.711 6.101-5.575 9.145zM253.002 249.101c0.305-0.709 0.639-1.26 0.781-1.856 0.57-2.392 2.339-3.782 4.195-5.077 2.312-1.613 4.726-3.081 7-4.744 2.519-1.844 4.389-4.125 4.284-7.524-0.050-1.597 0.526-2.853 2.168-3.49 0.408-0.158 0.76-0.695 0.952-1.137 1.971-4.572 8.050-5.759 11.983-2.222-0.613 0.289-1.218 0.509-1.755 0.839-1.587 0.977-2.518 2.353-2.408 4.291 0.106 1.862 0.18 3.727 0.354 5.583 0.236 2.505-0.027 5.131 2.407 6.981 1.033 0.785 0.947 3.621-0.015 4.474-3.389 3.005-6.352 6.615-11.118 7.702-1.344 0.306-2.646 1.014-3.83 1.757-4.526 2.842-8.834 2.436-12.698-1.307-1.284-1.244-2.316-1.024-3.762 0.005-0.755 0.537-2.152 0.511-3.144 0.269-0.847-0.206-1.903-0.935-2.208-1.696-0.574-1.434-0.727-3.050-0.943-4.607-0.088-0.635-0.117-1.51 0.238-1.928 0.951-1.119 2.124-2.049 3.35-3.186 1.556 2.482 1.099 5.543 4.169 6.875zM251.281 222.091c2.863-0.957 5.259-1.832 7.702-2.541 1.255-0.365 2.254 0.074 2.635 1.522 0.192 0.73 0.702 1.378 0.88 2.109 0.188 0.774 0.486 1.809 0.143 2.362-0.603 0.974-1.617 1.719-2.536 2.464-1.031 0.838-2.745 1.356-3.116 2.389-1.146 3.192-3.844 4.315-6.44 5.639-1.536 0.784-3.131 1.541-4.789 1.951-0.715 0.177-1.776-0.407-2.428-0.949-0.233-0.194 0.131-1.367 0.472-1.946 1.532-2.598 4.373-2.952 6.888-3.832 1.979-0.692 3.070-2.194 3.25-4.276 0.181-2.095-0.426-3.754-2.661-4.893zM312.411 238.26c0.598-0.143 1.108-0.188 1.55-0.387 1.522-0.684 3.012-1.439 4.53-2.132 1.161-0.53 1.757-0.249 1.866 1.154 0.125 1.604-0.327 2.625-1.863 3.368-3.328 1.609-6.563 3.411-9.856 5.097-0.277 0.142-0.69 0.019-1.087 0.019 0-0.402-0.079-0.685 0.012-0.893 1.271-2.925 2.455-5.897 3.902-8.733 0.658-1.288 1.728-2.478 3.572-2.613-0.343 2.051-3.466 2.341-2.627 5.119zM295.464 241.615c-0.35 1.593-1.853 2.886-3.163 2.373-1.077-0.423-2.007-1.276-2.931-2.025-1.93-1.563-1.435-4.969 0.882-5.876 0.495-0.194 1.481-0.153 1.712 0.166 1.258 1.721 2.35 3.563 3.499 5.363zM284.582 194.657c-2.353 2.039-4.706 4.079-7.142 6.191-1.063-3.538 3.005-7.382 7.142-6.191zM243.137 141.856c4.2-0.527 7.663-2.615 11.119-4.839 1.249-0.804 2.801-0.558 4.494 1.151-5.394 1.668-10.528 2.543-15.613 3.688zM261.154 136.297c1.478-1.671 4.137-2.135 6.808-1.19-1.781 2.839-4.123 3.248-6.808 1.19zM312.411 238.26c-0.839-2.778 2.284-3.068 2.627-5.119-1.844 0.135-2.914 1.324-3.572 2.613-1.447 2.837-2.632 5.808-3.902 8.733-0.091 0.208-0.012 0.49-0.012 0.893 0.398 0 0.811 0.123 1.087-0.019 3.291-1.688 6.527-3.488 9.856-5.097 1.535-0.743 1.987-1.764 1.863-3.368-0.108-1.403-0.704-1.685-1.866-1.154-1.518 0.693-3.008 1.448-4.53 2.132-0.442 0.198-0.952 0.243-1.55 0.387zM295.464 241.615c-1.149-1.8-2.241-3.642-3.499-5.363-0.233-0.318-1.217-0.359-1.712-0.166-2.317 0.907-2.812 4.313-0.882 5.876 0.925 0.749 1.853 1.602 2.931 2.025 1.31 0.513 2.813-0.78 3.163-2.373zM284.582 194.657c-4.137-1.192-8.206 2.653-7.142 6.191 2.437-2.112 4.789-4.151 7.142-6.191zM243.137 141.856c5.085-1.146 10.219-2.021 15.613-3.688-1.693-1.709-3.245-1.954-4.494-1.151-3.456 2.224-6.919 4.312-11.119 4.839zM261.154 136.297c2.685 2.060 5.027 1.65 6.808-1.19-2.672-0.945-5.33-0.481-6.808 1.19z" />
<glyph unicode="&#xe601;" d="M267.027 181.054c-17.189 20.649-21.749 41.31-14.316 64.844-12.164 0.617-22.664 0.234-32.856 1.824-46.749 7.292-78.953 32.323-91.683 78.909-11.436 41.851 6.98 90.289 43.695 118.413 24.439 18.72 52.588 27.935 82.645 31.59 12.427 1.511 25.104 1.241 37.67 1.284 41.845 0.139 83.69 0.053 126.428 0.053-10.798-16.3-33.186-24.794-71.53-27.627 4.030-4.43 7.313-8.124 10.685-11.734 42.486-45.476 40.731-108.769-4.382-151.525-8.735-8.278-18.589-15.422-26.955-24.033-17.308-17.812-16.163-35.315 2.789-51.236 14.437-12.127 29.298-23.753 43.664-35.962 57.719-49.051 44.179-124.001-7.262-164.3-27.151-21.27-58.378-32.697-92.259-36.748-39.358-4.707-78.469-4.346-116.141 10.409-25.173 9.861-46.094 24.933-58.046 50.050-14.848 31.204-7.337 67.878 19.541 95.158 28.308 28.731 64.807 39.276 103.139 45.228 13.797 2.142 27.739 3.351 45.17 5.406zM267.577-0.378c19.539 5.070 40.238 7.562 58.382 15.73 41.586 18.723 50.661 67.49 19.018 100.317-14.387 14.926-32.12 26.661-48.611 39.49-2.663 2.072-6.743 3.139-10.207 3.237-31.138 0.884-61.68-2.38-90.464-15.283-25.355-11.365-41.915-30.092-42.839-58.709-0.91-28.171 13.251-48.77 37.072-62.968 23.669-14.108 49.868-18.026 77.65-21.815zM186.192 384.053c0.026-38.542 15.996-78.817 39.442-99.469 35.072-30.892 91.976-14.815 99.106 29.899 7.276 45.628-5.078 87.555-37.907 121.351-14.111 14.526-32.234 21.157-53.114 16.28-31.835-7.437-47.552-29.91-47.526-68.061zM315.022 105.969c-3.565 2.887-3.576 6.622-4.448 9.897 1.024 0.495 1.877 0.908 2.729 1.32-0.6 0.642-1.2 1.286-1.935 2.072 0.241 0.11 0.483 0.221 0.726 0.329 0.873 0.391 1.747 0.781 2.62 1.171-0.5 0.719-1.154 1.379-1.464 2.173-0.499 1.276-0.771 2.641-1.245 4.351 3.76-2.014 5.144-6.186 3.346-8.431 0.892-1.754 1.757-3.457 2.894-5.694-2.718 0.344-3.402-0.632-3.248-2.501 0.114-1.385 0.022-2.788 0.022-4.688zM332.225 85.95c0-3.71 0-7.42 0-11.13-0.144-1.115-0.296-2.229-0.43-3.345-1.401-11.583-5.385-22.215-11.935-31.851-6.258-9.207-14.216-16.632-23.87-22.218-7.188-4.159-14.853-7.025-23.028-8.481-2.572-0.458-5.173-0.757-7.76-1.128-3.71 0-7.42 0-11.13 0-1.114 0.144-2.228 0.295-3.345 0.43-11.581 1.406-22.216 5.385-31.852 11.934-9.207 6.258-16.632 14.216-22.217 23.87-4.157 7.188-7.037 14.848-8.482 23.027-0.454 2.573-0.756 5.173-1.128 7.761 0 3.71 0 7.42 0 11.13 0.064 0.313 0.144 0.625 0.19 0.942 0.397 2.748 0.633 5.53 1.204 8.241 3.395 16.118 11.326 29.596 23.795 40.373 9.654 8.344 20.751 13.793 33.257 16.312 2.993 0.603 6.039 0.938 9.060 1.397 3.387 0 6.775 0 10.163 0 0.394-0.065 0.788-0.135 1.183-0.196 3.657-0.565 7.37-0.892 10.958-1.747 5.968-1.421 11.673-3.613 17.089-6.57 6.344-3.463 12.111-7.671 17.137-12.848 3.877-3.992 7.398-8.284 10.324-13.050 4.753-7.741 8.074-16.029 9.671-24.98 0.466-2.61 0.768-5.249 1.145-7.875zM225.173 65.173c0.083 0.044 0.167 0.087 0.25 0.132-0.102 0.372-0.224 0.738-0.304 1.115-0.31 1.457-0.649 2.911-0.876 4.382-0.048 0.313 0.304 0.962 0.512 0.98 0.373 0.031 0.862-0.216 1.14-0.505 0.255-0.264 0.342-0.726 0.422-1.116 0.56-2.748 1.605-5.3 2.861-7.802 0.485-0.966 0.723-2.171 0.689-3.255-0.050-1.582 0.292-2.43 1.645-3.245 1.194-0.72 2.37-1.509 3.419-2.422 1.417-1.235 2.91-2.226 4.725-2.812 2.26-0.731 4.507-1.541 6.667-2.522 2.605-1.184 4.91-2.776 5.883-5.714 0.154-0.463 0.504-1.052 0.908-1.209 1.958-0.76 3.808-1.971 6.108-1.464 0.714 0.158 1.529-0.009 2.269-0.164 0.269-0.057 0.634-0.506 0.644-0.788 0.038-0.962 0.005-1.94-0.125-2.894-0.186-1.365-0.606-2.596-2.224-2.933-1.387-0.288-1.797-1.467-1.975-2.616-0.187-1.206-0.346-2.504 1.055-3.305 3.291-1.88 6.052-4.385 8.443-7.315 0.211-0.258 0.587-0.421 0.92-0.534 1.399-0.474 1.817-1.279 1.358-2.725-0.098-0.307-0.25-0.596-0.342-0.904-0.325-1.091-0.011-1.493 1.082-1.233 3.877 0.923 7.82 1.66 11.598 2.897 7.406 2.424 14.198 6.104 20.406 10.843 1.229 0.938 2.583 1.714 2.357 3.593-0.031 0.253 0.123 0.555 0.259 0.796 1.108 1.951 2.194 3.916 3.364 5.829 0.702 1.148 0.687 1.618-0.551 2.117-0.494 0.2-1.171 0.103-1.724-0.027-2.502-0.591-5.012-1.169-7.476-1.894-2.002-0.588-3.356 0.175-4.382 1.767-0.745 1.155-1.729 1.532-3.069 1.439-3.402-0.236-6.659 0.356-9.726 1.906-0.379 0.192-0.858 0.327-1.271 0.288-2.479-0.235-4.952-0.526-7.427-0.805-0.197-0.022-0.414-0.064-0.575-0.169-0.957-0.625-1.928-0.502-2.875-0.034-1.557 0.769-2.894 0.322-4.139-0.678-0.627-0.504-1.176-1.115-1.839-1.563-0.466-0.315-1.065-0.604-1.603-0.602-0.998 0.003-2 0.202-2.993 0.366-2.71 0.445-3.8 2.142-3.094 4.774 0.398 1.482 0.089 2.271-1.363 2.731-1.055 0.334-2.2 0.462-3.313 0.524-1.721 0.098-2.169 0.813-1.476 2.44 0.296 0.693 0.493 1.445 0.623 2.19 0.196 1.128-0.56 1.851-1.634 1.486-0.639-0.217-1.284-0.661-1.72-1.177-0.679-0.801-1.471-1.138-2.445-0.966-2.806 0.493-4.837 2.882-4.785 5.702 0.081 4.339 3.119 7.19 7.184 6.161 1.383-0.351 2.607-0.678 3.936 0.060 0.346 0.192 0.868 0.123 1.303 0.091 2.387-0.177 4.179-1.229 5.301-3.436 0.299-0.589 1.029-0.959 1.56-1.428-0.031 0.746 0.18 1.624-0.14 2.214-0.99 1.827-0.595 3.513 0.464 4.995 0.746 1.044 1.86 1.868 2.922 2.632 1.271 0.914 1.769 2.034 2.050 3.589 0.312 1.724 0.972 3.593 2.069 4.908 1.028 1.231 1.847 2.568 2.789 3.835 0.634 0.851 1.371 1.493 2.565 0.96 0.202-0.091 0.561-0.010 0.767 0.118 0.984 0.616 1.96 1.25 2.897 1.937 0.315 0.231 0.506 0.633 0.754 0.957-0.421 0.109-0.851 0.339-1.259 0.303-1.024-0.091-1.82 0.009-2.147 1.201-0.24 0.877-0.899 0.793-1.538 0.411-0.517-0.308-0.978-0.731-1.524-0.961-0.332-0.139-0.777-0.009-1.172 0 0.075 0.408 0.017 0.936 0.253 1.198 0.531 0.587 1.136 1.201 1.84 1.517 1.421 0.637 2.943 1.046 4.397 1.619 1.341 0.529 1.74 1.428 1.091 2.682-0.493 0.952-1.079 1.942-1.868 2.638-1.781 1.572-3.408 3.469-6.11 3.553-0.626 0.019-1.288 0.389-1.846 0.737-0.933 0.581-1.736 1.396-2.709 1.88-0.734 0.365-1.649 0.366-2.483 0.529-0.104-0.887-0.332-1.779-0.288-2.659 0.108-2.123 1.284-4.176 0.158-6.392-0.416-0.82-0.327-1.892-0.5-2.843-0.053-0.29-0.212-0.56-0.378-0.979-1.558 0.955-2.798 2.13-2.952 3.764-0.146 1.549-1.009 1.949-2.158 2.301-0.462 0.142-0.937 0.24-1.405 0.363-1.478 0.389-2.060 1.247-2.167 2.784-0.156 2.25 0.804 4.011 2.315 5.495 1.405 1.38 2.97 2.595 4.398 3.954 0.341 0.325 0.664 1.003 0.553 1.392-0.199 0.7-0.863 0.603-1.52 0.43-1.555-0.408-2.577 0.308-2.836 1.861-0.105 0.625-0.262 1.241-0.394 1.861-0.136-0.005-0.273-0.011-0.409-0.017-0.137-0.56-0.134-1.217-0.444-1.655-0.402-0.569-1.011-1.273-1.606-1.353-0.743-0.1-1.025 0.723-1.048 1.484-0.016 0.522-0.127 1.041-0.158 1.563-0.072 1.235-0.419 2.257-1.657 2.858-0.427 0.207-0.73 0.726-1.019 1.149-0.79 1.159-2.267 1.095-2.935 0.041 0.462-0.91 0.84-1.726 1.285-2.502 0.234-0.409 0.541-0.8 0.893-1.111 1.042-0.921 1.151-1.486 0.382-2.878-0.303 0.163-0.643 0.285-0.911 0.498-2.208 1.755-4.435 3.488-6.592 5.305-1.663 1.401-3.069 2.988-2.895 5.415 0.030 0.426-0.168 0.866-0.245 1.303-0.207 1.163-0.906 1.634-2.061 1.523-1.386-0.134-2.782-0.19-4.156-0.399-0.382-0.058-0.888-0.474-1.014-0.839-0.434-1.253-1.119-1.706-2.47-1.375-1.345 0.329-2.243-0.185-2.876-1.417-0.312-0.607-0.589-1.243-0.783-1.896-0.292-0.979-0.869-1.289-1.824-0.976-0.275 0.090-0.564 0.139-0.846 0.206-0.034-0.096-0.067-0.193-0.101-0.289 1.446-0.566 2.904-1.108 4.338-1.702 2.747-1.14 3.704-1.751 3.667-5.225-0.025-2.446-0.719-4.916-1.344-7.316-0.702-2.697-0.993-5.365-0.553-8.129 0.083-0.521-0.094-1.236-0.421-1.644-2.445-3.057-4.15-6.418-4.5-10.368-0.195-2.202-0.822-4.511-0.387-6.591 0.829-3.966 2.268-7.807 3.489-11.689 0.128-0.408 0.494-0.74 0.749-1.108zM311.357 118.387c0.459 0.352 0.625 0.568 0.832 0.62 0.728 0.183 1.488 0.248 2.198 0.478 0.46 0.149 0.941 0.438 1.232 0.807 0.122 0.154-0.122 0.865-0.375 1.004-1.839 1.010-1.88 2.702-1.944 4.485-0.065 1.8-0.656 3.464-1.933 4.808-3.117 3.279-6.459 6.296-10.188 8.877-5.797 4.012-11.947 7.315-18.663 9.531-7.252 2.393-14.692 3.618-22.32 3.696-7.106 0.073-14.053-1.015-20.853-3.029-2.172-0.642-4.292-1.455-6.544-2.228 2.494-2.241 2.162-4.25-0.703-5.509-0.074-0.033-0.144-0.074-0.22-0.099-1.096-0.366-1.645-0.968-1.348-2.259 0.246-1.070-0.893-2.646-1.672-3.097-1.049-0.608-1.986-1.419-2.931-2.191-0.159-0.13-0.248-0.582-0.146-0.752 0.558-0.932 0.877-2.096 2.356-2.099 0.993-0.002 1.365-0.785 0.94-1.698-0.21-0.452-0.478-0.875-0.72-1.312 0.073-0.080 0.146-0.16 0.22-0.24 0.517 0.253 1.126 0.405 1.532 0.779 1.388 1.28 2.635 2.721 4.076 3.935 0.864 0.728 1.439 1.457 1.469 2.596 0.023 0.863 0.49 1.281 1.368 1.365 0.838 0.080 1.685 0.217 2.483 0.47 0.32 0.101 0.778 0.625 0.732 0.877-0.265 1.455 0.744 1.716 1.733 1.972 0.62 0.161 1.32 0.080 1.898 0.317 0.542 0.223 1.304 0.664 1.382 1.113 0.201 1.14 0.9 1.435 1.827 1.579 0.913 0.142 1.839 0.216 2.744 0.4 0.645 0.131 1.251 0.464 1.898 0.582 0.968 0.175 1.963 0.358 2.929 0.293 0.369-0.024 0.685-0.731 1.043-1.11 0.161-0.171 0.343-0.363 0.555-0.44 2.228-0.815 4.541-1.101 6.702-0.036 2.015 0.993 4 0.904 5.978 0.311 1.344-0.403 2.366-0.211 3.283 0.757 0.738 0.779 1.473 0.878 2.322 0.18 2.289-1.885 5.151-2.974 7.161-5.286 0.589-0.678 1.706-0.898 1.361-2.502 0.831 0.328 1.36 0.621 1.925 0.736 0.503 0.102 1.225 0.212 1.529-0.051 0.422-0.366 0.623-1.064 0.731-1.654 0.024-0.132-0.707-0.464-1.125-0.601-0.454-0.149-0.985-0.094-1.417-0.279-0.745-0.319-1.442-0.755-2.158-1.142 0.534-0.716 0.945-1.596 1.63-2.109 0.988-0.74 2.144-1.285 3.284-1.787 1.951-0.859 3.462-2.103 4.447-4.051 0.756-1.497 2.338-1.868 3.827-2.252 0.192-0.050 0.527 0.043 0.646 0.19 0.546 0.676 1.038 1.394 1.568 2.123-1.678 1.263-3.728 2.805-5.846 4.399 0.137 0.145 0.421 0.372 0.606 0.663 0.147 0.233 0.219 0.538 0.244 0.817 0.038 0.422 0.007 0.851 0.005 1.276 0.515-0.038 1.082 0.048 1.536-0.14 1.037-0.429 2.065-0.92 3.006-1.527 0.553-0.357 1.031-0.926 1.361-1.505 0.531-0.93 0.786-2.034 1.387-2.904 0.899-1.301 1.432-2.659 1.588-4.232 0.149-1.491 0.633-2.736 1.962-3.804 1.388-1.116 2.311-2.825 2.317-4.742 0.009-2.943-0.056-3.017 2.792-3.639 1.301-0.284 1.82-0.984 1.69-2.164-0.059-0.536-0.442-1.076-0.789-1.531-0.721-0.946-0.656-1.973 0.113-2.82 0.456-0.502 0.638-1.259 1.106-1.743 0.637-0.659 1.366-1.318 2.188-1.663 0.309-0.13 1.214 0.511 1.451 0.995 0.508 1.036 0.784 2.192 1.091 3.315 0.056 0.205-0.142 0.523-0.296 0.735-1.559 2.14-3.26 4.204-3.185 7.089 0.010 0.379-0.221 0.769-0.358 1.147-0.839 2.298-0.776 2.403 1.542 2.772 0.247 0.039 0.469 0.233 0.703 0.356-0.173 0.236-0.298 0.56-0.53 0.692-0.649 0.368-1.344 0.658-2.259 1.091zM318.144 122.235c-0.138-0.067-0.276-0.135-0.414-0.202 0.11-0.538 0.284-1.074 0.31-1.616 0.024-0.498 0.074-1.174-0.207-1.474-0.85-0.911-0.452-1.565 0.226-2.238 1.046-1.038 1.358-2.332 1.361-3.748 0.002-0.732-0.211-1.197-1.065-0.991-1.050 0.253-1.517-0.219-1.55-1.241-0.082-2.529-0.142-5.060-0.268-7.586-0.033-0.656-0.163-1.357-0.447-1.942-0.572-1.182-0.856-2.321-0.283-3.584 0.365-0.805 0.724-1.628 0.95-2.479 0.315-1.185 0.639-2.397 0.717-3.612 0.177-2.728-0.019-5.495 0.346-8.19 0.546-4.026 1.877-7.811 4.686-10.92 1.411-1.561 3.038-1.421 4.2 0.26 0.76 1.099 1.769 2.024 2.613 3.069 0.256 0.317 0.434 0.769 0.476 1.176 0.584 5.632 0.435 11.261-0.423 16.844-1.233 8.029-3.77 15.649-7.745 22.755-1.089 1.947-2.321 3.816-3.488 5.721zM261.995 122.212c0.191-0.443 0.4-0.788 0.489-1.161 0.356-1.496 1.463-2.366 2.624-3.176 1.446-1.009 2.957-1.928 4.378-2.968 1.576-1.154 2.745-2.58 2.68-4.707-0.031-1 0.329-1.785 1.356-2.183 0.255-0.099 0.476-0.435 0.596-0.712 1.233-2.86 5.036-3.603 7.496-1.39-0.384 0.181-0.762 0.318-1.098 0.525-0.993 0.611-1.575 1.472-1.506 2.684 0.066 1.164 0.112 2.332 0.221 3.493 0.147 1.567-0.017 3.209 1.505 4.367 0.646 0.491 0.592 2.265-0.010 2.798-2.12 1.88-3.974 4.138-6.954 4.818-0.841 0.192-1.655 0.635-2.396 1.099-2.831 1.777-5.526 1.524-7.943-0.817-0.803-0.778-1.449-0.641-2.353 0.002-0.472 0.336-1.346 0.32-1.967 0.168-0.53-0.129-1.19-0.584-1.381-1.061-0.359-0.897-0.455-1.909-0.59-2.882-0.055-0.397-0.073-0.945 0.149-1.205 0.595-0.7 1.329-1.282 2.096-1.993 0.974 1.552 0.687 3.467 2.608 4.3zM260.918 105.315c1.791-0.599 3.289-1.146 4.818-1.59 0.786-0.228 1.41 0.046 1.648 0.952 0.12 0.457 0.439 0.862 0.55 1.319 0.118 0.484 0.304 1.132 0.089 1.478-0.377 0.609-1.012 1.075-1.586 1.541-0.645 0.524-1.717 0.849-1.95 1.495-0.717 1.997-2.404 2.699-4.029 3.527-0.961 0.49-1.959 0.964-2.995 1.22-0.447 0.111-1.111-0.255-1.519-0.594-0.146-0.121 0.082-0.855 0.296-1.217 0.959-1.625 2.736-1.846 4.309-2.397 1.238-0.433 1.92-1.373 2.033-2.675 0.113-1.31-0.267-2.349-1.665-3.060zM299.156 115.43c0.374-0.090 0.693-0.118 0.969-0.242 0.952-0.428 1.884-0.9 2.834-1.334 0.726-0.332 1.099-0.156 1.167 0.722 0.077 1.003-0.205 1.642-1.165 2.107-2.082 1.007-4.106 2.133-6.165 3.188-0.173 0.089-0.432 0.012-0.68 0.012 0-0.252-0.050-0.428 0.007-0.558 0.795-1.83 1.536-3.688 2.441-5.463 0.411-0.806 1.080-1.55 2.235-1.635-0.214 1.283-2.168 1.464-1.644 3.202zM288.557 117.529c-0.219 0.996-1.159 1.805-1.978 1.484-0.674-0.264-1.255-0.798-1.834-1.267-1.207-0.978-0.897-3.108 0.552-3.675 0.31-0.122 0.926-0.096 1.072 0.103 0.786 1.077 1.47 2.228 2.189 3.355zM281.749 88.155c-1.472 1.276-2.944 2.551-4.467 3.873-0.666-2.213 1.88-4.618 4.467-3.873zM255.824 55.126c2.627-0.33 4.794-1.636 6.955-3.027 0.781-0.503 1.752-0.349 2.811 0.719-3.374 1.043-6.586 1.591-9.766 2.307zM267.094 51.649c0.925-1.045 2.587-1.336 4.259-0.744-1.115 1.776-2.579 2.032-4.259 0.744zM299.156 115.43c-0.525-1.738 1.429-1.919 1.644-3.202-1.154 0.084-1.823 0.828-2.235 1.635-0.905 1.774-1.646 3.633-2.441 5.463-0.057 0.13-0.007 0.307-0.007 0.558 0.249 0 0.507 0.077 0.68-0.012 2.059-1.055 4.083-2.182 6.165-3.188 0.961-0.464 1.243-1.103 1.165-2.107-0.068-0.877-0.44-1.053-1.167-0.722-0.95 0.433-1.882 0.906-2.834 1.334-0.276 0.124-0.596 0.152-0.969 0.242zM288.557 117.529c-0.719-1.126-1.402-2.279-2.189-3.355-0.146-0.199-0.762-0.225-1.072-0.103-1.45 0.567-1.759 2.698-0.552 3.675 0.579 0.469 1.159 1.002 1.834 1.267 0.819 0.321 1.76-0.488 1.978-1.484zM281.749 88.155c-2.588-0.745-5.133 1.659-4.467 3.873 1.524-1.321 2.996-2.597 4.467-3.873zM255.824 55.126c3.181-0.717 6.392-1.264 9.766-2.307-1.059-1.068-2.030-1.223-2.811-0.719-2.161 1.391-4.328 2.697-6.955 3.027zM267.094 51.649c1.68 1.288 3.144 1.032 4.259-0.744-1.671-0.591-3.334-0.301-4.259 0.744z" />
<glyph unicode="&#xe602;" d="M96 416l320-192-320-192z" />
</font></defs></svg>