

CGE    00458 OUPSa 02/29/16 12:26:23 A606002240-00A ROUT NEW POLY LREQ

Ticket : A606002240 Rev: 00A Taken: 02/29/16 12:23 PM Channel: OPR

State: OH  Cnty: DELAWARE    Place: COLUMBUS

Address : 659  Street: ENCLAVE VILLAGE PL
Cross 1 : S OLD STATE RD                            Intersection: N
Rail/Hwy:      Milemarker(s):
Where   : SOUTH SIDE OF THE PROPERTY
        : FARTHEST POINT OFF ROAD: 100 FT SOUTH
        : DISTANCE FROM CROSS STREET: APPROX 1/8TH OF A MILE WEST OF

WorkType: REPLACE DAMAGED CATV HARD LINE
Done for: WOW
Done by :
Whitelined: Y  Blasting: N
Means of Excavation: DIRECTIONAL BORE

Work date: 03/02/16 12:38 PM  Meet: N
Start by : 03/14/16 12:38 PM  Response Due: 03/02/16 12:38 PM

Best Fit: 40.146189/-83.004667 40.145953/-82.998787
        : 40.145092/-83.004711 40.144856/-82.998831

Comments:

Caller  : BOB GARDNER                     Phone: 740-404-3705
Company : P RILEY ENTERPRISES                       Type: CONT
Co addr : 2080 WESLEY CHAPEL RD
City    : ZANESVILLE                      St: OH  Zip: 43701
Alt Tel#: 740-404-3705
Email: RISE@STSBB.COM

Members:
AMTP   =WIDE OPEN WEST          - COLU  ATBP   =AT&T - ATT/T (AT&T TRANSMISSIO
BAK    =J P MORGAN CHASE BANK           CGE    =COLUMBIA GAS OF OHIO - COLUMBU
CSP    =AEP COLUMBUS SOUTHERN POWER  (  DCOP   =DEL-CO WATER
FBTP   =FIBERTECH NETWORKS              NXL    =X O COMMUNICATIONS-COLUMBUS/ST
OBF    =AT&T - OHIO                     QSTP   =CTLQN - CENTURYLINK (FORMER QW
SCL    =COLUMBUS DEPT OF UTILITIES - C  SFG    =SUBURBAN NATURAL GAS
SPTP   =SPRINT COMMUNICATIONS           WCOP   =TIME WARNER CABLE - CENTRAL OH
