
OOC2009020300256	541766	2009/02/03 12:45:19	00387

OUNC 
Ticket No:  9019132               48 HOUR NOTICE 
Send To: QLNOR01    Seq No:    8  Map Ref:  

Transmit      Date:  2/03/09   Time: 10:43 am    Op: ormeli 
Original Call Date:  2/03/09   Time: 10:38 am    Op: ormeli 
Work to Begin Date:  2/05/09   Time: 10:45 am 

State: OR            County: BENTON                  Place: CORVALLIS 
Address: 3651        Street: NW WISTERIA PL 
Nearest Intersecting Street: ARROWWOOD 

Twp: 11S   Rng: 5W    Sect-Qtr: 22-SW-NW,21-SE-NE 
Twp:       Rng:       Sect-Qtr:  
Legal Given:  

Type of Work: INSTALL FENCE 
Location of Work: ADD IS APX 200YARDS E OF THE ABV INTER ON THE N SIDE OF NW
: WISTERIA PL. MARK ALONG THE EXISTING FENCE AT THE ABV ADD. 

Remarks:  
:  

Company     : TJ THOMAS 
Contact Name: TJ THOMAS                        Phone: (541)758-7777 
Cont. Email :  
Alt. Contact: TJ THOMAS CELL                   Phone: (541)908-5760 
Contact Fax :  
Work Being Done For: HOME OWNER 
Additional Members:  
BCPW01     CMCST02    CORV01     CPI01      NNG12      NWN01      PPL13

