

TST03  00005 NCOCc 05/07/09 10:11:25 A091192096-01C RUSH 2NDR GRID LR

North Carolina One Call

Ticket : A091192096 Date: 05/07/09 Time: 10:10 Oper: LHB Chan:999
Old Tkt: A091192096 Date: 04/29/09 Time: 16:23 Oper: LIP Rev :01C

State: NC Cnty: CASWELL Place: BLANCH In/Out: B
Subdivision: CASWELL PINES

Address : 115
Street  : OAK TREE LN   Intersection: N
Cross 1 : FILES RD
Location: LOCATE BY 05/04/09 12:01 AM
CORNER LOT
LOCATE THE LEFT SIDE OF PROPERTY AS FACING
:
Grids   : 3625A7919C   3625A7919D   3626D7919C   3626D7919D

Work type:REMOVING A TREE
Work date:05/04/09  Time: 00:01  Hours notice: 0/0  Priority: RUSH
Ug/Oh/Both: U  Blasting: N  Boring: N  Railroad: N     Emergency: N
Duration: 1DAY  Done for: JULIET JASSUP

Company : JULIET JASSUP  Type: HOME
Co addr : 115 OAKTREE DR
City    : BLANCH State: NC Zip: 27212
Caller  : SAME Phone: 336-694-5181
Contact : SAME Phone: 336-694-5181
BestTime:

Remarks : REASON FOR 2ND NOTICE: AREA NOT LOCATED
CALLER SAID NO LINES HAVE BEEN LOCATED , PLEASE LOCATE A.S.A.P. THANKS
05/07/09 10:11:11 AM 2ND NOTICE BY LHB
:
Submitted date: 05/07/09 Time: 10:11
Members: CLS01  CPL10* CTT02* TST03
