

TST03  00076 NCOCc 05/07/09 11:24:49 C091260252-01C NORM RXMT GRID LR

North Carolina One Call

Ticket : C091260252 Date: 05/07/09 Time: 11:24 Oper: JBC Chan:WEB
Old Tkt: C091260252 Date: 05/06/09 Time: 09:07 Oper: JBC Rev :01C

State: NC Cnty: CARTERET Place: MOREHEAD CITY In/Out: B
Subdivision:

Address : 1200
Street  : N 20TH ST   Intersection: N
Cross 1 : MAYBERRY LOOP RD
Location: LOCATE BY 05/11/09 12:01 AM
LOCATE ENTIRE PROPERTY TO CLOSEST CATV TAP AND BACK TO PWR METER
:
Grids   : 3444C7643A   3444C7643B   3444D7643A   3444D7643B

Work type:BURY CATV
Work date:05/11/09  Time: 00:01  Hours notice: 24/24  Priority: NORM
Ug/Oh/Both: U  Blasting: N  Boring: N  Railroad: N     Emergency: N
Duration: 1 DAY  Done for: ANDRES SANCHEZ

Company : CLARK CABLE SERVICES, INC.  Type: CONT
Co addr : 2400 HWY 24
City    : NEWPORT State: NC Zip: 28570
Caller  : JULIE COULSTON Phone: 252-726-4323
Contact : WAYNE BROWNING Phone: 757-318-1585
BestTime:

Remarks : NOT CLEAR IN SEG-MAPPED LARGER AREA
THIS IS LOT 10
05/07/09 11:27:21 AM RETRANSMIT BY JBC
:
Submitted date: 05/07/09 Time: 11:24
Members: CLS01  CPL40* CTT08* MHC01  TST03  VCM01*
