

TST03  00052 NCOCa 05/07/09 10:57:19 A091201478-01A RUSH 2NDR PLCE LR

North Carolina One Call

Ticket : A091201478 Date: 05/07/09 Time: 10:54 Oper: GAT Chan:999
Old Tkt: A091201478 Date: 04/30/09 Time: 13:48 Oper: BAB Rev :01A

State: NC Cnty: CASWELL Place: MILTON In/Out: B
Subdivision: NONE

Address : 65
Street  : LEE ST   Intersection: N
Location: LOCATE BY 05/05/09 12:01 AM
CROSS STREET IS UNKNOWN.
LOCATE THE ENTIRE PROPERTY
:
Grids   :

Work type:REPLACE SEWER LINE AND SEWER SYSTEM
Work date:05/01/09  Time: 08:00  Hours notice: 0/0  Priority: RUSH
Ug/Oh/Both: U  Blasting: N  Boring: N  Railroad: N     Emergency: N
Duration: 1 DAY  Done for: TOWN OF MILTON

Company : CROMERS LANDSCAPING AND UTILITYS  Type: CONT
Co addr : POB 12
City    : STOVALL State: NC Zip: 27582
Caller  : ANGELA CROMER-EMAIL Phone: 919-603-1744
Contact : KELVIN Phone: 919-691-8266
BestTime:
Email   : BRUCECROMERJR@AOL.COM

Remarks : REASON FOR 2ND NOTICE: AREA NOT LOCATED
NEEDS PROGRESS ENERGY ASAP AS ON SITE AND WORK IN PROGRESS. PLEASE CONTACT KEVIN
CROMER AT 919-691-8266  OR BRUCE CROMER @ 919-691-9118 IF CANNONT FIND THE
ADDRESS OR PROBLEMS.
05/07/09 10:57:15 AM 2ND NOTICE BY GAT
:
Submitted date: 05/07/09 Time: 10:57
Members: CLS01  CPL10* TST03
