
BYER04     00193 ALOC 04/27/11 15:46:49 111171057 NORMAL NOGRID

=========//  ALOC LOCATE REQUEST  //=========

TICKET NUMBER--[111171057] 
OLD TICKET NUM-[]

MESSAGE TYPE---[NORMAL] LEAD TIME--[48]
PREPARED-------[04/27/11]  AT  [1541]  BY  [BMASSEY]

CONTRACTOR--[MERCEDES BENZ OF MOBILE ]   CALLER--[JIM SULLIVAN]
ADDRESS-----[3060 DAUPHIN ST]
CITY--------[MOBILE]   STATE--[AL]   ZIP--[36606]
CALL BACK---[]   PHONE--[(251) 472-2369]
CONTACT-----[JIM SULLIVAN]   PHONE--[]
CONTACT FAX-[]

WORK TO BEGIN--[04/29/11] AT [1545]      STATE--[AL]
COUNTY---[MOBILE]  PLACE--[MOBILE]

ADDRESS--[3050]   STREET--[][DAUPHIN][ST][]
NEAREST INTERSECTION--------[SAGE AVE]
LATITUDE--[30.6896265903574]    LONGITUDE--[-88.1162260930055]
SECONDARY LATITUDE--[0]    SECONDARY LONGITUDE--[0]

ADDITIONAL ADDRESSES IN LOCATION--[N]

LOCATION INFORMATION--
[LOCATE FRONT OF LOT, FROM THE ROAD MARKING TO THE EXISTING BUILDING           ]


WORK TYPE--[REMODELING]  DONE FOR--[MERCEDES BENZ OF MOBILE ]
EXTENT-----[]

EXPLOSIVES--[N]    WHITE PAINT--[N]    AT INTERSECTION--[N]

SUBDIVISION--[]
GRIDS-----
          [                 ]

UTILITIES NOTIFIED--
  CODE       NAME                         CODE       NAME                      
  ---------- --------------------------   ---------- --------------------------
  APC5CL     ALABAMA POWER - MOBILE       CCMO01     COMCAST CABLEVISION OF ...
  MOBG01     MOBILE GAS SERVICE           MOBL01     MOBILE, CITY OF - 01      
  MOBL02     CITY OF MOBILE - 02          MOBW01     MOBILE WATER AND SEWER ...
  SCMB01     ATT/D - MOBILE - (334) ...   TLPK01     TELEPAK NETWORKS, INC     

