
BYER04     00201 ALOC 04/27/11 16:24:46 111171081 NORMAL NOGRID

=========//  ALOC LOCATE REQUEST  //=========

TICKET NUMBER--[111171081] 
OLD TICKET NUM-[]

MESSAGE TYPE---[NORMAL] LEAD TIME--[48]
PREPARED-------[04/27/11]  AT  [1622]  BY  [CFIELDS]

CONTRACTOR--[GATLIN FENCE]   CALLER--[JODI GATLIN]
ADDRESS-----[P O BOX 727]
CITY--------[STAPLETON]   STATE--[AL]   ZIP--[36527]
CALL BACK---[]   PHONE--[(251) 943-6700]
CONTACT-----[JODI GATLIN]   PHONE--[(251) 943-6700]
CONTACT FAX-[]

WORK TO BEGIN--[04/29/11] AT [1630]      STATE--[AL]
COUNTY---[BALDWIN]  PLACE--[LOXLEY]

ADDRESS--[14016]   STREET--[][HWY 90][][]
NEAREST INTERSECTION--------[LANDMARK AVE]
LATITUDE--[30.6329675038673]    LONGITUDE--[-87.7849825976549]
SECONDARY LATITUDE--[0]    SECONDARY LONGITUDE--[0]

ADDITIONAL ADDRESSES IN LOCATION--[N]

LOCATION INFORMATION--
[LOCATE THE ENTIRE FRONT OF THE PROPERTY AT THIS ADDRESS                       ]


WORK TYPE--[FENCE, INSTL]  DONE FOR--[GATLIN FENCE]
EXTENT-----[]

EXPLOSIVES--[N]    WHITE PAINT--[N]    AT INTERSECTION--[N]

SUBDIVISION--[]
GRIDS-----
          [                 ]

UTILITIES NOTIFIED--
  CODE       NAME                         CODE       NAME                      
  ---------- --------------------------   ---------- --------------------------
  BCSS01     BALDWIN COUNTY SEWER SE...   BEMC01     BALDWIN COUNTY EMC        
  GULF01     GULF TELEPHONE               ISFN01     INTERSTATE FIBERNET (DE...
  LVL301     LEVEL 3 COMMUNICATIONS       LXLY01     LOXLEY, TOWN OF           
  MCIT01     MCI TELECOMMUNICATIONS       MRCM01     MADISON RIVER COMMUNICA...
  QWCM01     QWEST COMMUNICATIONS         RVUT02     RIVIERA UTILITIES - FOL...

