
BYER04     00194 ALOC 04/27/11 15:54:49 111171060 NORMAL NOGRID

=========//  ALOC LOCATE REQUEST  //=========

TICKET NUMBER--[111171060] 
OLD TICKET NUM-[]

MESSAGE TYPE---[NORMAL] LEAD TIME--[48]
PREPARED-------[04/27/11]  AT  [1551]  BY  [DOLDS]

CONTRACTOR--[WALLACE CONSTRUCTION]   CALLER--[TAB WALLACE ]
ADDRESS-----[31771 CO RD 64]
CITY--------[ROBERTSDALE]   STATE--[AL]   ZIP--[36567]
CALL BACK---[]   PHONE--[(251) 747-2749]
CONTACT-----[TAB WALLACE ]   PHONE--[(251) 747-2749]
CONTACT FAX-[]

WORK TO BEGIN--[04/29/11] AT [1600]      STATE--[AL]
COUNTY---[BALDWIN]  PLACE--[SPANISH FORT]

ADDRESS--[11460]   STREET--[][OLD HWY 31][][]
NEAREST INTERSECTION--------[HWY 31]
LATITUDE--[30.6768370322298]    LONGITUDE--[-87.8393320951698]
SECONDARY LATITUDE--[30.6726465560369]    SECONDARY LONGITUDE--[-87.8246926393791]

ADDITIONAL ADDRESSES IN LOCATION--[N]

LOCATION INFORMATION--
[LOCATE FROM THE POWER BOX TO THE POWER POLE AT THIS ADDRESS.                  ]


WORK TYPE--[CONDUIT, PLACING]  DONE FOR--[WALLACE CONSTRUCTION]
EXTENT-----[]

EXPLOSIVES--[N]    WHITE PAINT--[N]    AT INTERSECTION--[N]

SUBDIVISION--[]
GRIDS-----
          [                 ]

UTILITIES NOTIFIED--
  CODE       NAME                         CODE       NAME                      
  ---------- --------------------------   ---------- --------------------------
  BCSS01     BALDWIN COUNTY SEWER SE...   DPHN01     DAPHNE UTILITIES BOARD    
  FRHO01     FAIRHOPE UTILITIES, CIT...   MOBG01     MOBILE GAS SERVICE        
  MRCM01     MADISON RIVER COMMUNICA...   RVUT01     RIVIERA UTILITIES - DAP...
  SCMB01     ATT/D - MOBILE - (334) ...   SFWS01     SPANISH FORT WATER SYST...
  SLLC01     SOUTHERN LIGHT, LLC       

