
BYER04     00196 ALOC 04/27/11 15:57:34 111171062 NORMAL NOGRID

=========//  ALOC LOCATE REQUEST  //=========

TICKET NUMBER--[111171062] 
OLD TICKET NUM-[]

MESSAGE TYPE---[NORMAL] LEAD TIME--[48]
PREPARED-------[04/27/11]  AT  [1555]  BY  [MSHUNNARAH]

CONTRACTOR--[WYNNWOOD SUBD HOMEOWNERS ASSOCIATION]   CALLER--[JOE WILSON]
ADDRESS-----[14668 ABACUS DR]
CITY--------[FOLEY]   STATE--[AL]   ZIP--[36535]
CALL BACK---[]   PHONE--[(251) 970-3899]
CONTACT-----[JOE WILSON]   PHONE--[(251) 970-3899]
CONTACT FAX-[]

WORK TO BEGIN--[04/29/11] AT [1600]      STATE--[AL]
COUNTY---[BALDWIN]  PLACE--[FOLEY]

ADDRESS--[]   STREET--[][SHOOTS][LN][]
NEAREST INTERSECTION--------[CHEAHA DR]
LATITUDE--[30.4378913149821]    LONGITUDE--[-87.6917213153135]
SECONDARY LATITUDE--[0]    SECONDARY LONGITUDE--[0]

ADDITIONAL ADDRESSES IN LOCATION--[N]

LOCATION INFORMATION--
[LOCATE ACROSS THE STREET FROM THE SPEED LIMIT SIGN IN THE ABOVE INTERSECTION  ]
[-- NEAR THE LIGHT POST                                                        ]


WORK TYPE--[SIGNS, INSTL]  DONE FOR--[WYNNWOOD SUBD HOMEOWNERS ASSOCIATION]
EXTENT-----[]

EXPLOSIVES--[N]    WHITE PAINT--[N]    AT INTERSECTION--[Y]

SUBDIVISION--[ABACUS]
GRIDS-----
          [                 ]

UTILITIES NOTIFIED--
  CODE       NAME                         CODE       NAME                      
  ---------- --------------------------   ---------- --------------------------
  BCCM01     BALDWIN COUNTY COMMISSI...   BCSS01     BALDWIN COUNTY SEWER SE...
  BEMC01     BALDWIN COUNTY EMC           GULF01     GULF TELEPHONE            
  HBCM01     HARBOR COMMUNICATIONS, ...   RVUT02     RIVIERA UTILITIES - FOL...

