!5
NOTICE OF INTENT TO EXCAVATE
Ticket No: 00180387               Update Of: 00143921
Transmit      Date: 03/14/02      Time: 12:50    Op: keisha
Original Call Date: 03/14/02      Time: 12:44    Op: keisha
Work to Begin Date: 03/18/02      Time: 12PM

Place: ASHBURN
Address: 20949       Street: COHASSET TER
Nearest Intersecting Street: ROWLEY TER

Type of Work: INST ST LIGHTS
Extent of Work:   LOC ENTIRE PROP AND COMMON AREA OF LOTS 14 TO INCLUDE ALL
: COMMON AREA ON THE N SIDE OF LOT
Remarks: CALLER REQUESTS BOTH FLAGS AND PAINT
: CALLER UNSURE IF USING T/TECH                          Fax: (703)443-2104

Company     : LEO CONSTRUCTION
Contact Name: EMMA MOSS             Contact Phone: (703)450-4500
Alt. Contact: ALT#                  Alt. Phone   : (703)443-6608
Work Being Done For: ASHBURN VILLAGE DEV. CORP
State: VA              County: LOUDOUN
Map: LOUD  Page: 031   Grid Cells: A02,A03
Explosives: N
ATT02      COF01      CVL01      LCSA01     XLEO
Send To: TVA   02  Seq No: 0104   Map Ref:
         VPW   08          0094
         WGL   04          0744



NOTICE OF INTENT TO EXCAVATE
Ticket No: 00180388
Transmit      Date: 03/14/02      Time: 12:50    Op: amy.c
Original Call Date: 03/14/02      Time: 12:44    Op: amy.c
Work to Begin Date: 03/18/02      Time: 12PM

Place: VIENNA
Address: 8422        Street: BLEVINS WAY CT
Nearest Intersecting Street: BENEDICTINE CT

Type of Work: REPLACE ELEC MAIN  N/E
Extent of Work:   LOC FRONT PROP TO RD EDGE
Remarks: T/TECH  --  NBR JOB# 43-227082
: CALLER REQUESTS BOTH FLAGS AND PAINT                   Fax: (703)335-9776

Company     : UTILX CORP*(XUTI)*
Contact Name: PAT DOSS              Contact Phone: (703)335-1191
Alt. Contact:                       Alt. Phone   : (703)929-9115
Work Being Done For: VA POWER
State: VA              County: FX
Map: FX    Page: 014   Grid Cells: K01
Explosives: N
ATT02      CFC01      LSW01      MCI02      NLINK02    NVU01      WCG01
 XUTI
Send To: MDG   01  Seq No: 0374   Map Ref:
         TFX   01          0465
         VPW   51          0134
         WGL   04          0745



NOTICE OF INTENT TO EXCAVATE
Ticket No: 00180392               Update Of: 00133088
Transmit      Date: 03/14/02      Time: 12:51    Op: e.mack
Original Call Date: 03/14/02      Time: 12:44    Op: e.mack
Work to Begin Date: 03/18/02      Time: 12PM

Place: ALEXANDRIA
Address: 316         Street: MANSION DR
Nearest Intersecting Street: VIRGINIA LA

Type of Work: REPAIR/REPLACE SWR SVC N/E
Extent of Work:   LOC ENTIRE PROP AND ST IN FRONT
Remarks:
:                                                        Fax: (703)641-2785

Company     : HOOPER SEWER AND WATER
Contact Name: GINA HOOPER           Contact Phone: (703)560-2158
Alt. Contact: SAME                  Alt. Phone   :
Work Being Done For: HALL
State: VA              County: ALEX
Map: ALEX  Page: 024   Grid Cells: E01
Explosives: N
ALEX01     JTVA01
Send To: TFX   01  Seq No: 0466   Map Ref:
         VAW   01          0070
         VPW   02          0097
         WGL   04          0746



NOTICE OF INTENT TO EXCAVATE
Ticket No: 00180396
Transmit      Date: 03/14/02      Time: 12:51    Op: e.mack
Original Call Date: 03/14/02      Time: 12:46    Op: e.mack
Work to Begin Date: 03/18/02      Time: 01PM

Place: ASHBURN
Address: 45061       Street: BRAE TERR 105
Nearest Intersecting Street: PRESIDENTIAL DR

Type of Work: REMOVING ONE TREE STUMP
Extent of Work:   LOC FRONT OF HSE NEAR THE FOUNDATION OF 45061 APT 105
Remarks: NO T/TECH

Company     : STUMP JUMPER INC
Contact Name: BILL DAVIES           Contact Phone: (540)662-5995
Alt. Contact: BUSINESS NUMBER       Alt. Phone   : (703)777-2349
Work Being Done For: MS LAWSON
State: VA              County: LOUDOUN
Map: LOUD  Page: 023   Grid Cells: E12
Explosives: N
CVL01      LCSA01     LTC03      MCI02
Send To: TVA   02  Seq No: 0105   Map Ref:
         VPW   08          0095
         WGL   04          0747



NOTICE OF INTENT TO EXCAVATE
Ticket No: 00180400
Transmit      Date: 03/14/02      Time: 12:51    Op: brandi
Original Call Date: 03/14/02      Time: 12:46    Op: brandi
Work to Begin Date: 03/18/02      Time: 01PM

Place: ARLINGTON
Address: 821         Street: S 19TH ST
Nearest Intersecting Street: HAYES ST

Type of Work: INST FENCE
Extent of Work:   LOC ENTIRE PERIMETER
Remarks: NO T/TECH, CALLER REQUESTS BOTH FLAGS AND PAINT
: CALLER REQUESTS CALLBACKS FROM ALL UTILITIES           Fax: (703)971-0662

Company     : ACCOKEEK FENCE COMPANY
Contact Name: ANNE                  Contact Phone: (301)283-2323
Alt. Contact:                       Alt. Phone   : (703)971-0660
Work Being Done For: MCGEA
State: VA              County: ARL
Map: ARL   Page: 017   Grid Cells: F09
Explosives: N
ACP01      APW01      XAFC
Send To: TFX   01  Seq No: 0467   Map Ref:
         VPW   02          0098
         WGL   04          0748



NOTICE OF INTENT TO EXCAVATE
Ticket No: 00180405
Transmit      Date: 03/14/02      Time: 12:51    Op: brandi
Original Call Date: 03/14/02      Time: 12:48    Op: brandi
Work to Begin Date: 03/18/02      Time: 01PM

Place: ARLINGTON
Address: 4322        Street: N 18TH ST
Nearest Intersecting Street: N UTAH ST

Type of Work: INST FENCE
Extent of Work:   LOC ENTIRE PERIMETER
Remarks: NO T/TECH, CALLER REQUESTS BOTH FLAGS AND PAINT
: CALLER REQUESTS CALLBACKS FROM ALL UTILITIES           Fax: (703)971-0662

Company     : ACCOKEEK FENCE COMPANY
Contact Name: ANNE                  Contact Phone: (301)283-2323
Alt. Contact:                       Alt. Phone   : (703)971-0660
Work Being Done For: SCHULTZ
State: VA              County: ARL
Map: ARL   Page: 016   Grid Cells: H02
Explosives: N
APW01      WCG01      XAFC
Send To: TFX   01  Seq No: 0468   Map Ref:
         VPW   02          0099
         WGL   04          0749



NOTICE OF INTENT TO EXCAVATE
Ticket No: 00180411               Update Of: 00143927
Transmit      Date: 03/14/02      Time: 12:51    Op: keisha
Original Call Date: 03/14/02      Time: 12:50    Op: keisha
Work to Begin Date: 03/18/02      Time: 01PM

Place: ASHBURN
Address:             Street: COHASSET TER
Nearest Intersecting Street: ROWLEY TER

Type of Work: INST ST LIGHTS
Extent of Work:   LOC ENTIRE PROP AND COMMON AREA OF 20931 AND 20935 TO
: INCLUDE ALL COMMON AREA AND A 20FT RADIUS AROUND TRANS SM32
Remarks: CALLER REQUESTS BOTH FLAGS AND PAINT
: CALLER UNSURE IF USING T/TECH                          Fax: (703)443-2104

Company     : LEO CONSTRUCTION
Contact Name: EMMA MOSS             Contact Phone: (703)450-4500
Alt. Contact: ALT#                  Alt. Phone   : (703)443-6608
Work Being Done For: ASHBURN VILLAGE DEV. CORP
State: VA              County: LOUDOUN
Map: LOUD  Page: 031   Grid Cells: A02,A03
Explosives: N
ATT02      COF01      CVL01      LCSA01     XLEO
Send To: TVA   02  Seq No: 0106   Map Ref:
         VPW   08          0096
         WGL   04          0750



NOTICE OF INTENT TO EXCAVATE
Ticket No: 00180412               Update Of: 00143929
Transmit      Date: 03/14/02      Time: 12:51    Op: keisha
Original Call Date: 03/14/02      Time: 12:50    Op: keisha
Work to Begin Date: 03/18/02      Time: 01PM

Place: ASHBURN
Address:             Street: COHASSET TER
Nearest Intersecting Street: ROWLEY TER

Type of Work: INST ST LIGHTS
Extent of Work:   FROM INTER LOC E SIDE OF RD GOING N TO THE INTER DURYEA
: TER
Remarks: CALLER REQUESTS BOTH FLAGS AND PAINT
: CALLER UNSURE IF USING T/TECH                          Fax: (703)443-2104

Company     : LEO CONSTRUCTION
Contact Name: EMMA MOSS             Contact Phone: (703)450-4500
Alt. Contact: ALT#                  Alt. Phone   : (703)443-6608
Work Being Done For: ASHBURN VILLAGE DEV. CORP
State: VA              County: LOUDOUN
Map: LOUD  Page: 031   Grid Cells: A02,A03
Explosives: N
ATT02      COF01      CVL01      LCSA01     XLEO
Send To: TVA   02  Seq No: 0107   Map Ref:
         VPW   08          0097
         WGL   04          0751



NOTICE OF INTENT TO EXCAVATE
Ticket No: 00180413               Update Of: 00143932
Transmit      Date: 03/14/02      Time: 12:51    Op: keisha
Original Call Date: 03/14/02      Time: 12:50    Op: keisha
Work to Begin Date: 03/18/02      Time: 01PM

Place: ASHBURN
Address:             Street: DURYEA TER
Nearest Intersecting Street: COHASSET TER

Type of Work: INST ST LIGHTS
Extent of Work:   FROM INTER LOC S SIDE OF RD GOING W TO THE INTER ROWLEY
: TER
Remarks: CALLER REQUESTS BOTH FLAGS AND PAINT
: CALLER UNSURE IF USING T/TECH                          Fax: (703)443-2104

Company     : LEO CONSTRUCTION
Contact Name: EMMA MOSS             Contact Phone: (703)450-4500
Alt. Contact: ALT#                  Alt. Phone   : (703)443-6608
Work Being Done For: ASHBURN VILLAGE DEV. CORP
State: VA              County: LOUDOUN
Map: LOUD  Page: 031   Grid Cells: A02,A03
Explosives: N
ATT02      COF01      CVL01      LCSA01     XLEO
Send To: TVA   02  Seq No: 0108   Map Ref:
         VPW   08          0098
         WGL   04          0752



NOTICE OF INTENT TO EXCAVATE
Ticket No: 00180414               Update Of: 00143935
Transmit      Date: 03/14/02      Time: 12:51    Op: keisha
Original Call Date: 03/14/02      Time: 12:50    Op: keisha
Work to Begin Date: 03/18/02      Time: 01PM

Place: ASHBURN
Address:             Street: COHASSET TER
Nearest Intersecting Street: ROWLEY TER

Type of Work: INST ST LIGHTS
Extent of Work:   LOC ENTIRE PROP AND COMMON AREA OF 20946 AND 20952 TO
: INCLUDE ALL COMMON AREA BTWN AND A 320FT RADIUS AROUND TRANS SL25
Remarks: CALLER REQUESTS BOTH FLAGS AND PAINT
: CALLER UNSURE IF USING T/TECH                          Fax: (703)443-2104

Company     : LEO CONSTRUCTION
Contact Name: EMMA MOSS             Contact Phone: (703)450-4500
Alt. Contact: ALT#                  Alt. Phone   : (703)443-6608
Work Being Done For: ASHBURN VILLAGE DEV. CORP
State: VA              County: LOUDOUN
Map: LOUD  Page: 031   Grid Cells: A02,A03
Explosives: N
ATT02      COF01      CVL01      LCSA01     XLEO
Send To: TVA   02  Seq No: 0109   Map Ref:
         VPW   08          0099
         WGL   04          0753



NOTICE OF INTENT TO EXCAVATE
Ticket No: 00180416               Update Of: 00143936
Transmit      Date: 03/14/02      Time: 12:51    Op: keisha
Original Call Date: 03/14/02      Time: 12:50    Op: keisha
Work to Begin Date: 03/18/02      Time: 01PM

Place: ASHBURN
Address: 44311       Street: ROWLY TER
Nearest Intersecting Street: COHASSET TER

Type of Work: INST ST LIGHTS
Extent of Work:   LOC ENTIRE PROP AND COMMON AREA OF LOT 49 TO INCLUDE A
: 20FT RADIUS AROUND TRANS SL57
Remarks: CALLER REQUESTS BOTH FLAGS AND PAINT
: CALLER UNSURE IF USING T/TECH                          Fax: (703)443-2104

Company     : LEO CONSTRUCTION
Contact Name: EMMA MOSS             Contact Phone: (703)450-4500
Alt. Contact: ALT#                  Alt. Phone   : (703)443-6608
Work Being Done For: ASHBURN VILLAGE DEV. CORP
State: VA              County: LOUDOUN
Map: LOUD  Page: 031   Grid Cells: A02,A03
Explosives: N
ATT02      COF01      CVL01      LCSA01     XLEO
Send To: TVA   02  Seq No: 0110   Map Ref:
         VPW   08          0100
         WGL   04          0754



NOTICE OF INTENT TO EXCAVATE
Ticket No: 00180417               Update Of: 00143939
Transmit      Date: 03/14/02      Time: 12:51    Op: keisha
Original Call Date: 03/14/02      Time: 12:51    Op: keisha
Work to Begin Date: 03/18/02      Time: 01PM

Place: ASHBURN
Address:             Street: ACUSHNET TER
Nearest Intersecting Street: DURYEA TER

Type of Work: INST ST LIGHTS
Extent of Work:   LOC ENTIRE PROP AND COMMON AREA OF 44297,44299,44301,
: 44383 TO INCLUDE A 20FT RADIUS AROUND TRANS SL22 AND ALL COMMON AREA BTWN
Remarks: CALLER REQUESTS BOTH FLAGS AND PAINT
: CALLER UNSURE IF USING T/TECH                          Fax: (703)443-2104

Company     : LEO CONSTRUCTION
Contact Name: EMMA MOSS             Contact Phone: (703)450-4500
Alt. Contact: ALT#                  Alt. Phone   : (703)443-6608
Work Being Done For: ASHBURN VILLAGE DEV. CORP
State: VA              County: LOUDOUN
Map: LOUD  Page: 031   Grid Cells: A02,A03
Explosives: N
ATT02      COF01      CVL01      LCSA01     XLEO
Send To: TVA   02  Seq No: 0111   Map Ref:
         VPW   08          0101
         WGL   04          0755



NOTICE OF INTENT TO EXCAVATE
Ticket No: 00180420               Update Of: 00143941
Transmit      Date: 03/14/02      Time: 12:52    Op: keisha
Original Call Date: 03/14/02      Time: 12:51    Op: keisha
Work to Begin Date: 03/18/02      Time: 01PM

Place: ASHBURN
Address:             Street: SILKWORTH TER
Nearest Intersecting Street: ACUSHNET TER

Type of Work: INST ST LIGHTS
Extent of Work:   LOC ENTIRE PROP AND COMMON AREA OF 44274,44276,44278
Remarks: CALLER REQUESTS BOTH FLAGS AND PAINT
: CALLER UNSURE IF USING T/TECH                          Fax: (703)443-2104

Company     : LEO CONSTRUCTION
Contact Name: EMMA MOSS             Contact Phone: (703)450-4500
Alt. Contact: ALT#                  Alt. Phone   : (703)443-6608
Work Being Done For: ASHBURN VILLAGE DEV. CORP
State: VA              County: LOUDOUN
Map: LOUD  Page: 031   Grid Cells: A02,A03
Explosives: N
ATT02      COF01      CVL01      LCSA01     XLEO
Send To: TVA   02  Seq No: 0112   Map Ref:
         VPW   08          0102
         WGL   04          0756



NOTICE OF INTENT TO EXCAVATE
Ticket No: 00180421               Update Of: 00143942
Transmit      Date: 03/14/02      Time: 12:52    Op: keisha
Original Call Date: 03/14/02      Time: 12:51    Op: keisha
Work to Begin Date: 03/18/02      Time: 01PM

Place: ASHBURN
Address:             Street: ACUSHNET TER
Nearest Intersecting Street: DURYEA TER

Type of Work: INST ST LIGHTS
Extent of Work:   LOC ENTIRE PROP AND COMMON AREA OF 44298 AND 44300 TO
: INCLUDE ALL COMMON AREA BTWN
Remarks: CALLER REQUESTS BOTH FLAGS AND PAINT
: CALLER UNSURE IF USING T/TECH                          Fax: (703)443-2104

Company     : LEO CONSTRUCTION
Contact Name: EMMA MOSS             Contact Phone: (703)450-4500
Alt. Contact: ALT#                  Alt. Phone   : (703)443-6608
Work Being Done For: ASHBURN VILLAGE DEV. CORP
State: VA              County: LOUDOUN
Map: LOUD  Page: 031   Grid Cells: A02,A03
Explosives: N
ATT02      COF01      CVL01      LCSA01     XLEO
Send To: TVA   02  Seq No: 0113   Map Ref:
         VPW   08          0103
         WGL   04          0757



NOTICE OF INTENT TO EXCAVATE
Ticket No: 00180422               Update Of: 00143943
Transmit      Date: 03/14/02      Time: 12:52    Op: keisha
Original Call Date: 03/14/02      Time: 12:51    Op: keisha
Work to Begin Date: 03/18/02      Time: 01PM

Place: ASHBURN
Address:             Street: DURYEA TER
Nearest Intersecting Street: ACUSHNET TER

Type of Work: INST ST LIGHTS
Extent of Work:   LOC ENTIRE PROP AND COMMON AREA OF 20938 AND 20940 TO
: INCLUDE ALL COMMON AREA BTWN
Remarks: CALLER REQUESTS BOTH FLAGS AND PAINT
: CALLER UNSURE IF USING T/TECH                          Fax: (703)443-2104

Company     : LEO CONSTRUCTION
Contact Name: EMMA MOSS             Contact Phone: (703)450-4500
Alt. Contact: ALT#                  Alt. Phone   : (703)443-6608
Work Being Done For: ASHBURN VILLAGE DEV. CORP
State: VA              County: LOUDOUN
Map: LOUD  Page: 031   Grid Cells: A02,A03
Explosives: N
ATT02      COF01      CVL01      LCSA01     XLEO
Send To: TVA   02  Seq No: 0114   Map Ref:
         VPW   08          0104
         WGL   04          0758



NOTICE OF INTENT TO EXCAVATE
Ticket No: 00180408
Transmit      Date: 03/14/02      Time: 12:52    Op: e.mack
Original Call Date: 03/14/02      Time: 12:49    Op: e.mack
Work to Begin Date: 03/18/02      Time: 01PM

Place: ALEXANDRIA
Address:             Street: ROANOKE AVE
Nearest Intersecting Street: SHEFFIELD CT

Type of Work: REPLACING 6INC WATER VALVE..NE
Extent of Work:   LOC IN THE INTER OF ROANOKE AVE AND SHEFFIELD CT AREA
: MRKED OUT IN BLUE PAINT (SAYS DIG UP IN WORK ARE)
Remarks: NO T/TECH
:                                                        Fax: (703)548-8329

Company     : VA AMERICAN WATER COMPANY
Contact Name: MIKE MURPHY           Contact Phone: (703)706-3878
Alt. Contact: PAGER                 Alt. Phone   : (703)263-5732
Work Being Done For: VA AMERICAN WATER COMPANY
State: VA              County: ALEX
Map: ALEX  Page: 023   Grid Cells: F01
Explosives: N
ALEX01     JTVA01
Send To: TFX   01  Seq No: 0469   Map Ref:
         VAW   01          0071
         VPW   02          0100
         WGL   04          0759



NOTICE OF INTENT TO EXCAVATE
Ticket No: 00180424               Update Of: 00143944
Transmit      Date: 03/14/02      Time: 12:52    Op: keisha
Original Call Date: 03/14/02      Time: 12:51    Op: keisha
Work to Begin Date: 03/18/02      Time: 01PM

Place: ASHBURN
Address:             Street: GLENBURN TER
Nearest Intersecting Street: SILKWORTH TER

Type of Work: INST ST LIGHTS
Extent of Work:   LOC ENTIRE PROP AND COMMON AREA OF 20935 AND 20939 TO
: INCLUDE ALL COMMON AREA BTWN
Remarks: CALLER REQUESTS BOTH FLAGS AND PAINT
: CALLER UNSURE IF USING T/TECH                          Fax: (703)443-2104

Company     : LEO CONSTRUCTION
Contact Name: EMMA MOSS             Contact Phone: (703)450-4500
Alt. Contact: ALT#                  Alt. Phone   : (703)443-6608
Work Being Done For: ASHBURN VILLAGE DEV. CORP
State: VA              County: LOUDOUN
Map: LOUD  Page: 031   Grid Cells: A02,A03
Explosives: N
ATT02      COF01      CVL01      LCSA01     XLEO
Send To: TVA   02  Seq No: 0115   Map Ref:
         VPW   08          0105
         WGL   04          0760



NOTICE OF INTENT TO EXCAVATE
Ticket No: 00180428               Update Of: 00143951
Transmit      Date: 03/14/02      Time: 12:53    Op: keisha
Original Call Date: 03/14/02      Time: 12:52    Op: keisha
Work to Begin Date: 03/18/02      Time: 01PM

Place: ASHBURN
Address: 44312       Street: SILKWORTH TER
Nearest Intersecting Street: GLENBURN TER

Type of Work: INST ST LIGHTS
Extent of Work:   LOC ENTIRE PROP AND COMMON AREA OF LOT 115
Remarks: CALLER REQUESTS BOTH FLAGS AND PAINT
: CALLER UNSURE IF USING T/TECH                          Fax: (703)443-2104

Company     : LEO CONSTRUCTION
Contact Name: EMMA MOSS             Contact Phone: (703)450-4500
Alt. Contact: ALT#                  Alt. Phone   : (703)443-6608
Work Being Done For: ASHBURN VILLAGE DEV. CORP
State: VA              County: LOUDOUN
Map: LOUD  Page: 031   Grid Cells: A02,A03
Explosives: N
ATT02      COF01      CVL01      LCSA01     XLEO
Send To: TVA   02  Seq No: 0116   Map Ref:
         VPW   08          0106
         WGL   04          0761



NOTICE OF INTENT TO EXCAVATE
Ticket No: 00180418
Transmit      Date: 03/14/02      Time: 12:53    Op: sylvia
Original Call Date: 03/14/02      Time: 12:51    Op: sylvia
Work to Begin Date: 03/18/02      Time: 01PM

Place: MANASSAS PARK
Address: 163         Street: LAMBERT DR
Nearest Intersecting Street: COLBURN DR

Type of Work: REPAIR WATER MAIN & SVC     N/E
Extent of Work:   LOC WHITELINED AREA IN FRONT OF THE ABOVE ADDRESS
Remarks:
:                                                        Fax: (703)335-0053

Company     : CITY OF MANASSAS PARK
Contact Name: J.R.                  Contact Phone: (703)335-8840
Alt. Contact: TONIGHT               Alt. Phone   : (703)928-3024
Work Being Done For: CITY OF MANASSAS PARK
State: VA              County: PRWM
Map: PRWM  Page: 009   Grid Cells: F04
Explosives: N
COMP01     CTL03      JCV01      NVE01      UOSA01     WCG01
Send To: CLG   01  Seq No: 0111   Map Ref:



NOTICE OF INTENT TO EXCAVATE
Ticket No: 00180429               Update Of: 00143955
Transmit      Date: 03/14/02      Time: 12:53    Op: keisha
Original Call Date: 03/14/02      Time: 12:52    Op: keisha
Work to Begin Date: 03/18/02      Time: 01PM

Place: ASHBURN
Address: 20985       Street: CALAIS TER
Nearest Intersecting Street: BOXFORD TER

Type of Work: INST ST LIGHTS
Extent of Work:   LOC ENTIRE PROP AND COMMON AREA OF LOT 174 TO INCLUDE A
: 20FT RADIUS AROUND TRANS TK33
Remarks: CALLER REQUESTS BOTH FLAGS AND PAINT
: CALLER UNSURE IF USING T/TECH                          Fax: (703)443-2104

Company     : LEO CONSTRUCTION
Contact Name: EMMA MOSS             Contact Phone: (703)450-4500
Alt. Contact: ALT#                  Alt. Phone   : (703)443-6608
Work Being Done For: ASHBURN VILLAGE DEV. CORP
State: VA              County: LOUDOUN
Map: LOUD  Page: 031   Grid Cells: A02,A03
Explosives: N
ATT02      COF01      CVL01      LCSA01     XLEO
Send To: TVA   02  Seq No: 0117   Map Ref:
         VPW   08          0107
         WGL   04          0762



NOTICE OF INTENT TO EXCAVATE
Ticket No: 00180430               Update Of: 00143962
Transmit      Date: 03/14/02      Time: 12:53    Op: keisha
Original Call Date: 03/14/02      Time: 12:52    Op: keisha
Work to Begin Date: 03/18/02      Time: 01PM

Place: ASHBURN
Address: 20967       Street: CALAIS TER
Nearest Intersecting Street: SILKWORTH TER

Type of Work: INST ST LIGHTS
Extent of Work:   LOC ENTIRE PROP AND COMMON AREA OF LOT 140
Remarks: CALLER REQUESTS BOTH FLAGS AND PAINT
: CALLER UNSURE IF USING T/TECH                          Fax: (703)443-2104

Company     : LEO CONSTRUCTION
Contact Name: EMMA MOSS             Contact Phone: (703)450-4500
Alt. Contact: ALT#                  Alt. Phone   : (703)443-6608
Work Being Done For: ASHBURN VILLAGE DEV. CORP
State: VA              County: LOUDOUN
Map: LOUD  Page: 031   Grid Cells: A02,A03
Explosives: N
ATT02      COF01      CVL01      LCSA01     XLEO
Send To: TVA   02  Seq No: 0118   Map Ref:
         VPW   08          0108
         WGL   04          0763



NOTICE OF INTENT TO EXCAVATE
Ticket No: 00180431               Update Of: 00143969
Transmit      Date: 03/14/02      Time: 12:53    Op: keisha
Original Call Date: 03/14/02      Time: 12:52    Op: keisha
Work to Begin Date: 03/18/02      Time: 01PM

Place: ASHBURN
Address: 20939       Street: CALAIS TER
Nearest Intersecting Street: WINOLA TER

Type of Work: INST ST LIGHTS
Extent of Work:   LOC ENTIRE PROP AND COMMON AREA OF LOT 152
Remarks: CALLER REQUESTS BOTH FLAGS AND PAINT
: CALLER UNSURE IF USING T/TECH                          Fax: (703)443-2104

Company     : LEO CONSTRUCTION
Contact Name: EMMA MOSS             Contact Phone: (703)450-4500
Alt. Contact: ALT#                  Alt. Phone   : (703)443-6608
Work Being Done For: ASHBURN VILLAGE DEV. CORP
State: VA              County: LOUDOUN
Map: LOUD  Page: 031   Grid Cells: A02,A03
Explosives: N
ATT02      COF01      CVL01      LCSA01     XLEO
Send To: TVA   02  Seq No: 0119   Map Ref:
         VPW   08          0109
         WGL   04          0764



NOTICE OF INTENT TO EXCAVATE
Ticket No: 00180432               Update Of: 00144566
Transmit      Date: 03/14/02      Time: 12:53    Op: keisha
Original Call Date: 03/14/02      Time: 12:52    Op: keisha
Work to Begin Date: 03/18/02      Time: 01PM

Place: ROUND HILL
Address:             Street: BIGHORN CT
Nearest Intersecting Street: CARRIAGE HILL DR

Type of Work: INST ELEC MAIN AND SVC
Extent of Work:   LOC ENTIRE PROP AND COMMON AREA OF 17315,17319,17323, AND
: 17326
Remarks: T/TECH.
:                                                        Fax: (703)443-2104

Company     : LEO CONSTRUCTION
Contact Name: EMMA MOSS             Contact Phone: (703)450-4500
Alt. Contact: ALT#                  Alt. Phone   : (703)443-6608
Work Being Done For: VIRGINIA POWER
State: VA              County: LOUDOUN
Map: LOUD  Page: 012   Grid Cells: G10
Explosives: N
CVL01      XLEO
Send To: TVA   02  Seq No: 0120   Map Ref:
         VPW   08          0110



NOTICE OF INTENT TO EXCAVATE
Ticket No: 00180434               Update Of: 00143976
Transmit      Date: 03/14/02      Time: 12:54    Op: keisha
Original Call Date: 03/14/02      Time: 12:53    Op: keisha
Work to Begin Date: 03/18/02      Time: 01PM

Place: ASHBURN
Address:             Street: WINOLA TER
Nearest Intersecting Street: AGAWAM TER

Type of Work: INST ST LIGHTS
Extent of Work:   LOC ENTIRE PROP AND COMMON AREA OF 20925 AND 20935
: INCLUDE ALL COMMON AREA BTWN
Remarks: CALLER REQUESTS BOTH FLAGS AND PAINT
: CALLER UNSURE IF USING T/TECH                          Fax: (703)443-2104

Company     : LEO CONSTRUCTION
Contact Name: EMMA MOSS             Contact Phone: (703)450-4500
Alt. Contact: ALT#                  Alt. Phone   : (703)443-6608
Work Being Done For: ASHBURN VILLAGE DEV. CORP
State: VA              County: LOUDOUN
Map: LOUD  Page: 031   Grid Cells: A02,A03
Explosives: N
ATT02      COF01      CVL01      LCSA01     XLEO
Send To: TVA   02  Seq No: 0121   Map Ref:
         VPW   08          0111
         WGL   04          0765



NOTICE OF INTENT TO EXCAVATE
Ticket No: 00180409
Transmit      Date: 03/14/02      Time: 12:54    Op: stephe
Original Call Date: 03/14/02      Time: 12:49    Op: stephe
Work to Begin Date: 03/18/02      Time: 01PM

Place: LEESBURG
Address:             Street: DETERMIN CT
Nearest Intersecting Street: BEACON HILL DR

Type of Work: LANDSCAPE TO PLANT TREES AND SHRUBS
Extent of Work:   LOC ENTIRE PROP-LOT 83--SUBD:BEACON HILL
Remarks:
:                                                        Fax: (703)724-9404

Company     : TRUGREEN LANDCARE
Contact Name: KURT SIEMON           Contact Phone: (703)724-9400
Alt. Contact: ROB HARRIS            Alt. Phone   : (703)929-4751
Work Being Done For: SCHULZ HOMES CORP
State: VA              County: LOUDOUN
Map: LOUD  Page: 014   Grid Cells: K08
Explosives: N
LCSA01
Send To: TVA   02  Seq No: 0122   Map Ref:
         VPW   08          0112



NOTICE OF INTENT TO EXCAVATE
Ticket No: 00180435               Update Of: 00143979
Transmit      Date: 03/14/02      Time: 12:54    Op: keisha
Original Call Date: 03/14/02      Time: 12:53    Op: keisha
Work to Begin Date: 03/18/02      Time: 01PM

Place: ASHBURN
Address: 20919       Street: WINOLA TER
Nearest Intersecting Street: AGAWAM TER

Type of Work: INST ST LIGHTS
Extent of Work:   LOC ENTIRE PROP AND COMMON AREA OF LOT 213
Remarks: CALLER REQUESTS BOTH FLAGS AND PAINT
: CALLER UNSURE IF USING T/TECH                          Fax: (703)443-2104

Company     : LEO CONSTRUCTION
Contact Name: EMMA MOSS             Contact Phone: (703)450-4500
Alt. Contact: ALT#                  Alt. Phone   : (703)443-6608
Work Being Done For: ASHBURN VILLAGE DEV. CORP
State: VA              County: LOUDOUN
Map: LOUD  Page: 031   Grid Cells: A02,A03
Explosives: N
ATT02      COF01      CVL01      LCSA01     XLEO
Send To: TVA   02  Seq No: 0123   Map Ref:
         VPW   08          0113
         WGL   04          0766



NOTICE OF INTENT TO EXCAVATE
Ticket No: 00180438               Update Of: 00143982
Transmit      Date: 03/14/02      Time: 12:54    Op: keisha
Original Call Date: 03/14/02      Time: 12:53    Op: keisha
Work to Begin Date: 03/18/02      Time: 01PM

Place: ASHBURN
Address: 44384       Street: AGAWAM TER
Nearest Intersecting Street: WINOLA TER

Type of Work: INST ST LIGHTS
Extent of Work:   LOC ENTIRE PROP AND COMMON AREA OF LOT 212
Remarks: CALLER REQUESTS BOTH FLAGS AND PAINT
: CALLER UNSURE IF USING T/TECH                          Fax: (703)443-2104

Company     : LEO CONSTRUCTION
Contact Name: EMMA MOSS             Contact Phone: (703)450-4500
Alt. Contact: ALT#                  Alt. Phone   : (703)443-6608
Work Being Done For: ASHBURN VILLAGE DEV. CORP
State: VA              County: LOUDOUN
Map: LOUD  Page: 031   Grid Cells: A02,A03
Explosives: N
ATT02      COF01      CVL01      LCSA01     XLEO
Send To: TVA   02  Seq No: 0124   Map Ref:
         VPW   08          0114
         WGL   04          0767



NOTICE OF INTENT TO EXCAVATE
Ticket No: 00180439               Update Of: 00143986
Transmit      Date: 03/14/02      Time: 12:54    Op: keisha
Original Call Date: 03/14/02      Time: 12:53    Op: keisha
Work to Begin Date: 03/18/02      Time: 01PM

Place: ASHBURN
Address: 44381       Street: AGAWAM TER
Nearest Intersecting Street: CALAIS TER

Type of Work: INST ST LIGHTS
Extent of Work:   LOC ENTIRE PROP AND COMMON AREA OF LOT 207 TO INCLUDE ALL
: COMMON AREA TO CALAIS AND A 20FT RADIUS AROUND TRANS
Remarks: CALLER REQUESTS BOTH FLAGS AND PAINT
: CALLER UNSURE IF USING T/TECH                          Fax: (703)443-2104

Company     : LEO CONSTRUCTION
Contact Name: EMMA MOSS             Contact Phone: (703)450-4500
Alt. Contact: ALT#                  Alt. Phone   : (703)443-6608
Work Being Done For: ASHBURN VILLAGE DEV. CORP
State: VA              County: LOUDOUN
Map: LOUD  Page: 031   Grid Cells: A02,A03
Explosives: N
ATT02      COF01      CVL01      LCSA01     XLEO
Send To: TVA   02  Seq No: 0125   Map Ref:
         VPW   08          0115
         WGL   04          0768



NOTICE OF INTENT TO EXCAVATE
Ticket No: 00180440               Update Of: 00143989
Transmit      Date: 03/14/02      Time: 12:55    Op: keisha
Original Call Date: 03/14/02      Time: 12:53    Op: keisha
Work to Begin Date: 03/18/02      Time: 01PM

Place: ASHBURN
Address: 44344       Street: SILKWORTH TER
Nearest Intersecting Street: WINOLA TER

Type of Work: INST ST LIGHTS
Extent of Work:   LOC ENTIRE PROP AND COMMON AREA OF LOT 201
Remarks: CALLER REQUESTS BOTH FLAGS AND PAINT
: CALLER UNSURE IF USING T/TECH                          Fax: (703)443-2104

Company     : LEO CONSTRUCTION
Contact Name: EMMA MOSS             Contact Phone: (703)450-4500
Alt. Contact: ALT#                  Alt. Phone   : (703)443-6608
Work Being Done For: ASHBURN VILLAGE DEV. CORP
State: VA              County: LOUDOUN
Map: LOUD  Page: 031   Grid Cells: A02,A03
Explosives: N
ATT02      COF01      CVL01      LCSA01     XLEO
Send To: TVA   02  Seq No: 0126   Map Ref:
         VPW   08          0116
         WGL   04          0769



NOTICE OF INTENT TO EXCAVATE
Ticket No: 00180433
Transmit      Date: 03/14/02      Time: 12:55    Op: e.mack
Original Call Date: 03/14/02      Time: 12:52    Op: e.mack
Work to Begin Date: 03/18/02      Time: 01PM

Place: ARLINGTON
Address: 411         Street: N CHAINBRIDGE RD
Nearest Intersecting Street: 44TH ST N

Type of Work: REPAIRING ROADWAY..NE
Extent of Work:   LOC AREA IN FRONT OF ADDRESS AND E OF ADDRESS MARKED IN
: WHITE PAINT...
Remarks: NO T/TECH
:                                                        Fax: (703)228-6585

Company     : ARLINGTON COUNTY PUBLIC WORKS
Contact Name: BARRY BAKER           Contact Phone: (703)228-6485
Alt. Contact:                       Alt. Phone   : (703)228-6495
Work Being Done For: ARLINGTON COUNTY PUBLIC WORKS
State: VA              County: ARL
Map: ARL   Page: 009   Grid Cells: G08
Explosives: N
ACP01      APW01
Send To: TFX   01  Seq No: 0470   Map Ref:
         VPW   02          0101
         WGL   04          0770



NOTICE OF INTENT TO EXCAVATE
Ticket No: 00180441               Update Of: 00143995
Transmit      Date: 03/14/02      Time: 12:55    Op: keisha
Original Call Date: 03/14/02      Time: 12:53    Op: keisha
Work to Begin Date: 03/18/02      Time: 01PM

Place: ASHBURN
Address: 44384       Street: BOXFORD TER
Nearest Intersecting Street: WINOLA TER

Type of Work: INST ST LIGHTS
Extent of Work:   LOC ENTIRE PROP AND COMMON AREA OF LOT 187
Remarks: CALLER REQUESTS BOTH FLAGS AND PAINT
: CALLER UNSURE IF USING T/TECH                          Fax: (703)443-2104

Company     : LEO CONSTRUCTION
Contact Name: EMMA MOSS             Contact Phone: (703)450-4500
Alt. Contact: ALT#                  Alt. Phone   : (703)443-6608
Work Being Done For: ASHBURN VILLAGE DEV. CORP
State: VA              County: LOUDOUN
Map: LOUD  Page: 031   Grid Cells: A02,A03
Explosives: N
ATT02      COF01      CVL01      LCSA01     XLEO
Send To: TVA   02  Seq No: 0127   Map Ref:
         VPW   08          0117
         WGL   04          0771



NOTICE OF INTENT TO EXCAVATE
Ticket No: 00180444               Update Of: 00143999
Transmit      Date: 03/14/02      Time: 12:55    Op: keisha
Original Call Date: 03/14/02      Time: 12:54    Op: keisha
Work to Begin Date: 03/18/02      Time: 01PM

Place: ASHBURN
Address:             Street: WINOLA TER
Nearest Intersecting Street: SILKWORTH TER

Type of Work: INST ST LIGHTS
Extent of Work:   LOC ENTIRE PROP AND COMMON AREA OF 20948 AND 20952 TO
: INCLUDE ALL COMMON AREA BTWN
Remarks: CALLER REQUESTS BOTH FLAGS AND PAINT
: CALLER UNSURE IF USING T/TECH                          Fax: (703)443-2104

Company     : LEO CONSTRUCTION
Contact Name: EMMA MOSS             Contact Phone: (703)450-4500
Alt. Contact: ALT#                  Alt. Phone   : (703)443-6608
Work Being Done For: ASHBURN VILLAGE DEV. CORP
State: VA              County: LOUDOUN
Map: LOUD  Page: 031   Grid Cells: A02,A03
Explosives: N
ATT02      COF01      CVL01      LCSA01     XLEO
Send To: TVA   02  Seq No: 0128   Map Ref:
         VPW   08          0118
         WGL   04          0772



NOTICE OF INTENT TO EXCAVATE
Ticket No: 00180445               Update Of: 00144001
Transmit      Date: 03/14/02      Time: 12:55    Op: keisha
Original Call Date: 03/14/02      Time: 12:54    Op: keisha
Work to Begin Date: 03/18/02      Time: 01PM

Place: ASHBURN
Address:             Street: DURYEA TER
Nearest Intersecting Street: ACUSHNET TER

Type of Work: INST ST LIGHTS
Extent of Work:   LOC ENTIRE PROP AND COMMON AREA OF 20953 THRU 20963 ODD
Remarks: CALLER REQUESTS BOTH FLAGS AND PAINT
: CALLER UNSURE IF USING T/TECH                          Fax: (703)443-2104

Company     : LEO CONSTRUCTION
Contact Name: EMMA MOSS             Contact Phone: (703)450-4500
Alt. Contact: ALT#                  Alt. Phone   : (703)443-6608
Work Being Done For: ASHBURN VILLAGE DEV. CORP
State: VA              County: LOUDOUN
Map: LOUD  Page: 031   Grid Cells: A02,A03
Explosives: N
ATT02      COF01      CVL01      LCSA01     XLEO
Send To: TVA   02  Seq No: 0129   Map Ref:
         VPW   08          0119
         WGL   04          0773



NOTICE OF INTENT TO EXCAVATE
Ticket No: 00180447               Update Of: 00144004
Transmit      Date: 03/14/02      Time: 12:56    Op: keisha
Original Call Date: 03/14/02      Time: 12:54    Op: keisha
Work to Begin Date: 03/18/02      Time: 01PM

Place: ASHBURN
Address:             Street: ACUSHNET TER
Nearest Intersecting Street: SILKWORTH TER

Type of Work: INST ST LIGHTS
Extent of Work:   LOC ENTIRE PROP AND COMMON AREA OF 44268,44270,44274,
: 44280 TO INCLUDE A 20FT RADIUS AROUND TRANS SL13 AND TRANS RL80
Remarks: CALLER REQUESTS BOTH FLAGS AND PAINT
: CALLER UNSURE IF USING T/TECH                          Fax: (703)443-2104

Company     : LEO CONSTRUCTION
Contact Name: EMMA MOSS             Contact Phone: (703)450-4500
Alt. Contact: ALT#                  Alt. Phone   : (703)443-6608
Work Being Done For: ASHBURN VILLAGE DEV. CORP
State: VA              County: LOUDOUN
Map: LOUD  Page: 031   Grid Cells: A02,A03
Explosives: N
ATT02      COF01      CVL01      LCSA01     XLEO
Send To: TVA   02  Seq No: 0130   Map Ref:
         VPW   08          0120
         WGL   04          0774



NOTICE OF INTENT TO EXCAVATE
Ticket No: 00180446
Transmit      Date: 03/14/02      Time: 12:56    Op: stephe
Original Call Date: 03/14/02      Time: 12:54    Op: stephe
Work to Begin Date: 03/18/02      Time: 01PM

Place: GREAT FALLS
Address: 10574       Street: TERKES VIEW
Nearest Intersecting Street: GREAT PASSAGE BLVD

Type of Work: BUILD A PATIO
Extent of Work:   LOC THE BACYARD
Remarks:
:                                                        Fax: (703)724-9404

Company     : TRUGREEN LANDCARE
Contact Name: KURT SIEMON           Contact Phone: (703)724-9400
Alt. Contact: ROB HARRIS            Alt. Phone   : (703)929-4751
Work Being Done For: SANDRA AND FADY SEMAAN
State: VA              County: FX
Map: FX    Page: 002   Grid Cells: G10
Explosives: N
ATT02      CTR01      FWA02
Send To: MDG   01  Seq No: 0375   Map Ref:
         TFX   01          0471
         VPW   03          0120
         WGL   04          0775



NOTICE OF INTENT TO EXCAVATE
Ticket No: 00180450               Update Of: 00144007
Transmit      Date: 03/14/02      Time: 12:56    Op: keisha
Original Call Date: 03/14/02      Time: 12:54    Op: keisha
Work to Begin Date: 03/18/02      Time: 01PM

Place: ASHBURN
Address:             Street: MEDALIST DR
Nearest Intersecting Street: MURIFIELD VILLAGE CT

Type of Work: INST ELEC CONDUIT
Extent of Work:   LOC ENTIRE NW CORNER OF INTER
Remarks: CALLER REQUESTS BOTH FLAGS AND PAINT
: CALLER UNSURE IF USING T/TECH                          Fax: (703)443-2104

Company     : LEO CONSTRUCTION
Contact Name: EMMA MOSS             Contact Phone: (703)450-4500
Alt. Contact: ALT#                  Alt. Phone   : (703)443-6608
Work Being Done For: ADVANCED BROADBAND
State: VA              County: LOUDOUN
Map: LOUD  Page: 022   Grid Cells: H12
Explosives: N
CVL01      LCSA01     XLEO
Send To: TVA   02  Seq No: 0131   Map Ref:
         VPW   08          0121
         WGL   04          0776



NOTICE OF INTENT TO EXCAVATE
Ticket No: 00180451               Update Of: 00144009
Transmit      Date: 03/14/02      Time: 12:56    Op: keisha
Original Call Date: 03/14/02      Time: 12:54    Op: keisha
Work to Begin Date: 03/18/02      Time: 01PM

Place: ASHBURN
Address:             Street: ATHERTON ST
Nearest Intersecting Street: HUMBOLT SQ

Type of Work: INST ELEC MAIN/SVC
Extent of Work:   LOC ENTIRE PROP AND COMMON AREA OF LOTS 1-4 TO INCLUDE
: THE RD CROSSINGS
Remarks: CALLER REQUESTS BOTH FLAGS AND PAINT
: CALLER UNSURE IF USING T/TECH                          Fax: (703)443-2104

Company     : LEO CONSTRUCTION
Contact Name: EMMA MOSS             Contact Phone: (703)450-4500
Alt. Contact: ALT#                  Alt. Phone   : (703)443-6608
Work Being Done For: VA POWER
State: VA              County: LOUDOUN
Map: LOUD  Page: 030   Grid Cells: F05
Explosives: N
CVL01      LCSA01     XLEO
Send To: TVA   02  Seq No: 0132   Map Ref:
         VPW   08          0122
         WGL   04          0777



NOTICE OF INTENT TO EXCAVATE
Ticket No: 00180453               Update Of: 00144014
Transmit      Date: 03/14/02      Time: 12:57    Op: keisha
Original Call Date: 03/14/02      Time: 12:54    Op: keisha
Work to Begin Date: 03/18/02      Time: 01PM

Place: ASHBURN
Address:             Street: HUMBOLT SQ
Nearest Intersecting Street: ATHERTON ST

Type of Work: INST ELEC MAIN/SVC
Extent of Work:   LOC ENTIRE PROP AND COMMON AREA OF LOTS 21-30 TO INCLUDE
: THE RD CROSSINGS
Remarks: CALLER REQUESTS BOTH FLAGS AND PAINT
: CALLER UNSURE IF USING T/TECH                          Fax: (703)443-2104

Company     : LEO CONSTRUCTION
Contact Name: EMMA MOSS             Contact Phone: (703)450-4500
Alt. Contact: ALT#                  Alt. Phone   : (703)443-6608
Work Being Done For: VA POWER
State: VA              County: LOUDOUN
Map: LOUD  Page: 030   Grid Cells: F05
Explosives: N
CVL01      LCSA01     XLEO
Send To: TVA   02  Seq No: 0133   Map Ref:
         VPW   08          0123
         WGL   04          0778



NOTICE OF INTENT TO EXCAVATE
Ticket No: 00180455               Update Of: 00144010
Transmit      Date: 03/14/02      Time: 12:57    Op: keisha
Original Call Date: 03/14/02      Time: 12:55    Op: keisha
Work to Begin Date: 03/18/02      Time: 01PM

Place: ASHBURN
Address:             Street: HUMBOLT SQ
Nearest Intersecting Street: ATHERTON ST

Type of Work: INST ELEC MAIN/SVC
Extent of Work:   LOC ENTIRE PROP AND COMMON AREA OF LOTS 13-20 TO INCLUDE
: THE RD CROSSINGS
Remarks: CALLER REQUESTS BOTH FLAGS AND PAINT
: CALLER UNSURE IF USING T/TECH                          Fax: (703)443-2104

Company     : LEO CONSTRUCTION
Contact Name: EMMA MOSS             Contact Phone: (703)450-4500
Alt. Contact: ALT#                  Alt. Phone   : (703)443-6608
Work Being Done For: VA POWER
State: VA              County: LOUDOUN
Map: LOUD  Page: 030   Grid Cells: F05
Explosives: N
CVL01      LCSA01     XLEO
Send To: TVA   02  Seq No: 0134   Map Ref:
         VPW   08          0124
         WGL   04          0779



NOTICE OF INTENT TO EXCAVATE
Ticket No: 00180458               Update Of: 00144015
Transmit      Date: 03/14/02      Time: 12:57    Op: keisha
Original Call Date: 03/14/02      Time: 12:55    Op: keisha
Work to Begin Date: 03/18/02      Time: 01PM

Place: ASHBURN
Address:             Street: ATHERTON ST
Nearest Intersecting Street: HUMBOLT SQ

Type of Work: INST ELEC MAIN/SVC
Extent of Work:   FROM THE INTER LOC THE S SIDE OF THE RD GOING E TO THE
: INTER OF OVERLAND PARK DR TO INCLUDE THE RD CROSSINGS
Remarks: CALLER REQUESTS BOTH FLAGS AND PAINT
: CALLER UNSURE IF USING T/TECH                          Fax: (703)443-2104

Company     : LEO CONSTRUCTION
Contact Name: EMMA MOSS             Contact Phone: (703)450-4500
Alt. Contact: ALT#                  Alt. Phone   : (703)443-6608
Work Being Done For: VA POWER
State: VA              County: LOUDOUN
Map: LOUD  Page: 030   Grid Cells: F05
Explosives: N
CVL01      LCSA01     XLEO
Send To: TVA   02  Seq No: 0135   Map Ref:
         VPW   08          0125
         WGL   04          0780



NOTICE OF INTENT TO EXCAVATE
Ticket No: 00180461               Update Of: 00144016
Transmit      Date: 03/14/02      Time: 12:57    Op: keisha
Original Call Date: 03/14/02      Time: 12:55    Op: keisha
Work to Begin Date: 03/18/02      Time: 01PM

Place: ASHBURN
Address:             Street: HUMBOLT SQ
Nearest Intersecting Street: OVERLAND PARK DR

Type of Work: INST ELEC MAIN/SVC
Extent of Work:   ENTIRE INTER THEN FROM THE INTER LOC BOTH SIDES OF THE RD
: GOING W TO LOT 30 ON HUMBOLT SQ TO INCLUDE THE RD CROSSING
Remarks: CALLER REQUESTS BOTH FLAGS AND PAINT
: CALLER UNSURE IF USING T/TECH                          Fax: (703)443-2104

Company     : LEO CONSTRUCTION
Contact Name: EMMA MOSS             Contact Phone: (703)450-4500
Alt. Contact: ALT#                  Alt. Phone   : (703)443-6608
Work Being Done For: VA POWER
State: VA              County: LOUDOUN
Map: LOUD  Page: 030   Grid Cells: F05
Explosives: N
CVL01      LCSA01     XLEO
Send To: TVA   02  Seq No: 0136   Map Ref:
         VPW   08          0126
         WGL   04          0781



NOTICE OF INTENT TO EXCAVATE
Ticket No: 00180463               Update Of: 00144019
Transmit      Date: 03/14/02      Time: 12:57    Op: keisha
Original Call Date: 03/14/02      Time: 12:56    Op: keisha
Work to Begin Date: 03/18/02      Time: 01PM

Place: ASHBURN
Address:             Street: OVERLAND PARK DR
Nearest Intersecting Street: ATHERTON ST

Type of Work: INST ELEC MAIN/SVC
Extent of Work:   LOC ENTIRE PROP AND COMMON AREA OF LOTS 1-6 TO INCLUDE
: THE RD CROSSINGS
Remarks: CALLER REQUESTS BOTH FLAGS AND PAINT
: CALLER UNSURE IF USING T/TECH                          Fax: (703)443-2104

Company     : LEO CONSTRUCTION
Contact Name: EMMA MOSS             Contact Phone: (703)450-4500
Alt. Contact: ALT#                  Alt. Phone   : (703)443-6608
Work Being Done For: VA POWER
State: VA              County: LOUDOUN
Map: LOUD  Page: 030   Grid Cells: F05
Explosives: N
CVL01      LCSA01     XLEO
Send To: TVA   02  Seq No: 0137   Map Ref:
         VPW   08          0127
         WGL   04          0782



NOTICE OF INTENT TO EXCAVATE
Ticket No: 00180464               Update Of: 00144020
Transmit      Date: 03/14/02      Time: 12:58    Op: keisha
Original Call Date: 03/14/02      Time: 12:56    Op: keisha
Work to Begin Date: 03/18/02      Time: 01PM

Place: ASHBURN
Address:             Street: OVERLAND PARK DR
Nearest Intersecting Street: ATHERTON ST

Type of Work: INST ELEC MAIN/SVC
Extent of Work:   LOC ENTIRE PROP AND COMMON AREA OF LOTS 7-12 TO INCLUDE
: THE RD CROSSINGS
Remarks: CALLER REQUESTS BOTH FLAGS AND PAINT
: CALLER UNSURE IF USING T/TECH                          Fax: (703)443-2104

Company     : LEO CONSTRUCTION
Contact Name: EMMA MOSS             Contact Phone: (703)450-4500
Alt. Contact: ALT#                  Alt. Phone   : (703)443-6608
Work Being Done For: VA POWER
State: VA              County: LOUDOUN
Map: LOUD  Page: 030   Grid Cells: F05
Explosives: N
CVL01      LCSA01     XLEO
Send To: TVA   02  Seq No: 0138   Map Ref:
         VPW   08          0128
         WGL   04          0783



NOTICE OF INTENT TO EXCAVATE
Ticket No: 00180465               Update Of: 00144022
Transmit      Date: 03/14/02      Time: 12:58    Op: keisha
Original Call Date: 03/14/02      Time: 12:56    Op: keisha
Work to Begin Date: 03/18/02      Time: 01PM

Place: ASHBURN
Address:             Street: GLENBURN TER
Nearest Intersecting Street: GLOUCESTER PKWY

Type of Work: INST ST LIGHTS
Extent of Work:   FROM INTER LOC THE W SIDE OF THE RD GOING N TO THE INTER
: OF SILKWORTH TER AND INCLUDE A 20FT RADIUS AROUND TRANS TK25
Remarks: CALLER REQUESTS BOTH FLAGS AND PAINT
: CALLER UNSURE IF USING T/TECH                          Fax: (703)443-2104

Company     : LEO CONSTRUCTION
Contact Name: EMMA MOSS             Contact Phone: (703)450-4500
Alt. Contact: ALT#                  Alt. Phone   : (703)443-6608
Work Being Done For: ASHBURN VILLAGE DEV. CORP
State: VA              County: LOUDOUN
Map: LOUD  Page: 031   Grid Cells: A02,A03
Explosives: N
ATT02      COF01      CVL01      LCSA01     XLEO
Send To: TVA   02  Seq No: 0139   Map Ref:
         VPW   08          0129
         WGL   04          0784



NOTICE OF INTENT TO EXCAVATE
Ticket No: 00180468               Update Of: 00144553
Transmit      Date: 03/14/02      Time: 12:58    Op: keisha
Original Call Date: 03/14/02      Time: 12:56    Op: keisha
Work to Begin Date: 03/18/02      Time: 01PM

Place: ROUND HILL
Address: 35920       Street: CARRIAGE HILL DR
Nearest Intersecting Street: BIGHORN CT

Type of Work: INST ELEC MAIN AND SVC
Extent of Work:   LOC ENTIRE PROP AND COMMON AREA
Remarks: T/TECH.
:                                                        Fax: (703)443-2104

Company     : LEO CONSTRUCTION
Contact Name: EMMA MOSS             Contact Phone: (703)450-4500
Alt. Contact: ALT#                  Alt. Phone   : (703)443-6608
Work Being Done For: VIRGINIA POWER
State: VA              County: LOUDOUN
Map: LOUD  Page: 012   Grid Cells: G10
Explosives: N
CVL01      XLEO
Send To: TVA   02  Seq No: 0140   Map Ref:
         VPW   08          0130



NOTICE OF INTENT TO EXCAVATE
Ticket No: 00180471               Update Of: 00143606
Transmit      Date: 03/14/02      Time: 12:58    Op: keisha
Original Call Date: 03/14/02      Time: 12:56    Op: keisha
Work to Begin Date: 03/18/02      Time: 01PM

Place: STERLING
Address: 46303       Street: MCCLELLAN WY
Nearest Intersecting Street: PARKLAND CT

Type of Work: INSTALL STREET LIGHT
Extent of Work:   LOC ENTIRE PROP AND COMMON AREA
Remarks: CALLER REQUESTS BOTH FLAGS AND PAINT
: T/TECH                                                 Fax: (703)443-2104

Company     : LEO CONSTRUCTION   (XLEO)
Contact Name: EMMA MOSS             Contact Phone: (703)450-4500
Alt. Contact: ALT#                  Alt. Phone   : (703)443-6608
Work Being Done For: PRIMROSE DEVELOPMENT CORP
State: VA              County: LOUDOUN
Map: LOUD  Page: 032   Grid Cells: B03
Explosives: N
CVL01      LCSA01     XLEO
Send To: TFX   01  Seq No: 0472   Map Ref:
         VPW   03          0121
         WGL   04          0785



NOTICE OF INTENT TO EXCAVATE
Ticket No: 00180473               Update Of: 00143915
Transmit      Date: 03/14/02      Time: 12:58    Op: keisha
Original Call Date: 03/14/02      Time: 12:57    Op: keisha
Work to Begin Date: 03/18/02      Time: 01PM

Place: ASHBURN
Address:             Street: TOPSHAM ALLEY
Nearest Intersecting Street: SHEWAWKEN TER

Type of Work: INST ST LIGHTS
Extent of Work:   LOC ENTIRE INTER INCLUDE A 100FT RADIUS AROUND THE INTER
Remarks: CALLER REQUESTS BOTH FLAGS AND PAINT
: CALLER UNSURE IF USING T/TECH                          Fax: (703)443-2104

Company     : LEO CONSTRUCTION
Contact Name: EMMA MOSS             Contact Phone: (703)450-4500
Alt. Contact: ALT#                  Alt. Phone   : (703)443-6608
Work Being Done For: ASHBURN VILLAGE DEV. CORP
State: VA              County: LOUDOUN
Map: LOUD  Page: 031   Grid Cells: A02,A03
Explosives: N
ATT02      COF01      CVL01      LCSA01     XLEO
Send To: TVA   02  Seq No: 0141   Map Ref:
         VPW   08          0131
         WGL   04          0786



NOTICE OF INTENT TO EXCAVATE
Ticket No: 00180476               Update Of: 00143948
Transmit      Date: 03/14/02      Time: 12:59    Op: keisha
Original Call Date: 03/14/02      Time: 12:57    Op: keisha
Work to Begin Date: 03/18/02      Time: 01PM

Place: ASHBURN
Address:             Street: GLENBURN TER
Nearest Intersecting Street: SILKWORTH TER

Type of Work: INST ST LIGHTS
Extent of Work:   LOC ENTIRE PROP AND COMMON AREA OF 20944,20946 AND 20950
: TO INCLUDE ALL COMMON AREA BTWN AND A 20FT RADIUS AROUND TRANS TL56
Remarks: CALLER REQUESTS BOTH FLAGS AND PAINT
: CALLER UNSURE IF USING T/TECH                          Fax: (703)443-2104

Company     : LEO CONSTRUCTION
Contact Name: EMMA MOSS             Contact Phone: (703)450-4500
Alt. Contact: ALT#                  Alt. Phone   : (703)443-6608
Work Being Done For: ASHBURN VILLAGE DEV. CORP
State: VA              County: LOUDOUN
Map: LOUD  Page: 031   Grid Cells: A02,A03
Explosives: N
ATT02      COF01      CVL01      LCSA01     XLEO
Send To: TVA   02  Seq No: 0142   Map Ref:
         VPW   08          0132
         WGL   04          0787



NOTICE OF INTENT TO EXCAVATE
Ticket No: 00180478               Update Of: 00143973
Transmit      Date: 03/14/02      Time: 12:59    Op: keisha
Original Call Date: 03/14/02      Time: 12:58    Op: keisha
Work to Begin Date: 03/18/02      Time: 01PM

Place: ASHBURN
Address:             Street: WINOLA TER
Nearest Intersecting Street: CALAIS TER

Type of Work: INST ST LIGHTS
Extent of Work:   LOC ENTIRE PROP AND COMMON AREA OF 20900-20922 EVEN TO
: INCLUDE ALL COMMON AREA BTWN AND INCLUDE A 20FT RADIUS AROUND TRANS TM73
Remarks: CALLER REQUESTS BOTH FLAGS AND PAINT
: CALLER UNSURE IF USING T/TECH                          Fax: (703)443-2104

Company     : LEO CONSTRUCTION
Contact Name: EMMA MOSS             Contact Phone: (703)450-4500
Alt. Contact: ALT#                  Alt. Phone   : (703)443-6608
Work Being Done For: ASHBURN VILLAGE DEV. CORP
State: VA              County: LOUDOUN
Map: LOUD  Page: 031   Grid Cells: A02,A03
Explosives: N
ATT02      COF01      CVL01      LCSA01     XLEO
Send To: TVA   02  Seq No: 0143   Map Ref:
         VPW   08          0133
         WGL   04          0788



NOTICE OF INTENT TO EXCAVATE
Ticket No: 00180403
Transmit      Date: 03/14/02      Time: 12:59    Op: shelby
Original Call Date: 03/14/02      Time: 12:47    Op: shelby
Work to Begin Date: 03/18/02      Time: 01PM

Place: GREAT FALLS
Address: 11163       Street: RICH MEADOW DR
Nearest Intersecting Street: CROWN MEADOW DR

Type of Work: DIGGING FOOTERS TO BUILD A PORCH
Extent of Work:   LOC REAR OF PROP
: //CALLER STATES PROP IS APPROX 1/4 OF A MILE E OF ABOVE INTER//
Remarks: LEGALS NOT PROVIDED FOR THIS LOCATE REQUEST & ARE APPROX
: NO T/TECH

Company     : NANCY WILSON
Contact Name: HOMEOWNER             Contact Phone: (703)450-5220
Alt. Contact: CELL                  Alt. Phone   : (703)850-2577
Work Being Done For: NANCY WILSON
State: VA              County: FX
Map: FX    Page: 002   Grid Cells: D05,D06,
Explosives: N
ATT02      NVU01
Send To: MDG   01  Seq No: 0376   Map Ref:
         TFX   01          0473
         VPW   03          0122
         WGL   04          0789



NOTICE OF INTENT TO EXCAVATE
Ticket No: 00180480               Update Of: 00143923
Transmit      Date: 03/14/02      Time: 12:59    Op: keisha
Original Call Date: 03/14/02      Time: 12:58    Op: keisha
Work to Begin Date: 03/18/02      Time: 01PM

Place: ASHBURN
Address:             Street: COHASSET TER
Nearest Intersecting Street: SILKWORTH TER

Type of Work: INST ST LIGHTS
Extent of Work:   LOC ENTIRE PROP AND COMMON AREA OF 20961 AND 20963 TO
: INCLUDE ALL COMMON AREA BTWN AND INCLUDE A 20FT RADIUS AROUND TRANS RL76
Remarks: CALLER REQUESTS BOTH FLAGS AND PAINT
: CALLER UNSURE IF USING T/TECH                          Fax: (703)443-2104

Company     : LEO CONSTRUCTION
Contact Name: EMMA MOSS             Contact Phone: (703)450-4500
Alt. Contact: ALT#                  Alt. Phone   : (703)443-6608
Work Being Done For: ASHBURN VILLAGE DEV. CORP
State: VA              County: LOUDOUN
Map: LOUD  Page: 031   Grid Cells: A02,A03
Explosives: N
ATT02      COF01      CVL01      LCSA01     XLEO
Send To: TVA   02  Seq No: 0144   Map Ref:
         VPW   08          0134
         WGL   04          0790



NOTICE OF INTENT TO EXCAVATE
Ticket No: 00180486
Transmit      Date: 03/14/02      Time: 13:01    Op: keisha
Original Call Date: 03/14/02      Time: 12:59    Op: keisha
Work to Begin Date: 03/18/02      Time: 01PM

Place: FAIRFAX
Address:             Street: LEE HWY
Nearest Intersecting Street: SPRUCE AV

Type of Work: INST GAS MAIN
Extent of Work:   (ON S SIDE OF ST) FROM INTER GO W FOR APPROX 275FT
Remarks: CALLER REQUESTS BOTH FLAGS AND PAINT/UTILIQUEST MARK GAS A
:                                                        Fax: (703)393-6791

Company     : NORTHERN PIPELINE CONST CO
Contact Name: DEBBIE DOTSON         Contact Phone: (703)551-2261
Alt. Contact: GILBERT NELSON        Alt. Phone   :
Work Being Done For: WG
State: VA              County: FX
Map: FX    Page: 013   Grid Cells: A10
Explosives: N
FWA02      MCI02      NVU01      XNPIPE
Send To: MDG   01  Seq No: 0377   Map Ref:
         TFX   01          0474
         VPW   51          0135
         WGL   04          0791




s#
