
MID70  00002 GAUPC 12/04/07 12:43:12 12047-400-001-000 LPMEET       
LARGE PROJECT MEETING NOTIFICATION   
NOTICE : 12047-400-001 DATE: 12/04/07  TIME: 12:39  REVISION: 000 

STATE : GA COUNTY: DOOLY         PLACE: UNADILLA                                
ADDR  : FROM:        TO:        NAME:    CRUMPLER                       AVE     
NEAR  : NAME:    PINE                           ST  

SUBDIVISION:                                         
LOCATE: LOCATE THE R/O/W ON BOTH SIDES OF THE ROAD ON CRUMPLER AVE, SPIVEY ST, 
      :  CAREY ST, KITCHENS ST, AND MIMBUSH ST FOR THE ENTIRE LENGTH OF THE ROAD
      :  TO INCLUDE LOCATING ALL INTERSECTIONS ON BOTH SIDES OF THE ROAD FOR 200
      :  FT IN ALL DIRECTIONS ON BOTH SIDES OF THE ROAD AND WITHIN THE R/O/W. TH
      :  IS WILL BE TO INCLUDE LOCATING ALL INTERSECTING ROADS THAT INTERSECT WI
      :  TH CRUMPLER AVE, SPIVEY ST, CAREY ST, KITCHENS ST, AND MIMBUSH ST. THIS
      :  WILL INCLUDE LOCATING THE R/O/W ON BOTH SIDES OF THE ROAD OF POWELL ST 
      :  STARTING WHERE CRUMPLER AVE CHANGES NAMES TO POWELL ST AND ENDING THIS 
      :  PORTION OF THE LOCATE 200 FT SOUTH OF KITCHENS ST. THIS WILL INCLUDE LO
      :  CATING THE R/O/W ON BOTH SIDES OF THE ROAD ON US RT 41 FROM 200 FT NORT
      :  H OF CRUMPLER AVE TO 300 FT SOUTH OF KITCHENS ST                       

GRIDS       : 3215D8344D 3215C8344D 3215B8344D 3215D8344C 3215C8344C 
GRIDS       : 3215B8344C 3215D8344B 3215C8344B 3215B8344B 3215D8344A 
WORK TYPE   : INSTALLING WATER MAIN AND SERVICE LINES                             

SCOPEOFWORK : INSTALLING WATER MAIN AND SERVICE LINES                          

MEETING DATE      : 12/11/07 TIME: 11:00 
MEETING RESPOND BY: 12/06/07 TIME: 23:59
MEETING LOCATION  : THE CITY HALL COUNCIL ROOM AT THE ADDRESS OF 1616 BORUM STR
        : EET UNADILLA, GA. 31091                                    
LP CONTACT        : TRACI MATTHEWS            PHONE   : 6784064330 EXT:  
CONTACT EMAIL     : SOUTHRNTRENCHING@BELLSOUTH.NET                             

RESPONDBY : 12/13/07 TIME: 00:00 DURATION : 180 DAYS   PRIORITY: 1
DONE FOR  : CITY OF UNADILLA                        
CREW ON SITE: N WHITE-LINED: N BLASTING: N  BORING: Y

REMARKS : MIMBUSH IS A DIRT ROAD. MIMBUSH IS BETWEEN 2 TRAILERS, ONE TRAILER I
        : S A LIGHT BLUE COLOR. IF TRAVELING NORTH FROM SPIVEY ST ON KITCHEN S
        : T THIS LOCATION WILL BE JUST PAST THE 3RD TRAILER THERE IS NO STREET
        : NAME FOR MIMBUSH ST AND MIMBUSH ST IS ON THE RIGHT SIDE OF THE ROAD 
        : *** WILL BORE ROAD, DRIVEWAY &amp; SIDEWALK     
        : OVERHEAD WORK BEGIN DATE: 
        : OVERHEAD WORK COMPLETION DATE: 

COMPANY : SOUTHERN TRENCHING INC                    TYPE: CONT                
CO ADDR : 249 HURRICANE SHOALS RD                  
CITY    : LAWRENCEVILLE                  STATE   : GA ZIP: 30045              
CALLER  : TRACI MATTHEWS                 PHONE   :  770-513-3755              
FAX     :                                ALT. PH.:  678-409-4330              
EMAIL   : SOUTHRNTRENCHING@BELLSOUTH.NET                                      
CONTACT :                                                           

SUBMITTED DATE: 12/04/07  TIME: 12:39  OPER: 198
MBRS : UNA52 FLI70 COMSO ALL06 TCI07 ALLBB3 ALL06B UNA50 HMAL12 HMCTZ 
     : HMMOC OGP420 UNA51 MID70 GP420 
-------------------------------------------------------------------------------



