IRTH	NOT002	1260UNCC2002091000232	UNCC	0551437	000	PSCO	1- UtiliQuest North	PCND00 00083 UNCC 09/10/02 08:26 AM 0551437-000 NORM UPDT GRID LREQ

Ticket Nbr: 0551437 Update of: 0542173
Original Call Date: 09/05/02  Time: 09:35 AM  Op: PPP
Contr Excav Date  : 09/13/02  Time: 07:00 AM  Extended job: N
Locate By Date    : 09/12/02  Time: 11:59 PM  Hrs Notice: 071  Meet: N
State: CO     County: JEFFERSON        City: LAKEWOOD
Addr:   3471  Street: CARR ST S
Grids: 04S069W34SE : 04S069W35SW              :               Legal: C
Type of Work: CONCRETE REPAIR AND REPLACEMENT            Exp.: N  Boring: N
Location: GO WEST INTO CONDOS FROM S. CARR ST. ONE BLOCK NORTH OF WEST HAMPDEN
        : FRONTAGE RD. BUILDING 3471 WILL BE ON THE RIGHT.  LOCATE UNIT 6 WALK
        : NEXT TO GARAGE AND WALK AT GATE. * UPDATE DUE TO DO MEET WITH SAME
        : CONTR IN SAME AREA ON 9/12 @ 9AM @ 3457 S. AMMONS ST
Company : COLORADO HARDSCAPES
Caller  : SUSAN LASALLE              Phone: (303)750-8200
Alt Cont: PETE ALBRECHT              Phone: (303)598-3460
Fax: (303)750-8886  Email: SLASALLE@COLORADOHARDSCAPES.COM
Done for: MANAGEMENT SPECIALISTS / SOUTHAMPTON
Remarks:

Members :ATDW00 :ATND05 :LKWD01 :PCND00 :PSND05 :UQND00 :USND05
 	PCND00	NO MORE CDCS	9960

