
SBF26 CALL SUNSHINE 02/04/03 23:42:43ET

***************************************************************************
* NOW ENDING TRANSMISSION FOR TODAY - THIS IS YOUR END OF DAY AUDIT       *
* PLEASE VERIFY YOU RECEIVED ALL TKTS - IF ERRORS, PLEASE CALL THE CENTER *
***************************************************************************

00001 03530022-000 06:57   00002 03530024-000 06:59   00003 03530042-000 07:07   
00004 03530045-000 07:08   00005 03530161-000 07:37   00006 03530186-000 07:41   
00008 03530319-000 08:01   00009 03530333-000 08:02   00010 03530340-000 08:02   
00011 03530346-000 08:03   00012 03530449-000 08:12   00013 03530484-000 08:15   
00014 03530501-000 08:16   00016 03530510-000 08:17   00018 03530521-000 08:18   
00019 01633842-001 08:18   00021 03530535-000 08:21   00025 03530603-000 08:25   
00026 03530615-000 08:26   00027 03530649-000 08:29   00028 03530661-000 08:31   
00029 03530718-000 08:36   00030 03530720-000 08:36   00031 03530732-000 08:37   
00032 03530791-000 08:42   00035 03531025-000 09:04   00036 03531028-000 09:04   
00038 03531048-000 09:06   00039 03531051-000 09:07   00040 03531048-001 09:07   
00041 03531062-000 09:07   00046 03531089-000 09:10   00047 03530816-000 09:10   
00050 03530816-001 09:12   00059 03531167-000 09:17   00060 03531198-000 09:19   
00065 03531327-000 09:31   00068 03531341-000 09:32   00069 03531347-000 09:33   
00071 03531358-000 09:34   00073 03531391-000 09:36   00074 03531394-000 09:36   
00076 03531411-000 09:37   00077 03531415-000 09:38   00078 03531421-000 09:38   
00079 03531427-000 09:39   00080 03531435-000 09:40   00081 03531446-000 09:41   
00094 03032133-001 09:41   00095 03531460-000 09:41   00097 03531477-000 09:43   
00100 03531537-000 09:49   00102 03531595-000 09:56   00103 03531618-000 09:58   
00105 03531641-000 10:01   00106 03531671-000 10:04   00107 03531717-000 10:09   
00108 03531763-000 10:12   00109 03531770-000 10:13   00110 03531784-000 10:14   
00111 03531814-000 10:17   00112 03531851-000 10:20   00113 03531878-000 10:23   
00114 03531976-000 10:32   00115 03531990-000 10:33   00117 03532052-000 10:39   
00118 03532053-000 10:39   00120 03532096-000 10:42   00121 03532097-000 10:42   
00123 03532147-000 10:48   00124 03532172-000 10:50   00126 02933860-001 10:54   
00127 03532244-000 10:57   00129 03532296-000 11:03   00133 02834676-001 11:13   
00134 03034870-001 11:19   00135 03532494-000 11:22   00136 03532507-000 11:23   
00137 03532544-000 11:27   00139 03532100-000 11:30   00140 03532593-000 11:31   
00141 03532594-000 11:32   00144 03532615-000 11:33   00147 03532648-000 11:37   
00148 03532679-000 11:39   00149 03532685-000 11:40   00152 03532724-000 11:44   
00153 03532745-000 11:46   00154 03532764-000 11:47   00156 03532773-000 11:48   
00157 03532788-000 11:50   00158 03532789-000 11:50   00159 03532585-000 11:51   
00161 03532920-000 12:03   00162 03532976-000 12:08   00164 03533017-000 12:13   
00165 03533025-000 12:14   00170 03533137-000 12:27   00174 03533290-000 12:48   
00175 03533328-000 12:52   00176 03533421-000 13:02   00179 03533590-000 13:22   
00181 03533661-000 13:32   00183 03533705-000 13:37   00184 03533710-000 13:37   
00186 03533808-000 13:47   00187 03533835-000 13:50   00190 03533920-000 13:58   
00195 03534105-000 14:16   00196 03534121-000 14:17   00203 03534210-000 14:27   
00206 03534291-000 14:35   00208 03534429-000 14:48   00209 03534457-000 14:51   
00212 03534471-000 14:52   00213 03534480-000 14:53   00215 03534513-000 14:56   
00218 03534533-000 14:58   00221 03534570-000 15:01   00222 03534618-000 15:06   
00224 03534648-000 15:10   00225 03534658-000 15:11   00227 03534702-000 15:17   
00228 03534710-000 15:18   00229 03534715-000 15:19   00230 03534743-000 15:23   
00232 03534810-000 15:31   00233 03534815-000 15:33   00234 03534843-000 15:35   
00235 03534846-000 15:36   00236 03534879-000 15:40   00237 03534900-000 15:42   
00238 03534907-000 15:43   00239 03534927-000 15:45   00240 03534948-000 15:47   
00241 03534951-000 15:47   00243 03534970-000 15:50   00244 03534987-000 15:52   
00246 03535021-000 15:56   00247 03535042-000 15:59   00249 03535088-000 16:04   
00250 03535115-000 16:07   00251 03535254-000 16:21   00252 03535257-000 16:21   
00254 03535269-000 16:22   00256 03535286-000 16:24   00258 03535291-000 16:24   
00259 03535299-000 16:25   00260 03535311-000 16:26   00263 03535325-000 16:28   
00265 03535330-000 16:28   00266 03535351-000 16:31   00272 03535531-000 16:51   
00273 03535562-000 16:55   00275 03535573-000 16:56   00276 03535584-000 16:58   
00277 03535596-000 16:59   00278 03535597-000 17:00   00279 03535604-000 17:00   
00281 03535614-000 17:01   00282 03535621-000 17:04   00284 03535634-000 17:05   
00285 03535641-000 17:06   00286 03535643-000 17:06   00287 03535646-000 17:07   
00290 03535680-000 17:14   00291 03535694-000 17:17   00294 03535713-000 17:21   
00295 03535716-000 17:22   00296 03535722-000 17:24   00298 03535731-000 17:27   
00300 03535731-001 17:28   00303 03535739-000 17:30   00308 03535762-000 17:43   
00309 03535767-000 17:45   00310 03535768-000 17:50   

Total: 176


