
GP275 CALL SUNSHINE 02/04/03 23:42:39ET

***************************************************************************
* NOW ENDING TRANSMISSION FOR TODAY - THIS IS YOUR END OF DAY AUDIT       *
* PLEASE VERIFY YOU RECEIVED ALL TKTS - IF ERRORS, PLEASE CALL THE CENTER *
***************************************************************************

00028 03530661-000 08:31   00029 03530718-000 08:36   00032 03530791-000 08:42   
00036 03531028-000 09:04   00068 03531341-000 09:32   00077 03531415-000 09:38   
00105 03531641-000 10:01   00159 03532585-000 11:51   00181 03533661-000 13:32   
00228 03534710-000 15:18   

Total: 10


