
GP288 CALL SUNSHINE 02/04/03 23:42:39ET

***************************************************************************
* NOW ENDING TRANSMISSION FOR TODAY - THIS IS YOUR END OF DAY AUDIT       *
* PLEASE VERIFY YOU RECEIVED ALL TKTS - IF ERRORS, PLEASE CALL THE CENTER *
***************************************************************************

00007 03435565-000 07:56   00020 03530532-000 08:21   00022 03530564-000 08:21   
00023 03530574-000 08:22   00042 03531066-000 09:08   00055 03531138-000 09:13   
00058 03531165-000 09:17   00061 03531207-000 09:20   00062 03531237-000 09:23   
00063 03531275-000 09:26   00070 03531352-000 09:33   00072 03531373-000 09:35   
00075 03531402-000 09:37   00082 03230005-000 09:41   00083 03230006-000 09:41   
00084 03230008-000 09:41   00085 03230009-000 09:41   00090 03230017-000 09:41   
00092 03230019-000 09:41   00093 03230020-000 09:41   00096 03531473-000 09:42   
00098 03531502-000 09:45   00099 03531521-000 09:47   00101 03531543-000 09:50   
00128 03532294-000 11:02   00131 03532328-000 11:06   00185 03533763-000 13:43   
00198 03534164-000 14:23   00200 03534180-000 14:24   00210 03534461-000 14:51   
00211 03534469-000 14:52   00214 03534485-000 14:53   00216 03534517-000 14:57   
00217 03534524-000 14:57   00219 03534536-000 14:58   00231 03534783-000 15:28   
00268 03535393-000 16:36   00271 03535492-000 16:46   00280 03535609-000 17:01   
00283 03535624-000 17:05   00289 03535661-000 17:10   00292 03535699-000 17:18   
00293 03535712-000 17:21   00304 03535748-000 17:34   00311 03531066-001 17:55   

Total: 45


