ABS01 *SUM* GAUPC 02/06/02 00:08:28

***************************************************************************
*  THIS IS THE UTILITIES PROTECTION CENTER SIGNING OFF.  YOUR END OF DAY  *
*  SUMMARY WILL FOLLOW.  PLEASE NOTIFY THE CENTER OF ANY DISCREPANCIES    *
***************************************************************************

00002 01302-106-039-001 00:09 L 00005 01312-016-009-001 00:09 L
00013 01312-033-035-001 00:10 L 00019 01312-033-056-001 00:11 L
00024 01312-054-039-001 00:12 L 00025 01312-097-049-001 00:12 L
00029 01312-107-045-001 00:12 L 00033 01312-916-001-001 00:29 L
00034 01312-916-002-001 00:29 L 00044 02052-000-004-000 08:27
00058 02052-000-004-000 08:52 R 00068 02052-019-008-000 08:54
00083 02052-106-010-000 09:01   00089 02052-019-001-000 09:05
00091 02052-052-001-000 09:05 P 00099 02052-098-014-000 09:24 P
00108 02052-034-027-000 09:37   00112 02052-034-031-000 09:38
00120 02052-017-022-000 10:18 P 00125 02052-108-034-000 10:19
00133 01302-052-015-002 10:49 Y 00134 01302-052-015-003 10:49 P
00142 02052-051-037-000 11:22   00147 02052-107-009-000 11:22
00148 02052-107-009-001 11:22 P 00153 02052-035-066-000 11:36
00169 02052-947-012-000 12:09   00171 02052-033-020-000 12:25
00193 02052-096-033-000 13:11   00200 02052-020-042-000 13:29
00213 02052-947-029-000 13:47   00214 02052-947-033-000 13:47
00215 02052-109-054-000 13:55   00219 02052-097-108-000 13:56
00221 02052-498-004-000 13:56   00228 02052-097-129-000 14:06
00229 02052-498-006-000 14:06   00241 02052-511-102-000 14:16
00255 02052-028-076-000 14:57   00259 02052-106-090-000 14:57
00260 02052-106-091-000 14:57   00270 02052-947-052-000 15:11
00272 02052-947-062-000 15:11   00297 02052-935-029-000 15:41
00300 02052-856-005-000 16:00   00301 02052-935-030-000 16:00
00302 02052-935-031-000 16:00   00303 02052-935-032-000 16:00
00307 02052-054-061-000 16:10   00312 02052-035-084-000 16:28

(P) UPDATE     - 00005
(C) CANCEL     - 00000
(R) RESENT     - 00001
(Y) RENOTIFY   - 00001
(L) LATE RESP  - 00009
(U) UNGRIDDED  - 00000
( ) NORMAL     - 00034
    TOTAL      - 00050
TK205235.818 #00032

ATL01 *SUM* GAUPC 03/09/02 00:09:13

***************************************************************************
*  THIS IS THE UTILITIES PROTECTION CENTER SIGNING OFF.  YOUR END OF DAY  *
*  SUMMARY WILL FOLLOW.  PLEASE NOTIFY THE CENTER OF ANY DISCREPANCIES    *
***************************************************************************

00002 03052-024-036-001 00:09 L 00006 03052-024-044-001 00:09 L
00007 03052-026-010-001 00:10 L 00008 03052-026-011-001 00:10 L
00010 03052-054-039-001 00:10 L 00011 03052-096-035-001 00:26 L
00015 03052-919-001-001 00:26 L 00017 03082-051-002-000 07:22
00020 03082-051-003-000 07:29   00023 03082-028-004-000 07:36
00024 03082-028-005-000 07:36   00025 03082-020-004-000 07:39
00027 03082-037-013-000 08:20   00035 03082-028-023-000 08:49
00036 03082-028-024-000 08:49   00040 03082-098-007-000 09:05
00045 03082-042-010-000 09:06   00047 03082-019-013-000 09:26
00048 03082-037-013-001 09:26 C 00049 03082-104-006-000 09:26
00050 03082-018-006-000 09:26   00051 03082-036-004-000 09:26
00059 03082-000-037-000 09:49   00061 03082-022-003-000 09:49
00062 03082-022-004-000 09:49   00064 03082-024-015-000 09:49
00065 03082-031-012-000 09:50   00066 03082-096-020-000 09:50
00067 03082-096-021-000 09:50   00071 03082-096-022-000 09:56
00077 03082-022-006-000 10:07   00078 03082-051-018-000 10:07
00080 03082-054-017-000 10:07   00086 03082-023-017-000 10:34
00087 03082-023-018-000 10:34   00089 03082-031-016-000 10:34
00091 03082-777-001-000 10:35   00092 03082-777-002-000 10:35
00096 03082-346-001-000 10:54   00097 03082-346-002-000 10:55
00099 03082-107-013-000 11:09   00102 03082-023-016-000 11:10
00113 03082-024-028-000 11:11   00114 03082-045-013-000 11:11
00116 03082-346-003-000 11:11   00124 03082-037-028-000 11:28
00126 03082-096-029-000 11:28   00128 03082-024-033-000 11:40
00129 03082-024-034-000 11:40   00130 03082-024-035-000 11:40
00131 03082-035-037-000 11:40   00136 03082-921-001-000 11:44
00137 03082-921-002-000 11:44   00138 03082-103-050-000 11:51
00140 03082-102-080-000 11:51 P 00143 03082-102-080-001 12:08 P
00144 03082-102-081-000 12:08 P 00148 03082-033-021-000 12:33
00149 03052-054-035-002 12:33 C 00150 03082-000-075-000 12:33
00152 03082-032-019-000 12:33   00153 03082-054-049-000 12:33
00155 03082-104-028-000 12:33   00156 03082-104-029-000 12:33
00158 03082-947-016-000 12:34   00160 03082-032-020-000 12:56
00162 03082-097-050-000 12:56 P 00163 03082-097-051-000 12:56
00164 03082-097-052-000 12:56 P 00165 03082-097-053-000 12:57
00169 03082-097-054-000 12:58   00170 03082-047-055-000 13:14
00172 03082-040-058-000 13:14   00176 03082-022-025-000 13:31
00177 03082-033-027-000 13:31   00178 03082-097-060-000 13:31
00179 03082-097-061-000 13:31   00181 03082-054-057-000 13:49
00183 03082-042-023-000 13:49   00184 03082-099-027-000 13:50
00185 03082-106-017-000 13:50   00187 03082-099-028-000 13:50
00188 03082-935-002-000 13:50   00189 03082-935-003-000 13:50
00190 03082-099-029-000 13:50   00191 03082-019-013-001 14:02 Y
00197 03082-099-030-000 14:03   00198 03082-099-031-000 14:03
00200 03082-016-019-000 14:46   00204 03082-024-056-000 14:57
00206 03082-024-058-000 14:58   00207 03082-024-059-000 14:58
00208 03082-024-060-000 14:58   00218 03082-024-063-000 15:23
00219 03082-024-064-000 15:23   00220 03082-024-065-000 15:24
00225 03082-650-001-000 15:24   00227 03082-030-022-000 15:46
00230 03082-036-053-000 15:46   00231 03082-052-044-000 15:47
00233 03082-554-001-000 15:47 P 00234 03082-554-002-000 15:47
00235 03082-554-003-000 15:47   00236 03082-554-004-000 15:47
00237 03082-019-050-000 16:03 P 00238 03082-021-040-000 16:03
00239 03082-021-044-000 16:04   00240 03082-021-045-000 16:04
00241 03082-021-046-000 16:04   00242 03082-021-048-000 16:04
00243 03082-554-005-000 16:04 P 00245 03082-054-079-000 16:15 P
00246 03082-104-062-000 16:15   00249 03082-104-065-000 16:36
00251 03082-022-045-000 17:19   00252 03082-016-043-000 17:20
TK308235.812 #00252

ATL01 *SUM* GAUPC 03/09/02 00:09:13

***************************************************************************
*  THIS IS THE UTILITIES PROTECTION CENTER SIGNING OFF.  YOUR END OF DAY  *
*  SUMMARY WILL FOLLOW.  PLEASE NOTIFY THE CENTER OF ANY DISCREPANCIES    *
***************************************************************************

00253 03082-033-050-000 17:42   00254 03082-033-051-000 17:42
00255 03082-026-044-000 18:02   00256 03082-026-045-000 18:02
00258 03082-026-047-000 18:02   00259 03082-026-048-000 18:02

(P) UPDATE     - 00009
(C) CANCEL     - 00002
(R) RESENT     - 00000
(Y) RENOTIFY   - 00001
(L) LATE RESP  - 00007
(U) UNGRIDDED  - 00000
( ) NORMAL     - 00103
    TOTAL      - 00122
TK308235.830 #00253

TICKET SUMMARY REPORT AT 03/14/02 07:09:45 PM FOR UTIL11               PAGE 1 
***************************************************************************
               THIS IS YOUR END OF DAY AUDIT FROM O N I S I
            ANY QUESTIONS PLEASE CALL THE MISS UTILITY CENTER
***************************************************************************

SEQ #  TICKET PRI  TIME     SEQ #  TICKET PRI  TIME     SEQ #  TICKET PRI  TIME
    1  128193 E  06:28AM        2  128228 E  07:25AM        3  128195 N  07:25AM
    4  128200 N  07:25AM        5  128213 N  07:25AM        6  128194 N  07:25AM
    7  128214 N  07:25AM        8  128215 N  07:25AM        9  128216 N  07:26AM
   10  128217 N  07:26AM       11  128220 N  07:26AM       12  128264 E  07:31AM
   13  128252 N  07:31AM       14  128231 N  07:31AM       15  128237 N  07:31AM
   16  128248 N  07:31AM       17  128259 N  07:32AM       18  128261 N  07:32AM
   19  128232 N  07:32AM       20  128262 N  07:32AM       21  128240 N  07:32AM
   22  128241 N  07:32AM       23  128298 E  07:43AM       24  128282 H  07:43AM
   25  128287 H  07:43AM       26  128278 N  07:43AM       27  128279 N  07:43AM
   28  128234 N  07:43AM       29  128257 N  07:43AM       30  128299 N  07:44AM
   31  128273 N  07:44AM       32  128306 N  07:44AM       33  128309 E  07:47AM
   34  128205 H  07:48AM       35  128307 N  07:48AM       36  128291 N  07:48AM
   37  128312 N  07:48AM       38  128318 N  07:48AM       39  128323 N  07:48AM
   40  128324 N  08:01AM       41  128338 E  08:01AM       42  128391 E  08:01AM
   43  128325 N  08:01AM       44  128326 N  08:01AM       45  128294 N  08:01AM
   46  128345 E  08:01AM       47  128327 N  08:01AM       48  128328 N  08:01AM
   49  128329 N  08:01AM       50  128331 N  08:02AM       51  128332 N  08:02AM
   52  128333 N  08:02AM       53  128334 N  08:02AM       54  128354 N  08:02AM
   55  128342 N  08:02AM       56  128355 N  08:02AM       57  128356 N  08:02AM
   58  128357 N  08:02AM       59  128372 N  08:02AM       60  128358 N  08:02AM
   61  128373 N  08:02AM       62  128374 N  08:02AM       63  128375 N  08:02AM
   64  128376 N  08:02AM       65  128377 N  08:03AM       66  128387 N  08:03AM
   67  128378 N  08:03AM       68  128396 N  08:03AM       69  128388 N  08:03AM
   70  128389 N  08:03AM       71  128367 N  08:03AM       72  128403 N  08:03AM
   73  128417 H  08:14AM       74  128368 N  08:14AM       75  128400 N  08:14AM
   76  128405 N  08:14AM       77  128406 N  08:14AM       78  128445 H  08:14AM
   79  128407 N  08:14AM       80  128416 N  08:14AM       81  128369 N  08:14AM
   82  128370 N  08:14AM       83  128395 N  08:14AM       84  128414 N  08:14AM
   85  128399 E  08:14AM       86  128441 N  08:14AM       87  128398 N  08:14AM
   88  128447 N  08:15AM       89  101999 NC 08:15AM       90  128426 N  08:15AM
   91  128443 N  08:15AM       92  128415 N  08:15AM       93  128267 N  08:15AM
   94  128456 N  08:15AM       95  128462 N  08:15AM       96  128457 N  08:15AM
   97  128470 N  08:15AM       98  128466 N  08:25AM       99  128458 N  08:25AM
  100  128476 N  08:25AM      101  128488 N  08:25AM      102  128487 N  08:25AM
  103  128489 N  08:25AM      104  128504 N  08:26AM      105  128224 N  08:26AM
  106  128490 N  08:26AM      107  128505 N  08:26AM      108  128491 N  08:26AM
  109  128468 N  08:26AM      110  128506 N  08:26AM      111  128481 N  08:26AM
  112  128482 N  08:26AM      113  128492 N  08:26AM      114  128493 N  08:26AM
  115  128507 N  08:26AM      116  128508 N  08:26AM      117  128494 N  08:26AM
  118  128521 N  08:26AM      119  128510 N  08:27AM      120  128512 N  08:27AM
  121  128517 N  08:27AM      122  128552 E  08:33AM      123  128514 N  08:33AM
  124  128529 N  08:33AM      125  128484 N  08:33AM      126  128515 N  08:33AM
  127  128478 N  08:33AM      128  128553 N  08:33AM      129  128554 N  08:33AM
  130  128531 N  08:33AM      131  128548 N  08:33AM      132  128555 N  08:33AM
  133  128556 N  08:33AM      134  128266 N  08:33AM      135  128579 N  08:38AM
  136  128591 N  08:38AM      137  128593 N  08:38AM      138  128557 N  08:38AM
  139  128573 N  08:38AM      140  128594 N  08:38AM      141  128558 N  08:38AM
  142  128595 N  08:38AM      143  128580 N  08:38AM      144  128219 N  08:38AM
  145  128596 N  08:38AM      146  128559 N  08:38AM      147  128597 N  08:38AM
  148  128560 N  08:38AM      149  128581 N  08:39AM      150  128598 N  08:39AM
  151  128599 N  08:39AM      152  128562 N  08:39AM      153  128564 N  08:39AM
  154  128561 N  08:39AM      155  128600 N  08:39AM      156  128582 N  08:39AM

BLA01 *SUM* GAUPC 02/06/02 00:08:28

***************************************************************************
*  THIS IS THE UTILITIES PROTECTION CENTER SIGNING OFF.  YOUR END OF DAY  *
*  SUMMARY WILL FOLLOW.  PLEASE NOTIFY THE CENTER OF ANY DISCREPANCIES    *
***************************************************************************

00002 01302-106-039-001 00:09 L 00005 01312-016-009-001 00:09 L
00013 01312-033-035-001 00:10 L 00019 01312-033-056-001 00:11 L
00024 01312-054-039-001 00:12 L 00025 01312-097-049-001 00:12 L
00029 01312-107-045-001 00:12 L 00033 01312-916-001-001 00:29 L
00034 01312-916-002-001 00:29 L 00044 02052-000-004-000 08:27
00058 02052-000-004-000 08:52 R 00068 02052-019-008-000 08:54
00083 02052-106-010-000 09:01   00089 02052-019-001-000 09:05
00091 02052-052-001-000 09:05 P 00099 02052-098-014-000 09:24 P
00108 02052-034-027-000 09:37   00112 02052-034-031-000 09:38
00120 02052-017-022-000 10:18 P 00125 02052-108-034-000 10:19
00133 01302-052-015-002 10:49 Y 00134 01302-052-015-003 10:49 P
00142 02052-051-037-000 11:22   00147 02052-107-009-000 11:22
00148 02052-107-009-001 11:22 P 00153 02052-035-066-000 11:36
00169 02052-947-012-000 12:09   00171 02052-033-020-000 12:25
00193 02052-096-033-000 13:11   00200 02052-020-042-000 13:29
00213 02052-947-029-000 13:47   00214 02052-947-033-000 13:47
00215 02052-109-054-000 13:55   00219 02052-097-108-000 13:56
00221 02052-498-004-000 13:56   00228 02052-097-129-000 14:06
00229 02052-498-006-000 14:06   00241 02052-511-102-000 14:16
00255 02052-028-076-000 14:57   00259 02052-106-090-000 14:57
00260 02052-106-091-000 14:57   00270 02052-947-052-000 15:11
00272 02052-947-062-000 15:11   00297 02052-935-029-000 15:41
00300 02052-856-005-000 16:00   00301 02052-935-030-000 16:00
00302 02052-935-031-000 16:00   00303 02052-935-032-000 16:00
00307 02052-054-061-000 16:10   00312 02052-035-084-000 16:28

(P) UPDATE     - 00005
(C) CANCEL     - 00000
(R) RESENT     - 00001
(Y) RENOTIFY   - 00001
(L) LATE RESP  - 00009
(U) UNGRIDDED  - 00000
( ) NORMAL     - 00034
    TOTAL      - 00050
TK205235.818 #00032

