UTIL11 ONISI 05/06/02 06:21:40 00323

***************************************************************************
***************************************************************************
*       GOOD MORNING, THIS IS YOUR START OF DAY FOR MISS UTILITY          *
*             IF YOU HAVE ANY PROBLEMS, PLEASE CALL THE CENTER            *
***************************************************************************
***************************************************************************