+++XR^{f;1mnrT
RC1        00034 MSOCS 11/01/02 16:01:00 02110116040630 NORMAL GRID RESEND

=========//  MOCS LOCATE REQUEST  //=========

TICKET NUMBER--[02110116040630]  
OLD TICKET NUM-[]  

MESSAGE TYPE---[NORMAL] LEAD TIME--[20]
PREPARED-------[11/01/02]  AT  [1601]  BY  [AHICKS]

CONTRACTOR--[CENTERPOINT ENERGY ENTEX]   CALLER--[AMY HICK]
ADDRESS-----[104 CROSSPARK DR]
CITY--------[PEARL]   STATE--[MS]   ZIP--[39208]
CALL BACK---[]   PHONE--[(601) 936-0222]
CONTACT-----[MARK DENNAN]   PHONE--[(601) 936-0222]
CONTACT FAX-[]

WORK TO BEGIN--[11/05/02] AT [1615]      STATE--[MS]
COUNTY---[RANKIN]  PLACE--[BRANDON]

ADDRESS--[312]   STREET--[][EASTRIDGE ][DR][]
NEAREST INTERSECTION--------[PARKSIDE DR]
LATITUDE--[32.2982025146484]    LONGITUDE--[-90.0140686035156]
SECONDARY LATITUDE--[32.2909317016602]    SECONDARY LONGITUDE--[-90.0054473876953]

ADDITIONAL ADDRESSES IN LOCATION--[N]

LOCATION INFORMATION--
[LOCATE ENTIRE LOT14   SHORT SIDE EASTGATE OF CROSSGATES                       ]

WORK TYPE--[GAS, INSTALL LINES (S)]  DONE FOR--[CENTERPOINT ENERGY ENTEX]
EXTENT-----[1 DAY]

EXPLOSIVES--[N]    WHITE PAINT--[N]    GRID GIVEN--[Y]

MAP REF.--[]
GRIDS-----
          [03E05N08NE       ] 

UTILITIES NOTIFIED--
  CODE       NAME                         CODE       NAME                      
  ---------- --------------------------   ---------- --------------------------
  MS1058     CENTERPOINT ENERGY ENTE...   MS1080     12 INCH PEARL, CENTER P...
  MS3001     BELLSOUTH, JACKSON           MS4022     ENTERGY, RANKIN           
  MS5085     CITY OF BRANDON              MS5135     SUSQUEHANNA COMMUNICATIONS




RC1        00035 MSOCS 11/04/02 08:16:00 02110408190062 NORMAL GRID 

=========//  MOCS LOCATE REQUEST  //=========

TICKET NUMBER--[02110408190062]  
OLD TICKET NUM-[]  

MESSAGE TYPE---[NORMAL] LEAD TIME--[20]
PREPARED-------[11/04/02]  AT  [0816]  BY  [SHANNON]

CONTRACTOR--[BILL'S BACKHOLE SERVICE]   CALLER--[BILL WILBERLY]
ADDRESS-----[55 COUNTY 8361]
CITY--------[RIENZI]   STATE--[MS]   ZIP--[38865]
CALL BACK---[]   PHONE--[(662) 728-0811]
CONTACT-----[BILL WILBERLY]   PHONE--[(662) 728-0811]
CONTACT FAX-[]

WORK TO BEGIN--[11/06/02] AT [0830]      STATE--[MS]
COUNTY---[ALCORN]  PLACE--[CORINTH]

ADDRESS--[]   STREET--[][HIGHWAY 72][][]
NEAREST INTERSECTION--------[HIGHWAY 45 ]
LATITUDE--[34.9310638280567]    LONGITUDE--[-88.5554326560009]
SECONDARY LATITUDE--[34.9307478605672]    SECONDARY LONGITUDE--[-88.5473228237716]

ADDITIONAL ADDRESSES IN LOCATION--[N]

LOCATION INFORMATION--
[FROM HWY 45 GO W. ON HWY 72 APPR 1/4 ML. SITE IS ON S. SIDE OF RD. LOC E.     ]
[& S. SIDE OF BUILDING. HIGHWAY 45 IS SAME AS TATE ST.                         ]

WORK TYPE--[WATER, INSTALL LINE]  DONE FOR--[OMLETT HOUSE]
EXTENT-----[1 DAY ]

EXPLOSIVES--[N]    WHITE PAINT--[N]    GRID GIVEN--[N]

MAP REF.--[]
GRIDS-----
          [07E02S03SE       ] [07E02S03SW       ] [07E02S10NE       ] 
          [07E02S10NW       ] 

UTILITIES NOTIFIED--
  CODE       NAME                         CODE       NAME                      
  ---------- --------------------------   ---------- --------------------------
  MS3000     BELLSOUTH, TUPELO            MS4098     CORINTH GAS & WATER DEPT. 
  MS4099     CORINTH SEWER DEPT.          MS6026     NORTH MISS. HEALTH SERV...
  MS9907     LEVEL 3 COMMUNICATIONS     




RC1        00036 MSOCS 11/04/02 08:20:00 02110408200063 NORMAL GRID 

=========//  MOCS LOCATE REQUEST  //=========

TICKET NUMBER--[02110408200063]  
OLD TICKET NUM-[02101708150091]  

MESSAGE TYPE---[NORMAL] LEAD TIME--[20]
PREPARED-------[11/04/02]  AT  [0820]  BY  [ANGELA]

CONTRACTOR--[B & B UTILITIES]   CALLER--[GLEN BODIN]
ADDRESS-----[P O BOX 5386]
CITY--------[BRANDON]   STATE--[MS]   ZIP--[39047]
CALL BACK---[]   PHONE--[(601) 829-4100]
CONTACT-----[GLEN BODIN]   PHONE--[]
CONTACT FAX-[]

WORK TO BEGIN--[11/06/02] AT [0830]      STATE--[MS]
COUNTY---[HINDS]  PLACE--[JACKSON]

ADDRESS--[]   STREET--[][HIGH][ST][]
NEAREST INTERSECTION--------[NORTH ST]
LATITUDE--[32.3042342124246]    LONGITUDE--[-90.1774424809676]
SECONDARY LATITUDE--[32.3029837114218]    SECONDARY LONGITUDE--[-90.168400396794]

ADDITIONAL ADDRESSES IN LOCATION--[N]

LOCATION INFORMATION--
[ALSO CONTACT CALLER FOR SPECIFIC LOCATING @ 842-8041.**   **REMARK**21ST      ]
[REQ. ALL COMP. -DUE TO LINES DESTROYED BY RAIN.** BEGIN LOC. @ INT. OF        ]
[NORTH ST & HIGH ST & CONT EAST ON HIGH ST  APPX 1/2 ML TO 500 FT PAST         ]
[GREYMONT ST. LOC ON BOTH SIDES OF RD & 40 FT OUT.                             ]

WORK TYPE--[ELECTRIC, TRENCHING & SETTING POLES]  DONE FOR--[CITY OF JACKSON]
EXTENT-----[1 YEAR]

EXPLOSIVES--[N]    WHITE PAINT--[N]    GRID GIVEN--[N]

MAP REF.--[]
GRIDS-----
          [01E05N02NW       ] [01E05N02SW       ] [01E05N03NE       ] 
          [01E05N03SE       ] 

UTILITIES NOTIFIED--
  CODE       NAME                         CODE       NAME                      
  ---------- --------------------------   ---------- --------------------------
  MS0042     ENTERGY, DOWNTOWN NETWORK    MS1020     TIME WARNER CABLE, JACKSON
  MS1095     MISSISSIPPI VALLEY GAS,...   MS2007     ADELPHIA BUSINESS SOLUT...
  MS2055     GULF SOUTH PIPELINE COM...   MS3001     BELLSOUTH, JACKSON        
  MS4021     ENTERGY, SOUTH JACKSON       MS5031     AT&T COMMUNICATIONS       
  MS5150     MCI WORLDCOM                 MS6310     E-SPIRE                   




RC1        00037 MSOCS 11/04/02 08:17:00 02110408200066 NORMAL GRID 

=========//  MOCS LOCATE REQUEST  //=========

TICKET NUMBER--[02110408200066]  
OLD TICKET NUM-[]  

MESSAGE TYPE---[NORMAL] LEAD TIME--[20]
PREPARED-------[11/04/02]  AT  [0817]  BY  [MICHELLE]

CONTRACTOR--[ECO RESOURCES]   CALLER--[GARRY SMITH]
ADDRESS-----[6357 HURT RD]
CITY--------[HORN LAKE]   STATE--[MS]   ZIP--[38637]
CALL BACK---[]   PHONE--[(662) 393-4285]
CONTACT-----[GARRY SMITH]   PHONE--[(662) 393-4285]
CONTACT FAX-[(662) 393-4398]

WORK TO BEGIN--[11/06/02] AT [0830]      STATE--[MS]
COUNTY---[DE SOTO]  PLACE--[HORN LAKE]

ADDRESS--[7521]   STREET--[][CRYSTAL][DR][]
NEAREST INTERSECTION--------[DUNBARTON DR]
LATITUDE--[34.9707359295204]    LONGITUDE--[-90.0487418887111]
SECONDARY LATITUDE--[34.9665577038525]    SECONDARY LONGITUDE--[-90.0475247534079]

ADDITIONAL ADDRESSES IN LOCATION--[N]

LOCATION INFORMATION--
[BORING UNDER STREET SETTING WATER METER. LOC. ENTIRE PROPERTY & BOTH SIDES    ]
[OF STREET.                                                                    ]

WORK TYPE--[BACKHOE]  DONE FOR--[CITY OF HORN LAKE]
EXTENT-----[1-2 DAYS]

EXPLOSIVES--[N]    WHITE PAINT--[N]    GRID GIVEN--[Y]

MAP REF.--[]
GRIDS-----
          [08W01S28NE       ] [08W01S28SE       ] 

UTILITIES NOTIFIED--
  CODE       NAME                         CODE       NAME                      
  ---------- --------------------------   ---------- --------------------------
  MS0084     CITY OF HORN LAKE            MS1100     MISSISSIPPI VALLEY GAS,...
  MS2030     TEXAS GAS TRANSMISSION,...   MS3002     BELLSOUTH, MEMPHIS        
  MS4026     ENTERGY, SOUTHAVEN           MS5165     TIME WARNER OF NORTH MI...




RC1        00038 MSOCS 11/02/02 11:14:00 02110211240010 NORMAL GRID RESEND

=========//  MOCS LOCATE REQUEST  //=========

TICKET NUMBER--[02110211240010]  
OLD TICKET NUM-[]  

MESSAGE TYPE---[NORMAL] LEAD TIME--[20]
PREPARED-------[11/02/02]  AT  [1114]  BY  [TENNKISTYV]

CONTRACTOR--[FELLOWSHIP BAPTIST CHURCH]   CALLER--[CHARLES MELTON]
ADDRESS-----[3823 SIWELL RD]
CITY--------[JACKSON]   STATE--[MS]   ZIP--[39212]
CALL BACK---[]   PHONE--[(601) 372-6607]
CONTACT-----[CHARLES MELTON]   PHONE--[(601) 372-6607]
CONTACT FAX-[]

WORK TO BEGIN--[11/06/02] AT [0700]      STATE--[MS]
COUNTY---[RANKIN]  PLACE--[BRAXTON]

ADDRESS--[893]   STREET--[][ROCKHILL][RD][]
NEAREST INTERSECTION--------[HIGHWAY 18]
LATITUDE--[32.1351566218905]    LONGITUDE--[-89.9078830374745]
SECONDARY LATITUDE--[0]    SECONDARY LONGITUDE--[0]

ADDITIONAL ADDRESSES IN LOCATION--[N]

LOCATION INFORMATION--
[INSTL ELEC GATE & WATER LINE. FROM HWY 18 ON ROCKHILL RD GO S APPX 2 MI TO    ]
[ADDR. MARK FRONT OF PROP. WHITE PIPE LAYING TO SHOW AREA.                     ]

WORK TYPE--[OTHER]  DONE FOR--[DR CARL FLOYD]
EXTENT-----[15 MIN]

EXPLOSIVES--[N]    WHITE PAINT--[Y]    GRID GIVEN--[N]

MAP REF.--[]
GRIDS-----
          [04E03N05NE       ] [04E04N32SE       ] 

UTILITIES NOTIFIED--
  CODE       NAME                         CODE       NAME                      
  ---------- --------------------------   ---------- --------------------------
  MS3001     BELLSOUTH, JACKSON           MS3027     SOUTHERN NATURAL GAS, G...




RC1        00039 MSOCS 11/01/02 11:03:00 02110111030371 NORMAL GRID RESEND

=========//  MOCS LOCATE REQUEST  //=========

TICKET NUMBER--[02110111030371]  
OLD TICKET NUM-[]  

MESSAGE TYPE---[NORMAL] LEAD TIME--[20]
PREPARED-------[11/01/02]  AT  [1103]  BY  [MIKELL]

CONTRACTOR--[INDIVIDUAL ]   CALLER--[JOHN MITCHELL]
ADDRESS-----[]
CITY--------[]   STATE--[]   ZIP--[]
CALL BACK---[]   PHONE--[(662) 566-7729]
CONTACT-----[JOHN MITCHELL]   PHONE--[(662) 566-7729]
CONTACT FAX-[]

WORK TO BEGIN--[11/05/02] AT [1115]      STATE--[MS]
COUNTY---[LEE]  PLACE--[TUPELO]

ADDRESS--[1527]   STREET--[][MORNING GLORY ][CIR][]
NEAREST INTERSECTION--------[HUNEY SUCKLE LN]
LATITUDE--[34.2444731762256]    LONGITUDE--[-88.7496613558382]
SECONDARY LATITUDE--[34.2398618050936]    SECONDARY LONGITUDE--[-88.747088696154]

ADDITIONAL ADDRESSES IN LOCATION--[N]

LOCATION INFORMATION--
[LOC REAR OF PROPERTY .                                                        ]

WORK TYPE--[NEW CONSTRUCTION]  DONE FOR--[INDIVIDUAL ]
EXTENT-----[2 DAYS]

EXPLOSIVES--[N]    WHITE PAINT--[N]    GRID GIVEN--[N]

MAP REF.--[]
GRIDS-----
          [05E10S02NW       ] [05E10S02SE       ] [05E10S02SW       ] 

UTILITIES NOTIFIED--
  CODE       NAME                         CODE       NAME                      
  ---------- --------------------------   ---------- --------------------------
  MS1107     MISSISSIPPI VALLEY GAS,...   MS2052     TUPELO WATER DEPARTMENT   
  MS2069     TUPELO ELECTRIC DEPARTMENT   MS3000     BELLSOUTH, TUPELO         
  MS5090     COMCAST CABLE OF TUPELO    




RC1        00040 MSOCS 11/01/02 15:11:00 02110115300597 NORMAL GRID RESEND

=========//  MOCS LOCATE REQUEST  //=========

TICKET NUMBER--[02110115300597]  
OLD TICKET NUM-[]  

MESSAGE TYPE---[NORMAL] LEAD TIME--[20]
PREPARED-------[11/01/02]  AT  [1511]  BY  [AHICKS]

CONTRACTOR--[CENTERPOINT ENERGY ENTEX]   CALLER--[AMY HICK]
ADDRESS-----[104 CROSSPARK DR]
CITY--------[PEARL]   STATE--[MS]   ZIP--[39208]
CALL BACK---[]   PHONE--[(601) 936-0222]
CONTACT-----[MARK DENNAN]   PHONE--[(601) 936-0222]
CONTACT FAX-[]

WORK TO BEGIN--[11/05/02] AT [1515]      STATE--[MS]
COUNTY---[RANKIN]  PLACE--[BRANDON]

ADDRESS--[406]   STREET--[][WIMBLEDON ][DR][]
NEAREST INTERSECTION--------[FANNIN LANDING CIR]
LATITUDE--[32.4286689758301]    LONGITUDE--[-89.9866714477539]
SECONDARY LATITUDE--[32.4213790893555]    SECONDARY LONGITUDE--[-89.9781188964844]

ADDITIONAL ADDRESSES IN LOCATION--[N]

LOCATION INFORMATION--
[ROADBOAR LOCATE ENTIRE LOT 1  &  BOTH SIDES OF RD                             ]
[BUCKINGHAM SUB                                                                ]

WORK TYPE--[GAS]  DONE FOR--[CENTERPOINT ENERGY ENTEX]
EXTENT-----[1 DAY]

EXPLOSIVES--[N]    WHITE PAINT--[N]    GRID GIVEN--[Y]

MAP REF.--[]
GRIDS-----
          [03E07N27NW       ] 

UTILITIES NOTIFIED--
  CODE       NAME                         CODE       NAME                      
  ---------- --------------------------   ---------- --------------------------
  MS1058     CENTERPOINT ENERGY ENTE...   MS3001     BELLSOUTH, JACKSON        
  MS5135     SUSQUEHANNA COMMUNICATIONS   MS5170     CENTRAL ELECTRIC POWER ...




+++.yS?wG"v%
