BEC01  00059 NCOCa 02/07/02 09:09:46 A0063389-00A NORM NEW STRT

North Carolina One Call

Ticket : A0063389 Date: 02/07/02 Time: 09:02 Oper: ELW Chan:999
Old Tkt: A0063389 Date: 02/07/02 Time: 09:07 Oper: ELW Rev :00A

State: NC Cnty: MECKLENBURG Place: CHARLOTTE OUT In/Out: B
Subdivision: EASTFIELD CHRISTAIN CURCH

Address : 11901
Street  : EASTFIELD RD   Intersection: Y
Cross 1 : OLD STATESVILLE RD
Location: INT   CALLER WOULD LIKE TO SCHEDULE A MEET FOR MONDAY 2-11-02 AT
9:15AM CALLER WILL SHOW YOU THE AREA TO BE LOCATED AT THE TIME OF THE MEET
:
Grids   :

Work type:UG ELECRRICAL
Work date:02/11/02  Time: 09:02  Hours notice: 96/48  Priority: NORM
Ug/Oh/Both: U  Blasting: N  Boring: N  Railroad: N     Emergency: N
Duration: 1 DAY  Done for: EASTVILLE CHURCH

Company : ELECTRICAL CONSTRUTION AND DESIGN  Type: CONT
Co addr : 4455-I MORRIS PARK DR
City    : CHARLOTTE State: NC
Caller  : FRANK REAGAN Phone: 704-573-3412
BestTime:

Submitted date: 02/07/02 Time: 09:07
Members: ABS01* ATT01  BEC01  CHA01  CSR01  CSR02  CTC02* DPC1L* ETS01  MCI01
Members: MCT02* NOC30P PLP01  PNG02* QST01  SBT31* USS01  VCN01*

BEC01  00063 NCOCa 02/07/02 09:10:05 A0063389-01A NORM RXMT STRT

North Carolina One Call

Ticket : A0063389 Date: 02/07/02 Time: 09:08 Oper: ELW Chan:
Old Tkt: A0063389 Date: 02/07/02 Time: 09:07 Oper: ELW Rev :01A

State: NC Cnty: MECKLENBURG Place: CHARLOTTE OUT In/Out: B
Subdivision: EASTFIELD CHRISTAIN CURCH

Address : 11901
Street  : EASTFIELD RD   Intersection: Y
Cross 1 : OLD STATESVILLE RD
Location: INT   CALLER WOULD LIKE TO SCHEDULE A MEET FOR MONDAY 2-11-02 AT
9:15AM CALLER WILL SHOW YOU THE AREA TO BE LOCATED AT THE TIME OF THE MEET
:
Grids   :

Work type:UG ELECRRICAL
Work date:02/11/02  Time: 09:02  Hours notice: 96/48  Priority: NORM
Ug/Oh/Both: U  Blasting: N  Boring: N  Railroad: N     Emergency: N
Duration: 1 DAY  Done for: EASTVILLE CHURCH

Company : ELECTRICAL CONSTRUTION AND DESIGN  Type: CONT
Co addr : 4455-I MORRIS PARK DR
City    : CHARLOTTE State: NC
Caller  : FRANK REAGAN Phone: 704-573-3412
BestTime:

Remarks : PLEASE CALL CHRIS ALLEN WILL BE ON THE JOB SITE FROM 7AM TO 3:30 PM IF
THERE ARE ANY QUESTIONS PHONE #  704-806-8424 --ELW 02/07/2002 09:08AM
:
Submitted date: 02/07/02 Time: 09:09
Members: ABS01* ATT01  BEC01  CHA01  CSR01  CSR02  CTC02* DPC1L* ETS01  MCI01
Members: MCT02* NOC30P PLP01  PNG02* QST01  SBT31* USS01  VCN01*


