MOBG01 *SUM* AOC 10/11/02 17:15:54

***************************************************************************
*                  NOW ENDING TRANSMISSION FOR TODAY                      *
*                  IF ERRORS, PLEASE CALL THE CENTER                      *
***************************************************************************

00001 0282107-000 07:20   00002 0282150-000 07:36   00003 0282154-000 07:42
00004 0282194-000 07:57 R 00005 0282196-000 07:58 R 00006 0282199-000 08:01
00007 0282202-000 08:04   00008 0282203-000 08:06   00009 0282206-000 08:06
00010 0282251-000 08:21   00011 0282254-000 08:22   00012 0282260-000 08:25
00013 0282269-000 08:29   00014 0282272-000 08:30   00015 0282286-000 08:34
00016 0282287-000 08:34   00017 0282292-000 08:38   00018 0282365-000 08:53
00019 0282363-000 08:53   00020 0282404-000 09:02 R 00021 0282433-000 09:12 R
00022 0282469-000 09:33   00023 0282535-000 09:59 R 00024 0282538-000 10:02
00025 0282539-000 10:02   00026 0282541-000 10:03   00027 0282544-000 10:04
00028 0282556-000 10:12   00029 0282558-000 10:12   00030 0282560-000 10:12
00031 0279051-001 10:24 R 00032 0282610-000 10:28   00033 0282636-000 10:45
00034 0282641-000 10:47   00035 0282644-000 10:49   00036 0282725-000 11:24
00037 0282726-000 11:25   00038 0282757-000 11:57   00039 0282782-000 12:22
00040 0282783-000 12:22   00041 0282786-000 12:23   00042 0282803-000 12:33
00043 0282757-001 12:35 C 00044 0282812-000 12:38   00045 0282820-000 12:45
00046 0282825-000 12:46   00047 0282828-000 12:52   00048 0282854-000 13:08
00049 0282907-000 13:32   00050 0282928-000 13:45   00051 0282936-000 13:48
00052 0282942-000 13:55   00053 0282955-000 14:11   00054 0282975-000 14:18
00055 0282983-000 14:28   00056 0282989-000 14:28   00057 0282990-000 14:28
00058 0282993-000 14:28   00059 0282995-000 14:28   00060 0282999-000 14:28
00061 0283002-000 14:28   00062 0283075-000 14:59   00063 0283077-000 15:01
00064 0283075-001 15:01 R 00065 0283090-000 15:13   00066 0283096-000 15:14 R
00067 0283077-001 15:25 R 00068 0283075-002 15:26 R 00069 0283111-000 15:29
00070 0283154-000 15:55   00071 0283159-000 15:56   00072 0283187-000 16:13 R
00073 0283188-000 16:13 R 00074 0283190-000 16:14 R 00075 0283191-000 16:14 R
00076 0283203-000 16:34   00077 0283209-000 16:37

Total: 77































MOBL01 *SUM* AOC 10/11/02 17:16:14

***************************************************************************
*                  NOW ENDING TRANSMISSION FOR TODAY                      *
*                  IF ERRORS, PLEASE CALL THE CENTER                      *
***************************************************************************

00001 0282107-000 07:21   00002 0282150-000 07:52   00003 0282199-000 08:13
00004 0282194-000 08:13 R 00005 0282196-000 08:13 R 00006 0282254-000 08:38
00007 0282269-000 08:38   00008 0282272-000 08:38   00009 0282287-000 08:38
00010 0282292-000 08:38   00011 0282433-000 09:28 R 00012 0282535-000 10:15 R
00013 0282541-000 10:15   00014 0282725-000 11:40   00015 0282726-000 11:40
00016 0282786-000 12:39   00017 0282803-000 12:39   00018 0282812-000 12:40
00019 0282820-000 13:00   00020 0282825-000 13:00   00021 0282828-000 13:00
00022 0282854-000 13:24   00023 0282942-000 14:11   00024 0282975-000 14:33
00025 0282983-000 14:34   00026 0282989-000 14:34   00027 0282990-000 14:34
00028 0282993-000 14:34   00029 0282995-000 14:34   00030 0283075-001 15:04 R
00031 0283075-000 15:04   00032 0283077-000 15:04   00033 0283090-000 15:15
00034 0283096-000 15:15 R 00035 0283077-001 15:26 R 00036 0283075-002 15:26 R
00037 0283111-000 15:31   00038 0283154-000 15:56   00039 0283187-000 16:13 R
00040 0283188-000 16:13 R 00041 0283190-000 16:17 R 00042 0283191-000 16:17 R

Total: 42











































SCMB01 *SUM* AOC 10/11/02 17:16:27

***************************************************************************
*                  NOW ENDING TRANSMISSION FOR TODAY                      *
*                  IF ERRORS, PLEASE CALL THE CENTER                      *
***************************************************************************

00001 0282107-000 07:21   00002 0282135-000 07:38   00003 0282150-000 07:38
00004 0282154-000 07:54   00005 0282209-000 08:11   00006 0282199-000 08:12
00007 0282194-000 08:12 R 00008 0282196-000 08:13 R 00009 0282206-000 08:14
00010 0282246-000 08:32   00011 0282251-000 08:32   00012 0282254-000 08:33
00013 0282259-000 08:33   00014 0282260-000 08:34   00015 0282269-000 08:35
00016 0282272-000 08:35   00017 0282282-000 08:36 R 00018 0282284-000 08:45 R
00019 0282287-000 08:45   00020 0282289-000 08:46 R 00021 0282292-000 08:46
00022 0282293-000 08:47 R 00023 0282295-000 08:48 R 00024 0282297-000 08:48 R
00025 0282299-000 08:49 R 00026 0282365-000 08:57   00027 0282313-000 08:57
00028 0282316-000 08:58   00029 0282319-000 08:58   00030 0282333-000 08:59
00031 0282340-000 08:59   00032 0282343-000 09:00   00033 0282348-000 09:00
00034 0282349-000 09:01   00035 0282355-000 09:12   00036 0282363-000 09:13
00037 0282378-000 09:14   00038 0282396-000 09:14   00039 0282404-000 09:15 R
00040 0282433-000 09:16 R 00041 0282469-000 09:45   00042 0282473-000 09:46 R
00043 0282475-000 09:47 R 00044 0282478-000 09:48 R 00045 0282479-000 09:48 R
00046 0282522-000 10:11 R 00047 0282526-000 10:11 R 00048 0282535-000 10:12 R
00049 0282539-000 10:13   00050 0282541-000 10:14   00051 0282544-000 10:14
00052 0282550-000 10:15 R 00053 0279051-001 10:26 R 00054 0282551-000 10:26
00055 0282556-000 10:27   00056 0282558-000 10:28   00057 0282560-000 10:29
00058 0282572-000 10:29   00059 0282605-000 10:30   00060 0282610-000 10:41
00061 0282636-000 10:57   00062 0282641-000 10:58   00063 0282644-000 10:58
00064 0282673-000 10:59   00065 0282725-000 11:39   00066 0282726-000 11:39
00067 0282757-000 12:11   00068 0282757-001 12:46 C 00069 0282780-000 12:46
00070 0282782-000 12:47   00071 0282783-000 12:48   00072 0282786-000 12:48
00073 0282788-000 12:49   00074 0282792-000 12:49   00075 0282803-000 12:50
00076 0282812-000 13:01   00077 0282818-000 13:02 R 00078 0282820-000 13:02
00079 0282821-000 13:03 R 00080 0282822-000 13:04 R 00081 0282824-000 13:04 R
00082 0282825-000 13:05   00083 0282855-000 13:07   00084 0282828-000 13:07
00085 0282854-000 13:08   00086 0282862-001 13:22 R 00087 0282862-000 13:23
00088 0282907-000 13:42   00089 0282910-000 13:43   00090 0282928-000 13:56
00091 0282936-000 13:57   00092 0282942-000 13:58   00093 0282943-000 13:58
00094 0282946-001 14:08 C 00095 0282945-000 14:09   00096 0282955-000 14:09
00097 0282946-000 14:10   00098 0282948-000 14:11   00099 0282949-000 14:11
00100 0282975-000 14:27   00101 0282983-000 14:27   00102 0282988-000 14:28
00103 0282989-000 14:29   00104 0282990-000 14:29   00105 0282991-000 14:30
00106 0282993-000 14:30   00107 0282995-000 14:31   00108 0282999-000 14:31
00109 0283002-000 14:42   00110 0283046-000 15:01   00111 0283075-001 15:02 R
00112 0283075-000 15:03   00113 0283077-000 15:03   00114 0283085-000 15:11
00115 0283090-000 15:16   00116 0283096-000 15:16 R 00117 0283077-001 15:29 R
00118 0283075-002 15:29 R 00119 0283111-000 15:53   00120 0283113-000 15:54
00121 0283143-000 15:54   00122 0283150-000 15:55   00123 0283154-000 16:21
00124 0283159-000 16:21   00125 0283162-000 16:22   00126 0283187-000 16:23 R
00127 0283188-000 16:23 R 00128 0283190-000 16:24 R 00129 0283191-000 16:24 R
00130 0283200-000 16:25   00131 0283203-000 16:38   00132 0283209-000 16:38
00133 0283212-000 16:49   00134 0283213-000 16:50   00135 0283214-000 16:50
00136 0283215-000 16:51   00137 0283221-000 16:52   00138 0283222-000 16:57

Total: 138











BGSC01 *SUM* AOC 10/11/02 17:17:00

***************************************************************************
*                  NOW ENDING TRANSMISSION FOR TODAY                      *
*                  IF ERRORS, PLEASE CALL THE CENTER                      *
***************************************************************************

00001 0282539-000 10:02   00002 0282780-000 12:16

Total: 2
























































BEMC01 *SUM* AOC 10/11/02 17:17:04

***************************************************************************
*                  NOW ENDING TRANSMISSION FOR TODAY                      *
*                  IF ERRORS, PLEASE CALL THE CENTER                      *
***************************************************************************

00001 0282188-000 08:08   00002 0282373-000 09:12   00003 0282378-000 09:12
00004 0282403-000 09:12   00005 0282409-000 09:13   00006 0282478-000 09:52 R
00007 0282532-000 10:14   00008 0282620-000 10:49   00009 0282766-000 12:13
00010 0282767-000 12:13   00011 0282782-000 12:36   00012 0282790-000 12:37
00013 0282793-000 12:37   00014 0282798-000 12:37   00015 0282801-000 12:37
00016 0282804-000 12:37   00017 0282805-000 12:37   00018 0282806-000 12:37
00019 0282808-000 12:37   00020 0282810-000 12:38   00021 0282811-000 12:54
00022 0282814-000 12:54   00023 0282816-000 12:54 R 00024 0282908-000 13:48
00025 0282910-000 13:48   00026 0282946-001 14:04 C 00027 0282939-000 14:04
00028 0282943-000 14:04   00029 0282945-000 14:04   00030 0282946-000 14:04
00031 0282948-000 14:05   00032 0282988-000 14:36   00033 0282991-000 14:36
00034 0283053-000 15:02   00035 0283080-000 15:08   00036 0283081-000 15:09
00037 0283087-000 15:12   00038 0283124-000 15:38   00039 0283165-000 16:03
00040 0283166-000 16:03   00041 0283168-000 16:05   00042 0283170-000 16:05
00043 0283171-000 16:05   00044 0283172-000 16:07   00045 0283174-000 16:07
00046 0283175-000 16:08   00047 0283176-000 16:08   00048 0283178-000 16:09
00049 0283179-000 16:09   00050 0283181-000 16:11   00051 0283182-000 16:11
00052 0283183-000 16:12   00053 0283184-000 16:12   00054 0283185-000 16:12
00055 0283186-000 16:13   00056 0283192-000 16:15   00057 0283193-000 16:16
00058 0283194-000 16:16   00059 0283222-000 16:55

Total: 59





































CASO01 *SUM* AOC 10/11/02 17:17:21

***************************************************************************
*                  NOW ENDING TRANSMISSION FOR TODAY                      *
*                  IF ERRORS, PLEASE CALL THE CENTER                      *
***************************************************************************

00001 0282522-000 10:14 R 00002 0282526-000 10:15 R 00003 0282544-000 10:15
00004 0282550-000 10:16 R

Total: 4























































MOBL02 *SUM* AOC 10/11/02 17:17:25

***************************************************************************
*                  NOW ENDING TRANSMISSION FOR TODAY                      *
*                  IF ERRORS, PLEASE CALL THE CENTER                      *
***************************************************************************

00001 0282107-000 07:21   00002 0282150-000 07:52   00003 0282199-000 08:13
00004 0282194-000 08:13 R 00005 0282196-000 08:14 R 00006 0282254-000 08:38
00007 0282269-000 08:38   00008 0282272-000 08:39   00009 0282287-000 08:39
00010 0282292-000 08:39   00011 0282365-000 08:55   00012 0282433-000 09:30 R
00013 0282541-000 10:21   00014 0282558-000 10:21   00015 0282725-000 11:40
00016 0282726-000 11:40   00017 0282786-000 12:39   00018 0282803-000 12:39
00019 0282812-000 12:40   00020 0282820-000 13:03   00021 0282825-000 13:03
00022 0282828-000 13:03   00023 0282854-000 13:21   00024 0282942-000 14:12
00025 0282975-000 14:36   00026 0282983-000 14:37   00027 0282989-000 14:37
00028 0282990-000 14:38   00029 0282993-000 14:38   00030 0282995-000 14:39
00031 0283002-000 14:39   00032 0283075-001 15:06 R 00033 0283075-000 15:07
00034 0283077-000 15:07   00035 0283090-000 15:15   00036 0283096-000 15:17 R
00037 0283077-001 15:26 R 00038 0283075-002 15:26 R 00039 0283111-000 15:30
00040 0283154-000 15:56   00041 0283187-000 16:13 R 00042 0283188-000 16:14 R
00043 0283190-000 16:16 R 00044 0283191-000 16:16 R

Total: 44










































BYER04 *EOD* AOC 10/11/02 17:17:39

***************************************************************************
*                  NOW ENDING TRANSMISSION FOR TODAY                      *
*                  IF ERRORS, PLEASE CALL THE CENTER                      *
***************************************************************************

00001 0282107-000 07:21   00002 0282135-000 07:42   00003 0282150-000 07:42
00004 0282154-000 07:42   00005 0282209-000 08:07   00006 0282199-000 08:07
00007 0282188-000 08:07   00008 0282194-000 08:08 R 00009 0282196-000 08:08 R
00010 0282202-000 08:08   00011 0282203-000 08:08   00012 0282206-000 08:08
00013 0282246-000 08:35   00014 0282251-000 08:35   00015 0282254-000 08:35
00016 0282259-000 08:35   00017 0282260-000 08:35   00018 0282269-000 08:35
00019 0282272-000 08:35   00020 0282282-000 08:36 R 00021 0282284-000 08:36 R
00022 0282286-000 08:36   00023 0282287-000 08:36   00024 0282289-000 08:51 R
00025 0282292-000 08:51   00026 0282293-000 08:51 R 00027 0282295-000 08:51 R
00028 0282297-000 08:51 R 00029 0282299-000 08:52 R 00030 0282313-000 08:52
00031 0282316-000 08:52   00032 0282319-000 08:52   00033 0282333-000 08:52
00034 0282340-000 08:52   00035 0282343-000 08:52   00036 0282348-000 08:53
00037 0282349-000 08:53   00038 0282365-000 08:53   00039 0282355-000 08:53
00040 0282363-000 08:53   00041 0275657-001 09:12 Y 00042 0282373-000 09:12
00043 0282378-000 09:12   00044 0282396-000 09:13   00045 0282403-000 09:13
00046 0282404-000 09:13 R 00047 0282409-000 09:13   00048 0282433-000 09:13 R
00049 0282469-000 09:49   00050 0282473-000 09:49 R 00051 0282475-000 09:49 R
00052 0282478-000 09:49 R 00053 0282479-000 09:49 R 00054 0282522-000 10:12 R
00055 0282526-000 10:12 R 00056 0282532-000 10:12   00057 0282535-000 10:12 R
00058 0282538-000 10:12   00059 0282539-000 10:13   00060 0282541-000 10:13
00061 0282544-000 10:13   00062 0282550-000 10:13 R 00063 0282551-000 10:13
00064 0282556-000 10:13   00065 0282558-000 10:14   00066 0282560-000 10:14
00067 0279051-001 10:26 R 00068 0282572-000 10:26   00069 0282605-000 10:26
00070 0282610-000 10:44   00071 0282620-000 10:44   00072 0282636-000 11:01
00073 0282641-000 11:01   00074 0282644-000 11:01   00075 0282673-000 11:01
00076 0282725-000 11:40   00077 0282726-000 11:40   00078 0282757-000 12:11
00079 0282766-000 12:11   00080 0282767-000 12:12   00081 0282780-000 12:30
00082 0282782-000 12:30   00083 0282783-000 12:30   00084 0282786-000 12:30
00085 0282788-000 12:30   00086 0282790-000 12:31   00087 0282792-000 12:31
00088 0282793-000 12:31   00089 0282798-000 12:31   00090 0282757-001 12:35 C
00091 0282801-000 12:35   00092 0282803-000 12:35   00093 0282804-000 12:35
00094 0282805-000 12:35   00095 0282806-000 12:36   00096 0282808-000 12:36
00097 0282810-000 12:52   00098 0282811-000 12:52   00099 0282812-000 12:52
00100 0282814-000 12:52   00101 0282816-000 12:53 R 00102 0282818-000 12:53 R
00103 0282820-000 12:53   00104 0282821-000 12:53 R 00105 0282822-000 12:53 R
00106 0282824-000 12:54 R 00107 0282825-000 12:54   00108 0282828-000 12:54
00109 0282855-000 13:06   00110 0282854-000 13:06   00111 0282862-001 13:19 R
00112 0282862-000 13:20   00113 0282907-000 13:47   00114 0282908-000 13:47
00115 0282910-000 13:47   00116 0282928-000 13:47   00117 0282946-001 14:06 C
00118 0282936-000 14:06   00119 0282939-000 14:06   00120 0282942-000 14:06
00121 0282943-000 14:07   00122 0282945-000 14:07   00123 0282946-000 14:07
00124 0282948-000 14:07   00125 0282949-000 14:07   00126 0282955-000 14:09
00127 0282975-000 14:35   00128 0282983-000 14:35   00129 0282988-000 14:35
00130 0282989-000 14:35   00131 0282990-000 14:35   00132 0282991-000 14:35
00133 0282993-000 14:36   00134 0282995-000 14:36   00135 0282999-000 14:36
00136 0283002-000 14:36   00137 0283075-001 15:02 R 00138 0283046-000 15:02
00139 0283053-000 15:02   00140 0283075-000 15:03   00141 0283077-000 15:03
00142 0283080-000 15:08   00143 0283081-000 15:09   00144 0283085-000 15:11
00145 0283087-000 15:15   00146 0283090-000 15:15   00147 0283096-000 15:15 R
00148 0283077-001 15:26 R 00149 0283075-002 15:26 R 00150 0283111-000 15:31
00151 0283113-000 15:31   00152 0283124-000 15:38   00153 0283143-000 15:53
00154 0283150-000 15:54   00155 0283154-000 15:56   00156 0283159-000 15:56
00157 0283162-000 16:01   00158 0283165-000 16:03   00159 0283166-000 16:03
00160 0283168-000 16:06   00161 0283170-000 16:06   00162 0283171-000 16:06
00163 0283172-000 16:07   00164 0283174-000 16:07   00165 0277698-002 16:07 R
00166 0283175-000 16:07   00167 0283176-000 16:08   00168 0283178-000 16:09
00169 0283179-000 16:10   00170 0283181-000 16:11   00171 0283182-000 16:11
00172 0283183-000 16:11   00173 0283184-000 16:12   00174 0283185-000 16:12
00175 0283186-000 16:12   00176 0283187-000 16:13 R 00177 0283188-000 16:14 R
00178 0283190-000 16:14 R 00179 0283191-000 16:15 R 00180 0283192-000 16:15
00181 0283193-000 16:16   00182 0283194-000 16:17   00183 0283200-000 16:24
00184 0283203-000 16:35   00185 0283209-000 16:38   00186 0283212-000 16:45
00187 0283213-000 16:47   00188 0283214-000 16:48   00189 0283215-000 16:48
00190 0283221-000 16:51   00191 0283222-000 16:55

Total: 191



























































