


-----Original Message-----
From: tickets@sc1pups.org [mailto:tickets@sc1pups.org]
Sent: Monday, April 29, 2002 2:25 AM
To: Avis Johnson
Subject: PUPS Audit for TWGZ98 for the day of 4/28/02


 

PUPS DAILY AUDITS for TWGZ98 on 04/28/2002


Notice#        Sequence#  Notice Type    Status      Last Action  Method 
Sent         
=========================
=========================
=========================
===========

TOTAL AUDITS for 04/28/2002 = 0

 





-----Original Message-----
From: tickets@sc1pups.org [mailto:tickets@sc1pups.org]
Sent: Sunday, April 28, 2002 2:27 AM
To: Avis Johnson
Subject: PUPS Audit for TWJZ54 for the day of 4/27/02


 

PUPS DAILY AUDITS for TWJZ54 on 04/27/2002


Notice#        Sequence#  Notice Type    Status      Last Action  Method 
Sent         
=========================
=========================
=========================
===========

TOTAL AUDITS for 04/27/2002 = 0

 





-----Original Message-----
From: tickets@sc1pups.org [mailto:tickets@sc1pups.org]
Sent: Saturday, April 27, 2002 5:05 AM
To: Avis Johnson
Subject: PUPS Audit for TWJZ54 for the day of 4/26/02


 

PUPS DAILY AUDITS for TWJZ54 on 04/26/2002


Notice#        Sequence#  Notice Type    Status      Last Action  Method 
Sent         
=========================
=========================
=========================
===========
0000002137210        001  NORMAL         SENT        SUBMITTED    
EMAILTEXT
0000002131478        002  NORMAL         SENT        SUBMITTED    
EMAILTEXT
0000002137677        003  NORMAL         SENT        SUBMITTED    
EMAILTEXT
0000002137680        004  NORMAL         SENT        SUBMITTED    
EMAILTEXT
0000002137799        005  NORMAL         SENT        SUBMITTED    
EMAILTEXT
0000002137822        006  NORMAL         SENT        SUBMITTED    
EMAILTEXT
0000002137844        007  NORMAL         SENT        SUBMITTED    
EMAILTEXT
0000002119000        008  NORMAL         SENT        UPDATED      
EMAILTEXT
0000002138035        009  NORMAL         SENT        SUBMITTED    
EMAILTEXT
0000002138199        010  NORMAL         SENT        SUBMITTED    
EMAILTEXT
0000002138225        011  NORMAL         SENT        SUBMITTED    
EMAILTEXT
0000002138230        012  NORMAL         SENT        SUBMITTED    
EMAILTEXT
0000002138236        013  NORMAL         SENT        SUBMITTED    
EMAILTEXT

TOTAL AUDITS for 04/26/2002 = 13

 





-----Original Message-----
From: tickets@sc1pups.org [mailto:tickets@sc1pups.org]
Sent: Tuesday, April 30, 2002 7:21 AM
To: Avis Johnson
Subject: PUPS Audit for TWJZ54 for the day of 4/29/02


 

PUPS DAILY AUDITS for TWJZ54 on 04/29/2002


Notice#        Sequence#  Notice Type    Status      Last Action  Method 
Sent         
=========================
=========================
=========================
===========
0000002138595        001  NORMAL         SENT        SUBMITTED    
EMAILTEXT
0000002138725        002  NORMAL         SENT        SUBMITTED    
EMAILTEXT
0000002138847        003  NORMAL         SENT        SUBMITTED    
EMAILTEXT
0000002138861        004  NORMAL         SENT        SUBMITTED    
EMAILTEXT
0000002138871        005  NORMAL         SENT        SUBMITTED    
EMAILTEXT
0000002138876        006  NORMAL         SENT        SUBMITTED    
EMAILTEXT
0000002138888        007  NORMAL         SENT        SUBMITTED    
EMAILTEXT
0000002138980        008  NORMAL         SENT        SUBMITTED    
EMAILTEXT
0000002004799        009  NORMAL         SENT        UPDATED      
EMAILTEXT
0000002004812        010  NORMAL         SENT        UPDATED      
EMAILTEXT
0000002004830        011  NORMAL         SENT        UPDATED      
EMAILTEXT
0000002004833        012  NORMAL         SENT        UPDATED      
EMAILTEXT
0000002004837        013  NORMAL         SENT        UPDATED      
EMAILTEXT
0000002004844        014  NORMAL         SENT        UPDATED      
EMAILTEXT
0000002004850        015  NORMAL         SENT        UPDATED      
EMAILTEXT
0000002004855        016  NORMAL         SENT        UPDATED      
EMAILTEXT
0000002004861        017  NORMAL         SENT        UPDATED      
EMAILTEXT
0000002038343        018  NORMAL         SENT        UPDATED      
EMAILTEXT
0000002139130        019  NORMAL         SENT        SUBMITTED    
EMAILTEXT
0000002139152        020  NORMAL         SENT        SUBMITTED    
EMAILTEXT
0000002139165        021  NORMAL         SENT        SUBMITTED    
EMAILTEXT
0000002139174        022  NORMAL         SENT        SUBMITTED    
EMAILTEXT
0000002139542        023  NORMAL         SENT        SUBMITTED    
EMAILTEXT
0000002139621        024  NORMAL         SENT        SUBMITTED    
EMAILTEXT
0000002121558        025  NORMAL         SENT        UPDATED      
EMAILTEXT
0000002139792        026  NORMAL         SENT        SUBMITTED    
EMAILTEXT
0000002139798        027  NORMAL         SENT        SUBMITTED    
EMAILTEXT
0000002140074        028  NORMAL         SENT        SUBMITTED    
EMAILTEXT
0000002140078        029  NORMAL         SENT        SUBMITTED    
EMAILTEXT
0000002140261        030  NORMAL         SENT        SUBMITTED    
EMAILTEXT
0000002140263        031  NORMAL         SENT        SUBMITTED    
EMAILTEXT
0000002140266        032  NORMAL         SENT        SUBMITTED    
EMAILTEXT
0000002140269        033  NORMAL         SENT        SUBMITTED    
EMAILTEXT
0000002140272        034  NORMAL         SENT        SUBMITTED    
EMAILTEXT
0000002140274        035  NORMAL         SENT        SUBMITTED    
EMAILTEXT
0000002140276        036  NORMAL         SENT        SUBMITTED    
EMAILTEXT
0000002140277        037  NORMAL         SENT        SUBMITTED    
EMAILTEXT
0000002140280        038  NORMAL         SENT        SUBMITTED    
EMAILTEXT
0000002140282        039  NORMAL         SENT        SUBMITTED    
EMAILTEXT
0000002140287        040  NORMAL         SENT        SUBMITTED    
EMAILTEXT
0000002140291        041  NORMAL         SENT        SUBMITTED    
EMAILTEXT
0000002140453        042  NORMAL         SENT        SUBMITTED    
EMAILTEXT
0000002140455        043  NORMAL         SENT        SUBMITTED    
EMAILTEXT
0000002140456        044  NORMAL         SENT        SUBMITTED    
EMAILTEXT

TOTAL AUDITS for 04/29/2002 = 44

 


