
ZZAP12 *SUM* VUPSa 06/24/02 15:11:16

********************************************************************************
        THIS IS YOUR END OF DAY TICKET SUMMARY FOR 06/21/02 FROM VUPS
********************************************************************************

03268 A217200071-00A 08:42   03269 A217200072-00A 08:43
03270 A217200073-00A 08:44   03271 A217200074-00A 08:45
03272 A217200075-00A 08:46   03273 A217200076-00A 08:46
03274 A217200078-00A 08:48   03275 A217200079-00A 08:48
03276 A217200081-00A 08:53   03277 A217200082-00A 08:53
03278 A217200083-00A 08:53   03279 A217200084-00A 08:53
03280 A217200085-00A 08:53   03281 A217200086-00A 08:54
03282 A217200087-00A 08:55   03283 A217200088-00A 08:55
03284 A217200089-00A 08:55   03285 A217200090-00A 08:56
03286 0215500312-00A 08:57   03287 A217200093-00A 08:58
03288 A217200094-00A 08:59   03289 A217200095-00A 08:59
03290 A217200096-00A 09:00   03291 A217200098-00A 09:01
03292 A217200099-00A 09:02   03293 A217200100-00A 09:02
03294 A217200101-00A 09:02   03295 A217200102-00A 09:02
03296 A217200103-00A 09:04   03297 A217200104-00A 09:04
03298 A217200105-00A 09:04   03299 A217200106-00A 09:04
03300 A217200109-00A 09:05   03301 A217200110-00A 09:06
03302 A217200111-00A 09:06   03303 A217200112-00A 09:07
03304 A217200113-00A 09:08   03305 A217200114-00A 09:10
03306 A217200115-00A 09:11   03307 A217200116-00A 09:11
03308 A217200118-00A 09:12   03309 A217200119-00A 09:12
03310 A217200120-00A 09:12   03311 A217200121-00A 09:12
03312 A217200122-00A 09:13   03313 A217200123-00A 09:15
03314 A217200125-00A 09:16   03315 A217200127-00A 09:17
03316 A217200128-00A 09:17   03317 A217200129-00A 09:20
03318 A217200130-00A 09:21   03319 A217200131-00A 09:22
03320 A217200133-00A 09:22   03321 A217200134-00A 09:22
03322 A217200137-00A 09:23   03323 A217200136-00A 09:23
03324 A217200138-00A 09:24   03325 A217200139-00A 09:25
03326 A217200140-00A 09:26   03327 A217200141-00A 09:26
03328 A217200143-00A 09:27   03329 A217200144-00A 09:27
03330 A217200145-00A 09:29   03331 A217200146-00A 09:30
03332 A217200147-00A 09:31   03333 A217200148-00A 09:31
03334 A217200128-01A 09:33   03335 A217200150-00A 09:34
03336 A217200152-00A 09:35   03337 A217200154-00A 09:35
03338 A217200155-00A 09:36   03339 A217200156-00A 09:36
03340 A217200157-00A 09:37   03341 A217200158-00A 09:38 R
03342 A217200159-00A 09:39   03343 A217200160-00A 09:39
03344 A217200161-00A 09:39   03345 A217200162-00A 09:40
03346 A217200164-00A 09:41   03347 A217200165-00A 09:42
03348 A217200166-00A 09:43   03349 A217200167-00A 09:44
03350 A217200168-00A 09:44   03351 A217200169-00A 09:44
03352 A217200170-00A 09:44   03353 A217200171-00A 09:45
03354 A216900094-01A 09:47   03355 A217200173-00A 09:48
03356 A217200174-00A 09:49   03357 A217200176-00A 09:50
03358 A216900161-01A 09:51 C 03359 A217200178-00A 09:52
03360 A217200179-00A 09:53   03361 A217200180-00A 09:54
03362 A217200181-00A 09:54   03363 A217200184-00A 09:56
03364 A217200185-00A 09:56   03365 A217200187-00A 09:58
03366 A217200188-00A 09:58   03367 A217200189-00A 09:59
03368 A216400465-01A 10:00   03369 A217200190-00A 10:01
03370 A217200192-00A 10:03   03371 A217200193-00A 10:06
03372 A217200195-00A 10:08   03373 A217200196-00A 10:08
03374 A217200197-00A 10:09   03375 A217200198-00A 10:11
03376 A217200011-01A 10:13   03377 A216800506-01A 10:14 C
03378 A217200199-00A 10:15   03379 A217200200-00A 10:15
03380 A217200201-00A 10:15   03381 A217200202-00A 10:15
03382 A217200203-00A 10:16   03383 A216500023-01A 10:17 C
03384 A217200204-00A 10:17   03385 A217200205-00A 10:18
03386 A216800322-02A 10:18 C 03387 A217200206-00A 10:18
03388 A217200207-00A 10:19   03389 A217200208-00A 10:20
03390 A217200209-00A 10:20   03391 A217200211-00A 10:21
03392 A216800300-01A 10:22   03393 A217200212-00A 10:22
03394 A217200213-00A 10:24   03395 A217200214-00A 10:24
03396 A217200215-00A 10:24   03397 A217200216-00A 10:24 R
03398 A217200218-00A 10:25   03399 A217200219-00A 10:27
03400 A217200220-00A 10:28   03401 A217200221-00A 10:28
03402 A217200222-00A 10:28   03403 A217200223-00A 10:29
03404 A217200224-00A 10:29   03405 A217200225-00A 10:30
03406 A217200227-00A 10:33   03407 A217200229-00A 10:35
03408 A217200230-00A 10:35   03409 A217200233-00A 10:38
03410 A217200234-00A 10:39   03411 A217200235-00A 10:39
03412 A217200236-00A 10:39   03413 A217200237-00A 10:39
03414 A217200238-00A 10:40   03415 A217200239-00A 10:42
03416 A217200240-00A 10:42   03417 A217200241-00A 10:42
03418 A217200243-00A 10:43   03419 A217200064-01A 10:43 C
03420 A217200244-00A 10:43   03421 A215100088-01A 10:44
03422 A217200245-00A 10:44   03423 A217200246-00A 10:46
03424 A217000020-01A 10:47   03425 A217200248-00A 10:47
03426 A217200250-00A 10:47   03427 A217200251-00A 10:49
03428 A217200254-00A 10:51   03429 A217200255-00A 10:51 R
03430 A217200256-00A 10:52   03431 A217200257-00A 10:54
03432 A217200258-00A 10:54   03433 A217200259-00A 10:55
03434 A217200261-00A 10:55   03435 A217200263-00A 10:57
03436 A217200264-00A 11:00   03437 A217200266-00A 11:02
03438 A217200267-00A 11:03   03439 A217200268-00A 11:03
03440 A217200270-00A 11:04   03441 A217200272-00A 11:08
03442 A217200273-00A 11:08   03443 A217200274-00A 11:09
03444 A216500492-01A 11:11 C 03445 A217200275-00A 11:11
03446 A217200276-00A 11:12   03447 A217200277-00A 11:12
03448 A217200278-00A 11:13   03449 A217200279-00A 11:14
03450 A217200281-00A 11:16   03451 A216900702-01A 11:18
03452 A217200283-00A 11:18   03453 A217200284-00A 11:18
03454 A217200285-00A 11:22   03455 A217200286-00A 11:23
03456 A217200287-00A 11:24   03457 A216400473-01A 11:24
03458 A217200288-00A 11:25   03459 A217200289-00A 11:26
03460 A217200290-00A 11:26   03461 A217200291-00A 11:27
03462 A217200292-00A 11:33   03463 A215100023-01A 11:33
03464 A217200008-01A 11:33 C 03465 A217200294-00A 11:33
03466 A217200295-00A 11:34   03467 A217200296-00A 11:34
03468 A217200297-00A 11:34   03469 A217200298-00A 11:34
03470 A217200299-00A 11:34   03471 A217200300-00A 11:34
03472 A217200302-00A 11:34   03473 A217200303-00A 11:34
03474 A217200304-00A 11:34   03475 A217200306-00A 11:36
03476 A217200307-00A 11:37   03477 A217200308-00A 11:38
03478 A217200309-00A 11:38   03479 A217200310-00A 11:39
03480 A216500265-01A 11:39   03481 A217200311-00A 11:40
03482 A217200312-00A 11:40   03483 A217200313-00A 11:41
03484 A217200314-00A 11:41   03485 A217200316-00A 11:43

Total: 218

~~~~~
ZZAP12 *SUM* VUPSa 06/24/02 15:11:19

********************************************************************************
        THIS IS YOUR END OF DAY TICKET SUMMARY FOR 06/24/02 FROM VUPS
********************************************************************************

03486 A217200319-00A 11:51   03487 A217200320-00A 11:51
03488 A216800476-01A 11:51   03489 A217200345-00A 11:51
03490 A216800392-01A 11:51   03491 A217200347-00A 11:51
03492 A217200348-00A 11:51   03493 A217200356-00A 11:51
03494 A217200365-00A 11:51   03495 A217200366-00A 11:51
03496 A217200371-00A 11:51   03497 A217200383-00A 11:51
03498 A217200385-00A 11:51   03499 A217200390-00A 11:51
03500 A217200368-01A 11:51 C 03501 A217200407-00A 11:51
03502 A216400321-02A 11:51   03503 A217200411-00A 11:51
03504 A217000101-01A 11:51   03505 A217200404-01A 11:51 C
03506 A217200420-00A 11:51   03507 A217200423-00A 11:52
03508 A216800140-01A 11:52   03509 A217200432-00A 11:52
03510 A217200440-00A 11:52   03511 A217200444-00A 11:52
03512 A217000012-01A 11:52   03513 A217200457-00A 11:52
03514 A217000104-01A 11:52   03515 A217200461-00A 11:52
03516 A217200478-00A 11:52   03517 A217200479-00A 11:52
03518 A217200498-00A 11:52   03519 A217200500-00A 11:52
03520 A217200508-00A 11:52   03521 A217200517-00A 11:52
03522 A217200551-00A 11:52   03523 A217200552-00A 11:52
03524 A217200553-00A 11:52   03525 A216900819-01A 11:52
03526 A217200563-00A 11:52   03527 A217200564-00A 11:52
03528 A217500002-00A 11:52   03529 A217500004-00A 11:52
03530 A217500006-00A 11:52   03531 A217500008-00A 11:52
03532 A217500010-00A 11:52   03533 A217500014-00A 11:52
03534 A217500022-00A 11:52   03535 A217500046-00A 11:52
03536 A217500054-00A 11:52   03537 A217500087-00A 11:52
03538 A217500089-00A 11:52   03539 A216800430-01A 11:52
03540 A217000115-01A 11:52   03541 A217500106-00A 11:52
03542 A216400426-01A 11:53   03543 A217500142-00A 11:53
03544 A217500144-00A 11:53   03545 A217000502-01A 11:53 C
03546 A217500151-00A 11:53   03547 A217000566-01A 11:53 C
03548 A217500175-00A 11:53   03549 A217500193-00A 11:53
03550 A217500200-00A 11:53   03551 A217500214-00A 11:53
03552 A216400444-01A 11:53   03553 A217500225-00A 11:53
03554 A215700011-01A 11:53   03555 A217500237-00A 11:53
03556 A217500238-00A 11:53   03557 A217500258-00A 11:53
03558 A216900335-01A 11:53   03559 A217500304-00A 11:53
03560 A217500305-00A 11:53   03561 A217500314-00A 11:53
03562 A216900073-01A 11:53   03563 A217500361-00A 11:53
03564 A216900095-01A 11:53   03565 A217500364-00A 11:53
03566 A217500394-00A 11:53   03567 A217500430-00A 11:53
03568 A217500431-00A 11:53   03569 A217000435-01A 11:53
03570 A217500076-00A 11:53   03571 A217500449-00A 11:53
03572 A217200321-00A 11:53   03573 A217200322-00A 11:53
03574 A217200323-00A 11:53   03575 A217200325-00A 11:53
03576 A217200326-00A 11:53   03577 A217200327-00A 11:54
03578 A217200328-00A 11:54   03579 A217200330-00A 11:54
03580 A217200331-00A 11:54   03581 A217200332-00A 11:54
03582 A217200333-00A 11:54   03583 A217200334-00A 11:54
03584 A217200335-00A 11:54   03585 A217200336-00A 11:54
03586 A217200337-00A 11:54   03587 A217200338-00A 11:54
03588 A217200339-00A 11:54   03589 A217200340-00A 11:54
03590 A217200341-00A 11:54   03591 A217200342-00A 11:54
03592 A217200343-00A 11:54   03593 A217200350-00A 11:54
03594 A217200351-00A 11:54   03595 A217200353-00A 11:54
03596 A217200354-00A 11:54   03597 A217200355-00A 11:54
03598 A217200357-00A 11:54   03599 A217200359-00A 11:54
03600 A217200361-00A 11:54   03601 A217200362-00A 11:54
03602 A217200364-00A 11:54   03603 A217200367-00A 11:54
03604 A217200368-00A 11:54   03605 A217200372-00A 11:54
03606 A217200373-00A 11:54   03607 A217200375-00A 11:54
03608 A217200376-00A 11:54   03609 A217200377-00A 11:54
03610 A217200378-00A 11:54   03611 A217200379-00A 11:54
03612 A217200379-01A 11:54   03613 A217200380-00A 11:55
03614 A217200381-00A 11:55   03615 A217200382-00A 11:55
03616 A217200384-00A 11:55   03617 A217200386-00A 11:55
03618 A217200388-00A 11:55   03619 A217200389-00A 11:55
03620 A217200372-01A 11:55   03621 A217200391-00A 11:55
03622 A217200392-00A 11:55   03623 A217200393-00A 11:55
03624 A217200394-00A 11:55   03625 A217200396-00A 11:55
03626 A217200400-00A 11:55   03627 A217200401-00A 11:55
03628 A217200402-00A 11:55   03629 A217200403-00A 11:55
03630 A217200404-00A 11:55 R 03631 A217200405-00A 11:55
03632 A217200406-00A 11:55   03633 A217200408-00A 11:55
03634 A217200410-00A 11:55   03635 A217200412-00A 11:55
03636 A217200413-00A 11:55   03637 A217200414-00A 11:55
03638 A217200416-00A 11:55   03639 A217200417-00A 11:55
03640 A217200419-00A 11:55   03641 A217200421-00A 11:55
03642 A217200424-00A 11:55   03643 A217200425-00A 11:55
03644 A217200427-00A 11:55   03645 A217200428-00A 11:55
03646 A217200430-00A 11:55   03647 A217200431-00A 11:55
03648 A217200433-00A 11:56   03649 A217200435-00A 11:56
03650 A217200438-00A 11:56   03651 A217200439-00A 11:56
03652 A217200441-00A 11:56   03653 A217200442-00A 11:56
03654 A217200443-00A 11:56   03655 A217200445-00A 11:56
03656 A217200446-00A 11:56   03657 A217200448-00A 11:56
03658 A217200449-00A 11:56   03659 A217200450-00A 11:56
03660 A217200451-00A 11:56   03661 A217200452-00A 11:56
03662 A217200453-00A 11:56   03663 A217200454-00A 11:56
03664 A217200458-00A 11:56   03665 A217200459-00A 11:56
03666 A217200460-00A 11:56   03667 A217200462-00A 11:56
03668 A217200464-00A 11:56   03669 A217200465-00A 11:56
03670 A217200466-00A 11:56   03671 A217200467-00A 11:56
03672 A217200468-00A 11:56   03673 A217200469-00A 11:56
03674 A217200472-00A 11:56   03675 A217200480-00A 11:56
03676 A217200481-00A 11:56   03677 A217200483-00A 11:56
03678 A217200484-00A 11:56   03679 A217200485-00A 11:56
03680 A217200486-00A 11:56   03681 A217200488-00A 11:56
03682 A217200490-00A 11:56   03683 A217200491-00A 11:56
03684 A217200492-00A 11:57   03685 A217200493-00A 11:57
03686 A217200495-00A 11:57   03687 A217200496-00A 11:57
03688 A217200488-01A 11:57   03689 A217200499-00A 11:57
03690 A217200501-00A 11:57   03691 A217200504-00A 11:57
03692 A217200515-00A 11:57   03693 A217200516-00A 11:57
03694 A217200519-00A 11:57   03695 A217200522-00A 11:57
03696 A217200524-00A 11:57   03697 A217200525-00A 11:57
03698 A217200526-00A 11:57   03699 A217200527-00A 11:57
03700 A217200529-00A 11:57   03701 A217200530-00A 11:57
03702 A217200531-00A 11:57   03703 A217200532-00A 11:57
03704 A217200534-00A 11:57   03705 A217200535-00A 11:57
03706 A217200497-01A 11:57   03707 A217200536-00A 11:57
03708 A217200537-00A 11:57   03709 A217200538-00A 11:57
03710 A217200539-00A 11:57   03711 A217200540-00A 11:57
03712 A217200541-00A 11:57   03713 A217200543-00A 11:57
03714 A217200544-00A 11:57   03715 A217200546-00A 11:57
03716 A217200547-00A 11:57   03717 A217200550-00A 11:57
03718 A217200555-00A 11:57   03719 A217200557-00A 11:57
03720 A217200558-00A 11:58 R 03721 A217200559-00A 11:58
03722 A217200560-00A 11:58   03723 A217200561-00A 11:58
03724 A217200565-00A 11:58   03725 A217200566-00A 11:58
03726 A217200567-00A 11:58   03727 A217200568-00A 11:58
03728 A217200569-00A 11:58   03729 A217200570-00A 11:58
03730 A217200571-00A 11:58   03731 A217200572-00A 11:58
03732 A217500001-00A 11:58   03733 A217500003-00A 11:58
03734 A217500007-00A 11:58   03735 A217500009-00A 11:58
03736 A217500015-00A 11:58   03737 A217500016-00A 11:58
03738 A217500017-00A 11:58   03739 A217500018-00A 11:58
03740 A217500019-00A 11:58   03741 A217500020-00A 11:58
03742 A217500021-00A 11:58   03743 A217500023-00A 11:58
03744 A217500024-00A 11:58   03745 A217500026-00A 11:58
03746 A217500027-00A 11:58   03747 A217500028-00A 11:58
03748 A217500029-00A 11:58   03749 A217500031-00A 11:58
03750 A217500032-00A 11:58   03751 A217500033-00A 11:58
03752 A217500034-00A 11:58   03753 A217500035-00A 11:58
03754 A217500036-00A 11:58   03755 A217500037-00A 11:58
03756 A217500038-00A 11:58   03757 A217500041-00A 11:59
03758 A217500042-00A 11:59   03759 A217500043-00A 11:59
03760 A217500044-00A 11:59   03761 A217500045-00A 11:59
03762 A217500047-00A 11:59   03763 A217500048-00A 11:59
03764 A217500049-00A 11:59   03765 A217500050-00A 11:59
03766 A217500052-00A 11:59   03767 A217500053-00A 11:59
03768 A217500055-00A 11:59   03769 A217500057-00A 11:59
03770 A217500058-00A 11:59   03771 A217500059-00A 11:59
03772 A217500060-00A 11:59   03773 A217500061-00A 11:59
03774 A217500062-00A 11:59   03775 A217500063-00A 11:59
03776 A217500064-00A 11:59   03777 A217500065-00A 11:59
03778 A217500066-00A 11:59   03779 A217500067-00A 11:59
03780 A217500068-00A 11:59   03781 A217500069-00A 11:59
03782 A217500070-00A 11:59   03783 A217500072-00A 11:59
03784 A217500073-00A 11:59   03785 A217500074-00A 11:59
03786 A217500075-00A 12:00   03787 A217500077-00A 12:00
03788 A217500078-00A 12:00   03789 A217500079-00A 12:00
03790 A217500080-00A 12:00   03791 A217500081-00A 12:00
03792 A217500082-00A 12:00   03793 A217500083-00A 12:00
03794 A217500086-00A 12:00   03795 A217500088-00A 12:00
03796 A217500090-00A 12:00   03797 A217500091-00A 12:00
03798 A217500092-00A 12:00   03799 A217500093-00A 12:00
03800 A217500094-00A 12:00   03801 A217500095-00A 12:00
03802 A217500096-00A 12:00   03803 A217500097-00A 12:00
03804 A217500098-00A 12:00   03805 A217500099-00A 12:00
03806 A217500101-00A 12:00   03807 A217500102-00A 12:00
03808 A217500103-00A 12:00   03809 A217500104-00A 12:00
03810 A217500105-00A 12:00   03811 A217500107-00A 12:00
03812 A217500108-00A 12:00   03813 A217500109-00A 12:00
03814 A217500110-00A 12:00   03815 A217500111-00A 12:00
03816 A217500112-00A 12:00   03817 A217500113-00A 12:00
03818 A217500114-00A 12:00   03819 A217500115-00A 12:00
03820 A217500116-00A 12:00   03821 A217500117-00A 12:00
03822 A217500118-00A 12:00   03823 A217500119-00A 12:01
03824 A217500120-00A 12:01   03825 A217500121-00A 12:01
03826 A217500122-00A 12:01   03827 A217500123-00A 12:01
03828 A217500125-00A 12:01   03829 A217500127-00A 12:01
03830 A217500128-00A 12:01   03831 A217500129-00A 12:01
03832 A217500464-00A 12:01   03833 A217500131-00A 12:01
03834 A217500132-00A 12:01   03835 A217500134-00A 12:01
03836 A217500135-00A 12:01   03837 A217500136-00A 12:01
03838 A217500137-00A 12:01   03839 A217500138-00A 12:01
03840 A217500139-00A 12:01   03841 A217500141-00A 12:01
03842 A217500145-00A 12:01   03843 A217500147-00A 12:01
03844 A217500148-00A 12:01   03845 A217500149-00A 12:01
03846 A217500150-00A 12:01   03847 A217500152-00A 12:01
03848 A217500154-00A 12:01   03849 A217500155-00A 12:01
03850 A217500156-00A 12:01   03851 A217500157-00A 12:01
03852 A217500158-00A 12:01   03853 A217500159-00A 12:01
03854 A217500160-00A 12:01   03855 A217500161-00A 12:01
03856 A217500162-00A 12:01   03857 A217500163-00A 12:01
03858 A217500164-00A 12:01   03859 A217500167-00A 12:02
03860 A217500168-00A 12:02   03861 A217500169-00A 12:02
03862 A217500171-00A 12:02   03863 A217500172-00A 12:02
03864 A217500173-00A 12:02   03865 A217500174-00A 12:02
03866 A217500176-00A 12:02   03867 A217500177-00A 12:02
03868 A217500178-00A 12:02   03869 A217500179-00A 12:02
03870 A217500181-00A 12:02   03871 A217500182-00A 12:02
03872 A217500183-00A 12:02   03873 A217500184-00A 12:02
03874 A217500185-00A 12:02   03875 A217500186-00A 12:02
03876 A217500187-00A 12:02   03877 A217500188-00A 12:02
03878 A217500189-00A 12:02   03879 A217500190-00A 12:02
03880 A217500191-00A 12:02   03881 A217500192-00A 12:02
03882 A217500194-00A 12:02   03883 A217500195-00A 12:02
03884 A217500196-00A 12:02   03885 A217500164-01A 12:02
03886 A217500198-00A 12:02   03887 A217500199-00A 12:02
03888 A217500201-00A 12:02   03889 A217500202-00A 12:02
03890 A217500203-00A 12:02   03891 A217500204-00A 12:02
03892 A217500205-00A 12:02   03893 A217500206-00A 12:02
03894 A217500207-00A 12:02   03895 A217500208-00A 12:03
03896 A217500209-00A 12:03   03897 A217500128-01A 12:03
03898 A217500211-00A 12:03   03899 A217500212-00A 12:03
03900 A217500213-00A 12:03   03901 A217500215-00A 12:03
03902 A217500216-00A 12:03   03903 A217500217-00A 12:03
03904 A217500218-00A 12:03   03905 A217500219-00A 12:03
03906 A217500220-00A 12:03   03907 A217500221-00A 12:03
03908 A217500222-00A 12:03   03909 A217500223-00A 12:03
03910 A217500224-00A 12:03   03911 A217500226-00A 12:03
03912 A217500228-00A 12:03   03913 A217500229-00A 12:03
03914 A217500230-00A 12:03   03915 A217500232-00A 12:03
03916 A217500233-00A 12:03   03917 A217500095-01A 12:03 C
03918 A217500234-00A 12:03   03919 A217500236-00A 12:03
03920 A217500239-00A 12:03   03921 A217500241-00A 12:03
03922 A217500242-00A 12:03   03923 A217500243-00A 12:03
03924 A217500244-00A 12:03   03925 A217500245-00A 12:03
03926 A217500247-00A 12:03   03927 A217500248-00A 12:03
03928 A217500249-00A 12:03   03929 A217500250-00A 12:03
03930 A217500251-00A 12:03   03931 A217500252-00A 12:04
03932 A217500251-01A 12:04   03933 A217500253-00A 12:04
03934 A217500254-00A 12:04   03935 A217500255-00A 12:04
03936 A217500256-00A 12:04   03937 A217500257-00A 12:04
03938 A217500260-00A 12:04   03939 A217500261-00A 12:04
03940 A217500262-00A 12:04   03941 A217500263-00A 12:04
03942 0216200333-00A 12:04   03943 A217500264-00A 12:04
03944 A217500265-00A 12:04   03945 A217500266-00A 12:04
03946 A217500267-00A 12:04   03947 A217500268-00A 12:04
03948 A217500269-00A 12:04   03949 A217500270-00A 12:04
03950 A217500271-00A 12:04   03951 A217500273-00A 12:04
03952 A217500274-00A 12:04   03953 A217500275-00A 12:04
03954 A217500276-00A 12:04   03955 A217500279-00A 12:04
03956 A217500280-00A 12:04   03957 A217500281-00A 12:04
03958 A217500282-00A 12:04   03959 A217500283-00A 12:04
03960 A217500284-00A 12:04   03961 A217500285-00A 12:04
03962 A217500286-00A 12:04   03963 A217500288-00A 12:04
03964 A217500290-00A 12:04   03965 A217500291-00A 12:04
03966 A217500292-00A 12:04   03967 A217500293-00A 12:05
03968 A217500294-00A 12:05   03969 A217500295-00A 12:05
03970 A217500296-00A 12:05   03971 A217500297-00A 12:05
03972 A217500299-00A 12:05   03973 A217500300-00A 12:05
03974 A217500301-00A 12:05   03975 A217500302-00A 12:05
03976 A217500303-00A 12:05   03977 A217500306-00A 12:05
03978 A217500308-00A 12:05   03979 A217500309-00A 12:05
03980 A217500310-00A 12:05   03981 A217500311-00A 12:05
03982 A217500312-00A 12:05   03983 A217500313-00A 12:05
03984 A217500315-00A 12:05   03985 A217500317-00A 12:05
03986 A217500318-00A 12:05   03987 A217500319-00A 12:05
03988 A217500320-00A 12:05   03989 A217500321-00A 12:05
03990 A217500322-00A 12:05   03991 A217500323-00A 12:05
03992 A217500324-00A 12:05   03993 A217500325-00A 12:05
03994 A217500326-00A 12:05   03995 A217500328-00A 12:05
03996 A217500330-00A 12:05   03997 A217500331-00A 12:05
03998 A217500332-00A 12:05   03999 A217500333-00A 12:05
04000 A217500334-00A 12:05   04001 A217500335-00A 12:05
04002 A217500337-00A 12:05   04003 A217500338-00A 12:05
04004 A217500339-00A 12:06   04005 A217500341-00A 12:06
04006 A217500342-00A 12:06   04007 A217500343-00A 12:06
04008 A217500344-00A 12:06   04009 A217500345-00A 12:06
04010 A217500347-00A 12:06   04011 A217500348-00A 12:06
04012 A217500349-00A 12:06   04013 A217500350-00A 12:06
04014 A217500332-01A 12:06   04015 A217500353-00A 12:06
04016 A217500354-00A 12:06   04017 A217500355-00A 12:06
04018 A217500356-00A 12:06   04019 A217500358-00A 12:06
04020 A217500362-00A 12:06   04021 A217500363-00A 12:06
04022 A217500365-00A 12:06   04023 A217500366-00A 12:06
04024 A217500367-00A 12:06   04025 A217500368-00A 12:06
04026 A217500369-00A 12:06   04027 A217500370-00A 12:06
04028 A217500371-00A 12:06   04029 A217500373-00A 12:06
04030 A217500374-00A 12:06   04031 A217500375-00A 12:06
04032 A217500376-00A 12:06   04033 A217500378-00A 12:06
04034 A217500379-00A 12:06   04035 A217500380-00A 12:06
04036 A217500381-00A 12:06   04037 A217500382-00A 12:06
04038 A217500383-00A 12:06   04039 A217500384-00A 12:06
04040 A217500385-00A 12:07   04041 A217500386-00A 12:07
04042 A217500387-00A 12:07   04043 A217500384-01A 12:07
04044 A217500389-00A 12:07   04045 A217500391-00A 12:07
04046 A217500392-00A 12:07   04047 A217500393-00A 12:07
04048 A217500395-00A 12:07   04049 A217500397-00A 12:07
04050 A217500399-00A 12:07   04051 A217500400-00A 12:07
04052 A217500402-00A 12:07   04053 A217500403-00A 12:07
04054 A217500404-00A 12:07   04055 A217500405-00A 12:07
04056 A217500406-00A 12:07   04057 A217500407-00A 12:07
04058 A217500408-00A 12:07   04059 A217500409-00A 12:07
04060 A217500412-00A 12:07   04061 A217500414-00A 12:07
04062 A217500415-00A 12:07   04063 A217500416-00A 12:07
04064 A217500417-00A 12:07   04065 A217500418-00A 12:08
04066 A217500419-00A 12:08   04067 A217500420-00A 12:08
04068 A217500422-00A 12:08   04069 A217500423-00A 12:08
04070 A217500424-00A 12:08   04071 A217500425-00A 12:08
04072 A217500409-01A 12:08   04073 A217500426-00A 12:08
04074 A217500428-00A 12:08   04075 A217500432-00A 12:08
04076 A217500414-01A 12:08   04077 A217500434-00A 12:08
04078 A217500435-00A 12:08   04079 A217500436-00A 12:08
04080 A217500422-01A 12:08   04081 A217500438-00A 12:08
04082 A217500440-00A 12:08   04083 A217500443-00A 12:08
04084 A217500444-00A 12:08   04085 A217500446-00A 12:08
04086 A217500447-00A 12:08   04087 A217500448-00A 12:08
04088 A217500451-00A 12:08   04089 A217500452-00A 12:08
04090 A217500453-00A 12:08   04091 A217500454-00A 12:08
04092 A217500455-00A 12:08   04093 A217500459-00A 12:08
04094 A217500460-00A 12:08   04095 A217500461-00A 12:08
04096 A217500462-00A 12:08   04097 A217500463-00A 12:08
04098 A217500466-00A 12:08   04099 A217500467-00A 12:08
04100 A217500468-00A 12:08   04101 A217500469-00A 12:09
04102 A217500470-00A 12:10   04103 A217500471-00A 12:11
04104 A217500472-00A 12:15   04105 A217500473-00A 12:19

Total: 620

~~~~~