
PBTHAN 00391 USAN 04/03/12 14:55:25 0112597 NORMAL NOTICE 

Message Number: 0112597 Received by USAN at 14:43 on 04/03/12 by CMJ

Work Begins:    04/05/12 at 15:00   Notice: 020 hrs      Priority: 2
Night Work: N    Weekend Work: Y

Expires: 05/01/12 at 23:59   Update By: 04/27/12 at 16:59

Caller:         ED MADRUDA               
Company:        MADRUDA CONSTRUCTION               
Address:        POB 232                                 
City:           PASO ROBLES                   State: CA Zip: 93447
Business Tel:   805-286-3857                  Fax:                             
Email Address:  MADRUDACONST@GMAIL.COM                                      

Nature of Work: BKHO TO REMOVE POMPUS GRASS             
Done for:       P/O WILLAIMS                  Explosives: N
Foreman:        CALLER                   
Field Tel:                                    Cell Tel: 805-286-3857           
Area Premarked: Y   Premark Method: WHITE PAINT                                
Permit Type:    NO                            
Vac / Pwr Equip Use In The Approx Location Of Member Facilities Requested: N
Excavation Enters Into Street Or Sidewalk Area: N

Location: 
Street Address:         8090 SANTA YNEZ AVE
  Cross Street:         CURBARIL AVE

    WRK ON THE SE/COR/O THE FRT LAWN AREA & EXT APP 75' - 80' INTO THE
    PROP (OVERGROWN AREA)

Place: ATASCADERO                   County: SAN LUIS OBISPO      State: CA

Long/Lat Long: -120.671778 Lat:  35.470554 Long: -120.668512 Lat:  35.476549 


Sent to:
ATTCAL = AT&T TRANSMISSION CAL        ATAWTR = ATASCADERO MUTUAL WTR        
CHASLO = CHARTER COMM SLO             CTYATA = CITY ATASCADERO PUBLIC W     
CTYAT2 = CITY OF ATASCADERO STREE     PBTHAN = PACIFIC BELL HANFORD         
PGESLO = PGE DISTR SAN LUIS OBISP     SCGTEM = SO CAL GAS TEMPLETON         




At&t Ticket Id: 25146135   clli code: ATSCCA11