
Louisiana One Call
SUMM
DAILY AUDIT OF TICKETS SENT ON 06/04/09

Date/Time: 06/05/2009 12:15:03 AM
Receiving Terminal: BTR01

Seq #   Ticket #    Seq #   Ticket #    Seq #   Ticket #    Seq #   Ticket #    
----- ------------  ----- ------------  ----- ------------  ----- ------------  
   1 90232714-EMER |  95 90233420-48HR | 188 90233630-UPDT | 281 90234513-48HR |
   2 90232662-UPDT |  96 90233513-UPDT | 189 90234199-EMER | 282 90233987-48HR |
   3 90232663-UPDT |  97 90233111-REPR | 190 90233572-48HR | 283 90234017-UPDT |
   4 90232664-UPDT |  98 90233114-REPR | 191 90234174-48HR | 284 90234018-UPDT |
   5 90232665-UPDT |  99 90233115-REPR | 192 90233593-48HR | 285 90234522-48HR |
   6 90232667-UPDT | 100 90233519-48HR | 193 90234224-SHRT | 286 90233990-48HR |
   7 90232777-48HR | 101 90233126-48HR | 194 90233633-UPDT | 287 90234022-UPDT |
   8 90232656-UPDT | 102 90233122-48HR | 195 90233636-UPDT | 288 90234524-UPDT |
   9 90232657-UPDT | 103 90233614-UPDT | 196 90233642-UPDT | 289 90233995-48HR |
  10 90232659-UPDT | 104 90233620-UPDT | 197 90233649-48HR | 290 90234037-UPDT |
  11 90232658-UPDT | 105 90223164-48HR | 198 90233646-UPDT | 291 90234033-48HR |
  12 90232785-48HR | 106 90233615-48HR | 199 90233693-48HR | 292 90234515-48HR |
  13 90232809-48HR | 107 90233625-UPDT | 200 90233698-48HR | 293 90234041-48HR |
  14 90232672-48HR | 108 90233183-48HR | 201 90233887-UPDT | 294 90234044-48HR |
  15 90232675-48HR | 109 90233632-UPDT | 202 90234288-48HR | 295 90234052-REPR |
  16 90232679-48HR | 110 90233199-UPDT | 203 90233669-REPR | 296 90234063-48HR |
  17 90232680-48HR | 111 90233638-UPDT | 204 90234245-48HR | 297 90234091-48HR |
  18 90232894-48HR | 112 90233172-UPDT | 205 90233667-48HR | 298 90234072-48HR |
  19 90232686-48HR | 113 90233648-UPDT | 206 90234336-48HR | 299 90234076-48HR |
  20 90232910-48HR | 114 90233261-48HR | 207 90233710-48HR | 300 90234065-UPDT |
  21 90232924-48HR | 115 90233202-REPR | 208 90233699-48HR | 301 90234079-48HR |
  22 90232939-48HR | 116 90233207-48HR | 209 90233715-48HR | 302 90234083-UPDT |
  23 90232955-48HR | 117 90233660-48HR | 210 90233735-UPDT | 303 90234086-UPDT |
  24 90232951-48HR | 118 90233222-48HR | 211 90233724-48HR | 304 90234088-UPDT |
  25 90232969-48HR | 119 90233680-48HR | 212 90234365-48HR | 305 90234096-UPDT |
  26 90232967-48HR | 120 90233705-REPR | 213 90234375-48HR | 306 90234090-UPDT |
  27 90232985-48HR | 121 90233707-REPR | 214 90233821-48HR | 307 90234167-UPDT |
  28 90232704-48HR | 122 90233251-48HR | 215 90233842-48HR | 308 90234169-UPDT |
  29 90233009-48HR | 123 90233267-48HR | 216 90234387-SHRT | 309 90234170-UPDT |
  30 90233010-UPDT | 124 90233459-UPDT | 217 90233855-48HR | 310 90234080-48HR |
  31 90233019-UPDT | 125 90233730-48HR | 218 90233861-48HR | 311 90234094-48HR |
  32 90233016-48HR | 126 90233736-EMER | 219 90233866-48HR | 312 90234095-48HR |
  33 90232712-REPR | 127 90228493-48HR | 220 90233870-48HR | 313 90234540-48HR |
  34 90233025-48HR | 128 90233339-REPR | 221 90233877-48HR | 314 90234554-UPDT |
  35 90233027-UPDT | 129 90233342-REPR | 222 90233802-48HR | 315 90234084-48HR |
  36 90233032-UPDT | 130 90233814-EMER | 223 90233885-48HR | 316 90234172-UPDT |
  37 90233030-48HR | 131 90233351-UPDT | 224 90234390-48HR | 317 90234023-48HR |
  38 90233037-UPDT | 132 90233360-48HR | 225 90233809-UPDT | 318 90234231-UPDT |
  39 90233041-UPDT | 133 90233857-48HR | 226 90233794-UPDT | 319 90234371-48HR |
  40 90233045-48HR | 134 90233858-48HR | 227 90234422-48HR | 320 90234173-UPDT |
  41 90233048-48HR | 135 90233619-UPDT | 228 90233808-48HR | 321 90234175-UPDT |
  42 90233047-UPDT | 136 90233897-48HR | 229 90234429-48HR | 322 90234427-REPR |
  43 90233057-UPDT | 137 90233427-48HR | 230 90233823-48HR | 323 90234223-UPDT |
  44 90233060-UPDT | 138 90233921-48HR | 231 90234439-REPR | 324 90234226-UPDT |
  45 90233067-UPDT | 139 90233930-REPR | 232 90233827-48HR | 325 90234446-48HR |
  46 90233072-UPDT | 140 90233935-48HR | 233 90233836-48HR | 326 90234464-48HR |
  47 90233078-48HR | 141 90233908-UPDT | 234 90233840-48HR | 327 90234603-UPDT |
  48 90233083-UPDT | 142 90233957-48HR | 235 90233810-48HR | 328 90234643-48HR |
  49 90233086-UPDT | 143 90233967-48HR | 236 90233849-48HR | 329 90234360-48HR |
  50 90233092-UPDT | 144 90233956-48HR | 237 90233847-48HR | 330 90234396-UPDT |
  51 90233069-48HR | 145 90233975-48HR | 238 90233965-48HR | 331 90234237-48HR |
  52 90232765-REPR | 146 90233429-48HR | 239 90233851-48HR | 332 90234273-48HR |
  53 90233112-48HR | 147 90233433-48HR | 240 90233856-48HR | 333 90234656-48HR |
  54 90232653-UPDT | 148 90233434-48HR | 241 90233859-48HR | 334 90234526-48HR |
  55 90232654-UPDT | 149 90233430-48HR | 242 90233899-UPDT | 335 90234475-48HR |
  56 90232661-48HR | 150 90233981-48HR | 243 90233900-UPDT | 336 90234367-48HR |
  57 90233077-UPDT | 151 90233982-48HR | 244 90233909-UPDT | 337 90234651-48HR |
  58 90232671-48HR | 152 90234028-EMER | 245 90233904-UPDT | 338 90234500-48HR |
  59 90227710-48HR | 153 90228493-48HR | 246 90233912-UPDT | 339 90234704-48HR |
  60 90232698-48HR | 154 90234036-48HR | 247 90233915-UPDT | 340 90234568-REPR |
  61 90233203-REPR | 155 90234021-48HR | 248 90233876-48HR | 341 90234717-UPDT |
  62 90233208-48HR | 156 90234040-48HR | 249 90233919-UPDT | 342 90234751-48HR |
  63 90232783-REPR | 157 90234045-48HR | 250 90233933-UPDT | 343 90234593-48HR |
  64 90232787-48HR | 158 90234049-48HR | 251 90233936-UPDT | 344 90234652-48HR |
  65 90233201-48HR | 159 90234053-24HR | 252 90233893-48HR | 345 90234577-48HR |
  66*90221162-48HR | 160 90233466-UPDT | 253 90234038-48HR | 346 90234099-48HR |
  67 90232806-REPR | 161 90234058-48HR | 254 90234478-REPR | 347 90234600-48HR |
  68 90232793-REPR | 162 90234077-48HR | 255 90233883-48HR | 348 90234601-48HR |
  69 90232800-REPR | 163 90234069-48HR | 256 90233868-48HR | 349 90234637-48HR |
  70 90232816-REPR | 164 90234103-48HR | 257 90233910-48HR | 350 90234639-48HR |
  71 90232848-REPR | 165 90233896-48HR | 258 90233922-48HR | 351 90234641-48HR |
  72 90232817-REPR | 166 90234109-48HR | 259 90233966-UPDT | 352 90234645-48HR |
  73 90232860-REPR | 167 90234107-48HR | 260 90233948-48HR | 353 90234648-48HR |
  74 90232843-48HR | 168 90234120-UPDT | 261 90233938-UPDT | 354 90234676-UPDT |
  75 90232879-REPR | 169 90234116-48HR | 262 90233955-48HR | 355 90234653-48HR |
  76 90233321-48HR | 170 90234127-48HR | 263 90233959-48HR | 356 90234773-REPR |
  77 90233319-48HR | 171 90233463-UPDT | 264 90233968-UPDT | 357 90234680-UPDT |
  78 90232805-48HR | 172 90233470-UPDT | 265 90234482-48HR | 358 90234754-48HR |
  79 90232897-UPDT | 173 90233474-UPDT | 266 90224624-48HR | 359 90234791-REPR |
  80 90232901-48HR | 174 90233475-UPDT | 267 90234005-UPDT | 360 90234842-REPR |
  81 90232903-UPDT | 175 90233476-UPDT | 268 90233969-UPDT | 361 90234845-REPR |
  82 90232905-48HR | 176 90233478-48HR | 269 90234006-UPDT | 362 90234847-REPR |
  83 90232912-UPDT | 177 90234122-48HR | 270 90233984-48HR | 363 90234855-48HR |
  84 90232928-REPR | 178 90233473-UPDT | 271 90234007-UPDT | 364 90234856-48HR |
  85 90232931-48HR | 179 90234118-48HR | 272 90234205-48HR | 365 90234857-48HR |
  86 90233371-EMER | 180 90234142-EMER | 273 90233954-48HR | 366 90234859-48HR |
  87 90232907-48HR | 181 90233608-UPDT | 274 90234008-UPDT | 367 90234860-48HR |
  88 90233388-48HR | 182 90234144-48HR | 275 90234496-48HR | 368 90234861-48HR |
  89*90228493-48HR | 183 90233613-UPDT | 276 90234009-UPDT | 369 90234862-48HR |
  90 90233407-48HR | 184 90233616-UPDT | 277 90234013-UPDT | 370 90234863-48HR |
  91 90233426-48HR | 185 90233622-UPDT | 278 90234014-UPDT | 371 90234864-48HR |
  92 90227731-48HR | 186 90233533-48HR | 279 90234015-UPDT | 372 90234865-48HR |
  93 90233440-48HR | 187 90233624-UPDT | 280 90234512-UPDT | 373 90234866-48HR |
  94 90221162-48HR |

* indicates ticket # is repeated

Total Tickets: 373

EMER - EMERGENCY                      |    7

UPDT - UPDATE                         |  112

48HR - 48 HOURS NOTICE                |  218

REPR - REPAIR                         |   33

24HR - 24 HOURS NOTICE                |    1

SHRT - SHORT NOTICE                   |    2


Please call (800) 272-3020 if this data does
not match the tickets you received on 06/04/09
