
Louisiana One Call
SUMM
DAILY AUDIT OF TICKETS SENT ON 06/04/09

Date/Time: 06/05/2009 12:15:03 AM
Receiving Terminal: ARK05

Seq #   Ticket #    Seq #   Ticket #    Seq #   Ticket #    Seq #   Ticket #    
----- ------------  ----- ------------  ----- ------------  ----- ------------  
   1 90232762-REPR |  21 90233554-UPDT |  41 90233768-48HR |  60 90234556-48HR |
   2 90232768-48HR |  22 90234160-48HR |  42 90234403-UPDT |  61 90234581-48HR |
   3 90232943-48HR |  23 90233618-UPDT |  43 90233790-48HR |  62 90234654-REPR |
   4 90232720-48HR |  24 90233631-UPDT |  44 90234408-UPDT |  63 90234602-REPR |
   5 90232872-48HR |  25 90233623-UPDT |  45 90234412-UPDT |  64 90234608-48HR |
   6 90233242-48HR |  26 90233640-UPDT |  46 90233793-48HR |  65 90234617-REPR |
   7 90233601-48HR |  27 90233644-UPDT |  47 90234413-UPDT |  66 90234616-UPDT |
   8 90233162-48HR |  28 90233757-48HR |  48 90233800-48HR |  67 90234631-UPDT |
   9 90233415-48HR |  29 90233709-48HR |  49 90233806-48HR |  68 90234661-REPR |
  10 90226081-48HR |  30 90234322-EMER |  50 90233811-48HR |  69 90234657-REPR |
  11 90233902-48HR |  31 90233762-48HR |  51 90233817-48HR |  70 90234659-REPR |
  12 90233395-48HR |  32 90233752-48HR |  52 90233940-48HR |  71 90234660-REPR |
  13*90223878-48HR |  33 90233746-48HR |  53 90224582-48HR |  72 90234779-48HR |
  14 90233999-UPDT |  34 90233759-48HR |  54 90234265-48HR |  73 90234797-48HR |
  15 90233988-48HR |  35 90233771-48HR |  55 90234386-UPDT |  74 90234801-48HR |
  16 90233418-48HR |  36 90233773-48HR |  56 90234381-UPDT |  75 90234844-48HR |
  17 90223878-48HR |  37 90233760-48HR |  57 90234564-48HR |  76 90234849-48HR |
  18 90234093-48HR |  38 90233763-48HR |  58 90234569-48HR |  77 90234851-48HR |
  19 90233515-UPDT |  39 90233774-48HR |  59 90234574-48HR |  78 90234869-48HR |
  20 90233540-UPDT |  40 90233781-48HR |

* indicates ticket # is repeated

Total Tickets: 78

REPR - REPAIR                         |    8

48HR - 48 HOURS NOTICE                |   52

UPDT - UPDATE                         |   17

EMER - EMERGENCY                      |    1


Please call (800) 272-3020 if this data does
not match the tickets you received on 06/04/09
