{
    "node": {
            "due": {
                "4-Tomorrow": {
                    "N": 200
                },
                "5-NextDay": {
                    "N": 100
                },
                "3-Today": {
                    "N": 80
                },
                "1-Late": {
                    "N": 700
                }
            },
            "short_name": "Atlas P-body",
            "node_id": 222,
            "initials": "AP",
            "clocked_in":true,
        "ancestors": [
            {
                "id": 2676,
                "name": "Aperture Science"
            },
            {
                "id": 16483,
                "name": "Bees?"
            }
        ]
    }
}