{
    "node": {
        "due": {
            "4-Tomorrow": {
                "N": 12881
            },
            "5-NextDay": {
                "N": 5723
            },
            "6-Later": {
                "N": 863
            },
            "2-Soon": {
                "N": 68
            },
            "3-Today": {
                "N": 6103
            },
            "1-Late": {
                "N": 3795
            }
        },
        "short_name": "Aperture Science",
        "node_id": 2676,
        "image": "/../img/characters/ms.jpg",
        "clocked_in":true,
        "contact": {
            "phone": "314-555-5309",
            "email": "atlanta@utiliquest.com"
        },
	"ancestors": []
    },
    "child": {
        "804": {
            "due": {
                "4-Tomorrow": {
                    "N": 6043,
                    "Jake": 200
                },
                "5-NextDay": {
                    "N": 4167
                },
                "6-Later": {
                    "N": 10
                },
                "3-Today": {
                    "N": 2882
                },
                "1-Late": {
                    "N": 1213
                }
            },
            "short_name": "John Smith",
            "clocked_in":true,
            "node_id": 804,
            "contact": {
                "phone": "314-555-5309",
                "email": "atlanta@utiliquest.com"
            },
            "image": "/../img/characters/ds.jpg",
            "children": false
        },
        "16483": {
            "due": {
                "4-Tomorrow": {
                    "N": 203
                },
                "5-NextDay": {
                    "N": 102
                },
                "3-Today": {
                    "N": 78
                },
                "1-Late": {
                    "N": 678
                }
            },
            "short_name": "Bees?",
            "node_id": 16483,
            "image": "/../img/characters/sh.jpg",
            "children": true
        },
        "15208": {
            "short_name": "justin ww",
            "node_id": 15208
        },
        "13631": {
            "short_name": "FMW.PG2 Ryan Eldridge",
            "node_id": 13631
        },
        "13505": {
            "short_name": "WhiteLineApp",
            "node_id": 13505
        },
        "13486": {
            "short_name": "rec_yesy",
            "node_id": 13486
        },
        "13356": {
            "short_name": "ricky Test",
            "node_id": 13356
        },
        "13147": {
            "short_name": "FXL.Thomas Burroughs",
            "node_id": 13147
        },
        "13071": {
            "short_name": "Eric Endres",
            "node_id": 13071
        },
        "12773": {
            "short_name": "750.Todd Ferebee",
            "node_id": 12773
        },
        "11090": {
            "short_name": "George Hanley",
            "node_id": 11090
        },
        "10619": {
            "short_name": "901.xSteven Riddell",
            "node_id": 10619
        },
        "1": {
            "short_name": "System User",
            "node_id": 1
        },
        "7048": {
            "short_name": "750.William Boyle",
            "node_id": 7048
        },
        "7042": {
            "short_name": "750.Lenard Durham",
            "node_id": 7042
        },
        "7041": {
            "short_name": "750.Walter Holyk",
            "node_id": 7041
        },
        "5728": {
            "due": {
                "4-Tomorrow": {
                    "N": 3571
                },
                "5-NextDay": {
                    "N": 1178
                },
                "6-Later": {
                    "N": 387
                },
                "2-Soon": {
                    "N": 1
                },
                "3-Today": {
                    "N": 2528
                },
                "1-Late": {
                    "N": 999
                }
            },
            "short_name": "Cave Johnson",
            "node_id": 5728,
            "image": "/../img/characters/cb.jpg",
            "clocked_in":true,
            "contact": {
                "phone": "314-555-5309",
                "email": "atlanta@utiliquest.com"
            },
            "children": false
        },
        "5429": {
            "short_name": "Bill West",
            "node_id": 5429
        },
        "5428": {
            "short_name": "Mike Bell",
            "node_id": 5428
        },
        "5332": {
            "short_name": "ND Dispatch",
            "node_id": 5332
        },
        "4513": {
            "due": {
                "6-Later": {
                    "N": 4
                },
                "1-Late": {
                    "N": 3
                }
            },
            "short_name": "Corporate Office - Atlanta",
            "node_id": 4513,
            "image": "/../img/characters/ab.jpg",
            "children": true
        },
        "4255": {
            "short_name": "Mike Hardin",
            "node_id": 4255
        },
        "3533": {
            "short_name": "zoBradley Jr.Daniel",
            "node_id": 3533
        },
        "3530": {
            "short_name": "W Satterfield Jr",
            "node_id": 3530
        },
        "2777": {
            "short_name": "c.Dan Bradley",
            "node_id": 2777
        },
        "2678": {
            "short_name": "Denny Showalter",
            "node_id": 2678
        },
        "2263": {
            "due": {
                "4-Tomorrow": {
                    "N": 3064
                },
                "5-NextDay": {
                    "N": 276
                },
                "6-Later": {
                    "N": 462
                },
                "2-Soon": {
                    "N": 67
                },
                "3-Today": {
                    "N": 615
                },
                "1-Late": {
                    "N": 902
                }
            },
            "short_name": "Willy Coyote",
            "node_id": 2263,
            "clocked_in":true,
            "contact": {
                "phone": "314-555-5309",
                "email": "atlanta@utiliquest.com"
            },
            "image": "/../img/characters/jh.jpg",
            "children": false
        },
        "1673": {
            "short_name": "Terminated Manager",
            "node_id": 1673
        },
        "1101": {
            "short_name": "Account Reset",
            "node_id": 1101
        }
    }
}