{
    "node": {
        "due": {
            "6-Later": {
                "N": 4
            },
            "1-Late": {
                "N": 3
            }
        },
        "short_name": "Jacob Smith",
        "node_id": 314,
        "image": "../img/characters/df.jpg",
        "clocked_in":false,
        "ancestors": [
            {
                "id": 2676,
                "name": "Aperture Science"
            },
            {
                "id": 4513,
                "name": "Corporate Office - Atlanta"
            }
        ]
    }
}