{
    "node": {
        "due": {
            "6-Later": {
                "N": 4
            },
            "1-Late": {
                "N": 3
            }
        },
        "short_name": "Corporate Office - Atlanta",
        "node_id": 4513,
        "image": "../img/characters/ab.jpg",
        "clocked_in":false,
        "ancestors": [{
            "id": 2676,
            "name": "Aperture Science"
        }]
    },
    "child": {
        "314": {
            "due": {
                "6-Later": {
                    "N": 4
                },
                "1-Late": {
                    "N": 3
                }
            },
            "short_name": "Jacob Smith",
            "node_id": 314,
            "image": "../img/characters/df.jpg",
            "children": false
        }
    }
}