{
    "node": {
        "due": {
            "4-Tomorrow": {
                "N": 3064
            },
            "5-NextDay": {
                "N": 276
            },
            "6-Later": {
                "N": 462
            },
            "2-Soon": {
                "N": 67
            },
            "3-Today": {
                "N": 615
            },
            "1-Late": {
                "N": 902
            }
        },
        "short_name": "Cave Johnson",
        "node_id": 5728,
        "clocked_in":true,
        "ancestors": [{
            "id": 2676,
            "name": "Aperture Science"
        }],
        "image": "../img/characters/cb.jpg"
    }
}