[
 {
  "ent_category": "Call Center",
  "ent_name": "Underground Service Alert South (SCA1)",
  "total": 0,
  "ent_code": "SCA1",
  "dataURL": "/api/v1/metric/single/Call Center/SCA1/EREC/HOUR/2014-01-01",
  "metric_type": "flow",
  "metric_name": "Emergencies Received",
  "metric_code": "EREC",
  "gran_name": "Hour",
  "gran_code": "HOUR"
 },{
  "ent_category": "Call Center",
  "ent_name": "New York One Call (FNJ4)",
  "total": 0,
  "ent_code": "NewJersey4",
  "dataURL": "/api/v1/metric/single/Call Center/NewJersey4/EREC/HOUR/2014-01-01",
  "metric_type": "flow",
  "metric_name": "Emergencies Received",
  "metric_code": "EREC",
  "gran_name": "Hour",
  "gran_code": "HOUR"
 },{
  "ent_category": "Call Center",
  "ent_name": "Pennsylvania One Call (7501)",
  "total": 0,
  "ent_code": "7501",
  "dataURL": "/api/v1/metric/single/Call Center/7501/EREC/HOUR/2014-01-01",
  "metric_type": "flow",
  "metric_name": "Emergencies Received",
  "metric_code": "EREC",
  "gran_name": "Hour",
  "gran_code": "HOUR"
 },{
  "ent_category": "Call Center",
  "ent_name": "VUPS (FXL)",
  "total": 0,
  "ent_code": "OCC2",
  "dataURL": "/api/v1/metric/single/Call Center/OCC2/EREC/HOUR/2014-01-01",
  "metric_type": "flow",
  "metric_name": "Emergencies Received",
  "metric_code": "EREC",
  "gran_name": "Hour",
  "gran_code": "HOUR"
 },{
  "ent_category": "Call Center",
  "ent_name": "Underground Service Alert North (NCA1)",
  "total": 0,
  "ent_code": "NCA1",
  "dataURL": "/api/v1/metric/single/Call Center/NCA1/EREC/HOUR/2014-01-01",
  "metric_type": "flow",
  "metric_name": "Emergencies Received",
  "metric_code": "EREC",
  "gran_name": "Hour",
  "gran_code": "HOUR"
 },{
  "ent_category": "Call Center",
  "ent_name": "Miss Utility of Delmarva (FMW1)",
  "total": 0,
  "ent_code": "FMW1",
  "dataURL": "/api/v1/metric/single/Call Center/FMW1/EREC/HOUR/2014-01-01",
  "metric_type": "flow",
  "metric_name": "Emergencies Received",
  "metric_code": "EREC",
  "gran_name": "Hour",
  "gran_code": "HOUR"
 },{
  "ent_category": "Call Center",
  "ent_name": "Utilities Protection Center (Eden)",
  "total": 0,
  "ent_code": "3003",
  "dataURL": "/api/v1/metric/single/Call Center/3003/EREC/HOUR/2014-01-01",
  "metric_type": "flow",
  "metric_name": "Emergencies Received",
  "metric_code": "EREC",
  "gran_name": "Hour",
  "gran_code": "HOUR"
 },{
  "ent_category": "Call Center",
  "ent_name": "Miss Utility of West Virginia  (1181)",
  "total": 0,
  "ent_code": "1181",
  "dataURL": "/api/v1/metric/single/Call Center/1181/EREC/HOUR/2014-01-01",
  "metric_type": "flow",
  "metric_name": "Emergencies Received",
  "metric_code": "EREC",
  "gran_name": "Hour",
  "gran_code": "HOUR"
 },{
  "ent_category": "Call Center",
  "ent_name": "Arizona Blue Stake (SCA3)",
  "total": 0,
  "ent_code": "SCA3",
  "dataURL": "/api/v1/metric/single/Call Center/SCA3/EREC/HOUR/2014-01-01",
  "metric_type": "flow",
  "metric_name": "Emergencies Received",
  "metric_code": "EREC",
  "gran_name": "Hour",
  "gran_code": "HOUR"
 },{
  "ent_category": "Call Center",
  "ent_name": "Miss Utility of Delmarva (FMB1)",
  "total": 0,
  "ent_code": "FMB1",
  "dataURL": "/api/v1/metric/single/Call Center/FMB1/EREC/HOUR/2014-01-01",
  "metric_type": "flow",
  "metric_name": "Emergencies Received",
  "metric_code": "EREC",
  "gran_name": "Hour",
  "gran_code": "HOUR"
 },{
  "ent_category": "Call Center",
  "ent_name": "San Diego Gas Ticket Feed (SCA2)",
  "total": 0,
  "ent_code": "SCA2",
  "dataURL": "/api/v1/metric/single/Call Center/SCA2/EREC/HOUR/2014-01-01",
  "metric_type": "flow",
  "metric_name": "Emergencies Received",
  "metric_code": "EREC",
  "gran_name": "Hour",
  "gran_code": "HOUR"
 },{
  "ent_category": "Call Center",
  "ent_name": "Palmetto Utility Protection (1421)",
  "total": 0,
  "ent_code": "1421",
  "dataURL": "/api/v1/metric/single/Call Center/1421/EREC/HOUR/2014-01-01",
  "metric_type": "flow",
  "metric_name": "Emergencies Received",
  "metric_code": "EREC",
  "gran_name": "Hour",
  "gran_code": "HOUR"
 },{
  "ent_category": "Call Center",
  "ent_name": "New Jersey One Call (FNJ1)",
  "total": 0,
  "ent_code": "NewJersey",
  "dataURL": "/api/v1/metric/single/Call Center/NewJersey/EREC/HOUR/2014-01-01",
  "metric_type": "flow",
  "metric_name": "Emergencies Received",
  "metric_code": "EREC",
  "gran_name": "Hour",
  "gran_code": "HOUR"
 },{
  "ent_category": "Call Center",
  "ent_name": "Tennessee One Call (FNV1)",
  "total": 0,
  "ent_code": "FNV1",
  "dataURL": "/api/v1/metric/single/Call Center/FNV1/EREC/HOUR/2014-01-01",
  "metric_type": "flow",
  "metric_name": "Emergencies Received",
  "metric_code": "EREC",
  "gran_name": "Hour",
  "gran_code": "HOUR"
 },{
  "ent_category": "Call Center",
  "ent_name": "Alabama One Call (FAU2)",
  "total": 0,
  "ent_code": "FAU2",
  "dataURL": "/api/v1/metric/single/Call Center/FAU2/EREC/HOUR/2014-01-01",
  "metric_type": "flow",
  "metric_name": "Emergencies Received",
  "metric_code": "EREC",
  "gran_name": "Hour",
  "gran_code": "HOUR"
 },{
  "ent_category": "Call Center",
  "ent_name": "Pennsylvania One Call (FNJ5)",
  "total": 0,
  "ent_code": "NewJersey5",
  "dataURL": "/api/v1/metric/single/Call Center/NewJersey5/EREC/HOUR/2014-01-01",
  "metric_type": "flow",
  "metric_name": "Emergencies Received",
  "metric_code": "EREC",
  "gran_name": "Hour",
  "gran_code": "HOUR"
 },{
  "ent_category": "Call Center",
  "ent_name": "Underground Service Alert South (SCA1)",
  "total": 0,
  "ent_code": "SCA1",
  "dataURL": "/api/v1/metric/single/Call Center/SCA1/RESPQ/HOUR/2014-01-01",
  "metric_type": "state",
  "metric_name": "Response Queue Size (no demo)",
  "metric_code": "RESPQ",
  "gran_name": "Hour",
  "gran_code": "HOUR"
 },{
  "ent_category": "Call Center",
  "ent_name": "New York One Call (FNJ4)",
  "total": 0,
  "ent_code": "NewJersey4",
  "dataURL": "/api/v1/metric/single/Call Center/NewJersey4/RESPQ/HOUR/2014-01-01",
  "metric_type": "state",
  "metric_name": "Response Queue Size (no demo)",
  "metric_code": "RESPQ",
  "gran_name": "Hour",
  "gran_code": "HOUR"
 },{
  "ent_category": "Call Center",
  "ent_name": "Pennsylvania One Call (7501)",
  "total": 0,
  "ent_code": "7501",
  "dataURL": "/api/v1/metric/single/Call Center/7501/RESPQ/HOUR/2014-01-01",
  "metric_type": "state",
  "metric_name": "Response Queue Size (no demo)",
  "metric_code": "RESPQ",
  "gran_name": "Hour",
  "gran_code": "HOUR"
 },{
  "ent_category": "Call Center",
  "ent_name": "VUPS (FXL)",
  "total": 0,
  "ent_code": "OCC2",
  "dataURL": "/api/v1/metric/single/Call Center/OCC2/RESPQ/HOUR/2014-01-01",
  "metric_type": "state",
  "metric_name": "Response Queue Size (no demo)",
  "metric_code": "RESPQ",
  "gran_name": "Hour",
  "gran_code": "HOUR"
 },{
  "ent_category": "Call Center",
  "ent_name": "Underground Service Alert North (NCA1)",
  "total": 0,
  "ent_code": "NCA1",
  "dataURL": "/api/v1/metric/single/Call Center/NCA1/RESPQ/HOUR/2014-01-01",
  "metric_type": "state",
  "metric_name": "Response Queue Size (no demo)",
  "metric_code": "RESPQ",
  "gran_name": "Hour",
  "gran_code": "HOUR"
 },{
  "ent_category": "Call Center",
  "ent_name": "Miss Utility of Delmarva (FMW1)",
  "total": 0,
  "ent_code": "FMW1",
  "dataURL": "/api/v1/metric/single/Call Center/FMW1/RESPQ/HOUR/2014-01-01",
  "metric_type": "state",
  "metric_name": "Response Queue Size (no demo)",
  "metric_code": "RESPQ",
  "gran_name": "Hour",
  "gran_code": "HOUR"
 },{
  "ent_category": "Call Center",
  "ent_name": "Utilities Protection Center (Eden)",
  "total": 0,
  "ent_code": "3003",
  "dataURL": "/api/v1/metric/single/Call Center/3003/RESPQ/HOUR/2014-01-01",
  "metric_type": "state",
  "metric_name": "Response Queue Size (no demo)",
  "metric_code": "RESPQ",
  "gran_name": "Hour",
  "gran_code": "HOUR"
 },{
  "ent_category": "Call Center",
  "ent_name": "Miss Utility of West Virginia  (1181)",
  "total": 0,
  "ent_code": "1181",
  "dataURL": "/api/v1/metric/single/Call Center/1181/RESPQ/HOUR/2014-01-01",
  "metric_type": "state",
  "metric_name": "Response Queue Size (no demo)",
  "metric_code": "RESPQ",
  "gran_name": "Hour",
  "gran_code": "HOUR"
 },{
  "ent_category": "Call Center",
  "ent_name": "Arizona Blue Stake (SCA3)",
  "total": 0,
  "ent_code": "SCA3",
  "dataURL": "/api/v1/metric/single/Call Center/SCA3/RESPQ/HOUR/2014-01-01",
  "metric_type": "state",
  "metric_name": "Response Queue Size (no demo)",
  "metric_code": "RESPQ",
  "gran_name": "Hour",
  "gran_code": "HOUR"
 },{
  "ent_category": "Call Center",
  "ent_name": "Miss Utility of Delmarva (FMB1)",
  "total": 0,
  "ent_code": "FMB1",
  "dataURL": "/api/v1/metric/single/Call Center/FMB1/RESPQ/HOUR/2014-01-01",
  "metric_type": "state",
  "metric_name": "Response Queue Size (no demo)",
  "metric_code": "RESPQ",
  "gran_name": "Hour",
  "gran_code": "HOUR"
 },{
  "ent_category": "Call Center",
  "ent_name": "San Diego Gas Ticket Feed (SCA2)",
  "total": 0,
  "ent_code": "SCA2",
  "dataURL": "/api/v1/metric/single/Call Center/SCA2/RESPQ/HOUR/2014-01-01",
  "metric_type": "state",
  "metric_name": "Response Queue Size (no demo)",
  "metric_code": "RESPQ",
  "gran_name": "Hour",
  "gran_code": "HOUR"
 },{
  "ent_category": "Call Center",
  "ent_name": "Palmetto Utility Protection (1421)",
  "total": 0,
  "ent_code": "1421",
  "dataURL": "/api/v1/metric/single/Call Center/1421/RESPQ/HOUR/2014-01-01",
  "metric_type": "state",
  "metric_name": "Response Queue Size (no demo)",
  "metric_code": "RESPQ",
  "gran_name": "Hour",
  "gran_code": "HOUR"
 },{
  "ent_category": "Call Center",
  "ent_name": "New Jersey One Call (FNJ1)",
  "total": 0,
  "ent_code": "NewJersey",
  "dataURL": "/api/v1/metric/single/Call Center/NewJersey/RESPQ/HOUR/2014-01-01",
  "metric_type": "state",
  "metric_name": "Response Queue Size (no demo)",
  "metric_code": "RESPQ",
  "gran_name": "Hour",
  "gran_code": "HOUR"
 },{
  "ent_category": "Call Center",
  "ent_name": "Tennessee One Call (FNV1)",
  "total": 0,
  "ent_code": "FNV1",
  "dataURL": "/api/v1/metric/single/Call Center/FNV1/RESPQ/HOUR/2014-01-01",
  "metric_type": "state",
  "metric_name": "Response Queue Size (no demo)",
  "metric_code": "RESPQ",
  "gran_name": "Hour",
  "gran_code": "HOUR"
 },{
  "ent_category": "Call Center",
  "ent_name": "Alabama One Call (FAU2)",
  "total": 0,
  "ent_code": "FAU2",
  "dataURL": "/api/v1/metric/single/Call Center/FAU2/RESPQ/HOUR/2014-01-01",
  "metric_type": "state",
  "metric_name": "Response Queue Size (no demo)",
  "metric_code": "RESPQ",
  "gran_name": "Hour",
  "gran_code": "HOUR"
 },{
  "ent_category": "Call Center",
  "ent_name": "Pennsylvania One Call (FNJ5)",
  "total": 0,
  "ent_code": "NewJersey5",
  "dataURL": "/api/v1/metric/single/Call Center/NewJersey5/RESPQ/HOUR/2014-01-01",
  "metric_type": "state",
  "metric_name": "Response Queue Size (no demo)",
  "metric_code": "RESPQ",
  "gran_name": "Hour",
  "gran_code": "HOUR"
 },{
  "ent_category": "Call Center",
  "ent_name": "Underground Service Alert South (SCA1)",
  "total": 0,
  "ent_code": "SCA1",
  "dataURL": "/api/v1/metric/single/Call Center/SCA1/TCLEMP/HOUR/2014-01-01",
  "metric_type": "flow",
  "metric_name": "Ticket Closing",
  "metric_code": "TCLEMP",
  "gran_name": "Hour",
  "gran_code": "HOUR"
 },{
  "ent_category": "Call Center",
  "ent_name": "New York One Call (FNJ4)",
  "total": 0,
  "ent_code": "NewJersey4",
  "dataURL": "/api/v1/metric/single/Call Center/NewJersey4/TCLEMP/HOUR/2014-01-01",
  "metric_type": "flow",
  "metric_name": "Ticket Closing",
  "metric_code": "TCLEMP",
  "gran_name": "Hour",
  "gran_code": "HOUR"
 },{
  "ent_category": "Call Center",
  "ent_name": "Pennsylvania One Call (7501)",
  "total": 0,
  "ent_code": "7501",
  "dataURL": "/api/v1/metric/single/Call Center/7501/TCLEMP/HOUR/2014-01-01",
  "metric_type": "flow",
  "metric_name": "Ticket Closing",
  "metric_code": "TCLEMP",
  "gran_name": "Hour",
  "gran_code": "HOUR"
 },{
  "ent_category": "Call Center",
  "ent_name": "VUPS (FXL)",
  "total": 0,
  "ent_code": "OCC2",
  "dataURL": "/api/v1/metric/single/Call Center/OCC2/TCLEMP/HOUR/2014-01-01",
  "metric_type": "flow",
  "metric_name": "Ticket Closing",
  "metric_code": "TCLEMP",
  "gran_name": "Hour",
  "gran_code": "HOUR"
 },{
  "ent_category": "Call Center",
  "ent_name": "Underground Service Alert North (NCA1)",
  "total": 0,
  "ent_code": "NCA1",
  "dataURL": "/api/v1/metric/single/Call Center/NCA1/TCLEMP/HOUR/2014-01-01",
  "metric_type": "flow",
  "metric_name": "Ticket Closing",
  "metric_code": "TCLEMP",
  "gran_name": "Hour",
  "gran_code": "HOUR"
 },{
  "ent_category": "Call Center",
  "ent_name": "Miss Utility of Delmarva (FMW1)",
  "total": 0,
  "ent_code": "FMW1",
  "dataURL": "/api/v1/metric/single/Call Center/FMW1/TCLEMP/HOUR/2014-01-01",
  "metric_type": "flow",
  "metric_name": "Ticket Closing",
  "metric_code": "TCLEMP",
  "gran_name": "Hour",
  "gran_code": "HOUR"
 },{
  "ent_category": "Call Center",
  "ent_name": "Utilities Protection Center (Eden)",
  "total": 0,
  "ent_code": "3003",
  "dataURL": "/api/v1/metric/single/Call Center/3003/TCLEMP/HOUR/2014-01-01",
  "metric_type": "flow",
  "metric_name": "Ticket Closing",
  "metric_code": "TCLEMP",
  "gran_name": "Hour",
  "gran_code": "HOUR"
 },{
  "ent_category": "Call Center",
  "ent_name": "Miss Utility of West Virginia  (1181)",
  "total": 0,
  "ent_code": "1181",
  "dataURL": "/api/v1/metric/single/Call Center/1181/TCLEMP/HOUR/2014-01-01",
  "metric_type": "flow",
  "metric_name": "Ticket Closing",
  "metric_code": "TCLEMP",
  "gran_name": "Hour",
  "gran_code": "HOUR"
 },{
  "ent_category": "Call Center",
  "ent_name": "Arizona Blue Stake (SCA3)",
  "total": 0,
  "ent_code": "SCA3",
  "dataURL": "/api/v1/metric/single/Call Center/SCA3/TCLEMP/HOUR/2014-01-01",
  "metric_type": "flow",
  "metric_name": "Ticket Closing",
  "metric_code": "TCLEMP",
  "gran_name": "Hour",
  "gran_code": "HOUR"
 },{
  "ent_category": "Call Center",
  "ent_name": "Miss Utility of Delmarva (FMB1)",
  "total": 0,
  "ent_code": "FMB1",
  "dataURL": "/api/v1/metric/single/Call Center/FMB1/TCLEMP/HOUR/2014-01-01",
  "metric_type": "flow",
  "metric_name": "Ticket Closing",
  "metric_code": "TCLEMP",
  "gran_name": "Hour",
  "gran_code": "HOUR"
 },{
  "ent_category": "Call Center",
  "ent_name": "San Diego Gas Ticket Feed (SCA2)",
  "total": 0,
  "ent_code": "SCA2",
  "dataURL": "/api/v1/metric/single/Call Center/SCA2/TCLEMP/HOUR/2014-01-01",
  "metric_type": "flow",
  "metric_name": "Ticket Closing",
  "metric_code": "TCLEMP",
  "gran_name": "Hour",
  "gran_code": "HOUR"
 },{
  "ent_category": "Call Center",
  "ent_name": "Palmetto Utility Protection (1421)",
  "total": 0,
  "ent_code": "1421",
  "dataURL": "/api/v1/metric/single/Call Center/1421/TCLEMP/HOUR/2014-01-01",
  "metric_type": "flow",
  "metric_name": "Ticket Closing",
  "metric_code": "TCLEMP",
  "gran_name": "Hour",
  "gran_code": "HOUR"
 },{
  "ent_category": "Call Center",
  "ent_name": "New Jersey One Call (FNJ1)",
  "total": 0,
  "ent_code": "NewJersey",
  "dataURL": "/api/v1/metric/single/Call Center/NewJersey/TCLEMP/HOUR/2014-01-01",
  "metric_type": "flow",
  "metric_name": "Ticket Closing",
  "metric_code": "TCLEMP",
  "gran_name": "Hour",
  "gran_code": "HOUR"
 },{
  "ent_category": "Call Center",
  "ent_name": "Tennessee One Call (FNV1)",
  "total": 0,
  "ent_code": "FNV1",
  "dataURL": "/api/v1/metric/single/Call Center/FNV1/TCLEMP/HOUR/2014-01-01",
  "metric_type": "flow",
  "metric_name": "Ticket Closing",
  "metric_code": "TCLEMP",
  "gran_name": "Hour",
  "gran_code": "HOUR"
 },{
  "ent_category": "Call Center",
  "ent_name": "Alabama One Call (FAU2)",
  "total": 0,
  "ent_code": "FAU2",
  "dataURL": "/api/v1/metric/single/Call Center/FAU2/TCLEMP/HOUR/2014-01-01",
  "metric_type": "flow",
  "metric_name": "Ticket Closing",
  "metric_code": "TCLEMP",
  "gran_name": "Hour",
  "gran_code": "HOUR"
 },{
  "ent_category": "Call Center",
  "ent_name": "Pennsylvania One Call (FNJ5)",
  "total": 0,
  "ent_code": "NewJersey5",
  "dataURL": "/api/v1/metric/single/Call Center/NewJersey5/TCLEMP/HOUR/2014-01-01",
  "metric_type": "flow",
  "metric_name": "Ticket Closing",
  "metric_code": "TCLEMP",
  "gran_name": "Hour",
  "gran_code": "HOUR"
 },{
  "ent_category": "Call Center",
  "ent_name": "Underground Service Alert South (SCA1)",
  "total": 0,
  "ent_code": "SCA1",
  "dataURL": "/api/v1/metric/single/Call Center/SCA1/TCLOSE/HOUR/2014-01-01",
  "metric_type": "flow",
  "metric_name": "Ticket Closing",
  "metric_code": "TCLOSE",
  "gran_name": "Hour",
  "gran_code": "HOUR"
 },{
  "ent_category": "Call Center",
  "ent_name": "New York One Call (FNJ4)",
  "total": 0,
  "ent_code": "NewJersey4",
  "dataURL": "/api/v1/metric/single/Call Center/NewJersey4/TCLOSE/HOUR/2014-01-01",
  "metric_type": "flow",
  "metric_name": "Ticket Closing",
  "metric_code": "TCLOSE",
  "gran_name": "Hour",
  "gran_code": "HOUR"
 },{
  "ent_category": "Call Center",
  "ent_name": "Pennsylvania One Call (7501)",
  "total": 0,
  "ent_code": "7501",
  "dataURL": "/api/v1/metric/single/Call Center/7501/TCLOSE/HOUR/2014-01-01",
  "metric_type": "flow",
  "metric_name": "Ticket Closing",
  "metric_code": "TCLOSE",
  "gran_name": "Hour",
  "gran_code": "HOUR"
 },{
  "ent_category": "Call Center",
  "ent_name": "VUPS (FXL)",
  "total": 0,
  "ent_code": "OCC2",
  "dataURL": "/api/v1/metric/single/Call Center/OCC2/TCLOSE/HOUR/2014-01-01",
  "metric_type": "flow",
  "metric_name": "Ticket Closing",
  "metric_code": "TCLOSE",
  "gran_name": "Hour",
  "gran_code": "HOUR"
 },{
  "ent_category": "Call Center",
  "ent_name": "Underground Service Alert North (NCA1)",
  "total": 0,
  "ent_code": "NCA1",
  "dataURL": "/api/v1/metric/single/Call Center/NCA1/TCLOSE/HOUR/2014-01-01",
  "metric_type": "flow",
  "metric_name": "Ticket Closing",
  "metric_code": "TCLOSE",
  "gran_name": "Hour",
  "gran_code": "HOUR"
 },{
  "ent_category": "Call Center",
  "ent_name": "Miss Utility of Delmarva (FMW1)",
  "total": 0,
  "ent_code": "FMW1",
  "dataURL": "/api/v1/metric/single/Call Center/FMW1/TCLOSE/HOUR/2014-01-01",
  "metric_type": "flow",
  "metric_name": "Ticket Closing",
  "metric_code": "TCLOSE",
  "gran_name": "Hour",
  "gran_code": "HOUR"
 },{
  "ent_category": "Call Center",
  "ent_name": "Utilities Protection Center (Eden)",
  "total": 0,
  "ent_code": "3003",
  "dataURL": "/api/v1/metric/single/Call Center/3003/TCLOSE/HOUR/2014-01-01",
  "metric_type": "flow",
  "metric_name": "Ticket Closing",
  "metric_code": "TCLOSE",
  "gran_name": "Hour",
  "gran_code": "HOUR"
 },{
  "ent_category": "Call Center",
  "ent_name": "Miss Utility of West Virginia  (1181)",
  "total": 0,
  "ent_code": "1181",
  "dataURL": "/api/v1/metric/single/Call Center/1181/TCLOSE/HOUR/2014-01-01",
  "metric_type": "flow",
  "metric_name": "Ticket Closing",
  "metric_code": "TCLOSE",
  "gran_name": "Hour",
  "gran_code": "HOUR"
 },{
  "ent_category": "Call Center",
  "ent_name": "Arizona Blue Stake (SCA3)",
  "total": 0,
  "ent_code": "SCA3",
  "dataURL": "/api/v1/metric/single/Call Center/SCA3/TCLOSE/HOUR/2014-01-01",
  "metric_type": "flow",
  "metric_name": "Ticket Closing",
  "metric_code": "TCLOSE",
  "gran_name": "Hour",
  "gran_code": "HOUR"
 },{
  "ent_category": "Call Center",
  "ent_name": "Miss Utility of Delmarva (FMB1)",
  "total": 0,
  "ent_code": "FMB1",
  "dataURL": "/api/v1/metric/single/Call Center/FMB1/TCLOSE/HOUR/2014-01-01",
  "metric_type": "flow",
  "metric_name": "Ticket Closing",
  "metric_code": "TCLOSE",
  "gran_name": "Hour",
  "gran_code": "HOUR"
 },{
  "ent_category": "Call Center",
  "ent_name": "San Diego Gas Ticket Feed (SCA2)",
  "total": 0,
  "ent_code": "SCA2",
  "dataURL": "/api/v1/metric/single/Call Center/SCA2/TCLOSE/HOUR/2014-01-01",
  "metric_type": "flow",
  "metric_name": "Ticket Closing",
  "metric_code": "TCLOSE",
  "gran_name": "Hour",
  "gran_code": "HOUR"
 },{
  "ent_category": "Call Center",
  "ent_name": "Palmetto Utility Protection (1421)",
  "total": 0,
  "ent_code": "1421",
  "dataURL": "/api/v1/metric/single/Call Center/1421/TCLOSE/HOUR/2014-01-01",
  "metric_type": "flow",
  "metric_name": "Ticket Closing",
  "metric_code": "TCLOSE",
  "gran_name": "Hour",
  "gran_code": "HOUR"
 },{
  "ent_category": "Call Center",
  "ent_name": "New Jersey One Call (FNJ1)",
  "total": 0,
  "ent_code": "NewJersey",
  "dataURL": "/api/v1/metric/single/Call Center/NewJersey/TCLOSE/HOUR/2014-01-01",
  "metric_type": "flow",
  "metric_name": "Ticket Closing",
  "metric_code": "TCLOSE",
  "gran_name": "Hour",
  "gran_code": "HOUR"
 },{
  "ent_category": "Call Center",
  "ent_name": "Tennessee One Call (FNV1)",
  "total": 0,
  "ent_code": "FNV1",
  "dataURL": "/api/v1/metric/single/Call Center/FNV1/TCLOSE/HOUR/2014-01-01",
  "metric_type": "flow",
  "metric_name": "Ticket Closing",
  "metric_code": "TCLOSE",
  "gran_name": "Hour",
  "gran_code": "HOUR"
 },{
  "ent_category": "Call Center",
  "ent_name": "Alabama One Call (FAU2)",
  "total": 0,
  "ent_code": "FAU2",
  "dataURL": "/api/v1/metric/single/Call Center/FAU2/TCLOSE/HOUR/2014-01-01",
  "metric_type": "flow",
  "metric_name": "Ticket Closing",
  "metric_code": "TCLOSE",
  "gran_name": "Hour",
  "gran_code": "HOUR"
 },{
  "ent_category": "Call Center",
  "ent_name": "Pennsylvania One Call (FNJ5)",
  "total": 0,
  "ent_code": "NewJersey5",
  "dataURL": "/api/v1/metric/single/Call Center/NewJersey5/TCLOSE/HOUR/2014-01-01",
  "metric_type": "flow",
  "metric_name": "Ticket Closing",
  "metric_code": "TCLOSE",
  "gran_name": "Hour",
  "gran_code": "HOUR"
 },{
  "ent_category": "Call Center",
  "ent_name": "Underground Service Alert South (SCA1)",
  "total": 0,
  "ent_code": "SCA1",
  "dataURL": "/api/v1/metric/single/Call Center/SCA1/TREC/HOUR/2014-01-01",
  "metric_type": "flow",
  "metric_name": "Tickets Received",
  "metric_code": "TREC",
  "gran_name": "Hour",
  "gran_code": "HOUR"
 },{
  "ent_category": "Call Center",
  "ent_name": "New York One Call (FNJ4)",
  "total": 0,
  "ent_code": "NewJersey4",
  "dataURL": "/api/v1/metric/single/Call Center/NewJersey4/TREC/HOUR/2014-01-01",
  "metric_type": "flow",
  "metric_name": "Tickets Received",
  "metric_code": "TREC",
  "gran_name": "Hour",
  "gran_code": "HOUR"
 },{
  "ent_category": "Call Center",
  "ent_name": "Pennsylvania One Call (7501)",
  "total": 0,
  "ent_code": "7501",
  "dataURL": "/api/v1/metric/single/Call Center/7501/TREC/HOUR/2014-01-01",
  "metric_type": "flow",
  "metric_name": "Tickets Received",
  "metric_code": "TREC",
  "gran_name": "Hour",
  "gran_code": "HOUR"
 },{
  "ent_category": "Call Center",
  "ent_name": "VUPS (FXL)",
  "total": 0,
  "ent_code": "OCC2",
  "dataURL": "/api/v1/metric/single/Call Center/OCC2/TREC/HOUR/2014-01-01",
  "metric_type": "flow",
  "metric_name": "Tickets Received",
  "metric_code": "TREC",
  "gran_name": "Hour",
  "gran_code": "HOUR"
 },{
  "ent_category": "Call Center",
  "ent_name": "Underground Service Alert North (NCA1)",
  "total": 0,
  "ent_code": "NCA1",
  "dataURL": "/api/v1/metric/single/Call Center/NCA1/TREC/HOUR/2014-01-01",
  "metric_type": "flow",
  "metric_name": "Tickets Received",
  "metric_code": "TREC",
  "gran_name": "Hour",
  "gran_code": "HOUR"
 },{
  "ent_category": "Call Center",
  "ent_name": "Miss Utility of Delmarva (FMW1)",
  "total": 0,
  "ent_code": "FMW1",
  "dataURL": "/api/v1/metric/single/Call Center/FMW1/TREC/HOUR/2014-01-01",
  "metric_type": "flow",
  "metric_name": "Tickets Received",
  "metric_code": "TREC",
  "gran_name": "Hour",
  "gran_code": "HOUR"
 },{
  "ent_category": "Call Center",
  "ent_name": "Utilities Protection Center (Eden)",
  "total": 0,
  "ent_code": "3003",
  "dataURL": "/api/v1/metric/single/Call Center/3003/TREC/HOUR/2014-01-01",
  "metric_type": "flow",
  "metric_name": "Tickets Received",
  "metric_code": "TREC",
  "gran_name": "Hour",
  "gran_code": "HOUR"
 },{
  "ent_category": "Call Center",
  "ent_name": "Miss Utility of West Virginia  (1181)",
  "total": 0,
  "ent_code": "1181",
  "dataURL": "/api/v1/metric/single/Call Center/1181/TREC/HOUR/2014-01-01",
  "metric_type": "flow",
  "metric_name": "Tickets Received",
  "metric_code": "TREC",
  "gran_name": "Hour",
  "gran_code": "HOUR"
 },{
  "ent_category": "Call Center",
  "ent_name": "Arizona Blue Stake (SCA3)",
  "total": 0,
  "ent_code": "SCA3",
  "dataURL": "/api/v1/metric/single/Call Center/SCA3/TREC/HOUR/2014-01-01",
  "metric_type": "flow",
  "metric_name": "Tickets Received",
  "metric_code": "TREC",
  "gran_name": "Hour",
  "gran_code": "HOUR"
 },{
  "ent_category": "Call Center",
  "ent_name": "Miss Utility of Delmarva (FMB1)",
  "total": 0,
  "ent_code": "FMB1",
  "dataURL": "/api/v1/metric/single/Call Center/FMB1/TREC/HOUR/2014-01-01",
  "metric_type": "flow",
  "metric_name": "Tickets Received",
  "metric_code": "TREC",
  "gran_name": "Hour",
  "gran_code": "HOUR"
 },{
  "ent_category": "Call Center",
  "ent_name": "San Diego Gas Ticket Feed (SCA2)",
  "total": 0,
  "ent_code": "SCA2",
  "dataURL": "/api/v1/metric/single/Call Center/SCA2/TREC/HOUR/2014-01-01",
  "metric_type": "flow",
  "metric_name": "Tickets Received",
  "metric_code": "TREC",
  "gran_name": "Hour",
  "gran_code": "HOUR"
 },{
  "ent_category": "Call Center",
  "ent_name": "Palmetto Utility Protection (1421)",
  "total": 0,
  "ent_code": "1421",
  "dataURL": "/api/v1/metric/single/Call Center/1421/TREC/HOUR/2014-01-01",
  "metric_type": "flow",
  "metric_name": "Tickets Received",
  "metric_code": "TREC",
  "gran_name": "Hour",
  "gran_code": "HOUR"
 },{
  "ent_category": "Call Center",
  "ent_name": "New Jersey One Call (FNJ1)",
  "total": 0,
  "ent_code": "NewJersey",
  "dataURL": "/api/v1/metric/single/Call Center/NewJersey/TREC/HOUR/2014-01-01",
  "metric_type": "flow",
  "metric_name": "Tickets Received",
  "metric_code": "TREC",
  "gran_name": "Hour",
  "gran_code": "HOUR"
 },{
  "ent_category": "Call Center",
  "ent_name": "Tennessee One Call (FNV1)",
  "total": 0,
  "ent_code": "FNV1",
  "dataURL": "/api/v1/metric/single/Call Center/FNV1/TREC/HOUR/2014-01-01",
  "metric_type": "flow",
  "metric_name": "Tickets Received",
  "metric_code": "TREC",
  "gran_name": "Hour",
  "gran_code": "HOUR"
 },{
  "ent_category": "Call Center",
  "ent_name": "Alabama One Call (FAU2)",
  "total": 0,
  "ent_code": "FAU2",
  "dataURL": "/api/v1/metric/single/Call Center/FAU2/TREC/HOUR/2014-01-01",
  "metric_type": "flow",
  "metric_name": "Tickets Received",
  "metric_code": "TREC",
  "gran_name": "Hour",
  "gran_code": "HOUR"
 },{
  "ent_category": "Call Center",
  "ent_name": "Pennsylvania One Call (FNJ5)",
  "total": 0,
  "ent_code": "NewJersey5",
  "dataURL": "/api/v1/metric/single/Call Center/NewJersey5/TREC/HOUR/2014-01-01",
  "metric_type": "flow",
  "metric_name": "Tickets Received",
  "metric_code": "TREC",
  "gran_name": "Hour",
  "gran_code": "HOUR"
 },{
  "ent_category": "Call Center",
  "ent_name": "Underground Service Alert South (SCA1)",
  "total": 0,
  "ent_code": "SCA1",
  "dataURL": "/api/v1/metric/single/Call Center/SCA1/TROUTE/HOUR/2014-01-01",
  "metric_type": "flow",
  "metric_name": "Tickets Routed (no demo)",
  "metric_code": "TROUTE",
  "gran_name": "Hour",
  "gran_code": "HOUR"
 },{
  "ent_category": "Call Center",
  "ent_name": "New York One Call (FNJ4)",
  "total": 0,
  "ent_code": "NewJersey4",
  "dataURL": "/api/v1/metric/single/Call Center/NewJersey4/TROUTE/HOUR/2014-01-01",
  "metric_type": "flow",
  "metric_name": "Tickets Routed (no demo)",
  "metric_code": "TROUTE",
  "gran_name": "Hour",
  "gran_code": "HOUR"
 },{
  "ent_category": "Call Center",
  "ent_name": "Pennsylvania One Call (7501)",
  "total": 0,
  "ent_code": "7501",
  "dataURL": "/api/v1/metric/single/Call Center/7501/TROUTE/HOUR/2014-01-01",
  "metric_type": "flow",
  "metric_name": "Tickets Routed (no demo)",
  "metric_code": "TROUTE",
  "gran_name": "Hour",
  "gran_code": "HOUR"
 },{
  "ent_category": "Call Center",
  "ent_name": "VUPS (FXL)",
  "total": 0,
  "ent_code": "OCC2",
  "dataURL": "/api/v1/metric/single/Call Center/OCC2/TROUTE/HOUR/2014-01-01",
  "metric_type": "flow",
  "metric_name": "Tickets Routed (no demo)",
  "metric_code": "TROUTE",
  "gran_name": "Hour",
  "gran_code": "HOUR"
 },{
  "ent_category": "Call Center",
  "ent_name": "Underground Service Alert North (NCA1)",
  "total": 0,
  "ent_code": "NCA1",
  "dataURL": "/api/v1/metric/single/Call Center/NCA1/TROUTE/HOUR/2014-01-01",
  "metric_type": "flow",
  "metric_name": "Tickets Routed (no demo)",
  "metric_code": "TROUTE",
  "gran_name": "Hour",
  "gran_code": "HOUR"
 },{
  "ent_category": "Call Center",
  "ent_name": "Miss Utility of Delmarva (FMW1)",
  "total": 0,
  "ent_code": "FMW1",
  "dataURL": "/api/v1/metric/single/Call Center/FMW1/TROUTE/HOUR/2014-01-01",
  "metric_type": "flow",
  "metric_name": "Tickets Routed (no demo)",
  "metric_code": "TROUTE",
  "gran_name": "Hour",
  "gran_code": "HOUR"
 },{
  "ent_category": "Call Center",
  "ent_name": "Utilities Protection Center (Eden)",
  "total": 0,
  "ent_code": "3003",
  "dataURL": "/api/v1/metric/single/Call Center/3003/TROUTE/HOUR/2014-01-01",
  "metric_type": "flow",
  "metric_name": "Tickets Routed (no demo)",
  "metric_code": "TROUTE",
  "gran_name": "Hour",
  "gran_code": "HOUR"
 },{
  "ent_category": "Call Center",
  "ent_name": "Miss Utility of West Virginia  (1181)",
  "total": 0,
  "ent_code": "1181",
  "dataURL": "/api/v1/metric/single/Call Center/1181/TROUTE/HOUR/2014-01-01",
  "metric_type": "flow",
  "metric_name": "Tickets Routed (no demo)",
  "metric_code": "TROUTE",
  "gran_name": "Hour",
  "gran_code": "HOUR"
 },{
  "ent_category": "Call Center",
  "ent_name": "Arizona Blue Stake (SCA3)",
  "total": 0,
  "ent_code": "SCA3",
  "dataURL": "/api/v1/metric/single/Call Center/SCA3/TROUTE/HOUR/2014-01-01",
  "metric_type": "flow",
  "metric_name": "Tickets Routed (no demo)",
  "metric_code": "TROUTE",
  "gran_name": "Hour",
  "gran_code": "HOUR"
 },{
  "ent_category": "Call Center",
  "ent_name": "Miss Utility of Delmarva (FMB1)",
  "total": 0,
  "ent_code": "FMB1",
  "dataURL": "/api/v1/metric/single/Call Center/FMB1/TROUTE/HOUR/2014-01-01",
  "metric_type": "flow",
  "metric_name": "Tickets Routed (no demo)",
  "metric_code": "TROUTE",
  "gran_name": "Hour",
  "gran_code": "HOUR"
 },{
  "ent_category": "Call Center",
  "ent_name": "San Diego Gas Ticket Feed (SCA2)",
  "total": 0,
  "ent_code": "SCA2",
  "dataURL": "/api/v1/metric/single/Call Center/SCA2/TROUTE/HOUR/2014-01-01",
  "metric_type": "flow",
  "metric_name": "Tickets Routed (no demo)",
  "metric_code": "TROUTE",
  "gran_name": "Hour",
  "gran_code": "HOUR"
 },{
  "ent_category": "Call Center",
  "ent_name": "Palmetto Utility Protection (1421)",
  "total": 0,
  "ent_code": "1421",
  "dataURL": "/api/v1/metric/single/Call Center/1421/TROUTE/HOUR/2014-01-01",
  "metric_type": "flow",
  "metric_name": "Tickets Routed (no demo)",
  "metric_code": "TROUTE",
  "gran_name": "Hour",
  "gran_code": "HOUR"
 },{
  "ent_category": "Call Center",
  "ent_name": "New Jersey One Call (FNJ1)",
  "total": 0,
  "ent_code": "NewJersey",
  "dataURL": "/api/v1/metric/single/Call Center/NewJersey/TROUTE/HOUR/2014-01-01",
  "metric_type": "flow",
  "metric_name": "Tickets Routed (no demo)",
  "metric_code": "TROUTE",
  "gran_name": "Hour",
  "gran_code": "HOUR"
 },{
  "ent_category": "Call Center",
  "ent_name": "Tennessee One Call (FNV1)",
  "total": 0,
  "ent_code": "FNV1",
  "dataURL": "/api/v1/metric/single/Call Center/FNV1/TROUTE/HOUR/2014-01-01",
  "metric_type": "flow",
  "metric_name": "Tickets Routed (no demo)",
  "metric_code": "TROUTE",
  "gran_name": "Hour",
  "gran_code": "HOUR"
 },{
  "ent_category": "Call Center",
  "ent_name": "Alabama One Call (FAU2)",
  "total": 0,
  "ent_code": "FAU2",
  "dataURL": "/api/v1/metric/single/Call Center/FAU2/TROUTE/HOUR/2014-01-01",
  "metric_type": "flow",
  "metric_name": "Tickets Routed (no demo)",
  "metric_code": "TROUTE",
  "gran_name": "Hour",
  "gran_code": "HOUR"
 },{
  "ent_category": "Call Center",
  "ent_name": "Pennsylvania One Call (FNJ5)",
  "total": 0,
  "ent_code": "NewJersey5",
  "dataURL": "/api/v1/metric/single/Call Center/NewJersey5/TROUTE/HOUR/2014-01-01",
  "metric_type": "flow",
  "metric_name": "Tickets Routed (no demo)",
  "metric_code": "TROUTE",
  "gran_name": "Hour",
  "gran_code": "HOUR"
 },{
  "ent_category": "Call Center",
  "ent_name": "Underground Service Alert South (SCA1)",
  "total": 0,
  "ent_code": "SCA1",
  "dataURL": "/api/v1/metric/single/Call Center/SCA1/EREC/MIN/2014-01-01",
  "metric_type": "flow",
  "metric_name": "Emergencies Received",
  "metric_code": "EREC",
  "gran_name": "Minute",
  "gran_code": "MIN"
 },{
  "ent_category": "Call Center",
  "ent_name": "New York One Call (FNJ4)",
  "total": 0,
  "ent_code": "NewJersey4",
  "dataURL": "/api/v1/metric/single/Call Center/NewJersey4/EREC/MIN/2014-01-01",
  "metric_type": "flow",
  "metric_name": "Emergencies Received",
  "metric_code": "EREC",
  "gran_name": "Minute",
  "gran_code": "MIN"
 },{
  "ent_category": "Call Center",
  "ent_name": "Pennsylvania One Call (7501)",
  "total": 0,
  "ent_code": "7501",
  "dataURL": "/api/v1/metric/single/Call Center/7501/EREC/MIN/2014-01-01",
  "metric_type": "flow",
  "metric_name": "Emergencies Received",
  "metric_code": "EREC",
  "gran_name": "Minute",
  "gran_code": "MIN"
 },{
  "ent_category": "Call Center",
  "ent_name": "VUPS (FXL)",
  "total": 0,
  "ent_code": "OCC2",
  "dataURL": "/api/v1/metric/single/Call Center/OCC2/EREC/MIN/2014-01-01",
  "metric_type": "flow",
  "metric_name": "Emergencies Received",
  "metric_code": "EREC",
  "gran_name": "Minute",
  "gran_code": "MIN"
 },{
  "ent_category": "Call Center",
  "ent_name": "Underground Service Alert North (NCA1)",
  "total": 0,
  "ent_code": "NCA1",
  "dataURL": "/api/v1/metric/single/Call Center/NCA1/EREC/MIN/2014-01-01",
  "metric_type": "flow",
  "metric_name": "Emergencies Received",
  "metric_code": "EREC",
  "gran_name": "Minute",
  "gran_code": "MIN"
 },{
  "ent_category": "Call Center",
  "ent_name": "Miss Utility of Delmarva (FMW1)",
  "total": 0,
  "ent_code": "FMW1",
  "dataURL": "/api/v1/metric/single/Call Center/FMW1/EREC/MIN/2014-01-01",
  "metric_type": "flow",
  "metric_name": "Emergencies Received",
  "metric_code": "EREC",
  "gran_name": "Minute",
  "gran_code": "MIN"
 },{
  "ent_category": "Call Center",
  "ent_name": "Utilities Protection Center (Eden)",
  "total": 0,
  "ent_code": "3003",
  "dataURL": "/api/v1/metric/single/Call Center/3003/EREC/MIN/2014-01-01",
  "metric_type": "flow",
  "metric_name": "Emergencies Received",
  "metric_code": "EREC",
  "gran_name": "Minute",
  "gran_code": "MIN"
 },{
  "ent_category": "Call Center",
  "ent_name": "Miss Utility of West Virginia  (1181)",
  "total": 0,
  "ent_code": "1181",
  "dataURL": "/api/v1/metric/single/Call Center/1181/EREC/MIN/2014-01-01",
  "metric_type": "flow",
  "metric_name": "Emergencies Received",
  "metric_code": "EREC",
  "gran_name": "Minute",
  "gran_code": "MIN"
 },{
  "ent_category": "Call Center",
  "ent_name": "Arizona Blue Stake (SCA3)",
  "total": 0,
  "ent_code": "SCA3",
  "dataURL": "/api/v1/metric/single/Call Center/SCA3/EREC/MIN/2014-01-01",
  "metric_type": "flow",
  "metric_name": "Emergencies Received",
  "metric_code": "EREC",
  "gran_name": "Minute",
  "gran_code": "MIN"
 },{
  "ent_category": "Call Center",
  "ent_name": "Miss Utility of Delmarva (FMB1)",
  "total": 0,
  "ent_code": "FMB1",
  "dataURL": "/api/v1/metric/single/Call Center/FMB1/EREC/MIN/2014-01-01",
  "metric_type": "flow",
  "metric_name": "Emergencies Received",
  "metric_code": "EREC",
  "gran_name": "Minute",
  "gran_code": "MIN"
 },{
  "ent_category": "Call Center",
  "ent_name": "San Diego Gas Ticket Feed (SCA2)",
  "total": 0,
  "ent_code": "SCA2",
  "dataURL": "/api/v1/metric/single/Call Center/SCA2/EREC/MIN/2014-01-01",
  "metric_type": "flow",
  "metric_name": "Emergencies Received",
  "metric_code": "EREC",
  "gran_name": "Minute",
  "gran_code": "MIN"
 },{
  "ent_category": "Call Center",
  "ent_name": "Palmetto Utility Protection (1421)",
  "total": 0,
  "ent_code": "1421",
  "dataURL": "/api/v1/metric/single/Call Center/1421/EREC/MIN/2014-01-01",
  "metric_type": "flow",
  "metric_name": "Emergencies Received",
  "metric_code": "EREC",
  "gran_name": "Minute",
  "gran_code": "MIN"
 },{
  "ent_category": "Call Center",
  "ent_name": "New Jersey One Call (FNJ1)",
  "total": 0,
  "ent_code": "NewJersey",
  "dataURL": "/api/v1/metric/single/Call Center/NewJersey/EREC/MIN/2014-01-01",
  "metric_type": "flow",
  "metric_name": "Emergencies Received",
  "metric_code": "EREC",
  "gran_name": "Minute",
  "gran_code": "MIN"
 },{
  "ent_category": "Call Center",
  "ent_name": "Tennessee One Call (FNV1)",
  "total": 0,
  "ent_code": "FNV1",
  "dataURL": "/api/v1/metric/single/Call Center/FNV1/EREC/MIN/2014-01-01",
  "metric_type": "flow",
  "metric_name": "Emergencies Received",
  "metric_code": "EREC",
  "gran_name": "Minute",
  "gran_code": "MIN"
 },{
  "ent_category": "Call Center",
  "ent_name": "Alabama One Call (FAU2)",
  "total": 0,
  "ent_code": "FAU2",
  "dataURL": "/api/v1/metric/single/Call Center/FAU2/EREC/MIN/2014-01-01",
  "metric_type": "flow",
  "metric_name": "Emergencies Received",
  "metric_code": "EREC",
  "gran_name": "Minute",
  "gran_code": "MIN"
 },{
  "ent_category": "Call Center",
  "ent_name": "Pennsylvania One Call (FNJ5)",
  "total": 0,
  "ent_code": "NewJersey5",
  "dataURL": "/api/v1/metric/single/Call Center/NewJersey5/EREC/MIN/2014-01-01",
  "metric_type": "flow",
  "metric_name": "Emergencies Received",
  "metric_code": "EREC",
  "gran_name": "Minute",
  "gran_code": "MIN"
 },{
  "ent_category": "Call Center",
  "ent_name": "Underground Service Alert South (SCA1)",
  "total": 0,
  "ent_code": "SCA1",
  "dataURL": "/api/v1/metric/single/Call Center/SCA1/RESPQ/MIN/2014-01-01",
  "metric_type": "state",
  "metric_name": "Response Queue Size (no demo)",
  "metric_code": "RESPQ",
  "gran_name": "Minute",
  "gran_code": "MIN"
 },{
  "ent_category": "Call Center",
  "ent_name": "New York One Call (FNJ4)",
  "total": 0,
  "ent_code": "NewJersey4",
  "dataURL": "/api/v1/metric/single/Call Center/NewJersey4/RESPQ/MIN/2014-01-01",
  "metric_type": "state",
  "metric_name": "Response Queue Size (no demo)",
  "metric_code": "RESPQ",
  "gran_name": "Minute",
  "gran_code": "MIN"
 },{
  "ent_category": "Call Center",
  "ent_name": "Pennsylvania One Call (7501)",
  "total": 0,
  "ent_code": "7501",
  "dataURL": "/api/v1/metric/single/Call Center/7501/RESPQ/MIN/2014-01-01",
  "metric_type": "state",
  "metric_name": "Response Queue Size (no demo)",
  "metric_code": "RESPQ",
  "gran_name": "Minute",
  "gran_code": "MIN"
 },{
  "ent_category": "Call Center",
  "ent_name": "VUPS (FXL)",
  "total": 0,
  "ent_code": "OCC2",
  "dataURL": "/api/v1/metric/single/Call Center/OCC2/RESPQ/MIN/2014-01-01",
  "metric_type": "state",
  "metric_name": "Response Queue Size (no demo)",
  "metric_code": "RESPQ",
  "gran_name": "Minute",
  "gran_code": "MIN"
 },{
  "ent_category": "Call Center",
  "ent_name": "Underground Service Alert North (NCA1)",
  "total": 0,
  "ent_code": "NCA1",
  "dataURL": "/api/v1/metric/single/Call Center/NCA1/RESPQ/MIN/2014-01-01",
  "metric_type": "state",
  "metric_name": "Response Queue Size (no demo)",
  "metric_code": "RESPQ",
  "gran_name": "Minute",
  "gran_code": "MIN"
 },{
  "ent_category": "Call Center",
  "ent_name": "Miss Utility of Delmarva (FMW1)",
  "total": 0,
  "ent_code": "FMW1",
  "dataURL": "/api/v1/metric/single/Call Center/FMW1/RESPQ/MIN/2014-01-01",
  "metric_type": "state",
  "metric_name": "Response Queue Size (no demo)",
  "metric_code": "RESPQ",
  "gran_name": "Minute",
  "gran_code": "MIN"
 },{
  "ent_category": "Call Center",
  "ent_name": "Utilities Protection Center (Eden)",
  "total": 0,
  "ent_code": "3003",
  "dataURL": "/api/v1/metric/single/Call Center/3003/RESPQ/MIN/2014-01-01",
  "metric_type": "state",
  "metric_name": "Response Queue Size (no demo)",
  "metric_code": "RESPQ",
  "gran_name": "Minute",
  "gran_code": "MIN"
 },{
  "ent_category": "Call Center",
  "ent_name": "Miss Utility of West Virginia  (1181)",
  "total": 0,
  "ent_code": "1181",
  "dataURL": "/api/v1/metric/single/Call Center/1181/RESPQ/MIN/2014-01-01",
  "metric_type": "state",
  "metric_name": "Response Queue Size (no demo)",
  "metric_code": "RESPQ",
  "gran_name": "Minute",
  "gran_code": "MIN"
 },{
  "ent_category": "Call Center",
  "ent_name": "Arizona Blue Stake (SCA3)",
  "total": 0,
  "ent_code": "SCA3",
  "dataURL": "/api/v1/metric/single/Call Center/SCA3/RESPQ/MIN/2014-01-01",
  "metric_type": "state",
  "metric_name": "Response Queue Size (no demo)",
  "metric_code": "RESPQ",
  "gran_name": "Minute",
  "gran_code": "MIN"
 },{
  "ent_category": "Call Center",
  "ent_name": "Miss Utility of Delmarva (FMB1)",
  "total": 0,
  "ent_code": "FMB1",
  "dataURL": "/api/v1/metric/single/Call Center/FMB1/RESPQ/MIN/2014-01-01",
  "metric_type": "state",
  "metric_name": "Response Queue Size (no demo)",
  "metric_code": "RESPQ",
  "gran_name": "Minute",
  "gran_code": "MIN"
 },{
  "ent_category": "Call Center",
  "ent_name": "San Diego Gas Ticket Feed (SCA2)",
  "total": 0,
  "ent_code": "SCA2",
  "dataURL": "/api/v1/metric/single/Call Center/SCA2/RESPQ/MIN/2014-01-01",
  "metric_type": "state",
  "metric_name": "Response Queue Size (no demo)",
  "metric_code": "RESPQ",
  "gran_name": "Minute",
  "gran_code": "MIN"
 },{
  "ent_category": "Call Center",
  "ent_name": "Palmetto Utility Protection (1421)",
  "total": 0,
  "ent_code": "1421",
  "dataURL": "/api/v1/metric/single/Call Center/1421/RESPQ/MIN/2014-01-01",
  "metric_type": "state",
  "metric_name": "Response Queue Size (no demo)",
  "metric_code": "RESPQ",
  "gran_name": "Minute",
  "gran_code": "MIN"
 },{
  "ent_category": "Call Center",
  "ent_name": "New Jersey One Call (FNJ1)",
  "total": 0,
  "ent_code": "NewJersey",
  "dataURL": "/api/v1/metric/single/Call Center/NewJersey/RESPQ/MIN/2014-01-01",
  "metric_type": "state",
  "metric_name": "Response Queue Size (no demo)",
  "metric_code": "RESPQ",
  "gran_name": "Minute",
  "gran_code": "MIN"
 },{
  "ent_category": "Call Center",
  "ent_name": "Tennessee One Call (FNV1)",
  "total": 0,
  "ent_code": "FNV1",
  "dataURL": "/api/v1/metric/single/Call Center/FNV1/RESPQ/MIN/2014-01-01",
  "metric_type": "state",
  "metric_name": "Response Queue Size (no demo)",
  "metric_code": "RESPQ",
  "gran_name": "Minute",
  "gran_code": "MIN"
 },{
  "ent_category": "Call Center",
  "ent_name": "Alabama One Call (FAU2)",
  "total": 0,
  "ent_code": "FAU2",
  "dataURL": "/api/v1/metric/single/Call Center/FAU2/RESPQ/MIN/2014-01-01",
  "metric_type": "state",
  "metric_name": "Response Queue Size (no demo)",
  "metric_code": "RESPQ",
  "gran_name": "Minute",
  "gran_code": "MIN"
 },{
  "ent_category": "Call Center",
  "ent_name": "Pennsylvania One Call (FNJ5)",
  "total": 0,
  "ent_code": "NewJersey5",
  "dataURL": "/api/v1/metric/single/Call Center/NewJersey5/RESPQ/MIN/2014-01-01",
  "metric_type": "state",
  "metric_name": "Response Queue Size (no demo)",
  "metric_code": "RESPQ",
  "gran_name": "Minute",
  "gran_code": "MIN"
 },{
  "ent_category": "Call Center",
  "ent_name": "Underground Service Alert South (SCA1)",
  "total": 0,
  "ent_code": "SCA1",
  "dataURL": "/api/v1/metric/single/Call Center/SCA1/TCLEMP/MIN/2014-01-01",
  "metric_type": "flow",
  "metric_name": "Ticket Closing",
  "metric_code": "TCLEMP",
  "gran_name": "Minute",
  "gran_code": "MIN"
 },{
  "ent_category": "Call Center",
  "ent_name": "New York One Call (FNJ4)",
  "total": 0,
  "ent_code": "NewJersey4",
  "dataURL": "/api/v1/metric/single/Call Center/NewJersey4/TCLEMP/MIN/2014-01-01",
  "metric_type": "flow",
  "metric_name": "Ticket Closing",
  "metric_code": "TCLEMP",
  "gran_name": "Minute",
  "gran_code": "MIN"
 },{
  "ent_category": "Call Center",
  "ent_name": "Pennsylvania One Call (7501)",
  "total": 0,
  "ent_code": "7501",
  "dataURL": "/api/v1/metric/single/Call Center/7501/TCLEMP/MIN/2014-01-01",
  "metric_type": "flow",
  "metric_name": "Ticket Closing",
  "metric_code": "TCLEMP",
  "gran_name": "Minute",
  "gran_code": "MIN"
 },{
  "ent_category": "Call Center",
  "ent_name": "VUPS (FXL)",
  "total": 0,
  "ent_code": "OCC2",
  "dataURL": "/api/v1/metric/single/Call Center/OCC2/TCLEMP/MIN/2014-01-01",
  "metric_type": "flow",
  "metric_name": "Ticket Closing",
  "metric_code": "TCLEMP",
  "gran_name": "Minute",
  "gran_code": "MIN"
 },{
  "ent_category": "Call Center",
  "ent_name": "Underground Service Alert North (NCA1)",
  "total": 0,
  "ent_code": "NCA1",
  "dataURL": "/api/v1/metric/single/Call Center/NCA1/TCLEMP/MIN/2014-01-01",
  "metric_type": "flow",
  "metric_name": "Ticket Closing",
  "metric_code": "TCLEMP",
  "gran_name": "Minute",
  "gran_code": "MIN"
 },{
  "ent_category": "Call Center",
  "ent_name": "Miss Utility of Delmarva (FMW1)",
  "total": 0,
  "ent_code": "FMW1",
  "dataURL": "/api/v1/metric/single/Call Center/FMW1/TCLEMP/MIN/2014-01-01",
  "metric_type": "flow",
  "metric_name": "Ticket Closing",
  "metric_code": "TCLEMP",
  "gran_name": "Minute",
  "gran_code": "MIN"
 },{
  "ent_category": "Call Center",
  "ent_name": "Utilities Protection Center (Eden)",
  "total": 0,
  "ent_code": "3003",
  "dataURL": "/api/v1/metric/single/Call Center/3003/TCLEMP/MIN/2014-01-01",
  "metric_type": "flow",
  "metric_name": "Ticket Closing",
  "metric_code": "TCLEMP",
  "gran_name": "Minute",
  "gran_code": "MIN"
 },{
  "ent_category": "Call Center",
  "ent_name": "Miss Utility of West Virginia  (1181)",
  "total": 0,
  "ent_code": "1181",
  "dataURL": "/api/v1/metric/single/Call Center/1181/TCLEMP/MIN/2014-01-01",
  "metric_type": "flow",
  "metric_name": "Ticket Closing",
  "metric_code": "TCLEMP",
  "gran_name": "Minute",
  "gran_code": "MIN"
 },{
  "ent_category": "Call Center",
  "ent_name": "Arizona Blue Stake (SCA3)",
  "total": 0,
  "ent_code": "SCA3",
  "dataURL": "/api/v1/metric/single/Call Center/SCA3/TCLEMP/MIN/2014-01-01",
  "metric_type": "flow",
  "metric_name": "Ticket Closing",
  "metric_code": "TCLEMP",
  "gran_name": "Minute",
  "gran_code": "MIN"
 },{
  "ent_category": "Call Center",
  "ent_name": "Miss Utility of Delmarva (FMB1)",
  "total": 0,
  "ent_code": "FMB1",
  "dataURL": "/api/v1/metric/single/Call Center/FMB1/TCLEMP/MIN/2014-01-01",
  "metric_type": "flow",
  "metric_name": "Ticket Closing",
  "metric_code": "TCLEMP",
  "gran_name": "Minute",
  "gran_code": "MIN"
 },{
  "ent_category": "Call Center",
  "ent_name": "San Diego Gas Ticket Feed (SCA2)",
  "total": 0,
  "ent_code": "SCA2",
  "dataURL": "/api/v1/metric/single/Call Center/SCA2/TCLEMP/MIN/2014-01-01",
  "metric_type": "flow",
  "metric_name": "Ticket Closing",
  "metric_code": "TCLEMP",
  "gran_name": "Minute",
  "gran_code": "MIN"
 },{
  "ent_category": "Call Center",
  "ent_name": "Palmetto Utility Protection (1421)",
  "total": 0,
  "ent_code": "1421",
  "dataURL": "/api/v1/metric/single/Call Center/1421/TCLEMP/MIN/2014-01-01",
  "metric_type": "flow",
  "metric_name": "Ticket Closing",
  "metric_code": "TCLEMP",
  "gran_name": "Minute",
  "gran_code": "MIN"
 },{
  "ent_category": "Call Center",
  "ent_name": "New Jersey One Call (FNJ1)",
  "total": 0,
  "ent_code": "NewJersey",
  "dataURL": "/api/v1/metric/single/Call Center/NewJersey/TCLEMP/MIN/2014-01-01",
  "metric_type": "flow",
  "metric_name": "Ticket Closing",
  "metric_code": "TCLEMP",
  "gran_name": "Minute",
  "gran_code": "MIN"
 },{
  "ent_category": "Call Center",
  "ent_name": "Tennessee One Call (FNV1)",
  "total": 0,
  "ent_code": "FNV1",
  "dataURL": "/api/v1/metric/single/Call Center/FNV1/TCLEMP/MIN/2014-01-01",
  "metric_type": "flow",
  "metric_name": "Ticket Closing",
  "metric_code": "TCLEMP",
  "gran_name": "Minute",
  "gran_code": "MIN"
 },{
  "ent_category": "Call Center",
  "ent_name": "Alabama One Call (FAU2)",
  "total": 0,
  "ent_code": "FAU2",
  "dataURL": "/api/v1/metric/single/Call Center/FAU2/TCLEMP/MIN/2014-01-01",
  "metric_type": "flow",
  "metric_name": "Ticket Closing",
  "metric_code": "TCLEMP",
  "gran_name": "Minute",
  "gran_code": "MIN"
 },{
  "ent_category": "Call Center",
  "ent_name": "Pennsylvania One Call (FNJ5)",
  "total": 0,
  "ent_code": "NewJersey5",
  "dataURL": "/api/v1/metric/single/Call Center/NewJersey5/TCLEMP/MIN/2014-01-01",
  "metric_type": "flow",
  "metric_name": "Ticket Closing",
  "metric_code": "TCLEMP",
  "gran_name": "Minute",
  "gran_code": "MIN"
 },{
  "ent_category": "Call Center",
  "ent_name": "Underground Service Alert South (SCA1)",
  "total": 0,
  "ent_code": "SCA1",
  "dataURL": "/api/v1/metric/single/Call Center/SCA1/TCLOSE/MIN/2014-01-01",
  "metric_type": "flow",
  "metric_name": "Ticket Closing",
  "metric_code": "TCLOSE",
  "gran_name": "Minute",
  "gran_code": "MIN"
 },{
  "ent_category": "Call Center",
  "ent_name": "New York One Call (FNJ4)",
  "total": 0,
  "ent_code": "NewJersey4",
  "dataURL": "/api/v1/metric/single/Call Center/NewJersey4/TCLOSE/MIN/2014-01-01",
  "metric_type": "flow",
  "metric_name": "Ticket Closing",
  "metric_code": "TCLOSE",
  "gran_name": "Minute",
  "gran_code": "MIN"
 },{
  "ent_category": "Call Center",
  "ent_name": "Pennsylvania One Call (7501)",
  "total": 0,
  "ent_code": "7501",
  "dataURL": "/api/v1/metric/single/Call Center/7501/TCLOSE/MIN/2014-01-01",
  "metric_type": "flow",
  "metric_name": "Ticket Closing",
  "metric_code": "TCLOSE",
  "gran_name": "Minute",
  "gran_code": "MIN"
 },{
  "ent_category": "Call Center",
  "ent_name": "VUPS (FXL)",
  "total": 0,
  "ent_code": "OCC2",
  "dataURL": "/api/v1/metric/single/Call Center/OCC2/TCLOSE/MIN/2014-01-01",
  "metric_type": "flow",
  "metric_name": "Ticket Closing",
  "metric_code": "TCLOSE",
  "gran_name": "Minute",
  "gran_code": "MIN"
 },{
  "ent_category": "Call Center",
  "ent_name": "Underground Service Alert North (NCA1)",
  "total": 0,
  "ent_code": "NCA1",
  "dataURL": "/api/v1/metric/single/Call Center/NCA1/TCLOSE/MIN/2014-01-01",
  "metric_type": "flow",
  "metric_name": "Ticket Closing",
  "metric_code": "TCLOSE",
  "gran_name": "Minute",
  "gran_code": "MIN"
 },{
  "ent_category": "Call Center",
  "ent_name": "Miss Utility of Delmarva (FMW1)",
  "total": 0,
  "ent_code": "FMW1",
  "dataURL": "/api/v1/metric/single/Call Center/FMW1/TCLOSE/MIN/2014-01-01",
  "metric_type": "flow",
  "metric_name": "Ticket Closing",
  "metric_code": "TCLOSE",
  "gran_name": "Minute",
  "gran_code": "MIN"
 },{
  "ent_category": "Call Center",
  "ent_name": "Utilities Protection Center (Eden)",
  "total": 0,
  "ent_code": "3003",
  "dataURL": "/api/v1/metric/single/Call Center/3003/TCLOSE/MIN/2014-01-01",
  "metric_type": "flow",
  "metric_name": "Ticket Closing",
  "metric_code": "TCLOSE",
  "gran_name": "Minute",
  "gran_code": "MIN"
 },{
  "ent_category": "Call Center",
  "ent_name": "Miss Utility of West Virginia  (1181)",
  "total": 0,
  "ent_code": "1181",
  "dataURL": "/api/v1/metric/single/Call Center/1181/TCLOSE/MIN/2014-01-01",
  "metric_type": "flow",
  "metric_name": "Ticket Closing",
  "metric_code": "TCLOSE",
  "gran_name": "Minute",
  "gran_code": "MIN"
 },{
  "ent_category": "Call Center",
  "ent_name": "Arizona Blue Stake (SCA3)",
  "total": 0,
  "ent_code": "SCA3",
  "dataURL": "/api/v1/metric/single/Call Center/SCA3/TCLOSE/MIN/2014-01-01",
  "metric_type": "flow",
  "metric_name": "Ticket Closing",
  "metric_code": "TCLOSE",
  "gran_name": "Minute",
  "gran_code": "MIN"
 },{
  "ent_category": "Call Center",
  "ent_name": "Miss Utility of Delmarva (FMB1)",
  "total": 0,
  "ent_code": "FMB1",
  "dataURL": "/api/v1/metric/single/Call Center/FMB1/TCLOSE/MIN/2014-01-01",
  "metric_type": "flow",
  "metric_name": "Ticket Closing",
  "metric_code": "TCLOSE",
  "gran_name": "Minute",
  "gran_code": "MIN"
 },{
  "ent_category": "Call Center",
  "ent_name": "San Diego Gas Ticket Feed (SCA2)",
  "total": 0,
  "ent_code": "SCA2",
  "dataURL": "/api/v1/metric/single/Call Center/SCA2/TCLOSE/MIN/2014-01-01",
  "metric_type": "flow",
  "metric_name": "Ticket Closing",
  "metric_code": "TCLOSE",
  "gran_name": "Minute",
  "gran_code": "MIN"
 },{
  "ent_category": "Call Center",
  "ent_name": "Palmetto Utility Protection (1421)",
  "total": 0,
  "ent_code": "1421",
  "dataURL": "/api/v1/metric/single/Call Center/1421/TCLOSE/MIN/2014-01-01",
  "metric_type": "flow",
  "metric_name": "Ticket Closing",
  "metric_code": "TCLOSE",
  "gran_name": "Minute",
  "gran_code": "MIN"
 },{
  "ent_category": "Call Center",
  "ent_name": "New Jersey One Call (FNJ1)",
  "total": 0,
  "ent_code": "NewJersey",
  "dataURL": "/api/v1/metric/single/Call Center/NewJersey/TCLOSE/MIN/2014-01-01",
  "metric_type": "flow",
  "metric_name": "Ticket Closing",
  "metric_code": "TCLOSE",
  "gran_name": "Minute",
  "gran_code": "MIN"
 },{
  "ent_category": "Call Center",
  "ent_name": "Tennessee One Call (FNV1)",
  "total": 0,
  "ent_code": "FNV1",
  "dataURL": "/api/v1/metric/single/Call Center/FNV1/TCLOSE/MIN/2014-01-01",
  "metric_type": "flow",
  "metric_name": "Ticket Closing",
  "metric_code": "TCLOSE",
  "gran_name": "Minute",
  "gran_code": "MIN"
 },{
  "ent_category": "Call Center",
  "ent_name": "Alabama One Call (FAU2)",
  "total": 0,
  "ent_code": "FAU2",
  "dataURL": "/api/v1/metric/single/Call Center/FAU2/TCLOSE/MIN/2014-01-01",
  "metric_type": "flow",
  "metric_name": "Ticket Closing",
  "metric_code": "TCLOSE",
  "gran_name": "Minute",
  "gran_code": "MIN"
 },{
  "ent_category": "Call Center",
  "ent_name": "Pennsylvania One Call (FNJ5)",
  "total": 0,
  "ent_code": "NewJersey5",
  "dataURL": "/api/v1/metric/single/Call Center/NewJersey5/TCLOSE/MIN/2014-01-01",
  "metric_type": "flow",
  "metric_name": "Ticket Closing",
  "metric_code": "TCLOSE",
  "gran_name": "Minute",
  "gran_code": "MIN"
 },{
  "ent_category": "Call Center",
  "ent_name": "Underground Service Alert South (SCA1)",
  "total": 0,
  "ent_code": "SCA1",
  "dataURL": "/api/v1/metric/single/Call Center/SCA1/TREC/MIN/2014-01-01",
  "metric_type": "flow",
  "metric_name": "Tickets Received",
  "metric_code": "TREC",
  "gran_name": "Minute",
  "gran_code": "MIN"
 },{
  "ent_category": "Call Center",
  "ent_name": "New York One Call (FNJ4)",
  "total": 0,
  "ent_code": "NewJersey4",
  "dataURL": "/api/v1/metric/single/Call Center/NewJersey4/TREC/MIN/2014-01-01",
  "metric_type": "flow",
  "metric_name": "Tickets Received",
  "metric_code": "TREC",
  "gran_name": "Minute",
  "gran_code": "MIN"
 },{
  "ent_category": "Call Center",
  "ent_name": "Pennsylvania One Call (7501)",
  "total": 0,
  "ent_code": "7501",
  "dataURL": "/api/v1/metric/single/Call Center/7501/TREC/MIN/2014-01-01",
  "metric_type": "flow",
  "metric_name": "Tickets Received",
  "metric_code": "TREC",
  "gran_name": "Minute",
  "gran_code": "MIN"
 },{
  "ent_category": "Call Center",
  "ent_name": "VUPS (FXL)",
  "total": 0,
  "ent_code": "OCC2",
  "dataURL": "/api/v1/metric/single/Call Center/OCC2/TREC/MIN/2014-01-01",
  "metric_type": "flow",
  "metric_name": "Tickets Received",
  "metric_code": "TREC",
  "gran_name": "Minute",
  "gran_code": "MIN"
 },{
  "ent_category": "Call Center",
  "ent_name": "Underground Service Alert North (NCA1)",
  "total": 0,
  "ent_code": "NCA1",
  "dataURL": "/api/v1/metric/single/Call Center/NCA1/TREC/MIN/2014-01-01",
  "metric_type": "flow",
  "metric_name": "Tickets Received",
  "metric_code": "TREC",
  "gran_name": "Minute",
  "gran_code": "MIN"
 },{
  "ent_category": "Call Center",
  "ent_name": "Miss Utility of Delmarva (FMW1)",
  "total": 0,
  "ent_code": "FMW1",
  "dataURL": "/api/v1/metric/single/Call Center/FMW1/TREC/MIN/2014-01-01",
  "metric_type": "flow",
  "metric_name": "Tickets Received",
  "metric_code": "TREC",
  "gran_name": "Minute",
  "gran_code": "MIN"
 },{
  "ent_category": "Call Center",
  "ent_name": "Utilities Protection Center (Eden)",
  "total": 0,
  "ent_code": "3003",
  "dataURL": "/api/v1/metric/single/Call Center/3003/TREC/MIN/2014-01-01",
  "metric_type": "flow",
  "metric_name": "Tickets Received",
  "metric_code": "TREC",
  "gran_name": "Minute",
  "gran_code": "MIN"
 },{
  "ent_category": "Call Center",
  "ent_name": "Miss Utility of West Virginia  (1181)",
  "total": 0,
  "ent_code": "1181",
  "dataURL": "/api/v1/metric/single/Call Center/1181/TREC/MIN/2014-01-01",
  "metric_type": "flow",
  "metric_name": "Tickets Received",
  "metric_code": "TREC",
  "gran_name": "Minute",
  "gran_code": "MIN"
 },{
  "ent_category": "Call Center",
  "ent_name": "Arizona Blue Stake (SCA3)",
  "total": 0,
  "ent_code": "SCA3",
  "dataURL": "/api/v1/metric/single/Call Center/SCA3/TREC/MIN/2014-01-01",
  "metric_type": "flow",
  "metric_name": "Tickets Received",
  "metric_code": "TREC",
  "gran_name": "Minute",
  "gran_code": "MIN"
 },{
  "ent_category": "Call Center",
  "ent_name": "Miss Utility of Delmarva (FMB1)",
  "total": 0,
  "ent_code": "FMB1",
  "dataURL": "/api/v1/metric/single/Call Center/FMB1/TREC/MIN/2014-01-01",
  "metric_type": "flow",
  "metric_name": "Tickets Received",
  "metric_code": "TREC",
  "gran_name": "Minute",
  "gran_code": "MIN"
 },{
  "ent_category": "Call Center",
  "ent_name": "San Diego Gas Ticket Feed (SCA2)",
  "total": 0,
  "ent_code": "SCA2",
  "dataURL": "/api/v1/metric/single/Call Center/SCA2/TREC/MIN/2014-01-01",
  "metric_type": "flow",
  "metric_name": "Tickets Received",
  "metric_code": "TREC",
  "gran_name": "Minute",
  "gran_code": "MIN"
 },{
  "ent_category": "Call Center",
  "ent_name": "Palmetto Utility Protection (1421)",
  "total": 0,
  "ent_code": "1421",
  "dataURL": "/api/v1/metric/single/Call Center/1421/TREC/MIN/2014-01-01",
  "metric_type": "flow",
  "metric_name": "Tickets Received",
  "metric_code": "TREC",
  "gran_name": "Minute",
  "gran_code": "MIN"
 },{
  "ent_category": "Call Center",
  "ent_name": "New Jersey One Call (FNJ1)",
  "total": 0,
  "ent_code": "NewJersey",
  "dataURL": "/api/v1/metric/single/Call Center/NewJersey/TREC/MIN/2014-01-01",
  "metric_type": "flow",
  "metric_name": "Tickets Received",
  "metric_code": "TREC",
  "gran_name": "Minute",
  "gran_code": "MIN"
 },{
  "ent_category": "Call Center",
  "ent_name": "Tennessee One Call (FNV1)",
  "total": 0,
  "ent_code": "FNV1",
  "dataURL": "/api/v1/metric/single/Call Center/FNV1/TREC/MIN/2014-01-01",
  "metric_type": "flow",
  "metric_name": "Tickets Received",
  "metric_code": "TREC",
  "gran_name": "Minute",
  "gran_code": "MIN"
 },{
  "ent_category": "Call Center",
  "ent_name": "Alabama One Call (FAU2)",
  "total": 0,
  "ent_code": "FAU2",
  "dataURL": "/api/v1/metric/single/Call Center/FAU2/TREC/MIN/2014-01-01",
  "metric_type": "flow",
  "metric_name": "Tickets Received",
  "metric_code": "TREC",
  "gran_name": "Minute",
  "gran_code": "MIN"
 },{
  "ent_category": "Call Center",
  "ent_name": "Pennsylvania One Call (FNJ5)",
  "total": 0,
  "ent_code": "NewJersey5",
  "dataURL": "/api/v1/metric/single/Call Center/NewJersey5/TREC/MIN/2014-01-01",
  "metric_type": "flow",
  "metric_name": "Tickets Received",
  "metric_code": "TREC",
  "gran_name": "Minute",
  "gran_code": "MIN"
 },{
  "ent_category": "Call Center",
  "ent_name": "Underground Service Alert South (SCA1)",
  "total": 0,
  "ent_code": "SCA1",
  "dataURL": "/api/v1/metric/single/Call Center/SCA1/TROUTE/MIN/2014-01-01",
  "metric_type": "flow",
  "metric_name": "Tickets Routed (no demo)",
  "metric_code": "TROUTE",
  "gran_name": "Minute",
  "gran_code": "MIN"
 },{
  "ent_category": "Call Center",
  "ent_name": "New York One Call (FNJ4)",
  "total": 0,
  "ent_code": "NewJersey4",
  "dataURL": "/api/v1/metric/single/Call Center/NewJersey4/TROUTE/MIN/2014-01-01",
  "metric_type": "flow",
  "metric_name": "Tickets Routed (no demo)",
  "metric_code": "TROUTE",
  "gran_name": "Minute",
  "gran_code": "MIN"
 },{
  "ent_category": "Call Center",
  "ent_name": "Pennsylvania One Call (7501)",
  "total": 0,
  "ent_code": "7501",
  "dataURL": "/api/v1/metric/single/Call Center/7501/TROUTE/MIN/2014-01-01",
  "metric_type": "flow",
  "metric_name": "Tickets Routed (no demo)",
  "metric_code": "TROUTE",
  "gran_name": "Minute",
  "gran_code": "MIN"
 },{
  "ent_category": "Call Center",
  "ent_name": "VUPS (FXL)",
  "total": 0,
  "ent_code": "OCC2",
  "dataURL": "/api/v1/metric/single/Call Center/OCC2/TROUTE/MIN/2014-01-01",
  "metric_type": "flow",
  "metric_name": "Tickets Routed (no demo)",
  "metric_code": "TROUTE",
  "gran_name": "Minute",
  "gran_code": "MIN"
 },{
  "ent_category": "Call Center",
  "ent_name": "Underground Service Alert North (NCA1)",
  "total": 0,
  "ent_code": "NCA1",
  "dataURL": "/api/v1/metric/single/Call Center/NCA1/TROUTE/MIN/2014-01-01",
  "metric_type": "flow",
  "metric_name": "Tickets Routed (no demo)",
  "metric_code": "TROUTE",
  "gran_name": "Minute",
  "gran_code": "MIN"
 },{
  "ent_category": "Call Center",
  "ent_name": "Miss Utility of Delmarva (FMW1)",
  "total": 0,
  "ent_code": "FMW1",
  "dataURL": "/api/v1/metric/single/Call Center/FMW1/TROUTE/MIN/2014-01-01",
  "metric_type": "flow",
  "metric_name": "Tickets Routed (no demo)",
  "metric_code": "TROUTE",
  "gran_name": "Minute",
  "gran_code": "MIN"
 },{
  "ent_category": "Call Center",
  "ent_name": "Utilities Protection Center (Eden)",
  "total": 0,
  "ent_code": "3003",
  "dataURL": "/api/v1/metric/single/Call Center/3003/TROUTE/MIN/2014-01-01",
  "metric_type": "flow",
  "metric_name": "Tickets Routed (no demo)",
  "metric_code": "TROUTE",
  "gran_name": "Minute",
  "gran_code": "MIN"
 },{
  "ent_category": "Call Center",
  "ent_name": "Miss Utility of West Virginia  (1181)",
  "total": 0,
  "ent_code": "1181",
  "dataURL": "/api/v1/metric/single/Call Center/1181/TROUTE/MIN/2014-01-01",
  "metric_type": "flow",
  "metric_name": "Tickets Routed (no demo)",
  "metric_code": "TROUTE",
  "gran_name": "Minute",
  "gran_code": "MIN"
 },{
  "ent_category": "Call Center",
  "ent_name": "Arizona Blue Stake (SCA3)",
  "total": 0,
  "ent_code": "SCA3",
  "dataURL": "/api/v1/metric/single/Call Center/SCA3/TROUTE/MIN/2014-01-01",
  "metric_type": "flow",
  "metric_name": "Tickets Routed (no demo)",
  "metric_code": "TROUTE",
  "gran_name": "Minute",
  "gran_code": "MIN"
 },{
  "ent_category": "Call Center",
  "ent_name": "Miss Utility of Delmarva (FMB1)",
  "total": 0,
  "ent_code": "FMB1",
  "dataURL": "/api/v1/metric/single/Call Center/FMB1/TROUTE/MIN/2014-01-01",
  "metric_type": "flow",
  "metric_name": "Tickets Routed (no demo)",
  "metric_code": "TROUTE",
  "gran_name": "Minute",
  "gran_code": "MIN"
 },{
  "ent_category": "Call Center",
  "ent_name": "San Diego Gas Ticket Feed (SCA2)",
  "total": 0,
  "ent_code": "SCA2",
  "dataURL": "/api/v1/metric/single/Call Center/SCA2/TROUTE/MIN/2014-01-01",
  "metric_type": "flow",
  "metric_name": "Tickets Routed (no demo)",
  "metric_code": "TROUTE",
  "gran_name": "Minute",
  "gran_code": "MIN"
 },{
  "ent_category": "Call Center",
  "ent_name": "Palmetto Utility Protection (1421)",
  "total": 0,
  "ent_code": "1421",
  "dataURL": "/api/v1/metric/single/Call Center/1421/TROUTE/MIN/2014-01-01",
  "metric_type": "flow",
  "metric_name": "Tickets Routed (no demo)",
  "metric_code": "TROUTE",
  "gran_name": "Minute",
  "gran_code": "MIN"
 },{
  "ent_category": "Call Center",
  "ent_name": "New Jersey One Call (FNJ1)",
  "total": 0,
  "ent_code": "NewJersey",
  "dataURL": "/api/v1/metric/single/Call Center/NewJersey/TROUTE/MIN/2014-01-01",
  "metric_type": "flow",
  "metric_name": "Tickets Routed (no demo)",
  "metric_code": "TROUTE",
  "gran_name": "Minute",
  "gran_code": "MIN"
 },{
  "ent_category": "Call Center",
  "ent_name": "Tennessee One Call (FNV1)",
  "total": 0,
  "ent_code": "FNV1",
  "dataURL": "/api/v1/metric/single/Call Center/FNV1/TROUTE/MIN/2014-01-01",
  "metric_type": "flow",
  "metric_name": "Tickets Routed (no demo)",
  "metric_code": "TROUTE",
  "gran_name": "Minute",
  "gran_code": "MIN"
 },{
  "ent_category": "Call Center",
  "ent_name": "Alabama One Call (FAU2)",
  "total": 0,
  "ent_code": "FAU2",
  "dataURL": "/api/v1/metric/single/Call Center/FAU2/TROUTE/MIN/2014-01-01",
  "metric_type": "flow",
  "metric_name": "Tickets Routed (no demo)",
  "metric_code": "TROUTE",
  "gran_name": "Minute",
  "gran_code": "MIN"
 },{
  "ent_category": "Call Center",
  "ent_name": "Pennsylvania One Call (FNJ5)",
  "total": 0,
  "ent_code": "NewJersey5",
  "dataURL": "/api/v1/metric/single/Call Center/NewJersey5/TROUTE/MIN/2014-01-01",
  "metric_type": "flow",
  "metric_name": "Tickets Routed (no demo)",
  "metric_code": "TROUTE",
  "gran_name": "Minute",
  "gran_code": "MIN"
 },{
  "ent_category": "Call Center",
  "ent_name": "Underground Service Alert South (SCA1)",
  "total": 0,
  "ent_code": "SCA1",
  "dataURL": "/api/v1/metric/single/Call Center/SCA1/EREC/SEC/2014-01-01",
  "metric_type": "flow",
  "metric_name": "Emergencies Received",
  "metric_code": "EREC",
  "gran_name": "Second",
  "gran_code": "SEC"
 },{
  "ent_category": "Call Center",
  "ent_name": "New York One Call (FNJ4)",
  "total": 0,
  "ent_code": "NewJersey4",
  "dataURL": "/api/v1/metric/single/Call Center/NewJersey4/EREC/SEC/2014-01-01",
  "metric_type": "flow",
  "metric_name": "Emergencies Received",
  "metric_code": "EREC",
  "gran_name": "Second",
  "gran_code": "SEC"
 },{
  "ent_category": "Call Center",
  "ent_name": "Pennsylvania One Call (7501)",
  "total": 0,
  "ent_code": "7501",
  "dataURL": "/api/v1/metric/single/Call Center/7501/EREC/SEC/2014-01-01",
  "metric_type": "flow",
  "metric_name": "Emergencies Received",
  "metric_code": "EREC",
  "gran_name": "Second",
  "gran_code": "SEC"
 },{
  "ent_category": "Call Center",
  "ent_name": "VUPS (FXL)",
  "total": 0,
  "ent_code": "OCC2",
  "dataURL": "/api/v1/metric/single/Call Center/OCC2/EREC/SEC/2014-01-01",
  "metric_type": "flow",
  "metric_name": "Emergencies Received",
  "metric_code": "EREC",
  "gran_name": "Second",
  "gran_code": "SEC"
 },{
  "ent_category": "Call Center",
  "ent_name": "Underground Service Alert North (NCA1)",
  "total": 0,
  "ent_code": "NCA1",
  "dataURL": "/api/v1/metric/single/Call Center/NCA1/EREC/SEC/2014-01-01",
  "metric_type": "flow",
  "metric_name": "Emergencies Received",
  "metric_code": "EREC",
  "gran_name": "Second",
  "gran_code": "SEC"
 },{
  "ent_category": "Call Center",
  "ent_name": "Miss Utility of Delmarva (FMW1)",
  "total": 0,
  "ent_code": "FMW1",
  "dataURL": "/api/v1/metric/single/Call Center/FMW1/EREC/SEC/2014-01-01",
  "metric_type": "flow",
  "metric_name": "Emergencies Received",
  "metric_code": "EREC",
  "gran_name": "Second",
  "gran_code": "SEC"
 },{
  "ent_category": "Call Center",
  "ent_name": "Utilities Protection Center (Eden)",
  "total": 0,
  "ent_code": "3003",
  "dataURL": "/api/v1/metric/single/Call Center/3003/EREC/SEC/2014-01-01",
  "metric_type": "flow",
  "metric_name": "Emergencies Received",
  "metric_code": "EREC",
  "gran_name": "Second",
  "gran_code": "SEC"
 },{
  "ent_category": "Call Center",
  "ent_name": "Miss Utility of West Virginia  (1181)",
  "total": 0,
  "ent_code": "1181",
  "dataURL": "/api/v1/metric/single/Call Center/1181/EREC/SEC/2014-01-01",
  "metric_type": "flow",
  "metric_name": "Emergencies Received",
  "metric_code": "EREC",
  "gran_name": "Second",
  "gran_code": "SEC"
 },{
  "ent_category": "Call Center",
  "ent_name": "Arizona Blue Stake (SCA3)",
  "total": 0,
  "ent_code": "SCA3",
  "dataURL": "/api/v1/metric/single/Call Center/SCA3/EREC/SEC/2014-01-01",
  "metric_type": "flow",
  "metric_name": "Emergencies Received",
  "metric_code": "EREC",
  "gran_name": "Second",
  "gran_code": "SEC"
 },{
  "ent_category": "Call Center",
  "ent_name": "Miss Utility of Delmarva (FMB1)",
  "total": 0,
  "ent_code": "FMB1",
  "dataURL": "/api/v1/metric/single/Call Center/FMB1/EREC/SEC/2014-01-01",
  "metric_type": "flow",
  "metric_name": "Emergencies Received",
  "metric_code": "EREC",
  "gran_name": "Second",
  "gran_code": "SEC"
 },{
  "ent_category": "Call Center",
  "ent_name": "San Diego Gas Ticket Feed (SCA2)",
  "total": 0,
  "ent_code": "SCA2",
  "dataURL": "/api/v1/metric/single/Call Center/SCA2/EREC/SEC/2014-01-01",
  "metric_type": "flow",
  "metric_name": "Emergencies Received",
  "metric_code": "EREC",
  "gran_name": "Second",
  "gran_code": "SEC"
 },{
  "ent_category": "Call Center",
  "ent_name": "Palmetto Utility Protection (1421)",
  "total": 0,
  "ent_code": "1421",
  "dataURL": "/api/v1/metric/single/Call Center/1421/EREC/SEC/2014-01-01",
  "metric_type": "flow",
  "metric_name": "Emergencies Received",
  "metric_code": "EREC",
  "gran_name": "Second",
  "gran_code": "SEC"
 },{
  "ent_category": "Call Center",
  "ent_name": "New Jersey One Call (FNJ1)",
  "total": 0,
  "ent_code": "NewJersey",
  "dataURL": "/api/v1/metric/single/Call Center/NewJersey/EREC/SEC/2014-01-01",
  "metric_type": "flow",
  "metric_name": "Emergencies Received",
  "metric_code": "EREC",
  "gran_name": "Second",
  "gran_code": "SEC"
 },{
  "ent_category": "Call Center",
  "ent_name": "Tennessee One Call (FNV1)",
  "total": 0,
  "ent_code": "FNV1",
  "dataURL": "/api/v1/metric/single/Call Center/FNV1/EREC/SEC/2014-01-01",
  "metric_type": "flow",
  "metric_name": "Emergencies Received",
  "metric_code": "EREC",
  "gran_name": "Second",
  "gran_code": "SEC"
 },{
  "ent_category": "Call Center",
  "ent_name": "Alabama One Call (FAU2)",
  "total": 0,
  "ent_code": "FAU2",
  "dataURL": "/api/v1/metric/single/Call Center/FAU2/EREC/SEC/2014-01-01",
  "metric_type": "flow",
  "metric_name": "Emergencies Received",
  "metric_code": "EREC",
  "gran_name": "Second",
  "gran_code": "SEC"
 },{
  "ent_category": "Call Center",
  "ent_name": "Pennsylvania One Call (FNJ5)",
  "total": 0,
  "ent_code": "NewJersey5",
  "dataURL": "/api/v1/metric/single/Call Center/NewJersey5/EREC/SEC/2014-01-01",
  "metric_type": "flow",
  "metric_name": "Emergencies Received",
  "metric_code": "EREC",
  "gran_name": "Second",
  "gran_code": "SEC"
 },{
  "ent_category": "Call Center",
  "ent_name": "Underground Service Alert South (SCA1)",
  "total": 0,
  "ent_code": "SCA1",
  "dataURL": "/api/v1/metric/single/Call Center/SCA1/RESPQ/SEC/2014-01-01",
  "metric_type": "state",
  "metric_name": "Response Queue Size (no demo)",
  "metric_code": "RESPQ",
  "gran_name": "Second",
  "gran_code": "SEC"
 },{
  "ent_category": "Call Center",
  "ent_name": "New York One Call (FNJ4)",
  "total": 0,
  "ent_code": "NewJersey4",
  "dataURL": "/api/v1/metric/single/Call Center/NewJersey4/RESPQ/SEC/2014-01-01",
  "metric_type": "state",
  "metric_name": "Response Queue Size (no demo)",
  "metric_code": "RESPQ",
  "gran_name": "Second",
  "gran_code": "SEC"
 },{
  "ent_category": "Call Center",
  "ent_name": "Pennsylvania One Call (7501)",
  "total": 0,
  "ent_code": "7501",
  "dataURL": "/api/v1/metric/single/Call Center/7501/RESPQ/SEC/2014-01-01",
  "metric_type": "state",
  "metric_name": "Response Queue Size (no demo)",
  "metric_code": "RESPQ",
  "gran_name": "Second",
  "gran_code": "SEC"
 },{
  "ent_category": "Call Center",
  "ent_name": "VUPS (FXL)",
  "total": 0,
  "ent_code": "OCC2",
  "dataURL": "/api/v1/metric/single/Call Center/OCC2/RESPQ/SEC/2014-01-01",
  "metric_type": "state",
  "metric_name": "Response Queue Size (no demo)",
  "metric_code": "RESPQ",
  "gran_name": "Second",
  "gran_code": "SEC"
 },{
  "ent_category": "Call Center",
  "ent_name": "Underground Service Alert North (NCA1)",
  "total": 0,
  "ent_code": "NCA1",
  "dataURL": "/api/v1/metric/single/Call Center/NCA1/RESPQ/SEC/2014-01-01",
  "metric_type": "state",
  "metric_name": "Response Queue Size (no demo)",
  "metric_code": "RESPQ",
  "gran_name": "Second",
  "gran_code": "SEC"
 },{
  "ent_category": "Call Center",
  "ent_name": "Miss Utility of Delmarva (FMW1)",
  "total": 0,
  "ent_code": "FMW1",
  "dataURL": "/api/v1/metric/single/Call Center/FMW1/RESPQ/SEC/2014-01-01",
  "metric_type": "state",
  "metric_name": "Response Queue Size (no demo)",
  "metric_code": "RESPQ",
  "gran_name": "Second",
  "gran_code": "SEC"
 },{
  "ent_category": "Call Center",
  "ent_name": "Utilities Protection Center (Eden)",
  "total": 0,
  "ent_code": "3003",
  "dataURL": "/api/v1/metric/single/Call Center/3003/RESPQ/SEC/2014-01-01",
  "metric_type": "state",
  "metric_name": "Response Queue Size (no demo)",
  "metric_code": "RESPQ",
  "gran_name": "Second",
  "gran_code": "SEC"
 },{
  "ent_category": "Call Center",
  "ent_name": "Miss Utility of West Virginia  (1181)",
  "total": 0,
  "ent_code": "1181",
  "dataURL": "/api/v1/metric/single/Call Center/1181/RESPQ/SEC/2014-01-01",
  "metric_type": "state",
  "metric_name": "Response Queue Size (no demo)",
  "metric_code": "RESPQ",
  "gran_name": "Second",
  "gran_code": "SEC"
 },{
  "ent_category": "Call Center",
  "ent_name": "Arizona Blue Stake (SCA3)",
  "total": 0,
  "ent_code": "SCA3",
  "dataURL": "/api/v1/metric/single/Call Center/SCA3/RESPQ/SEC/2014-01-01",
  "metric_type": "state",
  "metric_name": "Response Queue Size (no demo)",
  "metric_code": "RESPQ",
  "gran_name": "Second",
  "gran_code": "SEC"
 },{
  "ent_category": "Call Center",
  "ent_name": "Miss Utility of Delmarva (FMB1)",
  "total": 0,
  "ent_code": "FMB1",
  "dataURL": "/api/v1/metric/single/Call Center/FMB1/RESPQ/SEC/2014-01-01",
  "metric_type": "state",
  "metric_name": "Response Queue Size (no demo)",
  "metric_code": "RESPQ",
  "gran_name": "Second",
  "gran_code": "SEC"
 },{
  "ent_category": "Call Center",
  "ent_name": "San Diego Gas Ticket Feed (SCA2)",
  "total": 0,
  "ent_code": "SCA2",
  "dataURL": "/api/v1/metric/single/Call Center/SCA2/RESPQ/SEC/2014-01-01",
  "metric_type": "state",
  "metric_name": "Response Queue Size (no demo)",
  "metric_code": "RESPQ",
  "gran_name": "Second",
  "gran_code": "SEC"
 },{
  "ent_category": "Call Center",
  "ent_name": "Palmetto Utility Protection (1421)",
  "total": 0,
  "ent_code": "1421",
  "dataURL": "/api/v1/metric/single/Call Center/1421/RESPQ/SEC/2014-01-01",
  "metric_type": "state",
  "metric_name": "Response Queue Size (no demo)",
  "metric_code": "RESPQ",
  "gran_name": "Second",
  "gran_code": "SEC"
 },{
  "ent_category": "Call Center",
  "ent_name": "New Jersey One Call (FNJ1)",
  "total": 0,
  "ent_code": "NewJersey",
  "dataURL": "/api/v1/metric/single/Call Center/NewJersey/RESPQ/SEC/2014-01-01",
  "metric_type": "state",
  "metric_name": "Response Queue Size (no demo)",
  "metric_code": "RESPQ",
  "gran_name": "Second",
  "gran_code": "SEC"
 },{
  "ent_category": "Call Center",
  "ent_name": "Tennessee One Call (FNV1)",
  "total": 0,
  "ent_code": "FNV1",
  "dataURL": "/api/v1/metric/single/Call Center/FNV1/RESPQ/SEC/2014-01-01",
  "metric_type": "state",
  "metric_name": "Response Queue Size (no demo)",
  "metric_code": "RESPQ",
  "gran_name": "Second",
  "gran_code": "SEC"
 },{
  "ent_category": "Call Center",
  "ent_name": "Alabama One Call (FAU2)",
  "total": 0,
  "ent_code": "FAU2",
  "dataURL": "/api/v1/metric/single/Call Center/FAU2/RESPQ/SEC/2014-01-01",
  "metric_type": "state",
  "metric_name": "Response Queue Size (no demo)",
  "metric_code": "RESPQ",
  "gran_name": "Second",
  "gran_code": "SEC"
 },{
  "ent_category": "Call Center",
  "ent_name": "Pennsylvania One Call (FNJ5)",
  "total": 0,
  "ent_code": "NewJersey5",
  "dataURL": "/api/v1/metric/single/Call Center/NewJersey5/RESPQ/SEC/2014-01-01",
  "metric_type": "state",
  "metric_name": "Response Queue Size (no demo)",
  "metric_code": "RESPQ",
  "gran_name": "Second",
  "gran_code": "SEC"
 },{
  "ent_category": "Call Center",
  "ent_name": "Underground Service Alert South (SCA1)",
  "total": 0,
  "ent_code": "SCA1",
  "dataURL": "/api/v1/metric/single/Call Center/SCA1/TCLEMP/SEC/2014-01-01",
  "metric_type": "flow",
  "metric_name": "Ticket Closing",
  "metric_code": "TCLEMP",
  "gran_name": "Second",
  "gran_code": "SEC"
 },{
  "ent_category": "Call Center",
  "ent_name": "New York One Call (FNJ4)",
  "total": 0,
  "ent_code": "NewJersey4",
  "dataURL": "/api/v1/metric/single/Call Center/NewJersey4/TCLEMP/SEC/2014-01-01",
  "metric_type": "flow",
  "metric_name": "Ticket Closing",
  "metric_code": "TCLEMP",
  "gran_name": "Second",
  "gran_code": "SEC"
 },{
  "ent_category": "Call Center",
  "ent_name": "Pennsylvania One Call (7501)",
  "total": 0,
  "ent_code": "7501",
  "dataURL": "/api/v1/metric/single/Call Center/7501/TCLEMP/SEC/2014-01-01",
  "metric_type": "flow",
  "metric_name": "Ticket Closing",
  "metric_code": "TCLEMP",
  "gran_name": "Second",
  "gran_code": "SEC"
 },{
  "ent_category": "Call Center",
  "ent_name": "VUPS (FXL)",
  "total": 0,
  "ent_code": "OCC2",
  "dataURL": "/api/v1/metric/single/Call Center/OCC2/TCLEMP/SEC/2014-01-01",
  "metric_type": "flow",
  "metric_name": "Ticket Closing",
  "metric_code": "TCLEMP",
  "gran_name": "Second",
  "gran_code": "SEC"
 },{
  "ent_category": "Call Center",
  "ent_name": "Underground Service Alert North (NCA1)",
  "total": 0,
  "ent_code": "NCA1",
  "dataURL": "/api/v1/metric/single/Call Center/NCA1/TCLEMP/SEC/2014-01-01",
  "metric_type": "flow",
  "metric_name": "Ticket Closing",
  "metric_code": "TCLEMP",
  "gran_name": "Second",
  "gran_code": "SEC"
 },{
  "ent_category": "Call Center",
  "ent_name": "Miss Utility of Delmarva (FMW1)",
  "total": 0,
  "ent_code": "FMW1",
  "dataURL": "/api/v1/metric/single/Call Center/FMW1/TCLEMP/SEC/2014-01-01",
  "metric_type": "flow",
  "metric_name": "Ticket Closing",
  "metric_code": "TCLEMP",
  "gran_name": "Second",
  "gran_code": "SEC"
 },{
  "ent_category": "Call Center",
  "ent_name": "Utilities Protection Center (Eden)",
  "total": 0,
  "ent_code": "3003",
  "dataURL": "/api/v1/metric/single/Call Center/3003/TCLEMP/SEC/2014-01-01",
  "metric_type": "flow",
  "metric_name": "Ticket Closing",
  "metric_code": "TCLEMP",
  "gran_name": "Second",
  "gran_code": "SEC"
 },{
  "ent_category": "Call Center",
  "ent_name": "Miss Utility of West Virginia  (1181)",
  "total": 0,
  "ent_code": "1181",
  "dataURL": "/api/v1/metric/single/Call Center/1181/TCLEMP/SEC/2014-01-01",
  "metric_type": "flow",
  "metric_name": "Ticket Closing",
  "metric_code": "TCLEMP",
  "gran_name": "Second",
  "gran_code": "SEC"
 },{
  "ent_category": "Call Center",
  "ent_name": "Arizona Blue Stake (SCA3)",
  "total": 0,
  "ent_code": "SCA3",
  "dataURL": "/api/v1/metric/single/Call Center/SCA3/TCLEMP/SEC/2014-01-01",
  "metric_type": "flow",
  "metric_name": "Ticket Closing",
  "metric_code": "TCLEMP",
  "gran_name": "Second",
  "gran_code": "SEC"
 },{
  "ent_category": "Call Center",
  "ent_name": "Miss Utility of Delmarva (FMB1)",
  "total": 0,
  "ent_code": "FMB1",
  "dataURL": "/api/v1/metric/single/Call Center/FMB1/TCLEMP/SEC/2014-01-01",
  "metric_type": "flow",
  "metric_name": "Ticket Closing",
  "metric_code": "TCLEMP",
  "gran_name": "Second",
  "gran_code": "SEC"
 },{
  "ent_category": "Call Center",
  "ent_name": "San Diego Gas Ticket Feed (SCA2)",
  "total": 0,
  "ent_code": "SCA2",
  "dataURL": "/api/v1/metric/single/Call Center/SCA2/TCLEMP/SEC/2014-01-01",
  "metric_type": "flow",
  "metric_name": "Ticket Closing",
  "metric_code": "TCLEMP",
  "gran_name": "Second",
  "gran_code": "SEC"
 },{
  "ent_category": "Call Center",
  "ent_name": "Palmetto Utility Protection (1421)",
  "total": 0,
  "ent_code": "1421",
  "dataURL": "/api/v1/metric/single/Call Center/1421/TCLEMP/SEC/2014-01-01",
  "metric_type": "flow",
  "metric_name": "Ticket Closing",
  "metric_code": "TCLEMP",
  "gran_name": "Second",
  "gran_code": "SEC"
 },{
  "ent_category": "Call Center",
  "ent_name": "New Jersey One Call (FNJ1)",
  "total": 0,
  "ent_code": "NewJersey",
  "dataURL": "/api/v1/metric/single/Call Center/NewJersey/TCLEMP/SEC/2014-01-01",
  "metric_type": "flow",
  "metric_name": "Ticket Closing",
  "metric_code": "TCLEMP",
  "gran_name": "Second",
  "gran_code": "SEC"
 },{
  "ent_category": "Call Center",
  "ent_name": "Tennessee One Call (FNV1)",
  "total": 0,
  "ent_code": "FNV1",
  "dataURL": "/api/v1/metric/single/Call Center/FNV1/TCLEMP/SEC/2014-01-01",
  "metric_type": "flow",
  "metric_name": "Ticket Closing",
  "metric_code": "TCLEMP",
  "gran_name": "Second",
  "gran_code": "SEC"
 },{
  "ent_category": "Call Center",
  "ent_name": "Alabama One Call (FAU2)",
  "total": 0,
  "ent_code": "FAU2",
  "dataURL": "/api/v1/metric/single/Call Center/FAU2/TCLEMP/SEC/2014-01-01",
  "metric_type": "flow",
  "metric_name": "Ticket Closing",
  "metric_code": "TCLEMP",
  "gran_name": "Second",
  "gran_code": "SEC"
 },{
  "ent_category": "Call Center",
  "ent_name": "Pennsylvania One Call (FNJ5)",
  "total": 0,
  "ent_code": "NewJersey5",
  "dataURL": "/api/v1/metric/single/Call Center/NewJersey5/TCLEMP/SEC/2014-01-01",
  "metric_type": "flow",
  "metric_name": "Ticket Closing",
  "metric_code": "TCLEMP",
  "gran_name": "Second",
  "gran_code": "SEC"
 },{
  "ent_category": "Call Center",
  "ent_name": "Underground Service Alert South (SCA1)",
  "total": 0,
  "ent_code": "SCA1",
  "dataURL": "/api/v1/metric/single/Call Center/SCA1/TCLOSE/SEC/2014-01-01",
  "metric_type": "flow",
  "metric_name": "Ticket Closing",
  "metric_code": "TCLOSE",
  "gran_name": "Second",
  "gran_code": "SEC"
 },{
  "ent_category": "Call Center",
  "ent_name": "New York One Call (FNJ4)",
  "total": 0,
  "ent_code": "NewJersey4",
  "dataURL": "/api/v1/metric/single/Call Center/NewJersey4/TCLOSE/SEC/2014-01-01",
  "metric_type": "flow",
  "metric_name": "Ticket Closing",
  "metric_code": "TCLOSE",
  "gran_name": "Second",
  "gran_code": "SEC"
 },{
  "ent_category": "Call Center",
  "ent_name": "Pennsylvania One Call (7501)",
  "total": 0,
  "ent_code": "7501",
  "dataURL": "/api/v1/metric/single/Call Center/7501/TCLOSE/SEC/2014-01-01",
  "metric_type": "flow",
  "metric_name": "Ticket Closing",
  "metric_code": "TCLOSE",
  "gran_name": "Second",
  "gran_code": "SEC"
 },{
  "ent_category": "Call Center",
  "ent_name": "VUPS (FXL)",
  "total": 0,
  "ent_code": "OCC2",
  "dataURL": "/api/v1/metric/single/Call Center/OCC2/TCLOSE/SEC/2014-01-01",
  "metric_type": "flow",
  "metric_name": "Ticket Closing",
  "metric_code": "TCLOSE",
  "gran_name": "Second",
  "gran_code": "SEC"
 },{
  "ent_category": "Call Center",
  "ent_name": "Underground Service Alert North (NCA1)",
  "total": 0,
  "ent_code": "NCA1",
  "dataURL": "/api/v1/metric/single/Call Center/NCA1/TCLOSE/SEC/2014-01-01",
  "metric_type": "flow",
  "metric_name": "Ticket Closing",
  "metric_code": "TCLOSE",
  "gran_name": "Second",
  "gran_code": "SEC"
 },{
  "ent_category": "Call Center",
  "ent_name": "Miss Utility of Delmarva (FMW1)",
  "total": 0,
  "ent_code": "FMW1",
  "dataURL": "/api/v1/metric/single/Call Center/FMW1/TCLOSE/SEC/2014-01-01",
  "metric_type": "flow",
  "metric_name": "Ticket Closing",
  "metric_code": "TCLOSE",
  "gran_name": "Second",
  "gran_code": "SEC"
 },{
  "ent_category": "Call Center",
  "ent_name": "Utilities Protection Center (Eden)",
  "total": 0,
  "ent_code": "3003",
  "dataURL": "/api/v1/metric/single/Call Center/3003/TCLOSE/SEC/2014-01-01",
  "metric_type": "flow",
  "metric_name": "Ticket Closing",
  "metric_code": "TCLOSE",
  "gran_name": "Second",
  "gran_code": "SEC"
 },{
  "ent_category": "Call Center",
  "ent_name": "Miss Utility of West Virginia  (1181)",
  "total": 0,
  "ent_code": "1181",
  "dataURL": "/api/v1/metric/single/Call Center/1181/TCLOSE/SEC/2014-01-01",
  "metric_type": "flow",
  "metric_name": "Ticket Closing",
  "metric_code": "TCLOSE",
  "gran_name": "Second",
  "gran_code": "SEC"
 },{
  "ent_category": "Call Center",
  "ent_name": "Arizona Blue Stake (SCA3)",
  "total": 0,
  "ent_code": "SCA3",
  "dataURL": "/api/v1/metric/single/Call Center/SCA3/TCLOSE/SEC/2014-01-01",
  "metric_type": "flow",
  "metric_name": "Ticket Closing",
  "metric_code": "TCLOSE",
  "gran_name": "Second",
  "gran_code": "SEC"
 },{
  "ent_category": "Call Center",
  "ent_name": "Miss Utility of Delmarva (FMB1)",
  "total": 0,
  "ent_code": "FMB1",
  "dataURL": "/api/v1/metric/single/Call Center/FMB1/TCLOSE/SEC/2014-01-01",
  "metric_type": "flow",
  "metric_name": "Ticket Closing",
  "metric_code": "TCLOSE",
  "gran_name": "Second",
  "gran_code": "SEC"
 },{
  "ent_category": "Call Center",
  "ent_name": "San Diego Gas Ticket Feed (SCA2)",
  "total": 0,
  "ent_code": "SCA2",
  "dataURL": "/api/v1/metric/single/Call Center/SCA2/TCLOSE/SEC/2014-01-01",
  "metric_type": "flow",
  "metric_name": "Ticket Closing",
  "metric_code": "TCLOSE",
  "gran_name": "Second",
  "gran_code": "SEC"
 },{
  "ent_category": "Call Center",
  "ent_name": "Palmetto Utility Protection (1421)",
  "total": 0,
  "ent_code": "1421",
  "dataURL": "/api/v1/metric/single/Call Center/1421/TCLOSE/SEC/2014-01-01",
  "metric_type": "flow",
  "metric_name": "Ticket Closing",
  "metric_code": "TCLOSE",
  "gran_name": "Second",
  "gran_code": "SEC"
 },{
  "ent_category": "Call Center",
  "ent_name": "New Jersey One Call (FNJ1)",
  "total": 0,
  "ent_code": "NewJersey",
  "dataURL": "/api/v1/metric/single/Call Center/NewJersey/TCLOSE/SEC/2014-01-01",
  "metric_type": "flow",
  "metric_name": "Ticket Closing",
  "metric_code": "TCLOSE",
  "gran_name": "Second",
  "gran_code": "SEC"
 },{
  "ent_category": "Call Center",
  "ent_name": "Tennessee One Call (FNV1)",
  "total": 0,
  "ent_code": "FNV1",
  "dataURL": "/api/v1/metric/single/Call Center/FNV1/TCLOSE/SEC/2014-01-01",
  "metric_type": "flow",
  "metric_name": "Ticket Closing",
  "metric_code": "TCLOSE",
  "gran_name": "Second",
  "gran_code": "SEC"
 },{
  "ent_category": "Call Center",
  "ent_name": "Alabama One Call (FAU2)",
  "total": 0,
  "ent_code": "FAU2",
  "dataURL": "/api/v1/metric/single/Call Center/FAU2/TCLOSE/SEC/2014-01-01",
  "metric_type": "flow",
  "metric_name": "Ticket Closing",
  "metric_code": "TCLOSE",
  "gran_name": "Second",
  "gran_code": "SEC"
 },{
  "ent_category": "Call Center",
  "ent_name": "Pennsylvania One Call (FNJ5)",
  "total": 0,
  "ent_code": "NewJersey5",
  "dataURL": "/api/v1/metric/single/Call Center/NewJersey5/TCLOSE/SEC/2014-01-01",
  "metric_type": "flow",
  "metric_name": "Ticket Closing",
  "metric_code": "TCLOSE",
  "gran_name": "Second",
  "gran_code": "SEC"
 },{
  "ent_category": "Call Center",
  "ent_name": "Underground Service Alert South (SCA1)",
  "total": 0,
  "ent_code": "SCA1",
  "dataURL": "/api/v1/metric/single/Call Center/SCA1/TREC/SEC/2014-01-01",
  "metric_type": "flow",
  "metric_name": "Tickets Received",
  "metric_code": "TREC",
  "gran_name": "Second",
  "gran_code": "SEC"
 },{
  "ent_category": "Call Center",
  "ent_name": "New York One Call (FNJ4)",
  "total": 0,
  "ent_code": "NewJersey4",
  "dataURL": "/api/v1/metric/single/Call Center/NewJersey4/TREC/SEC/2014-01-01",
  "metric_type": "flow",
  "metric_name": "Tickets Received",
  "metric_code": "TREC",
  "gran_name": "Second",
  "gran_code": "SEC"
 },{
  "ent_category": "Call Center",
  "ent_name": "Pennsylvania One Call (7501)",
  "total": 0,
  "ent_code": "7501",
  "dataURL": "/api/v1/metric/single/Call Center/7501/TREC/SEC/2014-01-01",
  "metric_type": "flow",
  "metric_name": "Tickets Received",
  "metric_code": "TREC",
  "gran_name": "Second",
  "gran_code": "SEC"
 },{
  "ent_category": "Call Center",
  "ent_name": "VUPS (FXL)",
  "total": 0,
  "ent_code": "OCC2",
  "dataURL": "/api/v1/metric/single/Call Center/OCC2/TREC/SEC/2014-01-01",
  "metric_type": "flow",
  "metric_name": "Tickets Received",
  "metric_code": "TREC",
  "gran_name": "Second",
  "gran_code": "SEC"
 },{
  "ent_category": "Call Center",
  "ent_name": "Underground Service Alert North (NCA1)",
  "total": 0,
  "ent_code": "NCA1",
  "dataURL": "/api/v1/metric/single/Call Center/NCA1/TREC/SEC/2014-01-01",
  "metric_type": "flow",
  "metric_name": "Tickets Received",
  "metric_code": "TREC",
  "gran_name": "Second",
  "gran_code": "SEC"
 },{
  "ent_category": "Call Center",
  "ent_name": "Miss Utility of Delmarva (FMW1)",
  "total": 0,
  "ent_code": "FMW1",
  "dataURL": "/api/v1/metric/single/Call Center/FMW1/TREC/SEC/2014-01-01",
  "metric_type": "flow",
  "metric_name": "Tickets Received",
  "metric_code": "TREC",
  "gran_name": "Second",
  "gran_code": "SEC"
 },{
  "ent_category": "Call Center",
  "ent_name": "Utilities Protection Center (Eden)",
  "total": 0,
  "ent_code": "3003",
  "dataURL": "/api/v1/metric/single/Call Center/3003/TREC/SEC/2014-01-01",
  "metric_type": "flow",
  "metric_name": "Tickets Received",
  "metric_code": "TREC",
  "gran_name": "Second",
  "gran_code": "SEC"
 },{
  "ent_category": "Call Center",
  "ent_name": "Miss Utility of West Virginia  (1181)",
  "total": 0,
  "ent_code": "1181",
  "dataURL": "/api/v1/metric/single/Call Center/1181/TREC/SEC/2014-01-01",
  "metric_type": "flow",
  "metric_name": "Tickets Received",
  "metric_code": "TREC",
  "gran_name": "Second",
  "gran_code": "SEC"
 },{
  "ent_category": "Call Center",
  "ent_name": "Arizona Blue Stake (SCA3)",
  "total": 0,
  "ent_code": "SCA3",
  "dataURL": "/api/v1/metric/single/Call Center/SCA3/TREC/SEC/2014-01-01",
  "metric_type": "flow",
  "metric_name": "Tickets Received",
  "metric_code": "TREC",
  "gran_name": "Second",
  "gran_code": "SEC"
 },{
  "ent_category": "Call Center",
  "ent_name": "Miss Utility of Delmarva (FMB1)",
  "total": 0,
  "ent_code": "FMB1",
  "dataURL": "/api/v1/metric/single/Call Center/FMB1/TREC/SEC/2014-01-01",
  "metric_type": "flow",
  "metric_name": "Tickets Received",
  "metric_code": "TREC",
  "gran_name": "Second",
  "gran_code": "SEC"
 },{
  "ent_category": "Call Center",
  "ent_name": "San Diego Gas Ticket Feed (SCA2)",
  "total": 0,
  "ent_code": "SCA2",
  "dataURL": "/api/v1/metric/single/Call Center/SCA2/TREC/SEC/2014-01-01",
  "metric_type": "flow",
  "metric_name": "Tickets Received",
  "metric_code": "TREC",
  "gran_name": "Second",
  "gran_code": "SEC"
 },{
  "ent_category": "Call Center",
  "ent_name": "Palmetto Utility Protection (1421)",
  "total": 0,
  "ent_code": "1421",
  "dataURL": "/api/v1/metric/single/Call Center/1421/TREC/SEC/2014-01-01",
  "metric_type": "flow",
  "metric_name": "Tickets Received",
  "metric_code": "TREC",
  "gran_name": "Second",
  "gran_code": "SEC"
 },{
  "ent_category": "Call Center",
  "ent_name": "New Jersey One Call (FNJ1)",
  "total": 0,
  "ent_code": "NewJersey",
  "dataURL": "/api/v1/metric/single/Call Center/NewJersey/TREC/SEC/2014-01-01",
  "metric_type": "flow",
  "metric_name": "Tickets Received",
  "metric_code": "TREC",
  "gran_name": "Second",
  "gran_code": "SEC"
 },{
  "ent_category": "Call Center",
  "ent_name": "Tennessee One Call (FNV1)",
  "total": 0,
  "ent_code": "FNV1",
  "dataURL": "/api/v1/metric/single/Call Center/FNV1/TREC/SEC/2014-01-01",
  "metric_type": "flow",
  "metric_name": "Tickets Received",
  "metric_code": "TREC",
  "gran_name": "Second",
  "gran_code": "SEC"
 },{
  "ent_category": "Call Center",
  "ent_name": "Alabama One Call (FAU2)",
  "total": 0,
  "ent_code": "FAU2",
  "dataURL": "/api/v1/metric/single/Call Center/FAU2/TREC/SEC/2014-01-01",
  "metric_type": "flow",
  "metric_name": "Tickets Received",
  "metric_code": "TREC",
  "gran_name": "Second",
  "gran_code": "SEC"
 },{
  "ent_category": "Call Center",
  "ent_name": "Pennsylvania One Call (FNJ5)",
  "total": 0,
  "ent_code": "NewJersey5",
  "dataURL": "/api/v1/metric/single/Call Center/NewJersey5/TREC/SEC/2014-01-01",
  "metric_type": "flow",
  "metric_name": "Tickets Received",
  "metric_code": "TREC",
  "gran_name": "Second",
  "gran_code": "SEC"
 },{
  "ent_category": "Call Center",
  "ent_name": "Underground Service Alert South (SCA1)",
  "total": 0,
  "ent_code": "SCA1",
  "dataURL": "/api/v1/metric/single/Call Center/SCA1/TROUTE/SEC/2014-01-01",
  "metric_type": "flow",
  "metric_name": "Tickets Routed (no demo)",
  "metric_code": "TROUTE",
  "gran_name": "Second",
  "gran_code": "SEC"
 },{
  "ent_category": "Call Center",
  "ent_name": "New York One Call (FNJ4)",
  "total": 0,
  "ent_code": "NewJersey4",
  "dataURL": "/api/v1/metric/single/Call Center/NewJersey4/TROUTE/SEC/2014-01-01",
  "metric_type": "flow",
  "metric_name": "Tickets Routed (no demo)",
  "metric_code": "TROUTE",
  "gran_name": "Second",
  "gran_code": "SEC"
 },{
  "ent_category": "Call Center",
  "ent_name": "Pennsylvania One Call (7501)",
  "total": 0,
  "ent_code": "7501",
  "dataURL": "/api/v1/metric/single/Call Center/7501/TROUTE/SEC/2014-01-01",
  "metric_type": "flow",
  "metric_name": "Tickets Routed (no demo)",
  "metric_code": "TROUTE",
  "gran_name": "Second",
  "gran_code": "SEC"
 },{
  "ent_category": "Call Center",
  "ent_name": "VUPS (FXL)",
  "total": 0,
  "ent_code": "OCC2",
  "dataURL": "/api/v1/metric/single/Call Center/OCC2/TROUTE/SEC/2014-01-01",
  "metric_type": "flow",
  "metric_name": "Tickets Routed (no demo)",
  "metric_code": "TROUTE",
  "gran_name": "Second",
  "gran_code": "SEC"
 },{
  "ent_category": "Call Center",
  "ent_name": "Underground Service Alert North (NCA1)",
  "total": 0,
  "ent_code": "NCA1",
  "dataURL": "/api/v1/metric/single/Call Center/NCA1/TROUTE/SEC/2014-01-01",
  "metric_type": "flow",
  "metric_name": "Tickets Routed (no demo)",
  "metric_code": "TROUTE",
  "gran_name": "Second",
  "gran_code": "SEC"
 },{
  "ent_category": "Call Center",
  "ent_name": "Miss Utility of Delmarva (FMW1)",
  "total": 0,
  "ent_code": "FMW1",
  "dataURL": "/api/v1/metric/single/Call Center/FMW1/TROUTE/SEC/2014-01-01",
  "metric_type": "flow",
  "metric_name": "Tickets Routed (no demo)",
  "metric_code": "TROUTE",
  "gran_name": "Second",
  "gran_code": "SEC"
 },{
  "ent_category": "Call Center",
  "ent_name": "Utilities Protection Center (Eden)",
  "total": 0,
  "ent_code": "3003",
  "dataURL": "/api/v1/metric/single/Call Center/3003/TROUTE/SEC/2014-01-01",
  "metric_type": "flow",
  "metric_name": "Tickets Routed (no demo)",
  "metric_code": "TROUTE",
  "gran_name": "Second",
  "gran_code": "SEC"
 },{
  "ent_category": "Call Center",
  "ent_name": "Miss Utility of West Virginia  (1181)",
  "total": 0,
  "ent_code": "1181",
  "dataURL": "/api/v1/metric/single/Call Center/1181/TROUTE/SEC/2014-01-01",
  "metric_type": "flow",
  "metric_name": "Tickets Routed (no demo)",
  "metric_code": "TROUTE",
  "gran_name": "Second",
  "gran_code": "SEC"
 },{
  "ent_category": "Call Center",
  "ent_name": "Arizona Blue Stake (SCA3)",
  "total": 0,
  "ent_code": "SCA3",
  "dataURL": "/api/v1/metric/single/Call Center/SCA3/TROUTE/SEC/2014-01-01",
  "metric_type": "flow",
  "metric_name": "Tickets Routed (no demo)",
  "metric_code": "TROUTE",
  "gran_name": "Second",
  "gran_code": "SEC"
 },{
  "ent_category": "Call Center",
  "ent_name": "Miss Utility of Delmarva (FMB1)",
  "total": 0,
  "ent_code": "FMB1",
  "dataURL": "/api/v1/metric/single/Call Center/FMB1/TROUTE/SEC/2014-01-01",
  "metric_type": "flow",
  "metric_name": "Tickets Routed (no demo)",
  "metric_code": "TROUTE",
  "gran_name": "Second",
  "gran_code": "SEC"
 },{
  "ent_category": "Call Center",
  "ent_name": "San Diego Gas Ticket Feed (SCA2)",
  "total": 0,
  "ent_code": "SCA2",
  "dataURL": "/api/v1/metric/single/Call Center/SCA2/TROUTE/SEC/2014-01-01",
  "metric_type": "flow",
  "metric_name": "Tickets Routed (no demo)",
  "metric_code": "TROUTE",
  "gran_name": "Second",
  "gran_code": "SEC"
 },{
  "ent_category": "Call Center",
  "ent_name": "Palmetto Utility Protection (1421)",
  "total": 0,
  "ent_code": "1421",
  "dataURL": "/api/v1/metric/single/Call Center/1421/TROUTE/SEC/2014-01-01",
  "metric_type": "flow",
  "metric_name": "Tickets Routed (no demo)",
  "metric_code": "TROUTE",
  "gran_name": "Second",
  "gran_code": "SEC"
 },{
  "ent_category": "Call Center",
  "ent_name": "New Jersey One Call (FNJ1)",
  "total": 0,
  "ent_code": "NewJersey",
  "dataURL": "/api/v1/metric/single/Call Center/NewJersey/TROUTE/SEC/2014-01-01",
  "metric_type": "flow",
  "metric_name": "Tickets Routed (no demo)",
  "metric_code": "TROUTE",
  "gran_name": "Second",
  "gran_code": "SEC"
 },{
  "ent_category": "Call Center",
  "ent_name": "Tennessee One Call (FNV1)",
  "total": 0,
  "ent_code": "FNV1",
  "dataURL": "/api/v1/metric/single/Call Center/FNV1/TROUTE/SEC/2014-01-01",
  "metric_type": "flow",
  "metric_name": "Tickets Routed (no demo)",
  "metric_code": "TROUTE",
  "gran_name": "Second",
  "gran_code": "SEC"
 },{
  "ent_category": "Call Center",
  "ent_name": "Alabama One Call (FAU2)",
  "total": 0,
  "ent_code": "FAU2",
  "dataURL": "/api/v1/metric/single/Call Center/FAU2/TROUTE/SEC/2014-01-01",
  "metric_type": "flow",
  "metric_name": "Tickets Routed (no demo)",
  "metric_code": "TROUTE",
  "gran_name": "Second",
  "gran_code": "SEC"
 },{
  "ent_category": "Call Center",
  "ent_name": "Pennsylvania One Call (FNJ5)",
  "total": 0,
  "ent_code": "NewJersey5",
  "dataURL": "/api/v1/metric/single/Call Center/NewJersey5/TROUTE/SEC/2014-01-01",
  "metric_type": "flow",
  "metric_name": "Tickets Routed (no demo)",
  "metric_code": "TROUTE",
  "gran_name": "Second",
  "gran_code": "SEC"
 }]

