
WGL904 *EOD* VUPSb 07/18/08 00:02:38

********************************************************************************
        THIS IS YOUR END OF DAY TICKET SUMMARY FOR 07/17/08 FROM VUPS
********************************************************************************

00001 B819900018-00B 05:45 NU 00002 B819900020-00B 05:45 NU
00003 B819900021-00B 05:46 NU 00004 B819900022-00B 05:46 NU
00005 B819900023-00B 05:46 NU 00006 B819900026-00B 05:47 NU
00007 B819900029-00B 06:23 N  00008 B819900032-00B 06:40 N
00009 B819600122-00B 07:00 NL 00010 B819600196-00B 07:00 NL
00011 B819600559-00B 07:00 NL 00012 B819600684-00B 07:00 NL
00013 B819600768-00B 07:00 NL 00014 B819600886-00B 07:00 NL
00015 B819600918-00B 07:00 NL 00016 B819601072-00B 07:00 NL
00017 B819601239-00B 07:00 NL 00018 B819601777-00B 07:00 NL
00019 B819601779-00B 07:00 NL 00020 B819603138-00B 07:00 NL
00021 B819603285-00B 07:00 NL 00022 B819603292-00B 07:00 NL
00023 B819900047-00B 07:05 NU 00024 B819900053-00B 07:07 EE
00025 B819900059-00B 07:10 N  00026 B819900060-00B 07:10 NU
00027 B819900064-00B 07:14 N  00028 B819900070-00B 07:16 NU
00029 B819900076-00B 07:18 N  00030 B819900081-00B 07:19 NU
00031 B819900095-00B 07:23 N  00032 B819900104-00B 07:26 NU
00033 B819900113-00B 07:35 NK 00034 B819900121-00B 07:39 NU
00035 B819900122-00B 07:39 NU 00036 B819900124-00B 07:40 NU
00037 B819900132-00B 07:44 N  00038 B819900135-00B 07:45 NU
00039 B819900136-00B 07:46 N  00040 B819900137-00B 07:47 NU
00041 B819900138-00B 07:49 NU 00042 B819900144-00B 07:52 NU
00043 B819900152-00B 07:56 NU 00044 B819900155-00B 07:57 NU
00045 B819900161-00B 08:01 NU 00046 B819900163-00B 08:02 NU
00047 B819900174-00B 08:05 NU 00048 B819900176-00B 08:05 NU
00049 B819900177-00B 08:05 NU 00050 B819900178-00B 08:05 NU
00051 B819900179-00B 08:05 NU 00052 B819900181-00B 08:06 NU
00053 B819900182-00B 08:06 NU 00054 B819900183-00B 08:06 NU
00055 B819900185-00B 08:07 NU 00056 B819900186-00B 08:07 NU
00057 B819900188-00B 08:07 NU 00058 B819900189-00B 08:08 NU
00059 B819900190-00B 08:08 N  00060 B819900191-00B 08:08 N
00061 B819900193-00B 08:09 N  00062 B819900194-00B 08:10 NU
00063 B819900196-00B 08:11 NK 00064 B819900199-00B 08:11 N
00065 B819900201-00B 08:12 N  00066 B819900202-00B 08:12 N
00067 B819900204-00B 08:12 N  00068 B819900206-00B 08:13 N
00069 B819900207-00B 08:14 NU 00070 B819900210-00B 08:15 NU
00071 B819900211-00B 08:15 NU 00072 B819900212-00B 08:16 N
00073 B819900213-00B 08:16 NU 00074 B819900216-00B 08:16 N
00075 B819900217-00B 08:17 NU 00076 B819900218-00B 08:17 NU
00077 B819900219-00B 08:18 NU 00078 B819900221-00B 08:18 NU
00079 B819900224-00B 08:18 NU 00080 B819900225-00B 08:19 NU
00081 B819900227-00B 08:19 NU 00082 B819900229-00B 08:20 NU
00083 B819900231-00B 08:20 EE 00084 B819900233-00B 08:22 NK
00085 B819900237-00B 08:23 NK 00086 B819301984-01B 08:24 EY
00087 B819900239-00B 08:24 N  00088 B819900240-00B 08:24 NU
00089 B819900241-00B 08:24 NU 00090 B819900242-00B 08:25 NK
00091 B819900244-00B 08:26 N  00092 B819900245-00B 08:26 NK
00093 B819900246-00B 08:27 NK 00094 B819900250-00B 08:27 NK
00095 B819900260-00B 08:33 NU 00096 B819900264-00B 08:34 NU
00097 B819900271-00B 08:37 NU 00098 B819900274-00B 08:38 NU
00099 B819900277-00B 08:39 NU 00100 B819900278-00B 08:39 NU
00101 B819900280-00B 08:39 NU 00102 B819900282-00B 08:39 NU
00103 B819900285-00B 08:40 NU 00104 B819900288-00B 08:41 NU
00105 B819900289-00B 08:42 NU 00106 B819900291-00B 08:42 NU
00107 B819900294-00B 08:43 NU 00108 B819900297-00B 08:43 NU
00109 B819900299-00B 08:43 N  00110 B819900300-00B 08:44 NU
00111 B819900302-00B 08:44 N  00112 B819900304-00B 08:45 NU
00113 B819900309-00B 08:45 NU 00114 B819900311-00B 08:46 NU
00115 B819900314-00B 08:46 NU 00116 B819900317-00B 08:47 NU
00117 B819601779-01B 08:49 EY 00118 B819900326-00B 08:49 N
00119 B819900339-00B 08:53 EE 00120 B819900340-00B 08:53 N
00121 B819900351-00B 08:55 N  00122 B819900365-00B 08:58 NU
00123 B819900378-00B 09:02 N  00124 B819900390-00B 09:03 N
00125 B819900402-00B 09:06 N  00126 B819900406-00B 09:06 N
00127 B819900409-00B 09:07 NK 00128 B819900429-00B 09:13 NU
00129 B819900434-00B 09:15 N  00130 B819900439-00B 09:17 N
00131 B819900442-00B 09:19 N  00132 B819900445-00B 09:21 N
00133 B819900452-00B 09:23 N  00134 B819900453-00B 09:23 N
00135 B819900459-00B 09:25 N  00136 B819900460-00B 09:26 N
00137 B819900462-00B 09:26 N  00138 B819900473-00B 09:32 N
00139 B819900475-00B 09:32 N  00140 B819900487-00B 09:37 NK
00141 B819900490-00B 09:37 NK 00142 B819900511-00B 09:47 N
00143 B819900518-00B 09:49 NU 00144 A819301000-01B 09:49 EY
00145 B819900520-00B 09:49 NU 00146 B819900528-00B 09:51 NU
00147 B819900531-00B 09:51 NU 00148 B819900537-00B 09:53 NU
00149 B819900539-00B 09:53 NU 00150 B819900540-00B 09:53 NU
00151 B819900543-00B 09:54 NU 00152 B819900545-00B 09:55 NU
00153 B819900546-00B 09:55 NU 00154 B819900547-00B 09:55 N
00155 B819900548-00B 09:56 N  00156 B819900553-00B 09:58 NU
00157 B819900554-00B 09:58 N  00158 B819900556-00B 09:59 NU
00159 B819900558-00B 09:59 NU 00160 B819900559-00B 09:59 N
00161 B819900563-00B 10:00 N  00162 B819900565-00B 10:01 NU
00163 B819900568-00B 10:01 N  00164 B819900572-00B 10:02 N
00165 B819900574-00B 10:02 N  00166 B819900580-00B 10:03 N
00167 B819900581-00B 10:04 N  00168 B819900582-00B 10:04 NK
00169 B819900585-00B 10:05 N  00170 B819900586-00B 10:05 N
00171 B819900587-00B 10:05 NU 00172 B819900592-00B 10:05 NU
00173 B819900594-00B 10:06 N  00174 B819900595-00B 10:07 N
00175 B819900596-00B 10:07 N  00176 B819900599-00B 10:08 N
00177 B819900602-00B 10:08 N  00178 B819900606-00B 10:09 N
00179 B819900608-00B 10:10 N  00180 B819900610-00B 10:10 N
00181 B819900613-00B 10:11 NU 00182 B819900614-00B 10:11 N
00183 B819900615-00B 10:12 N  00184 B819900617-00B 10:12 NU
00185 B819900620-00B 10:13 NU 00186 B819900623-00B 10:13 NU
00187 B819900624-00B 10:13 N  00188 B819900627-00B 10:14 NK
00189 B819900633-00B 10:14 N  00190 B819900634-00B 10:14 N
00191 B819900645-00B 10:16 N  00192 B819900651-00B 10:17 N
00193 B819900653-00B 10:18 N  00194 B819900654-00B 10:18 N
00195 B819900658-00B 10:20 N  00196 B819900661-00B 10:21 N
00197 B819900676-00B 10:25 EE 00198 B819900680-00B 10:27 N
00199 B819900684-00B 10:28 EE 00200 B819900683-00B 10:28 N
00201 B819900686-00B 10:28 N  00202 B819900689-00B 10:29 N
00203 B819900692-00B 10:29 N  00204 B819900694-00B 10:30 N
00205 B819900697-00B 10:31 N  00206 B819900705-00B 10:32 N
00207 B819900707-00B 10:32 N  00208 B819900712-00B 10:34 N
00209 B819900715-00B 10:34 N  00210 B819900719-00B 10:35 N
00211 B819900721-00B 10:36 N  00212 B819900726-00B 10:37 N
00213 B819900733-00B 10:39 N  00214 B819900740-00B 10:40 N
00215 B819900742-00B 10:41 N  00216 B819900747-00B 10:43 N
00217 B819900752-00B 10:43 N  00218 B819900755-00B 10:44 N
00219 B819900763-00B 10:45 N  00220 B819900769-00B 10:45 N
00221 B819900779-00B 10:47 N  00222 B819900780-00B 10:47 N
00223 B819900786-00B 10:48 N  00224 B819900787-00B 10:48 N
00225 B819900794-00B 10:49 N  00226 B819900796-00B 10:51 N
00227 B819900802-00B 10:52 N  00228 B819900808-00B 10:54 N
00229 B819900814-00B 10:55 N  00230 B819900816-00B 10:56 N
00231 B819900817-00B 10:56 N  00232 B819900834-00B 10:59 NU
00233 B819900839-00B 11:00 NU 00234 B819900846-00B 11:01 N
00235 B819900849-00B 11:01 NU 00236 B819900850-00B 11:01 N
00237 B819900853-00B 11:02 NU 00238 B819900856-00B 11:03 NU
00239 B819900857-00B 11:03 N  00240 B819900860-00B 11:04 NU
00241 B819900861-00B 11:04 N  00242 B819900866-00B 11:04 NU
00243 B819900868-00B 11:05 NU 00244 B819900869-00B 11:05 N
00245 B819900870-00B 11:05 NU 00246 B819900874-00B 11:06 N
00247 B819900875-00B 11:06 N  00248 B819900897-00B 11:10 N
00249 B819900900-00B 11:10 N  00250 B819900901-00B 11:10 N
00251 B819900915-00B 11:13 N  00252 B819900923-00B 11:14 N
00253 B819900924-00B 11:14 N  00254 B819900927-00B 11:15 N
00255 B819900930-00B 11:16 N  00256 B819900936-00B 11:17 N
00257 B819900959-00B 11:22 N  00258 B819900968-00B 11:24 N
00259 B819900974-00B 11:25 N  00260 B819900979-00B 11:26 N
00261 B819900984-00B 11:26 N  00262 B819900986-00B 11:27 N
00263 B819900988-00B 11:27 N  00264 B819900989-00B 11:27 N
00265 B819900993-00B 11:28 N  00266 B819900994-00B 11:28 N
00267 B819900995-00B 11:28 NU 00268 B819900996-00B 11:29 NU
00269 B819900997-00B 11:29 N  00270 B819900998-00B 11:29 N
00271 B819901000-00B 11:30 NU 00272 A819601592-01B 11:30 EY
00273 B819901001-00B 11:30 NU 00274 B819901002-00B 11:30 N
00275 B819901004-00B 11:30 N  00276 B819901008-00B 11:31 NU
00277 B819901010-00B 11:31 N  00278 B819901011-00B 11:31 NU
00279 B819901012-00B 11:32 NU 00280 B819901014-00B 11:32 NU
00281 B819901015-00B 11:32 N  00282 B819901016-00B 11:32 N
00283 B819901017-00B 11:33 N  00284 B819901018-00B 11:33 NU
00285 B819901020-00B 11:33 N  00286 B819901021-00B 11:33 N
00287 B819901023-00B 11:33 NU 00288 B819901025-00B 11:35 N
00289 B819901026-00B 11:35 N  00290 B819901027-00B 11:35 NU
00291 B819901032-00B 11:36 N  00292 B819901033-00B 11:37 N
00293 B819901034-00B 11:37 NU 00294 B819901038-00B 11:37 N
00295 B819901043-00B 11:38 N  00296 B819901044-00B 11:39 N
00297 B819901046-00B 11:39 N  00298 B819901052-00B 11:39 N
00299 B819901056-00B 11:41 NU 00300 B819901060-00B 11:43 N
00301 B819901061-00B 11:43 NK 00302 B819901062-00B 11:43 EE
00303 B819901065-00B 11:44 N  00304 B819901070-00B 11:45 N
00305 B819901073-00B 11:46 N  00306 B819901075-00B 11:46 N
00307 B819901078-00B 11:47 N  00308 B819901085-00B 11:49 N
00309 B819901090-00B 11:50 N  00310 B819901091-00B 11:50 N
00311 B819901092-00B 11:50 N  00312 B819901094-00B 11:50 NK
00313 B819901097-00B 11:51 N  00314 B819901098-00B 11:51 NK
00315 B819901101-00B 11:52 N  00316 B819901103-00B 11:52 N
00317 B819901108-00B 11:53 N  00318 B819901109-00B 11:54 N
00319 B819901112-00B 11:54 N  00320 B819901113-00B 11:55 N
00321 B819901114-00B 11:55 N  00322 B819901116-00B 11:56 N
00323 B819901119-00B 11:57 N  00324 B819901120-00B 11:58 N
00325 B819901122-00B 11:58 N  00326 B819901123-00B 11:59 N
00327 B819901125-00B 12:00 N  00328 B819901126-00B 12:01 N
00329 B819901128-00B 12:01 N  00330 B819901129-00B 12:02 N
00331 B819901130-00B 12:03 N  00332 B819901131-00B 12:03 N
00333 B819901132-00B 12:03 N  00334 B819901133-00B 12:04 N
00335 B819901135-00B 12:05 N  00336 B819901137-00B 12:06 N
00337 B819901138-00B 12:06 N  00338 B819901149-00B 12:11 N
00339 B819901154-00B 12:12 N  00340 B819901155-00B 12:12 N
00341 B819901156-00B 12:12 NK 00342 B819901159-00B 12:13 N
00343 B819901160-00B 12:14 NK 00344 B819901163-00B 12:14 N
00345 B819901166-00B 12:15 N  00346 B819901167-00B 12:15 NK
00347 B819901168-00B 12:15 NK 00348 B819901169-00B 12:16 N
00349 B819901171-00B 12:16 NK 00350 B819901172-00B 12:16 N
00351 B819901176-00B 12:17 N  00352 B819901177-00B 12:17 NU
00353 B819901178-00B 12:18 N  00354 B819901179-00B 12:19 NU
00355 B819901180-00B 12:19 N  00356 B819901186-00B 12:20 NU
00357 B819901188-00B 12:21 N  00358 B819901189-00B 12:21 N
00359 B819901190-00B 12:21 N  00360 B819901191-00B 12:21 NU
00361 B819901194-00B 12:22 N  00362 B819901195-00B 12:22 N
00363 B819901196-00B 12:22 N  00364 B819100739-01B 12:23 EY
00365 B819901197-00B 12:23 NU 00366 B819901198-00B 12:23 N
00367 B819901199-00B 12:23 N  00368 B819901201-00B 12:24 NU
00369 B819901203-00B 12:24 N  00370 B819901206-00B 12:25 N
00371 B819901209-00B 12:25 NU 00372 B819901214-00B 12:26 N
00373 B819901220-00B 12:27 N  00374 B819901225-00B 12:27 NU
00375 B819901226-00B 12:27 N  00376 B819901230-00B 12:28 N
00377 B819901235-00B 12:28 NU 00378 B819901238-00B 12:29 N
00379 B819901240-00B 12:29 NU 00380 B819901246-00B 12:30 N
00381 B819901247-00B 12:30 N  00382 B819901255-00B 12:32 N
00383 B819901258-00B 12:32 N  00384 B819901259-00B 12:33 N
00385 B819901260-00B 12:33 N  00386 B819901262-00B 12:33 NK
00387 B819901264-00B 12:33 N  00388 B819901266-00B 12:34 N
00389 B819901258-01B 12:34 EC 00390 B819901271-00B 12:35 NK
00391 B819901272-00B 12:35 N  00392 B819901273-00B 12:36 N
00393 B819901274-00B 12:36 N  00394 B819901275-00B 12:37 N
00395 B819901277-00B 12:38 N  00396 B819901278-00B 12:38 N
00397 B819901280-00B 12:39 N  00398 B819901282-00B 12:39 N
00399 B819901284-00B 12:39 N  00400 B819901287-00B 12:40 N
00401 B819901288-00B 12:40 N  00402 B819901289-00B 12:40 N
00403 B819901291-00B 12:41 N  00404 B819901293-00B 12:41 N
00405 B819901294-00B 12:42 N  00406 B819901296-00B 12:42 N
00407 B819901297-00B 12:42 N  00408 B819901298-00B 12:42 N
00409 B819901300-00B 12:42 N  00410 B819901302-00B 12:42 N
00411 B819901304-00B 12:43 N  00412 B819901309-00B 12:43 N
00413 B819901311-00B 12:44 N  00414 B819901312-00B 12:44 N
00415 B819901313-00B 12:44 N  00416 B819901315-00B 12:45 N
00417 B819901316-00B 12:45 N  00418 B819901317-00B 12:46 N
00419 B819901318-00B 12:46 N  00420 B819901319-00B 12:46 N
00421 B819901320-00B 12:46 N  00422 B819901322-00B 12:46 N
00423 B819901323-00B 12:46 N  00424 B819901324-00B 12:47 N
00425 B819901326-00B 12:47 N  00426 B819901331-00B 12:49 N
00427 B819901332-00B 12:49 N  00428 B819901335-00B 12:49 N
00429 B819901337-00B 12:50 N  00430 B819901340-00B 12:50 N
00431 B819901342-00B 12:51 N  00432 B819901345-00B 12:51 N
00433 B819901348-00B 12:52 N  00434 B819901350-00B 12:52 N
00435 B819901354-00B 12:54 N  00436 B819901356-00B 12:54 N
00437 B819901358-00B 12:54 N  00438 B819901359-00B 12:54 N
00439 B819901362-00B 12:55 N  00440 B819901363-00B 12:55 N
00441 B819901364-00B 12:55 N  00442 B819901365-00B 12:55 N
00443 B819901370-00B 12:57 N  00444 B819901373-00B 12:57 N
00445 B819901374-00B 12:58 N  00446 B819901375-00B 12:58 N
00447 B819901376-00B 12:59 N  00448 B819901377-00B 13:00 N
00449 B819901378-00B 13:00 N  00450 B819901379-00B 13:00 N
00451 B819901380-00B 13:01 N  00452 B819901382-00B 13:01 N
00453 B819901390-00B 13:03 N  00454 B819901392-00B 13:03 N
00455 B819901397-00B 13:04 N  00456 B819901399-00B 13:04 N
00457 B819901404-00B 13:05 N  00458 B819901405-00B 13:05 NU
00459 B819901406-00B 13:06 N  00460 B819901407-00B 13:06 N
00461 B819901409-00B 13:06 N  00462 B819901411-00B 13:07 N
00463 B819901414-00B 13:07 NU 00464 B819901418-00B 13:08 N
00465 B819901419-00B 13:08 N  00466 B819901421-00B 13:09 N
00467 B819901423-00B 13:09 N  00468 B819901424-00B 13:09 N
00469 B819901425-00B 13:09 N  00470 B819901426-00B 13:10 N
00471 B819901427-00B 13:11 N  00472 B819901428-00B 13:11 N
00473 B819901432-00B 13:11 N  00474 B819901434-00B 13:12 N
00475 B819901435-00B 13:12 N  00476 B819901438-00B 13:13 N
00477 B819901442-00B 13:14 N  00478 B819901443-00B 13:14 N
00479 B819901444-00B 13:14 N  00480 B819901445-00B 13:14 N
00481 B819901447-00B 13:14 N  00482 B819901448-00B 13:15 N
00483 B819901450-00B 13:15 N  00484 B819901451-00B 13:16 N
00485 B819901453-00B 13:17 N  00486 B819901457-00B 13:18 N
00487 B819901459-00B 13:19 N  00488 B819901460-00B 13:19 N
00489 B819901461-00B 13:20 N  00490 B819901463-00B 13:20 N
00491 B819901468-00B 13:21 N  00492 B819901472-00B 13:22 N
00493 B819901476-00B 13:23 N  00494 B819901478-00B 13:24 N
00495 B819901479-00B 13:24 N  00496 B819901482-00B 13:24 N
00497 B819901492-00B 13:27 N  00498 B819901495-00B 13:27 N
00499 B819901496-00B 13:28 N  00500 B819901499-00B 13:29 N
00501 B819901503-00B 13:30 N  00502 B819901506-00B 13:30 N
00503 B819901507-00B 13:30 N  00504 B819901508-00B 13:31 N
00505 B819901510-00B 13:31 N  00506 B819901511-00B 13:31 N
00507 B819901512-00B 13:31 ND 00508 B819901514-00B 13:32 N
00509 B819901517-00B 13:33 NK 00510 B819901519-00B 13:33 NK
00511 B819901522-00B 13:34 N  00512 B819901523-00B 13:34 N
00513 B819901524-00B 13:34 EE 00514 B819300427-01B 13:36 EY
00515 B819901543-00B 13:40 N  00516 B819901544-00B 13:40 N
00517 B819901550-00B 13:40 N  00518 B819901554-00B 13:41 N
00519 B819901557-00B 13:42 N  00520 B819901561-00B 13:43 N
00521 B819901567-00B 13:44 N  00522 B819901573-00B 13:47 N
00523 B819901579-00B 13:48 N  00524 B819901582-00B 13:49 N
00525 B819901583-00B 13:49 N  00526 B819901592-00B 13:50 N
00527 B819901593-00B 13:51 N  00528 B819901596-00B 13:51 NK
00529 B819901599-00B 13:51 N  00530 B819901601-00B 13:52 NK
00531 B819901603-00B 13:52 NK 00532 B819901606-00B 13:52 N
00533 B819901607-00B 13:52 NK 00534 B819901610-00B 13:53 NK
00535 B819901612-00B 13:53 N  00536 B819901616-00B 13:54 N
00537 B819901621-00B 13:55 N  00538 B819901623-00B 13:56 N
00539 B819901628-00B 13:57 N  00540 B819901632-00B 13:58 N
00541 B819901634-00B 13:59 N  00542 B819901638-00B 14:00 N
00543 B819901644-00B 14:03 N  00544 B819901645-00B 14:04 N
00545 B819901648-00B 14:04 N  00546 B819901652-00B 14:06 N
00547 B819901653-00B 14:07 N  00548 B819901656-00B 14:07 N
00549 B819901658-00B 14:07 N  00550 B819901659-00B 14:08 N
00551 B819901660-00B 14:08 N  00552 B819901662-00B 14:08 N
00553 B819901666-00B 14:09 N  00554 B819901672-00B 14:10 N
00555 B819901676-00B 14:10 N  00556 B819901677-00B 14:11 N
00557 B819901679-00B 14:11 N  00558 B819901680-00B 14:12 N
00559 B819901683-00B 14:12 N  00560 B819901686-00B 14:13 N
00561 B819901689-00B 14:14 N  00562 B819901693-00B 14:15 N
00563 B819901694-00B 14:16 N  00564 B819901695-00B 14:16 N
00565 B819901696-00B 14:16 N  00566 B819901705-00B 14:18 N
00567 B819901707-00B 14:18 N  00568 B819901710-00B 14:18 N
00569 B819901711-00B 14:19 N  00570 B819901712-00B 14:19 N
00571 B819901714-00B 14:19 NU 00572 B819901716-00B 14:19 N
00573 B819901718-00B 14:19 N  00574 B819901719-00B 14:20 N
00575 B819901724-00B 14:20 N  00576 B819901726-00B 14:20 N
00577 B819901732-00B 14:21 N  00578 B819901735-00B 14:22 N
00579 B819901736-00B 14:22 N  00580 B819901739-00B 14:22 N
00581 B819901742-00B 14:23 EE 00582 B819901743-00B 14:23 N
00583 B819901748-00B 14:23 N  00584 A818500213-01B 14:23 EY
00585 B819901749-00B 14:23 N  00586 B819901752-00B 14:23 N
00587 B819901753-00B 14:24 N  00588 B819901758-00B 14:25 N
00589 B819901763-00B 14:25 N  00590 B819901766-00B 14:26 N
00591 B819901773-00B 14:27 NK 00592 B819901777-00B 14:28 N
00593 B819901781-00B 14:30 N  00594 B819901802-00B 14:34 NU
00595 B819901813-00B 14:36 N  00596 B819901824-00B 14:38 N
00597 B819901833-00B 14:39 N  00598 B819901843-00B 14:42 N
00599 B819901849-00B 14:42 N  00600 B819901853-00B 14:42 NK
00601 B819901855-00B 14:43 N  00602 B819901858-00B 14:44 N
00603 B819901860-00B 14:44 N  00604 B819901862-00B 14:44 NK
00605 B819901870-00B 14:46 N  00606 B819901883-00B 14:49 NK
00607 B819901887-00B 14:50 N  00608 B819901893-00B 14:51 N
00609 B819901897-00B 14:51 N  00610 B819901898-00B 14:51 N
00611 B819901904-00B 14:52 N  00612 B819901908-00B 14:52 N
00613 B819901915-00B 14:53 N  00614 B819901919-00B 14:54 N
00615 B819901920-00B 14:54 N  00616 B819901921-00B 14:54 N
00617 B819901924-00B 14:54 N  00618 B819901930-00B 14:55 N
00619 B819901931-00B 14:55 N  00620 B819901936-00B 14:55 N
00621 B819901938-00B 14:56 N  00622 B819901941-00B 14:56 N
00623 B819901943-00B 14:56 N  00624 B819901944-00B 14:57 N
00625 B819901950-00B 14:58 N  00626 B819901952-00B 14:58 N
00627 B819901953-00B 14:58 N  00628 B819901956-00B 14:58 N
00629 B819901964-00B 15:00 N  00630 B819901967-00B 15:00 N
00631 B819901969-00B 15:01 NK 00632 B819901972-00B 15:01 N
00633 B819901973-00B 15:01 N  00634 B819901982-00B 15:02 N
00635 B819901988-00B 15:03 N  00636 B819901992-00B 15:04 N
00637 B819901998-00B 15:05 N  00638 B819902003-00B 15:06 N
00639 B819902011-00B 15:07 N  00640 B819902020-00B 15:09 N
00641 B819902035-00B 15:11 N  00642 B819902037-00B 15:12 N
00643 B819902045-00B 15:13 NU 00644 B819902046-00B 15:13 N
00645 B819902049-00B 15:14 N  00646 B819902051-00B 15:14 N
00647 B819902053-00B 15:14 NU 00648 B819902054-00B 15:14 N
00649 B819902055-00B 15:15 N  00650 B819902057-00B 15:15 NU
00651 B819902060-00B 15:16 N  00652 B819902061-00B 15:16 N
00653 B819902063-00B 15:16 NU 00654 B819902065-00B 15:16 N
00655 B819902066-00B 15:16 NU 00656 B819902068-00B 15:17 NU
00657 B819902070-00B 15:17 N  00658 B819902073-00B 15:18 N
00659 B819902075-00B 15:19 N  00660 B819902076-00B 15:19 N
00661 B819902081-00B 15:20 N  00662 B819902082-00B 15:20 N
00663 B819902084-00B 15:20 N  00664 B819902087-00B 15:21 N
00665 B819902088-00B 15:21 N  00666 B819902090-00B 15:22 N
00667 B819902091-00B 15:22 N  00668 B819902098-00B 15:23 N
00669 B819902100-00B 15:23 N  00670 B819902101-00B 15:23 N
00671 B819902104-00B 15:24 N  00672 B819902107-00B 15:25 NU
00673 B819902108-00B 15:25 N  00674 B819902112-00B 15:26 N
00675 B819902115-00B 15:27 N  00676 B819902120-00B 15:28 N
00677 B819902121-00B 15:28 N  00678 B819902128-00B 15:29 N
00679 B819902130-00B 15:29 N  00680 B819902131-00B 15:30 N
00681 B819902132-00B 15:30 N  00682 B819902135-00B 15:31 N
00683 B819902136-00B 15:31 N  00684 B819902141-00B 15:33 N
00685 B819902143-00B 15:34 N  00686 B819902144-00B 15:34 N
00687 B819902146-00B 15:35 N  00688 B819902148-00B 15:35 N
00689 B819902157-00B 15:37 N  00690 B819902164-00B 15:38 N
00691 B819902166-00B 15:38 N  00692 B819902168-00B 15:39 N
00693 B819902183-00B 15:41 EE 00694 B819902181-00B 15:41 N
00695 B819902182-00B 15:41 N  00696 B819902194-00B 15:43 N
00697 B819902197-00B 15:44 N  00698 B819902203-00B 15:45 N
00699 B819902239-00B 15:53 NU 00700 B819902247-00B 15:55 N
00701 B819902249-00B 15:55 N  00702 B819902266-00B 15:58 N
00703 B819902270-00B 15:59 NU 00704 B819902272-00B 16:00 N
00705 B819902273-00B 16:00 NU 00706 B819902275-00B 16:00 N
00707 B819902277-00B 16:01 NU 00708 B819902280-00B 16:01 NU
00709 B819902282-00B 16:02 NU 00710 B819902283-00B 16:02 N
00711 B818402681-05B 16:03 EY 00712 B819902288-00B 16:04 N
00713 B819902293-00B 16:07 N  00714 B819902294-00B 16:07 N
00715 B819902297-00B 16:07 N  00716 B819902300-00B 16:09 N
00717 B819902314-00B 16:14 N  00718 B819902325-00B 16:17 N
00719 B819902327-00B 16:17 NK 00720 B819902329-00B 16:18 N
00721 B819902330-00B 16:18 NK 00722 B819902338-00B 16:20 N
00723 B819902341-00B 16:21 N  00724 B819902343-00B 16:22 N
00725 B819902344-00B 16:22 N  00726 B819902357-00B 16:24 N
00727 B819902361-00B 16:24 N  00728 B819902366-00B 16:26 N
00729 B819902368-00B 16:27 N  00730 B819902369-00B 16:28 N
00731 B819902372-00B 16:28 N  00732 B819902375-00B 16:29 N
00733 B819902383-00B 16:31 N  00734 B819902396-00B 16:35 N
00735 B819902399-00B 16:36 N  00736 B819902403-00B 16:37 N
00737 B819902405-00B 16:37 N  00738 B819902408-00B 16:39 N
00739 B819902410-00B 16:40 N  00740 B819902416-00B 16:41 N
00741 B819902421-00B 16:42 N  00742 B819902423-00B 16:43 N
00743 B819902426-00B 16:44 N  00744 B819902429-00B 16:45 N
00745 B819902430-00B 16:45 N  00746 B819902434-00B 16:47 N
00747 B819902437-00B 16:48 N  00748 B819902438-00B 16:48 N
00749 B819902439-00B 16:49 N  00750 B819902442-00B 16:50 N
00751 B819902444-00B 16:51 N  00752 B819902450-00B 16:53 N
00753 B819902451-00B 16:53 N  00754 B819902469-00B 16:59 N
00755 B819902479-00B 17:04 N  00756 B819902492-00B 17:12 N
00757 B819902498-00B 17:15 N  00758 B819902530-00B 17:25 N
00759 B819902538-00B 17:29 N  00760 B819902542-00B 17:36 N
00761 B819902543-00B 17:37 N  00762 B819902545-00B 17:40 N
00763 B819902546-00B 17:41 N  00764 B819902549-00B 17:43 N
00765 B819902550-00B 17:43 N  00766 B819902551-00B 17:44 N
00767 B819902552-00B 17:44 N  00768 B819902554-00B 17:45 N
00769 B819902556-00B 17:46 N  00770 B819902557-00B 17:46 N
00771 B819902559-00B 17:47 N  00772 B819902560-00B 17:47 N
00773 B819902561-00B 17:47 N  00774 B819902562-00B 17:48 N
00775 B819902564-00B 17:49 N  00776 B819902565-00B 17:49 N
00777 B819902566-00B 17:49 N  00778 B819902567-00B 17:49 N
00779 B819902571-00B 17:50 N  00780 B819902572-00B 17:51 N
00781 B819902573-00B 17:51 N  00782 B819902575-00B 17:52 N
00783 B819902576-00B 17:52 N  00784 B819902578-00B 17:54 N
00785 B819902580-00B 17:56 N  00786 B819902582-00B 17:56 N
00787 B819902583-00B 17:57 N  00788 B819902584-00B 17:57 N
00789 B819902586-00B 17:58 N  00790 B819902587-00B 17:58 N
00791 B819902589-00B 18:00 N  00792 B819902590-00B 18:00 N
00793 B819902591-00B 18:00 N  00794 B819902593-00B 18:01 N
00795 B819902595-00B 18:02 N  00796 B819902596-00B 18:04 N
00797 B819902597-00B 18:06 N  00798 B819902600-00B 18:08 N
00799 B819902601-00B 18:10 N  00800 B819902604-00B 18:12 N
00801 B819902606-00B 18:13 N  00802 B819902607-00B 18:17 N
00803 B819902619-00B 18:31 N  00804 B819902620-00B 18:32 N
00805 B819902622-00B 18:32 N  00806 B819902652-00B 20:02 N
00807 B819902657-00B 20:05 N  00808 B819902660-00B 20:07 N
00809 B819902665-00B 20:11 N  00810 B819902667-00B 20:12 N
00811 B819902668-00B 20:13 N  00812 B819902671-00B 20:14 N
00813 B819902675-00B 20:17 N  00814 B819902698-00B 20:47 N
00815 B819902699-00B 20:49 N  00816 B819902700-00B 21:14 N
00817 B819902702-00B 21:30 N  00818 B819902703-00B 21:37 N
00819 B819902705-00B 21:41 N  00820 B819902706-00B 21:43 N
00821 B819902709-00B 21:48 N  00822 B819902711-00B 21:50 N
00823 B819902713-00B 21:52 N  00824 B819902715-00B 21:55 N
00825 B819902716-00B 21:56 N  00826 B819902719-00B 21:58 N
00827 B819902720-00B 22:01 N  00828 B819902721-00B 22:02 N
00829 B819902722-00B 22:02 N  00830 B819902723-00B 22:05 N
00831 B819902726-00B 22:09 N  00832 B819902727-00B 22:10 N
00833 B819902729-00B 22:13 N  00834 B819902731-00B 22:17 N
00835 B819902732-00B 22:18 N  00836 B819902734-00B 22:22 N
00837 B819902737-00B 22:26 N  00838 B819902739-00B 22:29 N
00839 B819902745-00B 22:36 N  00840 B819902747-00B 22:38 N
00841 B819902749-00B 22:39 N  00842 B819902754-00B 22:44 N
00843 B819902756-00B 22:45 N  00844 B819902760-00B 22:51 N
00845 B819902764-00B 23:00 N  00846 B819902767-00B 23:11 N
00847 B819902772-00B 23:24 N  00848 B819902773-00B 23:32 N
00849 B819902774-00B 23:38 N  00850 B819902775-00B 23:50 N

( ) NORMAL       - 00640
(E) EMERGENCY    - 00009
(P) SPCL PROJECT - 00000
(D) DESIGNER     - 00001
(M) MEETING      - 00000
(U) UPDATE       - 00140
(K) REMARK       - 00037
(Y) 3HR RENOTIFY - 00008
(C) CANCEL       - 00001
(R) CORRECTION   - 00000
(S) RESENT       - 00000
(L) NO SHOW/LATE - 00014
    TOTAL        - 00850

