
UTIL13 *EOD* VUPSb 07/15/08 00:00:32

********************************************************************************
        THIS IS YOUR END OF DAY TICKET SUMMARY FOR 07/14/08 FROM VUPS
********************************************************************************

00001 B819600001-00B 05:22 N  00002 B819600002-00B 05:32 N
00003 B819600003-00B 05:37 N  00004 B819600004-00B 05:38 N
00005 B819600005-00B 05:39 N  00006 B819600006-00B 05:40 N
00007 B819600007-00B 05:41 N  00008 B819600008-00B 05:42 N
00009 B819600009-00B 05:45 N  00010 B819600010-00B 06:08 NU
00011 B819600011-00B 06:12 NU 00012 B819100100-00B 07:00 NL
00013 B819100223-00B 07:00 NL 00014 B819100239-00B 07:00 NL
00015 B819100255-00B 07:00 NL 00016 B819100306-00B 07:00 NL
00017 B819100311-00B 07:00 NL 00018 B819100319-00B 07:00 NL
00019 B819100337-00B 07:00 NL 00020 B819100362-00B 07:00 NL
00021 B819100380-00B 07:00 NL 00022 B819100386-00B 07:00 NL
00023 B819100433-00B 07:00 NL 00024 B819100603-00B 07:00 NL
00025 B819100874-00B 07:00 NL 00026 B819101286-00B 07:00 NL
00027 B819101340-00B 07:00 NL 00028 B819101347-00B 07:00 NL
00029 B819101351-00B 07:00 NL 00030 B819101354-00B 07:00 NL
00031 B819101364-00B 07:00 NL 00032 B819101367-00B 07:00 NL
00033 B819101380-00B 07:00 NL 00034 B819101382-00B 07:00 NL
00035 B819101388-00B 07:00 NL 00036 B819101391-00B 07:00 NL
00037 B819101393-00B 07:00 NL 00038 B819101396-00B 07:00 NL
00039 B819101400-00B 07:00 NL 00040 B819101794-00B 07:00 NL
00041 B819102064-00B 07:00 NL 00042 B819102092-00B 07:00 NL
00043 B819102168-00B 07:00 NL 00044 B819102277-00B 07:00 NL
00045 B819102332-00B 07:00 NL 00046 B819102587-00B 07:00 NL
00047 B819102617-00B 07:00 NL 00048 B819102619-00B 07:00 NL
00049 B819102631-00B 07:00 NL 00050 B819102632-00B 07:00 NL
00051 B819600014-00B 07:07 EE 00052 B819600015-00B 07:07 N
00053 B819600017-00B 07:10 N  00054 B819600020-00B 07:14 N
00055 B819600025-00B 07:17 N  00056 B819600029-00B 07:20 EE
00057 B819600040-00B 07:29 NU 00058 B819600041-00B 07:29 N
00059 B819600043-00B 07:31 NU 00060 B819600045-00B 07:32 N
00061 B819600047-00B 07:33 NU 00062 B819600051-00B 07:34 NU
00063 B819600052-00B 07:34 N  00064 B819600055-00B 07:35 NK
00065 B819600061-00B 07:36 NU 00066 B819600068-00B 07:37 N
00067 B819600069-00B 07:37 NU 00068 B819600070-00B 07:38 N
00069 B819600077-00B 07:39 NU 00070 B819600081-00B 07:40 N
00071 B819600084-00B 07:43 N  00072 B819600086-00B 07:43 N
00073 B819600096-00B 07:48 N  00074 B819600098-00B 07:50 N
00075 B819600101-00B 07:50 N  00076 B819600102-00B 07:52 NU
00077 B819600103-00B 07:52 N  00078 B819600106-00B 07:54 N
00079 B819600107-00B 07:54 NU 00080 B819600109-00B 07:55 NU
00081 B819600110-00B 07:55 N  00082 B819600111-00B 07:55 N
00083 B819600112-00B 07:55 N  00084 B819600113-00B 07:57 N
00085 A819100172-01B 07:58 EY 00086 B819600117-00B 07:58 N
00087 B819600118-00B 07:59 N  00088 B819600122-00B 08:01 NU
00089 B819600123-00B 08:02 N  00090 B819600130-00B 08:04 N
00091 B819600132-00B 08:06 N  00092 B819600135-00B 08:06 N
00093 B819600141-00B 08:08 EE 00094 B819600142-00B 08:08 N
00095 B819600146-00B 08:09 NU 00096 B819600147-00B 08:10 NU
00097 B819600149-00B 08:10 NU 00098 B819600151-00B 08:11 NU
00099 B819600152-00B 08:11 N  00100 B819600155-00B 08:12 NU
00101 B819600159-00B 08:13 NU 00102 B819600162-00B 08:13 NU
00103 B819600165-00B 08:14 NU 00104 B819600166-00B 08:14 NU
00105 B819600169-00B 08:15 NU 00106 B819600171-00B 08:15 NU
00107 B819600173-00B 08:16 NU 00108 B819600177-00B 08:18 NU
00109 B819600181-00B 08:20 N  00110 B819600183-00B 08:21 NU
00111 B819600186-00B 08:22 NU 00112 B819600192-00B 08:24 N
00113 B819600194-00B 08:25 N  00114 B819600195-00B 08:25 NU
00115 B819600196-00B 08:25 N  00116 B819600203-00B 08:28 NU
00117 B819600209-00B 08:31 N  00118 B819600214-00B 08:32 NU
00119 B819600218-00B 08:32 N  00120 B819600222-00B 08:34 NU
00121 B819600224-00B 08:34 EE 00122 B819600225-00B 08:34 NU
00123 B819600227-00B 08:34 NU 00124 B819600229-00B 08:35 NU
00125 B819600230-00B 08:35 NU 00126 B819600234-00B 08:35 NU
00127 B819600236-00B 08:36 NU 00128 B819600238-00B 08:36 NU
00129 B819600241-00B 08:37 N  00130 B819600242-00B 08:37 NU
00131 B819600244-00B 08:38 N  00132 B819600247-00B 08:39 N
00133 B819600249-00B 08:39 NU 00134 B819600250-00B 08:39 NU
00135 B819600253-00B 08:40 EE 00136 B819600256-00B 08:40 N
00137 B819600258-00B 08:40 N  00138 B819600264-00B 08:43 N
00139 B819600265-00B 08:43 N  00140 B819600266-00B 08:43 N
00141 B819600269-00B 08:45 N  00142 B819600270-00B 08:45 N
00143 B819600274-00B 08:46 NU 00144 B819600275-00B 08:46 NU
00145 B819600276-00B 08:46 N  00146 B819600279-00B 08:47 N
00147 B819600281-00B 08:47 NU 00148 B819600288-00B 08:48 N
00149 B819600290-00B 08:49 N  00150 B819300824-01B 08:49 EC
00151 B819600295-00B 08:50 N  00152 B819600297-00B 08:51 N
00153 B819600298-00B 08:52 N  00154 B819600300-00B 08:52 NU
00155 B819600302-00B 08:53 N  00156 B819600307-00B 08:53 N
00157 B819600311-00B 08:54 N  00158 B819600313-00B 08:55 N
00159 B819600314-00B 08:55 NU 00160 B819600315-00B 08:55 N
00161 B819600316-00B 08:55 N  00162 B819600317-00B 08:55 NU
00163 B819600321-00B 08:56 N  00164 B819600330-00B 08:57 N
00165 B819600338-00B 08:58 N  00166 B819600344-00B 08:59 N
00167 B819600346-00B 09:00 N  00168 B819600348-00B 09:00 N
00169 B819600352-00B 09:01 N  00170 B819600358-00B 09:03 N
00171 B819600365-00B 09:04 N  00172 B819102034-01B 09:06 EY
00173 B819600374-00B 09:06 N  00174 B819600379-00B 09:08 N
00175 B819600382-00B 09:09 N  00176 B819600392-00B 09:13 N
00177 B819600399-00B 09:15 N  00178 B819600403-00B 09:15 N
00179 B819600408-00B 09:17 N  00180 B819600409-00B 09:17 N
00181 B819600412-00B 09:18 N  00182 B819600435-00B 09:24 N
00183 B819600446-00B 09:26 N  00184 B819600447-00B 09:26 N
00185 B819600449-00B 09:26 N  00186 B819600454-00B 09:27 N
00187 B819600455-00B 09:27 N  00188 B819600457-00B 09:28 N
00189 B819600459-00B 09:28 N  00190 B819600462-00B 09:30 N
00191 B819600465-00B 09:31 N  00192 B819600467-00B 09:31 N
00193 B819600469-00B 09:32 N  00194 B819600478-00B 09:33 N
00195 B819600485-00B 09:35 N  00196 B819600490-00B 09:36 N
00197 B819600491-00B 09:36 NU 00198 B819600495-00B 09:36 NK
00199 B819600499-00B 09:36 N  00200 B819600500-00B 09:37 NU
00201 B819600505-00B 09:37 NU 00202 B819600506-00B 09:37 N
00203 B819600513-00B 09:38 N  00204 B819600516-00B 09:39 N
00205 B819600529-00B 09:41 N  00206 B819600534-00B 09:42 NU
00207 B819600536-00B 09:42 N  00208 B819600541-00B 09:42 N
00209 B819600542-00B 09:43 NU 00210 B819600545-00B 09:43 N
00211 B819600549-00B 09:43 NU 00212 B819600550-00B 09:43 NU
00213 B819600552-00B 09:43 N  00214 B819600559-00B 09:44 NU
00215 B819600561-00B 09:44 NU 00216 B819600563-00B 09:44 N
00217 B819600565-00B 09:45 N  00218 B819600572-00B 09:45 NU
00219 B819600578-00B 09:46 N  00220 B819600584-00B 09:46 N
00221 B819600585-00B 09:47 NU 00222 B819600587-00B 09:47 N
00223 B819600588-00B 09:47 N  00224 B819600592-00B 09:48 NU
00225 B819600595-00B 09:48 N  00226 B819600605-00B 09:48 NU
00227 B819600606-00B 09:48 N  00228 B819600614-00B 09:49 NU
00229 B819600615-00B 09:49 N  00230 B819600621-00B 09:50 N
00231 B819600627-00B 09:51 NU 00232 B819600633-00B 09:52 NU
00233 B819600636-00B 09:52 N  00234 B819600645-00B 09:53 NU
00235 B819600650-00B 09:53 N  00236 B819600655-00B 09:53 EE
00237 B819600656-00B 09:54 N  00238 B819600657-00B 09:54 N
00239 B819600663-00B 09:55 N  00240 B819600679-00B 09:57 N
00241 B819600684-00B 09:58 N  00242 B819600685-00B 09:58 N
00243 B819600691-00B 09:59 N  00244 B819600692-00B 10:00 N
00245 B819600694-00B 10:00 N  00246 B819600695-00B 10:00 N
00247 B819600701-00B 10:01 N  00248 A819101032-01B 10:02 EY
00249 B819600706-00B 10:02 N  00250 B819600707-00B 10:02 N
00251 B819600708-00B 10:02 N  00252 B819600710-00B 10:03 NU
00253 B819600711-00B 10:03 N  00254 B819600713-00B 10:03 N
00255 B819600715-00B 10:04 N  00256 B819600717-00B 10:05 N
00257 B819600719-00B 10:05 N  00258 B819600723-00B 10:06 N
00259 B819600724-00B 10:06 N  00260 B819600725-00B 10:06 N
00261 B819600730-00B 10:07 N  00262 B819600731-00B 10:07 N
00263 B819600734-00B 10:08 N  00264 B819600736-00B 10:08 N
00265 B819600741-00B 10:09 NK 00266 B819600743-00B 10:09 N
00267 B819600748-00B 10:10 N  00268 B819600749-00B 10:10 NU
00269 B819600754-00B 10:11 N  00270 B819600756-00B 10:11 NU
00271 B819600760-00B 10:12 N  00272 B819600762-00B 10:12 NU
00273 B819600763-00B 10:12 N  00274 B819600766-00B 10:13 NU
00275 B819600768-00B 10:13 N  00276 B819600770-00B 10:13 NU
00277 B819600773-00B 10:14 NU 00278 B819600776-00B 10:14 N
00279 B819600778-00B 10:14 NK 00280 B819600780-00B 10:14 N
00281 B819600782-00B 10:15 N  00282 B819600784-00B 10:15 N
00283 B819600789-00B 10:17 N  00284 B819600796-00B 10:18 N
00285 B819600803-00B 10:19 EE 00286 B819600801-00B 10:19 N
00287 B819600804-00B 10:19 N  00288 B819600811-00B 10:20 NK
00289 B819600814-00B 10:21 NK 00290 B819600820-00B 10:23 N
00291 B819600821-00B 10:24 N  00292 B819600826-00B 10:26 N
00293 B819600827-00B 10:26 N  00294 B819600836-00B 10:28 N
00295 B819600842-00B 10:29 NU 00296 B819600847-00B 10:30 NU
00297 B819600851-00B 10:30 N  00298 B819600853-00B 10:30 N
00299 B819600857-00B 10:31 N  00300 B819600859-00B 10:32 N
00301 B819600865-00B 10:33 N  00302 B819600868-00B 10:34 N
00303 B819600871-00B 10:34 N  00304 B819600876-00B 10:35 N
00305 B819600886-00B 10:37 N  00306 B819600890-00B 10:38 N
00307 B819600893-00B 10:38 N  00308 B819600894-00B 10:39 N
00309 B819600896-00B 10:39 NU 00310 B819600898-00B 10:39 N
00311 B819600899-00B 10:39 N  00312 B819600900-00B 10:40 N
00313 B819600901-00B 10:40 N  00314 B819600903-00B 10:40 N
00315 B819600905-00B 10:40 N  00316 B819600906-00B 10:41 N
00317 B819600910-00B 10:42 N  00318 B819600914-00B 10:43 N
00319 B819600916-00B 10:44 N  00320 B819600918-00B 10:44 N
00321 B819600919-00B 10:44 N  00322 B819600922-00B 10:45 NU
00323 B819600924-00B 10:46 N  00324 B819600929-00B 10:48 N
00325 B819600932-00B 10:48 EE 00326 B819600931-00B 10:48 N
00327 B819600935-00B 10:49 N  00328 B819600938-00B 10:49 N
00329 B819600941-00B 10:50 N  00330 B819600942-00B 10:50 N
00331 B819600944-00B 10:50 N  00332 B819600945-00B 10:51 N
00333 B817800096-01B 10:52 EY 00334 B819600947-00B 10:52 N
00335 B819600951-00B 10:52 N  00336 B819600952-00B 10:52 N
00337 B819600953-00B 10:53 N  00338 B817800098-01B 10:53 EY
00339 B819600958-00B 10:54 N  00340 B819600959-00B 10:54 N
00341 B819600960-00B 10:54 N  00342 B819600961-00B 10:54 N
00343 B819600962-00B 10:55 N  00344 B819600965-00B 10:55 N
00345 B819600966-00B 10:55 N  00346 B819600969-00B 10:57 N
00347 B819600972-00B 10:57 N  00348 B819600974-00B 10:58 N
00349 B819600981-00B 10:59 N  00350 B819600986-00B 11:00 N
00351 B819600988-00B 11:00 N  00352 B819600989-00B 11:01 N
00353 B819600991-00B 11:01 N  00354 B819600998-00B 11:02 N
00355 B819601003-00B 11:02 N  00356 B819601004-00B 11:02 N
00357 B819601005-00B 11:03 N  00358 B819601012-00B 11:04 N
00359 B819601015-00B 11:05 N  00360 B819601018-00B 11:06 N
00361 B819601019-00B 11:07 N  00362 B819601020-00B 11:07 N
00363 B819601021-00B 11:07 N  00364 B819601022-00B 11:08 N
00365 B819601024-00B 11:08 N  00366 B819601026-00B 11:10 N
00367 B819601028-00B 11:10 N  00368 B819601031-00B 11:11 N
00369 B819601032-00B 11:12 N  00370 B819601034-00B 11:13 N
00371 B819601035-00B 11:13 N  00372 B819601037-00B 11:14 N
00373 B819601044-00B 11:15 N  00374 B819601045-00B 11:15 N
00375 B819601046-00B 11:15 N  00376 B819601047-00B 11:15 N
00377 B819601048-00B 11:15 N  00378 A818401327-02B 11:16 EY
00379 B819601051-00B 11:16 N  00380 B819601052-00B 11:17 N
00381 B819601057-00B 11:18 N  00382 B819601058-00B 11:18 N
00383 B819601061-00B 11:19 N  00384 B819601062-00B 11:19 N
00385 B819601064-00B 11:20 N  00386 B819601066-00B 11:20 EE
00387 B819601068-00B 11:21 N  00388 B819601069-00B 11:21 N
00389 B819601072-00B 11:21 NM 00390 B819601073-00B 11:21 N
00391 B819601079-00B 11:22 N  00392 B819601081-00B 11:22 N
00393 B819601083-00B 11:23 N  00394 B819601087-00B 11:24 N
00395 B819601088-00B 11:24 N  00396 B819601092-00B 11:25 N
00397 B819601094-00B 11:26 N  00398 B819601095-00B 11:26 N
00399 B819601096-00B 11:26 N  00400 B819601097-00B 11:27 N
00401 B819601098-00B 11:27 N  00402 B819601103-00B 11:28 N
00403 B819601110-00B 11:28 N  00404 B819601111-00B 11:28 N
00405 B819601115-00B 11:29 N  00406 B819601118-00B 11:30 N
00407 B819601120-00B 11:30 N  00408 B819601122-00B 11:31 N
00409 B819601126-00B 11:31 N  00410 B819601128-00B 11:32 N
00411 B819601132-00B 11:33 N  00412 B819601136-00B 11:34 N
00413 B819601137-00B 11:34 N  00414 B819601138-00B 11:34 N
00415 B819601144-00B 11:35 N  00416 B819601147-00B 11:36 N
00417 B819601149-00B 11:37 N  00418 B819601151-00B 11:37 N
00419 B819601152-00B 11:37 N  00420 B819601155-00B 11:38 N
00421 B819601156-00B 11:38 N  00422 B819601159-00B 11:38 N
00423 B819601162-00B 11:38 N  00424 B819601163-00B 11:39 N
00425 B819601164-00B 11:39 N  00426 B819601165-00B 11:39 NK
00427 B819601166-00B 11:39 N  00428 B819601171-00B 11:40 N
00429 B819601172-00B 11:40 N  00430 B819601176-00B 11:41 N
00431 B819601178-00B 11:41 N  00432 B819601179-00B 11:41 N
00433 B819601180-00B 11:42 N  00434 B819601182-00B 11:42 N
00435 B819601183-00B 11:42 N  00436 B819601186-00B 11:43 N
00437 B819601187-00B 11:43 N  00438 B819601190-00B 11:43 N
00439 B819601191-00B 11:43 N  00440 B819601194-00B 11:44 N
00441 B819601197-00B 11:44 N  00442 B819601199-00B 11:45 N
00443 B819601201-00B 11:45 N  00444 B819601203-00B 11:46 N
00445 B819601205-00B 11:46 N  00446 B819601206-00B 11:46 N
00447 B819601208-00B 11:47 N  00448 B819601211-00B 11:49 N
00449 B819601214-00B 11:50 N  00450 B819601216-00B 11:50 N
00451 B819601217-00B 11:51 N  00452 B819601222-00B 11:52 N
00453 B819601230-00B 11:54 N  00454 B819601231-00B 11:54 N
00455 B819601235-00B 11:55 N  00456 B819601239-00B 11:56 N
00457 B819601242-00B 11:57 N  00458 B819601251-00B 11:58 NU
00459 B819601252-00B 11:59 N  00460 B819601259-00B 12:00 N
00461 B819601262-00B 12:01 N  00462 B819601265-00B 12:03 N
00463 B819601272-00B 12:04 N  00464 B819601275-00B 12:05 N
00465 B819601278-00B 12:06 N  00466 B819601279-00B 12:06 N
00467 B819601284-00B 12:07 N  00468 B819601285-00B 12:07 N
00469 B819601286-00B 12:07 N  00470 B819601294-00B 12:09 N
00471 B819601297-00B 12:10 N  00472 B819601299-00B 12:10 NU
00473 B819601302-00B 12:11 N  00474 B819601305-00B 12:11 N
00475 B819601307-00B 12:12 NU 00476 B819601310-00B 12:12 N
00477 B819601312-00B 12:13 N  00478 B819601314-00B 12:13 N
00479 B819601315-00B 12:13 NU 00480 B819601318-00B 12:14 N
00481 B819601320-00B 12:14 NU 00482 B819601321-00B 12:15 N
00483 B819601322-00B 12:15 N  00484 B819601325-00B 12:15 N
00485 A818400139-01B 12:16 EY 00486 B819601327-00B 12:16 NU
00487 B819601330-00B 12:16 N  00488 B819601333-00B 12:17 N
00489 B819601335-00B 12:17 N  00490 B819601341-00B 12:18 N
00491 B819601345-00B 12:19 N  00492 B819601351-00B 12:20 N
00493 B819601359-00B 12:21 N  00494 B819601362-00B 12:23 N
00495 B819601365-00B 12:24 N  00496 B819601366-00B 12:24 N
00497 B819601376-00B 12:27 NU 00498 B819601379-00B 12:27 N
00499 B819601380-00B 12:27 N  00500 B819601385-00B 12:28 NU
00501 B819601388-00B 12:29 NU 00502 B819601393-00B 12:30 NU
00503 B819601397-00B 12:31 NU 00504 B819601398-00B 12:31 N
00505 B819601405-00B 12:33 NU 00506 B819601406-00B 12:33 N
00507 B819601408-00B 12:34 NU 00508 B819601409-00B 12:34 N
00509 B819601411-00B 12:35 N  00510 B819601412-00B 12:35 NU
00511 B819601415-00B 12:36 NU 00512 B819601416-00B 12:36 N
00513 B819601419-00B 12:37 NU 00514 B819601421-00B 12:37 NU
00515 B819601423-00B 12:38 NU 00516 B819601425-00B 12:38 N
00517 B819601429-00B 12:39 NU 00518 B819601432-00B 12:40 NU
00519 B819601439-00B 12:40 N  00520 B819601441-00B 12:41 NU
00521 B819601442-00B 12:41 N  00522 B819601445-00B 12:42 NU
00523 B819601448-00B 12:43 N  00524 B819601449-00B 12:43 NU
00525 B819601451-00B 12:43 N  00526 B819601453-00B 12:43 N
00527 B819601455-00B 12:43 NU 00528 B819601457-00B 12:44 NU
00529 B819601459-00B 12:44 N  00530 B819601461-00B 12:45 NU
00531 B819601463-00B 12:45 N  00532 B819601467-00B 12:46 N
00533 B819601469-00B 12:46 N  00534 B819601472-00B 12:47 N
00535 B819601477-00B 12:48 N  00536 B819601478-00B 12:48 N
00537 B819601479-00B 12:48 N  00538 B819601489-00B 12:50 N
00539 B819601501-00B 12:53 N  00540 B819601508-00B 12:54 N
00541 B819601520-00B 13:00 N  00542 B819601521-00B 13:01 N
00543 B819601526-00B 13:02 N  00544 B819601527-00B 13:02 N
00545 B819601531-00B 13:03 N  00546 B819601533-00B 13:04 N
00547 B819601545-00B 13:07 N  00548 B819601549-00B 13:08 N
00549 B819601558-00B 13:10 N  00550 B819601559-00B 13:10 N
00551 B819601563-00B 13:11 N  00552 B819601569-00B 13:12 N
00553 B819601571-00B 13:12 N  00554 B819601578-00B 13:14 N
00555 B819601579-00B 13:14 N  00556 B819601582-00B 13:14 N
00557 B819601585-00B 13:15 N  00558 B819601586-00B 13:15 N
00559 B819601595-00B 13:16 N  00560 B819601596-00B 13:16 N
00561 B819601599-00B 13:17 N  00562 B819601603-00B 13:18 N
00563 B819601607-00B 13:18 N  00564 B819601609-00B 13:18 N
00565 B819601613-00B 13:19 N  00566 B819601615-00B 13:19 N
00567 B819601617-00B 13:19 N  00568 B819601620-00B 13:20 N
00569 B819601624-00B 13:20 N  00570 B819601625-00B 13:20 NU
00571 B819601631-00B 13:21 N  00572 B819601634-00B 13:22 N
00573 B819601637-00B 13:22 N  00574 B819601639-00B 13:22 NU
00575 B819601645-00B 13:23 N  00576 B819601647-00B 13:24 N
00577 B819601649-00B 13:24 N  00578 B819601660-00B 13:26 N
00579 B819601673-00B 13:28 N  00580 B819601677-00B 13:28 N
00581 B819601697-00B 13:32 N  00582 B819601708-00B 13:35 EE
00583 B819601724-00B 13:39 N  00584 B819601735-00B 13:42 N
00585 B819601738-00B 13:42 N  00586 B819601742-00B 13:43 N
00587 B819601749-00B 13:46 N  00588 B819601750-00B 13:46 N
00589 B819601753-00B 13:47 N  00590 B819601756-00B 13:47 N
00591 B819601760-00B 13:48 N  00592 B819601765-00B 13:49 NU
00593 B819601767-00B 13:49 N  00594 B819601768-00B 13:49 NU
00595 B819601770-00B 13:50 NU 00596 B819601771-00B 13:50 NU
00597 B819601774-00B 13:51 NU 00598 B819601777-00B 13:52 N
00599 B819601779-00B 13:52 N  00600 B819601789-00B 13:55 N
00601 B819601791-00B 13:56 N  00602 B819601795-00B 13:58 N
00603 B819601803-00B 14:00 N  00604 B819601804-00B 14:00 N
00605 B819601807-00B 14:00 N  00606 B819601819-00B 14:02 EE
00607 B819601815-00B 14:02 N  00608 B819601820-00B 14:02 N
00609 B819601822-00B 14:02 N  00610 B819601824-00B 14:02 N
00611 B819601834-00B 14:04 N  00612 B819601836-00B 14:04 N
00613 B819601838-00B 14:04 N  00614 B819601859-00B 14:07 N
00615 B819601869-00B 14:09 N  00616 B819601870-00B 14:09 N
00617 B819601898-00B 14:13 N  00618 B819601917-00B 14:15 N
00619 B819601924-00B 14:16 N  00620 B819601930-00B 14:17 NM
00621 B819601931-00B 14:17 N  00622 B819601947-00B 14:19 N
00623 B819601950-00B 14:20 NK 00624 B819601956-00B 14:21 N
00625 B819601958-00B 14:21 N  00626 B819601970-00B 14:22 N
00627 B819601972-00B 14:22 EE 00628 B819601976-00B 14:23 N
00629 B819601980-00B 14:23 N  00630 B819601983-00B 14:23 EE
00631 B819601981-00B 14:23 N  00632 B819601986-00B 14:24 N
00633 B819601992-00B 14:25 N  00634 B819601997-00B 14:25 N
00635 B819601999-00B 14:25 N  00636 B819602004-00B 14:26 N
00637 B819602007-00B 14:27 N  00638 B819602008-00B 14:27 N
00639 B819602009-00B 14:27 N  00640 B819602011-00B 14:27 N
00641 B819602016-00B 14:28 N  00642 B819602019-00B 14:28 N
00643 B819602021-00B 14:29 N  00644 B819602028-00B 14:30 N
00645 B819602029-00B 14:30 N  00646 B819602034-00B 14:31 N
00647 B819602036-00B 14:31 N  00648 B819602045-00B 14:32 N
00649 B819602046-00B 14:32 N  00650 B819602053-00B 14:33 N
00651 B819602054-00B 14:33 NK 00652 A819601113-01B 14:34 EC
00653 B819602067-00B 14:36 N  00654 B819602046-01B 14:37 EC
00655 B819602071-00B 14:37 N  00656 B819602074-00B 14:38 N
00657 B819602078-00B 14:38 NU 00658 B819602079-00B 14:38 N
00659 B819602080-00B 14:38 N  00660 B819602091-00B 14:40 N
00661 B819602098-00B 14:41 N  00662 B819602103-00B 14:42 N
00663 B819602106-00B 14:43 N  00664 B819602112-00B 14:45 N
00665 B819602114-00B 14:46 N  00666 B819602116-00B 14:46 N
00667 B819602118-00B 14:47 N  00668 B819602123-00B 14:48 N
00669 B819602124-00B 14:48 N  00670 B819602130-00B 14:49 N
00671 B819602132-00B 14:49 N  00672 B819602136-00B 14:50 N
00673 B819602140-00B 14:51 N  00674 B819602141-00B 14:51 N
00675 B819602143-00B 14:51 NU 00676 B819602145-00B 14:52 EE
00677 B819602146-00B 14:52 N  00678 B819602147-00B 14:52 N
00679 B819602148-00B 14:52 N  00680 B819602149-00B 14:52 N
00681 B819602151-00B 14:53 N  00682 B819602154-00B 14:53 N
00683 B819602160-00B 14:53 N  00684 B819602163-00B 14:54 N
00685 B819602165-00B 14:54 N  00686 B819602167-00B 14:54 N
00687 B819602170-00B 14:54 N  00688 B819602172-00B 14:54 N
00689 B819602173-00B 14:55 N  00690 B819602175-00B 14:55 N
00691 B819602177-00B 14:56 N  00692 B819602178-00B 14:56 N
00693 B819602180-00B 14:56 N  00694 B819602184-00B 14:56 N
00695 B819602187-00B 14:57 N  00696 B819602190-00B 14:58 N
00697 B819602191-00B 14:58 N  00698 B819602193-00B 14:58 N
00699 B819602198-00B 14:58 N  00700 B819602207-00B 14:59 N
00701 B819602208-00B 15:00 N  00702 B819602212-00B 15:00 N
00703 B819602213-00B 15:00 N  00704 B819602223-00B 15:02 NK
00705 B819602227-00B 15:02 N  00706 B819602228-00B 15:02 N
00707 B819602231-00B 15:02 N  00708 B819602146-01B 15:03 EC
00709 B819602240-00B 15:03 N  00710 B819602243-00B 15:04 N
00711 B819602250-00B 15:04 N  00712 B819602253-00B 15:05 N
00713 B819602255-00B 15:05 N  00714 B819602256-00B 15:05 N
00715 B819602257-00B 15:06 N  00716 B819602258-00B 15:06 N
00717 B819602262-00B 15:06 N  00718 B819602264-00B 15:06 N
00719 B819602265-00B 15:07 N  00720 B819602269-00B 15:07 N
00721 B819602272-00B 15:08 N  00722 B819602273-00B 15:08 N
00723 B819602274-00B 15:09 N  00724 B819602278-00B 15:09 N
00725 B819602281-00B 15:09 NK 00726 B819602284-00B 15:10 N
00727 B819602285-00B 15:10 N  00728 B819602286-00B 15:10 N
00729 B819602287-00B 15:10 N  00730 B819602289-00B 15:10 N
00731 B819602290-00B 15:10 NU 00732 B819602293-00B 15:11 N
00733 B819602296-00B 15:11 NU 00734 B819602297-00B 15:11 N
00735 B819602298-00B 15:11 N  00736 B819602299-00B 15:11 N
00737 B819602302-00B 15:12 N  00738 B819602303-00B 15:12 N
00739 B819602307-00B 15:12 N  00740 B819602308-00B 15:12 N
00741 B819602309-00B 15:12 N  00742 B819602311-00B 15:12 N
00743 B819602314-00B 15:13 N  00744 B819602318-00B 15:13 N
00745 B819602319-00B 15:13 N  00746 B819602321-00B 15:14 N
00747 B819602326-00B 15:14 N  00748 B819602327-00B 15:14 N
00749 B819602328-00B 15:15 N  00750 B819602332-00B 15:15 N
00751 B819602333-00B 15:15 N  00752 B819602336-00B 15:16 N
00753 B819602338-00B 15:16 N  00754 B819602340-00B 15:16 N
00755 B819602341-00B 15:16 N  00756 B819602345-00B 15:16 N
00757 B819602346-00B 15:17 N  00758 B819602350-00B 15:17 N
00759 B819602355-00B 15:17 N  00760 B819602358-00B 15:18 N
00761 B819602359-00B 15:18 N  00762 B819602360-00B 15:18 N
00763 B819602361-00B 15:18 N  00764 B819602363-00B 15:18 N
00765 B819602366-00B 15:18 N  00766 B819602367-00B 15:18 N
00767 B819602371-00B 15:19 N  00768 B819602373-00B 15:19 N
00769 B819602376-00B 15:20 N  00770 B819602378-00B 15:20 N
00771 B819602383-00B 15:20 N  00772 B819602385-00B 15:20 N
00773 B819602386-00B 15:20 N  00774 B819602388-00B 15:20 N
00775 B819602389-00B 15:20 N  00776 B819602394-00B 15:21 N
00777 B819602397-00B 15:21 N  00778 B819602399-00B 15:21 N
00779 B819602402-00B 15:22 N  00780 B819602404-00B 15:22 N
00781 B819602407-00B 15:23 N  00782 B819602408-00B 15:23 N
00783 B819602409-00B 15:23 N  00784 B819602413-00B 15:23 N
00785 B819602414-00B 15:24 N  00786 B819602418-00B 15:24 N
00787 B819602419-00B 15:24 N  00788 B819602420-00B 15:24 N
00789 B819602428-00B 15:25 N  00790 B819602431-00B 15:25 N
00791 B819602434-00B 15:25 N  00792 B819602447-00B 15:27 N
00793 B819602453-00B 15:28 N  00794 B819602456-00B 15:28 N
00795 B819602457-00B 15:28 N  00796 B819602458-00B 15:28 N
00797 B819602460-00B 15:28 N  00798 B819602466-00B 15:29 N
00799 B819602468-00B 15:29 N  00800 B819602469-00B 15:29 N
00801 B819602473-00B 15:29 N  00802 B819602475-00B 15:30 N
00803 B819602480-00B 15:31 N  00804 B819602481-00B 15:31 N
00805 B819602483-00B 15:31 N  00806 B819602487-00B 15:32 N
00807 B819602489-00B 15:32 N  00808 B819602490-00B 15:32 N
00809 B819602492-00B 15:32 N  00810 B819602497-00B 15:33 N
00811 B819602499-00B 15:33 N  00812 B819602502-00B 15:34 N
00813 B819602503-00B 15:34 N  00814 B819602504-00B 15:34 N
00815 B819602505-00B 15:34 N  00816 B819602507-00B 15:35 N
00817 B819602509-00B 15:35 N  00818 B819602511-00B 15:35 N
00819 B819602512-00B 15:36 N  00820 B819602513-00B 15:36 N
00821 B819602514-00B 15:36 N  00822 B819602516-00B 15:36 N
00823 B819602517-00B 15:36 NU 00824 B819602521-00B 15:37 N
00825 B819602522-00B 15:37 N  00826 B819602525-00B 15:38 N
00827 B819602526-00B 15:38 N  00828 B819602529-00B 15:38 N
00829 B819602533-00B 15:38 N  00830 B819602535-00B 15:39 N
00831 B819602538-00B 15:40 N  00832 B819602540-00B 15:40 N
00833 B819602542-00B 15:40 N  00834 B819602545-00B 15:40 N
00835 B819602548-00B 15:41 N  00836 B819602551-00B 15:42 N
00837 B819602552-00B 15:42 N  00838 B819602557-00B 15:42 N
00839 B819602566-00B 15:43 N  00840 B819602571-00B 15:44 N
00841 B819602573-00B 15:44 N  00842 B819602582-00B 15:46 N
00843 B819602586-00B 15:46 N  00844 B819602587-00B 15:46 N
00845 B819602593-00B 15:47 N  00846 B819602594-00B 15:47 N
00847 B819602598-00B 15:48 N  00848 B819602604-00B 15:49 N
00849 B819602609-00B 15:50 N  00850 B819602610-00B 15:50 N
00851 B819602613-00B 15:51 N  00852 B819602614-00B 15:51 N
00853 B819602618-00B 15:52 N  00854 B819602620-00B 15:52 N
00855 B819602623-00B 15:53 N  00856 B819602627-00B 15:53 N
00857 B819602628-00B 15:54 N  00858 B819602631-00B 15:54 N
00859 B819602635-00B 15:55 N  00860 B819602636-00B 15:55 N
00861 B819602642-00B 15:56 N  00862 B819602643-00B 15:56 N
00863 B819602656-00B 15:58 N  00864 B819602659-00B 15:58 N
00865 B819202432-01B 16:00 EY 00866 B819602665-00B 16:00 N
00867 B819602669-00B 16:02 N  00868 B819602670-00B 16:02 N
00869 B819602672-00B 16:03 N  00870 B819602675-00B 16:03 N
00871 B819602676-00B 16:04 N  00872 B819602678-00B 16:04 N
00873 B819602679-00B 16:04 N  00874 B819602680-00B 16:04 N
00875 B819602691-00B 16:08 N  00876 B819602693-00B 16:08 N
00877 B819602698-00B 16:09 N  00878 B819602702-00B 16:11 N
00879 B819602703-00B 16:12 N  00880 B819602705-00B 16:12 N
00881 B819602708-00B 16:13 N  00882 B819602712-00B 16:13 N
00883 B819602715-00B 16:14 N  00884 B819602721-00B 16:16 N
00885 B819602729-00B 16:18 N  00886 B819602737-00B 16:20 N
00887 B819602739-00B 16:20 N  00888 B819602741-00B 16:20 N
00889 B819602746-00B 16:21 N  00890 B819602747-00B 16:21 N
00891 B819602756-00B 16:23 N  00892 B819602762-00B 16:23 N
00893 B819602774-00B 16:25 N  00894 B819602791-00B 16:28 N
00895 B819602808-00B 16:33 N  00896 B819602810-00B 16:33 N
00897 B819602823-00B 16:36 N  00898 B819602824-00B 16:36 N
00899 B819602829-00B 16:37 NK 00900 B819602832-00B 16:38 N
00901 B819602838-00B 16:40 N  00902 B819602845-00B 16:42 N
00903 B819602852-00B 16:43 N  00904 B819602853-00B 16:43 N
00905 B819602854-00B 16:44 NK 00906 B819602856-00B 16:44 N
00907 B819602859-00B 16:45 N  00908 B819602862-00B 16:46 N
00909 B819602864-00B 16:47 N  00910 B819602870-00B 16:48 N
00911 B819602875-00B 16:48 N  00912 B819602877-00B 16:49 NK
00913 B819602880-00B 16:49 N  00914 B819602882-00B 16:50 NK
00915 B819602885-00B 16:50 N  00916 B819602888-00B 16:50 NK
00917 B819602889-00B 16:51 EE 00918 B819602890-00B 16:51 NK
00919 B819602891-00B 16:51 N  00920 B819602892-00B 16:51 NK
00921 B819602894-00B 16:52 NK 00922 B819602897-00B 16:52 N
00923 B819602901-00B 16:53 N  00924 B819602903-00B 16:53 N
00925 B819602904-00B 16:53 NK 00926 B819602905-00B 16:53 N
00927 B819602906-00B 16:54 N  00928 B819602909-00B 16:54 N
00929 B819602912-00B 16:55 EE 00930 B819602925-00B 16:57 NK
00931 B819602927-00B 16:58 N  00932 B819602935-00B 17:00 N
00933 B819602939-00B 17:01 N  00934 B819602946-00B 17:03 N
00935 B819602955-00B 17:06 N  00936 B819602976-00B 17:14 N
00937 B819602983-00B 17:15 N  00938 B819602984-00B 17:15 N
00939 B819602988-00B 17:15 N  00940 B819602990-00B 17:16 N
00941 B819602992-00B 17:17 N  00942 B819602994-00B 17:17 N
00943 B819602997-00B 17:18 N  00944 B819602999-00B 17:19 N
00945 B819603001-00B 17:19 N  00946 B819603003-00B 17:20 N
00947 B819603005-00B 17:21 N  00948 B819603008-00B 17:22 N
00949 B819603009-00B 17:22 N  00950 B819603011-00B 17:23 N
00951 B819603012-00B 17:23 N  00952 B819603016-00B 17:24 N
00953 B819603017-00B 17:24 N  00954 B819603020-00B 17:25 N
00955 B819603025-00B 17:27 N  00956 B819603026-00B 17:27 N
00957 B819603028-00B 17:27 N  00958 B819603032-00B 17:28 N
00959 B819603033-00B 17:29 N  00960 B819603035-00B 17:29 N
00961 B819603038-00B 17:30 N  00962 B819603039-00B 17:30 N
00963 B819603043-00B 17:31 N  00964 B819603045-00B 17:32 N
00965 B819603047-00B 17:33 N  00966 B819603050-00B 17:33 N
00967 B819603052-00B 17:35 N  00968 B819603055-00B 17:35 N
00969 B819603057-00B 17:36 N  00970 B819603059-00B 17:37 N
00971 B819603060-00B 17:37 N  00972 B819603062-00B 17:38 N
00973 B819603066-00B 17:39 N  00974 B819603070-00B 17:39 N
00975 B819603071-00B 17:39 N  00976 B819603073-00B 17:40 N
00977 B819603075-00B 17:41 N  00978 B819603081-00B 17:43 N
00979 B819603084-00B 17:45 N  00980 B819603091-00B 17:47 N
00981 B819603098-00B 17:49 N  00982 B819603099-00B 17:49 N
00983 B819603104-00B 17:51 N  00984 B819603107-00B 17:52 N
00985 B819603110-00B 17:55 N  00986 B819603113-00B 17:57 N
00987 B819603116-00B 17:59 N  00988 B819603119-00B 18:00 N
00989 B819603120-00B 18:03 N  00990 B819603123-00B 18:05 N
00991 B819603125-00B 18:05 N  00992 B819603126-00B 18:07 N
00993 B819603127-00B 18:08 N  00994 B819603129-00B 18:09 N
00995 B819603130-00B 18:09 NK 00996 B819603132-00B 18:11 N
00997 B819603133-00B 18:15 N  00998 B819603134-00B 18:16 NK
00999 B819603135-00B 18:18 N  01000 B819603136-00B 18:18 NK
01001 B819603137-00B 18:19 NK 01002 B819603138-00B 18:22 N
01003 B819603140-00B 18:25 N  01004 B819603141-00B 18:25 NK
01005 B819603145-00B 18:27 N  01006 B819603146-00B 18:28 N
01007 B819603147-00B 18:30 N  01008 B819603175-00B 19:02 N
01009 B819603191-00B 19:48 N  01010 B819603193-00B 19:50 N
01011 B819603198-00B 19:53 N  01012 B819603209-00B 20:18 EE
01013 B819603210-00B 20:22 N  01014 B819603213-00B 20:30 EE
01015 B819603214-00B 20:30 N  01016 B819603220-00B 20:34 N
01017 B819603221-00B 20:35 N  01018 B819603222-00B 20:35 N
01019 B819603226-00B 20:37 N  01020 B819603230-00B 20:38 N
01021 B819603231-00B 20:39 N  01022 B819603248-00B 21:06 N
01023 B819603250-00B 21:08 N  01024 B819603251-00B 21:10 N
01025 B819603253-00B 21:11 N  01026 B819603254-00B 21:13 N
01027 B819603255-00B 21:15 N  01028 B819603258-00B 21:17 N
01029 B819603260-00B 21:21 N  01030 B819603261-00B 21:23 N
01031 B819603262-00B 21:24 N  01032 B819603263-00B 21:26 N
01033 B819603264-00B 21:28 N  01034 B819603265-00B 21:29 N
01035 B819603267-00B 21:31 N  01036 B819603268-00B 21:32 N
01037 B819603270-00B 21:34 N  01038 B819603273-00B 21:36 N
01039 B819603276-00B 21:38 N  01040 B819603277-00B 21:40 N
01041 B819603278-00B 21:43 N  01042 B819603279-00B 21:47 N
01043 B819603280-00B 21:51 NK 01044 B819603281-00B 21:55 N
01045 B819603282-00B 21:58 N  01046 B819603284-00B 21:59 N
01047 B819603285-00B 21:59 N  01048 B819603286-00B 22:01 N
01049 B819603289-00B 22:06 N  01050 B819603291-00B 22:08 N
01051 B819603292-00B 22:10 N  01052 B819603294-00B 22:10 N
01053 B819603297-00B 22:17 N  01054 B819603300-00B 22:20 N
01055 B819603302-00B 22:22 N  01056 B819603304-00B 22:25 N
01057 B819603307-00B 22:27 N  01058 B819603310-00B 22:30 N
01059 B819603331-00B 23:45 N  01060 B819603332-00B 23:57 N

( ) NORMAL       - 00848
(E) EMERGENCY    - 00018
(P) SPCL PROJECT - 00000
(D) DESIGNER     - 00000
(M) MEETING      - 00002
(U) UPDATE       - 00114
(K) REMARK       - 00027
(Y) 3HR RENOTIFY - 00008
(C) CANCEL       - 00004
(R) CORRECTION   - 00000
(S) RESENT       - 00000
(L) NO SHOW/LATE - 00039
    TOTAL        - 01060

