
SDG09  00004A USAS 10/20/08 09:08:20 A72990172-13A NORM UPDT GRID

Ticket : A72990172 Date: 10/20/08 Time: 09:07 Oper: MMD Chan: 100
Old Tkt: A71060898 Date: 09/28/07 Time: 09:34 Oper: JDD Revision: 13A
State: CA County: SAN DIEGO            Place: DEL MAR
Locat: WORKING IN BOUNDED AREA; ON THE N/BY THE SAN DIEGUITO RIVER; ON THE E/BY
     : I-5; ON THE S/BY RACETRACK VIEW DR; ON THE W/BY SAN DIEGUITO DR  ( JOINT
     : MEET AT JOB TRAILERS AT 2777 VIA DE LA VALLE - PLEASE CALL TO CONFIRM  )
Address: SAN DIEGUITO DR
X/ST 1 : RACETRAKC VIEW DR
Grids: 1187G03234   1187G04124   1187H03134   1187H04       Delineated: N
Lat/Long  : 32.969509/-117.261734 32.973589/-117.251051
          : 32.957247/-117.257051 32.961327/-117.246368
Caller GPS:

Boring: N  Explosives: N  Vacuum: N

Re-Mark: N

Work : WETLANDS RESTORATION PROJECT - MASS GRADING
Work date: 10/20/08 Time: 09:08 Hrs notc: 000 Work hrs: 000 Priority: 2
Instruct : WORK CONTINUING        Permit   : ON SITE
Done for : SO CAL EDISON

Company: MARATHON CONSTRUCTION          Caller: JOHN RUTH
Address: N/A
City&St: CA                             Zip:
Phone: 858-259-5894
Formn: JOHN RUTH            Phone: 619-954-4780

                                  COMMENTS

REF PREV TICKET A071060898, TICKET TOO OLD FOR COMPUTER TO RETRANSMIT,
**RESEND**UPDATE ONLY-WORK CONT PER JON RUTH--[LMC 10/26/07 08:18]
**RESEND**UPDATE ONLY-WORK CONT PER JOHN--[MMD 11/21/07 08:16]
**RESEND**UPDATE ONLY-WORK CONT PER DON--[LMC 12/19/07 07:17]
**RESEND**UPDATE ONLY-WORK CONT PER JOHN RUTH--[LMC 01/16/08 08:20]
**RESEND**UPDATE ONLY-WORK CONT PER JOHN RUTH--[LAC 02/13/08 13:08]
**RESEND**UPDATE ONLY-WORK CONT PER JOHN--[MMD 03/12/08 07:45]
**RESEND**UPDATE ONLY-WORK CONT PER JOHN--[KDB 04/08/08 14:37]
**RESEND**UPDATE ONLY-WORK CONT PER JOHN--[LYD 05/06/08 08:53]
**RESEND**UPDATE ONLY-WORK CONT PER JOHN RUTH--[KEL 06/03/08 15:14]
**RESEND**UPDATE ONLY-WORK CONT PER JOHN--[ADS 06/30/08 14:18]
**RESEND**UPDATE ONLY-WORK CONT PER JOHN--[LLF 07/28/08 11:52]
**RESEND**UPDATE ONLY-WORK CONT PER JOHN RUTH--[LOM 08/25/08 06:52]
**RESEND**UPDATE ONLY-WORK CONT PER JOHN--[CLA 09/22/08 07:28]
**RESEND**UPDATE ONLY-WORK CONT PER JOHN--[MMD 10/20/08 09:08]

Mbrs : ATTATL ATTD28SD      DEL01  LVL3CM MCISOCAL      SDG04  SDG09  SND01
SND02  TWCSD  USDG09 UTWCCARL
