
SDG09  00012A USAS 10/20/08 09:27:16 A82100310-03A NORM UPDT GRID

Ticket : A82100310 Date: 10/20/08 Time: 09:26 Oper: LRL Chan: 100
Old Tkt: A81210087 Date: 06/25/08 Time: 13:05 Oper: LAB Revision: 03A
State: CA County: SAN DIEGO            Place: OTAY MESA
Locat: BOTH SIDES OF OTAY MESA RD FROM OCEAN VIEW HILLS PKWY CONT E/FOR APPROX
     : 2000FT & W/FOR APPROX 800FT AND BOTH SIDES OF OCEAN VIEW HILLS PKWY FROM
     : OTAY MESA RD CONT N/FOR APPROX 1200FT AND S/FOR APPROX 800FT  ((OCEAN
     : VIEW HILLS PKWY AKA CALIENTE AVE))      OCEAN VIEW HILLS PKWY NOW
     : EXTENDED STS INTERSECT AT CALIENTE AVE      **MEET AT S/W CORNER OF DEL
     : SOL BLVD AND OCEAN VIEW HILLS PKWY**
Address: OTAY MESA RD
X/ST 1 : OCEAN VIEW HILLS PKWY
Grids: 1351A014     1351A02124   1351B021                   Delineated: Y
Lat/Long  : 32.572744/-117.014969 32.568553/-117.007061
          : 32.567480/-117.017759 32.563289/-117.009850
Caller GPS:

Boring: N  Explosives: N  Vacuum: N

Re-Mark: N

Work : INSTALL UNDERGROUND SEWER WTR & STORM DRAIN
Work date: 10/20/08 Time: 09:27 Hrs notc: 000 Work hrs: 000 Priority: 2
Instruct : WORK CONTINUING        Permit   : 2006-901579
Done for : PARDEE CONSTRUCTION

Company: BASILE CONSTRUCTION            Caller: SHANNA
Address: 7840 DUNBROOK ROAD
City&St: SAN DIEGO, CA                  Zip: 92126      Fax: 858-586-7809
Phone: 858-586-7800
Formn: JEFF REESE           Phone: 619-813-7802

                                  COMMENTS

REF EXP TICKET A081210087, UPDATE ONLY-WORK CONT PER JENNIFER--[LRL 07/28/08
08:38]
**RESEND**UPDATE ONLY-WORK CONT PER JENNIFER--[ADS 08/25/08 14:18]
**RESEND**UPDATE ONLY-WORK CONT PER YVETTE--[KMC 09/22/08 13:01]
**RESEND**UPDATE ONLY-WORK CONT PER JENNIFER--[LRL 10/20/08 09:27]

Mbrs : ATTD28SD      COX01  SDG07  SDG09  SND01  SND02  USDG09
