
SDG09  00013A USAS 10/20/08 09:27:43 A82100313-03A NORM UPDT GRID

Ticket : A82100313 Date: 10/20/08 Time: 09:27 Oper: LRL Chan: 100
Old Tkt: A81210091 Date: 06/25/08 Time: 13:05 Oper: LAB Revision: 03A
State: CA County: SAN DIEGO            Place: CHULA VISTA
Locat: BOTH SIDES OF BIRCH RD FROM DISCOVERY FALLS DR GOING W/FOR 300FT; BOTH
     : SIDES OF DISCOVERY FALLS DR FROM BIRCH RD S/FOR 600FT       *MEET AT THE
     : INTER OF BIRCH RD AND DISCOVERY FALLS DR
Address: BIRCH RD
X/ST 1 : DISCOVERY FALLS DR
Grids: 1331G0134                                            Delineated: Y
Lat/Long  : 32.620975/-116.961952 32.622136/-116.960806
          : 32.618963/-116.959913 32.620125/-116.958767
Caller GPS:

Boring: N  Explosives: N  Vacuum: N

Re-Mark: N

Work : INSTALL SWR , WTR, STORM DRAIN
Work date: 10/20/08 Time: 09:27 Hrs notc: 000 Work hrs: 000 Priority: 2
Instruct : WORK CONTINUING        Permit   : 2007-901579
Done for : SHEA HOMES

Company: BASILE CONSTRUCTION            Caller: SHANNA
Address: 7840 DUNBROOK ROAD
City&St: SAN DIEGO, CA                  Zip: 92126      Fax: 858-586-7809
Phone: 858-586-7800
Formn: LARRY                Phone: 858-431-9858

                                  COMMENTS

REF EXP TICKET A081210091, UPDATE ONLY-WORK CONT PER JENNIFER--[LRL 07/28/08
08:39]
**RESEND**UPDATE ONLY-WORK CONT PER JENNIFER--[ADS 08/25/08 14:18]
**RESEND**UPDATE ONLY-WORK CONT PER YVETTE--[KMC 09/22/08 13:01]
**RESEND**UPDATE ONLY-WORK CONT PER JENNIFER--[LRL 10/20/08 09:27]

Mbrs : ATTD28SD      CHU01  COX01  OTAYWTRSWR    SDG07  SDG09  USDG09
