
SDG09  00037A USAS 10/20/08 14:30:09 A72290255-17A NORM UPDT GRID

Ticket : A72290255 Date: 10/20/08 Time: 14:29 Oper: ALFC Chan: WEB
Old Tkt: A70530508 Date: 07/24/07 Time: 14:27 Oper: ALFC Revision: 17A
State: CA County: SAN DIEGO            Place: SUNNYSIDE
Locat: WORKING 0 FT TO 500 FT FROM CENTER MEDIAN ON BOTH E & W/ SIDES OF THE 125
     : FRWY STARTING AT MOUNT MIGUEL RD AND CONT S/2,000 FT.
     : **PLEASE MARK DELINEATED AREA OR CONTACT KAREN AT 951-360-8103 TO CLEAR
     : AREA IF NO CONFLICT**
Address: 125 FWY
X/ST 1 : MOUNT MIGUEL RD
Grids: 1311D0134    1311D02      1311E023                   Delineated: Y
Lat/Long  : 32.671357/-116.987026 32.672478/-116.982889
          : 32.664124/-116.985065 32.665245/-116.980929
Caller GPS:

Boring: Y  Explosives: N  Vacuum: N

Re-Mark: N

Work : CHAIN LINK FENCE
Work date: 10/20/08 Time: 14:30 Hrs notc: 000 Work hrs: 000 Priority: 2
Instruct : WORK CONTINUING        Permit   : NOT REQUIRED
Done for : ORC S5430

Company: ALCORN FENCE COMPANY           Caller: KAREN PATIN
Address: 6445 PEDLEY RD
City&St: RIVERSIDE, CA                  Zip: 92509      Fax: 951-360-8105
Phone: 951-360-8103 Ext:      Call back: 7:00 - 4:00
Formn: UNKNOWN              Phone: 951-360-8103
Email: KPATIN@ALCORN-FENCE.COM

                                  COMMENTS

REF PREV TICKET A070530508, TICKET TOO OLD FOR COMPUTER TO RETRANSMIT,
**RESEND**UPDATE ONLY-WORK CONT PER KAREN PATIN--[ALFC 08/17/07 08:52]
**RESEND**UPDATE ONLY-WORK CONT PER KAREN PATIN--[ALFC 09/12/07 10:05]
**RESEND**UPDATE ONLY-WORK CONT PER KAREN PATIN--[ALFC 10/08/07 15:48]
**RESEND**UPDATE ONLY-WORK CONT PER KAREN PATIN--[ALFC 11/01/07 15:00]
**RESEND**UPDATE ONLY-WORK CONT PER KAREN PATIN--[ALFC 11/27/07 15:14]
**RESEND**UPDATE ONLY-WORK CONT PER KAREN PATIN--[ALFC 12/21/07 09:23]
**RESEND**UPDATE ONLY-WORK CONT PER KAREN PATIN--[ALFC 01/16/08 10:05]
**RESEND**UPDATE ONLY-WORK CONT PER KAREN PATIN--[ALFC 02/11/08 08:06]
**RESEND**UPDATE ONLY-WORK CONT PER KAREN PATIN--[ALFC 03/06/08 07:01]
**RESEND**UPDATE ONLY-WORK CONT PER KAREN PATIN--[ALFC 04/01/08 09:34]
**RESEND**UPDATE ONLY-WORK CONT PER KAREN PATIN--[ALFC 04/25/08 09:25]
**RESEND**UPDATE ONLY-WORK CONT PER CARMEN LOPEZ--[ALFC 05/21/08 15:04]
**RESEND**UPDATE ONLY-WORK CONT PER KAREN PATIN--[ALFC 06/16/08 14:08]
**RESEND**UPDATE ONLY-WORK CONT PER KAREN PATIN--[ALFC 07/10/08 08:59]
**RESEND**UPDATE ONLY-WORK CONT PER CARMEN LOPEZ--[ALFC 08/05/08 13:39]
**RESEND**UPDATE ONLY-WORK CONT PER NORINE MOORE--[ALFC 08/29/08 07:51]
**RESEND**UPDATE ONLY-WORK CONT PER NORINE MOORE--[ALFC 09/24/08 12:14]
**RESEND**UPDATE ONLY-WORK CONT PER NORINE MOORE--[ALFC 10/20/08 14:30]

Mbrs : ATTD28SD      CHU01  COX01  OTAYWTRSWR    SDG07  SDG09  SDGTC  USDG09
