
SDG09  00008A USAS 10/20/08 09:23:55 A81210064-07A NORM UPDT GRID

Ticket : A81210064 Date: 10/20/08 Time: 09:23 Oper: LRL Chan: 100
Old Tkt: A73191216 Date: 02/28/08 Time: 14:39 Oper: SRT Revision: 07A
State: CA County: SAN DIEGO            Place: POWAY
Locat: FRM IN FRONT OF ADDRESS CONT S/FOR APPROX 250FT TO IN FRONT OF 11558
     : CREEK RD   **  ADDRESSESS LOC E/OF X/ST POMERADO RD - CALLER STATES
     : ADDRESS IS CORRECT
Address: 11550 CREEK RD
X/ST 1 : POMERADO RD
Grids: 1190C074     1210C012     1210D011                   Delineated: Y
Lat/Long  : 32.933361/-117.060086 32.934276/-117.059573
          : 32.931600/-117.056949 32.932515/-117.056436
Caller GPS:

Boring: N  Explosives: N  Vacuum: N

Re-Mark: N

Work : INSTALL SEWER, WTR & STORM DRAINS
Work date: 10/20/08 Time: 09:23 Hrs notc: 000 Work hrs: 000 Priority: 2
Instruct : WORK CONTINUING        Permit   : 2006-901579
Done for : DYNASTY DEVELOPMENT

Company: BASILE CONSTRUCTION            Caller: SHANNA
Address: 7840 DUNBROOK ROAD
City&St: SAN DIEGO, CA                  Zip: 92126      Fax: 858-586-7809
Phone: 858-586-7800
Formn: JEFF                 Phone: 619-813-7882

                                  COMMENTS

REF EXP TICKET A073191216, UPDATE ONLY-WORK CONT PER JENNIFER--[KDB 04/30/08
07:12]
**RESEND**UPDATE ONLY-WORK CONT PER JENNIFER--[KKP 05/28/08 15:50]
**RESEND**UPDATE ONLY-WORK CONT PER YVETTE--[LAB 06/25/08 13:02]
**RESEND**REQUEST REMARKS FROM ALL-WORK CONT PER JENNIFER--[LLF 06/30/08 10:03]
**RESEND**UPDATE ONLY-WORK CONT PER JENNIFER--[LRL 07/28/08 08:29]
**RESEND**UPDATE ONLY-WORK CONT PER JENNIFER--[ADS 08/25/08 14:15]
**RESEND**UPDATE ONLY-WORK CONT PER YVETTE--[KMC 09/22/08 12:58]
**RESEND**UPDATE ONLY-WORK CONT PER JENNIFER--[LRL 10/20/08 09:23]

Mbrs : ATTD28SD      COX01  POW47  REDFLEXTRF    SDG05  SDG06  SDG09  SND01
SND02  TWCSD  UATLSD USDG09
