
SDG09  00007A USAS 10/20/08 09:23:34 A81210061-07A NORM UPDT GRID

Ticket : A81210061 Date: 10/20/08 Time: 09:23 Oper: LRL Chan: 100
Old Tkt: A80910460 Date: 03/31/08 Time: 09:36 Oper: KRI Revision: 07A
State: CA County: SAN DIEGO            Place: POWAY
Locat: 11550 CREEK RD  WORK AREA IS APPROX 250FT    X/ST  POMERADO RD
Address: 11550 CREEK RD
X/ST 1 : POMERADO RD
Grids: 1190C074     1210C012     1210D0113                  Delineated: Y
Lat/Long  : 32.933306/-117.059791 32.934331/-117.058877
          : 32.928330/-117.054205 32.929356/-117.053292
Caller GPS:

Boring: N  Explosives: N  Vacuum: N

Re-Mark: N

Work : INSTALL WET UTILS
Work date: 10/20/08 Time: 09:23 Hrs notc: 000 Work hrs: 000 Priority: 2
Instruct : WORK CONTINUING        Permit   : 2001-90157B9
Done for : DYNESTY DEV

Company: BASILE CONSTRUCTION            Caller: JOLINDA GREY
Address: 7840 DUNBROOK ROAD
City&St: SAN DIEGO, CA                  Zip: 92126      Fax: 858-586-7809
Phone: 858-586-7800 Ext:      Call back: ANYTIME
Formn: ALLEN                Phone: 619-813-7800

                                  COMMENTS

REF EXP TICKET A080910460, UPDATE ONLY-WORK CONT PER JENNIFER--[KDB 04/30/08
07:12]
**RESEND**UPDATE ONLY-WORK CONT PER JENNIFER--[KKP 05/28/08 15:50]
**RESEND**UPDATE ONLY-WORK CONT PER YVETTE--[LAB 06/25/08 13:01]
**RESEND**REQUEST REMARKS FROM ALL-WORK CONT PER JENNIFER--[LLF 06/30/08 10:02]
**RESEND**UPDATE ONLY-WORK CONT PER JENNIFER--[LRL 07/28/08 08:28]
**RESEND**UPDATE ONLY-WORK CONT PER JENNIFER--[ADS 08/25/08 14:15]
**RESEND**UPDATE ONLY-WORK CONT PER YVETTE--[KMC 09/22/08 12:58]
**RESEND**UPDATE ONLY-WORK CONT PER JENNIFER--[LRL 10/20/08 09:23]

Mbrs : ATTD28SD      COX01  NEXTG  POW47  REDFLEXTRF    SDG05  SDG06  SDG09
SND01  SND02  TWCSD  UATLSD USDG09
