
SDG09  00035A USAS 10/20/08 14:09:51 A82940485-01A NORM RXMT GRID

Ticket : A82940485 Date: 10/20/08 Time: 14:08 Oper: EVA Chan: 100
Old Tkt: A82940485 Date: 10/20/08 Time: 09:42 Oper: LAB Revision: 01A
State: CA County: SAN DIEGO            Place: SAN DIEGO
Locat: GATE CODE #9507
Address: 9584 CAMINO SANTA FE
X/ST 1 : FOUR GEE RD
Grids: 1169D014     1169D022     1169E013     1169E021      Delineated: Y
Lat/Long  : 33.029753/-117.124718 33.029743/-117.121989
          : 33.028938/-117.124721 33.028928/-117.121992
Caller GPS:

Boring: N  Explosives: N  Vacuum: N

Re-Mark: N

Work : HOUSE PAD;  NEW PRIVATE DRIVE & WATER LINE;  ACCESS RD
Work date: 10/22/08 Time: 09:35 Hrs notc: 043 Work hrs: 043 Priority: 2
Instruct : MARK BY                Permit   : 615415
Done for : BEN BOND RESIDENCE

Company: D P JAMES GRADING & PAVING     Caller: DONALD BOURGUIGNON
Address: 29010 LILAC RD
City&St: VALLEY CENTER, CA              Zip: 92082      Fax: 760-749-1004
Phone: 760-802-7674 Ext:      Call back: ANYTIME
Formn: D P

                                  COMMENTS

**RESEND** CALLER REQ TO ADD GATE CODE  #9507   FRO ACCESS TO PROPERTY PER
DONALD--[EVA 10/20/08 14:09]

Mbrs : ATTD28SD      COSDSD COX01  OMW62  RSFCSD SDG05  SDG09  SND01  TWCSD
USDG09
