
SDG09  00014A USAS 10/20/08 09:28:02 A82661179-01A NORM UPDT GRID

Ticket : A82661179 Date: 10/20/08 Time: 09:27 Oper: LRL Chan: 100
Old Tkt: A82100317 Date: 07/28/08 Time: 08:39 Oper: LRL Revision: 01A
State: CA County: SAN DIEGO            Place: SAN DIEGO
Locat: WORKING IN BOUNDED AREA; ON THE N/BY BLUE DAWN TRL; ON THE E/BY ZINNIA
     : HILLS PL; ON THE S/BY CARMEL VALLEY RD; ON THE W/BY BLUE LACE TRL - IF
     : EXTENDED SOUTH -- JOINT MEET AT INTER OF CARMEL VALLEY RD & ZINNIA HILLS
     : PL
Address: BLUE DAWN TRL
X/ST 1 : ZINNIA HILLS PL
Grids: 1188F034     1188F042                                Delineated: Y
Lat/Long  : 32.966049/-117.188728 32.966731/-117.187264
          : 32.964336/-117.187930 32.965017/-117.186467
Caller GPS:

Boring: N  Explosives: N  Vacuum: N

Re-Mark: N

Work : INSTALL SEWER, WATER & STORM DRAINS
Work date: 10/20/08 Time: 09:27 Hrs notc: 000 Work hrs: 000 Priority: 2
Instruct : WORK CONTINUING        Permit   : 2007901579
Done for : PARDE CONST

Company: BASILE CONSTRUCTION            Caller: SHANNA
Address: 7840 DUNBROOK ROAD
City&St: SAN DIEGO, CA                  Zip: 92126      Fax: 858-586-7809
Phone: 858-586-7800
Formn: STEVE MORENO         Phone: 619-813-7809

                                  COMMENTS

REF EXP TICKET A082100317, UPDATE ONLY-WORK CONT PER YVETTE--[KMC 09/22/08
13:02]
**RESEND**UPDATE ONLY-WORK CONT PER JENNIFER--[LRL 10/20/08 09:27]

Mbrs : ATTD28SD      NEXTG  SDG04  SDG09  SND01  SND02  TWCSD  USDG09
