
SDG09  00048A USAS 10/20/08 15:31:29 A82250065-03A NORM UPDT GRID

Ticket : A82250065 Date: 10/20/08 Time: 15:31 Oper: MMD Chan: 100
Old Tkt: A80300741 Date: 07/07/08 Time: 17:22 Oper: SRT Revision: 03A
State: CA County: SAN DIEGO            Place: SAN DIEGO
Locat:
Address: 10602 TREENA ST
X/ST 1 : SCRIPPS LAKE DR
Grids: 1209F0334    1209F0412                               Delineated: Y
Lat/Long  : 32.914216/-117.114387 32.914237/-117.113401
          : 32.909895/-117.114297 32.909915/-117.113311
Caller GPS:

Boring: N  Explosives: N  Vacuum: N

Re-Mark: N

Work : INSTALL SEWER, WATER, STORM DRAINS
Work date: 10/20/08 Time: 15:31 Hrs notc: 000 Work hrs: 000 Priority: 2
Instruct : WORK CONTINUING        Permit   : NOT REQUIRED
Done for : BYCOR GENERAL CONTRACTING

Company: RAND ENGINEERING               Caller: DENISE RAND
Address: PO BOX 1830
City&St: ALPINE, CA                     Zip: 91903      Fax: 619-722-1211
Phone: 619-722-6767 Ext:      Call back: 7A-4P
Formn: CLEMIS               Phone: 619-454-1442

                                  COMMENTS

REF EXP TICKET A080300741, UPDATE ONLY-WORK CONT PER DENIS--[EMB 08/12/08 07:21]
**RESEND**UPDATE ONLY-WORK CONT PER DENISE--[EVA 09/05/08 12:24]
**RESEND**UPDATE ONLY-WORK CONT PER DENISE--[LRL 09/26/08 15:09]
**RESEND**UPDATE ONLY-WORK CONT PER DENISE--[MMD 10/20/08 15:31]

Mbrs : ATTD28SD      SDC02  SDG02  SDG06  SDG09  SDGET  SND01  SND02  SNDWPD
TWCSD  UATLSD USDG09
