
SDG09  00041A USAS 10/20/08 14:32:01 A82120520-04A NORM UPDT GRID

Ticket : A82120520 Date: 10/20/08 Time: 14:31 Oper: ALFC Chan: WEB
Old Tkt: A82120520 Date: 07/30/08 Time: 10:02 Oper: ALFC Revision: 04A
State: CA County: SAN DIEGO            Place: RANCHO BERNARDO
Locat: WORKING 0 FT TO 10 FT ON THE N/W SIDE OF THE S/ BOUND 15 FRWY EXIT #24 IN
     : T.G. STARTING AT THE GORE POINT & EXTEND S/W APPROX. 600FT. GORE POINT IS
     : LOCATED APPROX. 800FT N/ OF RANCHO BERNARDO RD.
     : **PLEASE MARK DELINEATED AREA OR CONTACT KAREN AT 951-360-8103 TO CLEAR
     : AREA IF NO CONFLICT**
Address: ESCONDIDO 15 FRWY
X/ST 1 : RANCHO BERNARDO RD.
Grids: 1169J0224    1170A0213                               Delineated: Y
Lat/Long  : 33.025997/-117.079255 33.025403/-117.078318
          : 33.023871/-117.080603 33.023277/-117.079666
Caller GPS:

Boring: Y  Explosives: N  Vacuum: N

Re-Mark: N

Work : METAL BEAM GUARD RAIL
Work date: 10/20/08 Time: 14:31 Hrs notc: 000 Work hrs: 000 Priority: 2
Instruct : WORK CONTINUING        Permit   : NOT REQUIRED
Done for : FCI S5808-300

Company: ALCORN FENCE COMPANY           Caller: CARMEN LOPEZ
Address: 6445 PEDLEY RD
City&St: RIVERSIDE, CA                  Zip: 92509      Fax: 951-360-8105
Phone: 951-360-8103 Ext:      Call back: 7:30 - 4:30
Formn: UNKNOWN              Phone: 951-360-8103
Email: KPATIN@ALCORN-FENCE.COM

                                  COMMENTS

**RESEND**CALLER ADVISES NO SHOW FROM WATER, CITY, TRAFFIC LIGHTS - :CITY OF SAN
DIEGO WATER, CITY OF SAN DIEGO STREET & TRAFFIC ELEC. CREW IS OUT ON SITE AND
DIGGING. PLEASE RESPOND NOW TO SITE AND MARK OR CALL CARMEN AT 951-360-8103 TO
CLEAR IF NO CONFLICT. PER CARMEN LOPEZ--[ALFC 08/05/08 11:55]
**RESEND**UPDATE ONLY-WORK CONT PER NORINE MOORE--[ALFC 08/29/08 07:55]
**RESEND**UPDATE ONLY-WORK CONT PER NORINE MOORE--[ALFC 09/24/08 12:15]
**RESEND**UPDATE ONLY-WORK CONT PER NORINE MOORE--[ALFC 10/20/08 14:31]

Mbrs : ATTATL ATTD28SD      COX01  QWESTCA       SDC02  SDG05  SDG09  SND01
SND02  TWCSD  USDG09
