
SDG09  00021A USAS 10/20/08 09:31:32 A82100348-03A NORM UPDT GRID

Ticket : A82100348 Date: 10/20/08 Time: 09:31 Oper: LRL Chan: 100
Old Tkt: A81680223 Date: 06/25/08 Time: 13:09 Oper: LAB Revision: 03A
State: CA County: SAN DIEGO            Place: SAN DIEGO
Locat: MARK AREA BOUNDED  BY THE S/E END OF THE LAKES ST ON THE N/W ; BY THE
     : N/SIDE OF A LAKE LOC APPROX 100 FT S/W OF S/W END OF THE LAKES DR ON THE
     : S/W  AND EXTENDS N/E FOR APPROX 100 FT
Address: THE LAKES DR
X/ST 1 : BING CROSBY BLVD
Grids: 1169A014                                             Delineated: N
Lat/Long  : 33.032167/-117.151523 33.032814/-117.150909
          : 33.031287/-117.150595 33.031935/-117.149981
Caller GPS:

Boring: N  Explosives: N  Vacuum: N

Re-Mark: N

Work : INSTALL UTILITIES
Work date: 10/20/08 Time: 09:31 Hrs notc: 000 Work hrs: 000 Priority: 2
Instruct : WORK CONTINUING        Permit   : 2007901579
Done for : LENNAR HOMES

Company: BASILE CONSTRUCTION            Caller: JENNIFER
Address: 7840 DUNBROOK ROAD
City&St: SAN DIEGO, CA                  Zip: 92126      Fax: 858-586-7809
Phone: 858-586-7800 Ext:      Call back: 7-4
Formn: STEVE                Phone: 619-813-7810
Email: JEN@BASILE-DIG.COM

                                  COMMENTS

REF EXP TICKET A081680223, UPDATE ONLY-WORK CONT PER JENNIFER--[LRL 07/28/08
08:47]
**RESEND**UPDATE ONLY-WORK CONT PER JENNIFER--[ADS 08/25/08 14:20]
**RESEND**UPDATE ONLY-WORK CONT PER YVETTE--[KMC 09/22/08 13:04]
**RESEND**UPDATE ONLY-WORK CONT PER JENNIFER--[LRL 10/20/08 09:31]

Mbrs : ATTD28SD      OMW62  SDG05  SDG09  USDG09
