
SDG09  00024A USAS 10/20/08 09:38:44 A82310885-06A NORM UPDT GRID

Ticket : A82310885 Date: 10/20/08 Time: 09:38 Oper: LRL Chan: 100
Old Tkt: A82310885 Date: 08/18/08 Time: 12:31 Oper: LYD Revision: 06A
State: CA County: SAN DIEGO            Place: SAN DIEGO
Locat: STARTING AT APPPROX 500FT S OF HALF MILE DR ON EL CAMINO REAL FRM THAT
     : POINT GO N ON EL CAMINO REAL BOTH SIDES FOR 1 MILE
Address: EL CAMINO REAL
X/ST 1 : HALF MILE DR
Grids: 1187J0324    1187J042     1188A033     1188A0413     Delineated: Y
Lat/Long  : 32.972807/-117.240926 32.973984/-117.238269
          : 32.959752/-117.235140 32.960929/-117.232483
Caller GPS:

Boring: N  Explosives: N  Vacuum: N

Re-Mark: N

Work : INSTALL UTILS
Work date: 10/20/08 Time: 09:38 Hrs notc: 000 Work hrs: 000 Priority: 2
Instruct : WORK CONTINUING        Permit   : 2007901579
Done for : PARDEE CONST

Company: BASILE CONSTRUCTION            Caller: JENNIFER
Address: 7840 DUNBROOK ROAD
City&St: SAN DIEGO, CA                  Zip: 92126      Fax: 858-586-7809
Phone: 858-586-7800 Ext:      Call back: 7-4
Formn: STEVE                Phone: 619-813-7809
Email: JEN@BASILE-DIG.COM

                                  COMMENTS

**RESEND**CALLER ADVISES NO SHOW FROM WATER - PLEASE RESPOND ASAP; CALLER STATES
IT IS AN EMERGENCY NOW PER JENNIFER--[TEL 08/22/08 08:47]
**RESEND**CALLER ADVISES NO SHOW FROM GAS, ELECTRIC, WATER - NEED SDG&E AND C/OF
SAN DIEGO/WTR TO RESPOND TO SITE FOR MARKING OF LINES * ASAP * CREW NOW WORKING
* PER JENNIFER--[SRT 08/25/08 13:09]
**RESEND**UPDATE ONLY-WORK CONT PER JENNIFER--[ADS 08/25/08 14:26]
**RESEND**CALLER ADVISES NO SHOW FROM WATER - REQ C/OF SANDIEGO TO PLEASE
RESPOND ASAP PER JENNIFER--[JMC 08/29/08 11:25]
**RESEND**UPDATE ONLY-WORK CONT PER YVETTE--[KMC 09/22/08 13:08]
**RESEND**UPDATE ONLY-WORK CONT PER JENNIFER--[LRL 10/20/08 09:38]

Mbrs : ATTD28SD      NEXTG  SDG02  SDG04  SDG09  SND01  SND02  TWCSD  UATLSD
USDG09
