
KORTERRA AUDIT MARY01-SMTP-1 *EOD AUDIT* FOR TICKETS SENT ON 10/22/2008

Ticket Number			Seq #
---------------------------------------------------------
082591423			1
082691473			2
082520577			3
082610415			4
082531294			5


Total Sent = 5

End Of Report

