


-----Original Message-----
From: wa@occinc.com [mailto:wa@occinc.com] 
Sent: Saturday, March 23, 2013 1:31 PM
To: onecall@noanet.net
Subject: 2 FULL BUSINESS DAYS 13065526

Ticket No: 13065526               2 FULL BUSINESS DAYS 
Send To: NOANT02    Seq No:    1  Map Ref:  

Transmit      Date:  3/23/13   Time:  1:31 PM    Op: wikat 
Original Call Date:  3/23/13   Time: 12:50 PM    Op: webusr 
Work to Begin Date:  4/06/13   Time: 12:00 AM 

State: WA            County: CLARK                   Place: CAMAS 
Address:    808      Street: U ST 
Nearest Intersecting Street: E 8TH ST 

Twp: 2N      Rng: 1E      Sect-Qtr: 26 
Twp:         Rng:         Sect-Qtr:        

Type of Work: FENCE INSTALL 
Location of Work: BACK SOUTH 

Remarks:  
:  

Company     : RICK'S CUSTOM FENCING/DECKING    Best Time:   
Contact Name: STU BAILEY                       Phone: (360)253-3792 
Alt. Contact: SAME                             Phone: (360)253-3792 
Contact Fax : (360)567-0678 
Work Being Done For: TEHENNEPE, LEATHA 
Additional Members:  
CMCST03    CPU01      NWN02      QLNWA06    VAN01      VAN02      VAN03 


