


-----Original Message-----
From: wa@occinc.com [mailto:wa@occinc.com] 
Sent: Wednesday, March 27, 2013 8:36 AM
To: onecall@noanet.net
Subject: 2 FULL BUSINESS DAYS 13068829

Ticket No: 13068829               2 FULL BUSINESS DAYS 
Send To: NOANT02    Seq No:    1  Map Ref:  

Transmit      Date:  3/27/13   Time:  8:36 AM    Op: webusr 
Original Call Date:  3/27/13   Time:  8:33 AM    Op: webusr 
Work to Begin Date:  3/30/13   Time: 12:00 AM 

State: WA            County: CLARK                   Place: VANCOUVER 
Address:    303      Street: E 16TH ST 
Nearest Intersecting Street: C ST 

Twp: 2N      Rng: 1E      Sect-Qtr: 27-NW-NE 
Twp:         Rng:         Sect-Qtr:        

Type of Work: TEMPORARY REAL ESTATE SIGN INSTALLATION Location of Work: PLEASE LOCATE THE ENTIRE RECTANGULAR LANDSCAPED AREA THAT
: IS AT THE NORTH WEST CORNER OF THE PROPERTY.  IT HAS A SMALL MONUMENT SIGN
: IN IT.  PLEASE DO NOT CALL UNLESS A CONFLICT IS FOUND.  THANK YOU. 

Remarks: BEST INFORMATION AVAILABLE
: DO NOT MARK ON ANY PAVED OR PERMANENT SURFACES 

Company     : COLUMBIA SIGNS INC               Best Time:  8-5 M-F 
Contact Name: TIM OWENS                        Phone: (360)696-1919 
Alt. Contact:                                  Phone:  
Contact Fax :  
Work Being Done For: COLUMBIA SIGNS
Additional Members:  
CMCST03    CPU01      NWN02      QLNWA06    VAN01      VAN02      VAN03 
 VAN04 


