


-----Original Message-----
From: wa@occinc.com [mailto:wa@occinc.com] 
Sent: Monday, March 25, 2013 8:50 AM
To: onecall@noanet.net
Subject: 2 FULL BUSINESS DAYS 13065721

Ticket No: 13065721               2 FULL BUSINESS DAYS 
Send To: NOANT02    Seq No:    2  Map Ref:  

Transmit      Date:  3/25/13   Time:  8:49 AM    Op: orkevi 
Original Call Date:  3/25/13   Time:  6:23 AM    Op: webusr 
Work to Begin Date:  3/28/13   Time: 12:00 AM 

State: WA            County: WAHKIAKUM               Place: DEEP RIVER 
Address:    816      Street: ONIEDA ROAD 
Nearest Intersecting Street: STATE ROUTE 4 

Twp: 10N     Rng: 8W      Sect-Qtr: 17-SW,18-SW-SE,32,31,30,29,21-SW-NW,20,19 
Twp: 9N      Rng: 8W      Sect-Qtr: 6-NW-NE,5-NW-NE 

Type of Work: INSTALL FIBER OPTIC CABLE Location of Work: SITE STARTS 3 MILES SOUTH OF SR4 ,
: LOCATE FROM PED 42-23 R/W TO R/W WEST 5,300 FEET TO ABOVE ADRESS 

Remarks: AREA WILL BE MARKED IN WHITE PAINT TODAY
: HOMEOWNERS NAME IS SHARBACH 

Company     : ROBINSON BROTHERS CONSTRUCTION   Best Time:  ANY 
Contact Name: TERRY PRIMLEY                    Phone: (360)576-5359 
Alt. Contact: TERRY PRIMLEY                    Phone: (360)606-7205 
Contact Fax : (360)576-7781
Work Being Done For: WAHKIAKUM WEST TELEPHIONE Additional Members:  
NWC01      PUD1WC01   PUD2PC01   WWT01 


