


-----Original Message-----
From: wa@occinc.com [mailto:wa@occinc.com] 
Sent: Monday, March 25, 2013 3:37 PM
To: onecall@noanet.net
Subject: 2 FULL BUSINESS DAYS 13067032

Ticket No: 13067032               2 FULL BUSINESS DAYS 
Send To: NOANT02    Seq No:    6  Map Ref:  

Transmit      Date:  3/25/13   Time:  3:37 PM    Op: orshan 
Original Call Date:  3/25/13   Time:  3:30 PM    Op: orshan 
Work to Begin Date:  3/28/13   Time: 12:00 AM 

State: WA            County: ASOTIN                  Place: CLARKSTON 
Address:    950      Street: VINELAND DR 
Nearest Intersecting Street: CHESTNUT 

Twp: 11N     Rng: 46E     Sect-Qtr: 30-NE,29-NW,20-SW,19-SE 
Twp:         Rng:         Sect-Qtr:        

Type of Work: REPAIR BUILDING FOUNDATION Location of Work: EXCAVATION SITE IS ON THE W SIDE OF THE ROAD. 
: SITE IS WITHIN APX 1000 FT S FROM THE ABV INTER. MARK APX 8 FT OFF THE
: ENTIRE E SIDE OF BUILDING MARKED IN WHITE AT THAT POINT 

Remarks:  
: BEST INFORMATION AVAILABLE 

Company     : WESTRIDGE APTS                   Best Time:   
Contact Name: DANA SHINE                       Phone: (509)751-1288 
Alt. Contact:                                  Phone:  
Contact Fax :  
Work Being Done For: WESTRIDGE APTS
Additional Members:  
ATT02      PUDAS01    QLNWA02    TCI29      WAPOW02 


