


-----Original Message-----
From: wa@occinc.com [mailto:wa@occinc.com] 
Sent: Tuesday, March 26, 2013 10:26 AM
To: onecall@noanet.net
Subject: 2 FULL BUSINESS DAYS 13067725

Ticket No: 13067725               2 FULL BUSINESS DAYS 
Send To: NOANT02    Seq No:    2  Map Ref:  

Transmit      Date:  3/26/13   Time: 10:26 AM    Op: orelan 
Original Call Date:  3/26/13   Time: 10:21 AM    Op: orelan 
Work to Begin Date:  3/29/13   Time: 12:00 AM 

State: WA            County: ASOTIN                  Place: CLARKSTON 
Address:   2741      Street: FLORENCE LANE 
Nearest Intersecting Street: EASY ST 

Twp: 11N     Rng: 46E     Sect-Qtr: 19-SW-SE,30-NW-NE 
Twp:         Rng:         Sect-Qtr:        

Type of Work: INSTALL GATE 
Location of Work: ADD APX 200YDS FROM ABV INTER ON LEFT SIDE OF ROAD. MARK
: ENTIRE FRONT OF PROP AT ABV ADD. 

Remarks:  
:  

Company     :                                  Best Time:   
Contact Name: GORDON GLASBY                    Phone: (509)758-3806 
Alt. Contact:                                  Phone: (509)780-7281 
Contact Fax :  
Work Being Done For: GORDON GLASBY 
Additional Members:  
PUDAS01    QLNWA02    TCI29      WAPOW02 


