
Ticket No:  9018957               48 HOUR NOTICE 
Send To: FALCON08   Seq No:    1  Map Ref:  

Transmit      Date:  2/03/09   Time:  8:50 AM    Op: ordawn 
Original Call Date:  2/03/09   Time:  8:47 AM    Op: ordawn 
Work to Begin Date:  2/05/09   Time:  9:00 AM 

State: OR            County: LANE                    Place: FLORENCE 
Address:   3620      Street: HWY 101 
Nearest Intersecting Street: 37TH ST 

Twp: 18S   Rng: 12W   Sect-Qtr: 14-SW,23-NW 
Twp:       Rng:       Sect-Qtr:        
Ex. Coord NW Lat: 43.9991461Lon: -124.1018831SE Lat: 43.9975927Lon: -124.0997788 

Type of Work: INSTALL PARKING LOT AND DRIVEWAY ENTERANCE 
Location of Work: ADD APX 350 FT S OF ABV INTER ON E SIDE OF HWY. MARK ENTIRE
: PROP AT ABV ADD. 

Remarks:  
:  

Company     : RAY WELLS INC                    Best Time:   
Contact Name: NORM WELLS                       Phone: (541)991-0938 
Email Address:   
Alt. Contact: NORM - CELL                      Phone: (541)991-0938 
Contact Fax :  
Work Being Done For: MICHAEL CHIN 
Additional Members:  
CLPUD01    COFLO01    QLNOR15 

