
Ticket No:  9019056               48 HOUR NOTICE 
Send To: FALCON10   Seq No:    2  Map Ref:  

Transmit      Date:  2/03/09   Time:  9:56 AM    Op: orfran 
Original Call Date:  2/03/09   Time:  9:49 AM    Op: orfran 
Work to Begin Date:  2/05/09   Time: 10:00 AM 

State: OR            County: COOS                    Place: COOS BAY 
Address:    811      Street: 6TH AVE 
Nearest Intersecting Street: H ST 

Twp: 25S   Rng: 13W   Sect-Qtr: 35-SE-NE,36-SW-NW 
Twp:       Rng:       Sect-Qtr:        
Ex. Coord NW Lat: 43.3606912Lon: -124.1981655SE Lat: 43.3558458Lon: -124.1919229 

Type of Work: CAP OFF SEWER 
Location of Work: ADD IS AT SW CORNER OF ABV INTER. MARK ENTIRE SIDES OF PROP
: FACING 6TH AVE AND H ST AT ABV ADD, INCLUDE BOTH SIDES OF THESE STS WHERE
: THEY BORDER PROP. 

Remarks:  
:  

Company     :                                  Best Time:   
Contact Name: GARY ANGELL                      Phone: (541)301-3545 
Email Address:   
Alt. Contact:                                  Phone:  
Contact Fax :  
Work Being Done For: GARY ANGELL 
Additional Members:  
BHSD01     CBNBW01    CCB01      GTC09      NNG10      PPL24 

