

FROM TNOCS
ATT/D-JACMS (615)661-3758
B10
AUDIT FOR 1/19/2009

FOR CODE B10

TYPE  SEQ#  TICKET                    STATUS                                
----  ----  ------------------------  ------------------------------------- 
      0001  090190735                 DELIVERED

NORMAL    : 1
RESEND    : 0
EMERGENCY : 0
FAILED    : 0
TOTAL FOR B10: 1




LEGEND
-----------------------
  - NORMAL
* - RESEND
! - EMERGENCY


