

TST03  00013 NCOCa 05/07/09 10:10:43 A091270725-00A SHRT NEW GRID LR

North Carolina One Call

Ticket : A091270725 Date: 05/07/09 Time: 10:08 Oper: TAN Chan:999
Old Tkt: A091270725 Date: 05/07/09 Time: 10:10 Oper: TAN Rev :00A

State: NC Cnty: WAKE Place: RALEIGH In/Out: B
Subdivision: OPTIMIST PARK COMMUNITY CENTER

Address :
Street  : WHITTIER DR   Intersection: N
Cross 1 : NORTHCLIFT DR
Location: LOCATE BY 05/12/09 12:01 AM
DISTANCE FROM CROSS STREET IS:  WITHIN 1/4 MILE
BLDG #5900     LOCATE THE ENTIRE PROPERTY WITHIN 30FT OF THE BUILDING
:
Grids   : 3551A7838B   3551B7838B

Work type:INSTALLING PVC CONDUIT
Work date:05/11/09  Time: 09:00  Hours notice: 32/32  Priority: SHRT
Ug/Oh/Both: U  Blasting: N  Boring: N  Railroad: N     Emergency: N
Duration: 2 DAYS  Done for: CLASSIC ELECTRIC

Company : SAM POTTER DIRECTIONAL BORING  Type: CONT
Co addr : 220 HILLCREST DR
City    : WILLOW SPRING State: NC Zip: 27592
Caller  : SAM POTTER-NO EMAIL Phone: 919-639-6216
Contact : SAME Phone:
BestTime:
Cellular: 919-218-9654

Remarks : CALL SAM TO MEET YOU ON SITE.
PER CALLER: THIS WILL BE GOING TOWARDS THE DEAD END OF RD FROM CROSS STREET
:
Submitted date: 05/07/09 Time: 10:10
Members: ATT322*       CLS01  COR01  CPL10* PSG01  RCT01  TST03
