
UQSTSO 00558A USAS 01/03/11 10:17:48 A03510463-01A NORM UPDT GRID

Ticket : A03510463  Date: 01/03/11 Time: 10:16 Oper: ZIM Chan: 100
Old Tkt: A02631051  Date: 11/18/10 Time: 11:35 Oper: PEG Revision: 01A

Company: OSMENT GRADING AND EXCAVATING, INC. Caller: KIMBERLY OSMENT
Co Addr: 30902 VIA BONICA
City&St: LAKE ELSINORE, CA              Zip: 92530      Fax: 951-609-3872
Phone: 951-678-3478 Ext:      Call back: ANY
Formn: GLEN                 Phone: 909-553-7868 Ext: CELL
Email: KIM@OSMENTGRADING.COM

State: CA County: SAN DIEGO       Place: SAN DIEGO
Delineated: Y
Delineated Method: WHITEPAINT
Address:             Street:BOSTON AVE
X/ST 1 : S 28TH ST
Locat: WORKING ON THE ENTIRE PROPERTIES WHICH ARE NEXT TO EACH OTHER AT THE
     : ADDRESSES OF 2727 AND 2761 BOSTON AVE, XST S 28TH ST  ... PROPERTY IS
     : BOUNDED BY: N/BY BOSTON AVE, S/BY THE ALLEY LOC APPROX 170FT S/OF BOSTON
     : AVE, W/BY APPROX 200FT E/OF S 27TH ST, E/BY APPROX 120FT W/OF S 28TH ST;

Excav Enters Into St/Sidewalk: N

Grids: 1289D062     1289E061
Lat/Long  : 32.693840/-117.135277 32.693855/-117.134132
          : 32.693329/-117.135270 32.693344/-117.134126
Caller GPS:

Boring: N  Explosives: N  Vacuum: N
Re-Mark: N

Work : DEMO & GRADING (2FT DEEP)
Wkend: N  Night: N
Work date: 01/03/11 Time: 10:17 Hrs notc: 000 Work hrs: 000 Priority: 2
Instruct : WORK CONTINUING                Permit: NOT REQUIRED
Done for : CRANE DEVELOPMENT

Tkt Exp: 01/31/11

                                  COMMENTS

REF EXP TICKET A002631051, UPDATE ONLY-WORK CONT PER KIM--[CLA 12/17/10 13:29]
**RESEND**UPDATE ONLY-WORK CONT PER KIMBERLY--[ZIM 01/03/11 10:17]

Mbrs : ATTATL ATTD28SD      CHESD  COX01  GLOBALCROS    SDG01  SND01  SND02
UATLSD UNIFPORTSD
