
UQSTSO 00546A USAS 01/03/11 10:13:54 A10030367-00A NORM NEW GRID

Ticket : A10030367  Date: 01/03/11 Time: 10:07 Oper: PEG Chan: 200
Old Tkt: A10030367  Date: 01/03/11 Time: 10:13 Oper: PEG Revision: 00A

Company: WATERSTONE ENVIRONMENTAL       Caller: BILL HENRY
Co Addr: 2936 E CORONADO ST
City&St: ANAHEIM, CA                    Zip: 92806      Fax: 714-414-1166
Phone: 714-414-1122 Ext:      Call back: 8AM-6PM
Formn: BILL HENRY           Phone: 714-749-6855
Email: WHENRY@WATERSTONE-ENV.COM

State: CA County: ORANGE          Place: BREA
Delineated: N
Address: 200         Street:N PUENTE AVE
X/ST 1 : W LAMBERT RD
X/ST 2 : PIONEER ST
Locat: ALBERTSON'S DISTRIBUTION CENTER LOC ON E/SIDE OF N PUENTE AVE BTWN W
     : LAMBERT RD AND PIONEER ST

Excav Enters Into St/Sidewalk: N

Grids: 0708J063     0708J071
Lat/Long  : 33.925106/-117.916106 33.925106/-117.915116
          : 33.922171/-117.916106 33.922171/-117.915116
Caller GPS:

Boring: Y  Explosives: N  Vacuum: N
Re-Mark: N

Work : SOIL BORING AND SAMPLING
Wkend: N  Night: N
Work date: 01/05/11 Time: 10:07 Hrs notc: 048 Work hrs: 048 Priority: 2
Instruct : MARK BY                        Permit: NOT REQUIRED
Done for : ALBERTSONS

Tkt Exp: 01/31/11

Mbrs : AKZO01 ATTD01OR      BREWTRDIST    CDW01  CHELA  CRMSNPIP      EPM01
MWD05  PACPIPK       SCG28T SCG2XG SPLCSOUTH     TWCNORG       USCE03 USCE05
UVZSFS VINTAGELHH
