
UQSTSO 00553A USAS 01/03/11 10:17:00 A03430160-01A REMK REMK GRID

Ticket : A03430160  Date: 01/03/11 Time: 10:15 Oper: ZIM Chan: 100
Old Tkt: A03430160  Date: 12/09/10 Time: 08:38 Oper: CLA Revision: 01A

Company: OSMENT GRADING AND EXCAVATING, INC Caller: JENNY OSMENT
Co Addr: 30902 VIA BONICA
City&St: LAKE ELSINORE, CA              Zip: 92530
Phone: 951-678-3478 Ext:      Call back: ANYTIME
Formn: RYAN                 Phone: 909-553-7868
Email: KIM@OSMENTGRADING.COM

State: CA County: LOS ANGELES     Place: TORRANCE
Delineated: Y
Delineated Method: WHITEPAINT
Address:             Street:FRANCISCO ST
X/ST 1 : WESTERN AVE
X/ST 2 : HARBORGATE WAY
Locat: 1511 & 1521 FRANCISCO ST AKA W FRANCISCO ST    X/ST BTWN HARBORGATE WAY &
     : WESTERN AVE AKA S WESTERN AVE

Excav Enters Into St/Sidewalk: N

Grids: 0763H042     0763J0412
Lat/Long  : 33.849628/-118.309870 33.850271/-118.302719
          : 33.848469/-118.309766 33.849112/-118.302615
Caller GPS:

Boring: N  Explosives: N  Vacuum: N
Re-Mark: Y
Re-Mark Type: ALL

Work : GRADE AND OVER-EXCAVATE SITE
Wkend: N  Night: N
Work date: 01/03/11 Time: 10:16 Hrs notc: 000 Work hrs: 000 Priority: 2
Instruct : REQUEST REMARKS                Permit: NOT AVAILABLE
Done for : K P R S CONSTRUCTION

Tkt Exp: 01/31/11

                                  COMMENTS

**RESEND**REQUEST REMARKS FROM ALL-WORK CONT PER KIMBERLY--[ZIM 01/03/11 10:16]

Mbrs : ATL01  ATTD22LAS     CITYLA CWS01  CWSDOM01      DOW36  KINDER2400
LAWP3  LVL3CM MCISOCAL      MOB01  MWD03  PRAXWIL       SCG32F SPLCNORTH
TERRADEX      TORWTRDIST    USCE44 USCE83SFS     UTWCTOR       XOM04
