
UQSTSO 00789A USAS 08/21/09 11:32:40 A92030334-02A REMK REMK GRID

Ticket : A92030334 Date: 08/21/09 Time: 11:30 Oper: SRT Chan: 100
Old Tkt: A92030334 Date: 07/22/09 Time: 08:55 Oper: SRT Revision: 02A
State: CA County: LOS ANGELES          Place: LOS ANGELES
Locat: W/SIDE OF S VERMONT AVE ( MOST WESTERLY )  FRM W 109TH PL N/FOR APPROX
     : 160FT : BOTH SIDES OF W 109TH PL FRM S VERMONT AVE ( MOST WESTERLY ) W/TO
     : NORMANDIE AVE   **  CALLER STATES AREA IS KNOWN AS LENNOX
Address: S VERMONT AVE
X/ST 1 : W 109TH PL
Grids: 0703J062     0704A0612                               Delineated: Y
Lat/Long  : 33.937252/-118.300730 33.937284/-118.291432
          : 33.935995/-118.300726 33.936027/-118.291428
Caller GPS:

Boring: N  Explosives: N  Vacuum: N

Re-Mark: Y  Re-Mark Type: GAS

Work : REPLACE WTR MAIN
Work date: 08/21/09 Time: 11:32 Hrs notc: 000 Work hrs: 000 Priority: 2
Instruct : REQUEST REMARKS        Permit   : PCEX200900825
Done for : GOLDEN STATE WATER CO

Company: DOMINGUEZ GENERAL CONSTRUCTION Caller: ANTHONY DOMINGUEZ
Address: 21200 WOSSLICK AVE
City&St: NUEVO, CA                      Zip: 92567      Fax: 951-928-0055
Phone: 951-928-0055 Ext:      Call back: ANYTIME
Formn: ANTHONY
Email: DOMINGUEZGENERAL@ACNINC.NET

                                  COMMENTS

**RESEND**UPDATE ONLY-WORK CONT PER ANTHONY--[CLA 08/10/09 09:41]
**RESEND**REQUEST REMARKS FROM GAS-WORK CONT NEED SC GAS ONLY TO RESPOND TO SITE
FOR ID OF UNCOVERED LINE **  ASAP **  PLEASE CALL WITH AN ETA TO ANTHONY @
951-259-0210  **  CALLER REQ AND WAS GIVEN AN EMERGENCY #   **  CREW ON SITE AND
WORKING ** PER ANTHONY--[SRT 08/21/09 11:32]

Mbrs : ATTATL ATTD22LAS     BPWSTCST      CITYLA LACOTS LAWP3  MCISOCAL
SCG3Z2 SCW2M  TCG    USCE44 XOCOMMLA
