
UQSTSO 00626A USAS 02/18/09 09:41:19 A90490430-00A NORM NEW GRID

Ticket : A90490430 Date: 02/18/09 Time: 09:32 Oper: CJD Chan: 100
Old Tkt: A90490430 Date: 02/18/09 Time: 09:41 Oper: CJD Revision: 00A
State: CA County: LOS ANGELES          Place: CERRITOS
Locat: BOUNDED AREA.....N/BY ARTESIA BLVD, W/BY BLOOMFIELD AVE, S/BY TOWNE
     : CENTER DR (IF EXTENDED) , E/BY APPROX 1000FT E/OF BLOOMFIELD AVE.....
     :        **MEET AT THE WAL-MART LOC WITHIN BOUNDED AREA....PLEASE CALL TO
     : CONFIRM MEET WITH ELI AT 951/480-5999**
Address: ARTESIA BLVD
X/ST 1 : BLOOMFIELD AVE
Grids: 0737A07                                              Delineated: Y
Lat/Long  : 33.873177/-118.063782 33.873184/-118.060379
          : 33.870415/-118.063776 33.870422/-118.060373
Caller GPS:

Boring: N  Explosives: N  Vacuum: Y

Re-Mark: N

Work : POTHOLE TO EXPOSE UTILS
Work date: 02/20/09 Time: 10:00 Hrs notc: 048 Work hrs: 048 Priority: 2
Instruct : MEET AND MARK          Permit   : NOT REQUIRED
Done for : KIMLEY-HORN

Company: AZTEC ENGINEERING              Caller: ELI WORKMAN
Address: 18510 PASADENA ST UNIT # C
City&St: LAKE ELSINORE, CA              Zip: 92530      Fax: 909-291-2427
Phone: 951-471-6190 Ext:      Call back: 8-5PM
Formn: ELI                  Phone: 951-840-5999
Email: EWORKMAN@AZTEC.US
Mbrs : CER86DIST     CSDCOMP       MCISOCAL      POC31  SCG2WV UCHRCLB
USCE46 UVZCERR       UVZSFS

