
UQSTSO 00040A USAS 08/04/09 06:53:20 A92030150-02A REMK REMK GRID

Ticket : A92030150 Date: 08/04/09 Time: 06:53 Oper: LYD Chan: 100
Old Tkt: A92030150 Date: 07/22/09 Time: 07:59 Oper: KAW Revision: 02A
State: CA County: LOS ANGELES          Place: CITY OF COMMERCE
Locat: ENTIRE INTER/OF WASHINGTON BLVD & S ATLANTIC BLVD;  BOTH SIDES OF S
     : ATLANTIC BLVD FRM WASHINGTON BLVD CONT S/W/FOR APPROX 750FT
Address: WASHINGTON BLVD
X/ST 1 : S ATLANTIC BLVD
Grids: 0675F034                                             Delineated: Y
Lat/Long  : 34.003582/-118.167470 34.002852/-118.167050
          : 34.001937/-118.170325 34.001208/-118.169904
Caller GPS:

Boring: Y  Explosives: N  Vacuum: N

Re-Mark: Y  Re-Mark Type: ALL

Work : REPLACE GAS MAIN
Work date: 08/04/09 Time: 06:53 Hrs notc: 000 Work hrs: 000 Priority: 2
Instruct : REQUEST REMARKS        Permit   : UNKNOWN
Done for : THE GAS CO

Company: S E PIPELINE                   Caller: MATT STEVENS
Address: 11832 S BLOOMFIELD AVE
City&St: SANTA FE SPRINGS, CA           Zip: 90670      Fax: 562-868-4677
Phone: 562-868-9771 Ext:      Call back: 7AM - 1PM
Formn: UNK

                                  COMMENTS

**RESEND**CALLER REQ AT&T TO PLEASE RESPOND NOW TO MARK PER ALMA--[CJD 07/24/09
11:05]
**RESEND**REQUEST REMARKS FROM ALL-WORK CONT PER MIKE--[LYD 08/04/09 06:53]

Mbrs : ATTD19LAN     CWS02  PACPIPG       SCG3ZE SCG58T UCHRCOM       USCE32
