

This is your End of Day Audit from IRTHNet for items sent
since 3/8/2013 12:05 AM (Central Standard Time)

Seq   Ticket                    Registration Code                  
-------------------------------------------------------------------
1     13042981                  QLNOR07 (OUNC)                     
2     13042988                  QLNOR23 (OUNC)                     
3     13042985                  QLNOR23 (OUNC)                     
4     13042989                  QLNOR07 (OUNC)                     
5     13042959                  QLNOR23 (OUNC)                     
6     13043004                  QLNOR23 (OUNC)                     
7     13042992                  QLNOR14 (OUNC)                     
8     13043000                  QLNOR17 (OUNC)                     
9     13042991                  QLNOR25 (OUNC)                     
10    13043010                  QLNOR12 (OUNC)                     
11    13043049                  QLNOR17 (OUNC)                     
12    13043076                  QLNOR07 (OUNC)                     
13    13043122                  QLNOR22 (OUNC)                     
14    13043113                  QLNOR17 (OUNC)                     
15    13043149                  QLNOR17 (OUNC)                     
16    13042335                  QLNOR23 (OUNC)                     
17    13043117                  QLNOR17 (OUNC)                     
18    13043062                  QLNOR02 (OUNC)                     
19    13043189                  QLNOR01 (OUNC)                     
20    13043196                  QLNOR01 (OUNC)                     
21    13043020                  QLNOR23 (OUNC)                     
22    13043172                  QLNOR23 (OUNC)                     
23    13043187                  QLNOR23 (OUNC)                     
24    13043197                  QLNOR23 (OUNC)                     
25    13043212                  QLNOR23 (OUNC)                     
26    13043208                  QLNOR23 (OUNC)                     
27    13043177                  QLNOR23 (OUNC)                     
28    13043233                  QLNOR23 (OUNC)                     
29    13043178                  QLNOR23 (OUNC)                     
30    13043201                  QLNOR23 (OUNC)                     
31    13043193                  QLNOR23 (OUNC)                     
32    13043184                  QLNOR23 (OUNC)                     
33    13043181                  QLNOR23 (OUNC)                     
34    13043215                  QLNOR23 (OUNC)                     
35    13043030                  QLNOR23 (OUNC)                     
36    13043046                  QLNOR23 (OUNC)                     
37    13043060                  QLNOR23 (OUNC)                     
38    13043074                  QLNOR23 (OUNC)                     
39    13043077                  QLNOR23 (OUNC)                     
40    13043227                  QLNOR23 (OUNC)                     
41    13043061                  QLNOR04 (OUNC)                     
42    13043018                  QLNOR04 (OUNC)                     
43    13043061                  QLNOR04 (OUNC)                     
44    13043023                  QLNOR05 (OUNC)                     
45    13043109                  QLNOR06 (OUNC)                     
46    13043180                  QLNOR07 (OUNC)                     
47    13043026                  QLNOR07 (OUNC)                     
48    13043044                  QLNOR07 (OUNC)                     
49    13043039                  QLNOR07 (OUNC)                     
50    13043067                  QLNOR07 (OUNC)                     
51    13043063                  QLNOR07 (OUNC)                     
52    13043052                  QLNOR07 (OUNC)                     
53    13043107                  QLNOR07 (OUNC)                     
54    13043100                  QLNOR07 (OUNC)                     
55    13043085                  QLNOR08 (OUNC)                     
56    13043093                  QLNOR26 (OUNC)                     
57    13043105                  QLNOR26 (OUNC)                     
58    13043036                  QLNOR26 (OUNC)                     
59    13043079                  QLNOR26 (OUNC)                     
60    13043075                  QLNOR26 (OUNC)                     
61    13043156                  QLNOR26 (OUNC)                     
62    13043139                  QLNOR26 (OUNC)                     
63    13043142                  QLNOR26 (OUNC)                     
64    13043066                  QLNOR26 (OUNC)                     
65    13043134                  QLNOR12 (OUNC)                     
66    13043048                  QLNOR13 (OUNC)                     
67    13043224                  QLNOR15 (OUNC)                     
68    13043161                  QLNOR15 (OUNC)                     
69    13043089                  QLNOR15 (OUNC)                     
70    13042928                  QLNOR15 (OUNC)                     
71    13043045                  QLNOR15 (OUNC)                     
72    13043065                  QLNOR15 (OUNC)                     
73    13043070                  QLNOR15 (OUNC)                     
74    13043118                  QLNOR15 (OUNC)                     
75    13043050                  QLNOR15 (OUNC)                     
76    13043150                  QLNOR27 (OUNC)                     
77    13043082                  QLNOR28 (OUNC)                     
78    13043204                  QLNOR28 (OUNC)                     
79    13043016                  QLNOR28 (OUNC)                     
80    13043069                  QLNOR14 (OUNC)                     
81    13042994                  QLNOR14 (OUNC)                     
82    13043164                  QLNOR14 (OUNC)                     
83    13043237                  QLNOR14 (OUNC)                     
84    13043047                  QLNOR17 (OUNC)                     
85    13043182                  QLNOR17 (OUNC)                     
86    13043238                  QLNOR17 (OUNC)                     
87    13043099                  QLNOR17 (OUNC)                     
88    13043080                  QLNOR17 (OUNC)                     
89    13043019                  QLNOR17 (OUNC)                     
90    13043029                  QLNOR17 (OUNC)                     
91    13043014                  QLNOR17 (OUNC)                     
92    13043032                  QLNOR17 (OUNC)                     
93    13043119                  QLNOR17 (OUNC)                     
94    13043129                  QLNOR17 (OUNC)                     
95    13043132                  QLNOR17 (OUNC)                     
96    13043136                  QLNOR17 (OUNC)                     
97    13043131                  QLNOR17 (OUNC)                     
98    13043128                  QLNOR17 (OUNC)                     
99    13043147                  QLNOR17 (OUNC)                     
100   13043207                  QLNOR17 (OUNC)                     
101   13043220                  QLNOR17 (OUNC)                     
102   13043098                  QLNOR17 (OUNC)                     
103   13042993                  QLNOR17 (OUNC)                     
104   13043114                  QLNOR17 (OUNC)                     
105   13043154                  QLNOR17 (OUNC)                     
106   13043209                  QLNOR17 (OUNC)                     
107   13043213                  QLNOR17 (OUNC)                     
108   13043191                  QLNOR17 (OUNC)                     
109   13043194                  QLNOR17 (OUNC)                     
110   13043153                  QLNOR17 (OUNC)                     
111   13043198                  QLNOR17 (OUNC)                     
112   13043206                  QLNOR17 (OUNC)                     
113   13043111                  QLNOR17 (OUNC)                     
114   13043140                  QLNOR17 (OUNC)                     
115   13043056                  QLNOR25 (OUNC)                     
116   13043027                  QLNOR25 (OUNC)                     
117   13043022                  QLNOR25 (OUNC)                     
118   13043037                  QLNOR25 (OUNC)                     
119   13043064                  QLNOR25 (OUNC)                     
120   13043041                  QLNOR25 (OUNC)                     
121   13043040                  QLNOR25 (OUNC)                     
122   13043051                  QLNOR25 (OUNC)                     
123   13043035                  QLNOR25 (OUNC)                     
124   13043102                  QLNOR19 (OUNC)                     
125   13043166                  QLNOR19 (OUNC)                     
126   13043159                  QLNOR19 (OUNC)                     
127   13043130                  QLNOR19 (OUNC)                     
128   13043148                  QLNOR19 (OUNC)                     
129   13043157                  QLNOR19 (OUNC)                     
130   13043088                  QLNOR22 (OUNC)                     
131   13043003                  QLNOR22 (OUNC)                     
132   13043245                  QLNOR26 (OUNC)                     
133   13043246                  QLNOR14 (OUNC)                     
134   13043241                  QLNOR14 (OUNC)                     
135   13043229                  QLNOR17 (OUNC)                     
136   13043235                  QLNOR17 (OUNC)                     
137   13043234                  QLNOR17 (OUNC)                     
138   13043240                  QLNOR12 (OUNC)                     
139   13043253                  QLNOR26 (OUNC)                     
140   13043262                  QLNOR13 (OUNC)                     
141   13043259                  QLNOR26 (OUNC)                     
142   13043162                  QLNOR17 (OUNC)                     
143   13043284                  QLNOR01 (OUNC)                     
144   13043248                  QLNOR23 (OUNC)                     
145   13043261                  QLNOR17 (OUNC)                     
146   13043258                  QLNOR14 (OUNC)                     
147   13043264                  QLNOR17 (OUNC)                     
148   13043274                  QLNOR17 (OUNC)                     
149   13043268                  QLNOR01 (OUNC)                     
150   13043214                  QLNOR01 (OUNC)                     
151   13043254                  QLNOR08 (OUNC)                     
152   13043277                  QLNOR23 (OUNC)                     
153   13042964                  QLNOR23 (OUNC)                     
154   13043243                  QLNOR05 (OUNC)                     
155   13043144                  QLNOR06 (OUNC)                     
156   13043251                  QLNOR08 (OUNC)                     
157   13043250                  QLNOR08 (OUNC)                     
158   13043289                  QLNOR15 (OUNC)                     
159   13043296                  QLNOR15 (OUNC)                     
160   13043294                  QLNOR15 (OUNC)                     
161   13043256                  QLNOR15 (OUNC)                     
162   13043286                  QLNOR15 (OUNC)                     
163   13043292                  QLNOR14 (OUNC)                     
164   13043282                  QLNOR14 (OUNC)                     
165   13043275                  QLNOR17 (OUNC)                     
166   13043279                  QLNOR17 (OUNC)                     
167   13043281                  QLNOR17 (OUNC)                     
168   13043285                  QLNOR25 (OUNC)                     
169   13043293                  QLNOR25 (OUNC)                     
170   13043239                  QLNOR26 (OUNC)                     
171   13043301                  QLNOR24 (OUNC)                     
172   13043299                  QLNOR24 (OUNC)                     
173   13043303                  QLNOR17 (OUNC)                     
174   13043304                  QLNOR17 (OUNC)                     
175   13043329                  QLNOR17 (OUNC)                     
176   13043326                  QLNOR28 (OUNC)                     
177   13043354                  QLNOR08 (OUNC)                     
178   13043355                  QLNOR15 (OUNC)                     
179   13043370                  QLNOR15 (OUNC)                     
180   13043302                  QLNOR01 (OUNC)                     
181   13043315                  QLNOR01 (OUNC)                     
182   13043338                  QLNOR23 (OUNC)                     
183   13043310                  QLNOR07 (OUNC)                     
184   13043317                  QLNOR07 (OUNC)                     
185   13043265                  QLNOR08 (OUNC)                     
186   13043373                  QLNOR08 (OUNC)                     
187   13043353                  QLNOR26 (OUNC)                     
188   13043383                  QLNOR26 (OUNC)                     
189   13043350                  QLNOR26 (OUNC)                     
190   13043312                  QLNOR26 (OUNC)                     
191   13043325                  QLNOR11 (OUNC)                     
192   13043365                  QLNOR11 (OUNC)                     
193   13043308                  QLNOR12 (OUNC)                     
194   13043357                  QLNOR12 (OUNC)                     
195   13043360                  QLNOR12 (OUNC)                     
196   13043367                  QLNOR12 (OUNC)                     
197   13043371                  QLNOR13 (OUNC)                     
198   13043404                  QLNOR13 (OUNC)                     
199   13043314                  QLNOR15 (OUNC)                     
200   13043252                  QLNOR15 (OUNC)                     
201   13043401                  QLNOR15 (OUNC)                     
202   13043403                  QLNOR15 (OUNC)                     
203   13043397                  QLNOR15 (OUNC)                     
204   13043377                  QLNOR14 (OUNC)                     
205   13043335                  QLNOR14 (OUNC)                     
206   13043344                  QLNOR14 (OUNC)                     
207   13043341                  QLNOR14 (OUNC)                     
208   13043337                  QLNOR14 (OUNC)                     
209   13043361                  QLNOR14 (OUNC)                     
210   13043345                  QLNOR14 (OUNC)                     
211   13043356                  QLNOR14 (OUNC)                     
212   13043339                  QLNOR14 (OUNC)                     
213   13043288                  QLNOR14 (OUNC)                     
214   13043342                  QLNOR14 (OUNC)                     
215   13043320                  QLNOR14 (OUNC)                     
216   13043376                  QLNOR17 (OUNC)                     
217   13043368                  QLNOR17 (OUNC)                     
218   13043366                  QLNOR17 (OUNC)                     
219   13043374                  QLNOR17 (OUNC)                     
220   13043349                  QLNOR17 (OUNC)                     
221   13043382                  QLNOR17 (OUNC)                     
222   13043352                  QLNOR17 (OUNC)                     
223   13043364                  QLNOR17 (OUNC)                     
224   13043358                  QLNOR17 (OUNC)                     
225   13043324                  QLNOR17 (OUNC)                     
226   13043346                  QLNOR17 (OUNC)                     
227   13043316                  QLNOR17 (OUNC)                     
228   13043313                  QLNOR17 (OUNC)                     
229   13043276                  QLNOR17 (OUNC)                     
230   13043384                  QLNOR17 (OUNC)                     
231   13043359                  QLNOR25 (OUNC)                     
232   13043305                  QLNOR25 (OUNC)                     
233   13043333                  QLNOR19 (OUNC)                     
234   13043435                  QLNOR14 (OUNC)                     
235   13043443                  QLNOR23 (OUNC)                     
236   13043438                  QLNOR26 (OUNC)                     
237   13043441                  QLNOR14 (OUNC)                     
238   13043449                  QLNOR13 (OUNC)                     
239   13043398                  QLNOR26 (OUNC)                     
240   13043375                  QLNOR23 (OUNC)                     
241   13043410                  QLNOR15 (OUNC)                     
242   13043385                  QLNOR07 (OUNC)                     
243   13043421                  QLNOR17 (OUNC)                     
244   13043419                  QLNOR14 (OUNC)                     
245   13043416                  QLNOR02 (OUNC)                     
246   13043446                  QLNOR04 (OUNC)                     
247   13043434                  QLNOR04 (OUNC)                     
248   13043442                  QLNOR04 (OUNC)                     
249   13043406                  QLNOR08 (OUNC)                     
250   13043414                  QLNOR01 (OUNC)                     
251   13043405                  QLNOR23 (OUNC)                     
252   13043451                  QLNOR23 (OUNC)                     
253   13043457                  QLNOR23 (OUNC)                     
254   13043455                  QLNOR23 (OUNC)                     
255   13043394                  QLNOR23 (OUNC)                     
256   13043427                  QLNOR23 (OUNC)                     
257   13043418                  QLNOR23 (OUNC)                     
258   13043429                  QLNOR23 (OUNC)                     
259   13043423                  QLNOR07 (OUNC)                     
260   13043472                  QLNOR08 (OUNC)                     
261   13043448                  QLNOR26 (OUNC)                     
262   13043431                  QLNOR26 (OUNC)                     
263   13043453                  QLNOR26 (OUNC)                     
264   13043295                  QLNOR26 (OUNC)                     
265   13043444                  QLNOR12 (OUNC)                     
266   13043459                  QLNOR15 (OUNC)                     
267   13043447                  QLNOR15 (OUNC)                     
268   13043439                  QLNOR14 (OUNC)                     
269   13043426                  QLNOR14 (OUNC)                     
270   13043437                  QLNOR14 (OUNC)                     
271   13043493                  QLNOR14 (OUNC)                     
272   13043470                  QLNOR14 (OUNC)                     
273   13043433                  QLNOR17 (OUNC)                     
274   13043409                  QLNOR17 (OUNC)                     
275   13043461                  QLNOR17 (OUNC)                     
276   13043460                  QLNOR17 (OUNC)                     
277   13043468                  QLNOR17 (OUNC)                     
278   13043430                  QLNOR17 (OUNC)                     
279   13043452                  QLNOR17 (OUNC)                     
280   13043436                  QLNOR17 (OUNC)                     
281   13043428                  QLNOR17 (OUNC)                     
282   13043467                  QLNOR17 (OUNC)                     
283   13043471                  QLNOR17 (OUNC)                     
284   13043480                  QLNOR17 (OUNC)                     
285   13043458                  QLNOR25 (OUNC)                     
286   13043481                  QLNOR25 (OUNC)                     
287   13043474                  QLNOR08 (OUNC)                     
288   13043462                  QLNOR08 (OUNC)                     
289   13043486                  QLNOR17 (OUNC)                     
290   13043490                  QLNOR17 (OUNC)                     
291   13043498                  QLNOR14 (OUNC)                     
292   13043484                  QLNOR26 (OUNC)                     
293   13043483                  QLNOR15 (OUNC)                     
294   13043503                  QLNOR15 (OUNC)                     
295   13043476                  QLNOR14 (OUNC)                     
296   13043488                  QLNOR14 (OUNC)                     
297   13043477                  QLNOR14 (OUNC)                     
298   13043501                  QLNOR16 (OUNC)                     
299   13043511                  QLNOR17 (OUNC)                     
300   13043516                  QLNOR17 (OUNC)                     
301   13043514                  QLNOR26 (OUNC)                     
302   13043363                  QLNOR14 (OUNC)                     
303   13043506                  QLNOR17 (OUNC)                     
304   13043512                  QLNOR17 (OUNC)                     
305   13043332                  QLNOR23 (OUNC)                     
306   13043563                  QLNOR17 (OUNC)                     
307   13043647                  QLNOR14 (OUNC)                     
308   13043670                  QLNOR23 (OUNC)                     
309   13043591                  QLNOR23 (OUNC)                     
310   13043592                  QLNOR23 (OUNC)                     
311   13043590                  QLNOR23 (OUNC)                     
312   13043593                  QLNOR23 (OUNC)                     
313   13043601                  QLNOR24 (OUNC)                     
314   13043566                  QLNOR14 (OUNC)                     
315   13043530                  QLNOR02 (OUNC)                     
316   13043526                  QLNOR23 (OUNC)                     
317   13043495                  QLNOR05 (OUNC)                     
318   13043520                  QLNOR15 (OUNC)                     
319   13043532                  QLNOR16 (OUNC)                     
320   13043537                  QLNOR17 (OUNC)                     
321   13043531                  QLNOR17 (OUNC)                     
322   13043523                  QLNOR17 (OUNC)                     
323   13043522                  QLNOR17 (OUNC)                     
324   13043529                  QLNOR17 (OUNC)                     
325   13043504                  QLNOR23 (OUNC)                     
326   13043547                  QLNOR23 (OUNC)                     
327   13043502                  QLNOR23 (OUNC)                     
328   13043561                  QLNOR23 (OUNC)                     
329   13043545                  QLNOR08 (OUNC)                     
330   13043500                  QLNOR08 (OUNC)                     
331   13043515                  QLNOR12 (OUNC)                     
332   13043551                  QLNOR15 (OUNC)                     
333   13043540                  QLNOR14 (OUNC)                     
334   13043544                  QLNOR14 (OUNC)                     
335   13043536                  QLNOR17 (OUNC)                     
336   13043542                  QLNOR17 (OUNC)                     
337   13043571                  QLNOR23 (OUNC)                     
338   13043519                  QLNOR07 (OUNC)                     
339   13043539                  QLNOR07 (OUNC)                     
340   13043549                  QLNOR08 (OUNC)                     
341   13043595                  QLNOR23 (OUNC)                     
342   13043548                  QLNOR04 (OUNC)                     
343   13043558                  QLNOR04 (OUNC)                     
344   13043567                  QLNOR04 (OUNC)                     
345   13043568                  QLNOR15 (OUNC)                     
346   13043583                  QLNOR15 (OUNC)                     
347   13043554                  QLNOR14 (OUNC)                     
348   13043576                  QLNOR17 (OUNC)                     
349   13043578                  QLNOR17 (OUNC)                     
350   13043606                  QLNOR17 (OUNC)                     
351   13043579                  QLNOR17 (OUNC)                     
352   13043581                  QLNOR22 (OUNC)                     
353   13043703                  QLNOR17 (OUNC)                     
354   13043709                  QLNOR15 (OUNC)                     
355   13043736                  QLNOR25 (OUNC)                     
356   13043739                  QLNOR25 (OUNC)                     
357   13043742                  QLNOR25 (OUNC)                     
358   13043599                  QLNOR23 (OUNC)                     
359   13043611                  QLNOR23 (OUNC)                     
360   13043550                  QLNOR04 (OUNC)                     
361   13043569                  QLNOR04 (OUNC)                     
362   13043616                  QLNOR05 (OUNC)                     
363   13043620                  QLNOR23 (OUNC)                     
364   13043612                  QLNOR23 (OUNC)                     
365   13043577                  QLNOR26 (OUNC)                     
366   13043598                  QLNOR15 (OUNC)                     
367   13043603                  QLNOR15 (OUNC)                     
368   13043621                  QLNOR15 (OUNC)                     
369   13043629                  QLNOR15 (OUNC)                     
370   13043631                  QLNOR17 (OUNC)                     
371   13043643                  QLNOR23 (OUNC)                     
372   13043641                  QLNOR17 (OUNC)                     
373   13043646                  QLNOR17 (OUNC)                     
374   13043654                  QLNOR28 (OUNC)                     
375   13043655                  QLNOR17 (OUNC)                     
376   13043651                  QLNOR17 (OUNC)                     
377   13043656                  QLNOR17 (OUNC)                     
378   13043650                  QLNOR17 (OUNC)                     
379   13043666                  QLNOR23 (OUNC)                     
380   13043676                  QLNOR23 (OUNC)                     
381   13043659                  QLNOR15 (OUNC)                     
382   13043632                  QLNOR15 (OUNC)                     
383   13043633                  QLNOR15 (OUNC)                     
384   13043683                  QLNOR06 (OUNC)                     
385   13043635                  QLNOR07 (OUNC)                     
386   13043675                  QLNOR26 (OUNC)                     
387   13043673                  QLNOR15 (OUNC)                     
388   13043627                  QLNOR14 (OUNC)                     
389   13043649                  QLNOR19 (OUNC)                     
390   13043684                  QLNOR14 (OUNC)                     
391   13043686                  QLNOR14 (OUNC)                     
392   13043690                  QLNOR14 (OUNC)                     
393   13043692                  QLNOR17 (OUNC)                     
394   13043664                  QLNOR26 (OUNC)                     
395   13043669                  QLNOR26 (OUNC)                     
396   13043682                  QLNOR27 (OUNC)                     
397   13043691                  QLNOR17 (OUNC)                     
398   13043695                  QLNOR01 (OUNC)                     
399   13043702                  QLNOR23 (OUNC)                     
400   13043697                  QLNOR23 (OUNC)                     
401   13043699                  QLNOR15 (OUNC)                     
402   13043689                  QLNOR14 (OUNC)                     
403   13043708                  QLNOR14 (OUNC)                     
404   13043677                  QLNOR23 (OUNC)                     
405   13043725                  QLNOR23 (OUNC)                     
406   13043658                  QLNOR04 (OUNC)                     
407   13043704                  QLNOR07 (OUNC)                     
408   13043693                  QLNOR14 (OUNC)                     
409   13043711                  QLNOR17 (OUNC)                     
410   13043722                  QLNOR22 (OUNC)                     
411   13043705                  QLNOR23 (OUNC)                     
412   13043723                  QLNOR12 (OUNC)                     
413   13043724                  QLNOR27 (OUNC)                     
414   13043732                  QLNOR14 (OUNC)                     
415   13043728                  QLNOR14 (OUNC)                     
416   13043726                  QLNOR19 (OUNC)                     
417   13043740                  QLNOR04 (OUNC)                     
418   13043754                  QLNOR04 (OUNC)                     
419   13043753                  QLNOR26 (OUNC)                     
420   13043752                  QLNOR23 (OUNC)                     
421   13043743                  QLNOR08 (OUNC)                     
422   13043745                  QLNOR15 (OUNC)                     
423   13043751                  QLNOR15 (OUNC)                     
424   13043729                  QLNOR14 (OUNC)                     
425   13043738                  QLNOR17 (OUNC)                     
426   13043746                  QLNOR17 (OUNC)                     
427   13043741                  QLNOR17 (OUNC)                     
428   13043763                  QLNOR07 (OUNC)                     
429   13043757                  QLNOR07 (OUNC)                     
430   13043766                  QLNOR17 (OUNC)                     
431   13043761                  QLNOR17 (OUNC)                     
432   13043747                  QLNOR17 (OUNC)                     
433   13043770                  QLNOR23 (OUNC)                     
434   13043771                  QLNOR15 (OUNC)                     
435   13043772                  QLNOR23 (OUNC)                     
436   13043774                  QLNOR26 (OUNC)                     

Total Items Sent: 436
