
BEC03  *EOD* NCOCc 06/28/10 00:03:22

***************************************************************************
* Summary for 06/27/10 - BEC03                                            *
***************************************************************************


Total: 0
