
BEC03  *EOD* NCOCc 06/21/10 00:04:41

***************************************************************************
* Summary for 06/20/10 - BEC03                                            *
***************************************************************************


Total: 0
