
BEC03  *EOD* NCOCc 06/27/10 00:00:35

***************************************************************************
* Summary for 06/26/10 - BEC03                                            *
***************************************************************************


Total: 0
