
BEC03  *EOD* NCOCc 06/25/10 00:00:40

***************************************************************************
* Summary for 06/24/10 - BEC03                                            *
***************************************************************************


Total: 0
