
BEC03  *EOD* NCOCc 06/23/10 00:02:34

***************************************************************************
* Summary for 06/22/10 - BEC03                                            *
***************************************************************************


Total: 0
