
BEC03  *EOD* NCOCa 06/25/10 00:05:44

***************************************************************************
* Summary for 06/24/10 - BEC03                                            *
***************************************************************************

00001 A101751841-00A 15:01

Total: 1
