
<!DOCTYPE html PUBLIC "-//W3C//DTD XHTML 1.0 Transitional//EN"
        "http://www.w3.org/TR/xhtml1/DTD/xhtml1-transitional.dtd">
<html xmlns="http://www.w3.org/1999/xhtml">
        <head>

                <title>Newsletter</title>
                <meta http-equiv="Content-Type" content="text/html; charset=utf-8"/>

        </head>
        <body style="font-family: Helvetica Neue, Helvetica, Arial, sans-serif; font-size: 12px; margin:0px; padding:0px; background-color: #fff; color: #000;"  LINK="#000000" VLINK="#000000" ALINK="#000000" bgcolor="#ffffff"><CENTER><FONT SIZE="1" COLOR="#000000" FACE="ARIAL">If you are unable to see the message below, <A href="http://quga.doqwulem.cn/?opj=71D648&wia=71d648ec8e2">click here to view</A>.</FONT><font face="ARIAL" color="#808080" size="2"><br></font></CENTER>

<div align="center">
	<br /><br />
	<a href="http://tara.doqwulem.cn/?un=71D648&jw=71d648ec8e2" target="_top">
	<img alt="No pics? Press here to enable it" src="http://fyla.doqwulem.cn/spacer.gif" border="0" /></a><br />
	<br /><br />
        <div style="text-align:center;padding-top:5px;clear:both;color:#666666">
<p>Don't want to receive our newsletters any more? <a name="OptOut" href="http://yxefif.doqwulem.cn/?sys=71D648&orq=71d648ec8e2"  style="color:#000;">Follow this link to opt-out</a><br />

Copyright &copy; 2009 Yaron Inc. All rights reserved.<br />
Mjke, Inc., 408 Kizigu Ave, Ekjw 40, Hotyr Jugj, LC 42598</p>
        </div>

</div>

<br /><br />

</body></html>