
                                                                                     
 PBTMDO 00058 USAN 06/15/09 08:50:29 0175100 NORMAL NOTICE                           
                                                                                     
 Message Number: 0175100 Received by USAN at 08:44 on 06/15/09 by AMC                
                                                                                     
 Work Begins:    06/17/09 at 09:00   Notice: 020 hrs      Priority: 2                
                                                                                     
 Expires: 07/13/09 at 17:00   Update By: 07/09/09 at 16:59                           
                                                                                     
 Caller:         DANIEL IBRAHIMI                                                     
 Company:        FENCE BUILDERS                                                      
 Address:        2406 KENNINGHAM RD                                                  
 City:           LE GRAND                      State: CA Zip: 95333                  
 Business Tel:   209-564-1682                  Fax: 209-384-0869                     
 Email Address:  FENCEBUILDERS@SBCGLOBAL.NET                                         
                                                                                     
 Nature of Work: VERTICAL BORING TO INST FENCE POST HOLES                            
 Done for:       P/O LUCAS                     Explosives: N                         
 Foreman:        CALLER                                                              
 Field Tel:                                    Cell Tel: 209-564-1682                
 Area Premarked: Y   Premark Method: WHITE PAINT                                     
 Permit Type:    NO                                                                  
 Vac / Pwr Equip Use In The Approx Location Of Member Facilities Requested: N        
 Excavation Enters Into Street Or Sidewalk Area: Y                                   
                                                                                     
 Location:                                                                           
 Street Address:         19738 AUGUST AVE                                            
   Cross Street:         LANDER AVE                                                  
     WRK IN FRT, BK & SI/O THE PROP (EXT APP 700'INTO PROP)                          
                                                                                     
 Place: HILMAR, CO AREA              County: MERCED               State: CA          
                                                                                     
 Long/Lat Long: -120.863029 Lat:  37.41476  Long: -120.826352 Lat:  37.422653        
                                                                                     
 Comments:                                                                           
 TO ALL: CUST REQUESTS A CALL AFTER SITE IS MARKED THANK YOU                         
                                                                                     
                                                                                     
 Sent to:                                                                            
 CHATVR = CHARTER COMM - TURLOCK       HCOWTR = HILMAR COUNTY WATER DIST             
 PBTMDO = PACIFIC BELL MODESTO         PGEMDO = PGE DISTR MODESTO                    
 TURIRR = TURLOCK IRRIG DIST                                                         
                                                                                     
                                                                                     
 At&t Ticket Id: 21807750     clli code:   TRLCCA11                                  
                                                                                     
                                                                                     
                                                                                     
                                                                                     
                                                                                     
                                                                                     
                                                                                     
                                                                                     
                                                                                     
                                                                                     
                                                                                     
                                                                                     
                                                                                     
                                                                                     
                                                                                     
                                                                                     
                                                                                     
                                                                                     
                                                                                     
                                                                                     
                                                                                     
                                                                                     
                                                                                     
                                                                                     
                                                                                     
                                                                                     
                                                                                     
                                                                                     
                                                                                     
                                                                                     
                                                                                     
                                                                                     
                                                                                     
                                                                                     
                                                                                     
                                                                                     
                                                                                     
                                                                                     
                                                                                     
                                                                                     
                                                                                     
                                                                                     
                                                                                     
                                                                                     
                                                                                     
Pf