
ATTD28SD 00225A USAS 04/03/12 14:53:25 A20941021-00A NORM NEW GRID

Ticket : A20941021  Date: 04/03/12 Time: 14:37 Oper: CJD Chan: 100
Old Tkt: A20941021  Date: 04/03/12 Time: 14:53 Oper: CJD Revision: 00A

Company: DIVERSIFIED UTILITIES          Caller: ANDREW SMOOT
Co Addr: 3052 CLAIREMONT DR
City&St: SAN DIEGO, CA                  Zip: 92117      Fax: 619-275-6011
Phone: 619-275-6004 Ext:      Call back: 6AM-6PM
Formn: ANDREW SMOOT         Phone: 858-349-7394
Email: DUSI.ANDREWSMOOT@GMAIL.COM

State: CA County: SAN DIEGO       Place: LAKESIDE
Delineated: Y
Delineated Method: STAKES,WHITEPAINT
Address: 1900        Street:AKUUNYAA WAY
X/ST 1 : BARONA RD
MPM 1:             MPM 2:
Locat: LOC AT APPROX 100FT N/W OF POLE # T248392 , LOCATED IN THE REAR OF PROP
     : APPROX 200FT N/E OF AKUUNYAA WAY ...**AKUUNYAA WAY NOT SHOWN ON MAP, LOC
     : ON THE N/W SIDE OF BARONA RD AT APPROX 2640FT S/W OF FEATHERSTONE CANYON
     : RD, THEN CONT N/W ON AKUUNYAA WAY FOR APPROX 1320FT TO PROP ADDRESS **

Excav Enters Into St/Sidewalk: N

Grids: 1192J052     1193A051
Lat/Long  : 32.948634/-116.850585 32.948176/-116.849807
          : 32.947958/-116.850984 32.947499/-116.850206
Caller GPS:

Boring: N  Explosives: N  Vacuum: N
Re-Mark: N

Work : INSTALL NEW UTIL POLE
Wkend: N  Night: N
Work date: 04/05/12 Time: 14:37 Hrs notc: 048 Work hrs: 048 Priority: 2
Instruct : MARK BY                        Permit: NOT REQUIRED
Done for : SDG&E

Tkt Exp: 05/01/12

Mbrs : ATTD28SD      SDG01

At&t Ticket Id: 25146119   clli code: LKSDCA12