
BYER04     00189 ALOC 04/27/11 15:35:45 111171041 NORMAL NOGRID

=========//  ALOC LOCATE REQUEST  //=========

TICKET NUMBER--[111171041] 
OLD TICKET NUM-[]

MESSAGE TYPE---[NORMAL] LEAD TIME--[48]
PREPARED-------[04/27/11]  AT  [1532]  BY  [KBERRY]

CONTRACTOR--[GULF COAST TRAFFIC ENGINEERS INC]   CALLER--[DONNA EVANS]
ADDRESS-----[8203 KIPLING ST]
CITY--------[PENSACOLA]   STATE--[FL]   ZIP--[32514]
CALL BACK---[(850) 478-7066]   PHONE--[(850) 478-7066]
CONTACT-----[DONNA EVANS]   PHONE--[(850) 478-7066]
CONTACT FAX-[]

WORK TO BEGIN--[04/29/11] AT [1545]      STATE--[AL]
COUNTY---[BALDWIN]  PLACE--[BAY MINETTE]

ADDRESS--[]   STREET--[][I-65][][]
NEAREST INTERSECTION--------[HWY 43 AND HWY 225]
LATITUDE--[30.9434292460981]    LONGITUDE--[-87.8955988406609]
SECONDARY LATITUDE--[30.938539454111]    SECONDARY LONGITUDE--[-87.8790734852591]

ADDITIONAL ADDRESSES IN LOCATION--[N]

LOCATION INFORMATION--
[THIS IS 9 OF 12 TICKETS COVERING 9TH MILE -- BEGINNING FROM HWY 43 IN MOBILE  ]
[COUNTY - TRAVEL EAST ON I-65 FOR 10 MILES - AT THAT POINT -- LOCATE ALONG I-65]
[FROM R-O-W TO R-O-W - INCLUDING THE MEDIAN FOR 1 MILE TO THE EAST - LOCATIONS ]
[ARE MARKED IN WHITE PAINT - ***** NOTE: WILL BE INSTALLING SIGNS ON I-65 EVERY]
[1/2 MILE STARTING AT HWY 43 (IN MOBILE COUNTY) TRAVELING EAST FOR APPROX 12   ]
[MILES TO HWY 225 (IN BALDWIN COUNTY) - ALL LOCATIONS WILL BE MARKED IN WHITE  ]
[PAINT *****                                                                   ]


WORK TYPE--[SIGNS, INSTL]  DONE FOR--[GULF COAST TRAFFIC ENGINEERS INC]
EXTENT-----[]

EXPLOSIVES--[N]    WHITE PAINT--[Y]    AT INTERSECTION--[N]

SUBDIVISION--[]
GRIDS-----
          [                 ]

UTILITIES NOTIFIED--
  CODE       NAME                         CODE       NAME                      
  ---------- --------------------------   ---------- --------------------------
  BEMC01     BALDWIN COUNTY EMC           ENTP01     ENTERPRISE PRODUCTS OPE...
  NBUT01     NORTH BALDWIN UTILITIES      SCMB01     ATT/D - MOBILE - (334) ...

