
BYER04     00202 ALOC 04/27/11 16:27:45 111171082 NORMAL NOGRID

=========//  ALOC LOCATE REQUEST  //=========

TICKET NUMBER--[111171082] 
OLD TICKET NUM-[]

MESSAGE TYPE---[NORMAL] LEAD TIME--[48]
PREPARED-------[04/27/11]  AT  [1626]  BY  [KSTARKS]

CONTRACTOR--[COTTAGE HILL PLUMBING COMPANY]   CALLER--[JIMMY WHITEHEAD]
ADDRESS-----[PO BOX 9156]
CITY--------[MOBILE]   STATE--[AL]   ZIP--[36691-]
CALL BACK---[]   PHONE--[(251) 666-4063]
CONTACT-----[JIMMY WHITEHEAD]   PHONE--[(251) 666-4063]
CONTACT FAX-[ ]

WORK TO BEGIN--[04/29/11] AT [1630]      STATE--[AL]
COUNTY---[MOBILE]  PLACE--[MOBILE]

ADDRESS--[3857]   STREET--[][SAN JUAN][DR][]
NEAREST INTERSECTION--------[PLEASANT VALLEY RD & CASTILE DR]
LATITUDE--[30.6601626278027]    LONGITUDE--[-88.1464209011617]
SECONDARY LATITUDE--[0]    SECONDARY LONGITUDE--[0]

ADDITIONAL ADDRESSES IN LOCATION--[N]

LOCATION INFORMATION--
[LOCATE THE FRONT YARD                                                         ]


WORK TYPE--[PLUMBING]  DONE FOR--[JOSETTA HAGGARD]
EXTENT-----[]

EXPLOSIVES--[N]    WHITE PAINT--[N]    AT INTERSECTION--[N]

SUBDIVISION--[]
GRIDS-----
          [                 ]

UTILITIES NOTIFIED--
  CODE       NAME                         CODE       NAME                      
  ---------- --------------------------   ---------- --------------------------
  APC5CL     ALABAMA POWER - MOBILE       CCMO01     COMCAST CABLEVISION OF ...
  MOBG01     MOBILE GAS SERVICE           MOBL01     MOBILE, CITY OF - 01      
  MOBL02     CITY OF MOBILE - 02          MOBW01     MOBILE WATER AND SEWER ...
  SCMB01     ATT/D - MOBILE - (334) ...   SLLC01     SOUTHERN LIGHT, LLC       

