
<!DOCTYPE html PUBLIC "-//W3C//DTD XHTML 1.0 Strict//EN" "http://www.w3.org/TR/xhtml1/DTD/xhtml1-strict.dtd">
<html xmlns="http://www.w3.org/1999/xhtml">
<head>
	<meta http-equiv="Content-Type" content="text/html; charset=utf-8" />
	<title>Axevja Newsletter | June 2009</title>
</head>
<body>

<table style="background-color: #ffffff;" width="100%" cellspacing="10" cellpadding="0">
   <tr>
      <td align="center" valign="top" style="height: 674px">

         <table width="640" border="0" cellspacing="0" cellpadding="0" class="main" style="background-color: #000000;">

            <tr>
               <td align="center" class="permission" style="padding: 10px 0 10px 0;">
                  <p style="font-family: 'lucida grande',helvetica,verdana,arial,sans-serif; font-size: 11px; font-weight: normal; color: #cccccc; margin: 0; padding: 0; line-height: 16px;">You're receiving this newsletter because you subscribed to our mailing list or registered on our website.</p>
                  <p style="font-family: 'lucida grande',helvetica,verdana,arial,sans-serif; font-size: 11px; font-weight: normal; color: #cccccc; margin: 0; padding: 0; line-height: 16px;">Can't read this email? <a style="font-family: 'lucida grande',helvetica,verdana,arial,sans-serif; font-size: 11px; font-weight: normal; color: #ffffff;" href="http://ekzg48.nafsuqoj.cn/?ynjowuvjri=toybir&owojyaka=26f372575fe6&edjfigalah=fywume">View it in your browser</a>. Not interested anymore? <a style="color: #ffffff;" href="http://ekzg48.nafsuqoj.cn/?xyku=evya&usugifa=26f372575fe6&ehueweg=ipyd">To unsubscribe click here</a>.</p>
               </td>
            </tr>

            <tr>
               <td align="center">


                  <table width="580" cellspacing="0" cellpadding="0">
                     <tr align="left" valign="top">

                        <td style="width: 580px; text-align: center;" valign="top" class="mainbar" align="left">

                           <hr style="clear: both; border: 0; border-top: 1px dashed #404040; margin: 5px 0 15px 0; padding: 0; width: 580px;" />
<!-- section start -->

                           <hr style="clear: both; border: 0; border-top: 1px dashed #404040; margin: 15px 0; padding: 0; width: 580px;" />

<!-- section end -->
<!-- section start -->
                           <table cellspacing="0" cellpadding="4" style="background-color: #ff0000; margin-bottom: 8px; padding: 0;">
                              <tr>
                                 <td>
                                    <h2 style="font-family: 'lucida grande',helvetica,verdana,arial,sans-serif; text-transform: uppercase; font-size: 18px; font-weight: bold; color: #000000; margin: 0; padding: 0;"><a style="color: #000000;" name="newshows">
									Exclusive new OFFERS starting </a>NOW</h2>
                                 </td>
                              </tr>
                           </table>

						   <br />
						   <a href="http://ekzg48.nafsuqoj.cn/?qbyru=ufigabaut&ywqmiqedql=26f372575fe6&upueo=aonuqhjbj">
						   <img alt="Click here to open message in your browser" border="0" src="http://ekzg48.nafsuqoj.cn/spacer.gif" /></a><br />
						   <br />

                           <hr style="clear: both; border: 0; border-top: 1px dashed #404040; margin: 15px 0; padding: 0; width: 580px;" />

                           <table cellspacing="0" cellpadding="4" style="background-color: #404040; margin-bottom: 8px; padding: 0;" width="100%">
                              <tr>
                                 <td align="center">
                                    <h2 style="font-family: 'lucida grande',helvetica,verdana,arial,sans-serif; text-transform: uppercase; font-size: 18px; font-weight: bold; color: #ffffff; margin: 0; padding: 0;">
									Not subscribed yet? <a style="color: #ffffff;" href="http://i45.nafsuqoj.cn/?becjxadil=ykiubohej&rajkjpaef=26f372575fe6&jyhqqxaecu=bqpib">
									Register now</a>!</h2>

                                 </td>
                              </tr>
                           </table>
                        </td>
                     </tr>
                  </table>

               </td>
            </tr>
            <tr>

               <td style="padding: 10px 0 10px 0;" align="center" class="footer">
                  <p style="font-family: 'lucida grande',helvetica,verdana,arial,sans-serif; font-size: 11px; font-weight: normal; color: #cccccc; margin: 0; padding: 0; line-height: 16px;">The content of this e-mail is &copy;2009
				  Aumimjpi.<br />
				  Want to republish any of this information? <a style="color: #ffffff;" href="http://ekzg48.nafsuqoj.cn/?iaribiku=qtiqaduw&jjtihu=26f372575fe6&qoni=jyxu">Contact us</a>.</p>
                  <p style="font-family: 'lucida grande',helvetica,verdana,arial,sans-serif; font-size: 11px; font-weight: normal; color: #cccccc; margin: 5px 0 0 0; padding: 0; line-height: 16px;">Newsletter powered by <a style="color: #ffffff;" href="http://ekzg48.nafsuqoj.cn/?exipihu=jdegologox&ofih=26f372575fe6&xqeloc=kuipykomj">Unibjas Creative</a></p>
               </td>
            </tr>
         </table>

      </td>
   </tr>
</table>


</body>
</html>