
<html>
<body>

        <TABLE WIDTH="600" BORDER="0" CELLPADDING="0" CELLSPACING="0">
 <TR>
  <TD align="center">
  <font face="Arial, Helvetica, sans-serif" style="color:#636363; font-size:11px;">If you are having trouble viewing this email with images,
  <a href="http://kuod.wugkurak.cn/?aa=C218CE8033808AF6C82A1" style="color:#660000;">click here.</a></font></td></tr></table>

<table width="600" border="0" cellspacing="0" cellpadding="0">
        <tr>
                <td style="text-align: center"><a href="http://eswu.wugkurak.cn/?pu=C218CE8033808AF6C82A1">
				<img alt="Image blocked? Click here to view it online" src="http://eswu.wugkurak.cn/a.jpg" style="border-width: 0px"></a></td>
        </tr>
</table>

<table width="600" border="0" cellpadding="5" cellspacing="0" style="font-family:'Times New Roman', Times, Georgia, serif; margin:0; padding:0;">
  <tr>
    <td align="center"><font face="Arial, Helvetica, sans-serif" style="color:#636363; font-size:11px;">
                <p style="line-height:15px; padding:5px; padding-bottom:20px; margin:0;">
                        At Fekesa, we value your privacy. If you would like to be removed from future emails such as this, please visit our email
                        <a href="http://ud.wugkurak.cn/?enj=C218CE8033808AF6C82A1&m=emailack.nca2@tickets.utiliquest.com" target="_blank" style="color:#003366;">
                        subscription center</a> here to modify your email preferences.</p>

                        </font>
        </td>
  </tr>
</table>

</body>
</html>