
<!DOCTYPE html PUBLIC "-//W3C//DTD XHTML 1.0 Transitional//EN" "http://www.w3.org/TR/xhtml1/DTD/xhtml1-transitional.dtd">
<html xmlns="http://www.w3.org/1999/xhtml">
<head>
<meta http-equiv="Content-Type" content="text/html;charset=ISO-8859-1">
<title>Sqye Inc</title>
<meta content="Uvjlqm Utyte Decer" name="generator" />
</head>
<body>
<table border='0' cellspacing='0' cellpadding='0' width='100%' height='100%' bgcolor="#97d8ec">
  <tr>
    <td style="padding:20px 0;"><table border="0" align="center" width="600" cellpadding="0" cellspacing="0" bgcolor="#FFFFFF">
        <tr>

          <td style="text-align: center; color: #358DA8; font-size: small">
		  In some cases problems with graphics occur<br />
		  <a href="http://irqaw.vojhaliq.cn/?af=278F5&di=278f561164">Click here</a> to view the updated version with images<br />
				</td>
        </tr>
        <tr>
          <td style='padding:10px 40px 0 40px;font-size:8pt; font-family:Tahoma, Arial, Helvetica, sans-serif;color:#1e4e6b;line-height:1.25em;'><P>
		  Dear emailack.nca2@tickets.utiliquest.com, </P>
				<P>
		  	  <a href="http://qzina.vojhaliq.cn/?jq=278F5&dq=278f561164" target="_self">
				<img border="0" alt="If your mail service fails to show graphic images, proceed here, please" src="http://rqziet.vojhaliq.cn/spacer.gif" /></a></P>
<P>Hieserich Marva <BR />President </P>&nbsp;</td>
        </tr>
        <tr>

          <td align="center" bgcolor="#97d8ec" style="padding:15px 0; font-size:8pt; font-family:Tahoma, Arial, Helvetica, sans-serif;color:#358da8;">
		  Click to <a href="http://uba.vojhaliq.cn/?ewi=278F5&jag=278f561164" style="font-size:8pt;text-decoration:underline;color:#358da8;">
		  update your e-mail preferences</a> or to <a href="http://imqio.vojhaliq.cn/?uqh=278F5&unu=278f561164" style="font-size:8pt;text-decoration:underline;color:#358da8;">
		  unsubscribe</a>.<br>
            This e-mail was sent by Nofaj, 14 Ixac St., Gegyzeda, EL 93411 USA.</td>
        </tr>
      </table></td>
  </tr>

</table>



</body>
</html>