
TOC        00001 TNOCS 01/30/03 14:55:00 325-5628 NON-COMPLIANT GRID 

========//  ALOCS LOCATE REQUEST  //========

TICKET NUMBER--[325-5628]  
OLD TICKET NUM-[]  

MESSAGE TYPE---[NON-COMPLIANT] LEAD TIME--[48]
PREPARED-------[11/21/02]  AT  [1036]  BY  [ADMINISTRATOR]

CONTRACTOR--[TEST COMPANY]   CALLER--[TERRY AUSTIN]
ADDRESS-----[123 MAIN ST]
CITY--------[NASHVILLE]   STATE--[TN]   ZIP--[37211]
CALL BACK---[8 - 5]   PHONE--[(615) 555-1212]
CONTACT-----[TERRY AUSTIN]   PHONE--[(615) 555-0001]
CONTACT FAX-[(615) 555-2221]

WORK TO BEGIN--[11/25/02] AT [1045]      STATE--[TN]
COUNTY---[WILLIAMSON]  PLACE--[BRENTWOOD]

ADDRESS--[120]   STREET--[][MAIN][ST][]
NEAREST INTERSECTION--------[2ND AVE S]
LATITUDE--[0]    LONGITUDE--[0]
SECONDARY LATITUDE--[0]    SECONDARY LONGITUDE--[0]

ADDITIONAL ADDRESSES IN LOCATION--[N]

LOCATION INFORMATION--
[MARK ENTIRE PROP " THIS IS REMARKS                                            ]

WORK TYPE--[FENCE (INVISIBLE FENCING), INSTL U/G]  DONE FOR--[TEST COMPANY]
EXTENT-----[EE]

EXPLOSIVES--[N]    WHITE PAINT--[N]    GRID GIVEN--[N]

MAP REF.--[]
GRIDS-----
          [82N              ] [82O              ] [93C              ] 
          [93B              ] 

UTILITIES NOTIFIED--
  CODE       NAME                         CODE       NAME                      
  ---------- --------------------------   ---------- --------------------------
  B01        BELLSOUTH - NASHVILLE        CP1        COLONIAL PIPELINE - NAS...
  ICG        ICG TELECOM GROUP, INC.      INTMC      INTERMEDIA - METRO CENTER 
  MPW        METRO PUBLIC WORKS           MWS        METRO WATER & SEWER       
  NES        NASHVILLE ELECTRIC SVC       NEX        NEXTLINK - NASHVILLE      
  NTT        NASHVILLE THERMAL TRANS...   NYG        NASHVILLE GAS             
  TCG        AT&T LOCAL SERVICES        






TEST01     00564 ALOC 01/31/03 13:52:00 0329-0002 NORMAL NOGRID 

=========//  ALOC LOCATE REQUEST  //=========

TICKET NUMBER--[0329-0002]  
OLD TICKET NUM-[]  

MESSAGE TYPE---[TEST] LEAD TIME--[48]
PREPARED-------[01/29/03]  AT  [0733]  BY  [JFIKES]

CONTRACTOR--[APC - TALLAPOOSA]   CALLER--[BERRY POWELL ]
ADDRESS-----[225 EAST LAFAYETTE ST]
CITY--------[DADEVILLE]   STATE--[AL]   ZIP--[36853----]
CALL BACK---[]   PHONE--[(256) 825-4431]
CONTACT-----[BERRY POWELL ]   PHONE--[(256) 825-4431]
CONTACT FAX-[ ]

WORK TO BEGIN--[01/31/03] AT [0745]      STATE--[AL]
COUNTY---[MONTGOMERY]  PLACE--[MONTGOMERY]

ADDRESS--[]   STREET--[][CARMICHEAL ][CT][]
NEAREST INTERSECTION--------[CARMICHEAL RD]
LATITUDE--[32.3579334981641]    LONGITUDE--[-86.2383409575744]
SECONDARY LATITUDE--[0]    SECONDARY LONGITUDE--[0]

ADDITIONAL ADDRESSES IN LOCATION--[N]

LOCATION INFORMATION--
[LOCATE AT THE CONSTRUCTION SITE -- ESPECIALLY AROUND THE 10FT EASEMENT ON     ]
[EITHER SIDE OF THE STREET                                                     ]

WORK TYPE--[TEST TICKET]  DONE FOR--[APC - TALLAPOOSA]
EXTENT-----[]

EXPLOSIVES--[N]    WHITE PAINT--[N]    AT INTERSECTION--[Y]

SUBDIVISION--[]
GRIDS-----
          [                 ] 

UTILITIES NOTIFIED--
  CODE       NAME                         CODE       NAME                      
  ---------- --------------------------   ---------- --------------------------
  AGMT01     ALABAMA GAS - MONTGOMERY     APC310     ALABAMA POWER - MONTGOMERY
  KNMT01     KNOLOGY OF MONTGOMERY        SCMY01     BELLSOUTH - MONTGOMERY    
  TCIM01     CHARTER COMMUNICATIONS ... 







TEST01     00565 ALOC 01/31/03 13:52:00 0329-0006 NORMAL NOGRID 

=========//  ALOC LOCATE REQUEST  //=========

TICKET NUMBER--[0329-0006]  
OLD TICKET NUM-[]  

MESSAGE TYPE---[TEST] LEAD TIME--[48]
PREPARED-------[01/29/03]  AT  [0814]  BY  [JFIKES]

CONTRACTOR--[COOKS PEST CONTROL]   CALLER--[ALLEN POWELL]
ADDRESS-----[2000 WENONAH OXMOOR RD]
CITY--------[BIRMINGHAM]   STATE--[AL]   ZIP--[35211-]
CALL BACK---[]   PHONE--[(205) 942-7775]
CONTACT-----[ALLEN POWELL]   PHONE--[(205) 942-7775]
CONTACT FAX-[ ]

WORK TO BEGIN--[01/31/03] AT [0815]      STATE--[AL]
COUNTY---[JEFFERSON]  PLACE--[HUEYTOWN]

ADDRESS--[2024]   STREET--[][POWERS][DR][]
NEAREST INTERSECTION--------[CHURCHVIEW WAY]
LATITUDE--[33.4168836505667]    LONGITUDE--[-87.041831599107]
SECONDARY LATITUDE--[0]    SECONDARY LONGITUDE--[0]

ADDITIONAL ADDRESSES IN LOCATION--[N]

LOCATION INFORMATION--
[LOCATE 10FT PERIMETER AROUND HOME -- OWNER DONNA DONALDSON -- LOCATE SOONER   ]
[THAN 48HRS                                                                    ]

WORK TYPE--[TEST TICKET]  DONE FOR--[COOKS PEST CONTROL]
EXTENT-----[]

EXPLOSIVES--[N]    WHITE PAINT--[N]    AT INTERSECTION--[N]

SUBDIVISION--[]
GRIDS-----
          [                 ] 

UTILITIES NOTIFIED--
  CODE       NAME                         CODE       NAME                      
  ---------- --------------------------   ---------- --------------------------
  AGBE01     ALABAMA GAS - BESSEMER       APC120     ALABAMA POWER - WEST JE...
  EROG01     ENERGEN RESOURCES - OAK...   SCBH01     BELLSOUTH - BIRMINGHAM    
  SNGB01     SOUTHERN NATURAL GAS - ... 







TEST01     00566 ALOC 01/31/03 13:52:00 0329-0007 NORMAL NOGRID 

=========//  ALOC LOCATE REQUEST  //=========

TICKET NUMBER--[0329-0007]  
OLD TICKET NUM-[]  

MESSAGE TYPE---[TEST] LEAD TIME--[48]
PREPARED-------[01/29/03]  AT  [0820]  BY  [JFIKES]

CONTRACTOR--[MCGIFFERT AND ASSOCIATES, LLC.]   CALLER--[JIMMY DUNCAN]
ADDRESS-----[2814 STILLMAN BLVD.]
CITY--------[TUSCALOOSA]   STATE--[AL]   ZIP--[3540205]
CALL BACK---[]   PHONE--[(205) 759-1521]
CONTACT-----[JIMMY DUNCAN]   PHONE--[(205) 759-1521]
CONTACT FAX-[(205) 759-1524]

WORK TO BEGIN--[01/31/03] AT [0830]      STATE--[AL]
COUNTY---[TUSCALOOSA]  PLACE--[TUSCALOOSA]

ADDRESS--[]   STREET--[][29TH][ST][]
NEAREST INTERSECTION--------[MARTIN LUTHER KING JR BLVD]
LATITUDE--[33.1866281062834]    LONGITUDE--[-87.5932028225964]
SECONDARY LATITUDE--[33.1858125512669]    SECONDARY
LONGITUDE--[-87.5772179442716]

ADDITIONAL ADDRESSES IN LOCATION--[N]

LOCATION INFORMATION--
[MARTIN LUTHER KING BLVD IS ON THE EAST AND FOSTERS FERRY RD IN ON THE WEST    ]
[-- LOCATE FROM FOSTERS FERRY TO MARTIN LUTHER KING JR BLVD ALONG 29TH ST ON   ]
[BOTH SIDES ON THE ROAD -- AND MARKING AT THE INTERSECTION OF BOTH ROADS       ]

WORK TYPE--[TEST TICKET]  DONE FOR--[MCGIFFERT AND ASSOCIATES, LLC.]
EXTENT-----[]

EXPLOSIVES--[N]    WHITE PAINT--[N]    AT INTERSECTION--[N]

SUBDIVISION--[]
GRIDS-----
          [                 ] 

UTILITIES NOTIFIED--
  CODE       NAME                         CODE       NAME                      
  ---------- --------------------------   ---------- --------------------------
  AGTU01     ALABAMA GAS - TUSCALOOSA     APC410     ALABAMA POWER - TUSCALOOSA
  ATTT01     AT&T                         CCTU01     COMCAST CABLEVISION OF ...
  CHTU01     CHARTER COMMUNICATIONS ...   EPFS01     EL PASO FIELD SERVICES    
  SCMY02     BELLSOUTH - MONTGOMERY ...   SNTU01     SOUTHERN NATURAL GAS - ...
  TDOT01     TUSCALOOSA DEPARTMENT O... 







TEST01     00567 ALOC 01/31/03 13:52:00 0329-0009 NORMAL NOGRID 

=========//  ALOC LOCATE REQUEST  //=========

TICKET NUMBER--[0329-0009]  
OLD TICKET NUM-[]  

MESSAGE TYPE---[TEST] LEAD TIME--[48]
PREPARED-------[01/29/03]  AT  [0858]  BY  [PWILSON]

CONTRACTOR--[DAVID MILES]   CALLER--[DAVID MILES]
ADDRESS-----[1520 3RD AVE W]
CITY--------[BIRMINGHAM]   STATE--[AL]   ZIP--[35215]
CALL BACK---[]   PHONE--[205-222-8316]
CONTACT-----[DAVID MILES]   PHONE--[205-222-8316]
CONTACT FAX-[]

WORK TO BEGIN--[01/31/03] AT [0900]      STATE--[AL]
COUNTY---[JEFFERSON]  PLACE--[BIRMINGHAM]

ADDRESS--[1520]   STREET--[][3RD ][AVE][W]
NEAREST INTERSECTION--------[15TH ST]
LATITUDE--[33.5047185859515]    LONGITUDE--[-86.8616058712477]
SECONDARY LATITUDE--[0]    SECONDARY LONGITUDE--[0]

ADDITIONAL ADDRESSES IN LOCATION--[N]

LOCATION INFORMATION--
[BETWEEN 15TH ST AND 16TH  ST ON THE N SIDE OF 3RD AVE W - LOCATE THE ENTIRE   ]
[PROPERTY AND BOTH SIDES OF THE RD                                             ]

WORK TYPE--[TEST TICKET]  DONE FOR--[DAVID MILES]
EXTENT-----[]

EXPLOSIVES--[N]    WHITE PAINT--[N]    AT INTERSECTION--[N]

SUBDIVISION--[]
GRIDS-----
          [                 ] 

UTILITIES NOTIFIED--
  CODE       NAME                         CODE       NAME                      
  ---------- --------------------------   ---------- --------------------------
  AGBH01     ALABAMA GAS - BIRMINGHAM     APC110     ALABAMA POWER - BIRMINGHAM
  ATTT01     AT&T                         BHWT01     BIRMINGHAM WATER WORKS ...
  SCBH01     BELLSOUTH - BIRMINGHAM     






