
TESTDC     1     AROCS 08/16/05 04:57:00 050816-0002 EMERGENCY NOGRID 

==============//  AOC TICKET  //==============

TICKET NUMBER--[050816-0002]   == E M E R G E N C Y ==
OLD TICKET NUM-[]  

MESSAGE TYPE---[EMERGENCY] LEAD TIME--[0]
PREPARED-------[08/16/05]  AT  [0457]  BY  [TNJDEIDIKER]

CONTRACTOR--[VAN BUREN WATER AND SEWER DEPT]   CALLER--[SKIP JACOBS]
ADDRESS-----[2806 BRYAN RD]
CITY--------[VAN BUREN]   STATE--[AR]   ZIP--[72956]
CALL BACK---[479-459-7605]   PHONE--[(479) 474-5067]
COMPANY FAX-[(479) 471-8969]
CONTACT-----[SKIP JACOBS]   PHONE--[(479) 474-5067]
EMAIL-------[]
CONTACT FAX-[(479) 471-8969]

WORK TO BEGIN--[08/16/05] AT [0600]      STATE--[AR]
COUNTY---[CRAWFORD]  PLACE--[VAN BUREN]

ADDRESS--[]   STREET--[S][12TH][ST][]
NEAREST INTERSECTION--------[OZIER ST]
LATITUDE--[35.4331176868077]    LONGITUDE--[-94.3470883134611]
SECONDARY LATITUDE--[0]    SECONDARY LONGITUDE--[0]

ADDITIONAL ADDRESSES IN LOCATION--[N]

LOCATION INFORMATION--
[**EMEGENCY DUE TO WATER MAIN REPAIR...CREW WILL BE ON SITE AT 6 A.M. ON       ]
[8/16/05**MARK THE SW CORNER OF INTER OF S 12TH ST AND OZIER ST...AREA WILL    ]
[BE MARKED IN WHITE...                                                         ]

WORK TYPE--[WATER, REPAIR MAIN]  DONE FOR--[VAN BUREN WATER AND SEWER DEPT]
EXTENT-----[4 HOURS]

EXPLOSIVES--[N]    WHITE PAINT--[Y]    GRID GIVEN--[N]
DIRECTIONAL BORING--[N]

MAP REF.--[]
GRIDS-----
          [                 ] 

UTILITIES NOTIFIED--
  CODE       NAME                         CODE       NAME                      
  ---------- --------------------------   ---------- --------------------------
  AOG        ARKANSAS OKLAHOMA GAS C...   CT90RLVL   CENTURYTEL OF RUSSELLVILLE
  OGE01      OG&E - FORT SMITH            SWBF05     SBC ARKANSAS - VAN BUREN  






TESTDC     12    AROCS 08/16/05 06:36:00 050816-0033 NORMAL NOGRID 

==============//  AOC TICKET  //==============

TICKET NUMBER--[050816-0033]  
OLD TICKET NUM-[]  

MESSAGE TYPE---[NORMAL] LEAD TIME--[20]
PREPARED-------[08/16/05]  AT  [0636]  BY  [DCLARKE]

CONTRACTOR--[CALIBER UNDERGROUND CONSTRUCTION, INC]   CALLER--[JOHN TYNER]
ADDRESS-----[PO BOX 2833]
CITY--------[WIMBERLEY]   STATE--[TX]   ZIP--[78676]
CALL BACK---[]   PHONE--[(512) 738-0076]
COMPANY FAX-[(870) 230-1195]
CONTACT-----[JOHN TYNER]   PHONE--[(512) 738-0076]
EMAIL-------[JMTYNER@COX-INTERNET.COM]
CONTACT FAX-[]

WORK TO BEGIN--[08/18/05] AT [0700]      STATE--[AR]
COUNTY---[CLARK]  PLACE--[ARKADELPHIA]

ADDRESS--[117]   STREET--[S][CLARK][ST][]
NEAREST INTERSECTION--------[CADDO ST]
LATITUDE--[34.1205719951565]    LONGITUDE--[-93.0687325362859]
SECONDARY LATITUDE--[0]    SECONDARY LONGITUDE--[0]

ADDITIONAL ADDRESSES IN LOCATION--[N]

LOCATION INFORMATION--
[LOCATE FRONT OF PROPERTY BOTH SIDES OF STREET                                 ]

WORK TYPE--[GAS, REPLACE SERVICE]  DONE FOR--[CENTER POINT ENEREGY]
EXTENT-----[1 DAY]

EXPLOSIVES--[N]    WHITE PAINT--[Y]    GRID GIVEN--[N]
DIRECTIONAL BORING--[Y]

MAP REF.--[]
GRIDS-----
          [                 ] 

UTILITIES NOTIFIED--
  CODE       NAME                         CODE       NAME                      
  ---------- --------------------------   ---------- --------------------------
  ARKADELP   ARKADELPHIA WATER & SEW...   ARKSCHO    ARKADELPHIA PUBLIC SCHOOLS
  REARC019   CENTERPOINT ENERGY ARKL...   SWBH03     SBC ARKANSAS - ARKADELPHIA






TESTDC     25    AROCS 08/16/05 09:14:00 050816-0280 EMERGENCY NOGRID 

==============//  AOC TICKET  //==============

TICKET NUMBER--[050816-0280]   == E M E R G E N C Y ==
OLD TICKET NUM-[]  

MESSAGE TYPE---[EMERGENCY] LEAD TIME--[7]
PREPARED-------[08/16/05]  AT  [0914]  BY  [MMACE]

CONTRACTOR--[CENTRAL ARKANSAS WATER]   CALLER--[DEBORAH RICE]
ADDRESS-----[5300 S SHACKLEFORD RD]
CITY--------[LITTLE ROCK]   STATE--[AR]   ZIP--[72204]
CALL BACK---[SAME]   PHONE--[(501) 223-1550]
COMPANY FAX-[(501) 221-7723]
CONTACT-----[DEBORAH RICE]   PHONE--[(501) 223-1550]
EMAIL-------[DEBORAH.RICE@CARKW.COM]
CONTACT FAX-[(501) 221-7723]

WORK TO BEGIN--[08/17/05] AT [0700]      STATE--[AR]
COUNTY---[PULASKI]  PLACE--[LITTLE ROCK]

ADDRESS--[5500]   STREET--[][PATTERSON][RD][]
NEAREST INTERSECTION--------[BALLINGER RD]
LATITUDE--[34.699616663046]    LONGITUDE--[-92.3260578480308]
SECONDARY LATITUDE--[34.6898912866048]    SECONDARY LONGITUDE--[-92.3251270364242]

ADDITIONAL ADDRESSES IN LOCATION--[N]

LOCATION INFORMATION--
[FRONT OF PPTY AND BOTH SIDES OF ST                                            ]
[                                                                              ]
[EMERGENCY - CREW WILL BE ON SITE 8/17 7AM                                     ]

WORK TYPE--[WATER, REPLACE SERVICE]  DONE FOR--[CENTRAL ARKANSAS WATER]
EXTENT-----[5 HRS]

EXPLOSIVES--[N]    WHITE PAINT--[Y]    GRID GIVEN--[N]
DIRECTIONAL BORING--[N]

MAP REF.--[]
GRIDS-----
          [                 ] 

UTILITIES NOTIFIED--
  CODE       NAME                         CODE       NAME                      
  ---------- --------------------------   ---------- --------------------------
  ENT20B     ENTERGY - LITTLE ROCK        LEVEL      LEVEL 3 COMMUNICATIONS    
  LRTRAF     LITTLE ROCK TRAFFIC          MCI        MCI                       
  REARC119   CENTERPOINT ENERGY ARKL...   SWBN01     SBC ARKANSAS - LR/NLR     






TESTDC     39    AROCS 08/16/05 07:40:00 050816-0079 NORMAL NOGRID 

==============//  AOC TICKET  //==============

TICKET NUMBER--[050816-0079]  
OLD TICKET NUM-[]  

MESSAGE TYPE---[NORMAL] LEAD TIME--[20]
PREPARED-------[08/16/05]  AT  [0740]  BY  [CCRAWFORD]

CONTRACTOR--[H & H DIRECTIONAL BORING INC]   CALLER--[STEVEN HANEY]
ADDRESS-----[1609 MALLY WAGNON]
CITY--------[FAYETTEVILLE]   STATE--[AR]   ZIP--[72701]
CALL BACK---[MOBILE 479-871-1107]   PHONE--[(479) 443-9107]
COMPANY FAX-[(999) 999-9999]
CONTACT-----[STEVEN HANEY]   PHONE--[(479) 871-1107]
EMAIL-------[]
CONTACT FAX-[(999) 999-9999]

WORK TO BEGIN--[08/18/05] AT [0745]      STATE--[AR]
COUNTY---[WASHINGTON]  PLACE--[RURAL]

ADDRESS--[13672]   STREET--[][WALLIN MOUNTAIN][RD][]
NEAREST INTERSECTION--------[BUG TUSSLE RD ]
LATITUDE--[35.9749410887101]    LONGITUDE--[-94.1204570965155]
SECONDARY LATITUDE--[0]    SECONDARY LONGITUDE--[0]

ADDITIONAL ADDRESSES IN LOCATION--[N]

LOCATION INFORMATION--
[RURAL OF GREENLAND - INT OF HWY 71 & WALLIN MOUNTAIN RD - WALLIN MOUNTAIN     ]
[RD E - APPX 3 MI - WILL BORE RD - BOTH SIDES OF RD - APPX 80'                 ]

WORK TYPE--[WATER, INSTALL SERVICE]  DONE FOR--[MOUNT OLIVE WATER]
EXTENT-----[1 DAY ]

EXPLOSIVES--[N]    WHITE PAINT--[Y]    GRID GIVEN--[N]
DIRECTIONAL BORING--[Y]

MAP REF.--[]
GRIDS-----
          [                 ] 

UTILITIES NOTIFIED--
  CODE       NAME                         CODE       NAME                      
  ---------- --------------------------   ---------- --------------------------
  ALLTEK     ALLTEL - ELKINS DISPATCH     DIGITAL    LIGHTCORE                 






TESTDC     72    AROCS 08/16/05 08:23:00 050816-0143 NORMAL NOGRID 

==============//  AOC TICKET  //==============

TICKET NUMBER--[050816-0143]  
OLD TICKET NUM-[]  

MESSAGE TYPE---[NORMAL] LEAD TIME--[20]
PREPARED-------[08/16/05]  AT  [0823]  BY  [SBATES]

CONTRACTOR--[ENTERGY]   CALLER--[DAVID FRENSLEY]
ADDRESS-----[291 RICHMOND DR]
CITY--------[WEST HELENA]   STATE--[AR]   ZIP--[72390]
CALL BACK---[MOBILE 870/817-1240]   PHONE--[(870) 572-2931]
COMPANY FAX-[(999) 999-9999]
CONTACT-----[DAVID FRENSLEY]   PHONE--[(870) 572-2931]
EMAIL-------[DFRENZL@ENTERGY.COM]
CONTACT FAX-[(999) 999-9999]

WORK TO BEGIN--[08/18/05] AT [0830]      STATE--[AR]
COUNTY---[PHILLIPS]  PLACE--[RURAL]

ADDRESS--[]   STREET--[][HWY 20][][]
NEAREST INTERSECTION--------[CORD 609]
LATITUDE--[34.33613]    LONGITUDE--[-90.978]
SECONDARY LATITUDE--[0]    SECONDARY LONGITUDE--[0]

ADDITIONAL ADDRESSES IN LOCATION--[N]

LOCATION INFORMATION--
[REPLACE 1 POLE AND SET 2 POLES AND 4 ANCHORS                                  ]
[RURAL OF LAMBROOK - CORD 609 AND HWY 20 - HWY 20 W - APPX 3000' - START       ]
[HERE - REPLACE POLE ON THE N SIDE OF THE RD - CONT S - TO THE S SIDE OF THE   ]
[HWY - SET 1 POLE AND ANCHOR HERE - CONT S - APPX 100' - SET 1 POLE AND 2      ]
[ANCHORS HERE - CONT SE - APPX 100' - SET 1 ANCHOR HERE ON EXISTING POLE       ]

WORK TYPE--[ELECTRIC, OTHER]  DONE FOR--[DON WARREN]
EXTENT-----[6 HRS]

EXPLOSIVES--[N]    WHITE PAINT--[Y]    GRID GIVEN--[N]
DIRECTIONAL BORING--[N]

MAP REF.--[]
GRIDS-----
          [                 ] 

UTILITIES NOTIFIED--
  CODE       NAME                         CODE       NAME                      
  ---------- --------------------------   ---------- --------------------------
  ALLTPH     ALLTEL - ELAINE/PHILLIP...   ELAINE     ELAINE WATER & SEWER      






