Return-Path: <logger@earthlink.net>
Delivered-To: hans.nowak@oasisdigital.com
Received: (qmail 16457 invoked from network); 22 Oct 2002 23:40:10 -0000
Received: from pintail.mail.pas.earthlink.net (207.217.120.122)
  by 1159.cust.skynetweb.com with SMTP; 22 Oct 2002 23:40:10 -0000
Received: from sdn-ar-013florlap303.dialsprint.net ([63.180.45.41] helo=zephyr-09)
	by pintail.mail.pas.earthlink.net with esmtp (Exim 3.33 #1)
	id 1847ji-0003dB-00
	for hans.nowak@oasisdigital.com; Tue, 22 Oct 2002 15:43:00 -0700
From: logger@earthlink.net
To: hans.nowak@oasisdigital.com
Subject: Ticketrouter warning
Date: Tue, 22 Oct 2002 22:46:52 +0000 +0000
Message-Id: <E1847ji-0003dB-00@pintail.mail.pas.earthlink.net>
X-PMFLAGS: 33554560 0 1 P26420.CNM

ticket one
.
.
.
.
.
end of ticket one

ticket two
.
.
.
.
.
.
end of ticket two


