UTIL11 ONISI 04/23/02 06:20:12 00091

***************************************************************************
***************************************************************************
*       GOOD MORNING, THIS IS YOUR START OF DAY FOR MISS UTILITY          *
*             IF YOU HAVE ANY PROBLEMS, PLEASE CALL THE CENTER            *
***************************************************************************
***************************************************************************

REPORT CALL SUNSHINE 04/26/02 04:30:00ET
***************************************************************************
*            NOW BEGINNING TICKET TRANSMISSION FOR TODAY.                 *
*                  PLEASE CHECK YOUR PAPER SUPPLY                         *
***************************************************************************
*  PLEASE MAKE SURE YOU RECEIVED YOUR END OF DAY AUDIT FROM THE PREVIOUS  *
*   BUSINESS DAY AND VERIFY THAT YOU HAVE RECEIVED ALL OF YOUR TICKETS.   *
*IF YOU HAVE ANY PROBLEMS, PLEASE CONTACT THE CENTER AT (386) 575-2000 OR *
*                (800) 638-4097 FOR THE REST OF THE STATE.                *
*                                                                         *
***************************************************************************

MESG
FREE FORMAT MESSAGE SENT ON      4-24-02

Date/Time:   4-24-02 at  1:31 AM
Receiving Station:  VPW18


GOOD MORNING - Miss Utility Subscribers in Maryland, DC, Virginia and Delaware

*******************************************************************************
                        MISS UTILITY HOLIDAY SCHEDULE FOR 2002

New Year's Day.........January 1        Veteran's Day............November 11
President's Day......February 18        Thanksgiving Day.........November 28
Memorial Day............. May 27        Day after Thanksgiving...November 29
Independence Day......... July 4        Christmas Day............December 25
Labor Day............September 2

Please notify the center if you will be closed on any day not mentioned.  Be
sure to include your District Code on all correspondences.   You may fax your
holiday schedule or closings to (410)712-0062 or (301)621-1711.

*******************************************************************************
                            CONTACT INFORMATION

If you are changing your after-hours emergency telephone number contact 
or if you have any questions regarding your existing database or need to
make revisions, contact Sonia Rush at 410-712-0056 or 301-621-1317.

If you need a copy of your audit, retransmits or if you are experiencing 
problems receiving tickets, call and speak to a supervisor.  Please be sure to 
have your district code available.

*******************************************************************************
                      CHANGES IN THE DISTRICT OF COLUMBIA

By the order of the D.C. Government in the District of Columbia, effective 
October 30, 2000, one-call tickets are valid for 15 business days from the date
the ticket is called in.  Tickets should now be Updated on the 12th business
day.  Also, only one (1) grid is allowed per ticket.

*******************************************************************************
                                EXTENDED HOURS

During the busy season, the Call Center will extend business hours to
accommodate the high call volume.  Calls will be taken after 5:00pm for as long
as necessary. 

******************************************************************************
                               MEETINGS 2002

The Delmarva Users Meeting will be posted when available.

The Northern Virginia Damage Prevention Meeting will be posted when available.

The Maryland/DC Damage Prevention Meeting will be held on Tuesday, March 26th
at Miss Utility Center, 7223 Parkway Drive, Suite 100, Hanover, MD. Coffee & 
donuts at 9am; meeting at 9:30am.

UTIL11 ONISI 04/24/02 08:08:08 00115
04/24/02
                  RESERVATIONS MUST BE MADE IN ADVANCE
MEMO TO ALL MISS UTILITY MEMBERS:  ***PLEASE CALL IF YOU PLAN TO ATTEND***
OUR NEXT MISS UTILITY MEETING WILL BE HELD ON JUNE 12, 2002 AT THE
HOLIDAY INN SUNSPREE RESORT IN VIRGINIA BEACH, VIRGINIA.
REFRESHMENTS ARE SERVED AT 9:15 A.M. AND THE MEETING BEGINS AT
10:00 A.M. WITH LUNCH AT NOON.  RESERVATIONS FOR THE MEETING MUST BE
MADE 1 MONTH IN ADVANCE.  PLEASE CALL ME AT THE CENTER WITH THE NUMBER
OF REPRESENTATIVES FROM YOUR ORGANIZATION THAT WILL BE ATTENDING THE
MEETING AND STAYING FOR LUNCH.  A BLOCK OF ROOMS HAVE BEEN RESERVED FOR
MISS UTILITY IF OVERNIGHT RESERVATIONS ARE NEEDED AND SHOULD ALSO BE
RESERVED 1 MONTH IN ADVANCE.  IF DIRECTIONS ARE NEEDED TO THE MEETING PLACE
OR ADDITONAL INFORMATION IS NEEDED PLEASE CALL ME AT THE CENTER.

SUSAN M. HAYES - 804-530-1698
MANAGER - MISS UTILITY

UTIL11 ONISI 04/26/02 11:07:31 00159
04/26/02

NOTICE TO ALL MISS UTILITY MEMBERS:

EFFECTIVE 5:00 P.M. TODAY (4-26-02) FOR ALL EMERGENCY TICKETS PLEASE CALL
1-800-552-7001 ONLY.  THE PREVIOUS NUMBER 1-800-451-2046 IS NO LONGER IN
SERVICE.  IF YOU HAVE QUESTIONS OR EXPERIENCE DIFFICULTY PLEASE CALL ME
AT 804-530-1698.

THANK YOU,
SUSAN M. HAYES
MANAGER - MISS UTILITY OF VIRGINIA

BEC02  *SOD* NCOCc 05/15/02 06:35:30

**************************************************************************
*          Good morning from the North Carolina One-Call Center          *
*                  Now starting operations for the day.                  *
*                                                                        *
**************************************************************************

KP    *MSG* POCS 05/17/02 17:07:08
AMERICAN PUBLIC WORKS ASSOCIATION
WESTERN PENNSYLVANIA CHAPTER
23RD ANNUAL VENDORS SHOW AND SEMINAR

THE WESTERN PENNSYLVANIA CHAPTER OF APWA WILL HOLD ITS 23RD ANNUAL VENDORS SHOW
AND EQUIPMENT MAINTENANCE SEMINAR AT NORTH PARK LODGE ON THURSDAY, JUNE 6, 2002,
FROM 9 AM TO 3 PM.   REGISTRATION WILL BEGIN AT 9 AM.  THE SEMINAR WILL FOCUS ON
CENTRAL HYDRAULIC SYSTEMS, AUTOMATIC TRANSMISSIONS AND RETARDERS, ABS BRAKE
SYSTEMS, AND ENGINE ELECTRONICS.  THE SEMINAR IS DESIGNNED FOR MECHANICS,
OPERATORS, AND PERSONNEL RESPONSIBLE FOR EQUIPMENT REPAIR.  PENNDOT
RESPRESENTATIVES WILL PRESENT A WORKSHOP ON PENNDOTS RECYCLING PROGRAM.

THERE WILL BE A LARGE OUTDOOR EQUIPMENT DISPLAY AS WELL AS MANY VENDORS
DEMONSTRATING THEIR GOODS AND SERVICES IN THE PARK LODGE.  A CATERED LUNCH WILL
BE SERVED AND REFRESHMENTS WILL BE AVAILABLE THROUGHOUT THE AFTERNOON.  THE SHOW
WILL CLOSE WITH A DRAWING FOR A NUMBER OF DOOR PRIZES AT 3 PM.

WHATEVER YOUR INTERESTS, THERE WILL BE SOMETHING FOR YOU AT THIS EVENT, SO MAKE
YOUR PLANS TO ATTEND.  THE PRESENTATIONS WILL BE ESPECIALLY USEFUL TO PUBLIC
WORKS EMPLOYEES, MECHANICS, MANAGERS, AND LOCAL ELECTED OFFICIALS AND
SUPERVISORS.
COME OUT, MEET YOUR NEIGHBOR, SHARE THOUGHTS, EDUCATION AND FUN!
_______________________________________________________
REGISTRATION FOR 23RD ANNUAL EQUIPMENT SHOW AND SEMINAR
                   JUNE 6, 2002


NAME/S ________________________________________________________


ORGANIZATION ________________________________________________________


PHONE ______________________________

FAX ________________________________

APWA MEMBER PAID PRIOR TO 6/6/02

$15.00 X _______ = ________

REGULAR REGISTRATION PAID PRIOR TO 6/6/02

$20.00 X _______ = ________

AT THE DOOR:  $25.00 PER PERSON

MAKE CHECKS PAYABLE TO:  W.PA. CHAPTER APWA AND MAIL TO:
		RONALD MERRIMAN, DPW
		FRANKLIN PARK BOROUGH
		2344 WEST INGOMAR ROAD
		PITTSBURGH  PA  15237-1619

FOR MORE INFORMATION, CONTACT:
RONALD MERRIMAN @ 412-364-4115  FAX @ 412-369-7809

Message From: Utility Protection Center

The Member Services Department at the Utilities Protection Center is
requesting that all Members verify their service areas.Please contact our
department at 770-623-5786 for any changes you have made so they can be
activated. We also need an updated contact list. Please indicate the name
of the person who would be responsible for receiving your tickets.  Please
email Tania Mcqurter at tmcqurter@gaupc.com  or send a fax to our
department @ 770-623-4566 with your current information.

Thank You
TK522113.043 #00172

BEC01  *MSG* NCOCa 05/24/02 09:50:54

PLEASE NOTE:  THE NORTH CAROLINA ONE CALL CENTER, INC. WILL BE CLOSED ON MONDAY,
MAY 27 2002 IN OBSERVANCE OF MEMORIAL DAY.  WE WISH EVERYONE A SAFE AND HAPPY
HOLIDAY WEEKEND.  THANK YOU.

MESG
FREE FORMAT MESSAGE SENT ON      5-22-02

Date/Time:   5-22-02 at  1:16 AM
Receiving Station:  KMC01


GOOD MORNING - Miss Utility Subscribers in Maryland, DC, Virginia and Delaware

*******************************************************************************
                        MISS UTILITY HOLIDAY SCHEDULE FOR 2002

New Year's Day.........January 1        Veteran's Day............November 11
President's Day......February 18        Thanksgiving Day.........November 28
Memorial Day............. May 27        Day after Thanksgiving...November 29
Independence Day......... July 4        Christmas Day............December 25
Labor Day............September 2

Please notify the center if you will be closed on any day not mentioned.  Be
sure to include your District Code on all correspondences.   You may fax your
holiday schedule or closings to (410)712-0062 or (301)621-1711.

*******************************************************************************
                            CONTACT INFORMATION

If you are changing your after-hours emergency telephone number contact 
or if you have any questions regarding your existing database or need to
make revisions, contact Sonia Rush at 410-712-0056 or 301-621-1317.

If you need a copy of your audit, retransmits or if you are experiencing 
problems receiving tickets, call and speak to a supervisor.  Please be sure to 
have your district code available.

*******************************************************************************
                      CHANGES IN THE DISTRICT OF COLUMBIA

By the order of the D.C. Government in the District of Columbia, effective 
October 30, 2000, one-call tickets are valid for 15 business days from the date
the ticket is called in.  Tickets should now be Updated on the 12th business
day.  Also, only one (1) grid is allowed per ticket.

*******************************************************************************
                                EXTENDED HOURS

During the busy season, the Call Center will extend business hours to
accommodate the high call volume.  Calls will be taken after 5:00pm for as long
as necessary. 

******************************************************************************
                               MEETINGS 2002

The Delmarva Users Meeting will be posted when available.

The Northern Virginia Damage Prevention Meeting will be posted when available.

The Maryland/DC Damage Prevention Meeting will be held on Tuesday, March 26th
at Miss Utility Center, 7223 Parkway Drive, Suite 100, Hanover, MD. Coffee & 
donuts at 9am; meeting at 9:30am.

UTIL11 ONISI 05/28/02 06:07:02 00770

***************************************************************************
***************************************************************************
*       GOOD MORNING, THIS IS YOUR START OF DAY FOR MISS UTILITY          *
*             IF YOU HAVE ANY PROBLEMS, PLEASE CALL THE CENTER            *
***************************************************************************
***************************************************************************

Message From: Sunshine One Call Center

Sunshine State One-Call of Florida, Inc.
Meeting Notice
Sunshine State One Call of Florida, Inc. announces the June
Executive Committee Meeting to which all interested persons are invited to
participate.
Executive Committee Meeting
June 21, 2002
10 a.m. to noon
This meeting will be held via teleconference.
To participate in this meeting, please dial 1-877-455-8695 or
1-865-540-8745
and enter participant code 335133.
The purpose of the Executive Committee Meeting is to set the agenda for the
July Board and
Strategic Planning meetings.
Note: Any person who is hearing or speech impaired should contact the
one-call notification center through the Florida
Relay Center at 800/955-8771.
Attention: Please deliver this to the primary contact for Sunshine State
One-Call of Florida and/or
someone who plays an active role in underground facility damage prevention

MESG
FREE FORMAT MESSAGE SENT ON      7-01-02

Date/Time:   7-01-02 at  7:58 PM
Receiving Station:  ABBD01


Attention: All Users of the Miss Utility System:

A number of amendments to the VIRGINIA Underground Damage Prevention 
Act went into effect today, July 1, 2002.  The following is a PARTIAL
list of the changes:

 - Ticket size is limited to (one) mile or two (2) grids per ticket

 - Tickets are due to be marked within forty-eight (48) hours from
   7am the next business day following call to notification center.

 - Tickets are valid for fifteen (15) business days beginning 7am the
   next business day following call to notification center.

 - Tickets for meet and design purposes have specific definitions; and,

 - There are several new response codes to be used with the Ticket
   Information Exchange System.

The new response codes are posted at www.missutility.net.  You can also
find a link to copy of the new law there.  In addition, you can also look
for the new law and more information at www.state.va.us/scc.


CVE192 *MSG* VUPSa 08/06/02 12:36:20

VIRGINIA UTILITY PROTECTION SERVICE
GENERAL MEMBERSHIP MEETING
AUGUST 14, 2002

WHERE:		
	HOLIDAY INN HOTEL - TANGLEWOOD
	4468 STARKEY ROAD, S. W.
	ROANOKE, VA  24014
	TELEPHONE:  540-774-4400

TIME:	
	REFRESHMENTS:      9:15 A.M.   -   BALLROOM A
	MEETING:           10:00 A.M.  12:00 NOON  -  BALLROOM A
	LUNCH:             12:00 NOON  -  BALLROOM B & C
	
        TOUR OF THE NEW CALL CENTER - 1:30 P.M.  4:00 P.M.

I WILL ATTEND THE GENERAL MEMBERSHIP MEETING.
COMPANY:     _________________________________
# ATTENDING:  _________________________________

PLEASE E-MAIL THIS INFORMATION TO BEVERLY REYNOLDS AT BREYNOLDS@VUPS.ORG OR FAX
TO 540-342-8250.


UQUEST *SOD*A USAS 09/30/02 05:01:02


** GOOD MORNING!  PLEASE CHECK YOUR PAPER SUPPLY IN YOUR PRINTER.  IF YOU
   HAVE A PROBLEM RECEIVING YOUR DIG ALERTS, PLEASE GIVE US A CALL AT
   909-808-8100 ENTER 23 ONCE THE MESSAGE STARTS. **




OUC582 CALL SUNSHINE 10/01/02 04:30:08ET
***************************************************************************
*            NOW BEGINNING TICKET TRANSMISSION FOR TODAY.                 *
*                  PLEASE CHECK YOUR PAPER SUPPLY                         *
***************************************************************************
*  PLEASE MAKE SURE YOU RECEIVED YOUR END OF DAY AUDIT FROM THE PREVIOUS  *
*   BUSINESS DAY AND VERIFY THAT YOU HAVE RECEIVED ALL OF YOUR TICKETS.   *
*IF YOU HAVE ANY PROBLEMS, PLEASE CONTACT THE CENTER AT (386) 575-2000 OR *
*                (800) 638-4097 FOR THE REST OF THE STATE.                *
*                                                                         *
***************************************************************************


Message From: USAN

ATTENTION!!  THIS INVITATION IS FOR THE RENO (NEVADA) SAFETY AWARENESS FOR
EXCAVATORS SEMINAR

OCTOBER 24TH, 2002
8:00AM - 10:30AM
SIERRA PACIFIC BUILDING - 6100 NEIL ROAD, RENO,  NV.

LIGHT REFRESHMENTS WILL BE SERVED!!!!!

PLEASE R.S.V.P. TODAY:  EMAIL, kheyer@usan.org , or FAX TO 925-798-1683 AND
PROVIDE YOUR COMPANY NAME AND NUMBER OF ATTENDEES.

ALSO: GET THIS INFORMATION OUT TO ANY EXCAVATORS IN THE AREA SO THAT THIS
SEMINAR WILL BE A SUCCESS!!

DIG SAFELY!!

+++o.SBYER04 *SOD* AOC 09/23/02 06:32:22

***************************************************************************
*            NOW BEGINNING TICKET TRANSMISSION FOR TODAY.                 *
*                  PLEASE CHECK YOUR PAPER SUPPLY                         *
***************************************************************************




UQUEST *MSG*A USAS 11/07/02 15:03:01

ATTENTION

YOU ARE INVITED TO ATTEND THE CONTRACTORS STAKEHOLDER FORUM BREAKFAST AT
THE
2002 DAMAGE PREVENTION CONFERENCE AND EXPOSITION ON DECEMBER 5, 2002

THIS FREE HEARTY BREAKFAST BUFFET WILL HAVE CHECK-IN BEGINNING AT 7 AM,
BREAKFAST AT 7:30, A SAFETY SEMINAR AT 8:00 AM.  AN INTERACTIVE DISCUSSION
WITH
REPRESENTATIVES OF REGULATORY AGENCIES, UTILITY LOCATING FORMS, ONE-CALL
CENTERS, CONTRACTOR ASSOCIATIONS, EQUIPMENT MANUFACTURERS, UNDERGROUND
FACILITY
OWNERS AND ATTORNEYS WILL BEGIN AT 8:30 AM.  AT 9:45 YOU ARE INVITED TO
VISIT
THE EXHIBITS ON THE DPC SHOW FLOOR.

TO SIGN UP FOR THIS EVENT THAT WILL BE HELD AT THE SAN DIEGO CONVENTION
CENTER
111 W. HARBOR DR. SAN DIEGO, CA  TG PAGE 1289 GRID A4, FILL OUT THE FORM
BELOW.
TYPE OR PRINT ONLY

NAME: _____________________________________________


COMPANY:_________________________________________


ADDRESS:_________________________________________


CITY/STATE/ZIP:__________________________________________


PHONE:_____________________ FAX:____________________________


EMAIL:_____________________________________________


PRIORITY CODE FPSF


RSVP: FAX: 952-894-6818 BY NOVEMBER 22.  FOR MORE INFORMATION CALL
800-827-8009
OR VISIT WWW.DAMAGEPREVENTION.COM




--=====_SEE928875_=====
Content-Type: text/plain
Content-Transfer-Encoding: quoted-printable

(KENTUCKY URG PRO INC - KY)   11/26/2002   06:57:33

     -0196             -0197             -0198             -0199
     -0200             -0203             -0204             -0205
     -0208             -0209             -0210             -0211
     -0212             -0213             -0214             -0216
     -0217             -0218             -0220             -0221
     -0223            1-0224BELLTN       -0225             -0227
     -0228             -0229             -0230             -0231
--------------------------------------------------------------------------

TIME..06:48  DATE..11/26/2002

REQUEST NO...20024800819

MESSAGE FROM KENTUCKY UNDERGROUND PROTECTION INC.
OUR OFFICE WILL BE CLOSED 11-28-02 & 11-29-02 IN OBSERVANCE OF
THE THANKSGIVING HOLIDAY.  EMERGENCY CALLS WILL BE ACCEPTED &
DISPATCHED TO YOUR AFTER HOURS #.  REGULAR HOURS WILL RESUME
12-2-02.  HAVE A SAFE & HAPPY HOLIDAY.                                      
=


UTGA01 *MSG* AOC 11/26/02 07:31:25

*****************************************************************************
***
*****************************************

JUST A REMINDER


ALABAMA ONE CALL WILL BE CLOSED ON THURSDAY, NOVEMBER 28, 2002 AND FRIDAY,
NOVEMBER 29, 2002 FOR THANKSGIVING HOLIDAYS.  WE WILL REOPEN ON MONDAY,
DECEMBER
2, 2002.  WE HOPE YOU HAVE A SAFE AND HAPPY HOLIDAY.

AOC STAFF


*****************************************************************************
*** *****************************************



BEC04  *SOD* NCOCc 12/30/02 06:33:11

**************************************************************************
*          Good morning from the North Carolina One-Call Center          *
*                  Now starting operations for the day.                  *
*                                                                        *
**************************************************************************




MESSAGE FROM OKOCS
1/1/2003

THE MISSION OF CALL OKIE IS TO PROVIDE QUALITY UNDERGROUND DAMAGE PREVENTION  
AND COMMUNICATION SERVICES FOR EXCAVATORS, OPERATORS AND OWNERS IN THE GREAT  
STATE OF OKLAHOMA. MEMBERS OF OKLAHOMA ONE-CALL SYSTEM INCLUDE OVER 780       
BUSINESSES, CORPORATIONS AND COMPANIES THAT OWN COMMUNICATION, GAS            
DISTRIBUTION, GAS TRANSMISSION AND GATHERING, ELECTRIC, PRODUCT PIPELINES AND 
WATER/SEWAGE LINES UNDERGROUND WHERE THEY CANNOT BE SEEN.                     
                                                                              
IN A SINGLE YEAR CALL OKIE HANDLES OVER 580,000 INBOUND CALLS RESULTING IN    
OVER 3,000,000 OUTBOUND MESSAGES TO OKLAHOMA ONE CALL MEMBER COMPANIES        
NOTIFYING THEM OF DIG SITE LOCATIONS TO THAT THEY MAY BE MARKED TO ENSURE     
SAFE, ACCIDENT-FREE DIGGING.                                                  
                                                                              
THAT GROWTH HAS BROUGHT CHANGES IN THE WAY WE OPERATE. WE'RE USING MORE       
TECHNOLOGY TO DO OUR WORK. IN FACT, WE NOW HAVE A WAY FOR PEOPLE TO LOG ON TO 
OUR WEBSITE WWW.CALLOKIE.COM TO REQUEST THEIR PROPERTY OR JOB SITE ME MARKED  
FOR UNDERGROUND FACILITIES IN A TIMLIER MANNER.                               
                                                                              
IN OUR CONTINUOUS EFFORTS TO PROVIDE QUALITY SERVICE TO OUR CUSTOMERS, CALL   
OKIE IS EXPANDING ITS CALL CENTER HOURS OF OPERATION TO ACCOMODATE THE NEEDS  
IN OKLAHOMA. WE WILL CONTINUE TO PROCESS YOUR REQUESTS DURING OUR NEWLY       
REVISED BUSINESS HOURS OF 6AM TO 10PM MONDAY THROUGH FRIDAY AND 8AM TO 12PM   
ON SATURDAYS.                                                                 
                                                                              
CALL OKIE WILL ALSO PROVIDE AFTER HOURS SUPPORT FOR EMERGENCY REQUESTS THAT   
REQUIRE IMMEDIATE EXCAVATION BECAUSE OF DANGER POSED TO LIFE, HEALTH OR       
PROPERTY. AFTER HOUR CALLERS WILL BE PROMPTED TO DEFINE EMERGENCIES. CALL     
OKIE WILL FOLLOW EMERGENCY PROCEDURES AND NOTIFY OUR MEMBERS.                 
                                                                              
NORMAL TICKETS CALLED IN DURING OPERATING HOURS WILL BE PROCESSED TO COMPLY   
WITH THE 48 HOUR WAITING PERIOD REQUIRED BY THE STATE STATUTE. CALL OKIE ASKS 
THAT MEMBERS BE PREPARED TO RECEIVE AND RESPOND TO EMERGENCY REQUESTS. THE    
CALL CENTER WILL NEED ANY ADDITIONAL MEMBER CONTACT INFOMATION NEEDED TO      
COMPLY WITH THESE REQUESTS.                                                   
                                                                              
CALL OKIE HOPES THAT THIS CHANGE IN OPERATION WILL HELP MEMBERS MEET THE EVER 
CHANGING DEMANDS OF THE CONSTRUCTION ENVIRONMENT. CARELESS DIGGING, EVEN BY   
HOMEOWNERS, CAUSES DISRUPTION OF VITAL SERVICES AND ENVIRONMENTAL             
DAMAGE...EVEN INJURY OR LOSS OF LIFE. ONE SIMPLE FREE CALL CAN MAKE THE       
DIFFERENCE.                                                                   
                                                                              
IF YOU HAVE ANY QUESTIONS OR CONCERNS, PLEASE CONTACT                         
BARBARA HUNT, MANAGER OF OPERATIONS OR RACHEL BRANCH, EXTENDED HOURS PROJECT  
MANAGER AT (405) 840-9955 EXT.#61.                                            
                                                                              
WISHING EVERYONE A SAFE AND HAPPY NEW YEAR.                                   
                                                                              
CALL OKIE                                                                     


MESSAGE FROM ALOCS
2/11/2003

APPARENTLY THE EOD AUDIT DID NOT RUN FOR 2/10/03 - YOUR SEQUENCE NUMBER FOR  
THE DAY WILL NOT BEGIN AT 1. SORRY FOR THE INCONVIENCE - THIS HAS BEEN       
CORRECTED.                                                                   




GeoCall could not create the text of the audit.  Please contact
your One Call Center with the following information:

Parameters
----------
OutputOptionID = 321
AuditDate = 2/23/2003

Error Description
-----------------
Error 438: Object doesn't support this property or method
[Message Generated By GCC_DynamicMessage.GetAuditMessage]




+++WMESSAGE FROM TNOCS
2/26/03

TO ALL MEMBERS: TOCS NOW HAS EMAIL DELIVERY AVAILABLE. IF YOU WOULD LIKE TO  
RECEIVE YOUR LOCATE TICKETS VIA EMAIL, PLEASE GIVE US A CALL AT 615-367-1110 
(X7126). WE WILL BE HAPPY TO EXPLAIN THE DIFFERENT OPTIONS AVAILABLE IN THE  
EMAIL FORMAT WHEN YOU NOTIFY US THAT YOU ARE INTERESTED IN  THIS FORM OF     
RECEIVING TICKETS. THANK-YOU. TOCS

Message From: Utility Protection Center

ATTENTION ALL UPC UTILITY MEMBERS AND CONTRACTORS IN THE SOUTHEAST GEORGIA
AREA!!

The Utilities Protection Center will be conducting a WEB ENTRY TRAINING
class on Thursday January 29th
beginning at 8:30am at the SOUTHEAST TECH`S ECONOMIC DEVELOPMENT CENTER -
ROOM 100-A
LOCATED IN VIDALIA. If you would like to reserve a seat for the class or
for more information please contact
MIKE JOYNER AT (912) 538-8957 or by email at mtjoyner@bellsouth.net
TOPICS TO BE COVERED DURING THE CLASS INCLUDE:
(A) ENTERING YOUR DIG TICKETS OVER THE INTERNET
(B) RESTAKING YOUR DIG TICKETS OVER THE INTERNET
(C) RESPONDING TO AND CHECKING THE POSITIVE RESPONSE INFORMATION SYSTEM
(PRIS)




(TELDIG SYSTEMS ONECALL <GOOD NIGHT> - DIGGERS HOTLINE)
THE FOLLOWING MESSAGE NUMBERS WERE TRANSMITTED TO YOU TODAY  01/30/2004
DATE/TIME: 02/10/04    08:56:43 AM
RECEIVING TERMINAL: ATR01

TOTAL = 0

PLEASE CALL (414)-259-1181 IF THIS DATA DOES
NOT MATCH THE TICKETS YOU RECEIVED ON 01/30/2004

EVERYONE HAVE A GOOD DAY


MESG
FREE FORMAT MESSAGE SENT ON      2-09-04

Date/Time:   2-09-04 at 12:21 PM
Receiving Station:  ZTCI18


		       OREGON UTILITY NOTIFICATION CENTER 
                                 BOARD MEETING


	DATE:  	    Wednesday February 11, 2004  TIME:  9:00 to 3:00 PM 

	LOCATION:   City of Forest Grove                              
	            1818 B Street               
                    Forest Grove, Oregon 
                    503-992-3250 
	
	AGENDA:     Welcome
                    2004 Officer Nominations


MVEL03 *ASR* UNCC 02/11/04 06:00 PM

APPOINTMENT SCHEDULE REPORT FOR MVEL03 UP TO 02/13/04


02/13/04  M & M UNDERGROUND : CHARLENE COGAR : (303)762-0212
AM/PM     CO : ELBERT : KIOWA
0059447   29141 COUNTY ROAD 45

          LOCATE ENTIRE LOT FROM HOUSE TO PED FOLLOWING TEMP & OR EXISTING DROP
          PAINT/FLAG & LEAVE SKETCH "ACCESS OPEN" DOGS ARE IN THE BARN NOT NEAR
_________ DIG AREA NO FENCE PIERSONS PG 266J


Total scheduled  :   0
Total unscheduled:   1
Short notice tkts:   0




MESG
FREE FORMAT MESSAGE SENT ON      2-23-04

Date/Time:   2-23-04 at 11:49 AM
Receiving Station:  WEP70






February 23, 2004


TO: Diggers Hotline Member
FR: Connie Schmidt

RE: Cut Over to New System 


Diggers Hotline, Inc. will be cutting over a new software system on
February 
27, 2004.  The actual cutover will be done after 6:00 p.m.  During the
cutover,
you may not receive tickets for a period of time.  After the cutover, if
you 
are having trouble receiving tickets in any way, call Diggers Hotline
at 1-800-722-4120 or 1-800-982-0299 or 414-259-0676.

Another broadcast message will go out on February 27 to confirm the
cutover
will occur that evening. 

Thank you.





UQSTSO *MSG*B USAS 02/25/04 13:04:19

THIS IS A TEST OF DIGALERTS B SYSTEM




MESSAGE FROM SCOCS
3/16/2004

GOOD MORNING TO EACH OF YOU,

WE WILL BE MAKING A CHANGE TO THE FORMAT OF THE SUBJECT LINE IN YOUR
TICKETS. 
THE SUBJECT LINE WILL NOW HAVE THE TICKET NUMBER AND THE QUE PRIORITY IN
THE  
SUBJECT.   IF YOU WOULD LIKE TEST TICKETS TICKETS PLEASE EMAIL ME AT

RDOTMAN@SC1PUPS.ORG OR CALL ME AT (800) 290-2783 PRESS 1 BY FRIDAY
3/19/04.   
 

THANKS

RHONDA DOTMAN




Start of Ticket
Message From: Arizona Blue Stake

Date: March 15, 2004
To:  All Blue Stake Members

[...]

End of Ticket

MESG
FREE FORMAT MESSAGE SENT ON      5-07-04

Date/Time:   5-07-04 at 11:06 AM
Receiving Station:  PTLD05


		       OREGON UTILITY NOTIFICATION CENTER
                                 BOARD MEETING

	DATE:	    Wednesday May 12, 2004	TIME: 8:00am to 2:00pm

	LOCATION:   Ashland Springs Hotel
	            212 E. Main St.
                    Ashland, Oregon
                    97520
                    541-488-5535

	AGENDA:     Welcome
                    Special Election for VP


ICU Message     UTQ2   from SDGE                              09-21-04
08:26


                 Daily Audit/Recap of Messages for 09-20-04
 
    0001 0002641085   0002 0002640190

    Total Messages Sent:     2  to Utiliquest

    If there are any discrepancies, please call 619-572-7358
    and ask for Anthony


New Mexico One Call <FREEFORMS>
Freeforms #: 8004393074
Transmit Date/Time: 09/23/04  10:19:26 AM
Sending to: (listing of freeforms tkt sent to)
*PNM6            



Notice to all terminals,
We are starting to test our mapping system, most major citie
s are mapped out - and if the street name is listed, we will
 be using the mapped version to notify all affected member c
ompanies.  We have already noticed a few bugs that cause ove
r-notification, these have been caused in most cases by our
operators who are learning the system, as we find these erro
rs, we are letting all operators know about it and the solut
ion required to correct. If you have any problems or questio
ns please feel free to contact me at 505-260-1165, hopefully
 together we can really make this system work and eliminate
most nuisance tickets.
On another note, the clear process has been simplified, but
only from a members side of the computer.  I will not have a
 chance to update the web page for approx 2 weeks so if you
call 505-260-1165 ext 302 I will be glad to walk you through
 the procedure
John Tobin
Operations Manager





MESG
FREE FORMAT MESSAGE SENT ON     10-06-04

Date/Time:  10-06-04 at  6:37 PM
Receiving Station:  BGE01

 ATTENTION ALL RECEIVING STATIONS...

Monday, October 11, 2004 is Columbus Day.  The call center will be open
processing all ticket requests.  However, because it is a state holiday,
it will
be skipped in the scheduled work-to-begin date.  

If you will be closed and have not notified the center, you must do so
immediately.  Otherwise, the call center will handle your emergencies
like
any other business day.

You may fax your holiday schedule to Sonia Miles at (410) 712-0062 or
(301) 621-1711.

If you have questions or concerns, call the center at (410) 712-0056 and
speak to a Group Leader or Manager.


MESG
FREE FORMAT MESSAGE SENT ON     10-06-04

Date/Time:  10-06-04 at  6:37 PM
Receiving Station:  BGE01

 ATTENTION ALL RECEIVING STATIONS...

Monday, October 11, 2004 is Columbus Day.  The call center will be open
processing all ticket requests.  However, because it is a state holiday,
it will
be skipped in the scheduled work-to-begin date.  

If you will be closed and have not notified the center, you must do so
immediately.  Otherwise, the call center will handle your emergencies
like
any other business day.

You may fax your holiday schedule to Sonia Miles at (410) 712-0062 or
(301) 621-1711.

If you have questions or concerns, call the center at (410) 712-0056 and
speak to a Group Leader or Manager.


MESG
FREE FORMAT MESSAGE SENT ON     10-06-04

Date/Time:  10-06-04 at  6:37 PM
Receiving Station:  BGE01

 ATTENTION ALL RECEIVING STATIONS...

Monday, October 11, 2004 is Columbus Day.  The call center will be open
processing all ticket requests.  However, because it is a state holiday,
it will
be skipped in the scheduled work-to-begin date.  

If you will be closed and have not notified the center, you must do so
immediately.  Otherwise, the call center will handle your emergencies
like
any other business day.

You may fax your holiday schedule to Sonia Miles at (410) 712-0062 or
(301) 621-1711.

If you have questions or concerns, call the center at (410) 712-0056 and
speak to a Group Leader or Manager.

STS602 *MSG* VUPSa 05/06/05 16:25:46

TO: VUPS MEMBERS

DATE: FRIDAY, MAY 6, 2005

SUBJECT: POSITIVE RESPONSE SYSTEM - CHANGES TO RESPONSE CODES

THE VIRGINIA DAMAGE PREVENTION ADVISORY COMMITTEE APPROVED REVISIONS TO THE
POSITIVE RESPONSE CODES THAT ARE USED TO RESPOND TO TICKETS AT THEIR MEETING ON
TUESDAY, MAY 3, 2005.

THE REVISED CODES WILL TAKE EFFECT ON WEDNESDAY, JUNE 8, 2005. WE EXPECT TO BE
ABLE TO NOTIFY RECEIVING SOFTWARE COMPANIES DURING THE WEEK OF MAY 9 OF THE NEW
VALID RESPONSE CODES AND A BRIEF DESCRIPTION OF WHEN THESE CODES SHOULD BE USED.

THIS INFORMATION WILL ALSO BE POSTED ON OUR WEBSITE AS SOON AS WE RECEIVE IT
FROM THE VIRGINIA STATE CORPORATION COMMISSION STAFF. SEE
HTTP://WWW.MISSUTILITYOFVIRGINIA.COM/MAIN_WN.HTM
PLEASE BE ASSURED THAT WE WILL PROVIDE THE NEW POSITIVE RESPONSE CODE LIST TO
YOU, OUR MEMBERS, AS SOON AS WE RECEIVE IT AND WE WILL WORK WITH YOUR SOFTWARE
VENDORS TO ENSURE THAT EVERYONE IS READY FOR THE TRANSITION ON JUNE 8.

THANK YOU!

BRDC
FREE FORMAT MESSAGE SENT ON     10-27-05

Date/Time:  10-27-05 at  8:46 PM
The Call Center had an electrical outage from about 1:30pm to 4:00pm today, Thursday 10/27/05.  During that time, emergency tickets were handled, providing the caller with a temporary ticket number.  All emergencies were voiced out utilizing that temporary ticket number.

When the computer system was brought back on line, we issued a valid ticket number referencing the temporary number in the ticket's "remarks" field.

Please review your daily audit to ensure you have received your ticket copies.

Itic was available for ticket processing approximately 4:30pm.

Due to the outage, the Maryland Ticket Check system will not be issuing "No Response" tickets for Thursday 10/27/05.

If you have any questions regarding this incident, please contact us.

Thank you.

BEC03  *MSG* NCOCa 12/08/05 08:56:30

POSITIVE RESPONSE USERS - USERS NOW HAVE 15 WORKING DAYS (THE LIFE OF A TICKET)
TO ENTER YOUR RESPONSE TO THE SYSTEM. FOR THOSE MEMBERS NOT USING POSITIVE
RESPONSE, INFORMATION CAN BE FOUND AT WWW.NCOCC.ORG.


CHARTRT *MSG* UTAHa 01/13/06 14:53:17

SUBJECT: MARTIN LUTHER KING, JR DAY

FROM: BLUE STAKES OF UTAH

BLUE STAKES OF UTAH IS OPEN FOR BUSINESS ON MONDAY, JANUARY 16, 2006.  ALL
LOCATION REQUEST WILL BE SCHEDULED AS A NORMAL BUSINESS DAY.

IF YOU WILL NEED EMERGENCY VOICE NOTIFICATION FOR THIS DAY PLEASE SEND YOUR
COMPANY NAME, CONTACT PERSON & THE CORRECT CONTACT NUMBER
YOU WISH TO BE NOTIFIED AT.  PLEASE RETURN THIS VIA EMAIL OR FAX.

EMAIL:MEMBER@BLUESTAKES.ORG
FAX:(801)208-2102

THANK YOU!

BLUE STAKES OF UTAH
MEMBER SERVICES


CHARTRT *SOD* UTAHc 01/11/06 06:32:31

***************************************************************************
*           BLUE STAKES IS NOW STARTING TRANSMISSION FOR TODAY.           *
*           PLEASE REPORT MISSED REQUESTS AND/OR PROBLEMS TO              *
*           BLUE STAKES.                                                  *
*                                                                         *
*           THANK YOU FOR YOUR HELP AND PARTICIPATION, HAVE A             *
*           WONDERFUL DAY.                                                *
*                                                                         *
***************************************************************************

BRDC
FREE FORMAT MESSAGE SENT ON      3-31-06

Date/Time:   3-31-06 at  4:37 PM
To:   LSNC Facility Operators
From: Lone Star Notification Center 
Re:   Testing Changes To Ticket Format
Date: March 31, 2006

Lone Star Notification Center (LSNC) will be making a few changes to 
the outbound ticket format that is currently used by the center.
These changes will allow the center to provide additional 
information to facility operators about the work being 
performed.  In order to make sure all operators are able to 
accomodate these changes, we will begin sending test messages
to all facility operators.  The changes to the ticket document
are:

Unlimited Marking Instructions

Currently, the center uses a ticket format with a "fixed" 
length to the "location of work" field. This creates some
operational limitations. As a result, the input screens
in the call center and the output ticket sent to facility
operators will be modified as follows:

-The "location of work:" field will be changed to allow an
unlimited number of lines and characters to be entered.

-The output will be the field label ("Location of work"),
followed by the text entered in the call center or by the 
ITIC user.

-Line length will be 79 characters and will automatically
wrap to the next line.

Over the course of the next two weeks, you will be 
receiving test messages from the call center. 
Please fax these test messages back to the call 
center to the attention of Adam Franco at 651-454-7978 so 
that we can verify you are receiving the new format properly.
We would like to complete testing as soon as possible, 
because there are other changes that will be made in the 
center that depend on succesful implementation of these 
changes to the outbound ticket.  Thanks for your assistance.

MESSAGE FROM AROCS
5/23/2006

THE ARKANSAS ONE CALL CENTER WILL BE OPEN ON MEMORIAL DAY MAY 29TH, 2006.  IF 
YOUR OFFICE WILL BE CLOSED ON 5/29 PLEASE CONTACT US WITH YOUR HOLIDAY PHONE  
NUMBERS SO WE MAY CONTACT YOU IF THERE IS AN EMERGENCY.                       
OUR FAX NUMBER IS 1-800-482-7997.                                             
                                                                              
                                                                              
THANK-YOU,                                                                    
                                                                              
ARKANSAS ONE CALL                                                             



----------------------

MESSAGE FROM AROCS
5/23/2006

THE ARKANSAS ONE CALL CENTER WILL BE OPEN ON MEMORIAL DAY MAY 29TH, 2006.  IF 
YOUR OFFICE WILL BE CLOSED ON 5/29 PLEASE CONTACT US WITH YOUR HOLIDAY PHONE  
NUMBERS SO WE MAY CONTACT YOU IF THERE IS AN EMERGENCY.                       
OUR FAX NUMBER IS 1-800-482-7997.                                             
                                                                              
                                                                              
THANK-YOU,                                                                    
                                                                              
ARKANSAS ONE CALL         

MESSAGE FROM PUPS
5/19/2006

GOOD FRIDAY TO ALL,                                                           
                                                                              
THIS IS A REMINDER THAT PUPS (SC ONE CALL CENTER) WILL BE CLOSED ON MONDAY    
5/29/05 IN OBSERVANCE OF THE MEMORIAL DAY HOLIDAY                             
                                                                              
PLEASE EMAIL ME (RDOTMAN@SC1PUPS.ORG) OR CALL ME AT (800) 290-2783 PRESS 1,   
IF YOU HAVE ANY QUESTIONS.                                                    
                                                                              
THANK YOU,                                                                    
RHONDA DOTMAN                                                                 
APPLICATION SUPPORT ADMINISTRATOR                                             
(800) 290-2783 PRESS 1                                                        
PUPS            

MESSAGE FROM PUPS
5/19/2006

GOOD FRIDAY TO ALL,                                                           
                                                                              
THIS IS A REMINDER THAT PUPS (SC ONE CALL CENTER) WILL BE CLOSED ON MONDAY    
5/29/05 IN OBSERVANCE OF THE MEMORIAL DAY HOLIDAY                             
                                                                              
PLEASE EMAIL ME (RDOTMAN@SC1PUPS.ORG) OR CALL ME AT (800) 290-2783 PRESS 1,   
IF YOU HAVE ANY QUESTIONS.                                                    
                                                                              
THANK YOU,                                                                    
RHONDA DOTMAN                                                                 
APPLICATION SUPPORT ADMINISTRATOR                                             
(800) 290-2783 PRESS 1                                                        
PUPS            

BRDC
FREE FORMAT MESSAGE SENT ON      5-16-06

Date/Time:   5-16-06 at  3:16 PM
To whom this may concern,

There has been a series of test tickets that have been sent out within the
last couple of days. Some of the companies that have recieved the test ticket 
have brought to my attention the fact that the markings are not carrying over
from line to line properly. 
Starting tomarrow and lasting through the rest of the week, I will be resending
these test tickets.
Those of you that already recieved 1 or 2 will recieve another between
tomarrow and Friday.
Again, please keep myself, and Velma informed of any problems you are having 
or any questions that may arrise.

Thank you for you cooperation and your patience in this current update,

Kevin Nabak
Supervisor 
La One Call
225-275-3700
x464
kevinnabak@occinc.com

BRDC
FREE FORMAT MESSAGE SENT ON      5-16-06

Date/Time:   5-16-06 at  3:16 PM
To whom this may concern,

There has been a series of test tickets that have been sent out within the
last couple of days. Some of the companies that have recieved the test ticket 
have brought to my attention the fact that the markings are not carrying over
from line to line properly. 
Starting tomarrow and lasting through the rest of the week, I will be resending
these test tickets.
Those of you that already recieved 1 or 2 will recieve another between
tomarrow and Friday.
Again, please keep myself, and Velma informed of any problems you are having 
or any questions that may arrise.

Thank you for you cooperation and your patience in this current update,

Kevin Nabak
Supervisor 
La One Call
225-275-3700
x464
kevinnabak@occinc.com

BRDC
FREE FORMAT MESSAGE SENT ON      5-16-06

Date/Time:   5-16-06 at  3:16 PM
To whom this may concern,

There has been a series of test tickets that have been sent out within the
last couple of days. Some of the companies that have recieved the test ticket 
have brought to my attention the fact that the markings are not carrying over
from line to line properly. 
Starting tomarrow and lasting through the rest of the week, I will be resending
these test tickets.
Those of you that already recieved 1 or 2 will recieve another between
tomarrow and Friday.
Again, please keep myself, and Velma informed of any problems you are having 
or any questions that may arrise.

Thank you for you cooperation and your patience in this current update,

Kevin Nabak
Supervisor 
La One Call
225-275-3700
x464
kevinnabak@occinc.com

(KENTUCKY URG PRO INC - KY)   05/25/2006   06:26:37

     -0218             -0220             -0221             -0223
    1-0224BELLTN       -0225             -0227             -0228
     -0229             -0230             -0231             -0237
     -0238             -0239             -0240             -0243
     -0244             -0245             -0246             -0248
     -0249             -0250             -0253             -0254
     -0255             -0256             -0258             -0259
--------------------------------------------------------------------------

TIME..06:23  DATE..05/25/2006

REQUEST NO...20062103402

MESSAGE FROM KENTUCKY DIG SAFELY.  OUR OFFICE WILL BE CLOSED
5-29-06 IN OBSERVANCE OF MEMORIAL DAY.  EMERGENCY CALLS WILL
BE ACCEPTED & DISPATCHED TO YOUR AFTER HOURS #.  REGULAR HOURS
WILL RESUME 5-30-06.  HAVE A SAFE AND HAPPY HOLIDAY.

MESG
FREE FORMAT MESSAGE SENT ON      6-29-06

Date/Time:   6-29-06 at  4:02 PM
Receiving Station:  FALCON10



	ATTENTION ALL OUNC MEMBERS

The Oregon Utility Notification Center Board of Directors is 
initiating a proposed rulemaking to update some of its Oregon 
Administrative Rules.  A public hearing has been scheduled 
for August 8, 2006 at 9:30am in the small hearing room on the
second floor of the Oregon Public Utility Commission building
located at 550 Capitol Street NE in Salem, Oregon.  

Message From: USAN

***IMPORTANT***IMPORTANT***IMPORTANT***
WE ARE IMPLEMENTING SEVERAL NEW CHANGES TO THE CURRENT TICKET FORMAT YOU
ARE RECEIVING VIA USA NORTH.  THIS IS ESTIMATED TO BEGIN THE FIRST WEEK OF
JULY, BEGINNING ON JULY 3RD.  PLEASE CONTACT usanorth@usan.org TO GET AN
EMAIL COPY, OR CALL US AT 925.798.9504 x1 IF YOU WOULD LIKE US TO FAX YOU A
HARD COPY.  IF YOU ARE USING EMAIL,  FAX OR PRINTER, YOU WILL MOST LIKELY
NOT NEED TO MAKE ANY CHANGES.  IF YOU ARE CURRENTLY PARSING ON THE DATA AND
USING A SOFTWARE PROGRAM, PLEASE MAKE THE NECESSARY CHANGES.

1.123456.12345.USAN.12345678.12345678.1234567.{notice.type}.RSEND.{status}
2.	******.DAMAGED./.EXPOSED.******
SPACE
3.Message.Number:.1234567.Received.by.USAN.at.12345.on.12345678.by.12345678
901
SPACE
4.Work.Begins:....12345678.at.12345...Notice:.123.hrs......Priority:.1
SPACE
5.Expires:.12345678.at.17:00...Update.By:.12345678.at.16:59
SPACE
6.Field.Meet.Requested.-.Please.Call.And.Confirm
7.Call.Requested
SPACE
8.Caller:.........1234567890123456789012345
9.Company:........12345678901234567890123456789012345
10.Address:........1234567890123456789012345678901234567890
11.City:...........123456789012345678901234567...State:.12.Zip:..1234567890
12.Business.Tel:...123456789012..................Fax:.123456789012
13.Email.Address:..12345678901234567890123456789012345678901234567890123456
7890
SPACE
14.Nature.of.Work:.1234567890123456789012345678901234567890
15.Done.For:.......12345678901234567890123456....Explosives:.1
16.Foreman:........1234567890123456789012345
17.Field.Tel:......123456789012..................Cell.Tel:.123456789012
18.Area.Premarked:.1...Premark.Method:.1234567890123456789012345
19.Permit.Type:....1234567890....................Number:.123456789012345678
9
20.Excavator.Requests.To.Use.Vacuum.Devices.In.Tolerance.Zone:.1
21.Tolerance.Zone.Contact:.123456789012345678901234567890123456789
22.Contact.Tel:....123456789012..........Contact.Fax:.123456789012
23.Contact.Email.Address:..123456789012345678901234567890123456789012345678
9012
24.Excavation.Enters.Into.Street.Or.Sidewalk.Area:.1
SPACE
25.Location:
26.123456789012345678901234567890123456789012345678901234567890123456789012
3
27.123456789012345678901234567890123456789012345678901234567890123456789012
3
28.123456789012345678901234567890123456789012345678901234567890123456789012
3
29.123456789012345678901234567890123456789012345678901234567890123456789012
3
30.123456789012345678901234567890123456789012345678901234567890123456789012
3
31.123456789012345678901234567890123456789012345678901234567890123456789012
3
32.123456789012345678901234567890123456789012345678901234567890123456789012
3
SPACE
33.Place:.1234567890123456789012345678.County:.12345678901234567890.State:.
12
SPACE
34.Long/Lat.Long:.12345678901.Lat:..123456789.Long:.12345678901.Lat:..12345
6789
SPACE
35.Excavator.Requests.Operator(s).To.Re-mark.Their.Facilities:.1
36.Operator(s).To.Re-mark.Their.Facilities:.1234567890123456789012345678901
2
37.123456789012345678901234567890123456789012345678901234567890123456789012
3
38.123456789012345678901234567890123456789012345678901234567890123456789012
3
39.123456789012345678901234567890123456789012345678901234567890123456789012
3
40.123456789012345678901234567890123456789012345678901234567890123456789012
3
SPACE
41.Comments:
42.#1.EXTEND.TO.04/12/04.RE-MARK.YES.ORIG.DATE.03/29/04.IKLA2.04/12/04
43.#2.FOLLOW-UP.MESSAGE:.PLEASE.IGNORE.THIS.TEST.FROM.USAN.IKLA2.08/23/04

WE WILL SEND OUT AN ADDITIONAL MESSAGE VERIFYING THE CUTOVER DATE.
NOTE: SOME OF THE LINES EXTEND PAST THE SPACE ALLOWED ON THIS MESSAGE,
PLEASE USE THE LINE NUMBERS AS YOUR GUIDE.

***IMPORTANT***IMPORTANT***IMPORTANT***

Message From: KY Dig Safely

MESSAGE FROM KY DIG SAFELY

Due to the capabilities of the new IRTH system we are now able to transmit
emergency locates to an after hours destination as well as your main
destination.   Effective Monday July 31st, our procedure will no longer
include making manual phone calls on emergencies between 5:00pm and 6:00pm
ET.  KDS will still call out emergencies to your after hours number between
6:00pm and 7:00am ET.  If you have not already set up an emergency after
hours destination please contact Jill Roberts at jroberts@kydigsafely.org
or 502-266-5677 option 1.  Thank you for your patience during this
transition.

Message From: KY Dig Safely

Kentucky Dig Safely will be open and accepting all locate requests on
Friday, November 24th.  The two business day notice will still reflect this
day as being a holiday.

MESG
FREE FORMAT MESSAGE SENT ON     11-07-06

Date/Time:  11-07-06 at 11:44 AM
Receiving Station:  BTR01
NOTICE OF SURVEY FOR PROPOSED SEISMIC EXCAVATION 

WEEMS GEOPHYSICAL PLANS  A SEISMOGRAPH EXPLORATION IN AVOYELLES PARISH  PLEASE CONTACT PAUL KOONE AT 281-589-9626  A LOCATE REQUEST CANNOT BE PROCESSED BECAUSE THEY CAN'T DETERMINE WHERE IN THE 80 SQ MI AREA THE WORK WILL ACTUALLY TAKE PLACE  THIS IS FOR NOTIFICATION OF SURVEY PURPOSES ONLY  PLS CONTACT PAUL FOR FURTHER DETAILS  THE 80 SQ MI AREA BEGINS AT NW BOUNDARY LOCATED AT LAT 31 01 25 N/LONG 91 55 27 W AT POINT 1 & CONTINUES CLOCKWISE 80 DEG (47,800FT) TO POINT 2/GO 190 DEG (12,900FT) TO POINT 3/GO 238 DEG (10,900FT) TO POINT 4/GO 178 DEG (36,500FT) TO POINT 5/GO 244 DEG (21,500FT) TO POINT 6/GO 269 DEG (24,500FT) TO POINT 7/GO 11 DEG (27,000FT) TO POINT 8/GO 27 DEG (9,300FT) TO POINT 9/GO 354 DEG (29,400FT) BACK TO POINT 1          PLEASE CONTACT PAUL KOONE  WEEMS GEOPHYSICAL 281-589-9626

Message From PUPS
11/4/2011 7:24:11 AM
GOOD MORNING,                                                                   
                                                                                
THIS IS A REMINDER THAT SC811 (PUPS) WILL BE CLOSED ON FOR VETERAN'S DAY -      
FRIDAY (11/11/11).                                                              
                                                                                
IF YOU ARE OPEN (11/11/11) FOR VETERAN'S DAY - PLEASE CONTACT RHONDA IMMEDATELY,
PLEASE EMAIL (RDOTMAN@SC1PUPS.ORG) OR CALL (800) 290-2783 PRESS 1.              
THERE WILL BE NO NEED FOR SC811 TO CONTACT YOUR AFTER HOURS PROCESS IF YOU ARE  
OPEN FOR VETERAN'S DAY.                                                         
                                                                                
PLEASE RESPOND BY WEDNESDAY (11/9/11) - PLEASE REMEMBER TO SEND YOUR MEMBER CODE
ON THE EMAIL.                                                                   
                                                                                
THANK YOU FOR YOUR HELP AND UNDERSTANDING.  FEEL FREE TO GIVE ME A CALL IF ANY  
QUESTIONS.                                                                      
                                                                                
SINCERELY,                                                                      
RHONDA DOTMAN                                                                   
APPLICATIONS SUPPORT ADMINISTRATOR                                              
(800) 290-2783 PRESS 1                                                          
                                                                                


