
NOTICE OF INTENT TO EXCAVATE                                    NO SHOW
Ticket No: 00169658
Transmit      Date: 03/14/02      Time: 01:03    Op: france
Original Call Date: 03/11/02      Time: 15:56    Op: france
Work to Begin Date: 03/13/02      Time: 04PM

Place: STAFFORD
Address: 5           Street: PIN OAK CT
Nearest Intersecting Street: KRISMATT CT

Type of Work: INST A FENCE
Extent of Work:   LOC ENTIRE PROP AT ABOVE ADDRESS
Remarks: NO T/TECH
:                                                        Fax: (540)775-2681

Company     : TRIPLE K FENCE CORP
Contact Name: KATHY LAKE            Contact Phone: (540)775-3154
Alt. Contact: ANSWERING SERVICE     Alt. Phone   : (540)374-9283
Work Being Done For: MR FLYNN
State: VA              County: STAFFORD
Map: STAF  Page: 011   Grid Cells: K01
Explosives: N
CTL03      PRV01      SCU01
Send To: CMG   01  Seq No: 0001   Map Ref:
         VPW   01          0001



NOTICE OF INTENT TO EXCAVATE      INSUFFICIENT NOTICE
Ticket No: 00177630
Transmit      Date: 03/14/02      Time: 01:03    Op: amanda
Original Call Date: 03/13/02      Time: 16:18    Op: amanda
Work to Begin Date: 03/14/02      Time: 07AM

Place: WINCHESTER
Address:             Street: STERLING CUP CIR
Nearest Intersecting Street: ATOKA DR

Type of Work: INSTALL CATV MAIN
Extent of Work:   LOC ENTIRE PROP OF 105 OF ABOVE ST
Remarks: CALLER REQUESTS BOTH FLAGS AND PAINT, CALLER UNSURE OF T/TECH
: INSUFFICIENT NOTICE                                    Fax: (540)868-9099

Company     : S & N COMMUNICATIONS
Contact Name: KATHIE DILLON         Contact Phone: (540)868-0697
Alt. Contact: GARLAND ESTES         Alt. Phone   : (540)229-1651
Work Being Done For: ADELPHIA
State: VA              County: FREDERICK
Map: FRD   Page: 021   Grid Cells: B07
Explosives: N
FCS01
Send To: ADCC  01  Seq No: 0001   Map Ref:
         PTE   05          0001
         SHG   01          0001
         TVA   01          0001



NOTICE OF INTENT TO EXCAVATE      INSUFFICIENT NOTICE
Ticket No: 00177636
Transmit      Date: 03/14/02      Time: 01:03    Op: amanda
Original Call Date: 03/13/02      Time: 16:20    Op: amanda
Work to Begin Date: 03/14/02      Time: 07AM

Place: WINCHESTER
Address:             Street: STERLING CUP CIR
Nearest Intersecting Street: ATOKA DR

Type of Work: INSTALL CATV MAIN
Extent of Work:   LOC REAR OF LOTS 104 AND 106
Remarks: CALLER REQUESTS BOTH FLAGS AND PAINT, CALLER UNSURE OF T/TECH
: INSUFFICIENT NOTICE                                    Fax: (540)868-9099

Company     : S & N COMMUNICATIONS
Contact Name: KATHIE DILLON         Contact Phone: (540)868-0697
Alt. Contact: GARLAND ESTES         Alt. Phone   : (540)229-1651
Work Being Done For: ADELPHIA
State: VA              County: FREDERICK
Map: FRD   Page: 021   Grid Cells: B07
Explosives: N
FCS01
Send To: ADCC  01  Seq No: 0002   Map Ref:
         PTE   05          0002
         SHG   01          0002
         TVA   01          0002



NOTICE OF INTENT TO EXCAVATE      INSUFFICIENT NOTICE
Ticket No: 00177641
Transmit      Date: 03/14/02      Time: 01:03    Op: amanda
Original Call Date: 03/13/02      Time: 16:21    Op: amanda
Work to Begin Date: 03/14/02      Time: 07AM

Place: WINCHESTER
Address: 2360        Street: SENSENY RD
Nearest Intersecting Street: ROSSUM BLVD

Type of Work: INSTALL CATV MAIN
Extent of Work:   LOC ENTIRE PROP OF ABOVE ADDRESS AND INCLUDE 50 FT RADIUS
: AROUND POLE 6A CONTINUE LOC CROSSING SENSENY RD TO ROSSUM BLVD
Remarks: CALLER REQUESTS BOTH FLAGS AND PAINT, CALLER UNSURE OF T/TECH
: INSUFFICIENT NOTICE                                    Fax: (540)868-9099

Company     : S & N COMMUNICATIONS
Contact Name: KATHIE DILLON         Contact Phone: (540)868-0697
Alt. Contact: GARLAND ESTES         Alt. Phone   : (540)229-1651
Work Being Done For: ADELPHIA
State: VA              County: FREDERICK
Map: FRD   Page: 021   Grid Cells: E08
Explosives: N
FCS01
Send To: ADCC  01  Seq No: 0003   Map Ref:
         PTE   05          0003
         SHG   01          0003
         TVA   01          0003



NOTICE OF INTENT TO EXCAVATE
Ticket No: 00176349
Transmit      Date: 03/14/02      Time: 01:03    Op: dawn.s
Original Call Date: 03/13/02      Time: 13:02    Op: dawn.s
Work to Begin Date: 03/15/02      Time: 01PM

Place: FRONT ROYAL
Address:             Street: SUCCESS RD
Nearest Intersecting Street: US RT 522

Type of Work: SOIL TEST BORINGS
Extent of Work:   LOC ENTIRE PROP BOUNDED BY US RT 522 TO THE W, POWER LINE
: TO THE E AND 2500 FT S OF RT 675 TO 1600 FT N OF RT 675 (BEST INFORMATION
: CALLER COULD PROVIDE PLS CONTACT CALLER WITH QUESTIONS)
Remarks: LEGALS NOT PROVIDED FOR THIS LOCATE REQUEST
: PAGE AND GRID IS APPROXIMATE.                          Fax: (540)667-2260

Company     : TRIAD ENGINEERING
Contact Name: JOSHUA HOLLOMAN       Contact Phone: (540)667-9300
Alt. Contact: DAN HAMRIC            Alt. Phone   :
Work Being Done For: TRIAD
State: VA              County: WARREN
Map: WARR  Page: 001   Grid Cells: B06,B07
Explosives: N
CEN37      CTR02      TOFR01     TOFRE01
Send To: ADCC  02  Seq No: 0001   Map Ref:
         PTE   05          0004
         SHG   01          0004
         TVA   01          0004



NOTICE OF INTENT TO EXCAVATE
Ticket No: 00176613
Transmit      Date: 03/14/02      Time: 01:03    Op: kevin
Original Call Date: 03/13/02      Time: 13:42    Op: kevin
Work to Begin Date: 03/15/02      Time: 01PM

Place: THE PLAINS
Address: 4079        Street: HALFWAY RD
Nearest Intersecting Street: HOPEWELL RD

Type of Work: INST NEW SWR MAIN
Extent of Work:   LOC 300FT RADIUS OF HSE AND GARAGE
Remarks: NO T/TECH
:                                                        Fax: (540)687-5342

Company     : J R SNYDER LTD
Contact Name: WINDALE THOMPSON      Contact Phone: (540)687-5232
Alt. Contact: MR J R SNYDER'S CELL  Alt. Phone   : (540)454-4016
Work Being Done For: YOUNGSMAN
State: VA              County: FAUQUIER
Map: FAUQ  Page: 015   Grid Cells: E05
Explosives: N
FCWS01     PRV02
Send To: TVA   03  Seq No: 0001   Map Ref:
         VPW   07          0001



NOTICE OF INTENT TO EXCAVATE
Ticket No: 00177051
Transmit      Date: 03/14/02      Time: 01:03    Op: natash
Original Call Date: 03/13/02      Time: 14:47    Op: natash
Work to Begin Date: 03/15/02      Time: 03PM

Place: WARRENTON
Address: 7244        Street: HUNTON ST
Nearest Intersecting Street: TAZEWELL ST

Type of Work: REPLACING DECK N/E
Extent of Work:   LOC REAR OF PROP AND 10FT AROUND EXISTING DECK
Remarks: NO T/TECH

Company     : TRUE BLUE CONSTRUCTION
Contact Name: JOHN TOHZEHL          Contact Phone: (703)447-8680
Alt. Contact:                       Alt. Phone   : (540)788-1170
Work Being Done For: RUSS KOZERSKI
State: VA              County: FAUQUIER
Map: FAUQ  Page: 026   Grid Cells: D02,D03
Explosives: N
LSW01      MCI02      PRV02      TOW01
Send To: CLG   02  Seq No: 0001   Map Ref:
         TVA   03          0002
         VPW   07          0002



NOTICE OF INTENT TO EXCAVATE
Ticket No: 00177062
Transmit      Date: 03/14/02      Time: 01:03    Op: geneva
Original Call Date: 03/13/02      Time: 14:48    Op: geneva
Work to Begin Date: 03/15/02      Time: 03PM

Place: BRISTERSBURG
Address:             Street: RT 639
Nearest Intersecting Street: RT 616

Type of Work: PLACING MAINLINE CABLE
Extent of Work:   STARTING AT THE ABOVE INTER, GOING S ON RT 639, LOCATE
: BOTH  SIDES OF THE RD FOR 5000FT TO YEATS DR.
Remarks:
:                                                        Fax: (540)547-3001

Company     : FRAZIER CONSTRUCTION
Contact Name: JACK FRAZIER          Contact Phone: (540)547-3001
Alt. Contact: NONE                  Alt. Phone   :
Work Being Done For: VERIZON TELEPHONE CABLE
State: VA              County: FAUQUIER
Map: FAUQ  Page: 038   Grid Cells: H06,J06,J07
Explosives: N
ATT02      NVE01      PFNT01
Send To: TVA   03  Seq No: 0003   Map Ref:



NOTICE OF INTENT TO EXCAVATE
Ticket No: 00177081
Transmit      Date: 03/14/02      Time: 01:03    Op: john
Original Call Date: 03/13/02      Time: 14:51    Op: john
Work to Begin Date: 03/15/02      Time: 03PM

Place: STAFFORD
Address: 14          Street: LUDWELL LA
Nearest Intersecting Street: MONUMENT DR

Type of Work: INST UG IRRIGSATION
Extent of Work:   LOC ENTIRE PROP OF LOT 96
Remarks: CALLER REQUESTS BOTH FLAGS AND PAINT
:                                                        Fax: (540)899-3275

Company     : RICK CARNEY IRRIGATION INC
Contact Name: JUDY VANHUTTON        Contact Phone: (540)899-3277
Alt. Contact: DEBBIE JACKSON        Alt. Phone   : (540)752-5032
Work Being Done For: SIGNATURE SERIES HOMES
State: VA              County: STAFFORD
Map: STAF  Page: 011   Grid Cells: D02
Explosives: N
CTL03      PRV01      SCU01
Send To: CMG   01  Seq No: 0002   Map Ref:
         VPW   01          0002



NOTICE OF INTENT TO EXCAVATE
Ticket No: 00177203               Update Of: 00120707
Transmit      Date: 03/14/02      Time: 01:03    Op: tracy.
Original Call Date: 03/13/02      Time: 15:11    Op: tracy.
Work to Begin Date: 03/15/02      Time: 03PM

Place: STAFFORD
Address: 32          Street: BLACKBERRY LA
Nearest Intersecting Street: GREENBANK RD

Type of Work: BURYING TELEPHONE SVC
Extent of Work:   LOC 10FT RADIUS AROUND PED #7.8 THEN CONTINUE LOCATING
: DOWN LEFT SIDE OF GREENBANK RD TO INTER OF GREENBANK RD & BLACKBERRY LA
: THEN CONTINUE LOCATING DOWN BLACKBERRY LA TO NID AT ABOVE ADDRESS
Remarks: T/TECH
: TKT PER ORIG PER UPDATE TJS                            Fax: (540)582-2848

Company     : HOLLADAY CONSTRUCTION INC
Contact Name: MARTHA BUTLER         Contact Phone: (540)582-2700
Alt. Contact:                       Alt. Phone   :
Work Being Done For: VERIZON
State: VA              County: STAFFORD
Map: STAF  Page: 015   Grid Cells: F07,F08
Explosives: N
ATT02      CFR01      PRV01
Send To: TVA   04  Seq No: 0001   Map Ref:
         VPW   01          0003



NOTICE OF INTENT TO EXCAVATE
Ticket No: 00177214               Update Of: 00120705
Transmit      Date: 03/14/02      Time: 01:03    Op: tracy.
Original Call Date: 03/13/02      Time: 15:12    Op: tracy.
Work to Begin Date: 03/15/02      Time: 03PM

Place: STAFFORD
Address: 31          Street: BLACKBERRY LA
Nearest Intersecting Street: GREENBANK RD

Type of Work: BURYING TELEPHONE SVC
Extent of Work:   LOC 10FT RADIUS AROUND PED #7.8 THEN CONTINUE LOCATING
: DOWN LEFT SIDE OF GREENBANK RD TO INTER OF GREENBANK RD & BLACKBERRY LA
: THEN CONTINUE LOCATING DOWN BLACKBERRY LA TO NID AT ABOVE ADDRESS
Remarks: T/TECH
: TKT PER ORIG PER UPDATE TJS                            Fax: (540)582-2848

Company     : HOLLADAY CONSTRUCTION INC
Contact Name: MARTHA BUTLER         Contact Phone: (540)582-2700
Alt. Contact:                       Alt. Phone   :
Work Being Done For: VERIZON
State: VA              County: STAFFORD
Map: STAF  Page: 015   Grid Cells: F07,F08
Explosives: N
ATT02      CFR01      PRV01
Send To: TVA   04  Seq No: 0002   Map Ref:
         VPW   01          0004



NOTICE OF INTENT TO EXCAVATE
Ticket No: 00177221               Update Of: 00120691
Transmit      Date: 03/14/02      Time: 01:04    Op: tracy.
Original Call Date: 03/13/02      Time: 15:12    Op: tracy.
Work to Begin Date: 03/15/02      Time: 03PM

Place: STAFFORD
Address: 27          Street: BLACKBERRY LA
Nearest Intersecting Street: GREENBANK RD

Type of Work: BURYING TELEPHONE SVC
Extent of Work:   LOC 10FT RADIUS AROUND PED #7.8 THEN CONTINUE LOCATING
: DOWN LEFT SIDE OF GREENBANK RD TO INTER OF GREENBANK RD & BLACKBERRY LA
: THEN CONTINUE LOCATING DOWN BLACKBERRY LA TO NID AT ABOVE ADDRESS
Remarks: T/TECH
: TKT PER ORIG PER UPDATE TJS                            Fax: (540)582-2848

Company     : HOLLADAY CONSTRUCTION INC
Contact Name: MARTHA BUTLER         Contact Phone: (540)582-2700
Alt. Contact:                       Alt. Phone   :
Work Being Done For: VERIZON
State: VA              County: STAFFORD
Map: STAF  Page: 015   Grid Cells: F07,F08
Explosives: N
ATT02      CFR01      PRV01
Send To: TVA   04  Seq No: 0003   Map Ref:
         VPW   01          0005



NOTICE OF INTENT TO EXCAVATE
Ticket No: 00177329
Transmit      Date: 03/14/02      Time: 01:04    Op: charro
Original Call Date: 03/13/02      Time: 15:30    Op: charro
Work to Begin Date: 03/15/02      Time: 03PM

Place: STAFFORD
Address: 71          Street: TAVERN RD
Nearest Intersecting Street: AUSTIN RIDGE DR

Type of Work: INST UG IRRIGATION SYSTEM
Extent of Work:   LOC ENTIRE PROP
Remarks: NO T/TECH
: CALLER REQUESTS BOTH FLAGS AND PAINT                   Fax: (540)899-3275

Company     : RICK CARNEY IRRIGATION INC
Contact Name: JUDY VANHUTTON        Contact Phone: (540)899-3277
Alt. Contact: DEBBIE JACKSON        Alt. Phone   : (540)752-5032
Work Being Done For: KIM HOEPKER
State: VA              County: STAFFORD
Map: STAF  Page: 012   Grid Cells: C02
Explosives: N
CTL03      PRV01      SCU01
Send To: CMG   01  Seq No: 0003   Map Ref:
         VPW   01          0006



NOTICE OF INTENT TO EXCAVATE
Ticket No: 00177368
Transmit      Date: 03/14/02      Time: 01:04    Op: natali
Original Call Date: 03/13/02      Time: 15:34    Op: natali
Work to Begin Date: 03/15/02      Time: 03PM

Place: WARRENTON
Address:             Street: FOX CHASE ST
Nearest Intersecting Street: LANCREL RD

Type of Work: INST WTR & SWR SVC
Extent of Work:   LOC ENTIRE PROP FOR LOT 92 --OLDE GOLD CUP SUBD--
Remarks:
: NO T/TECH                                              Fax: (540)364-9412

Company     : HUGHES ENTERPRISES
Contact Name: RUTH HUGHES           Contact Phone: (540)364-9410
Alt. Contact: BRIAN HUGHES          Alt. Phone   :
Work Being Done For: SONA HOMES
State: VA              County: FAUQUIER
Map: FAUQ  Page: 025   Grid Cells: J04
Explosives: N
LSW01      MCI02      PRV02      TOW01
Send To: CLG   02  Seq No: 0002   Map Ref:
         TVA   03          0004
         VPW   07          0003



NOTICE OF INTENT TO EXCAVATE
Ticket No: 00177389
Transmit      Date: 03/14/02      Time: 01:04    Op: natali
Original Call Date: 03/13/02      Time: 15:37    Op: natali
Work to Begin Date: 03/15/02      Time: 03PM

Place: WARRENTON
Address:             Street: FOX CHASE ST
Nearest Intersecting Street: LANCREL RD

Type of Work: INST WTR & SWR SVC
Extent of Work:   LOC ENTIRE PROP FOR LOT 87 --OLDE GOLD CUP SUBD--
Remarks:
: NO T/TECH                                              Fax: (540)364-9412

Company     : HUGHES ENTERPRISES
Contact Name: RUTH HUGHES           Contact Phone: (540)364-9410
Alt. Contact: BRIAN HUGHES          Alt. Phone   :
Work Being Done For: SONA HOMES
State: VA              County: FAUQUIER
Map: FAUQ  Page: 025   Grid Cells: J04
Explosives: N
LSW01      MCI02      PRV02      TOW01
Send To: CLG   02  Seq No: 0003   Map Ref:
         TVA   03          0005
         VPW   07          0004



NOTICE OF INTENT TO EXCAVATE
Ticket No: 00177391
Transmit      Date: 03/14/02      Time: 01:04    Op: natali
Original Call Date: 03/13/02      Time: 15:37    Op: natali
Work to Begin Date: 03/15/02      Time: 03PM

Place: WARRENTON
Address:             Street: FOX CHASE ST
Nearest Intersecting Street: LANCREL RD

Type of Work: INST WTR & SWR SVC
Extent of Work:   LOC ENTIRE PROP FOR LOT 93 --OLDE GOLD CUP SUBD--
Remarks:
: NO T/TECH                                              Fax: (540)364-9412

Company     : HUGHES ENTERPRISES
Contact Name: RUTH HUGHES           Contact Phone: (540)364-9410
Alt. Contact: BRIAN HUGHES          Alt. Phone   :
Work Being Done For: SONA HOMES
State: VA              County: FAUQUIER
Map: FAUQ  Page: 025   Grid Cells: J04
Explosives: N
LSW01      MCI02      PRV02      TOW01
Send To: CLG   02  Seq No: 0004   Map Ref:
         TVA   03          0006
         VPW   07          0005



NOTICE OF INTENT TO EXCAVATE
Ticket No: 00177394
Transmit      Date: 03/14/02      Time: 01:04    Op: natali
Original Call Date: 03/13/02      Time: 15:38    Op: natali
Work to Begin Date: 03/15/02      Time: 03PM

Place: WARRENTON
Address:             Street: RACE COURSE RD
Nearest Intersecting Street: EQUESTRIAN RD

Type of Work: INST WTR & SWR SVC
Extent of Work:   LOC ENTIRE PROP FOR LOT 112 --OLDE GOLD CUP SUBD--
Remarks:
: NO T/TECH                                              Fax: (540)364-9412

Company     : HUGHES ENTERPRISES
Contact Name: RUTH HUGHES           Contact Phone: (540)364-9410
Alt. Contact: BRIAN HUGHES          Alt. Phone   :
Work Being Done For: SONA HOMES
State: VA              County: FAUQUIER
Map: FAUQ  Page: 025   Grid Cells: J04
Explosives: N
LSW01      MCI02      PRV02      TOW01
Send To: CLG   02  Seq No: 0005   Map Ref:
         TVA   03          0007
         VPW   07          0006



NOTICE OF INTENT TO EXCAVATE
Ticket No: 00177408
Transmit      Date: 03/14/02      Time: 01:04    Op: natali
Original Call Date: 03/13/02      Time: 15:40    Op: natali
Work to Begin Date: 03/15/02      Time: 03PM

Place: ASHBURN
Address: 42921       Street: ELLZEY DR
Nearest Intersecting Street: CLAIBORNE PKWY

Type of Work: INST FENCE
Extent of Work:   LOC ENTIRE PROP
Remarks:
: T/TECH UNKNOWN                                         Fax: (703)471-2185

Company     : LEE FENCE
Contact Name: CHRIS MCKEYSER        Contact Phone: (703)471-7766
Alt. Contact:                       Alt. Phone   :
Work Being Done For: BORMAN
State: VA              County: FAUQUIER
Map: FAUQ  Page: 030   Grid Cells: D05
Explosives: N
CTR08      RPE01
Send To: TVA   03  Seq No: 0008   Map Ref:
         VPW   07          0007



NOTICE OF INTENT TO EXCAVATE
Ticket No: 00177410
Transmit      Date: 03/14/02      Time: 01:05    Op: emily
Original Call Date: 03/13/02      Time: 15:41    Op: emily
Work to Begin Date: 03/15/02      Time: 03PM

Place: GARRISONVILLE
Address: 364         Street: GARRISONVILLE RD
Nearest Intersecting Street: DUNN DR

Type of Work: EXCAVATION TO PERFORM STORM SWR REPAIRS  N/E
Extent of Work:   FROM THE ABOVE INTER GO W ON GARRISONVILLE RD APPROX
: 300FT THEN TURN RIGHT AND GO N ON ENTRANCE RD FOR 100FT AND MARK
: EVERYTHING IN THE RDWY TO THE CENTER LINE OF WORTH AV, ABOVE ADDRESS IS
: RETAIL BLDG# 3 364 GARRISONVILLE RD
Remarks: NO T/TECH
: TKT TAKEN PER CALLER                                   Fax: (804)752-2921

Company     : S W RODGERS CONTRACTING
Contact Name: BARRY MCCLENAHEN      Contact Phone: (540)898-2600
Alt. Contact: ARTY ROBINSON         Alt. Phone   : (804)752-2592
Work Being Done For: THE SILVER COMPANY
State: VA              County: STAFFORD
Map: STAF  Page: 007   Grid Cells: C09
Explosives: N
CTL03      PRV01      SCU01
Send To: CMG   01  Seq No: 0004   Map Ref:
         VPW   01          0007



NOTICE OF INTENT TO EXCAVATE
Ticket No: 00177426
Transmit      Date: 03/14/02      Time: 01:05    Op: charro
Original Call Date: 03/13/02      Time: 15:44    Op: charro
Work to Begin Date: 03/15/02      Time: 03PM

Place: LAKOTA
Address:             Street: RT 651
Nearest Intersecting Street: RT 621

Type of Work: INST 2 ELEC POLES AND ANCHORS
Extent of Work:   LOC 20FT RADIUS AT THE 2 POLE FLAGS LOCATED ON RIGHT SIDE
: OF THE NEW DRWY WHICH WILL BE ON W SIDE OF RT 651 APPROX 4/10MILE N OF
: ABOVE INTER
Remarks:
:                                                        Fax: (540)727-2171

Company     : RAPPAHANNOCK ELEC CO
Contact Name: BETTY MILLS           Contact Phone: (540)825-8373
Alt. Contact: BETTY MILLS           Alt. Phone   :
Work Being Done For: RAPPAHANNOCK ELEC CO
State: VA              County: FAUQUIER
Map: FAUQ  Page: 029   Grid Cells: B10
Explosives: N
RPE01
Send To: TVA   03  Seq No: 0009   Map Ref:



NOTICE OF INTENT TO EXCAVATE
Ticket No: 00177430
Transmit      Date: 03/14/02      Time: 01:05    Op: dawn.s
Original Call Date: 03/13/02      Time: 15:45    Op: dawn.s
Work to Begin Date: 03/15/02      Time: 04PM

Place: STAFFORD
Address: 1010        Street: SPAIN DR
Nearest Intersecting Street: HARBOUR DR

Type of Work: INSTALLING LIGHT POLE
Extent of Work:   AS FACING, LOC APPROX 15 FT FROM GARAGE, SITE IS MARKED
: WITH STONES
Remarks: LEGALS NOT PROVIDED FOR THIS LOCATE REQUEST, NO T/TECH

Company     : JANET BROWN
Contact Name: HOMEOWNER             Contact Phone: (540)720-6405
Alt. Contact: BETTY YOUNG           Alt. Phone   : (540)720-6405
Work Being Done For: JANET BROWN
State: VA              County: STAFFORD
Map: STAF  Page: 007   Grid Cells: F12,F13,G13
Explosives: N
CTL03      PRV01      SCU01
Send To: CMG   01  Seq No: 0005   Map Ref:
         VPW   01          0008



NOTICE OF INTENT TO EXCAVATE
Ticket No: 00177440
Transmit      Date: 03/14/02      Time: 01:05    Op: emily
Original Call Date: 03/13/02      Time: 15:46    Op: emily
Work to Begin Date: 03/15/02      Time: 04PM

Place: GARRISONVILLE
Address:             Street: GARRISONVILLE RD
Nearest Intersecting Street: ONVILLE RD

Type of Work: EXCAVATION TO PERFORM STORM SWR REPAIRS  N/E
Extent of Work:   BEGIN AT RETAIL BLDG# 2 GARRISONVILLE RD E OF 376
: GARRISONVILLE RD WHICH IS MERCHANTS TIRE STORE, MARK ALL UTILS FROM FRONT
: OF BLDG TO WORTH AV AT REAR OF BLDG AND EVERYTHING WITHIN 100FT OF EACH
: SIDE OF THE BLDG
Remarks: NO T/TECH
: TKT TAKEN PER CALLER                                   Fax: (804)752-2921

Company     : S W RODGERS CONTRACTING
Contact Name: BARRY MCCLENAHEN      Contact Phone: (540)898-2600
Alt. Contact: ARTY ROBINSON         Alt. Phone   : (804)752-2592
Work Being Done For: THE SILVER COMPANY
State: VA              County: STAFFORD
Map: STAF  Page: 007   Grid Cells: C09
Explosives: N
CTL03      PRV01      SCU01
Send To: CMG   01  Seq No: 0006   Map Ref:
         VPW   01          0009



NOTICE OF INTENT TO EXCAVATE
Ticket No: 00177492
Transmit      Date: 03/14/02      Time: 01:05    Op: dawn.s
Original Call Date: 03/13/02      Time: 15:55    Op: dawn.s
Work to Begin Date: 03/15/02      Time: 04PM

Place: WARRENTON
Address: 774         Street: CULPEPER ST
Nearest Intersecting Street: LEES RIDGE RD

Type of Work: EXPOSING GAS SERV LINE
Extent of Work:   LOC ENTIRE PROP AND THE STREET IN FRONT OF PROP
Remarks: NO T/TECH
:                                                        Fax: (703)753-3348

Company     : COLUMBIA GAS
Contact Name: TRACY WARNER          Contact Phone: (703)754-6600
Alt. Contact:                       Alt. Phone   : (703)754-6635
Work Being Done For: COLUMBIA GAS
State: VA              County: FAUQUIER
Map: FAUQ  Page: 025   Grid Cells: J09
Explosives: N
LSW01      PRV02      TOW01
Send To: CLG   02  Seq No: 0006   Map Ref:
         TVA   03          0010
         VPW   07          0008



NOTICE OF INTENT TO EXCAVATE
Ticket No: 00177508
Transmit      Date: 03/14/02      Time: 01:05    Op: dawn.s
Original Call Date: 03/13/02      Time: 15:57    Op: dawn.s
Work to Begin Date: 03/15/02      Time: 04PM

Place: EDINBURG
Address: 182         Street: CHRISTY LA
Nearest Intersecting Street: GATEWAY LA

Type of Work: PLANTING SHRUBBERY
Extent of Work:   LOC ENTIRE PERIMETER OF PROP FROM THE POWER BOX AT ABOVE
: ADDRESS
Remarks: LEGALS NOT PROVIDED FOR THIS LOCATE REQUEST

Company     : JEFF MARSTON
Contact Name: HOMEOWNER             Contact Phone: (540)984-4769
Alt. Contact:                       Alt. Phone   :
Work Being Done For: JEFF MARSTON
State: VA              County: SHENANDOAH
Map: SHEN  Page: 088   Grid Cells: A03,A04
Explosives: N
STC01      SVE01
Send To: VPW   09  Seq No: 0001   Map Ref:



NOTICE OF INTENT TO EXCAVATE
Ticket No: 00177515
Transmit      Date: 03/14/02      Time: 01:05    Op: dawn.s
Original Call Date: 03/13/02      Time: 15:58    Op: dawn.s
Work to Begin Date: 03/15/02      Time: 04PM

Place: WARRENTON
Address: 7600        Street: PAULSON CT
Nearest Intersecting Street: MILLFIELD DR

Type of Work: INSTALL TELE SVC LINE
Extent of Work:   LOC ENTIRE PROP
Remarks: NO T/TECH

Company     : FRAZIER CONSTRUCTION
Contact Name: LINDA CORDER          Contact Phone: (540)727-8359
Alt. Contact: NONE                  Alt. Phone   :
Work Being Done For: VERIZON
State: VA              County: FAUQUIER
Map: FAUQ  Page: 026   Grid Cells: D06
Explosives: N
PRV02      TOW01
Send To: CLG   02  Seq No: 0007   Map Ref:
         TVA   03          0011
         VPW   07          0009



NOTICE OF INTENT TO EXCAVATE
Ticket No: 00177522
Transmit      Date: 03/14/02      Time: 01:05    Op: r.atla
Original Call Date: 03/13/02      Time: 15:59    Op: r.atla
Work to Begin Date: 03/15/02      Time: 04PM

Place: STAFFORD
Address:             Street: RIPLEY RD.
Nearest Intersecting Street: HAYES LANE

Type of Work: SEWER AND WATER SERVICE INSTALLAION
Extent of Work:   LOCATE THE FRONT OF PROPERTY FOR LOTS 107, 114, 118, AND
: 129
: APPLEGROVE SUB.
Remarks: FLAGS, PAINT, AND CURB OFFSETS
: T/TECH-NO                                              Fax: (703)330-1254

Company     : ATLAS PLUMBING AND MECHANICAL
Contact Name: KIM FLOYD             Contact Phone: (703)330-5050
Alt. Contact: JUDI BALDERSON        Alt. Phone   :
Work Being Done For: RYLAND HOMES
State: VA              County: STAFFORD
Map: STAF  Page: 006   Grid Cells: E08
Explosives: N
CTL03      PRV01      SCU01
Send To: VPW   01  Seq No: 0010   Map Ref:



NOTICE OF INTENT TO EXCAVATE
Ticket No: 00177528
Transmit      Date: 03/14/02      Time: 01:05    Op: amy.c
Original Call Date: 03/13/02      Time: 16:00    Op: amy.c
Work to Begin Date: 03/15/02      Time: 04PM

Place: STAFFORD
Address: 3           Street: HILLCREST DR
Nearest Intersecting Street: VAN HORN LA

Type of Work: BURYING UG CATV SVC DROPS
Extent of Work:   LOC ENTIRE PROP
Remarks: NO T/TECH
:                                                        Fax: (540)710-9583

Company     : MYERS CABLE(XMYERS)
Contact Name: SUSAN HEFLIN          Contact Phone: (540)785-8044
Alt. Contact: SUSIE HEFLIN          Alt. Phone   :
Work Being Done For: ADELPHIA CABLE
State: VA              County: STAFFORD
Map: STAF  Page: 005   Grid Cells: E05
Explosives: N
CTL03      NVE01      PRV01      XMYERS
Send To: TVA   04  Seq No: 0004   Map Ref:



NOTICE OF INTENT TO EXCAVATE
Ticket No: 00177530
Transmit      Date: 03/14/02      Time: 01:06    Op: dawn.s
Original Call Date: 03/13/02      Time: 16:00    Op: dawn.s
Work to Begin Date: 03/15/02      Time: 04PM

Place: MARSHALL
Address: 8383        Street: ELDORADO DR
Nearest Intersecting Street: RECTORTOWN RD

Type of Work: INSTALL TELE SVC LINE
Extent of Work:   LOC ENTIRE PROP
Remarks: NO T/TECH

Company     : FRAZIER CONSTRUCTION
Contact Name: LINDA CORDER          Contact Phone: (540)727-8359
Alt. Contact: NONE                  Alt. Phone   :
Work Being Done For: VERIZON
State: VA              County: FAUQUIER
Map: FAUQ  Page: 014   Grid Cells: A04
Explosives: N
FCWS01     MARS01     PRV02
Send To: TVA   03  Seq No: 0012   Map Ref:
         VPW   07          0010



NOTICE OF INTENT TO EXCAVATE
Ticket No: 00177533
Transmit      Date: 03/14/02      Time: 01:06    Op: r.atla
Original Call Date: 03/13/02      Time: 16:01    Op: r.atla
Work to Begin Date: 03/15/02      Time: 04PM

Place: STAFFORD
Address:             Street: RIPLEY RD.
Nearest Intersecting Street: HAYES LANE

Type of Work: SEWER AND WATER SERVICE INSTALLAION
Extent of Work:   LOCATE THE FRONT OF PROPERTY FOR LOTS 141, 182, AND 185
: APPLEGROVE SUB.
Remarks: FLAGS, PAINT, AND CURB OFFSETS
: T/TECH-NO                                              Fax: (703)330-1254

Company     : ATLAS PLUMBING AND MECHANICAL
Contact Name: KIM FLOYD             Contact Phone: (703)330-5050
Alt. Contact: JUDI BALDERSON        Alt. Phone   :
Work Being Done For: RYLAND HOMES
State: VA              County: STAFFORD
Map: STAF  Page: 006   Grid Cells: E08
Explosives: N
CTL03      PRV01      SCU01
Send To: VPW   01  Seq No: 0011   Map Ref:



NOTICE OF INTENT TO EXCAVATE
Ticket No: 00177537
Transmit      Date: 03/14/02      Time: 01:06    Op: stacie
Original Call Date: 03/13/02      Time: 16:01    Op: stacie
Work to Begin Date: 03/15/02      Time: 04PM

Place: STAFFORD
Address: 65          Street: STONEWALL DR
Nearest Intersecting Street: WILDERNESS CT

Type of Work: INST ELEC SERV
Extent of Work:   LOC ON THE LEFT HAND SIDE OF THE PROP AS FACING TO THE
: POWER BOX.  DIR:ADDRESS IS LOCATED 1/8 MILE E OF THE ABOVE INTER.
Remarks: NO T/TECH. LEGALS NOT PROVIDED

Company     : GEORGE MARTIN
Contact Name: HOMEOWNER             Contact Phone: (540)286-6908
Alt. Contact:                       Alt. Phone   : (888)420-6277
Work Being Done For: GEORGE MARTIN
State: VA              County: STAFFORD
Map: STAF  Page: 005   Grid Cells: K06
Explosives: N
NVE01      PRV01
Send To: TVA   04  Seq No: 0005   Map Ref:



NOTICE OF INTENT TO EXCAVATE
Ticket No: 00177542
Transmit      Date: 03/14/02      Time: 01:06    Op: amanda
Original Call Date: 03/13/02      Time: 16:02    Op: amanda
Work to Begin Date: 03/15/02      Time: 04PM

Place: MARSHALL
Address: 12188       Street: MOSS HOLLOW RD
Nearest Intersecting Street: LEEDS MANOR RD

Type of Work: INSTALL TELE SVC LINE
Extent of Work:   LOC ENTIRE PROP
Remarks: NO T/TECH

Company     : FRAZIER CONSTRUCTION
Contact Name: LINDA CORDER          Contact Phone: (540)727-8359
Alt. Contact: NONE                  Alt. Phone   :
Work Being Done For: VERIZON
State: VA              County: FAUQUIER
Map: FAUQ  Page: 011   Grid Cells: G02
Explosives: N

Send To: TVA   03  Seq No: 0013   Map Ref:
         VPW   07          0011



NOTICE OF INTENT TO EXCAVATE
Ticket No: 00177543
Transmit      Date: 03/14/02      Time: 01:06    Op: amy.c
Original Call Date: 03/13/02      Time: 16:02    Op: amy.c
Work to Begin Date: 03/15/02      Time: 04PM

Place: STAFFORD
Address: 8           Street: ALVIN CT
Nearest Intersecting Street: CHOPTANK RD

Type of Work: BURYING UG CATV SVC DROPS
Extent of Work:   LOC ENTIRE PROP
Remarks: NO T/TECH
:                                                        Fax: (540)710-9583

Company     : MYERS CABLE(XMYERS)
Contact Name: SUSAN HEFLIN          Contact Phone: (540)785-8044
Alt. Contact: SUSIE HEFLIN          Alt. Phone   :
Work Being Done For: ADELPHIA CABLE
State: VA              County: STAFFORD
Map: STAF  Page: 006   Grid Cells: B12
Explosives: N
CTL03      NVE01      PRV01      SCU01      XMYERS
Send To: CMG   01  Seq No: 0007   Map Ref:
         TVA   04          0006
         VPW   01          0012



NOTICE OF INTENT TO EXCAVATE
Ticket No: 00177546
Transmit      Date: 03/14/02      Time: 01:06    Op: amy.c
Original Call Date: 03/13/02      Time: 16:03    Op: amy.c
Work to Begin Date: 03/15/02      Time: 04PM

Place: STAFFORD
Address: 15          Street: BEAURIDGE DR
Nearest Intersecting Street: MONTGOMERY DR

Type of Work: BURYING UG CATV SVC DROPS
Extent of Work:   LOC ENTIRE PROP
Remarks: NO T/TECH
:                                                        Fax: (540)710-9583

Company     : MYERS CABLE(XMYERS)
Contact Name: SUSAN HEFLIN          Contact Phone: (540)785-8044
Alt. Contact: SUSIE HEFLIN          Alt. Phone   :
Work Being Done For: ADELPHIA CABLE
State: VA              County: STAFFORD
Map: STAF  Page: 006   Grid Cells: C12
Explosives: N
CTL03      NVE01      PRV01      SCU01      XMYERS
Send To: CMG   01  Seq No: 0008   Map Ref:
         VPW   01          0013



NOTICE OF INTENT TO EXCAVATE
Ticket No: 00177549
Transmit      Date: 03/14/02      Time: 01:06    Op: amy.c
Original Call Date: 03/13/02      Time: 16:03    Op: amy.c
Work to Begin Date: 03/15/02      Time: 04PM

Place: STAFFORD
Address: 16          Street: NUGENT DR
Nearest Intersecting Street: KINROSS DR

Type of Work: BURYING UG CATV SVC DROPS
Extent of Work:   LOC ENTIRE PROP
Remarks: NO T/TECH
:                                                        Fax: (540)710-9583

Company     : MYERS CABLE(XMYERS)
Contact Name: SUSAN HEFLIN          Contact Phone: (540)785-8044
Alt. Contact: SUSIE HEFLIN          Alt. Phone   :
Work Being Done For: ADELPHIA CABLE
State: VA              County: STAFFORD
Map: STAF  Page: 006   Grid Cells: H13
Explosives: N
CTL03      PRV01      SCU01      XMYERS
Send To: CMG   01  Seq No: 0009   Map Ref:
         VPW   01          0014



NOTICE OF INTENT TO EXCAVATE
Ticket No: 00177555
Transmit      Date: 03/14/02      Time: 01:06    Op: amy.c
Original Call Date: 03/13/02      Time: 16:04    Op: amy.c
Work to Begin Date: 03/15/02      Time: 04PM

Place: STAFFORD
Address: 204         Street: FRAZIER DR
Nearest Intersecting Street: SKY TERRACE DR

Type of Work: BURYING UG CATV SVC DROPS
Extent of Work:   LOC ENTIRE PROP
Remarks: NO T/TECH
:                                                        Fax: (540)710-9583

Company     : MYERS CABLE(XMYERS)
Contact Name: SUSAN HEFLIN          Contact Phone: (540)785-8044
Alt. Contact: SUSIE HEFLIN          Alt. Phone   :
Work Being Done For: ADELPHIA CABLE
State: VA              County: STAFFORD
Map: STAF  Page: 007   Grid Cells: B08
Explosives: N
CTL03      PRV01      SCU01      XMYERS
Send To: CMG   01  Seq No: 0010   Map Ref:
         VPW   01          0015



NOTICE OF INTENT TO EXCAVATE
Ticket No: 00177557
Transmit      Date: 03/14/02      Time: 01:07    Op: amy.c
Original Call Date: 03/13/02      Time: 16:04    Op: amy.c
Work to Begin Date: 03/15/02      Time: 04PM

Place: STAFFORD
Address: 103         Street: SUNDANCE DR
Nearest Intersecting Street: SKY TERRACE DR

Type of Work: BURYING UG CATV SVC DROPS
Extent of Work:   LOC ENTIRE PROP
Remarks: NO T/TECH
:                                                        Fax: (540)710-9583

Company     : MYERS CABLE(XMYERS)
Contact Name: SUSAN HEFLIN          Contact Phone: (540)785-8044
Alt. Contact: SUSIE HEFLIN          Alt. Phone   :
Work Being Done For: ADELPHIA CABLE
State: VA              County: STAFFORD
Map: STAF  Page: 007   Grid Cells: B08
Explosives: N
CTL03      PRV01      SCU01      XMYERS
Send To: CMG   01  Seq No: 0011   Map Ref:
         VPW   01          0016



NOTICE OF INTENT TO EXCAVATE
Ticket No: 00177559
Transmit      Date: 03/14/02      Time: 01:07    Op: amy.c
Original Call Date: 03/13/02      Time: 16:05    Op: amy.c
Work to Begin Date: 03/15/02      Time: 04PM

Place: STAFFORD
Address: 113         Street: COOPERS LA
Nearest Intersecting Street: BRAFFERTON BLVD

Type of Work: BURYING UG CATV SVC DROPS
Extent of Work:   LOC ENTIRE PROP
Remarks: NO T/TECH
:                                                        Fax: (540)710-9583

Company     : MYERS CABLE(XMYERS)
Contact Name: SUSAN HEFLIN          Contact Phone: (540)785-8044
Alt. Contact: SUSIE HEFLIN          Alt. Phone   :
Work Being Done For: ADELPHIA CABLE
State: VA              County: STAFFORD
Map: STAF  Page: 007   Grid Cells: C10
Explosives: N
CTL03      PRV01      SCU01      XMYERS
Send To: CMG   01  Seq No: 0012   Map Ref:
         VPW   01          0017



NOTICE OF INTENT TO EXCAVATE
Ticket No: 00177560
Transmit      Date: 03/14/02      Time: 01:07    Op: amy.c
Original Call Date: 03/13/02      Time: 16:05    Op: amy.c
Work to Begin Date: 03/15/02      Time: 04PM

Place: STAFFORD
Address: 7           Street: TOREY CT
Nearest Intersecting Street: GRISTMILL BLVD

Type of Work: BURYING UG CATV SVC DROPS
Extent of Work:   LOC ENTIRE PROP
Remarks: NO T/TECH
:                                                        Fax: (540)710-9583

Company     : MYERS CABLE(XMYERS)
Contact Name: SUSAN HEFLIN          Contact Phone: (540)785-8044
Alt. Contact: SUSIE HEFLIN          Alt. Phone   :
Work Being Done For: ADELPHIA CABLE
State: VA              County: STAFFORD
Map: STAF  Page: 011   Grid Cells: D03
Explosives: N
CTL03      PRV01      SCU01      XMYERS
Send To: VPW   01  Seq No: 0018   Map Ref:



NOTICE OF INTENT TO EXCAVATE
Ticket No: 00177563
Transmit      Date: 03/14/02      Time: 01:07    Op: amy.c
Original Call Date: 03/13/02      Time: 16:06    Op: amy.c
Work to Begin Date: 03/15/02      Time: 04PM

Place: STAFFORD
Address: 515         Street: RAMOUTH CHURCH RD
Nearest Intersecting Street: MUSSELMAN TER

Type of Work: BURYING UG CATV SVC DROPS
Extent of Work:   LOC ENTIRE PROP
Remarks: NO T/TECH
:                                                        Fax: (540)710-9583

Company     : MYERS CABLE(XMYERS)
Contact Name: SUSAN HEFLIN          Contact Phone: (540)785-8044
Alt. Contact: SUSIE HEFLIN          Alt. Phone   :
Work Being Done For: ADELPHIA CABLE
State: VA              County: STAFFORD
Map: STAF  Page: 011   Grid Cells: F05
Explosives: N
CTL03      PRV01      SCU01      XMYERS
Send To: CMG   01  Seq No: 0013   Map Ref:
         VPW   01          0019



NOTICE OF INTENT TO EXCAVATE
Ticket No: 00177567
Transmit      Date: 03/14/02      Time: 01:07    Op: amy.c
Original Call Date: 03/13/02      Time: 16:06    Op: amy.c
Work to Begin Date: 03/15/02      Time: 04PM

Place: STAFFORD
Address: 22          Street: BELLS RIDGE DR
Nearest Intersecting Street: BELL VINE LA

Type of Work: BURYING UG CATV SVC DROPS
Extent of Work:   LOC ENTIRE PROP
Remarks: NO T/TECH
:                                                        Fax: (540)710-9583

Company     : MYERS CABLE(XMYERS)
Contact Name: SUSAN HEFLIN          Contact Phone: (540)785-8044
Alt. Contact: SUSIE HEFLIN          Alt. Phone   :
Work Being Done For: ADELPHIA CABLE
State: VA              County: STAFFORD
Map: STAF  Page: 012   Grid Cells: E02
Explosives: N
CTL03      PRV01      SCU01      XMYERS
Send To: CMG   01  Seq No: 0014   Map Ref:
         VPW   01          0020



NOTICE OF INTENT TO EXCAVATE
Ticket No: 00177575
Transmit      Date: 03/14/02      Time: 01:07    Op: emily
Original Call Date: 03/13/02      Time: 16:07    Op: emily
Work to Begin Date: 03/15/02      Time: 04PM

Place: WINCHESTER
Address: 709         Street: CHELSEA DR
Nearest Intersecting Street: STERLING DR

Type of Work: INSTALL TELEPHONE SVC
Extent of Work:   LOC ENTIRE FRONT OF PROP AT ABOVE ADDRESS
Remarks: CALLER REQUESTS BOTH FLAGS AND PAINT, CALLER UNSURE OF T/TECH
:                                                        Fax: (540)868-9099

Company     : S & N COMMUNICATIONS
Contact Name: KATHIE DILLON         Contact Phone: (540)868-0697
Alt. Contact: GARLAND ESTES         Alt. Phone   : (540)229-1651
Work Being Done For: VERIZON
State: VA              County: FREDERICK
Map: FRD   Page: 020   Grid Cells: B07,C07
Explosives: N
CWPU01
Send To: ADCC  01  Seq No: 0004   Map Ref:
         PTE   05          0005
         SHG   01          0005
         TVA   01          0005



NOTICE OF INTENT TO EXCAVATE
Ticket No: 00177576
Transmit      Date: 03/14/02      Time: 01:07    Op: amy.c
Original Call Date: 03/13/02      Time: 16:07    Op: amy.c
Work to Begin Date: 03/15/02      Time: 04PM

Place: STAFFORD
Address: 302         Street: TORBERT LOOP
Nearest Intersecting Street: CRESCENT BLVD

Type of Work: BURYING UG CATV SVC DROPS
Extent of Work:   LOC ENTIRE PROP
Remarks: NO T/TECH
:                                                        Fax: (540)710-9583

Company     : MYERS CABLE(XMYERS)
Contact Name: SUSAN HEFLIN          Contact Phone: (540)785-8044
Alt. Contact: SUSIE HEFLIN          Alt. Phone   :
Work Being Done For: ADELPHIA CABLE
State: VA              County: STAFFORD
Map: STAF  Page: 012   Grid Cells: F02
Explosives: N
CTL03      PRV01      SCU01      XMYERS
Send To: CMG   01  Seq No: 0015   Map Ref:
         VPW   01          0021



NOTICE OF INTENT TO EXCAVATE
Ticket No: 00177577
Transmit      Date: 03/14/02      Time: 01:07    Op: amy.c
Original Call Date: 03/13/02      Time: 16:08    Op: amy.c
Work to Begin Date: 03/15/02      Time: 04PM

Place: STAFFORD
Address: 18          Street: APPLETREE LA
Nearest Intersecting Street: WILLOW LA

Type of Work: BURYING UG CATV SVC DROPS
Extent of Work:   LOC ENTIRE PROP
Remarks: NO T/TECH
:                                                        Fax: (540)710-9583

Company     : MYERS CABLE(XMYERS)
Contact Name: SUSAN HEFLIN          Contact Phone: (540)785-8044
Alt. Contact: SUSIE HEFLIN          Alt. Phone   :
Work Being Done For: ADELPHIA CABLE
State: VA              County: STAFFORD
Map: STAF  Page: 012   Grid Cells: C05
Explosives: N
CTL03      SCU01      XMYERS
Send To: VPW   01  Seq No: 0022   Map Ref:



NOTICE OF INTENT TO EXCAVATE
Ticket No: 00177581
Transmit      Date: 03/14/02      Time: 01:08    Op: amy.c
Original Call Date: 03/13/02      Time: 16:08    Op: amy.c
Work to Begin Date: 03/15/02      Time: 04PM

Place: STAFFORD
Address: 2           Street: CAROLYN CT
Nearest Intersecting Street: JENNIFER LA

Type of Work: BURYING UG CATV SVC DROPS
Extent of Work:   LOC ENTIRE PROP PLUS FRONT 2 LOTS ACROSS THE ST FOR RD
: BORE
Remarks: NO T/TECH
:                                                        Fax: (540)710-9583

Company     : MYERS CABLE(XMYERS)
Contact Name: SUSAN HEFLIN          Contact Phone: (540)785-8044
Alt. Contact: SUSIE HEFLIN          Alt. Phone   :
Work Being Done For: ADELPHIA CABLE
State: VA              County: STAFFORD
Map: STAF  Page: 012   Grid Cells: G07
Explosives: N
CTL03      PRV01      SCU01      XMYERS
Send To: VPW   01  Seq No: 0023   Map Ref:



NOTICE OF INTENT TO EXCAVATE
Ticket No: 00177585
Transmit      Date: 03/14/02      Time: 01:08    Op: amy.c
Original Call Date: 03/13/02      Time: 16:09    Op: amy.c
Work to Begin Date: 03/15/02      Time: 04PM

Place: MARSHALL
Address: 8252        Street: E MAIN ST #1
Nearest Intersecting Street: WINCHESTER RD

Type of Work: BURYING UG CATV SVC DROPS
Extent of Work:   LOC ENTIRE PROP
Remarks: NO T/TECH
:                                                        Fax: (540)710-9583

Company     : MYERS CABLE(XMYERS)
Contact Name: SUSAN HEFLIN          Contact Phone: (540)785-8044
Alt. Contact: SUSIE HEFLIN          Alt. Phone   :
Work Being Done For: ADELPHIA CABLE
State: VA              County: FAUQUIER
Map: FAUQ  Page: 014   Grid Cells: B05
Explosives: N
FCWS01     MARS01     PRV02      XMYERS
Send To: TVA   03  Seq No: 0014   Map Ref:
         VPW   07          0012



NOTICE OF INTENT TO EXCAVATE
Ticket No: 00177589
Transmit      Date: 03/14/02      Time: 01:08    Op: amy.c
Original Call Date: 03/13/02      Time: 16:10    Op: amy.c
Work to Begin Date: 03/15/02      Time: 04PM

Place: WARRENTON
Address: 97          Street: ESTATE AV
Nearest Intersecting Street: HIGHLAND TOWNE LA

Type of Work: BURYING UG CATV SVC DROPS
Extent of Work:   LOC ENTIRE PROP
Remarks: NO T/TECH
:                                                        Fax: (540)710-9583

Company     : MYERS CABLE(XMYERS)
Contact Name: SUSAN HEFLIN          Contact Phone: (540)785-8044
Alt. Contact: SUSIE HEFLIN          Alt. Phone   :
Work Being Done For: ADELPHIA CABLE
State: VA              County: FAUQUIER
Map: FAUQ  Page: 026   Grid Cells: B04
Explosives: N
LSW01      MCI02      PRV02      TOW01      XMYERS
Send To: CLG   02  Seq No: 0008   Map Ref:
         TVA   03          0015
         VPW   07          0013



NOTICE OF INTENT TO EXCAVATE
Ticket No: 00177592
Transmit      Date: 03/14/02      Time: 01:08    Op: juniti
Original Call Date: 03/13/02      Time: 16:11    Op: juniti
Work to Begin Date: 03/15/02      Time: 04PM

Place: STEPHENS CITY
Address: 314         Street: LYNN DR
Nearest Intersecting Street: TASKER RD

Type of Work: INSTALL TELE SVC
Extent of Work:   LOC ENTIRE PROP AT ABV ADDRESS TO PED F 310 LYNN DR
Remarks: CALLER REQUESTS BOTH FLAGS AND PAINT, CALLER UNSURE OF T/TECH
:                                                        Fax: (540)868-9099

Company     : S & N COMMUNICATIONS
Contact Name: KATHIE DILLON         Contact Phone: (540)868-0697
Alt. Contact: GARLAND ESTES         Alt. Phone   : (540)229-1651
Work Being Done For: VERIZON
State: VA              County: FREDERICK
Map: FRD   Page: 027   Grid Cells: C08
Explosives: N
FCS01
Send To: ADCC  01  Seq No: 0005   Map Ref:
         PTE   05          0006
         SHG   01          0006
         TVA   01          0006



NOTICE OF INTENT TO EXCAVATE
Ticket No: 00177593
Transmit      Date: 03/14/02      Time: 01:08    Op: amy.c
Original Call Date: 03/13/02      Time: 16:11    Op: amy.c
Work to Begin Date: 03/15/02      Time: 04PM

Place: WARRENTON
Address: 356         Street: SINGLETON CIR
Nearest Intersecting Street: CANNON WY

Type of Work: BURYING UG CATV SVC DROPS
Extent of Work:   LOC ENTIRE PROP
Remarks: NO T/TECH
:                                                        Fax: (540)710-9583

Company     : MYERS CABLE(XMYERS)
Contact Name: SUSAN HEFLIN          Contact Phone: (540)785-8044
Alt. Contact: SUSIE HEFLIN          Alt. Phone   :
Work Being Done For: ADELPHIA CABLE
State: VA              County: FAUQUIER
Map: FAUQ  Page: 026   Grid Cells: B05
Explosives: N
PRV02      TOW01      XMYERS
Send To: CLG   02  Seq No: 0009   Map Ref:
         TVA   03          0016
         VPW   07          0014



NOTICE OF INTENT TO EXCAVATE
Ticket No: 00177594
Transmit      Date: 03/14/02      Time: 01:08    Op: amy.c
Original Call Date: 03/13/02      Time: 16:11    Op: amy.c
Work to Begin Date: 03/15/02      Time: 04PM

Place: WARRENTON
Address: 4282        Street: GRAPEWOOD DR
Nearest Intersecting Street: ROGUES RD

Type of Work: BURYING UG CATV SVC DROPS
Extent of Work:   LOC ENTIRE PROP
Remarks: NO T/TECH
:                                                        Fax: (540)710-9583

Company     : MYERS CABLE(XMYERS)
Contact Name: SUSAN HEFLIN          Contact Phone: (540)785-8044
Alt. Contact: SUSIE HEFLIN          Alt. Phone   :
Work Being Done For: ADELPHIA CABLE
State: VA              County: FAUQUIER
Map: FAUQ  Page: 027   Grid Cells: G02
Explosives: N
FCWS01     NVE01      PRV02      XMYERS
Send To: CLG   02  Seq No: 0010   Map Ref:
         TVA   03          0017



NOTICE OF INTENT TO EXCAVATE
Ticket No: 00177597
Transmit      Date: 03/14/02      Time: 01:08    Op: amy.c
Original Call Date: 03/13/02      Time: 16:12    Op: amy.c
Work to Begin Date: 03/15/02      Time: 04PM

Place: REMINGTON
Address: 107         Street: FREEMANS FORD RD
Nearest Intersecting Street: LEES MILL RD

Type of Work: BURYING UG CATV SVC DROPS
Extent of Work:   LOC ENTIRE PROP
Remarks: NO T/TECH
:                                                        Fax: (540)710-9583

Company     : MYERS CABLE(XMYERS)
Contact Name: SUSAN HEFLIN          Contact Phone: (540)785-8044
Alt. Contact: SUSIE HEFLIN          Alt. Phone   :
Work Being Done For: ADELPHIA CABLE
State: VA              County: FAUQUIER
Map: FAUQ  Page: 029   Grid Cells: B12
Explosives: N
RPE01      XMYERS
Send To: TVA   03  Seq No: 0018   Map Ref:



NOTICE OF INTENT TO EXCAVATE
Ticket No: 00177599
Transmit      Date: 03/14/02      Time: 01:08    Op: amy.c
Original Call Date: 03/13/02      Time: 16:12    Op: amy.c
Work to Begin Date: 03/15/02      Time: 04PM

Place: BEALETON
Address: 11204       Street: FREEDOM CT
Nearest Intersecting Street: SOUTHCOAT VILLAGE DR

Type of Work: BURYING UG CATV SVC DROPS
Extent of Work:   LOC ENTIRE PROP
Remarks: NO T/TECH
:                                                        Fax: (540)710-9583

Company     : MYERS CABLE(XMYERS)
Contact Name: SUSAN HEFLIN          Contact Phone: (540)785-8044
Alt. Contact: SUSIE HEFLIN          Alt. Phone   :
Work Being Done For: ADELPHIA CABLE
State: VA              County: FAUQUIER
Map: FAUQ  Page: 036   Grid Cells: A07
Explosives: N
FCWS01     PRV02      XMYERS
Send To: TVA   03  Seq No: 0019   Map Ref:
         VPW   07          0015



NOTICE OF INTENT TO EXCAVATE
Ticket No: 00177600
Transmit      Date: 03/14/02      Time: 01:08    Op: dawn.s
Original Call Date: 03/13/02      Time: 16:13    Op: dawn.s
Work to Begin Date: 03/15/02      Time: 04PM

Place: WINCHESTER
Address:             Street: OLD WAGON RD
Nearest Intersecting Street: ARTILLERY RD

Type of Work: INSTALL CATV MAIN
Extent of Work:   LOC REAR OF LOTS 119, 121, 123 AND 125
Remarks: CALLER REQUESTS BOTH FLAGS AND PAINT, CALLER UNSURE OF T/TECH
:                                                        Fax: (540)868-9099

Company     : S & N COMMUNICATIONS
Contact Name: KATHIE DILLON         Contact Phone: (540)868-0697
Alt. Contact: GARLAND ESTES         Alt. Phone   : (540)229-1651
Work Being Done For: ADELPHIA
State: VA              County: FREDERICK
Map: FRD   Page: 021   Grid Cells: D04,D05
Explosives: N
FCS01
Send To: ADCC  01  Seq No: 0006   Map Ref:
         PTE   05          0007
         SHG   01          0007
         TVA   01          0007



NOTICE OF INTENT TO EXCAVATE
Ticket No: 00177602
Transmit      Date: 03/14/02      Time: 01:09    Op: amy.c
Original Call Date: 03/13/02      Time: 16:13    Op: amy.c
Work to Begin Date: 03/15/02      Time: 04PM

Place: BEALETON
Address: 11880       Street: SCOTT CIR
Nearest Intersecting Street: COFFMAN CIR

Type of Work: BURYING UG CATV SVC DROPS
Extent of Work:   LOC ENTIRE PROP
Remarks: NO T/TECH
:                                                        Fax: (540)710-9583

Company     : MYERS CABLE(XMYERS)
Contact Name: SUSAN HEFLIN          Contact Phone: (540)785-8044
Alt. Contact: SUSIE HEFLIN          Alt. Phone   :
Work Being Done For: ADELPHIA CABLE
State: VA              County: FAUQUIER
Map: FAUQ  Page: 036   Grid Cells: G09
Explosives: N
PRV02      XMYERS
Send To: TVA   03  Seq No: 0020   Map Ref:
         VPW   07          0016



NOTICE OF INTENT TO EXCAVATE
Ticket No: 00177605
Transmit      Date: 03/14/02      Time: 01:09    Op: dawn.s
Original Call Date: 03/13/02      Time: 16:15    Op: dawn.s
Work to Begin Date: 03/15/02      Time: 04PM

Place: WINCHESTER
Address:             Street: ARTILLERY RD
Nearest Intersecting Street: OLD WAGON RD

Type of Work: INSTALL CATV MAIN
Extent of Work:   LOC REAR OF LOTS 112, 114, 116, 118 AND 120
Remarks: CALLER REQUESTS BOTH FLAGS AND PAINT, CALLER UNSURE OF T/TECH
:                                                        Fax: (540)868-9099

Company     : S & N COMMUNICATIONS
Contact Name: KATHIE DILLON         Contact Phone: (540)868-0697
Alt. Contact: GARLAND ESTES         Alt. Phone   : (540)229-1651
Work Being Done For: ADELPHIA
State: VA              County: FREDERICK
Map: FRD   Page: 021   Grid Cells: D04,D05
Explosives: N
FCS01
Send To: ADCC  01  Seq No: 0007   Map Ref:
         PTE   05          0008
         SHG   01          0008
         TVA   01          0008



NOTICE OF INTENT TO EXCAVATE
Ticket No: 00177611
Transmit      Date: 03/14/02      Time: 01:09    Op: dawn.s
Original Call Date: 03/13/02      Time: 16:16    Op: dawn.s
Work to Begin Date: 03/15/02      Time: 04PM

Place: WINCHESTER
Address:             Street: BROOKLAND LA
Nearest Intersecting Street: VALLEY MILL RD

Type of Work: INSTALL CATV MAIN
Extent of Work:   LOC THE ENTIRE BLDG 121; PARK PLACE CONDO'S
Remarks: CALLER REQUESTS BOTH FLAGS AND PAINT, CALLER UNSURE OF T/TECH
:                                                        Fax: (540)868-9099

Company     : S & N COMMUNICATIONS
Contact Name: KATHIE DILLON         Contact Phone: (540)868-0697
Alt. Contact: GARLAND ESTES         Alt. Phone   : (540)229-1651
Work Being Done For: ADELPHIA
State: VA              County: FREDERICK
Map: FRD   Page: 021   Grid Cells: A04,A05
Explosives: N
CWPU01     FCS01
Send To: ADCC  01  Seq No: 0008   Map Ref:
         PTE   05          0009
         SHG   01          0009
         TVA   01          0009



NOTICE OF INTENT TO EXCAVATE
Ticket No: 00177621
Transmit      Date: 03/14/02      Time: 01:09    Op: juniti
Original Call Date: 03/13/02      Time: 16:18    Op: juniti
Work to Begin Date: 03/15/02      Time: 04PM

Place: WINCHESTER
Address:             Street: BROOKLAND LA
Nearest Intersecting Street: VALLEY MILL RD

Type of Work: INSTALL CATV MAIN
Extent of Work:   LOC THE ENTIRE BLDG 110 SUBD-PARK PLACE CONDO'S
Remarks: CALLER REQUESTS BOTH FLAGS AND PAINT, CALLER UNSURE OF T/TECH
:                                                        Fax: (540)868-9099

Company     : S & N COMMUNICATIONS
Contact Name: KATHIE DILLON         Contact Phone: (540)868-0697
Alt. Contact: GARLAND ESTES         Alt. Phone   : (540)229-1651
Work Being Done For: ADELPHIA
State: VA              County: FREDERICK
Map: FRD   Page: 021   Grid Cells: A04,A05
Explosives: N
CWPU01     FCS01
Send To: ADCC  01  Seq No: 0009   Map Ref:
         PTE   05          0010
         SHG   01          0010
         TVA   01          0010



NOTICE OF INTENT TO EXCAVATE
Ticket No: 00177662
Transmit      Date: 03/14/02      Time: 01:09    Op: lakish
Original Call Date: 03/13/02      Time: 16:26    Op: lakish
Work to Begin Date: 03/15/02      Time: 04PM

Place: WARRENTON
Address: 7           Street: BROOKSHIRE DR
Nearest Intersecting Street: CULPEPER ST

Type of Work: INST A FENCE
Extent of Work:   LOC ENTIRE PROP
Remarks: CALLER REQUESTS BOTH FLAGS AND PAINT
: NO T/TECH                                              Fax: (703)502-8544

Company     : INVISIBLE FENCING (XCLARK)
Contact Name: ALLISON STONEHILL     Contact Phone: (703)968-6500
Alt. Contact: SAME                  Alt. Phone   :
Work Being Done For: ROBINSON
State: VA              County: FAUQUIER
Map: FAUQ  Page: 025   Grid Cells: K08
Explosives: N
LSW01      PRV02      TOW01      XCLARK
Send To: CLG   02  Seq No: 0011   Map Ref:
         TVA   03          0021
         VPW   07          0017



NOTICE OF INTENT TO EXCAVATE
Ticket No: 00177746
Transmit      Date: 03/14/02      Time: 01:09    Op: dawn.s
Original Call Date: 03/13/02      Time: 16:41    Op: dawn.s
Work to Begin Date: 03/15/02      Time: 04PM

Place: STAFFORD
Address: 53          Street: CANNON RIDGE DR
Nearest Intersecting Street: ASH CROFT DR

Type of Work: INSTALL A NEW FENCE
Extent of Work:   LOC THE ENTIRE PROP
Remarks: NO T/TECH
:                                                        Fax: (540)775-2681

Company     : TRIPLE K FENCE CORP
Contact Name: AMENA  HARRIS         Contact Phone: (540)775-3154
Alt. Contact: ANSWERING SERVICE     Alt. Phone   : (540)374-9283
Work Being Done For: BARBRA LEE
State: VA              County: STAFFORD
Map: STAF  Page: 017   Grid Cells: D12
Explosives: N
CFR01      SCU01
Send To: CMG   01  Seq No: 0016   Map Ref:
         TVA   04          0007
         VPW   01          0024



NOTICE OF INTENT TO EXCAVATE
Ticket No: 00177762
Transmit      Date: 03/14/02      Time: 01:09    Op: dawn.s
Original Call Date: 03/13/02      Time: 16:44    Op: dawn.s
Work to Begin Date: 03/15/02      Time: 04PM

Place: STAFFORD
Address: 2           Street: REMINGTON CT
Nearest Intersecting Street: NORTHAMPTON BLVD

Type of Work: INSTALL A NEW FENCE
Extent of Work:   LOC THE ENTIRE PROP
Remarks: NO T/TECH
:                                                        Fax: (540)775-2681

Company     : TRIPLE K FENCE CORP
Contact Name: AMENA  HARRIS         Contact Phone: (540)775-3154
Alt. Contact: ANSWERING SERVICE     Alt. Phone   : (540)374-9283
Work Being Done For: JENNIFER VANDEBUSSCHE
State: VA              County: STAFFORD
Map: STAF  Page: 007   Grid Cells: B12
Explosives: N
CTL03      PRV01      SCU01
Send To: CMG   01  Seq No: 0017   Map Ref:
         VPW   01          0025



NOTICE OF INTENT TO EXCAVATE
Ticket No: 00177769
Transmit      Date: 03/14/02      Time: 01:09    Op: amanda
Original Call Date: 03/13/02      Time: 16:46    Op: amanda
Work to Begin Date: 03/15/02      Time: 05PM

Place: STAFFORD
Address: 70          Street: ORANGE BLOSSOM CT

Type of Work: INST UG IRRIGATION SYSTEM
Extent of Work:   LOC ENTIRE PROP AT ABOVE ADDRESS. DIR: RT 195S MAKE A
: LEFT ON COURTHOUSE RD WHICH IS  RT 630 GO 1/2MI THEN MAKE A RIGHT ON RT
: 1THEN GO 2 MI MAKE A LEFT ON LAYHILL 1/2MI THEN MAKE RIGHT ON
: LELAND/TURNS INTO MORRIS GO 1 OR 2MI RIGHT INTO LELAND STATION MAKE LEFT
Remarks: AT THE STOP SIGN THIS WILL BE ORANGE  BLOSSOM CT -NO T/TECH
: LEGALS PROVIDED BY CALLER- COULDN'T PROVIDE NEAREST INTER

Company     : MCMASTER IRRIGATION
Contact Name: PAT MCMASTER          Contact Phone: (703)497-1199
Alt. Contact:                       Alt. Phone   :
Work Being Done For: ANDY SIVAK
State: VA              County: STAFFORD
Map: STAF  Page: 016   Grid Cells: K07,K08
Explosives: N
CFR01      MCI02      PPL01      QWESTV01   SCU01
Send To: CMG   01  Seq No: 0018   Map Ref:
         TVA   04          0008
         VPW   01          0026



NOTICE OF INTENT TO EXCAVATE
Ticket No: 00177770
Transmit      Date: 03/14/02      Time: 01:10    Op: dawn.s
Original Call Date: 03/13/02      Time: 16:46    Op: dawn.s
Work to Begin Date: 03/15/02      Time: 05PM

Place: STAFFORD
Address: 7           Street: BASALT DR
Nearest Intersecting Street: FIELDCREST DR

Type of Work: INSTALL A NEW FENCE
Extent of Work:   LOC THE ENTIRE PROP
Remarks: NO T/TECH
:                                                        Fax: (540)775-2681

Company     : TRIPLE K FENCE CORP
Contact Name: AMENA  HARRIS         Contact Phone: (540)775-3154
Alt. Contact: ANSWERING SERVICE     Alt. Phone   : (540)374-9283
Work Being Done For: DEBBIE PELLETZ
State: VA              County: STAFFORD
Map: STAF  Page: 015   Grid Cells: E03
Explosives: N
ATT02      CFR01      PRV01      SCU01
Send To: CMG   01  Seq No: 0019   Map Ref:
         TVA   04          0009
         VPW   01          0027



NOTICE OF INTENT TO EXCAVATE
Ticket No: 00177780
Transmit      Date: 03/14/02      Time: 01:10    Op: dawn.s
Original Call Date: 03/13/02      Time: 16:48    Op: dawn.s
Work to Begin Date: 03/15/02      Time: 05PM

Place: STAFFORD
Address: 14          Street: NORTHAMPTON BLVD
Nearest Intersecting Street: OLD MINERAL RD

Type of Work: INSTALL A NEW FENCE
Extent of Work:   LOC THE ENTIRE PROP
Remarks: NO T/TECH
:                                                        Fax: (540)775-2681

Company     : TRIPLE K FENCE CORP
Contact Name: AMENA  HARRIS         Contact Phone: (540)775-3154
Alt. Contact: ANSWERING SERVICE     Alt. Phone   : (540)374-9283
Work Being Done For: MR CRENSHAW
State: VA              County: STAFFORD
Map: STAF  Page: 007   Grid Cells: A12
Explosives: N
CTL03      PRV01      SCU01
Send To: CMG   01  Seq No: 0020   Map Ref:
         VPW   01          0028



NOTICE OF INTENT TO EXCAVATE
Ticket No: 00177792
Transmit      Date: 03/14/02      Time: 01:10    Op: dawn.s
Original Call Date: 03/13/02      Time: 16:52    Op: dawn.s
Work to Begin Date: 03/15/02      Time: 05PM

Place: STAFFORD
Address: 17          Street: RIDGEWAY RD
Nearest Intersecting Street: GARRISONVILE RD

Type of Work: INSTALL A NEW FENCE
Extent of Work:   LOC THE ENTIRE REAR OF PROP
Remarks: NO T/TECH
:                                                        Fax: (540)775-2681

Company     : TRIPLE K FENCE CORP
Contact Name: AMENA  HARRIS         Contact Phone: (540)775-3154
Alt. Contact: ANSWERING SERVICE     Alt. Phone   : (540)374-9283
Work Being Done For: SHANNON JANEVIE
State: VA              County: STAFFORD
Map: STAF  Page: 005   Grid Cells: C02
Explosives: N
NVE01      PRV01
Send To: TVA   04  Seq No: 0010   Map Ref:



NOTICE OF INTENT TO EXCAVATE
Ticket No: 00177793
Transmit      Date: 03/14/02      Time: 01:10    Op: dawn.s
Original Call Date: 03/13/02      Time: 16:52    Op: dawn.s
Work to Begin Date: 03/15/02      Time: 05PM

Place: WINCHESTER
Address:             Street: RT 7
Nearest Intersecting Street: RT 656 S

Type of Work: REMOVING AND REPLACING GUARD RAILS N/E
Extent of Work:   LOC E BOUND LANE OF RT 7 APPROX 0.42 MILES E OF RT 656
: S/GREENWOOD RD MARK BETWEEN WHITE ARROWS ON EDGE OF PAVEMENT
Remarks: NO T/TECH
: BEST INFORMATION CALLER COULD PROVIDE                  Fax: (434)979-9260

Company     : MAKCO INC
Contact Name: MARGIE FRAZIER        Contact Phone: (434)295-1779
Alt. Contact: DICK KERNS            Alt. Phone   :
Work Being Done For: VDOT
State: VA              County: FREDERICK
Map: FRD   Page: 021   Grid Cells: C04,C05
Explosives: N
FCS01
Send To: ADCC  01  Seq No: 0010   Map Ref:
         PTE   05          0011
         SHG   01          0011
         TVA   01          0011



NOTICE OF INTENT TO EXCAVATE
Ticket No: 00177808
Transmit      Date: 03/14/02      Time: 01:10    Op: dawn.s
Original Call Date: 03/13/02      Time: 16:54    Op: dawn.s
Work to Begin Date: 03/15/02      Time: 05PM

Place: STAFFORD
Address: 57          Street: LARKWOOD CT
Nearest Intersecting Street: ROCKY WAY

Type of Work: INSTALL A NEW FENCE
Extent of Work:   LOC THE ENTIRE OF PROP
Remarks: NO T/TECH
:                                                        Fax: (540)775-2681

Company     : TRIPLE K FENCE CORP
Contact Name: AMENA  HARRIS         Contact Phone: (540)775-3154
Alt. Contact: ANSWERING SERVICE     Alt. Phone   : (540)374-9283
Work Being Done For: RATTI HEID
State: VA              County: STAFFORD
Map: STAF  Page: 007   Grid Cells: A11
Explosives: N
CTL03      PRV01      SCU01
Send To: CMG   01  Seq No: 0021   Map Ref:
         VPW   01          0029



NOTICE OF INTENT TO EXCAVATE
Ticket No: 00177818
Transmit      Date: 03/14/02      Time: 01:10    Op: dawn.s
Original Call Date: 03/13/02      Time: 16:55    Op: dawn.s
Work to Begin Date: 03/15/02      Time: 05PM

Place: STAFFORD
Address: 14          Street: PENNSBURY CT
Nearest Intersecting Street: LENCHESTER DR

Type of Work: INSTALL A NEW FENCE
Extent of Work:   LOC THE ENTIRE OF PROP
Remarks: NO T/TECH
:                                                        Fax: (540)775-2681

Company     : TRIPLE K FENCE CORP
Contact Name: AMENA  HARRIS         Contact Phone: (540)775-3154
Alt. Contact: ANSWERING SERVICE     Alt. Phone   : (540)374-9283
Work Being Done For: MRS BARNES
State: VA              County: STAFFORD
Map: STAF  Page: 015   Grid Cells: J02
Explosives: N
CFR01      PRV01      SCU01
Send To: CMG   01  Seq No: 0022   Map Ref:
         TVA   04          0011
         VPW   01          0030



NOTICE OF INTENT TO EXCAVATE
Ticket No: 00177824
Transmit      Date: 03/14/02      Time: 01:10    Op: dawn.s
Original Call Date: 03/13/02      Time: 16:57    Op: dawn.s
Work to Begin Date: 03/15/02      Time: 05PM

Place: STAFFORD
Address: 72          Street: BRUNSWICK CT
Nearest Intersecting Street: BRITTANY LA

Type of Work: INSTALL A NEW FENCE
Extent of Work:   LOC THE ENTIRE OF PROP
Remarks: NO T/TECH
:                                                        Fax: (540)775-2681

Company     : TRIPLE K FENCE CORP
Contact Name: AMENA  HARRIS         Contact Phone: (540)775-3154
Alt. Contact: ANSWERING SERVICE     Alt. Phone   : (540)374-9283
Work Being Done For: DONNA EEAKER
State: VA              County: STAFFORD
Map: STAF  Page: 007   Grid Cells: C13
Explosives: N
CTL03      PRV01      SCU01
Send To: CMG   01  Seq No: 0023   Map Ref:
         VPW   01          0031



NOTICE OF INTENT TO EXCAVATE
Ticket No: 00177828
Transmit      Date: 03/14/02      Time: 01:10    Op: dawn.s
Original Call Date: 03/13/02      Time: 16:59    Op: dawn.s
Work to Begin Date: 03/15/02      Time: 05PM

Place: STAFFORD
Address: 15          Street: AMELIA CT
Nearest Intersecting Street: BRENTWOOD LA

Type of Work: INSTALL A NEW FENCE
Extent of Work:   LOC THE ENTIRE OF PROP
Remarks: NO T/TECH
:                                                        Fax: (540)775-2681

Company     : TRIPLE K FENCE CORP
Contact Name: AMENA  HARRIS         Contact Phone: (540)775-3154
Alt. Contact: ANSWERING SERVICE     Alt. Phone   : (540)374-9283
Work Being Done For: MATT HIMES
State: VA              County: STAFFORD
Map: STAF  Page: 016   Grid Cells: K05
Explosives: N
CFR01      SCU01
Send To: TVA   04  Seq No: 0012   Map Ref:
         VPW   01          0032



NOTICE OF INTENT TO EXCAVATE
Ticket No: 00177832
Transmit      Date: 03/14/02      Time: 01:11    Op: dawn.s
Original Call Date: 03/13/02      Time: 17:01    Op: dawn.s
Work to Begin Date: 03/18/02      Time: 07AM

Place: STAFFORD
Address: 9           Street: SUNRISE VALLEY CT
Nearest Intersecting Street: SUMMERWOOD DR

Type of Work: INSTALL A NEW FENCE
Extent of Work:   LOC THE ENTIRE OF PROP
Remarks: NO T/TECH
:                                                        Fax: (540)775-2681

Company     : TRIPLE K FENCE CORP
Contact Name: AMENA  HARRIS         Contact Phone: (540)775-3154
Alt. Contact: ANSWERING SERVICE     Alt. Phone   : (540)374-9283
Work Being Done For: CHRIS GRAMM
State: VA              County: STAFFORD
Map: STAF  Page: 012   Grid Cells: H04
Explosives: N
CTL03      PRV01      SCU01
Send To: VPW   01  Seq No: 0033   Map Ref:



NOTICE OF INTENT TO EXCAVATE
Ticket No: 00177834
Transmit      Date: 03/14/02      Time: 01:11    Op: dawn.s
Original Call Date: 03/13/02      Time: 17:02    Op: dawn.s
Work to Begin Date: 03/18/02      Time: 07AM

Place: STAFFORD
Address: 316         Street: PORTLAND DR
Nearest Intersecting Street: LELAND STATION RD

Type of Work: INSTALL A NEW FENCE
Extent of Work:   LOC THE ENTIRE OF PROP
Remarks: NO T/TECH
:                                                        Fax: (540)775-2681

Company     : TRIPLE K FENCE CORP
Contact Name: AMENA  HARRIS         Contact Phone: (540)775-3154
Alt. Contact: ANSWERING SERVICE     Alt. Phone   : (540)374-9283
Work Being Done For: ROBERT FRANCO
State: VA              County: STAFFORD
Map: STAF  Page: 016   Grid Cells: K08
Explosives: N
CFR01      SCU01
Send To: CMG   01  Seq No: 0024   Map Ref:
         TVA   04          0013
         VPW   01          0034



NOTICE OF INTENT TO EXCAVATE
Ticket No: 00177835
Transmit      Date: 03/14/02      Time: 01:11    Op: natali
Original Call Date: 03/13/02      Time: 17:04    Op: natali
Work to Begin Date: 03/18/02      Time: 07AM

Place: HARTWOOD
Address: 3           Street: ABEL DR
Nearest Intersecting Street: KELLOGG MILL RD

Type of Work: REPAIR UG IRRIGATION N-E
Extent of Work:   LOC ENTIRE PROP
Remarks:
: NO T/TECH

Company     : IMAGE LAWN INCORP
Contact Name: MIKE ABNER            Contact Phone: (540)548-8458
Alt. Contact: CELL #                Alt. Phone   : (540)287-9883
Work Being Done For: PAUL EDWARDS
State: VA              County: STAFFORD
Map: STAF  Page: 010   Grid Cells: K08
Explosives: N
PRV01
Send To: CMG   01  Seq No: 0025   Map Ref:
         TVA   04          0014
         VPW   01          0035



NOTICE OF INTENT TO EXCAVATE
Ticket No: 00177837               Update Of: 00169689
Transmit      Date: 03/14/02      Time: 01:11    Op: kanesh
Original Call Date: 03/13/02      Time: 17:06    Op: kanesh
Work to Begin Date: 03/18/02      Time: 07AM

Place: FREDERICKSBURG
Address: 517         Street: SULLIVAN DR
Nearest Intersecting Street: ROGER ST

Type of Work: INST A FENCE
Extent of Work:   LOC ENTIRE PROP AT ABOVE ADDRESS
Remarks: NO T/TECH
:                                                        Fax: (540)775-2681

Company     : TRIPLE K FENCE CORP
Contact Name: AMENA HARRIS          Contact Phone: (540)775-3154
Alt. Contact: ANSWERING SERVICE     Alt. Phone   : (540)374-9283
Work Being Done For: JOSE DELATORRE
State: VA              County: STAFFORD
Map: STAF  Page: 017   Grid Cells: B11
Explosives: N
CFR01      SCU01
Send To: CMG   01  Seq No: 0026   Map Ref:
         TVA   04          0015
         VPW   01          0036



NOTICE OF INTENT TO EXCAVATE
Ticket No: 00177839               Update Of: 00130727
Transmit      Date: 03/14/02      Time: 01:11    Op: kanesh
Original Call Date: 03/13/02      Time: 17:07    Op: kanesh
Work to Begin Date: 03/18/02      Time: 07AM

Place: STAFFORD
Address: 49          Street: CRESTWOOD LA
Nearest Intersecting Street: BROOKE RD

Type of Work: INST FENCE
Extent of Work:   LOC ENTIRE PROP - CRESTWOOD LA NOT ON MAP
: SUBD: POPLAR HILLS
Remarks:
:                                                        Fax: (540)775-2681

Company     : TRIPLE K FENCE CORP
Contact Name: AMENA HARRIS          Contact Phone: (540)775-3154
Alt. Contact: ANSWERING SERVICE     Alt. Phone   : (540)374-9283
Work Being Done For: WENDY MARZLOFF
State: VA              County: STAFFORD
Map: STAF  Page: 018   Grid Cells: D01
Explosives: N
CTL03
Send To: VPW   01  Seq No: 0037   Map Ref:



0
Date/Time :  3-14-02 at  1:11

MISSU
SUMM
DAILY AUDIT OF TICKETS SENT ON  3/13/02

Date/Time: 03/14/02 12:30:00 AM
Receiving Terminal: ADCC  01

Seq #   Ticket #    Seq #   Ticket #    Seq #   Ticket #    Seq #   Ticket #    
----- ------------  ----- ------------  ----- ------------  ----- ------------  
   1   174115-48HR |  12   174491-48HR |  23   174554-48HR |  33   175943-48HR |
   2   174138-UPDT |  13   174499-UPDT |  24   174563-48HR |  34   176573-UPDT |
   3   174328-UPDT |  14   174501-48HR |  25   174571-48HR |  35   176577-UPDT |
   4   174412-48HR |  15   174507-48HR |  26   174575-48HR |  36   176587-UPDT |
   5   174423-48HR |  16   174513-48HR |  27   174578-48HR |  37   176769-48HR |
   6   174444-48HR |  17   174522-48HR |  28   174992-UPDT |  38   176928-48HR |
   7   174456-48HR |  18   174528-48HR |  29   175102-48HR |  39   176939-48HR |
   8   174467-48HR |  19   174531-48HR |  30   175433-48HR |  40   176962-48HR |
   9   174471-48HR |  20   174534-48HR |  31   175449-48HR |  41   176975-48HR |
  10   174473-48HR |  21   174537-48HR |  32   175456-48HR |  42   176987-48HR |
  11   174481-48HR |  22   174547-48HR |

* indicates ticket # is repeated

Total Tickets: 42

48HR - STANDARD                       |   35
UPDT - UPDATE                         |    7

Please call (410) 712-0056 if this data does
not match the tickets you received on  3/13/02



0
Date/Time :  3-14-02 at  1:11

MISSU
SUMM
DAILY AUDIT OF TICKETS SENT ON  3/13/02

Date/Time: 03/14/02 12:30:00 AM
Receiving Terminal: ADCC02

Seq #   Ticket #    Seq #   Ticket #    Seq #   Ticket #    Seq #   Ticket #    
----- ------------  ----- ------------  ----- ------------  ----- ------------  
   1   175356-48HR |   2   176797-48HR |   3   176859-48HR |

* indicates ticket # is repeated

Total Tickets: 3

48HR - STANDARD                       |    3

Please call (410) 712-0056 if this data does
not match the tickets you received on  3/13/02



0
Date/Time :  3-14-02 at  1:11

MISSU
SUMM
DAILY AUDIT OF TICKETS SENT ON  3/13/02

Date/Time: 03/14/02 12:30:00 AM
Receiving Terminal: CLG02

Seq #   Ticket #    Seq #   Ticket #    Seq #   Ticket #    Seq #   Ticket #    
----- ------------  ----- ------------  ----- ------------  ----- ------------  
   1   174900-48HR |   2   175516-48HR |

* indicates ticket # is repeated

Total Tickets: 2

48HR - STANDARD                       |    2

Please call (410) 712-0056 if this data does
not match the tickets you received on  3/13/02



0
Date/Time :  3-14-02 at  1:11

MISSU
SUMM
DAILY AUDIT OF TICKETS SENT ON  3/13/02

Date/Time: 03/14/02 12:30:00 AM
Receiving Terminal: CMG01

Seq #   Ticket #    Seq #   Ticket #    Seq #   Ticket #    Seq #   Ticket #    
----- ------------  ----- ------------  ----- ------------  ----- ------------  
   1   174201-UPDT |   9   174890-48HR |  17   175255-UPDT |  25   175785-48HR |
   2   147667-3HR  |  10   156602-CORR |  18   175259-48HR |  26   176066-48HR |
   3   164648-3HR  |  11   156628-CORR |  19   156615-CORR |  27   176606-48HR |
   4   174226-48HR |  12   175056-UPDT |  20   175705-48HR |  28   176640-UPDT |
   5   174619-UPDT |  13   175069-48HR |  21   175438-48HR |  29   176930-48HR |
   6   174741-48HR |  14   175074-UPDT |  22   175821-48HR |  30   176958-48HR |
   7   174824-RELC |  15   175078-48HR |  23   175837-48HR |  31   176968-48HR |
   8   174843-48HR |  16   175086-UPDT |  24   175730-48HR |  32   177029-48HR |

* indicates ticket # is repeated

Total Tickets: 32

UPDT - UPDATE                         |    7
 3HR - 3 HOUR                         |    2
48HR - STANDARD                       |   19
RELC - RELOCATE                       |    1
CORR - CORRECTION                     |    3

Please call (410) 712-0056 if this data does
not match the tickets you received on  3/13/02



0
Date/Time :  3-14-02 at  1:11

MISSU
SUMM
DAILY AUDIT OF TICKETS SENT ON  3/13/02

Date/Time: 03/14/02 12:30:00 AM
Receiving Terminal: PTE   05

Seq #   Ticket #    Seq #   Ticket #    Seq #   Ticket #    Seq #   Ticket #    
----- ------------  ----- ------------  ----- ------------  ----- ------------  
   1   174115-48HR |  13   174491-48HR |  25   174563-48HR |  37   175943-48HR |
   2   174138-UPDT |  14   174499-UPDT |  26   174571-48HR |  38   176573-UPDT |
   3   174328-UPDT |  15   174501-48HR |  27   174575-48HR |  39   176577-UPDT |
   4   174408-48HR |  16   174507-48HR |  28   174578-48HR |  40   176587-UPDT |
   5   174412-48HR |  17   174513-48HR |  29   174790-48HR |  41   176769-48HR |
   6   174423-48HR |  18   174522-48HR |  30   174992-UPDT |  42   176797-48HR |
   7   174444-48HR |  19   174528-48HR |  31   175102-48HR |  43   176859-48HR |
   8   174456-48HR |  20   174531-48HR |  32   175356-48HR |  44   176928-48HR |
   9   174467-48HR |  21   174534-48HR |  33   175433-48HR |  45   176939-48HR |
  10   174471-48HR |  22   174537-48HR |  34   175449-48HR |  46   176962-48HR |
  11   174473-48HR |  23   174547-48HR |  35   175456-48HR |  47   176975-48HR |
  12   174481-48HR |  24   174554-48HR |  36   175525-PTKT |  48   176987-48HR |

* indicates ticket # is repeated

Total Tickets: 48

48HR - STANDARD                       |   40
UPDT - UPDATE                         |    7
PTKT - INSUFFICIENT NOTICE            |    1

Please call (410) 712-0056 if this data does
not match the tickets you received on  3/13/02



0
Date/Time :  3-14-02 at  1:12

MISSU
SUMM
DAILY AUDIT OF TICKETS SENT ON  3/13/02

Date/Time: 03/14/02 12:30:00 AM
Receiving Terminal: SHG   01

Seq #   Ticket #    Seq #   Ticket #    Seq #   Ticket #    Seq #   Ticket #    
----- ------------  ----- ------------  ----- ------------  ----- ------------  
   1   174115-48HR |  11   174473-48HR |  21   174534-48HR |  31   175449-48HR |
   2   174138-UPDT |  12   174481-48HR |  22   174537-48HR |  32   175943-48HR |
   3   174328-UPDT |  13   174491-48HR |  23   174547-48HR |  33   176573-UPDT |
   4   174408-48HR |  14   174499-UPDT |  24   174563-48HR |  34   176577-UPDT |
   5   174412-48HR |  15   174501-48HR |  25   174571-48HR |  35   176769-48HR |
   6   174423-48HR |  16   174507-48HR |  26   174575-48HR |  36   176928-48HR |
   7   174444-48HR |  17   174513-48HR |  27   174578-48HR |  37   176939-48HR |
   8   174456-48HR |  18   174522-48HR |  28   174776-48HR |  38   176962-48HR |
   9   174467-48HR |  19   174528-48HR |  29   174790-48HR |  39   176975-48HR |
  10   174471-48HR |  20   174531-48HR |  30   175433-48HR |  40   176987-48HR |

* indicates ticket # is repeated

Total Tickets: 40

48HR - STANDARD                       |   35
UPDT - UPDATE                         |    5

Please call (410) 712-0056 if this data does
not match the tickets you received on  3/13/02



0
Date/Time :  3-14-02 at  1:12

MISSU
SUMM
DAILY AUDIT OF TICKETS SENT ON  3/13/02

Date/Time: 03/14/02 12:30:00 AM
Receiving Terminal: TVA01

Seq #   Ticket #    Seq #   Ticket #    Seq #   Ticket #    Seq #   Ticket #    
----- ------------  ----- ------------  ----- ------------  ----- ------------  
   1   174115-48HR |  13   174491-48HR |  25   174563-48HR |  37   176573-UPDT |
   2   174138-UPDT |  14   174499-UPDT |  26   174571-48HR |  38   176577-UPDT |
   3   174328-UPDT |  15   174501-48HR |  27   174575-48HR |  39   176587-UPDT |
   4   174408-48HR |  16   174507-48HR |  28   174578-48HR |  40   176769-48HR |
   5   174412-48HR |  17   174513-48HR |  29   174992-UPDT |  41   176797-48HR |
   6   174423-48HR |  18   174522-48HR |  30   175102-48HR |  42   176859-48HR |
   7   174444-48HR |  19   174528-48HR |  31   175164-UPDT |  43   176928-48HR |
   8   174456-48HR |  20   174531-48HR |  32   175433-48HR |  44   176939-48HR |
   9   174467-48HR |  21   174534-48HR |  33   175449-48HR |  45   176962-48HR |
  10   174471-48HR |  22   174537-48HR |  34   175456-48HR |  46   176975-48HR |
  11   174473-48HR |  23   174547-48HR |  35   175525-PTKT |  47   176987-48HR |
  12   174481-48HR |  24   174554-48HR |  36   175943-48HR |

* indicates ticket # is repeated

Total Tickets: 47

48HR - STANDARD                       |   38
UPDT - UPDATE                         |    8
PTKT - INSUFFICIENT NOTICE            |    1

Please call (410) 712-0056 if this data does
not match the tickets you received on  3/13/02



0
Date/Time :  3-14-02 at  1:12

MISSU
SUMM
DAILY AUDIT OF TICKETS SENT ON  3/13/02

Date/Time: 03/14/02 12:30:00 AM
Receiving Terminal: TVA03

Seq #   Ticket #    Seq #   Ticket #    Seq #   Ticket #    Seq #   Ticket #    
----- ------------  ----- ------------  ----- ------------  ----- ------------  
   1   174780-48HR |   5   175280-48HR |   9   175605-48HR |  13   176752-48HR |
   2   174900-48HR |   6   175327-48HR |  10   175666-48HR |  14   176888-48HR |
   3   175250-48HR |   7   175516-48HR |  11   176232-48HR |  15   176947-48HR |
   4   175270-48HR |   8   175544-48HR |  12   176533-48HR |

* indicates ticket # is repeated

Total Tickets: 15

48HR - STANDARD                       |   15

Please call (410) 712-0056 if this data does
not match the tickets you received on  3/13/02



0
Date/Time :  3-14-02 at  1:12

MISSU
SUMM
DAILY AUDIT OF TICKETS SENT ON  3/13/02

Date/Time: 03/14/02 12:30:00 AM
Receiving Terminal: TVA04

Seq #   Ticket #    Seq #   Ticket #    Seq #   Ticket #    Seq #   Ticket #    
----- ------------  ----- ------------  ----- ------------  ----- ------------  
   1   147667-3HR  |   6   156628-CORR |  11   175232-48HR |  16   175438-48HR |
   2   164648-3HR  |   7   174832-48HR |  12   175255-UPDT |  17   175785-48HR |
   3   174263-48HR |   8   175056-UPDT |  13   156615-CORR |  18   176066-48HR |
   4   174226-48HR |   9   175074-UPDT |  14   175574-48HR |  19   176297-48HR |
   5   156602-CORR |  10   175086-UPDT |  15   175705-48HR |

* indicates ticket # is repeated

Total Tickets: 19

 3HR - 3 HOUR                         |    2
48HR - STANDARD                       |   10
CORR - CORRECTION                     |    3
UPDT - UPDATE                         |    4

Please call (410) 712-0056 if this data does
not match the tickets you received on  3/13/02



0
Date/Time :  3-14-02 at  1:12

MISSU
SUMM
DAILY AUDIT OF TICKETS SENT ON  3/13/02

Date/Time: 03/14/02 12:30:00 AM
Receiving Terminal: VPW   01

Seq #   Ticket #    Seq #   Ticket #    Seq #   Ticket #    Seq #   Ticket #    
----- ------------  ----- ------------  ----- ------------  ----- ------------  
   1   174037-ETKT |  12   174890-48HR |  22   175259-48HR |  32   176066-48HR |
   2   174201-UPDT |  13   156602-CORR |  23   156615-CORR |  33   176297-48HR |
   3   174207-UPDT |  14   156628-CORR |  24   175574-48HR |  34   176606-48HR |
   4   147667-3HR  |  15   175056-UPDT |  25   175705-48HR |  35   176640-UPDT |
   5   164648-3HR  |  16   175069-48HR |  26   175771-48HR |  36   176881-48HR |
   6   174263-48HR |  17   175074-UPDT |  27   175438-48HR |  37   176930-48HR |
   7   174226-48HR |  18   175078-48HR |  28   175821-48HR |  38   176958-48HR |
   8   174619-UPDT |  19   175086-UPDT |  29   175837-48HR |  39   176968-48HR |
   9   174741-48HR |  20   175232-48HR |  30   175730-48HR |  40   177019-48HR |
  10   174824-RELC |  21   175255-UPDT |  31   175785-48HR |  41   177029-48HR |
  11   174843-48HR |

* indicates ticket # is repeated

Total Tickets: 41

ETKT - EMERGENCY                      |    1
UPDT - UPDATE                         |    8
 3HR - 3 HOUR                         |    2
48HR - STANDARD                       |   26
RELC - RELOCATE                       |    1
CORR - CORRECTION                     |    3

Please call (410) 712-0056 if this data does
not match the tickets you received on  3/13/02



0
Date/Time :  3-14-02 at  1:12

MISSU
SUMM
DAILY AUDIT OF TICKETS SENT ON  3/13/02

Date/Time: 03/14/02 12:30:00 AM
Receiving Terminal: VPW   07

Seq #   Ticket #    Seq #   Ticket #    Seq #   Ticket #    Seq #   Ticket #    
----- ------------  ----- ------------  ----- ------------  ----- ------------  
   1   174780-48HR |   4   175270-48HR |   7   175516-48HR |  10   176533-48HR |
   2   174900-48HR |   5   175280-48HR |   8   175544-48HR |  11   176947-48HR |
   3   175250-48HR |   6   175327-48HR |   9   175666-48HR |

* indicates ticket # is repeated

Total Tickets: 11

48HR - STANDARD                       |   11

Please call (410) 712-0056 if this data does
not match the tickets you received on  3/13/02



0
Date/Time :  3-14-02 at  1:12

MISSU
SUMM
DAILY AUDIT OF TICKETS SENT ON  3/13/02

Date/Time: 03/14/02 12:30:00 AM
Receiving Terminal: VPW   09

Seq #   Ticket #    Seq #   Ticket #    Seq #   Ticket #    Seq #   Ticket #    
----- ------------  ----- ------------  ----- ------------  ----- ------------  
   1   174776-48HR |   4   176161-48HR |   7   176360-48HR |   9   176648-48HR |
   2   174818-48HR |   5   176339-48HR |   8   176182-48HR |  10   176812-48HR |
   3   175446-48HR |   6   176353-48HR |

* indicates ticket # is repeated

Total Tickets: 10

48HR - STANDARD                       |   10

Please call (410) 712-0056 if this data does
not match the tickets you received on  3/13/02



0
Date/Time :  3-14-02 at  1:12

MISSU
SUMM
DAILY AUDIT OF TICKETS SENT ON  3/13/02

Date/Time: 03/14/02 12:30:00 AM
Receiving Terminal: VPW18

Seq #   Ticket #    Seq #   Ticket #    Seq #   Ticket #    Seq #   Ticket #    
----- ------------  ----- ------------  ----- ------------  ----- ------------  

* indicates ticket # is repeated

Total Tickets: 0


Please call (410) 712-0056 if this data does
not match the tickets you received on  3/13/02
