
New Jersey One Call System        SEQUENCE NUMBER 0181   CDC = UW4

Transmit:  Date: 03/14/02   At: 0959

*** R O U T I N E         *** Request No.: 020730315

Operators Notified:
    CVN=/CABLEVISN OF NJ/ TGP=/WILLIAMS TRNSCO/ BCU=/BERGEN CTY UTIL/ 
    UW4=/UNITED WTR |UTQ/ PS1=/PSE&G ELEC&GAS / P33=/PSE&G GAS DIV  / 
    BAN=/VERIZON    |CLS/ BCD=/BERGEN CNTY DPW/ 

Location Information:
   County: BERGEN     Municipality: RIVER VALE
   Subdivision/Community: 
   Street:               30 JOHN SHINE CT
   Nearest Intersection: RIVERVALE RD 
   Other Intersection:   
   Type of Work :        FOUNDATION
   Extent of Work: ENTIRE OF REAR PROP                      DEPTH: 3FT

   Start Date/Time:    03/20/02   At 0700   Expiration Date: 04/26/02
   Remarks:
     EXPIRATION DATE 04/26/02

   Working For:  MR AD MRS GUTIERREZ
   Address:      30 JOHN SHINE CT
   City:         RIVER VALE, NJ 
   Phone:        201-666-5028
   Contact:      MR AND MRS GUTIERREZ    Title: 

Excavator Information:
   Caller:       JERRY MONTONE           Title: OWNER
   Phone:        973-523-6992            

   Excavator:    MONTONE CONSTRUCTION
   Address:      382 6TH AVE
   City:         PATERSON, NJ  07514
   Phone:        973-523-6992            Fax:  973-977-9296
   Contact:      JERRY MONTONE           Title: OWNER
   Phone:        973-523-6992            Best Time: 1700-2300
   Cellular:     973-418-8418 MOBILE

   Alternate Field Contact:
   Name:                                 Title: 
   Phone:                                Fax: 
   Cellular:                             Best Time: 
End Request







New Jersey One Call System        SEQUENCE NUMBER 0182   CDC = NJN

Transmit:  Date: 03/14/02   At: 1000

*** R O U T I N E         *** Request No.: 020730316

Operators Notified:
    TK3=/CABLEVSN-MORRIS/ MTO=/MT OLIVE TWP   / CC6=/COMCAST-NW NJ  / 
    NJN=/NJ NATL GAS|UTQ/ EG2=/ELIZABTHTWN GAS/ GP0=/GPU ENERGY     / 
    BAN=/VERIZON    |CLS/ 

Location Information:
   County: MORRIS     Municipality: MOUNT OLIVE
   Subdivision/Community: TURKEY BROOK PARK
   Street:               0 DRAKESDALE RD
   Nearest Intersection: CHELSEA DR 
   Other Intersection:   SUNSET RD
   Type of Work :        INSTL SANITARY,STORM,WTR MAIN
   Extent of Work: ENTIRE FRONT/CURB TO CURB/10FT BEHIND    DEPTH: 18FT

   Start Date/Time:    03/20/02   At 0700   Expiration Date: 04/26/02
   Remarks:
     EXPIRATION DATE 04/26/02
     M/O BLOCK# 7600;LOT# 71(POSTED)LOC @INTER ACROSS ST FROM CHELSEA
     M/O FRONTAGE OF PROP,100FT IN EACH DIRECTION OF THE ADDRESS CURB
     TO CURB AND 10FT BEHIND BOTH CURBS

   Working For:  KYLE CONTI CONSTRUCTION
   Address:      1110 HAMILTON BLVD;SUITE 2-A
   City:         SOUTH PLAINFIELD, NJ  07080
   Phone:        908-668-1225
   Contact:      KYLE CONTI              Title: 

Excavator Information:
   Caller:       MIKE WALLACE            Title: VP
   Phone:        973-347-6166            

   Excavator:    PETILLO INC
   Address:      167 FLANDERS-NETCONG RD
   City:         FLANDERS, NJ  07836
   Phone:        973-347-6166            Fax:  973-347-6773
   Contact:      MIKE WALLACE            Title: VP
   Phone:        973-347-6166            Best Time: 0800-1600
   Cellular:     973-713-2123

   Alternate Field Contact:
   Name:         MIKE PETILLO            Title: PRES
   Phone:        973-347-6166            Fax: 
   Cellular:     201-572-8924            Best Time: 0800-1600
End Request






New Jersey One Call System        SEQUENCE NUMBER 0183   CDC = SJG

Transmit:  Date: 03/14/02   At: 1000

*** R O U T I N E         *** Request No.: 020730318

Operators Notified:
    TGP=/WILLIAMS TRNSCO/ CC1=/COMCAST-GLCSTER/ WDT=/W DEPTFORD TWP / 
    NJT=/NJ TURNPKE AUTH/ CP1=/COASTAL PL     / AE1=/CONECTV PWR|CLS/ 
    PS4=/PSE&G ELEC&GAS / SJG=/S JERSY GAS|UTQ/ P32=/PSE&G GAS DIV  / 
    CPC=/COLONIAL PL    / SU2=/SUNOCO PIPELINE/ BAN=/VERIZON    |CLS/ 
    TMF=/ADESTA COMM    / AG4=/AGWAY FREE-OCSC/ 

Location Information:
   County: GLOUCESTER     Municipality: WEST DEPTFORD
   Subdivision/Community: 
   Street:               21 REDWOOD DR
   Nearest Intersection: RT 45 
   Other Intersection:   
   Type of Work :        INTSL POOL
   Extent of Work: ENTIRE REAR OF PROP                      DEPTH: 9'

   Start Date/Time:    03/20/02   At 0800   Expiration Date: 04/26/02
   Remarks:
     EXPIRATION DATE 04/26/02

   Working For:  DON WECHTER
   Address:      21 REDWOOD DR
   City:         WEST DEPTFORD, NJ  08096
   Phone:        856-845-1677
   Contact:      DON WETCHER             Title: 

Excavator Information:
   Caller:       BARBARA COLTELLARO      Title: SVC SEC
   Phone:        856-468-0378            

   Excavator:    POOLS BY VAN BRILL INC.
   Address:      WOODBURY & GLASSBORO RDS.BLDG 553
   City:         SEWELL, NJ  08080
   Phone:        856-468-0378            Fax:  856-468-9472
   Contact:      BARBARA COLTELLARO      Title: SVC SEC
   Phone:        856-468-0378            Best Time: 0900-1700
   Cellular:     

   Alternate Field Contact:
   Name:                                 Title: 
   Phone:                                Fax: 
   Cellular:                             Best Time: 
End Request






New Jersey One Call System        SEQUENCE NUMBER 0184   CDC = UW4

Transmit:  Date: 03/14/02   At: 1000

*** R O U T I N E         *** Request No.: 020730319

Operators Notified:
    RIC=/RIDGEWOOD WTR  / MCI=/MCIWORLDCOM    / REC=/ROCKLAND ELEC  / 
    TCI=/CABLEVISION    / UW4=/UNITED WTR |UTQ/ PS1=/PSE&G ELEC&GAS / 
    PS8=/PSE&G GAS DIV  / BAN=/VERIZON    |CLS/ BCD=/BERGEN CNTY DPW/ 

Location Information:
   County: BERGEN     Municipality: WYCKOFF
   Subdivision/Community: 
   Street:               247 WILSON PL
   Nearest Intersection: NEWTOWN RD 
   Other Intersection:   
   Type of Work :        SEARCH FOR LEAK
   Extent of Work: CURB TO CURB TO HOUSE                    DEPTH: 3FT

   Start Date/Time:    03/20/02   At 0700   Expiration Date: 04/26/02
   Remarks:
     EXPIRATION DATE 04/26/02

   Working For:  PUBLIC SERVICE ELECTRIC & GAS
   Address:      20 VAN VOOREN DR
   City:         OAKLAND, NJ  07436
   Phone:        201-337-2526
   Contact:      LISA ANGELBECK          Title: 

Excavator Information:
   Caller:       LISA ANGELBECK          Title: DIST CLERK
   Phone:        201-337-2526            

   Excavator:    PUBLIC SERVICE ELECTRIC & GAS CO
   Address:      20 VAN VOOREN DR
   City:         OAKLAND, NJ  07436
   Phone:        201-337-2526            Fax:  201-337-8248
   Contact:      LISA ANGELBECK          Title: DIST CLERK
   Phone:        201-337-2526            Best Time: 0700-1500
   Cellular:     

   Alternate Field Contact:
   Name:         FRANK POLK              Title: DISP CLERK
   Phone:        201-337-2527            Fax: 201-337-8248
   Cellular:                             Best Time: 0700-1500
End Request






New Jersey One Call System        SEQUENCE NUMBER 0185   CDC = NJN

Transmit:  Date: 03/14/02   At: 1000

*** R O U T I N E         *** Request No.: 020730320

Operators Notified:
    CAM=/CABLEVISION-MON/ HOW=/HOWELL TWP SWR / NWS=/NJ WTR-MANSQUAN/ 
    NJN=/NJ NATL GAS|UTQ/ GP8=/GPU ENERGY     / NJA=/NJ AMER WTR    / 
    BAN=/VERIZON    |CLS/ HNH=/H&H PGA-OCSCRNG/ 

Location Information:
   County: MONMOUTH     Municipality: HOWELL
   Subdivision/Community: 
   Street:               433 W FARMS RD
   Nearest Intersection: GEORGIA TAVERN RD 
   Other Intersection:   LEMON RD
   Type of Work :        SOIL LOGS FOR SEPTIC SYSTEMS--
   Extent of Work: ENTIRE PROP                              DEPTH: 15'

   Start Date/Time:    03/22/02   At 0800   Expiration Date: 04/26/02
   Remarks:
     EXPIRATION DATE 04/26/02
     ---ALTERATION

   Working For:  LEE JAMISON
   Address:      433 W FARMS RD
   City:         HOWELL, NJ  07727
   Phone:        732-919-0065
   Contact:      LEE JAMISON             Title: 

Excavator Information:
   Caller:       TED APPIGNANI           Title: OFC MGR
   Phone:        732-863-1403            

   Excavator:    LORTECH ENGINEERING
   Address:      182 SOUTH ST
   City:         FREEHOLD, NJ  07728
   Phone:        732-863-1403            Fax:  732-863-1405
   Contact:      TED APPIGNANI           Title: OFC MGR
   Phone:        732-863-1403            Best Time: 0800-1700
   Cellular:     

   Alternate Field Contact:
   Name:         BILL LONGO              Title: PRESIDENT
   Phone:        732-863-1403            Fax: 732-863-1405
   Cellular:                             Best Time: 0800-1700
End Request






New Jersey One Call System        SEQUENCE NUMBER 0186   CDC = SJG

Transmit:  Date: 03/14/02   At: 1000

*** R O U T I N E         *** Request No.: 020730321

Operators Notified:
    ATC=/ATLNTC CITY MUA/ SCA=/COMCST CATV-ABS/ ACS=/ATLNTC CITY SWR/ 
    AE1=/CONECTV PWR|CLS/ SJG=/S JERSY GAS|UTQ/ BAN=/VERIZON    |CLS/ 

Location Information:
   County: ATLANTIC     Municipality: ATLANTIC CITY
   Subdivision/Community: 
   Street:               307 N NORTH CAROLINA AVE
   Nearest Intersection: DREXEL AVE 
   Other Intersection:   
   Type of Work :        DISCONNECT GAS SVC
   Extent of Work: CURB TO CURB/CURB TO HOUSE               DEPTH: 36IN

   Start Date/Time:    03/20/02   At 0800   Expiration Date: 04/26/02
   Remarks:
     EXPIRATION DATE 04/26/02

   Working For:  SOUTH JERSEY GAS
   Address:      111 NORTH FRANKLIN BLVD
   City:         PLEASANTVILLE, NJ  08232
   Phone:        609-645-2690
   Contact:      ARNIE GARWOOD           Title: 

Excavator Information:
   Caller:       ARNIE GARWOOD           Title: CLERK
   Phone:        609-645-2690            

   Excavator:    SOUTH JERSEY GAS
   Address:      111 NORTH FRANKLIN BLVD
   City:         PLEASANTVILLE, NJ  08232
   Phone:        609-645-2690            Fax:  609-645-9752
   Contact:      ARNIE GARWOOD           Title: CLERK
   Phone:        609-645-2690            Best Time: 0800-1600
   Cellular:     

   Alternate Field Contact:
   Name:         VINCE LEONETTI          Title: CLERK
   Phone:        609-645-2690            Fax: 
   Cellular:                             Best Time: 0800-1600
End Request






New Jersey One Call System        SEQUENCE NUMBER 0187   CDC = SJG

Transmit:  Date: 03/14/02   At: 1000

*** R O U T I N E         *** Request No.: 020730322

Operators Notified:
    MDF=/MEDFORD WTR&SWR/ AE1=/CONECTV PWR|CLS/ GSC=/COMCAST GS CATV/ 
    PS4=/PSE&G ELEC&GAS / SJG=/S JERSY GAS|UTQ/ P34=/PSE&G GAS DIV  / 
    BAN=/VERIZON    |CLS/ 

Location Information:
   County: BURLINGTON     Municipality: MEDFORD
   Subdivision/Community: 
   Street:               59 HIGHBRIDGE BLVD
   Nearest Intersection: GRAVELY HOLLOW RD 
   Other Intersection:   
   Type of Work :        INSTL WTR SVC
   Extent of Work: CURB TO FRONT OF HOUSE                   DEPTH: 5FT

   Start Date/Time:    03/20/02   At 0700   Expiration Date: 04/26/02
   Remarks:
     EXPIRATION DATE 04/26/02

   Working For:  SIGNATURE HOMES
   Address:      444 COMMERCE LN
   City:         WEST BERLIN, NJ  08091
   Phone:        856-261-0206
   Contact:      CHRIS JONES             Title: 

Excavator Information:
   Caller:       LINDA APPLEGATE         Title: ASST
   Phone:        856-719-9444            

   Excavator:    CLEMENTON PLUMBING & HEATING
   Address:      PO BOX 675
   City:         VOORHEES, NJ  08043
   Phone:        856-719-9444            Fax:  856-719-9464
   Contact:      KAY GLASS               Title: SEC
   Phone:        856-719-9444            Best Time: 0900-1400
   Cellular:     

   Alternate Field Contact:
   Name:         RICH COZZIE             Title: OPER
   Phone:        856-719-9444            Fax: 
   Cellular:                             Best Time: 0900-1400
End Request






New Jersey One Call System        SEQUENCE NUMBER 0188   CDC = NJN

Transmit:  Date: 03/14/02   At: 1000

*** R O U T I N E         *** Request No.: 020730323

Operators Notified:
    USS=/SPRINT LDD     / MCI=/MCIWORLDCOM    / SHW=/SHORELANDS WTR / 
    NJR=/NJ TRANSIT     / CC4=/COMCAST-MNMOUTH/ NJN=/NJ NATL GAS|UTQ/ 
    NJA=/NJ AMER WTR    / GP9=/GPU ENERGY |CLS/ BAN=/VERIZON    |CLS/ 

Location Information:
   County: MONMOUTH     Municipality: MIDDLETOWN
   Subdivision/Community: 
   Street:               0 RED HILL RD
   Nearest Intersection: HOLLAND RD 
   Other Intersection:   
   Type of Work :        INSTL GAS SVC
   Extent of Work: 10'BEHIND FAR CURB,CURB TO CURB,ENTIRE-  DEPTH: 3'

   Start Date/Time:    03/20/02   At 0800   Expiration Date: 04/26/02
   Remarks:
     EXPIRATION DATE 04/26/02
     BLK 800 & LOT 1.01-POSTED//-PROP/

   Working For:  NEW JERSEY NATURAL GAS CO
   Address:      1415 WYCKOFF RD
   City:         WALL, NJ  07719
   Phone:        732-872-3323
   Contact:      HOWARD BREY             Title: 

Excavator Information:
   Caller:       KIM DUNLEAVY            Title: ADMIN ASST
   Phone:        732-222-4400 X230       

   Excavator:    JF KIELY CONSTRUCTION COMPANY
   Address:      700 MCCLELLAN ST
   City:         LONG BRANCH, NJ  07740
   Phone:        732-222-4400            Fax:  732-229-2353
   Contact:      KIM DUNLEAVY            Title: ADMIN ASST
   Phone:        732-222-4400 X230       Best Time: 0800-1700
   Cellular:     

   Alternate Field Contact:
   Name:         PAT MCCORMICK           Title: OFF MGR
   Phone:        732-222-4400 X232       Fax: 732-229-2353
   Cellular:                             Best Time: 0800-1700
End Request






New Jersey One Call System        SEQUENCE NUMBER 0189   CDC = EG1

Transmit:  Date: 03/14/02   At: 1000

*** R O U T I N E         *** Request No.: 020730324

Operators Notified:
    EW1=/ELIZABETHTN WTR/ EG1=/ELZBTWN GAS|UTQ/ P35=/PSE&G ELEC&GAS / 
    PS5=/PSE&G GAS DIV  / CC7=/COMCAST-NJ     / SU2=/SUNOCO PIPELINE/ 
    BAN=/VERIZON    |CLS/ MFR=/METROMEDIA FIBR/ 

Location Information:
   County: UNION     Municipality: SCOTCH PLAINS
   Subdivision/Community: SOUTHWYCK
   Street:               1 MADDAKET CT
   Nearest Intersection: CARRIAGE DR 
   Other Intersection:   
   Type of Work :        INSTL GAS SVC
   Extent of Work: CURB TO CURB TO ENTIRE PROP B/S ST       DEPTH: 50FT

   Start Date/Time:    03/20/02   At 0730   Expiration Date: 04/26/02
   Remarks:
     EXPIRATION DATE 04/26/02

   Working For:  ELIZABETHTOWN GAS
   Address:      PO BOX 1375
   City:         UNION, NJ  07083
   Phone:        908-289-5000
   Contact:      LOREN HARMS             Title: 

Excavator Information:
   Caller:       JOHN BELO               Title: SUPV
   Phone:        908-862-9181            

   Excavator:    HENKELS & MCCOY, INC.
   Address:      1300 WEST BLANCKE ST
   City:         LINDEN, NJ  07036
   Phone:        908-862-9181            Fax:  908-523-0175
   Contact:      JOHN BELO               Title: SUPV
   Phone:        908-862-9181            Best Time: 0700-1700
   Cellular:     

   Alternate Field Contact:
   Name:                                 Title: 
   Phone:                                Fax: 
   Cellular:                             Best Time: 
End Request






New Jersey One Call System        SEQUENCE NUMBER 0190   CDC = NJN

Transmit:  Date: 03/14/02   At: 1001

*** R O U T I N E         *** Request No.: 020730325

Operators Notified:
    ADC=/COMCAST CATV   / DVM=/DOVER MUN UTILS/ UW7=/UWTR-TOMS RIVER/ 
    NJN=/NJ NATL GAS|UTQ/ GP7=/GPU ENERGY     / BAN=/VERIZON    |CLS/ 

Location Information:
   County: OCEAN     Municipality: DOVER
   Subdivision/Community: 
   Street:               530 PRINCESS CT
   Nearest Intersection: PARTRIDGE RD 
   Other Intersection:   
   Type of Work :        INSTL GAS SVC
   Extent of Work: 10'BEHIND FAR CURB,CURB TO CURB,ENTIRE-  DEPTH: 3'

   Start Date/Time:    03/20/02   At 0800   Expiration Date: 04/26/02
   Remarks:
     EXPIRATION DATE 04/26/02
     -PROP/

   Working For:  NEW JERSEY NATURAL GAS CO
   Address:      1415 WYCKOFF RD
   City:         WALL, NJ  07719
   Phone:        732-905-4323
   Contact:      RICK HAUTER             Title: 

Excavator Information:
   Caller:       KIM DUNLEAVY            Title: ADMIN ASST
   Phone:        732-222-4400 X230       

   Excavator:    JF KIELY CONSTRUCTION COMPANY
   Address:      700 MCCLELLAN ST
   City:         LONG BRANCH, NJ  07740
   Phone:        732-222-4400            Fax:  732-229-2353
   Contact:      KIM DUNLEAVY            Title: ADMIN ASST
   Phone:        732-222-4400 X230       Best Time: 0800-1700
   Cellular:     

   Alternate Field Contact:
   Name:         PAT MCCORMICK           Title: OFF MGR
   Phone:        732-222-4400 X232       Fax: 732-229-2353
   Cellular:                             Best Time: 0800-1700
End Request






New Jersey One Call System        SEQUENCE NUMBER 0191   CDC = NJN

Transmit:  Date: 03/14/02   At: 1001

*** R O U T I N E         *** Request No.: 020730329

Operators Notified:
    MEE=/MEENAN OIL CO  / ADC=/COMCAST CATV   / DVM=/DOVER MUN UTILS/ 
    UW7=/UWTR-TOMS RIVER/ NJN=/NJ NATL GAS|UTQ/ GP7=/GPU ENERGY     / 
    BAN=/VERIZON    |CLS/ 

Location Information:
   County: OCEAN     Municipality: DOVER
   Subdivision/Community: 
   Street:               1857 WINDWARD CT
   Nearest Intersection: LOOKOUT DR 
   Other Intersection:   
   Type of Work :        INSTL GAS SVC
   Extent of Work: 10'BEHIND FAR CURB,CURB TO CURB,ENTIRE-  DEPTH: 3'

   Start Date/Time:    03/20/02   At 0800   Expiration Date: 04/26/02
   Remarks:
     EXPIRATION DATE 04/26/02
     -PROP/

   Working For:  NEW JERSEY NATURAL GAS CO
   Address:      1415 WYCKOFF RD
   City:         WALL, NJ  07719
   Phone:        732-905-4323
   Contact:      RICK HAUTER             Title: 

Excavator Information:
   Caller:       KIM DUNLEAVY            Title: ADMIN ASST
   Phone:        732-222-4400 X230       

   Excavator:    JF KIELY CONSTRUCTION COMPANY
   Address:      700 MCCLELLAN ST
   City:         LONG BRANCH, NJ  07740
   Phone:        732-222-4400            Fax:  732-229-2353
   Contact:      KIM DUNLEAVY            Title: ADMIN ASST
   Phone:        732-222-4400 X230       Best Time: 0800-1700
   Cellular:     

   Alternate Field Contact:
   Name:         PAT MCCORMICK           Title: OFF MGR
   Phone:        732-222-4400 X232       Fax: 732-229-2353
   Cellular:                             Best Time: 0800-1700
End Request






New Jersey One Call System        SEQUENCE NUMBER 0192   CDC = UW4

Transmit:  Date: 03/14/02   At: 1001

*** R O U T I N E         *** Request No.: 020730331

Operators Notified:
    BCU=/BERGEN CTY UTIL/ TWC=/TIME WARNR CATV/ UW4=/UNITED WTR |UTQ/ 
    PS1=/PSE&G ELEC&GAS / P33=/PSE&G GAS DIV  / CEW=/ENGLEWOOD CITY / 
    BAN=/VERIZON    |CLS/ 

Location Information:
   County: BERGEN     Municipality: ENGLEWOOD
   Subdivision/Community: 
   Street:               480 N WOODLAND ST
   Nearest Intersection: BOOTH AVE 
   Other Intersection:   
   Type of Work :        INSTL POOL
   Extent of Work: FRONT PROP                               DEPTH: 7FT

   Start Date/Time:    03/20/02   At 0900   Expiration Date: 04/26/02
   Remarks:
     EXPIRATION DATE 04/26/02

   Working For:  JOSEPH AND OFNAT RAM
   Address:      480 N WOODLAND ST
   City:         ENGLEWOOD, NJ  07631
   Phone:        201-227-2541
   Contact:      JOSEPH AND OFNAT RAM    Title: 

Excavator Information:
   Caller:       ANNMARIE SQUATRITO      Title: SALES
   Phone:        973-227-5850            

   Excavator:    ANTHONY/SYLVAN POOLS
   Address:      420 ROUTE 46
   City:         FAIRFIELD, NJ  07004
   Phone:        973-227-5850            Fax:  973-227-2919
   Contact:      ANNMARIE SQUATRITO      Title: SALES
   Phone:        973-227-5850            Best Time: 0900-1700
   Cellular:     

   Alternate Field Contact:
   Name:         ROB LIKOS               Title: SALES MGR
   Phone:        973-227-5850            Fax: 973-227-2919
   Cellular:                             Best Time: 0900-1700
End Request






New Jersey One Call System        SEQUENCE NUMBER 0193   CDC = NJN

Transmit:  Date: 03/14/02   At: 1001

*** R O U T I N E         *** Request No.: 020730332

Operators Notified:
    ADC=/COMCAST CATV   / DVM=/DOVER MUN UTILS/ UW7=/UWTR-TOMS RIVER/ 
    NJN=/NJ NATL GAS|UTQ/ GP7=/GPU ENERGY     / BAN=/VERIZON    |CLS/ 

Location Information:
   County: OCEAN     Municipality: DOVER
   Subdivision/Community: 
   Street:               63 MIDDLE DR
   Nearest Intersection: MARGARET CT 
   Other Intersection:   
   Type of Work :        INSTL GAS SVC
   Extent of Work: 10'BEHIND FAR CURB,CURB TO CURB,ENTIRE-  DEPTH: 3'

   Start Date/Time:    03/20/02   At 0800   Expiration Date: 04/26/02
   Remarks:
     EXPIRATION DATE 04/26/02
     -PROP/

   Working For:  NEW JERSEY NATURAL GAS CO
   Address:      1415 WYCKOFF RD
   City:         WALL, NJ  07719
   Phone:        732-905-4323
   Contact:      RICK HAUTER             Title: 

Excavator Information:
   Caller:       KIM DUNLEAVY            Title: ADMIN ASST
   Phone:        732-222-4400 X230       

   Excavator:    JF KIELY CONSTRUCTION COMPANY
   Address:      700 MCCLELLAN ST
   City:         LONG BRANCH, NJ  07740
   Phone:        732-222-4400            Fax:  732-229-2353
   Contact:      KIM DUNLEAVY            Title: ADMIN ASST
   Phone:        732-222-4400 X230       Best Time: 0800-1700
   Cellular:     

   Alternate Field Contact:
   Name:         PAT MCCORMICK           Title: OFF MGR
   Phone:        732-222-4400 X232       Fax: 732-229-2353
   Cellular:                             Best Time: 0800-1700
End Request






New Jersey One Call System        SEQUENCE NUMBER 0194   CDC = NJN

Transmit:  Date: 03/14/02   At: 1001

*** R O U T I N E         *** Request No.: 020730333

Operators Notified:
    HOL=/HOLMDEL TWP    / CC4=/COMCAST-MNMOUTH/ NJN=/NJ NATL GAS|UTQ/ 
    NJA=/NJ AMER WTR    / GP9=/GPU ENERGY |CLS/ BAN=/VERIZON    |CLS/ 

Location Information:
   County: MONMOUTH     Municipality: HOLMDEL
   Subdivision/Community: 
   Street:               952 HOLMDEL RD
   Nearest Intersection: ROUTE 520 
   Other Intersection:   
   Type of Work :        TEST PITS EXCAV
   Extent of Work: ENTIRE PROP                              DEPTH: 15FT

   Start Date/Time:    03/20/02   At 0700   Expiration Date: 04/26/02
   Remarks:
     EXPIRATION DATE 04/26/02

   Working For:  E. CRUZ & COMPANY INC.
   Address:      943 HOLMDEL RD
   City:         HOLMDEL, NJ  07733
   Phone:        732-946-9700
   Contact:      KEVIN LOPEZ             Title: 

Excavator Information:
   Caller:       KEVIN LOPEZ             Title: ENG
   Phone:        732-946-9700            

   Excavator:    E. CRUZ & COMPANY INC.
   Address:      943 HOLMDEL RD
   City:         HOLMDEL, NJ  07733
   Phone:        732-946-9700            Fax:  973-242-5694
   Contact:      KEVIN LOPEZ             Title: ENG
   Phone:        732-946-9700            Best Time: 0800-1700
   Cellular:     

   Alternate Field Contact:
   Name:         JOHN ARCHILLE           Title: ENG
   Phone:        732-946-9700            Fax: 
   Cellular:                             Best Time: 0800-1700
End Request






New Jersey One Call System        SEQUENCE NUMBER 0195   CDC = NJN

Transmit:  Date: 03/14/02   At: 1001

*** R O U T I N E         *** Request No.: 020730335

Operators Notified:
    OCE=/OCEAN CNTY ENG / ADC=/COMCAST CATV   / DVM=/DOVER MUN UTILS/ 
    UW7=/UWTR-TOMS RIVER/ NJN=/NJ NATL GAS|UTQ/ GP7=/GPU ENERGY     / 
    BAN=/VERIZON    |CLS/ 

Location Information:
   County: OCEAN     Municipality: DOVER
   Subdivision/Community: 
   Street:               504 TERRACE AVE
   Nearest Intersection: DICKINSON AVE 
   Other Intersection:   
   Type of Work :        INSTL GAS SVC
   Extent of Work: 10'BEHIND FAR CURB,CURB TO CURB,ENTIRE-  DEPTH: 3'

   Start Date/Time:    03/20/02   At 0800   Expiration Date: 04/26/02
   Remarks:
     EXPIRATION DATE 04/26/02
     -PROP/

   Working For:  NEW JERSEY NATURAL GAS CO
   Address:      1415 WYCKOFF RD
   City:         WALL, NJ  07719
   Phone:        732-905-4323
   Contact:      RICK HAUTER             Title: 

Excavator Information:
   Caller:       KIM DUNLEAVY            Title: ADMIN ASST
   Phone:        732-222-4400 X230       

   Excavator:    JF KIELY CONSTRUCTION COMPANY
   Address:      700 MCCLELLAN ST
   City:         LONG BRANCH, NJ  07740
   Phone:        732-222-4400            Fax:  732-229-2353
   Contact:      KIM DUNLEAVY            Title: ADMIN ASST
   Phone:        732-222-4400 X230       Best Time: 0800-1700
   Cellular:     

   Alternate Field Contact:
   Name:         PAT MCCORMICK           Title: OFF MGR
   Phone:        732-222-4400 X232       Fax: 732-229-2353
   Cellular:                             Best Time: 0800-1700
End Request






New Jersey One Call System        SEQUENCE NUMBER 0196   CDC = NJN

Transmit:  Date: 03/14/02   At: 1001

*** R O U T I N E         *** Request No.: 020730336

Operators Notified:
    HOL=/HOLMDEL TWP    / CC4=/COMCAST-MNMOUTH/ NJN=/NJ NATL GAS|UTQ/ 
    NJA=/NJ AMER WTR    / GP9=/GPU ENERGY |CLS/ BAN=/VERIZON    |CLS/ 

Location Information:
   County: MONMOUTH     Municipality: HOLMDEL
   Subdivision/Community: 
   Street:               952 HOLMDEL RD
   Nearest Intersection: ROUTE 520 
   Other Intersection:   
   Type of Work :        TEST PITS EXCAV
   Extent of Work: ENTIRE PROP                              DEPTH: 15FT

   Start Date/Time:    03/20/02   At 0700   Expiration Date: 04/26/02
   Remarks:
     EXPIRATION DATE 04/26/02

   Working For:  E. CRUZ & COMPANY INC.
   Address:      943 HOLMDEL RD
   City:         HOLMDEL, NJ  07733
   Phone:        732-946-9700
   Contact:      KEVIN LOPEZ             Title: 

Excavator Information:
   Caller:       KEVIN LOPEZ             Title: ENG
   Phone:        732-946-9700            

   Excavator:    E. CRUZ & COMPANY INC.
   Address:      943 HOLMDEL RD
   City:         HOLMDEL, NJ  07733
   Phone:        732-946-9700            Fax:  732-946-7592
   Contact:      KEVIN LOPEZ             Title: ENG
   Phone:        732-946-9700            Best Time: 0800-1700
   Cellular:     

   Alternate Field Contact:
   Name:         JOHN ARCHILLE           Title: ENG
   Phone:        732-946-9700            Fax: 
   Cellular:                             Best Time: 0800-1700
End Request






New Jersey One Call System        SEQUENCE NUMBER 0197   CDC = NJN

Transmit:  Date: 03/14/02   At: 1001

*** U P D A T E           *** Request No.: 020730337 Of Request No. 020730333

Operators Notified:
    HOL=/HOLMDEL TWP    / CC4=/COMCAST-MNMOUTH/ NJN=/NJ NATL GAS|UTQ/ 
    NJA=/NJ AMER WTR    / GP9=/GPU ENERGY |CLS/ BAN=/VERIZON    |CLS/ 

Location Information:
   County: MONMOUTH     Municipality: HOLMDEL
   Subdivision/Community: 
   Street:               952 HOLMDEL RD
   Nearest Intersection: ROUTE 520 
   Other Intersection:   
   Type of Work :        TEST PITS EXCAV
   Extent of Work: ENTIRE PROP                              DEPTH: 15FT

   Start Date/Time:    03/20/02   At 0700   Expiration Date: 04/26/02
   Remarks:
     EXPIRATION DATE 04/26/02
     RC#020730333 - CANCELLED BY KEVIN LOPEZ
     ADDED A PHONE #

   Working For:  E. CRUZ & COMPANY INC.
   Address:      943 HOLMDEL RD
   City:         HOLMDEL, NJ  07733
   Phone:        732-946-9700
   Contact:      KEVIN LOPEZ             Title: 

Excavator Information:
   Caller:       KEVIN LOPEZ             Title: ENG
   Phone:        732-946-9700            

   Excavator:    E. CRUZ & COMPANY INC.
   Address:      943 HOLMDEL RD
   City:         HOLMDEL, NJ  07733
   Phone:        732-946-9700            Fax:  973-242-5694
   Contact:      KEVIN LOPEZ             Title: ENG
   Phone:        732-946-9700            Best Time: 0800-1700
   Cellular:     

   Alternate Field Contact:
   Name:         JOHN ARCHILLE           Title: ENG
   Phone:        732-946-9700            Fax: 
   Cellular:                             Best Time: 0800-1700
End Request






New Jersey One Call System        SEQUENCE NUMBER 0198   CDC = NJN

Transmit:  Date: 03/14/02   At: 1002

*** R O U T I N E         *** Request No.: 020730339

Operators Notified:
    OCE=/OCEAN CNTY ENG / ADC=/COMCAST CATV   / DVM=/DOVER MUN UTILS/ 
    UW7=/UWTR-TOMS RIVER/ NJN=/NJ NATL GAS|UTQ/ GP7=/GPU ENERGY     / 
    BAN=/VERIZON    |CLS/ OCU=/OCEAN COUNTY UA/ 

Location Information:
   County: OCEAN     Municipality: DOVER
   Subdivision/Community: 
   Street:               541 CORNELL AVE
   Nearest Intersection: ADAMS AVE 
   Other Intersection:   
   Type of Work :        INSTL GAS SVC
   Extent of Work: 10'BEHIND FAR CURB,CURB TO CURB,ENTIRE-  DEPTH: 3'

   Start Date/Time:    03/20/02   At 0800   Expiration Date: 04/26/02
   Remarks:
     EXPIRATION DATE 04/26/02
     -PROP/

   Working For:  NEW JERSEY NATURAL GAS CO
   Address:      1415 WYCKOFF RD
   City:         WALL, NJ  07719
   Phone:        732-905-4323
   Contact:      RICK HAUTER             Title: 

Excavator Information:
   Caller:       KIM DUNLEAVY            Title: ADMIN ASST
   Phone:        732-222-4400 X230       

   Excavator:    JF KIELY CONSTRUCTION COMPANY
   Address:      700 MCCLELLAN ST
   City:         LONG BRANCH, NJ  07740
   Phone:        732-222-4400            Fax:  732-229-2353
   Contact:      KIM DUNLEAVY            Title: ADMIN ASST
   Phone:        732-222-4400 X230       Best Time: 0800-1700
   Cellular:     

   Alternate Field Contact:
   Name:         PAT MCCORMICK           Title: OFF MGR
   Phone:        732-222-4400 X232       Fax: 732-229-2353
   Cellular:                             Best Time: 0800-1700
End Request






New Jersey One Call System        SEQUENCE NUMBER 0199   CDC = NJN

Transmit:  Date: 03/14/02   At: 1002

*** R O U T I N E         *** Request No.: 020730340

Operators Notified:
    ADC=/COMCAST CATV   / DVM=/DOVER MUN UTILS/ UW7=/UWTR-TOMS RIVER/ 
    NJN=/NJ NATL GAS|UTQ/ GP7=/GPU ENERGY     / BAN=/VERIZON    |CLS/ 

Location Information:
   County: OCEAN     Municipality: DOVER
   Subdivision/Community: 
   Street:               1669 N BAY AVE
   Nearest Intersection: TINA CT 
   Other Intersection:   
   Type of Work :        INSTL GAS SVC
   Extent of Work: 10'BEHIND FAR CURB,CURB TO CURB,ENTIRE-  DEPTH: 3'

   Start Date/Time:    03/20/02   At 0800   Expiration Date: 04/26/02
   Remarks:
     EXPIRATION DATE 04/26/02
     -PROP/

   Working For:  NEW JERSEY NATURAL GAS CO
   Address:      1415 WYCKOFF RD
   City:         WALL, NJ  07719
   Phone:        732-905-4323
   Contact:      RICK HAUTER             Title: 

Excavator Information:
   Caller:       KIM DUNLEAVY            Title: ADMIN ASST
   Phone:        732-222-4400 X230       

   Excavator:    JF KIELY CONSTRUCTION COMPANY
   Address:      700 MCCLELLAN ST
   City:         LONG BRANCH, NJ  07740
   Phone:        732-222-4400            Fax:  732-229-2353
   Contact:      KIM DUNLEAVY            Title: ADMIN ASST
   Phone:        732-222-4400 X230       Best Time: 0800-1700
   Cellular:     

   Alternate Field Contact:
   Name:         PAT MCCORMICK           Title: OFF MGR
   Phone:        732-222-4400 X232       Fax: 732-229-2353
   Cellular:                             Best Time: 0800-1700
End Request






New Jersey One Call System        SEQUENCE NUMBER 0200   CDC = SJG

Transmit:  Date: 03/14/02   At: 1002

*** R O U T I N E         *** Request No.: 020730343

Operators Notified:
    AE1=/CONECTV PWR|CLS/ GSC=/COMCAST GS CATV/ GP7=/GPU ENERGY     / 
    SJG=/S JERSY GAS|UTQ/ BAN=/VERIZON    |CLS/ SP3=/SBRBN PRPN-OCSC/ 

Location Information:
   County: BURLINGTON     Municipality: TABERNACLE
   Subdivision/Community: 
   Street:               19 NYODA TRL
   Nearest Intersection: OAKSHADE FLYATT RD 
   Other Intersection:   MEDFORD LAKES RD
   Type of Work :        INSTL GAS SVC
   Extent of Work: CURB TO CURB,10'BEHIND FAR CURB TO ----  DEPTH: 3'

   Start Date/Time:    03/20/02   At 0700   Expiration Date: 04/26/02
   Remarks:
     EXPIRATION DATE 04/26/02
     ---ENTIRE PROP
     CORNER PROP-SVC OFF OAKSHADE FLYATT RD- M/O OAKSHADE FLYATT RD
     FROM NYODA TRL TO COVER PROP

   Working For:  SOUTH JERSEY GAS CO
   Address:      PO BOX 589
   City:         WATERFORDS WORKS, NJ  08089
   Phone:        856-768-2900
   Contact:      ED CAREY                Title: 

Excavator Information:
   Caller:       LIBBY LEDDEN            Title: OFC MGR
   Phone:        856-863-8700            

   Excavator:    UTILITY LINE SERVICES
   Address:      500 CENCO BLVD
   City:         CLAYTON, NJ  08312
   Phone:        856-863-8700            Fax:  856-863-8725
   Contact:      LIBBY LEDDEN            Title: OFC MGR
   Phone:        856-863-8700            Best Time: 0800-1600
   Cellular:     

   Alternate Field Contact:
   Name:         MARK BASTIAN            Title: CONSTR MGR
   Phone:        856-863-8700            Fax: 
   Cellular:                             Best Time: 0800-1600
End Request






New Jersey One Call System        SEQUENCE NUMBER 0201   CDC = UW4

Transmit:  Date: 03/14/02   At: 1002

*** R O U T I N E         *** Request No.: 020730344

Operators Notified:
    TGP=/WILLIAMS TRNSCO/ USS=/SPRINT LDD     / MCI=/MCIWORLDCOM    / 
    NJT=/NJ TURNPKE AUTH/ NJR=/NJ TRANSIT     / CC5=/COMCAST-MEADOWL/ 
    AM2=/AT&T           / CC7=/COMCAST-NJ     / C11=/COMCAST-NJ     / 
    TMF=/ADESTA COMM    / BCU=/BERGEN CTY UTIL/ UW4=/UNITED WTR |UTQ/ 
    PS1=/PSE&G ELEC&GAS / PS2=/PSE&G ELEC&GAS / P30=/PSE&G GAS DIV  / 
    BAN=/VERIZON    |CLS/ 

Location Information:
   County: BERGEN     Municipality: EAST RUTHERFORD
   Subdivision/Community: RUTHERFORD,KINGSLAND,AVON,LYND
   Street:               0 VALLEY BROOK DR
   Nearest Intersection: CHUBB AVE 
   Other Intersection:   
   Type of Work :        TEST BORINGS
   Extent of Work: 5000FT RADIUS OF THAT POINT              DEPTH: 100FT

   Start Date/Time:    03/20/02   At 0800   Expiration Date: 04/26/02
   Remarks:
     EXPIRATION DATE 04/26/02
     GO APPX 1/4MI S OF THE ABOVE INTER ON VALLEY BROOK RD- AT THAT
     POINT M/O A 5000FT RADIUS- WORKING AT THE RUTHERFORD,KINGSLAND,
     LYNDHURST,VIOLA AND AVON LANDFILLS

   Working For:  ENCAP GULF HOLDINGS,LLC
   Address:      500 FRANK W BURR BLVD
   City:         TEANECK, NJ  07666
   Phone:        908-334-4787
   Contact:      JEFF BANDOLO            Title: 

Excavator Information:
   Caller:       BRUCE MILLER            Title: OFFICE MGR
   Phone:        856-767-8600            

   Excavator:    CONETEC
   Address:      415 COMMERCE LN, SUITE 3
   City:         W BERLIN, NJ  08091
   Phone:        856-767-8600            Fax:  856-767-4008
   Contact:      RICK TOPE               Title: FIELD MGR
   Phone:        856-767-8600            Best Time: 0900-1600
   Cellular:     609-364-8346

   Alternate Field Contact:
   Name:         BRUCE MILLER            Title: OFF MGR
   Phone:        856-767-8600            Fax: 
   Cellular:     609-364-1217            Best Time: 0900-1600
End Request






New Jersey One Call System        SEQUENCE NUMBER 0202   CDC = NJN

Transmit:  Date: 03/14/02   At: 1002

*** R O U T I N E         *** Request No.: 020730345

Operators Notified:
    ADC=/COMCAST CATV   / DVM=/DOVER MUN UTILS/ UW7=/UWTR-TOMS RIVER/ 
    NJN=/NJ NATL GAS|UTQ/ GP7=/GPU ENERGY     / BAN=/VERIZON    |CLS/ 

Location Information:
   County: OCEAN     Municipality: DOVER
   Subdivision/Community: 
   Street:               1310 VINCENZO DR
   Nearest Intersection: OLD FREEHOLD RD 
   Other Intersection:   
   Type of Work :        INSTL GAS SVC
   Extent of Work: 10'BEHIND FAR CURB,CURB TO CURB,ENTIRE-  DEPTH: 3'

   Start Date/Time:    03/20/02   At 0800   Expiration Date: 04/26/02
   Remarks:
     EXPIRATION DATE 04/26/02
     -PROP/

   Working For:  NEW JERSEY NATURAL GAS CO
   Address:      1415 WYCKOFF RD
   City:         WALL, NJ  07719
   Phone:        732-905-4323
   Contact:      RICK HAUTER             Title: 

Excavator Information:
   Caller:       KIM DUNLEAVY            Title: ADMIN ASST
   Phone:        732-222-4400 X230       

   Excavator:    JF KIELY CONSTRUCTION COMPANY
   Address:      700 MCCLELLAN ST
   City:         LONG BRANCH, NJ  07740
   Phone:        732-222-4400            Fax:  732-229-2353
   Contact:      KIM DUNLEAVY            Title: ADMIN ASST
   Phone:        732-222-4400 X230       Best Time: 0800-1700
   Cellular:     

   Alternate Field Contact:
   Name:         PAT MCCORMICK           Title: OFF MGR
   Phone:        732-222-4400 X232       Fax: 732-229-2353
   Cellular:                             Best Time: 0800-1700
End Request






New Jersey One Call System        SEQUENCE NUMBER 0203   CDC = NJN

Transmit:  Date: 03/14/02   At: 1002

*** R O U T I N E         *** Request No.: 020730346

Operators Notified:
    CAM=/CABLEVISION-MON/ USS=/SPRINT LDD     / MCI=/MCIWORLDCOM    / 
    WAT=/WALL TWP WTR&SW/ NWS=/NJ WTR-MANSQUAN/ NJN=/NJ NATL GAS|UTQ/ 
    GP8=/GPU ENERGY     / NJA=/NJ AMER WTR    / BAN=/VERIZON    |CLS/ 
    PMF=/ADESTA COMM    / MMF=/ADESTA/MFS FOC / 

Location Information:
   County: MONMOUTH     Municipality: WALL
   Subdivision/Community: 
   Street:               0 ATLANTIC AVE
   Nearest Intersection: RIDGEWOOD RD 
   Other Intersection:   HOSPITAL RD
   Type of Work :        GUIDE RAIL REPAIR
   Extent of Work: CURB TO 6FT BEHIND CURB                  DEPTH: 4FT

   Start Date/Time:    03/20/02   At 0900   Expiration Date: 04/26/02
   Remarks:
     EXPIRATION DATE 04/26/02
     M/O LOCATION IS APPX 500FT NW OF THE ABOVE INTER
     M/O BETWEEN PL#40571WL AND PL#40572WL

   Working For:  MONMOUTH COUNTY DEPT OF BRIDGE
   Address:      250 CENTER ST
   City:         FREEHOLD, NJ  07728
   Phone:        732-431-6556
   Contact:      TAMMY KELLY             Title: 

Excavator Information:
   Caller:       TAMMY KELLY             Title: SEC ASST
   Phone:        732-431-6556            

   Excavator:    MONMOUTH COUNTY DEPT OF BRIDGES
   Address:      250 CENTER ST
   City:         FREEHOLD, NJ  07728
   Phone:        732-431-6556            Fax:  732-845-2028
   Contact:      TAMMY KELLY             Title: SEC ASST
   Phone:        732-431-6556            Best Time: 0800-1500
   Cellular:     

   Alternate Field Contact:
   Name:         KEITH DUNCAN            Title: ASST SUPT
   Phone:        732-431-6556            Fax: 732-845-2028
   Cellular:                             Best Time: 0800-1500
End Request






New Jersey One Call System        SEQUENCE NUMBER 0204   CDC = UW4

Transmit:  Date: 03/14/02   At: 1002

*** R O U T I N E         *** Request No.: 020730348

Operators Notified:
    BCU=/BERGEN CTY UTIL/ USS=/SPRINT LDD     / CC5=/COMCAST-MEADOWL/ 
    UW4=/UNITED WTR |UTQ/ PS1=/PSE&G ELEC&GAS / P30=/PSE&G GAS DIV  / 
    TCG=/TELEPORT COMM  / BAN=/VERIZON    |CLS/ 

Location Information:
   County: BERGEN     Municipality: RUTHERFORD
   Subdivision/Community: 
   Street:               410 WASHINGTON AVE
   Nearest Intersection: VANDERBURGH AVE 
   Other Intersection:   GRAND AVE
   Type of Work :        PLANTING TREES
   Extent of Work: BEHIND CURB TO SIDE WALK                 DEPTH: 2FT

   Start Date/Time:    03/21/02   At 0700   Expiration Date: 04/26/02
   Remarks:
     EXPIRATION DATE 04/26/02

   Working For:  BORO OF RUTHERFORD
   Address:      176 PARK AVE
   City:         RUTHERFORD, NJ  07070
   Phone:        201-460-3040
   Contact:      JOE PARTYKA             Title: 

Excavator Information:
   Caller:       JOE PARTYKA             Title: SUPV
   Phone:        201-460-3040            

   Excavator:    BORO OF RUTHERFORD
   Address:      176 PARK AVE
   City:         RUTHERFORD, NJ  07070
   Phone:        201-460-3040            Fax:  201-438-8216
   Contact:      JOE PARTYKA             Title: SUPV
   Phone:        201-460-3040            Best Time: 0001-2400
   Cellular:     201-969-6000 POLICE

   Alternate Field Contact:
   Name:                                 Title: 
   Phone:                                Fax: 
   Cellular:                             Best Time: 
End Request






New Jersey One Call System        SEQUENCE NUMBER 0205   CDC = NJN

Transmit:  Date: 03/14/02   At: 1002

*** R O U T I N E         *** Request No.: 020730349

Operators Notified:
    ADC=/COMCAST CATV   / DVM=/DOVER MUN UTILS/ UW7=/UWTR-TOMS RIVER/ 
    NJN=/NJ NATL GAS|UTQ/ GP7=/GPU ENERGY     / BAN=/VERIZON    |CLS/ 

Location Information:
   County: OCEAN     Municipality: DOVER
   Subdivision/Community: 
   Street:               1366 VINCENZO DR
   Nearest Intersection: OLD FREEHOLD RD 
   Other Intersection:   
   Type of Work :        INSTL GAS SVC
   Extent of Work: 10'BEHIND FAR CURB,CURB TO CURB,ENTIRE-  DEPTH: 3'

   Start Date/Time:    03/20/02   At 0800   Expiration Date: 04/26/02
   Remarks:
     EXPIRATION DATE 04/26/02
     -PROP/ BLK# 413 LOT# 17.02-POSTED

   Working For:  NEW JERSEY NATURAL GAS CO
   Address:      1415 WYCKOFF RD
   City:         WALL, NJ  07719
   Phone:        732-905-4323
   Contact:      RICK HAUTER             Title: 

Excavator Information:
   Caller:       KIM DUNLEAVY            Title: ADMIN ASST
   Phone:        732-222-4400 X230       

   Excavator:    JF KIELY CONSTRUCTION COMPANY
   Address:      700 MCCLELLAN ST
   City:         LONG BRANCH, NJ  07740
   Phone:        732-222-4400            Fax:  732-229-2353
   Contact:      KIM DUNLEAVY            Title: ADMIN ASST
   Phone:        732-222-4400 X230       Best Time: 0800-1700
   Cellular:     

   Alternate Field Contact:
   Name:         PAT MCCORMICK           Title: OFF MGR
   Phone:        732-222-4400 X232       Fax: 732-229-2353
   Cellular:                             Best Time: 0800-1700
End Request






New Jersey One Call System        SEQUENCE NUMBER 0206   CDC = SJG

Transmit:  Date: 03/14/02   At: 1003

*** R O U T I N E         *** Request No.: 020730350

Operators Notified:
    SCV=/COMCST CATV-VNL/ WA1=/WASHINGTON TWP / AE1=/CONECTV PWR|CLS/ 
    PS4=/PSE&G ELEC&GAS / SJG=/S JERSY GAS|UTQ/ BAN=/VERIZON    |CLS/ 

Location Information:
   County: GLOUCESTER     Municipality: WASHINGTON
   Subdivision/Community: 
   Street:               222 COPPER ST
   Nearest Intersection: GARFIELD AVE 
   Other Intersection:   MCKINLEY AVE
   Type of Work :        INSTL GAS SVC
   Extent of Work: CURB TO CURB,10'BEHIND FAR CURB TO ----  DEPTH: 3'

   Start Date/Time:    03/20/02   At 0700   Expiration Date: 04/26/02
   Remarks:
     EXPIRATION DATE 04/26/02

   Working For:  SOUTH JERSEY GAS CO
   Address:      149 S MAIN ST
   City:         GLASSBORO, NJ  08028
   Phone:        856-881-7000
   Contact:      KEN CARMAN              Title: 

Excavator Information:
   Caller:       LIBBY LEDDEN            Title: OFC MGR
   Phone:        856-863-8700            

   Excavator:    UTILITY LINE SERVICES
   Address:      500 CENCO BLVD
   City:         CLAYTON, NJ  08312
   Phone:        856-863-8700            Fax:  856-863-8725
   Contact:      LIBBY LEDDEN            Title: OFC MGR
   Phone:        856-863-8700            Best Time: 0800-1600
   Cellular:     

   Alternate Field Contact:
   Name:         MARK BASTIAN            Title: CONSTR MGR
   Phone:        856-863-8700            Fax: 
   Cellular:                             Best Time: 0800-1600
End Request






New Jersey One Call System        SEQUENCE NUMBER 0207   CDC = NJN

Transmit:  Date: 03/14/02   At: 1003

*** R O U T I N E         *** Request No.: 020730351

Operators Notified:
    ADC=/COMCAST CATV   / DVM=/DOVER MUN UTILS/ UW7=/UWTR-TOMS RIVER/ 
    NJN=/NJ NATL GAS|UTQ/ GP7=/GPU ENERGY     / BAN=/VERIZON    |CLS/ 

Location Information:
   County: OCEAN     Municipality: DOVER
   Subdivision/Community: 
   Street:               511 SHAWNEE DR
   Nearest Intersection: LENAPE TRL 
   Other Intersection:   
   Type of Work :        INSTL GAS SVC
   Extent of Work: 10'BEHIND FAR CURB,CURB TO CURB,ENTIRE-  DEPTH: 3'

   Start Date/Time:    03/20/02   At 0700   Expiration Date: 04/26/02
   Remarks:
     EXPIRATION DATE 04/26/02
     -PROP/ SITE IS COR PROP-M/O BOTH STREETS

   Working For:  NEW JERSEY NATURAL GAS CO
   Address:      1415 WYCKOFF RD
   City:         WALL, NJ  07719
   Phone:        732-905-4323
   Contact:      RICK HAUTER             Title: 

Excavator Information:
   Caller:       KIM DUNLEAVY            Title: ADMIN ASST
   Phone:        732-222-4400 X230       

   Excavator:    JF KIELY CONSTRUCTION COMPANY
   Address:      700 MCCLELLAN ST
   City:         LONG BRANCH, NJ  07740
   Phone:        732-222-4400            Fax:  732-229-2353
   Contact:      KIM DUNLEAVY            Title: ADMIN ASST
   Phone:        732-222-4400 X230       Best Time: 0800-1700
   Cellular:     

   Alternate Field Contact:
   Name:         PAT MCCORMICK           Title: OFF MGR
   Phone:        732-222-4400 X232       Fax: 732-229-2353
   Cellular:                             Best Time: 0800-1700
End Request







New Jersey One Call System        SEQUENCE NUMBER 0208   CDC = SJG

Transmit:  Date: 03/14/02   At: 1003

*** R O U T I N E         *** Request No.: 020730352

Operators Notified:
    CAC=/CAMDEN CNTY MUA/ AE1=/CONECTV PWR|CLS/ GSC=/COMCAST GS CATV/ 
    NJA=/NJ AMER WTR    / SJG=/S JERSY GAS|UTQ/ BAN=/VERIZON    |CLS/ 

Location Information:
   County: CAMDEN     Municipality: STRATFORD
   Subdivision/Community: 
   Street:               10 GREEN VALLEY RD
   Nearest Intersection: EVERGREEN RD 
   Other Intersection:   WINDING WAY
   Type of Work :        INSTL GAS SVC
   Extent of Work: CURB TO CURB,10'BEHIND FAR CURB TO ----  DEPTH: 3'

   Start Date/Time:    03/20/02   At 0700   Expiration Date: 04/26/02
   Remarks:
     EXPIRATION DATE 04/26/02
     CORNER PROP-M/O EVERGREEN RD FROM GREEN VALLEY RD TO COVER PROP

   Working For:  SOUTH JERSEY GAS CO
   Address:      PO BOX 589
   City:         WATERFORD WORKS, NJ  08089
   Phone:        856-768-2900
   Contact:      ED CAREY                Title: 

Excavator Information:
   Caller:       LIBBY LEDDEN            Title: OFC MGR
   Phone:        856-863-8700            

   Excavator:    UTILITY LINE SERVICES
   Address:      500 CENCO BLVD
   City:         CLAYTON, NJ  08312
   Phone:        856-863-8700            Fax:  856-863-8725
   Contact:      LIBBY LEDDEN            Title: OFC MGR
   Phone:        856-863-8700            Best Time: 0800-1600
   Cellular:     

   Alternate Field Contact:
   Name:         MARK BASTIAN            Title: CONSTR MGR
   Phone:        856-863-8700            Fax: 
   Cellular:                             Best Time: 0800-1600
End Request






New Jersey One Call System        SEQUENCE NUMBER 0209   CDC = NJN

Transmit:  Date: 03/14/02   At: 1003

*** R O U T I N E         *** Request No.: 020730354

Operators Notified:
    CAM=/CABLEVISION-MON/ NJN=/NJ NATL GAS|UTQ/ GP8=/GPU ENERGY     / 
    P34=/PSE&G GAS DIV  / BAN=/VERIZON    |CLS/ JTM=/JACKSON TWP MUA/ 

Location Information:
   County: OCEAN     Municipality: JACKSON
   Subdivision/Community: 
   Street:               188 BENNETTS MILLS RD
   Nearest Intersection: TERI CT 
   Other Intersection:   
   Type of Work :        INSTL GAS SVC
   Extent of Work: 10'BEHIND FAR CURB,CURB TO CURB,ENTIRE-  DEPTH: 3'

   Start Date/Time:    03/20/02   At 0700   Expiration Date: 04/26/02
   Remarks:
     EXPIRATION DATE 04/26/02
     -PROP/

   Working For:  NEW JERSEY NATURAL GAS CO
   Address:      1415 WYCKOFF RD
   City:         WALL, NJ  07719
   Phone:        732-905-4323
   Contact:      RICK HAUTER             Title: 

Excavator Information:
   Caller:       KIM DUNLEAVY            Title: ADMIN ASST
   Phone:        732-222-4400 X230       

   Excavator:    JF KIELY CONSTRUCTION COMPANY
   Address:      700 MCCLELLAN ST
   City:         LONG BRANCH, NJ  07740
   Phone:        732-222-4400            Fax:  732-229-2353
   Contact:      KIM DUNLEAVY            Title: ADMIN ASST
   Phone:        732-222-4400 X230       Best Time: 0800-1700
   Cellular:     

   Alternate Field Contact:
   Name:         PAT MCCORMICK           Title: OFF MGR
   Phone:        732-222-4400 X232       Fax: 732-229-2353
   Cellular:                             Best Time: 0800-1700
End Request






New Jersey One Call System        SEQUENCE NUMBER 0210   CDC = NJN

Transmit:  Date: 03/14/02   At: 1003

*** R O U T I N E         *** Request No.: 020730355

Operators Notified:
    UNI=/SPRINT/UNTD|CLS/ CTC=/RCN OF NJ  |CLS/ NJN=/NJ NATL GAS|UTQ/ 
    GP0=/GPU ENERGY     / P28=/PSE&G ELEC&GAS / BAN=/VERIZON    |CLS/ 

Location Information:
   County: MORRIS     Municipality: CHESTER TWP
   Subdivision/Community: 
   Street:               5 OVERLOOK TER
   Nearest Intersection: HILLSIDE RD 
   Other Intersection:   
   Type of Work :        REMOV UG TANK
   Extent of Work: ENTIRE PROP                              DEPTH: 4-6FT

   Start Date/Time:    03/20/02   At 0800   Expiration Date: 04/26/02
   Remarks:
     EXPIRATION DATE 04/26/02

   Working For:  STEVE PRENTISS
   Address:      5 OVERLOOK TER
   City:         CHESTER, NJ  07930
   Phone:        908-879-6572
   Contact:      MR PRENTISS             Title: 

Excavator Information:
   Caller:       SUE HARTMANN            Title: OFF WKER
   Phone:        908-879-5734            

   Excavator:    EDWARD MERTON PAVING & EXCAVATING C
   Address:      PO BOX 457
   City:         CHESTER, NJ  07930
   Phone:        908-879-5734            Fax:  908-879-6687
   Contact:      LISA MERTON             Title: OFF MGR
   Phone:        908-879-5734            Best Time: 0900-1700
   Cellular:     

   Alternate Field Contact:
   Name:         MARC MERTON             Title: PARTNER
   Phone:        908-879-5734            Fax: 908-879-6687
   Cellular:                             Best Time: 0900-1700
End Request






New Jersey One Call System        SEQUENCE NUMBER 0211   CDC = UW4

Transmit:  Date: 03/14/02   At: 1003

*** R O U T I N E         *** Request No.: 020730357

Operators Notified:
    BCU=/BERGEN CTY UTIL/ MCI=/MCIWORLDCOM    / RID=/RIDGE PARK VILL/ 
    TWC=/TIME WARNR CATV/ UW4=/UNITED WTR |UTQ/ PS1=/PSE&G ELEC&GAS / 
    P33=/PSE&G GAS DIV  / BAN=/VERIZON    |CLS/ 

Location Information:
   County: BERGEN     Municipality: RIDGEFIELD PARK
   Subdivision/Community: 
   Street:               111 PRESTON ST
   Nearest Intersection: EUCLID AVE 
   Other Intersection:   
   Type of Work :        REPAIR CURB SHUT OFF
   Extent of Work: CURB TO CURB & 10FT BEHIND BOTH CURBS    DEPTH: 10FT

   Start Date/Time:    03/20/02   At 0800   Expiration Date: 04/26/02
   Remarks:
     EXPIRATION DATE 04/26/02

   Working For:  UNITED WATER
   Address:      60 DEVOE PL
   City:         HACKENSACK, NJ  07601
   Phone:        201-646-6662
   Contact:      BILL LAWRENCE           Title: 

Excavator Information:
   Caller:       BILL LAWRENCE           Title: SR CLERK
   Phone:        201-646-6662            

   Excavator:    UNITED WATER
   Address:      60 DEVOE PL
   City:         HACKENSACK, NJ  07601
   Phone:        201-646-6662            Fax:  201-525-4587
   Contact:      BILL LAWRENCE           Title: SR CLERK
   Phone:        201-646-6662            Best Time: 0800-1600
   Cellular:     

   Alternate Field Contact:
   Name:         BERNIE KRUK             Title: BOOKKEEPER
   Phone:        201-646-6662            Fax: 
   Cellular:                             Best Time: 0800-1600
End Request






New Jersey One Call System        SEQUENCE NUMBER 0212   CDC = NJN

Transmit:  Date: 03/14/02   At: 1003

*** R O U T I N E         *** Request No.: 020730358

Operators Notified:
    MCI=/MCIWORLDCOM    / DEN=/DENVILLE TWP   / NJR=/NJ TRANSIT     / 
    NJN=/NJ NATL GAS|UTQ/ GP2=/GPU ENERGY     / P28=/PSE&G ELEC&GAS / 
    BAN=/VERIZON    |CLS/ BML=/MOUNTAIN LAKES / 

Location Information:
   County: MORRIS     Municipality: DENVILLE
   Subdivision/Community: 
   Street:               0 US HWY 46
   Nearest Intersection: LAKEWOOD DR 
   Other Intersection:   
   Type of Work :        INSTL CURBS
   Extent of Work: CURB TO CURB                             DEPTH: 3FT

   Start Date/Time:    03/20/02   At 0800   Expiration Date: 04/26/02
   Remarks:
     EXPIRATION DATE 04/26/02
     M/O FROM THE INTER APPX 1400FT E TO THE TOWN BORDER LINE OF
     DENVILLE & MOUNTAIN LAKES ON US HWY 46
     M/O CURB TO CURB TO INCLUDE CENTER MEDIAN

   Working For:  NJ DOT
   Address:      200 STIERLI CT
   City:         MOUNT ARLINGTON, NJ  07856
   Phone:        973-347-2365
   Contact:      MOSES SALEM             Title: 

Excavator Information:
   Caller:       JOE MACDOUGALL          Title: CONST SUPT
   Phone:        973-366-7741            

   Excavator:    MT HOPE ROCK PRODUCTS
   Address:      625 MT HOPE RD
   City:         WHARTON, NJ  07885
   Phone:        973-366-7741            Fax:  973-366-8501
   Contact:      ROD WAITE               Title: SUPT
   Phone:        973-366-7741            Best Time: 0600-1700
   Cellular:     201-376-0069

   Alternate Field Contact:
   Name:         JOHN MAZZARELLA         Title: PROJ MGR
   Phone:        973-366-7741            Fax: 
   Cellular:     201-376-0407            Best Time: 0600-1700
End Request






New Jersey One Call System        SEQUENCE NUMBER 0213   CDC = NJN

Transmit:  Date: 03/14/02   At: 1003

*** U P D A T E           *** Request No.: 020730359 Of Request No. 020730336

Operators Notified:
    HOL=/HOLMDEL TWP    / CC4=/COMCAST-MNMOUTH/ NJN=/NJ NATL GAS|UTQ/ 
    NJA=/NJ AMER WTR    / GP9=/GPU ENERGY |CLS/ BAN=/VERIZON    |CLS/ 

Location Information:
   County: MONMOUTH     Municipality: HOLMDEL
   Subdivision/Community: 
   Street:               952 HOLMDEL RD
   Nearest Intersection: ROUTE 520 
   Other Intersection:   
   Type of Work :        TEST PITS EXCAV
   Extent of Work: ENTIRE PROP                              DEPTH: 15FT

   Start Date/Time:    03/20/02   At 0700   Expiration Date: 04/26/02
   Remarks:
     EXPIRATION DATE 04/26/02
     RC#020730336 - CANCELLED BY KEVIN LOPEZ, INCORRECT ADDRESS

   Working For:  E. CRUZ & COMPANY INC.
   Address:      943 HOLMDEL RD
   City:         HOLMDEL, NJ  07733
   Phone:        732-946-9700
   Contact:      KEVIN LOPEZ             Title: 

Excavator Information:
   Caller:       KEVIN LOPEZ             Title: ENG
   Phone:        732-946-9700            

   Excavator:    E. CRUZ & COMPANY INC.
   Address:      943 HOLMDEL RD
   City:         HOLMDEL, NJ  07733
   Phone:        732-946-9700            Fax:  732-946-7592
   Contact:      KEVIN LOPEZ             Title: ENG
   Phone:        732-946-9700            Best Time: 0800-1700
   Cellular:     

   Alternate Field Contact:
   Name:         JOHN ARCHILLE           Title: ENG
   Phone:        732-946-9700            Fax: 
   Cellular:                             Best Time: 0800-1700
End Request






New Jersey One Call System        SEQUENCE NUMBER 0214   CDC = UW4

Transmit:  Date: 03/14/02   At: 1004

*** R O U T I N E         *** Request No.: 020730360

Operators Notified:
    BCU=/BERGEN CTY UTIL/ CC5=/COMCAST-MEADOWL/ UW4=/UNITED WTR |UTQ/ 
    PS1=/PSE&G ELEC&GAS / P30=/PSE&G GAS DIV  / TCG=/TELEPORT COMM  / 
    BAN=/VERIZON    |CLS/ BCD=/BERGEN CNTY DPW/ 

Location Information:
   County: BERGEN     Municipality: RUTHERFORD
   Subdivision/Community: 
   Street:               153 PROSPECT PL
   Nearest Intersection: UNION AVE 
   Other Intersection:   FAIRVIEW AVE
   Type of Work :        PLANTING TREES
   Extent of Work: BEHIND CURB TO SIDE WALK                 DEPTH: 2FT

   Start Date/Time:    03/21/02   At 0700   Expiration Date: 04/26/02
   Remarks:
     EXPIRATION DATE 04/26/02

   Working For:  BORO OF RUTHERFORD
   Address:      176 PARK AVE
   City:         RUTHERFORD, NJ  07070
   Phone:        201-460-3040
   Contact:      JOE PARTYKA             Title: 

Excavator Information:
   Caller:       JOE PARTYKA             Title: SUPV
   Phone:        201-460-3040            

   Excavator:    BORO OF RUTHERFORD
   Address:      176 PARK AVE
   City:         RUTHERFORD, NJ  07070
   Phone:        201-460-3040            Fax:  201-438-8216
   Contact:      JOE PARTYKA             Title: SUPV
   Phone:        201-460-3040            Best Time: 0001-2400
   Cellular:     201-969-6000 POLICE

   Alternate Field Contact:
   Name:                                 Title: 
   Phone:                                Fax: 
   Cellular:                             Best Time: 
End Request






New Jersey One Call System        SEQUENCE NUMBER 0215   CDC = UW4

Transmit:  Date: 03/14/02   At: 1004

*** U P D A T E           *** Request No.: 020730361 Of Request No. 020651015

Operators Notified:
    PVW=/PASSAIC VLY WTR/ TCI=/CABLEVISION    / UW4=/UNITED WTR |UTQ/ 
    PS1=/PSE&G ELEC&GAS / P30=/PSE&G GAS DIV  / BAN=/VERIZON    |CLS/ 
    BCD=/BERGEN CNTY DPW/ 

Location Information:
   County: BERGEN     Municipality: LODI
   Subdivision/Community: 
   Street:               0 LODI RD
   Nearest Intersection: PASSAIC AVE 
   Other Intersection:   SADDLE RIVER AVE
   Type of Work :        REPL WTR MAIN
   Extent of Work: CURB TO CURB                             DEPTH: 6FT

   Start Date/Time:    03/12/02   At 0700   Expiration Date: 04/18/02
   Remarks:
     EXPIRATION DATE 04/18/02
     M/O INTER EXTENDING 30FT IN EACH DIRECTION
     RC#020651015 BAD LOCATE   PASSAIC VLY WTR,CABLEVISION,
     UNITED WTR,PSE&G ELEC&GAS,PSE&G GAS DIV,VERIZON,
     BERGEN CNTY DPW-VERIZON HASN'T RESPONDED AT ALL.ALL OTHER UTILS
     PLEASE REMARK YOUR LINES;LINES ARE NOT CLEAR.

   Working For:  PASSAIC VALLEY WTR COMMISION
   Address:      1525 MAIN AVE
   City:         CLIFTON, NJ  07011
   Phone:        973-340-4368
   Contact:      NERUM MALYAR            Title: 

Excavator Information:
   Caller:       CHRISTINE GACCIONE      Title: PROJ MGR
   Phone:        973-773-3788            

   Excavator:    F. GACCIONE INC.
   Address:      790 BLOOMFIELD AVE  BLDG. G
   City:         CLIFTON, NJ  07012
   Phone:        973-773-3788            Fax:  973-773-9027
   Contact:      JOE GACCIONE            Title: PROJ MGR
   Phone:        973-773-3788            Best Time: 0800-1700
   Cellular:     

   Alternate Field Contact:
   Name:         CHRISTINE GACCIONE      Title: OFF MGR
   Phone:        973-773-3788            Fax: 973-773-9027
   Cellular:                             Best Time: 0800-1700
End Request






New Jersey One Call System        SEQUENCE NUMBER 0216   CDC = SJG

Transmit:  Date: 03/14/02   At: 1004

*** R O U T I N E         *** Request No.: 020730362

Operators Notified:
    ATC=/ATLNTC CITY MUA/ SCA=/COMCST CATV-ABS/ ACS=/ATLNTC CITY SWR/ 
    AE1=/CONECTV PWR|CLS/ SJG=/S JERSY GAS|UTQ/ BAN=/VERIZON    |CLS/ 

Location Information:
   County: ATLANTIC     Municipality: ATLANTIC CITY
   Subdivision/Community: 
   Street:               309 N NORTH CAROLINA AVE
   Nearest Intersection: DREXEL AVE 
   Other Intersection:   
   Type of Work :        DISCONNECT GAS SVC
   Extent of Work: CURB TO CURB/CURB TO HOUSE               DEPTH: 36IN

   Start Date/Time:    03/20/02   At 0800   Expiration Date: 04/26/02
   Remarks:
     EXPIRATION DATE 04/26/02

   Working For:  SOUTH JERSEY GAS
   Address:      111 NORTH FRANKLIN BLVD
   City:         PLEASANTVILLE, NJ  08232
   Phone:        609-645-2690
   Contact:      ARNIE GARWOOD           Title: 

Excavator Information:
   Caller:       ARNIE GARWOOD           Title: CLERK
   Phone:        609-645-2690            

   Excavator:    SOUTH JERSEY GAS
   Address:      111 NORTH FRANKLIN BLVD
   City:         PLEASANTVILLE, NJ  08232
   Phone:        609-645-2690            Fax:  609-645-9752
   Contact:      ARNIE GARWOOD           Title: CLERK
   Phone:        609-645-2690            Best Time: 0800-1600
   Cellular:     

   Alternate Field Contact:
   Name:         VINCE LEONETTI          Title: CLERK
   Phone:        609-645-2690            Fax: 
   Cellular:                             Best Time: 0800-1600
End Request






New Jersey One Call System        SEQUENCE NUMBER 0217   CDC = NJN

Transmit:  Date: 03/14/02   At: 1004

*** R O U T I N E         *** Request No.: 020730364

Operators Notified:
    MCI=/MCIWORLDCOM    / TK3=/CABLEVSN-MORRIS/ NJR=/NJ TRANSIT     / 
    NJN=/NJ NATL GAS|UTQ/ GP2=/GPU ENERGY     / BAN=/VERIZON    |CLS/ 
    BML=/MOUNTAIN LAKES / 

Location Information:
   County: MORRIS     Municipality: MOUNTAIN LAKES
   Subdivision/Community: 
   Street:               0 US HWY 46
   Nearest Intersection: BOULEVARD 
   Other Intersection:   
   Type of Work :        INSTL CURBS
   Extent of Work: CURB TO CURB                             DEPTH: 3FT

   Start Date/Time:    03/20/02   At 0800   Expiration Date: 04/26/02
   Remarks:
     EXPIRATION DATE 04/26/02
     M/O FROM THE INTER APPX 2100FT W TO THE TOWN BORDER LINE OF
     MOUNTAIN LAKES TO DENVILLE ON US HWY 46
     M/O CURB TO CURB TO INCLUDE CENTER MEDIAN

   Working For:  NJ DOT
   Address:      200 STIERLI CT
   City:         MOUNT ARLINGTON, NJ  07856
   Phone:        973-347-2365
   Contact:      MOSES SALEM             Title: 

Excavator Information:
   Caller:       JOE MACDOUGALL          Title: CONST SUPT
   Phone:        973-366-7741            

   Excavator:    MT HOPE ROCK PRODUCTS
   Address:      625 MT HOPE RD
   City:         WHARTON, NJ  07885
   Phone:        973-366-7741            Fax:  973-366-8501
   Contact:      ROD WAITE               Title: SUPT
   Phone:        973-366-7741            Best Time: 0600-1700
   Cellular:     201-376-0069

   Alternate Field Contact:
   Name:         JOHN MAZZARELLA         Title: PROJ MGR
   Phone:        973-366-7741            Fax: 
   Cellular:     201-376-0407            Best Time: 0600-1700
End Request






New Jersey One Call System        SEQUENCE NUMBER 0218   CDC = NJN

Transmit:  Date: 03/14/02   At: 1004

*** R O U T I N E         *** Request No.: 020730368

Operators Notified:
    MOC=/MORRIS CNTY MUA/ TK3=/CABLEVSN-MORRIS/ MHT=/MINE HILL WTR  / 
    NJN=/NJ NATL GAS|UTQ/ GP0=/GPU ENERGY     / BAN=/VERIZON    |CLS/ 

Location Information:
   County: MORRIS     Municipality: MINE HILL
   Subdivision/Community: 
   Street:               0 ROUTE 46
   Nearest Intersection: W FAIRVIEW AVE 
   Other Intersection:   RANDOLPH AVE
   Type of Work :        REMOVE SEPTIC SYSTEM
   Extent of Work: CURB TO 300FT BEHIND N CURB              DEPTH: 10FT

   Start Date/Time:    03/20/02   At 0700   Expiration Date: 04/26/02
   Remarks:
     EXPIRATION DATE 04/26/02
     M/O FROM THE INTER TO 520FT E OF THE INTER ON ROUTE 46
     M/O TO INCLUDE #149-#151 ROUTE 46

   Working For:  STOWAWAY SELF STORAGE
   Address:      P. O. BOX 5297
   City:         NORTH BRANCH, NJ  08876
   Phone:        908-725-1026
   Contact:      ROB VOLLERS             Title: 

Excavator Information:
   Caller:       ROB VOLLERS             Title: C E O
   Phone:        908-725-1026            

   Excavator:    VOLLERS EXCAVATING
   Address:      P. O. BOX 5297
   City:         NORTH BRANCH, NJ  08876
   Phone:        908-725-1026            Fax:  908-725-9784
   Contact:      ROB VOLLERS             Title: C E O
   Phone:        908-725-1026            Best Time: 0700-1700
   Cellular:     908-507-8273 CELL

   Alternate Field Contact:
   Name:         KEITH ROBERTS           Title: PURCH AGEN
   Phone:        908-725-1026            Fax: 
   Cellular:                             Best Time: 0700-1700
End Request






New Jersey One Call System        SEQUENCE NUMBER 0219   CDC = NJN

Transmit:  Date: 03/14/02   At: 1004

*** R O U T I N E         *** Request No.: 020730370

Operators Notified:
    HOL=/HOLMDEL TWP    / CC4=/COMCAST-MNMOUTH/ NJN=/NJ NATL GAS|UTQ/ 
    NJA=/NJ AMER WTR    / GP9=/GPU ENERGY |CLS/ BAN=/VERIZON    |CLS/ 

Location Information:
   County: MONMOUTH     Municipality: HOLMDEL
   Subdivision/Community: 
   Street:               953 HOLMDEL RD
   Nearest Intersection: ROUTE 520 
   Other Intersection:   ROBERTS RD
   Type of Work :        TEST PITS EXCAV.
   Extent of Work: ENTIRE PROP                              DEPTH: 15FT

   Start Date/Time:    03/20/02   At 0700   Expiration Date: 04/26/02
   Remarks:
     EXPIRATION DATE 04/26/02
     LOC IS HOPBROOK FARMS

   Working For:  E. CRUZ & COMPANY INC.
   Address:      943 HOLMDEL RD
   City:         HOLMDEL, NJ  07733
   Phone:        732-946-9700
   Contact:      KEVIN LOPEZ             Title: 

Excavator Information:
   Caller:       KEVIN LOPEZ             Title: ENG
   Phone:        732-946-9700            

   Excavator:    E. CRUZ & COMPANY INC.
   Address:      943 HOLMDEL RD
   City:         HOLMDEL, NJ  07733
   Phone:        732-946-9700            Fax:  732-946-7592
   Contact:      KEVIN LOPEZ             Title: ENG
   Phone:        732-946-9700            Best Time: 0800-1700
   Cellular:     

   Alternate Field Contact:
   Name:         JOHN ARCHILLE           Title: ENG
   Phone:        732-946-9700            Fax: 
   Cellular:                             Best Time: 0800-1700
End Request






New Jersey One Call System        SEQUENCE NUMBER 0220   CDC = UW4

Transmit:  Date: 03/14/02   At: 1004

*** R O U T I N E         *** Request No.: 020730372

Operators Notified:
    BCU=/BERGEN CTY UTIL/ USS=/SPRINT LDD     / NJR=/NJ TRANSIT     / 
    CC5=/COMCAST-MEADOWL/ UW4=/UNITED WTR |UTQ/ PS1=/PSE&G ELEC&GAS / 
    AM2=/AT&T           / P30=/PSE&G GAS DIV  / TCG=/TELEPORT COMM  / 
    BAN=/VERIZON    |CLS/ BCD=/BERGEN CNTY DPW/ 

Location Information:
   County: BERGEN     Municipality: RUTHERFORD
   Subdivision/Community: 
   Street:               25 CARMITA AVE
   Nearest Intersection: ERIE AVE 
   Other Intersection:   DONALDSON AVE
   Type of Work :        PLANTING TREES
   Extent of Work: BEHIND CURB TO SIDE WALK                 DEPTH: 2FT

   Start Date/Time:    03/21/02   At 0700   Expiration Date: 04/26/02
   Remarks:
     EXPIRATION DATE 04/26/02

   Working For:  BORO OF RUTHERFORD
   Address:      176 PARK AVE
   City:         RUTHERFORD, NJ  07070
   Phone:        201-460-3040
   Contact:      JOE PARTYKA             Title: 

Excavator Information:
   Caller:       JOE PARTYKA             Title: SUPV
   Phone:        201-460-3040            

   Excavator:    BORO OF RUTHERFORD
   Address:      176 PARK AVE
   City:         RUTHERFORD, NJ  07070
   Phone:        201-460-3040            Fax:  201-438-8216
   Contact:      JOE PARTYKA             Title: SUPV
   Phone:        201-460-3040            Best Time: 0001-2400
   Cellular:     201-969-6000 POLICE

   Alternate Field Contact:
   Name:                                 Title: 
   Phone:                                Fax: 
   Cellular:                             Best Time: 
End Request






New Jersey One Call System        SEQUENCE NUMBER 0221   CDC = UW4

Transmit:  Date: 03/14/02   At: 1004

*** R O U T I N E         *** Request No.: 020730374

Operators Notified:
    BCU=/BERGEN CTY UTIL/ TCI=/CABLEVISION    / UW4=/UNITED WTR |UTQ/ 
    PS1=/PSE&G ELEC&GAS / P33=/PSE&G GAS DIV  / BAN=/VERIZON    |CLS/ 

Location Information:
   County: BERGEN     Municipality: WESTWOOD
   Subdivision/Community: 
   Street:               81 WESTWOOD BLVD
   Nearest Intersection: CARVEN AVE 
   Other Intersection:   
   Type of Work :        REPAIR CURB SHUT OFF
   Extent of Work: CURB TO CURB & 10FT BEHIND BOTH CURBS    DEPTH: 10FT

   Start Date/Time:    03/20/02   At 0800   Expiration Date: 04/26/02
   Remarks:
     EXPIRATION DATE 04/26/02

   Working For:  UNITED WATER
   Address:      60 DEVOE PL
   City:         HACKENSACK, NJ  07601
   Phone:        201-646-6662
   Contact:      BILL LAWRENCE           Title: 

Excavator Information:
   Caller:       BILL LAWRENCE           Title: SR CLERK
   Phone:        201-646-6662            

   Excavator:    UNITED WATER
   Address:      60 DEVOE PL
   City:         HACKENSACK, NJ  07601
   Phone:        201-646-6662            Fax:  201-525-4587
   Contact:      BILL LAWRENCE           Title: SR CLERK
   Phone:        201-646-6662            Best Time: 0800-1600
   Cellular:     

   Alternate Field Contact:
   Name:         BERNIE KRUK             Title: BOOKKEEPER
   Phone:        201-646-6662            Fax: 
   Cellular:                             Best Time: 0800-1600
End Request






New Jersey One Call System        SEQUENCE NUMBER 0222   CDC = SJG

Transmit:  Date: 03/14/02   At: 1005

*** U P D A T E           *** Request No.: 020730375 Of Request No. 020660278

Operators Notified:
    WCC=/TIME WARNR CATV/ SIC=/SEA ISLE CITY  / AE1=/CONECTV PWR|CLS/ 
    SJG=/S JERSY GAS|UTQ/ BAN=/VERIZON    |CLS/ 

Location Information:
   County: CAPE MAY     Municipality: SEA ISLE
   Subdivision/Community: 
   Street:               6711 PLEASURE AVE
   Nearest Intersection: MARINE PL 
   Other Intersection:   
   Type of Work :        RENOVATING & ADDITION
   Extent of Work: CURB TO CURB TO ENTIRE PROP              DEPTH: 20FT

   Start Date/Time:    03/13/02   At 0730   Expiration Date: 04/19/02
   Remarks:
     EXPIRATION DATE 04/19/02
     RC#020660278 CALLER QUESTIONED & INSISTS ALL UTILS DIDN'T RESPOND

   Working For:  JOE DINARDO
   Address:      123 FAIRVIEW AVE
   City:         VOORHEES, NJ 
   Phone:        856-428-2512
   Contact:      JOE DINARDO             Title: 

Excavator Information:
   Caller:       MICHELLE SKEY           Title: OFF MGR
   Phone:        609-263-9180            

   Excavator:    GLEESON CONTRACTORS
   Address:      8305 LANDIS AVE, STE 5
   City:         SEA ISLE CITY, NJ  08243
   Phone:        609-263-9180            Fax:  609-263-1016
   Contact:      MICHELLE SKEY           Title: OFFICE MGR
   Phone:        609-263-9180            Best Time: 0800-1700
   Cellular:     

   Alternate Field Contact:
   Name:         TOM GLEESON             Title: OWNER
   Phone:        609-263-9180            Fax: 609-263-1016
   Cellular:                             Best Time: 0800-1700
End Request



