New Jersey One Call System        SEQUENCE NUMBER 0110   CDC = TST

Transmit:  Date: 10/27/04   At: 1011

*** R O U T I N E         *** Request No.: 042910009

Operators Notified:
    LMU=/LACY MUA       / ADC=/COMCAST CATV   / OCU=/OCEAN COUNTY UA/ 
    AE1=/CONECTV PWR-CLS/ NJN=/NJNG-UTILIQUEST/ BAN=/VERIZON  NJ-CLS/ 
    GPC=/JCP&L      -CLS/ 

Start Date/Time:    10/22/04   At 0001   Expiration Date: 12/01/04

Location Information:
   County: OCEAN     Municipality: LACEY
   Subdivision/Community: 
   Street:               16 HOLLYWOOD BLVD S
   Nearest Intersection: ROUTE 9 
   Other Intersection:   
   Lat/Long: 
   Type of Work :        ADDITION
   Extent of Work: M/O BEGINS AT 30FT BEHIND CURB,...       DEPTH: 3FT
     EXTENT OF WORK LINE 2
     EXTENT OF WORK LINE 3
     EXTENT OF WORK LINE 4
     EXTENT OF WORK LINE 5
     EXTENT OF WORK LINE 6
   Remarks:
     REMARKS LINE 1
     REMARKS LINE 2
     REMARKS LINE 3 
     REMARKS LINE 4
     REMARKS LINE 5

   Working For:  JACK HOMEOWNER
   Address:      18 HOLLYWOOD BLVD S
   City:         CROOKED RIVER, NJ  08731
   Phone:        608-000-0000

Excavator Information:
   Caller:       JILL HOMEOWNER
   Phone:        607-000-0000            

   Excavator:    JOHN HOMEOWNER
   Address:      16 HOLLYWOOD BLVD S
   City:         FORKED RIVER, NJ  08731
   Phone:        609-000-0000            Fax:  
   Cellular:     609-000-2900 WORK
   Email:        EMAIL-ADDRESS@HOTMAIL.COM
End Request

