[raw email for FCO1]
Return-Path: <IRTH_SERVER@comcast.net>
Delivered-To: emailtkts.fco2@tickets.utiliquest.com
Received: (qmail 2687 invoked from network); 19 Mar 2004 16:12:08 -0000
Received: from sccrmhc11.comcast.net (204.127.202.55)
  by tickets.utiliquest.com with SMTP; 19 Mar 2004 16:12:08 -0000
Received: from codccirth01 (corel.tci.com.[198.178.8.81])
          by comcast.net (sccrmhc11) with SMTP
          id <2004031916282701100j6fnme>; Fri, 19 Mar 2004 16:28:27 +0000
From: IRTH_SERVER@comcast.net
To: emailtkts.fco2@tickets.utiliquest.com
Subject: Ticket 0126218 from Comcast
Date: Fri, 19 Mar 2004 09:28:27 -0700
MIME-Version: 1.0
Content-Type: Multipart/Mixed;
	boundary="Mark=_2004319162827268oql5pPX"

This is a multi-part message in MIME format.

--Mark=_2004319162827268oql5pPX
Content-Type: text/Plain; charset=US-ASCII
Content-Transfer-Encoding: Quoted-Printable

UNCC2004031900082	Utiliquest	2004/03/19 09:28:27	00024=0D=0A=0D=0ACMSDE00=
 00063 UNCC 03/19/04 09:27 AM 0126218-000 NORM NEW STRT LREQ=0D=0A=0D=0AT=
icket Nbr: 0126218=0D=0AOriginal Call Date: 03/18/04  Time: 02:59 PM  Op:=
 MEL=0D=0AContr Excav Date  : 03/24/04  Time: 07:00 AM  Extended job: N=0D=
=0ALocate By Date    : 03/23/04  Time: 11:59 PM  Hrs Notice: 119  Meet: N=
=0D=0AState: CO     County: ARAPAHOE         City: AURORA=0D=0AAddr:  243=
84  Street: EAST LOUISIANA PLACE=0D=0ANear Intersection(s): EAST LOUISIAN=
A PARKWAY=0D=0AGrids: 04S065W19N*               :              :         =
      Legal: N=0D=0AType of Work: LANDSCAPE/SPRINKLERS                   =
    Exp=2E: N  Boring: N=0D=0ALocation: ENTIRE LOT AT ADDRESS=0D=0ACompan=
y : AUTUMN LANDSCAPING=0D=0ACaller  : TERESA HUGHART=2E            Phone:=
 (303)794-6993=0D=0AFax: (303)794-6985  Email: AUTUMNLAND@EARTHLINK=2ENET=
=0D=0ADone for: D R HORTON=0D=0ARemarks:=0D=0A=0D=0AMembers :ADSTA1 :CIGS=
02 :CMSDE00       :CMSSD01       :ICGTL1 :MCGCA1 :MCI01=0D=0AMembers :MCL=
D01 :PCHPSD :PCQ00  :PSSD01 :QLNCSD00      :QLNCSD01      :QWST01=0D=0AMe=
mbers :TCHAM2 :TEST
--Mark=_2004319162827268oql5pPX--



