IDL2004100311-   208433  2004/03/31 00:24:10  00170


Idaho Dig Line
NOTICE OF INTENT TO EXCAVATE                   Header Code: 2ND REQUEST
Ticket No:    2004100311 Seq. No: 212
Update of:              
Original Call Date:     03/01/2004     Time:      03:55:38 PM  OP: 189
Transmit Date:          03/01/2004     Time:      04:00:59 PM
Work to Begin Date:     03/02/2004     Time:      02:57:00 PM

Company:           IRMINGER CONSTRUCTION                   
Contact Name:      DAN WILLIAMS               Contact Phone:   (208)939-1031 
Alternate Contact: DAN WILLIAMS               Alternate Phone: (208)869-3472 
Best Time to Call:                            Fax No:          (208)938-4698 
Cell Phone:        (208)869-3472              Pager No:                         

State: ID       County: ADA             City: MERIDIAN
Address:          , E VICTORY RD                            
To Address:       
Nearest Intersecting Street: S `BRANDY``S JEWEL` WAY                 
2nd Intersecting Street:                                             
Subdivision:                               

Location of Work: THIS IS A THE RIDENBAUGH CANAL ON VICTORY RD      
                  400` WEST OF BRANDY`S JEWEL WAY                   
                  LOC THE NORTH HALF OF VICTORY RD R/O/W 50` EAST   
                  TO 800` WEST OF THE RIDENBAUGH CANAL              
                  AREA IS MARKED IN WHITE                           
Remarks: 2ND REQUEST DUE TO INSUFFICIENCT MARKS BY PHONE   
         PREVIOUS TKT # 090876 **IMG CRITICAL LINE**       
         NEED TO MARK 800` WEST OF RIDENBAUGH CANAL        
Type of Work: INSTALL WATER LINE                           
Private Property:      Street:            Y   Overhead Lines:     Blasting:  
Easement:         Y    Mechanical Boring:     Premarked:      Y
Work Being Done For: CITY OF MERIDIAN                                  
Sending to: (listing of utilities tkt sent to)
*QLNIDOCL1      IPC01           QLNID53         TCI02           CTYMER01        
IMGBOI01        

                                 FOR MEMBER USE ONLY
Located by____________________________________Date of Location_________________
Remarks:_______________________________________________________________________
_______________________________________________________________________________
_______________________________________________________________________________
Excavator Notified (Not located)__________________ Who Notified________________
Notified by:__________________________________Date:______________Time:_________
IDL2004140373-   208433  2004/03/31 00:24:10  00171


Idaho Dig Line
NOTICE OF INTENT TO EXCAVATE                   Header Code: 2ND REQUEST
Ticket No:    2004140373 Seq. No: 200
Update of:    2004131698
Original Call Date:     03/29/2004     Time:      12:03:45 PM  OP: 193
Transmit Date:          03/29/2004     Time:      12:04:27 PM
Work to Begin Date:     03/30/2004     Time:      11:04:00 AM

Company:           SUMMER RAIN SPRINKLER                   
Contact Name:      TOM FUTCH                  Contact Phone:   (208)587-7246 
Alternate Contact:                            Alternate Phone:                  
Best Time to Call:                            Fax No:                           
Cell Phone:                                   Pager No:                         

State: ID       County: ELMORE          City: MOUNTAIN HOME
Address:    220   , WILSON DR                               
To Address:       
Nearest Intersecting Street: CANYON CREEK RD                         
2nd Intersecting Street:                                             
Subdivision:                               
Town: 03S  Ran: 06E  Sect 1/4: 14 SW
Location of Work: LOCATE ENTIRE PROPERTY FRONT, BACK AND BOTH SIDES 




Remarks: *2ND REQUEST DUE TO NO POWER OR PHONE LOCATES     


Type of Work: INSTALL SPRINKLER SYSTEM                     
Private Property: Y    Street:                Overhead Lines:     Blasting:  
Easement:         Y    Mechanical Boring:     Premarked:       
Work Being Done For: HOMEOWNER-REDICK                                  
Sending to: (listing of utilities tkt sent to)
*QLNIDOCL1      IDPOW20         SYR-RURAL       QLNID20         CTYMTN20        
CENTTV20        IMG20           NRC20           

                                 FOR MEMBER USE ONLY
Located by____________________________________Date of Location_________________
Remarks:_______________________________________________________________________
_______________________________________________________________________________
_______________________________________________________________________________
Excavator Notified (Not located)__________________ Who Notified________________
Notified by:__________________________________Date:______________Time:_________
IDL2004140125-   208736  2004/03/31 00:24:10  00172


Idaho Dig Line
NOTICE OF INTENT TO EXCAVATE                   Header Code: CANCEL
Ticket No:    2004140125 Seq. No: 15
Update of:              
Original Call Date:     03/29/2004     Time:      08:59:44 AM  OP: 143
Transmit Date:          03/29/2004     Time:      09:02:44 AM
Work to Begin Date:     03/31/2004     Time:      08:59:00 AM

Company:           ALPINE TREE SERVICE IN                  
Contact Name:      LISA COMTARUK              Contact Phone:   (208)788-4441 
Alternate Contact:                            Alternate Phone:                  
Best Time to Call:                            Fax No:          (208)- 
Cell Phone:        (208)720-3544              Pager No:                         

State: ID       County: BLAINE          City: SUN VALLEY
Address:    204   , FAIRWAY RD                              
To Address:       
Nearest Intersecting Street: ELKHORN RD                              
2nd Intersecting Street:                                             
Subdivision:                               

Location of Work: LOCATE ENTIRE PROPERTY FRONT, BACK AND BOTH SIDES 




Remarks:                                                   
                                                           
         CANCEL DUE TO: JOB IS BEING DELAYED.              
Type of Work: REMOVE STUMPS                                
Private Property: Y    Street:                Overhead Lines:     Blasting:  
Easement:         Y    Mechanical Boring:     Premarked:       
Work Being Done For: HOMEOWNER - FIRESTONE                             
Sending to: (listing of utilities tkt sent to)
*QLNIDOCL2      IDPOW08         QLNID08         SYR TIM-KET     SVC08           
SVWSD08         IMG08           

                                 FOR MEMBER USE ONLY
Located by____________________________________Date of Location_________________
Remarks:_______________________________________________________________________
_______________________________________________________________________________
_______________________________________________________________________________
Excavator Notified (Not located)__________________ Who Notified________________
Notified by:__________________________________Date:______________Time:_________
IDL2004080492-   208433  2004/03/31 00:24:10  00173


Idaho Dig Line
NOTICE OF INTENT TO EXCAVATE                   Header Code: CANCEL
Ticket No:    2004080492 Seq. No: 73
Update of:    2004080133
Original Call Date:     02/18/2004     Time:      01:03:09 PM  OP: 189
Transmit Date:          02/18/2004     Time:      01:07:24 PM
Work to Begin Date:     02/20/2004     Time:      01:05:00 PM

Company:           TRAVIS ROBERTS FENCE & CONSTRUCTION     
Contact Name:      TRAVIS ROBERTS             Contact Phone:   (208)337-5594 
Alternate Contact:                            Alternate Phone:                  
Best Time to Call:                            Fax No:                           
Cell Phone:                                   Pager No:                         

State: ID       County: CANYON          City: NAMPA
Address:    401   , 6TH ST N                                
To Address:       
Nearest Intersecting Street: 4TH AVE N                               
2nd Intersecting Street:     6TH STREET NORTH EXT                    
Subdivision:                               

Location of Work: LOC FROM DRIVEWAY EAST ACROSS THE OPEN FIELD      
                  FROM ASPHALT 50` INTO PROPERTY TO THE HOUSE       
                  THIS IS GOING ALL THE WAY ACROSS THE FRONT OF     
                  THE FIELD                                         

Remarks: IMG NEED NOT RESPOND; ALREADY CLEARED AREA        
         UPDATE DUE TO CORRECTION OF LOCATE SPECIFICS      
         CANCELLED & REPLACED W/ TKT #080496; ADDITION OF F
Type of Work: INSTALL FENCE                                
Private Property: Y    Street:                Overhead Lines:     Blasting:  
Easement:         Y    Mechanical Boring:     Premarked:       
Work Being Done For: ROBERTSON SUPPLY                                  
Sending to: (listing of utilities tkt sent to)
*QLNIDOCL1      IDPOW02         PIOIRRG         QLNID02         TCI02           
IMGNAM02        NAMCTY02        

                                 FOR MEMBER USE ONLY
Located by____________________________________Date of Location_________________
Remarks:_______________________________________________________________________
_______________________________________________________________________________
_______________________________________________________________________________
Excavator Notified (Not located)__________________ Who Notified________________
Notified by:__________________________________Date:______________Time:_________
IDL2004141147-   208433  2004/03/31 00:24:10  00183


Idaho Dig Line
NOTICE OF INTENT TO EXCAVATE                   Header Code: CORRECTION
Ticket No:    2004141147 Seq. No: 278
Update of:              
Original Call Date:     03/30/2004     Time:      04:18:11 PM  OP: 199
Transmit Date:          03/30/2004     Time:      04:21:32 PM
Work to Begin Date:     03/31/2004     Time:      11:00:00 AM

Company:           STEELMAN-DUFF INCORPORATED              
Contact Name:      SHEILA LOWER               Contact Phone:   (509)758-3357 
Alternate Contact:                            Alternate Phone:                  
Best Time to Call:                            Fax No:          (509)758-8759 
Cell Phone:        (208)288-0180              Pager No:                         

State: ID       County: WASHINGTON      City: WEISER
Address:    1475  , HIGHWAY 95                              
To Address:       
Nearest Intersecting Street: CEMETERY RD                             
2nd Intersecting Street:                                             
Subdivision:                               

Location of Work: THIS IS A MEET REQUEST FOR MON 29TH AT 11AM       
                  MEET AT ABOVE ADDRESS; LOCATE AT TIME OF MEET     
                  CONTACT SHEILA 509-552-9433 WITH ANY QUESTIONS    
                  THIS IS RIGHT WHERE THE BRIDGE CROSSES MANN`S     
                  CREEK AT JOB TRAILER 208-549-2205 IS OFFICE #     
Remarks: THIS IS A 2ND REQUEST ON MEET REQUEST FOR 3/31 @  
         11:00AM PLS CALL IF CANT MAKE, SHEILA WILL BE ON  
         SITE CORRECTION TO ADD PH #                       
Type of Work: ROAD CONSTRUCTION                            
Private Property:      Street:            Y   Overhead Lines:     Blasting:  
Easement:         Y    Mechanical Boring:     Premarked:       
Work Being Done For: IDOT                                              
Sending to: (listing of utilities tkt sent to)
*QLNIDOCL1      IPC44           QLNID44         MVTEL44         


                                 FOR MEMBER USE ONLY
Located by____________________________________Date of Location_________________
Remarks:_______________________________________________________________________
_______________________________________________________________________________
_______________________________________________________________________________
Excavator Notified (Not located)__________________ Who Notified________________
Notified by:__________________________________Date:______________Time:_________
IDL2004120795-   208433  2004/03/31 00:24:10  00184


Idaho Dig Line
NOTICE OF INTENT TO EXCAVATE                   Header Code: CORRECTION
Ticket No:    2004120795 Seq. No: 133
Update of:    2004120224
Original Call Date:     03/16/2004     Time:      11:08:57 AM  OP: 148
Transmit Date:          03/16/2004     Time:      11:09:38 AM
Work to Begin Date:     03/18/2004     Time:      11:09:00 AM

Company:           HOMEOWNER - ROSKINS                     
Contact Name:      DWAYNE ROSKINS             Contact Phone:   (208)841-5469 
Alternate Contact:                            Alternate Phone:                  
Best Time to Call:                            Fax No:                           
Cell Phone:                                   Pager No:                         

State: ID       County: ADA             City: BOISE CITY
Address:    3333  , S RIVA RIDGE WAY                        
To Address:       
Nearest Intersecting Street: W VICTORY RD                            
2nd Intersecting Street:                                             
Subdivision:                               

Location of Work: PLEAE LOCATE BOTH THE BACK  AND FRONT OF          
                  PROPERTY                                          
                                                                    
                                                                    
                  **UPDATE DUE TO ADDRESS CORRECTION AND CHANGE IN  
Remarks: ***IGC CRITICAL LINE AREA***LOC                   


Type of Work: REPAIR/REPLACE SEPTIC SYSTEM                 
Private Property: Y    Street:                Overhead Lines:     Blasting:  
Easement:         Y    Mechanical Boring:     Premarked:       
Wos{ Being Done For: HOMEOWNER - ROSKINS                               
Sending to: (listing of utilities tkt sent to)
*QLNIDOCL1      IPC01           QLNID54         TCI02           BOICTY01        
UWI01           IMGBOI01        

                                 FOR MEMBER USE ONLY
Located by____________________________________Date of Location_________________
Remarks:_______________________________________________________________________
_______________________________________________________________________________
_______________________________________________________________________________
Excavator Notified (Not located)__________________ Who Notified________________
Notified by:__________________________________Date:______________Time:_________
IDL2004141133-   208232  2004/03/31 00:24:10  00174


Idaho Dig Line
NOTICE OF INTENT TO EXCAVATE                   Header Code: EMERGENCY
Ticket No:    2004141133 Seq. No: 25
Update of:              
Original Call Date:     03/30/2004     Time:      04:03:11 PM  OP: 177
Transmit Date:          03/30/2004     Time:      04:04:51 PM
Work to Begin Date:     03/30/2004     Time:      04:19:00 PM

Company:           ACCELERATED PAVING                      
Contact Name:      ALAN SMITH                 Contact Phone:   (208)232-4144 
Alternate Contact:                            Alternate Phone:                  
Best Time to Call:                            Fax No:                           
Cell Phone:        (208)221-9020              Pager No:                         

State: ID       County: BANNOCK         City: POCATELLO
Address:    375   , RIVERSIDE DR                            
To Address:       
Nearest Intersecting Street: RAVINE DR                               
2nd Intersecting Street:     ROSEWOOD AVE                            
Subdivision:                               

Location of Work: PLS LOC IN FRONT OF ABOVE ADDRESS AREA MARKED IN  
                  GREEN                                             
                                                                    
                                                                    
                  EMERGENCY DUE TO CUSTOMERS WITHOUT SERVICE        
Remarks:                                                   


Type of Work: REPAIR SEWER                                 
Private Property: Y    Street:            Y   Overhead Lines:     Blasting:  
Easement:         Y    Mechanical Boring:     Premarked:      Y
Work Being Done For: CITY OF POCATELLO                                 
Sending to: (listing of utilities tkt sent to)
*QLNIDOCL4      IDPOW04         QLNID04         TCI04           IMG04           



                                 FOR MEMBER USE ONLY
Located by____________________________________Date of Location_________________
Remarks:_______________________________________________________________________
_______________________________________________________________________________
_______________________________________________________________________________
Excavator Notified (Not located)__________________ Who Notified________________
Notified by:__________________________________Date:______________Time:_________
IDL2004132260-   208433  2004/03/31 00:24:10  00175


Idaho Dig Line
NOTICE OF INTENT TO EXCAVATE                   Header Code: EMERGENCY
Ticket No:    2004132260 Seq. No: 94
Update of:    2004132236
Original Call Date:     03/26/2004     Time:      09:51:22 AM  OP: 207
Transmit Date:          03/26/2004     Time:      10:12:01 AM
Work to Begin Date:     03/26/2004     Time:      10:06:00 AM

Company:           DE BEST PLUMBING                        
Contact Name:      VIKTOR POLYAKOV            Contact Phone:   (208)322-4844 
Alternate Contact:                            Alternate Phone:                  
Best Time to Call:                            Fax No:                           
Cell Phone:        (208)941-0423              Pager No:                         

State: ID       County: ADA             City: BOISE CITY
Address:    707   , N ARMSTRONG PL                          
To Address:       
Nearest Intersecting Street: W EMERALD ST                            
2nd Intersecting Street:                                             
Subdivision:                               

Location of Work: LOC ENTIRE EAST SIDES OF BLDG AT ABOVE ADDRESS    
                  BY THE MECHANICAL ROOM/FIRE RISER ROOM INCLUDING  
                  THE PARKING LOT ON THE EAST SIDE ALSO             
                                                                    
                  CONTACT VIKTOR AT 941-0423 WITH QUESTIONS         
Remarks: EMERGENCY DUE TO ACTIVE WATER LEAK                
         UPDATED FROM PRIORITY                             

Type of Work: REPAIR WATER LINE                            
Private Property: Y    Street:            Y   Overhead Lines:     Blasting:  
Easement:         Y    Mechanical Boring:     Premarked:       
Work Being Done For: CENTRAL DIST HEALTH                               
Sending to: (listing of utilities tkt sent to)
*QLNIDOCL1      IDACOM01        IPC01           QLNID54         ELI01           
GST01           ACHD01          BOICTY01        UWI01           BOISTR01        IMG01           
TCI01           
                                 FOR MEMBER USE ONLY
Located by____________________________________Date of Location_________________
Remarks:_______________________________________________________________________
_______________________________________________________________________________
_______________________________________________________________________________
Excavator Notified (Not located)__________________ Who Notified________________
Notified by:__________________________________Date:______________Time:_________
IDL2004141144-   208433  2004/03/31 00:24:10  00176


Idaho Dig Line
NOTICE OF INTENT TO EXCAVATE                   Header Code: MEET REQUEST
Ticket No:    2004141144 Seq. No: 276
Update of:              
Original Call Date:     03/30/2004     Time:      04:07:10 PM  OP: 179
Transmit Date:          03/30/2004     Time:      04:13:25 PM
Work to Begin Date:     04/01/2004     Time:      04:12:00 PM

Company:           TRACK UTILITIES, INC.                   
Contact Name:      SHANE MACE                 Contact Phone:   (208)362-1780 
Alternate Contact:                            Alternate Phone:                  
Best Time to Call:                            Fax No:          (208)362-1788 
Cell Phone:        (208)941-4290              Pager No:                         

State: ID       County: ADA             City: BOISE CITY
Address:          , W CAMPUS LN                             
To Address:       
Nearest Intersecting Street: S THEATRE LN                            
2nd Intersecting Street:                                             
Subdivision:                               

Location of Work: **AREA IS ON THE GREEN BELT N OF THE AMPITHEATRE**
                  THIS IS A MEET RQST FOR 04/02/04 AT 0130 PM       
                  PLS MEET CALLER AT THE ABOVE ADDRESS. IF YOU      
                  CANNOT MAKE THE RQST PLS NOTIFY CALLER            

Remarks:                                                   


Type of Work: INSTALL IRRIGATION SYSTEM                    
Private Property: Y    Street:            Y   Overhead Lines:     Blasting:  
Easement:         Y    Mechanical Boring:     Premarked:       
Work Being Done For: BSU                                               
Sending to: (listing of utilities tkt sent to)
*QLNIDOCL1      IPC01           QLNID51         ELI01           FTVCOM00        
ATT00           BOICTY01        UWI01           BSU01           MCIWOR00        IMG01           
TCI01           
                                 FOR MEMBER USE ONLY
Located by____________________________________Date of Location_________________
Remarks:_______________________________________________________________________
_______________________________________________________________________________
_______________________________________________________________________________
Excavator Notified (Not located)__________________ Who Notified________________
Notified by:__________________________________Date:______________Time:_________
IDL2004140900-   208232  2004/03/31 00:24:10  00177


Idaho Dig Line
NOTICE OF INTENT TO EXCAVATE                   Header Code: MEET REQUEST
Ticket No:    2004140900 Seq. No: 10
Update of:    2004132055
Original Call Date:     03/30/2004     Time:      10:51:41 AM  OP: 189
Transmit Date:          03/30/2004     Time:      10:59:01 AM
Work to Begin Date:     03/31/2004     Time:      11:00:00 AM

Company:           MSC INDUSTRIAL INC                      
Contact Name:      STAN HARMON                Contact Phone:   (208)317-7123 
Alternate Contact:                            Alternate Phone:                  
Best Time to Call:                            Fax No:                           
Cell Phone:                                   Pager No:                         

State: ID       County: BANNOCK         City: POCATELLO
Address:    8854  , BARTON RD                               
To Address:       
Nearest Intersecting Street: AMERICAN RD                             
2nd Intersecting Street:                                             
Subdivision:                               
Town: 06S  Ran: 35E  Sect 1/4: 32 NW
Location of Work: THIS IS A MEET REQUEST FOR WED 31 AT 11AM ON      
                  14 ACRES IN FRONT OF ABOVE ADDRESS GOING EAST     
                  TWO PHONE PEDS ON PROPERTY AND ARE WORRY ABOUT    
                  WHERE THOSE LINES RUN; DON STALLSMITH AT 681-9741 
                  OR STAN HARMON 317-7123                           
Remarks: SEE PREVIOUS TKTS 131635,131831, & 132055         
         AREA IS 14 ACRES AND NEED SPECIFIC AREAS THAT     
         WERE NOT MARKED BEFORE                            
Type of Work: SEE REMARKS                                  
Private Property: Y    Street:                Overhead Lines:     Blasting:  
Easement:         Y    Mechanical Boring:     Premarked:       
Work Being Done For: HOMEOWNER - STALLSMITH                            
Sending to: (listing of utilities tkt sent to)
*QLNIDOCL4      IDPOW04         QLNID04         


                                 FOR MEMBER USE ONLY
Located by____________________________________Date of Location_________________
Remarks:_______________________________________________________________________
_______________________________________________________________________________
_______________________________________________________________________________
Excavator Notified (Not located)__________________ Who Notified________________
Notified by:__________________________________Date:______________Time:_________
IDL2004122323-   208736  2004/03/31 00:24:10  00181


Idaho Dig Line
NOTICE OF INTENT TO EXCAVATE                   Header Code: PRE-DESIGN RQST
Ticket No:    2004122323 Seq. No: 45
Update of:              
Original Call Date:     03/19/2004     Time:      12:57:35 PM  OP: 189
Transmit Date:          03/19/2004     Time:      12:59:39 PM
Work to Begin Date:     03/26/2004     Time:      12:18:00 PM

Company:           PHIL COOK AND ASSOCIATES                
Contact Name:      BEN LEFEVRE                Contact Phone:   (801)281-4600 
Alternate Contact: CAMMIE                     Alternate Phone: (801)281-4600 125
Best Time to Call:                            Fax No:                           
Cell Phone:                                   Pager No:                         

State: ID       County: TWIN FALLS      City: TWIN FALLS
Address:          , FALLS AVE                               
To Address:       
Nearest Intersecting Street: WASHINGTON ST N                         
2nd Intersecting Street:                                             
Subdivision:                               

Location of Work: THIS IS A PRE-DESIGN REQUEST FOR THE NW CORNER OF 
                  THE ABOVE INTERSECTION                            
                  WOULD LIKE INFORMATION ABOUT SIZE AND LOCATION OF 
                  LINES; CAN FAX INFORMATION TO 801-281-4601        
                  ATTENTION BEN LEFEVRE                             
Remarks:                                                   


Type of Work: SURVEYING                                    
Private Property:      Street:            Y   Overhead Lines:     Blasting:  
Easement:         Y    Mechanical Boring:     Premarked:       
Work Being Done For: PHIL COOK AND ASSOCIATES                          
Sending to: (listing of utilities tkt sent to)
*QLNIDOCL2      IDPOW42         QLNID42         CSI42           TFSWR42         
TFWTR42         TCI42           TFCITY42        IMG42           

                                 FOR MEMBER USE ONLY
Located by____________________________________Date of Location_________________
Remarks:_______________________________________________________________________
_______________________________________________________________________________
_______________________________________________________________________________
Excavator Notified (Not located)__________________ Who Notified________________
Notified by:__________________________________Date:______________Time:_________
IDL2004050072-   208433  2004/03/31 00:24:10  00182


Idaho Dig Line
NOTICE OF INTENT TO EXCAVATE                   Header Code: PRE-DESIGN RQST
Ticket No:    2004050072 Seq. No: 50
Update of:    2004040727
Original Call Date:     01/26/2004     Time:      09:39:59 AM  OP: 143
Transmit Date:          01/26/2004     Time:      09:48:31 AM
Work to Begin Date:     01/30/2004     Time:      09:46:00 AM

Company:           JUB ENGINEERS                           
Contact Name:      TREVOR KESLER              Contact Phone:   (208)376-7330 
Alternate Contact:                            Alternate Phone:                  
Best Time to Call:                            Fax No:          (208)323-9336 
Cell Phone:                                   Pager No:                         

State: ID       County: ADA             City: MERIDIAN
Address:          , N EAGLE RD                              
To Address:       
Nearest Intersecting Street: E FAIRVIEW AVE                          
2nd Intersecting Street:                                             
Subdivision:                               

Location of Work: CALLER REQ MAPS AND LOCATES.  BEGIN @ KRISPY KREME
                  ENTRANCE & LOC EDGE OF PAVEMENT TO R/O/W ON W SIDE
                  OF EAGLE RD FROM FAIRVIEW TO USTICK.  LOC FULL    
                  R/O/W FROM INT OF FAIRVIEW & EAGLE GOING W FOR    
                  500` TO THE KRISPY KREME ENTRANCE.                
Remarks: LOC FULL R/O/W  OF EAGLE & USTICK GOING W         
         FOR 200`.  ?`S CALL NATE RUNYAN @ 376-7330.       
         ***IGC CRITICAL LINE AREA***                      
Type of Work: SURVEYING                                    
Private Property:      Street:            Y   Overhead Lines:     Blasting:  
Easement:         Y    Mechanical Boring:     Premarked:       
Work Being Done For: CITY OF MERIDIAN                                  
Sending to: (listing of utilities tkt sent to)
*QLNIDOCL1      ATT00           CTYMER01        TCI01           GST01           
IMGBOI01        ACHD01          QLNID53         TCI02           IPC01           

                                 FOR MEMBER USE ONLY
Located by____________________________________Date of Location_________________
Remarks:_______________________________________________________________________
_______________________________________________________________________________
_______________________________________________________________________________
Excavator Notified (Not located)__________________ Who Notified________________
Notified by:__________________________________Date:______________Time:_________
IDL2004141150-   208433  2004/03/31 00:24:10  00179


Idaho Dig Line
NOTICE OF INTENT TO EXCAVATE                   Header Code: PRIORITY LOCATE
Ticket No:    2004141150 Seq. No: 280
Update of:              
Original Call Date:     03/30/2004     Time:      04:23:37 PM  OP: 177
Transmit Date:          03/30/2004     Time:      04:25:16 PM
Work to Begin Date:     03/31/2004     Time:      08:30:00 AM

Company:           UNITED WATER CORPORATION                
Contact Name:      CORY LAMEY                 Contact Phone:   (208)362-7378 
Alternate Contact:                            Alternate Phone:                  
Best Time to Call:                            Fax No:          (208)362-3859 
Cell Phone:                                   Pager No:                         

State: ID       County: ADA             City: BOISE CITY
Address:    3979  , S YORKTOWN WAY                          
To Address:       
Nearest Intersecting Street: E BERGESON ST                           
2nd Intersecting Street:     E GLOUCESTER ST                         
Subdivision:                               

Location of Work: PLS LOC A 30` RADIUS AROUND AREA MARKED IN BLUE   
                                                                    
                                                                    
                                                                    
                  PRIORITY DUE TO ACTIVE LEAK IN THE AREA           
Remarks:                                                   


Type of Work: REPAIR WATER LINE                            
Private Property: Y    Street:            Y   Overhead Lines:     Blasting:  
Easement:         Y    Mechanical Boring:     Premarked:      Y
Work Being Done For: UNITED WATER CORPORATION                          
Sending to: (listing of utilities tkt sent to)
*QLNIDOCL1      IPC01           QLNID51         BOICTY01        UWI01           
IMG01           TCI01           

                                 FOR MEMBER USE ONLY
Located by____________________________________Date of Location_________________
Remarks:_______________________________________________________________________
_______________________________________________________________________________
_______________________________________________________________________________
Excavator Notified (Not located)__________________ Who Notified________________
Notified by:__________________________________Date:______________Time:_________
IDL2004140551-   208736  2004/03/31 00:24:10  00180


Idaho Dig Line
NOTICE OF INTENT TO EXCAVATE                   Header Code: PRIORITY LOCATE
Ticket No:    2004140551 Seq. No: 94
Update of:    2004140476
Original Call Date:     03/29/2004     Time:      03:23:44 PM  OP: 177
Transmit Date:          03/29/2004     Time:      03:24:21 PM
Work to Begin Date:     03/31/2004     Time:      08:30:00 AM

Company:           FAIRBANKS EXCAVATING                    
Contact Name:      DARRELL FAIRBANKS          Contact Phone:   (208)825-5500 
Alternate Contact:                            Alternate Phone:                  
Best Time to Call:                            Fax No:                           
Cell Phone:                                   Pager No:                         

State: ID       County: TWIN FALLS      City: TWIN FALLS
Address:    136   , BUCHANAN ST                             
To Address:       
Nearest Intersecting Street: ADDISON AVE                             
2nd Intersecting Street:                                             
Subdivision:                               

Location of Work: LOCATE FRONT OF PROPERTY                          
                                                                    
                                                                    
                                                                    
                  PRIORITY DUE TO CUSTOMERS WITHOUT SERVICE         
Remarks:                                                   


Type of Work: REPAIR WATER LINE                            
Private Property: Y    Street:            Y   Overhead Lines:     Blasting:  
Easement:         Y    Mechanical Boring:     Premarked:       
Work Being Done For: HOMEOWNER- BRIAN                                  
Sending to: (listing of utilities tkt sent to)
*QLNIDOCL2      IDPOW42         QLNID42         TFSWR42         TFWTR42         
TCI42           TFCITY42        IMG42           

                                 FOR MEMBER USE ONLY
Located by____________________________________Date of Location_________________
Remarks:_______________________________________________________________________
_______________________________________________________________________________
_______________________________________________________________________________
Excavator Notified (Not located)__________________ Who Notified________________
Notified by:__________________________________Date:______________Time:_________
IDL2004141194-   208433  2004/03/31 00:24:10  00187


Idaho Dig Line
NOTICE OF INTENT TO EXCAVATE                   Header Code: STANDARD LOCATE
Ticket No:    2004141194 Seq. No: 308
Update of:              
Original Call Date:     03/30/2004     Time:      06:49:21 PM  OP: 199
Transmit Date:          03/30/2004     Time:      06:50:59 PM
Work to Begin Date:     04/02/2004     Time:      08:00:00 AM

Company:           HOMEOWNER-GILL                          
Contact Name:      SCOTT GILL                 Contact Phone:   (208)336-0853 
Alternate Contact:                            Alternate Phone:                  
Best Time to Call:                            Fax No:                           
Cell Phone:                                   Pager No:                         

State: ID       County: ADA             City: BOISE CITY
Address:    4916  , E STEMWOOD ST                           
To Address:       
Nearest Intersecting Street: S LONGLEAF AVE                          
2nd Intersecting Street:     S SHORTLEAF CT                          
Subdivision:                               

Location of Work: LOC BY THE GARAGE, 3` RADIUS AROUND STAKE         




Remarks:                                                   


Type of Work: PLANTING TREES                               
Private Property: Y    Street:                Overhead Lines:     Blasting:  
Easement:              Mechanical Boring:     Premarked:      Y
Work Being Done For: HOMEOWNER-GILL                                    
Sending to: (listing of utilities tkt sent to)
*QLNIDOCL1      IPC01           QLNID51         BOICTY01        UWI01           
IMG01           TCI01           

                                 FOR MEMBER USE ONLY
Located by____________________________________Date of Location_________________
Remarks:_______________________________________________________________________
_______________________________________________________________________________
_______________________________________________________________________________
Excavator Notified (Not located)__________________ Who Notified________________
Notified by:__________________________________Date:______________Time:_________
IDL2004141186-   208522  2004/03/31 00:24:10  00188


Idaho Dig Line
NOTICE OF INTENT TO EXCAVATE                   Header Code: STANDARD LOCATE
Ticket No:    2004141186 Seq. No: 71
Update of:    2004040094
Original Call Date:     03/30/2004     Time:      05:56:24 PM  OP: 177
Transmit Date:          03/30/2004     Time:      05:57:05 PM
Work to Begin Date:     04/02/2004     Time:      08:00:00 AM

Company:           DEPATCO                                 
Contact Name:      GREG STODDARD              Contact Phone:   (208)624-3836 
Alternate Contact: MATT HARTLINE              Alternate Phone:                  
Best Time to Call:                            Fax No:                           
Cell Phone:        (208)313-7624              Pager No:                         

State: ID       County: MADISON         City: REXBURG
Address:          , PARKSIDE                                
To Address:       
Nearest Intersecting Street: PIONEER                                 
2nd Intersecting Street:                                             
Subdivision:                               
Town: 06N  Ran: 39E  Sect 1/4: 25 NW
Location of Work: THIS AREA IS 300-400` SOUTH OF ABOVE INTERSECTION 
                  AT THE PETERSON STORAGE UNITS                     
                  LOC FROM PETERSON STORAGE UNITS SOUTH TO THE      
                  REXBURG CANAL                                     
                  AREA IS MARKED WHERE TO BEGIN AND WHERE TO END    
Remarks: **ALSO INSTALLING STORM DRAINS**                  
         ***UPDATE DUE TO CONTINUATION OF WORK***          
         LOC BOTH SIDES OF THE STREET                      
Type of Work: INSTALL WATER, SEWER & POWER TO NEW HOME     
Private Property: Y    Street:            Y   Overhead Lines: Y   Blasting:  
Easement:         Y    Mechanical Boring:     Premarked:      Y
Work Being Done For: PETERSON STORAGE UNITS                            
Sending to: (listing of utilities tkt sent to)
*QLNIDOCL3      QLNID33         CTYREX33        TCIIF33         UPL33           
IMG33           FRETEL33        

                                 FOR MEMBER USE ONLY
Located by____________________________________Date of Location_________________
Remarks:_______________________________________________________________________
_______________________________________________________________________________
_______________________________________________________________________________
Excavator Notified (Not located)__________________ Who Notified________________
Notified by:__________________________________Date:______________Time:_________
IDL2004141053-   208736  2004/03/31 00:24:10  00189


Idaho Dig Line
NOTICE OF INTENT TO EXCAVATE                   Header Code: UPDATE
Ticket No:    2004141053 Seq. No: 57
Update of:    2004111820
Original Call Date:     03/30/2004     Time:      02:10:20 PM  OP: 161
Transmit Date:          03/30/2004     Time:      02:12:19 PM
Work to Begin Date:     04/01/2004     Time:      02:10:00 PM

Company:           CITY OF HEYBURN                         
Contact Name:      LINDA DAILEY               Contact Phone:   (208)678-8158 
Alternate Contact:                            Alternate Phone:                  
Best Time to Call:                            Fax No:          (208)678-2438 
Cell Phone:                                   Pager No:                         

State: ID       County: MINIDOKA        City: HEYBURN
Address:          , KYRO AVE                                
To Address:       
Nearest Intersecting Street: TESA AVE                                
2nd Intersecting Street:                                             
Subdivision:                               

Location of Work: FAX NOTES CROSS STREET OF KATHALEEN               
                  KYRO + KATHALEEN EAST TO FIELD SEE MAP  PREMARKED 
                  IN GREEN                                          
                  UPDATE DUE TO NO MARKINGS AND ADDED QWEST         

Remarks:                                                   


Type of Work: INSTALL SEWER LINE                           
Private Property: Y    Street:            Y   Overhead Lines:     Blasting:  
Easement:         Y    Mechanical Boring:     Premarked:      Y
Work Being Done For: CITY OF HEYBURN                                   
Sending to: (listing of utilities tkt sent to)
*QLNIDOCL2      PMT34           QLNID34         TCI16           TCI34           
IMG16           CTYHEY34        

                                 FOR MEMBER USE ONLY
Located by____________________________________Date of Location_________________
Remarks:_______________________________________________________________________
_______________________________________________________________________________
_______________________________________________________________________________
Excavator Notified (Not located)__________________ Who Notified________________
Notified by:__________________________________Date:______________Time:_________

