OOC2005081100259	Internals-Dual-LocInc	2005/08/11 12:46:00	00248

OUNC
Ticket No:  5154048               48 HOUR NOTICE
Send To: QLNOR28    Seq No:    5  Map Ref:

Transmit      Date:  8/11/05   Time: 10:42 am    Op: timh
Original Call Date:  8/11/05   Time: 10:35 am    Op: timh
Work to Begin Date:  8/15/05   Time: 10:45 am

State: OR            County: LINN                    Place: CORVALLIS
Address: 100         Street: WASHINGTON ST
Nearest Intersecting Street: 1ST ST

Twp: 11S   Rng: 3W    Sect-Qtr: 7-NW,6-SW
Twp: 11S   Rng: 4W    Sect-Qtr: 12-NE,1-SE
Legal Given:

Type of Work: DRIVING LENGTH SHEET SHORING -STEEL PLATE
Location of Work: ADD IS AT INTER
: MARK AREA MARKED IN WHITE
: WHICH IS E AND W AND S PROP LINES

Remarks: AREA WILL BE WHITE MARKED TODAY
: ENTIRE AREA IS INSIDE CONSTRUCTION FENCE                           OH: N

Company     : ANDERSEN CONSTRUCTION COMPANY
Contact Name: KEVIN                            Phone: (503)283-6712
Alt. Contact: KEVIN - CELL                     Phone: (503)572-0899
Contact Fax :
Work Being Done For: ANDERSEN CONSTRUCTION COMPANY
Additional Members:
ATT01      CMCST02    COA01      MCIT01     NNG12      NNG13      PPL13
 PWRR01

