UTIL11 00230 ONISI 04/24/02 08:44:08 0211273  GRID

Ticket : 0211273 Date: 04/24/02 Time: 08:38 Oper: CLS Chan: 14 Op: CLS
Old Tkt: 0172789 Date: 04/05/02 Time: 08:40 Oper: RWS Revision: 00
State: VA County: RICHMOND CITY        Place:
Addr:         Street: MAIN STREET
Near Intersection(s): 14TH STREET

Locat: MARK THE ENTIRE INTERSECTION. (SEE REMARKS, PLEASE)

Grids: 0315J05      0315J06

Work type: REPACKING FIRE HYDRANT VALVE
Blasting : N  Boring: Y
Work date:   04/26/02 Time: 08:45  Hrs notc: 048  Priority: 2
Expire date: 04/26/02 Time: 08:38
Instructions:                         Done for: CITY OF RICHMOND

Company: KEYSTONE PIPELINE SERVICES      Call back: SAME
Address: 8346 OLD RICHFOOD ROAD
City&St: MECHANICSVILLE, VA             Zip: 23116      Fax: 804
746-5986
Caller : LISA AUSTIN           Phone: 804 746-5812

Remarks:
NOTE:  JOB EXTENSION AND REMARKS FOR ALL UTILITIES.  THANK YOU.

Mbrs : ATT392 ATTBB1 BAR283 CAV487 CIRS04 CRGR04 CRST03 CRT358 CRWR04
DTECH1
MCII81 QWES05 TCG206 USSP22 UTIL11 VPE373 VPW291

zzz
