
UTLQST2 00006A USAS 10/17/02 08:07:03 A0892442-09A  RXMIT GRID

Ticket : A0892442 Date: 10/17/02 Time: 08:04 Oper: BEC Chan: 100
Old Tkt: A0892442 Date: 06/28/02 Time: 09:38 Oper: RLD Revision: 09A
State: CA County: SAN DIEGO            Place: CO/AREA BORREGO SPRINGS
Locat: WORKING ENTIRE AREA BOUNDED STARTING APPROX 1 MILE N/OF TILTING T DR,
     : & CONT N/FOR 1 MILE; ON W/BY DI GIORGIO RD;IN E/BY BORRENGO VALLEY RD
Address: TILTING T DR
X/ST   : BORREGO VALLEY RD
Grids: 1079A02      1079A03      1079A04      1079B02       Delineated: Y
Grids: 1079B03      1079B04      1079C02      1079C03
Grids: 1079C04

Work : EXCAVATE FOR LANDSCAPING/NEW CONSTRUCTIO
Work date: 10/17/02 Time: 07:37 Hrs notc: 000 Work hrs: 000 Priority: 2
Instruct : WORK CONTINUING        Permit   : NOT REQUIRED
Done for : CAMERSON BROTHERS CONTRUCTION

Company: CAMERON BROTHERS CONSTRUCTION  Caller: NANCY
Address: 7766 BALBOA AV
City&St: SAN DIEGO, CA                  Zip:
Phone: 619-278-3050 Ext:      Call back: 7-5:30PM
Formn: JOHN CAMERON

                                  REMARKS

REF EXP TKT# A000691125, WORK CONT  PER TIFFANY
**RESEND**UPDATE ONLY WORK-CONT  PER TIFFANY--[LYD 07/11/02 07:31]
**RESEND**PENDING RESEARCH FOR USA PURPOSES--[RIA 07/25/02 08:24]
**RESEND**UPDATE ONLY WORK-CONT  PER TIFFINY--[RIA 07/25/02 09:01]
**RESEND**CORRECTING TG FROM 1079A01 1079A02 1079A03 1079B01 1079B02 1079B03
1079C01 1079C02 1079C03 TO 1079A02 1079A03 1079B02 1079B03 1079C02 1079C03
1079A04 1079B04 1079C04  --[RIA 07/25/02 09:06]
**RESEND**PENDING RESEARCH FOR USA PURPOSES--[LOR 08/08/02 07:58]
**RESEND**UPDATE ONLY WORK-CONT  PER TIFFANY--[KJC 08/08/02 08:18]
**RESEND**UPDATE ONLY WORK-CONT  PER TIFFANY--[JAR 08/22/02 07:43]
**RESEND**UPDATE ONLY WORK-CONT  PER TIFFANY--[MLI 09/05/02 07:36]
**RESEND**UPDATE ONLY WORK-CONT  PER TIFFANY--[BRI 09/19/02 07:50]
**RESEND**PENDING RESEARCH FOR USA PURPOSES--[CLA 10/03/02 07:36]
**RESEND**UPDATE ONLY WORK-CONT  PER TIFFANY --[BEC 10/03/02 08:23]
**RESEND**PENDING RESEARCH FOR USA PURPOSES--[PEG 10/17/02 07:37]
**RESEND**UPDATE ONLY WORK-CONT  PER TIFFANY--[BEC 10/17/02 08:05]

Mbrs : BORWTR CTVUSA PTT28  SDG05  SDG09  UPTT28 UTISD  UTLQST



UTLQST2 00002A USAS 10/16/02 15:13:06 A0093918-00A  GRID  RSEN

Ticket : A0093918 Date: 10/16/02 Time: 14:52 Oper: LMT Chan: 100
Old Tkt: A0093918 Date: 10/16/02 Time: 15:03 Oper: LMT Revision: 00A
State: CA County: SAN DIEGO            Place: CO AREA/SAN DIEGO
Locat:

Address: 9207 ISLAND PINE WAY
X/ST   : SAW LEAF LN
Grids: 1169D023                                             Delineated: N

Work : LANDSCAPING
Work date: 10/18/02 Time: 15:05 Hrs notc: 048 Work hrs: 048 Priority: 2
Instruct : MARK BY                Permit   : NOT REQ
Done for : H/O-CAZARES

Company: TORO LANDSCAPE AND DESIGN      Caller: JUAN
Address: 325 S 33RD ST
City&St: SAN DIEGO, CA                  Zip: 92113
Phone: 619-234-2573 Ext:      Call back: 7-5
Formn: JUAN                 Phone: 619-256-4056
Mbrs : COX01  OMW62  PTT28  RSFCSD SDC02  SDG05  SDG09  TWCSD  UCOX01 UPTT28
UTISD  UTLQST

[Originally sent as sequence number 00001 at 10/16/02 15:03]



