

This is your End of Day Audit from IRTHNet for items sent
since 2/9/2007 7:00 AM (Eastern Standard Time)

Seq   Ticket                    Registration Code                  
-------------------------------------------------------------------
1     A70400012                 COX01 (USAS)                       
2     A70080526                 COX01 (USAS)                       
3     A70400046                 COX01 (USAS)                       
4     A70191004                 COX01 (USAS)                       
5     A02281542                 COX01 (USAS)                       
6     A70400089                 COX01 (USAS)                       
7     A70400090                 COX04 (USAS)                       
8     A03490231                 COX01 (USAS)                       
9     A03490233                 COX01 (USAS)                       
10    A70120117                 COX04 (USAS)                       
11    A70400150                 COX01 (USAS)                       
12    A70400153                 COX01 (USAS)                       
13    A70400154                 COX04 (USAS)                       
14    A03550389                 COX01 (USAS)                       
15    A70400202                 COX01 (USAS)                       
16    A70400227                 COX01 (USAS)                       
17    A70400229                 COX04 (USAS)                       
18    A70400239                 COX01 (USAS)                       
19    A70390507                 COX01 (USAS)                       
20    A70400289                 COX01 (USAS)                       
21    A70371030                 COX01 (USAS)                       
22    A70400327                 COX01 (USAS)                       
23    A70400332                 COX01 (USAS)                       
24    A70400335                 COX04 (USAS)                       
25    A70400339                 COX01 (USAS)                       
26    A70400343                 COX01 (USAS)                       
27    A70400354                 COX04 (USAS)                       
28    A70400355                 COX01 (USAS)                       
29    A70400371                 COX04 (USAS)                       
30    A70400373                 COX01 (USAS)                       
31    A70400355                 COX01 (USAS)                       
32    A70400413                 COX01 (USAS)                       
33    A70381462                 COX01 (USAS)                       
34    A70330788                 COX04 (USAS)                       
35    A70400444                 COX04 (USAS)                       
36    A70400510                 COX04 (USAS)                       
37    A70400521                 COX01 (USAS)                       
38    A70400522                 COX04 (USAS)                       
39    A70400550                 COX04 (USAS)                       
40    A70400576                 COX01 (USAS)                       
41    A70400576                 COX01 (USAS)                       
42    A70400614                 COX01 (USAS)                       
43    A70400620                 COX04 (USAS)                       
44    A70400625                 COX01 (USAS)                       
45    A70400628                 COX01 (USAS)                       
46    A70400629                 COX01 (USAS)                       
47    A70400634                 COX01 (USAS)                       
48    A70400639                 COX01 (USAS)                       
49    A70400675                 COX01 (USAS)                       
50    A70400699                 COX01 (USAS)                       
51    A70380872                 COX01 (USAS)                       
52    A70400710                 COX01 (USAS)                       
53    A70400717                 COX01 (USAS)                       
54    A70400719                 COX01 (USAS)                       
55    A70400720                 COX01 (USAS)                       
56    A70400728                 COX01 (USAS)                       
57    A70400731                 COX01 (USAS)                       
58    A70400733                 COX01 (USAS)                       
59    A70400736                 COX01 (USAS)                       
60    A70380484                 COX01 (USAS)                       
61    A70120589                 COX01 (USAS)                       
62    A70400791                 COX01 (USAS)                       
63    A70400828                 COX01 (USAS)                       
64    A70400834                 COX01 (USAS)                       
65    A70400846                 COX01 (USAS)                       
66    A70390202                 COX01 (USAS)                       
67    A70400861                 COX01 (USAS)                       
68    A70400862                 COX01 (USAS)                       
69    A70400879                 COX01 (USAS)                       
70    A70400881                 COX04 (USAS)                       
71    A70400885                 COX01 (USAS)                       
72    A70400889                 COX01 (USAS)                       
73    A70370171                 COX01 (USAS)                       
74    A70400901                 COX01 (USAS)                       
75    A70400902                 COX04 (USAS)                       
76    A70400914                 COX04 (USAS)                       
77    A70400917                 COX01 (USAS)                       
78    A70400918                 COX01 (USAS)                       
79    A70291126                 COX04 (USAS)                       
80    A70400932                 COX04 (USAS)                       
81    A70400937                 COX04 (USAS)                       
82    A70400940                 COX04 (USAS)                       
83    A70400942                 COX04 (USAS)                       
84    A70400946                 COX01 (USAS)                       
85    A70400952                 COX04 (USAS)                       
86    A70331090                 COX01 (USAS)                       
87    A70260757                 COX01 (USAS)                       
88    A70401046                 COX01 (USAS)                       
89    A70381385                 COX01 (USAS)                       
90    A70321139                 COX04 (USAS)                       
91    A70401062                 COX01 (USAS)                       
92    A03340599                 COX04 (USAS)                       
93    A03340607                 COX04 (USAS)                       
94    A70260249                 COX01 (USAS)                       
95    A70401086                 COX01 (USAS)                       
96    A70401099                 COX01 (USAS)                       
97    A70401086                 COX01 (USAS)                       
98    A02720525                 COX04 (USAS)                       
99    A70401132                 COX01 (USAS)                       
100   A70401133                 COX01 (USAS)                       
101   A70330127                 COX01 (USAS)                       
102   A70401168                 COX01 (USAS)                       
103   A70050698                 COX01 (USAS)                       
104   A70401296                 COX04 (USAS)                       
105   A03380038                 COX04 (USAS)                       
106   A03380041                 COX04 (USAS)                       
107   A70401418                 COX01 (USAS)                       
108   A70401548                 COX04 (USAS)                       
109   A70401552                 COX01 (USAS)                       
110   A70401570                 COX04 (USAS)                       

Total Items Sent: 110

