


SEQUENCE NUMBER 0001   CDC = CP3

TESS audit for CDC of CP3 on 021031
Serial# & Seq#  Serial# & Seq#  Serial# & Seq#  Serial# & Seq#
023040836 0007  023040864 0017  023041121 0100  023042363 0477  
023042580 0544  023043247 0685  
Total number of Dig-ups or Emergency 0001
Total number of Short Notices        0000
Total number of Priority Notices     0000
Total number of Routine Notices      0005
Total number of Messages for CP3     0006
If this audit does not match your manual tracking 
then call the Call Center and request a retransmission.





SEQUENCE NUMBER 0001   CDC = CR1

TESS audit for CDC of CR1 on 021031
Serial# & Seq#  Serial# & Seq#  Serial# & Seq#  Serial# & Seq#
023040854 0016  023041130 0098  023041135 0099  023041221 0113  
023041245 0123  023041359 0145  023041547 0210  023041552 0211  
023041609 0226  023041743 0242  023041878 0342  023042009 0380  
023042110 0410  023042259 0455  023042296 0460  023042317 0467  
023042354 0471  023042413 0494  023042419 0507  023042505 0527  
023042510 0529  023042566 0543  023042919 0607  023042929 0610  
023043050 0625  023043057 0636  023043095 0644  023043100 0646  
023043220 0663  023043215 0678  023043218 0679  023043302 0690  
023043305 0691  023043325 0695  023043330 0698  023043426 0732  
023043427 0733  023043481 0788  023043484 0790  023043512 0791  
Total number of Dig-ups or Emergency 0006
Total number of Short Notices        0000
Total number of Priority Notices     0001
Total number of Routine Notices      0033
Total number of Messages for CR1     0040
If this audit does not match your manual tracking 
then call the Call Center and request a retransmission.





SEQUENCE NUMBER 0001   CDC = D20

TESS audit for CDC of D20 on 021031
Serial# & Seq#  Serial# & Seq#  Serial# & Seq#  Serial# & Seq#
023040889 0019  023040894 0022  023040966 0030  023040971 0042  
023040983 0044  023041144 0105  023041290 0117  023041254 0124  
023041325 0138  023041421 0155  023041443 0166  023045366 0175  
023045370 0182  023045375 0183  023045398 0192  023045407 0194  
023045413 0196  023041556 0214  023041593 0222  023041597 0225  
023041618 0232  023041740 0246  023041798 0278  023041807 0285  
023041840 0307  023041844 0310  023041845 0312  023041851 0316  
023041853 0317  023041854 0322  023041867 0330  023042013 0350  
023042016 0352  023042100 0404  023042108 0407  023042231 0441  
023042240 0446  023042386 0485  023046098 0503  023042416 0505  
023042641 0560  023042646 0564  023042645 0580  023042969 0616  
023042972 0619  023042977 0622  023043373 0708  023043386 0710  
023043437 0737  023043443 0739  023043446 0743  023043449 0746  
023043545 0802  
Total number of Dig-ups or Emergency 0003
Total number of Short Notices        0000
Total number of Priority Notices     0003
Total number of Routine Notices      0047
Total number of Messages for D20     0053
If this audit does not match your manual tracking 
then call the Call Center and request a retransmission.





SEQUENCE NUMBER 0001   CDC = DL1

TESS audit for CDC of DL1 on 021031
Serial# & Seq#  Serial# & Seq#  Serial# & Seq#  Serial# & Seq#
023040819 0011  023040820 0012  023040821 0013  023040824 0014  
023040825 0015  023040880 0018  023040889 0020  023040893 0021  
023040894 0023  023040898 0024  023040912 0025  023040916 0026  
023040921 0029  023040966 0031  023041038 0054  023041007 0058  
023041029 0061  023041034 0063  023041035 0064  023041040 0066  
023041041 0067  023041043 0068  023041045 0069  023041114 0070  
023041128 0071  023041125 0072  023045115 0073  023041049 0074  
023041056 0076  023041075 0078  023041088 0087  023041091 0088  
023041095 0089  023041144 0106  023041158 0107  023041290 0118  
023041265 0119  023041289 0130  023041325 0139  023041342 0142  
023041358 0144  023045342 0158  023041438 0165  023041511 0203  
023041523 0207  023041650 0218  023041629 0219  023041633 0220  
023041675 0224  023041618 0233  023041638 0234  023041665 0235  
023041666 0237  023041674 0239  023041585 0240  023041678 0241  
023041721 0243  023041745 0249  023041753 0252  023041798 0279  
022911306 0284  023041823 0299  023041833 0304  023041840 0308  
023041879 0335  023041961 0367  023041970 0370  023042010 0382  
023042018 0383  023042023 0384  023042107 0385  023042078 0389  
023042103 0390  023042070 0397  023042073 0398  023042098 0403  
023042100 0405  023042145 0414  023042148 0415  023042153 0419  
023042156 0420  023042164 0421  023042167 0422  023042169 0423  
023042175 0425  023042181 0426  023042191 0428  023042204 0431  
023042209 0432  023042211 0433  023042213 0434  023042215 0435  
023042217 0436  023042222 0437  023042224 0438  023042226 0439  
023042229 0440  023042248 0449  023042249 0450  023042251 0451  
023042252 0452  023042253 0453  023042258 0454  023042272 0457  
023042289 0458  023042302 0461  023042367 0478  023042389 0488  
023042397 0491  023042411 0493  023046098 0504  023042416 0506  
023042434 0509  023042463 0516  023042465 0517  023042468 0519  
023042666 0522  023042514 0530  023042539 0537  023042541 0538  
023042544 0539  023042559 0542  023042624 0553  023042641 0561  
023042646 0565  023042673 0576  023042682 0577  023042645 0581  
023042714 0582  023042702 0583  023042708 0584  023042745 0585  
023042790 0586  023042830 0591  023042837 0593  023042856 0596  
023042898 0601  023040019 0602  023042955 0611  023043035 0631  
023043047 0635  023043073 0642  023043106 0647  023043110 0648  
023043113 0649  023043114 0650  023043118 0652  023043121 0653  
023043126 0654  023043127 0655  023043130 0656  023043133 0658  
023043137 0659  023043141 0660  023043143 0661  023043188 0665  
023040058 0689  023043336 0699  023043346 0701  023046588 0702  
023046595 0703  023043420 0727  023043428 0734  023043429 0735  
023043432 0736  023043459 0751  023043460 0752  023043483 0789  
023043575 0804  023043588 0811  023043677 0849  023043719 0868  
Total number of Dig-ups or Emergency 0019
Total number of Short Notices        0002
Total number of Priority Notices     0011
Total number of Routine Notices      0140
Total number of Messages for DL1     0172
If this audit does not match your manual tracking 
then call the Call Center and request a retransmission.





SEQUENCE NUMBER 0001   CDC = GRE

TESS audit for CDC of GRE on 021031
Serial# & Seq#  Serial# & Seq#  Serial# & Seq#  Serial# & Seq#
023040920 0027  023040983 0045  023041081 0082  023041084 0084  
023041168 0108  023041213 0110  023041236 0120  023041374 0131  
023041415 0151  023041426 0160  023041443 0167  023041487 0190  
023041772 0258  023041779 0266  023041800 0281  023041808 0288  
023041809 0290  023041811 0292  023041812 0294  023041818 0296  
023041829 0302  023041853 0318  023041856 0324  023045867 0416  
023042364 0468  023042558 0540  023042868 0598  023043372 0706  
023043403 0713  023043409 0716  023043410 0719  023043416 0722  
023043535 0799  023043636 0823  023043668 0838  
Total number of Dig-ups or Emergency 0003
Total number of Short Notices        0001
Total number of Priority Notices     0004
Total number of Routine Notices      0027
Total number of Messages for GRE     0035
If this audit does not match your manual tracking 
then call the Call Center and request a retransmission.





SEQUENCE NUMBER 0001   CDC = IR1

TESS audit for CDC of IR1 on 021031
Serial# & Seq#  Serial# & Seq#  Serial# & Seq#  Serial# & Seq#
023040836 0008  023040963 0040  023041113 0095  023041119 0096  
023041123 0097  023041121 0101  023041229 0116  023041242 0122  
023041254 0125  023041324 0137  023041583 0221  023041770 0254  
023042125 0386  023042141 0429  023042267 0430  023042231 0442  
023042233 0443  023042234 0444  023042290 0459  023042291 0463  
023042307 0465  023042318 0466  023042348 0475  023042373 0479  
023042378 0483  023042380 0484  023042447 0511  023042466 0518  
023042470 0520  023042509 0528  023042773 0588  023043039 0632  
023043040 0633  023043042 0634  023043189 0666  023043192 0667  
023043194 0668  023043195 0669  023043197 0670  023043201 0671  
023043202 0672  023043205 0673  023043207 0674  023043209 0675  
023043211 0676  023043213 0677  023043232 0682  023043233 0683  
023043234 0684  023043250 0686  023043262 0687  
Total number of Dig-ups or Emergency 0004
Total number of Short Notices        0001
Total number of Priority Notices     0000
Total number of Routine Notices      0046
Total number of Messages for IR1     0051
If this audit does not match your manual tracking 
then call the Call Center and request a retransmission.





SEQUENCE NUMBER 0001   CDC = LG3

TESS audit for CDC of LG3 on 021031
Serial# & Seq#  Serial# & Seq#  Serial# & Seq#  Serial# & Seq#
023040920 0028  023040983 0046  023041081 0083  023041084 0085  
023041168 0109  023041213 0111  023041236 0121  023041374 0132  
023041415 0152  023041426 0161  023041443 0168  023041487 0191  
023041772 0259  023041779 0267  023041800 0282  023041808 0289  
023041809 0291  023041811 0293  023041812 0295  023041818 0297  
023041829 0303  023041853 0319  023041856 0325  023045867 0417  
023042364 0469  023042558 0541  023042868 0600  023043372 0707  
023043403 0715  023043409 0717  023043410 0720  023043416 0723  
023043535 0800  023043636 0824  023043668 0839  
Total number of Dig-ups or Emergency 0003
Total number of Short Notices        0001
Total number of Priority Notices     0004
Total number of Routine Notices      0027
Total number of Messages for LG3     0035
If this audit does not match your manual tracking 
then call the Call Center and request a retransmission.





SEQUENCE NUMBER 0001   CDC = LGD

TESS audit for CDC of LGD on 021031
Serial# & Seq#  Serial# & Seq#  Serial# & Seq#  Serial# & Seq#
023041675 0236  023042181 0427  023042272 0456  
Total number of Dig-ups or Emergency 0000
Total number of Short Notices        0000
Total number of Priority Notices     0001
Total number of Routine Notices      0002
Total number of Messages for LGD     0003
If this audit does not match your manual tracking 
then call the Call Center and request a retransmission.





SEQUENCE NUMBER 0001   CDC = MQ3

TESS audit for CDC of MQ3 on 021031
Serial# & Seq#  Serial# & Seq#  Serial# & Seq#  Serial# & Seq#
023040937 0032  023040941 0034  023040945 0035  023040952 0036  
023040953 0037  023040956 0038  023040961 0039  023040971 0043  
023040972 0047  023040976 0050  023040978 0051  023040987 0052  
023040988 0053  023040991 0055  023040997 0056  023041006 0057  
023041010 0059  023041023 0060  023041037 0065  023041050 0075  
023041076 0079  023041085 0086  023041099 0090  023041102 0092  
023041108 0094  023041136 0102  023041139 0104  023045260 0136  
023041351 0143  023041402 0148  023041421 0156  023041427 0162  
023041443 0169  023041448 0172  023041461 0177  023041478 0186  
023041538 0208  023041555 0212  023041556 0215  023041627 0217  
023041593 0223  023045525 0230  023041666 0238  023041730 0244  
023041740 0247  023041776 0264  023041782 0268  023041790 0271  
023041791 0272  023041793 0275  023041802 0280  023041804 0283  
023041807 0286  023041821 0298  023041824 0300  023041828 0301  
023041834 0305  023041835 0306  023041841 0309  023041844 0311  
023041845 0313  023041849 0314  023041851 0315  023041853 0320  
023041854 0321  023041855 0323  023041862 0327  023041867 0331  
023041873 0337  023041875 0338  023042017 0348  023042034 0391  
023042040 0392  023042045 0393  023042052 0394  023042058 0395  
023042060 0396  023042086 0401  023042108 0408  023042134 0412  
023042425 0497  023042432 0499  023042437 0500  023042440 0501  
023042455 0502  023042770 0587  023042791 0590  023042830 0592  
023042849 0595  023042857 0597  023042868 0599  023042943 0612  
023043061 0637  023031464 0639  023043097 0645  023043115 0651  
023043149 0662  023043174 0664  023040064 0697  023043369 0705  
023043386 0711  023043389 0712  023043413 0714  023043423 0729  
023043437 0738  023043443 0740  023043444 0741  023043446 0744  
023043448 0745  023043449 0747  023043450 0748  023043451 0749  
023043453 0750  023043516 0796  023043601 0813  023043624 0815  
023043625 0816  023043627 0818  023043628 0819  023043629 0820  
023043631 0821  023043633 0822  023043636 0825  023043642 0826  
Total number of Dig-ups or Emergency 0004
Total number of Short Notices        0002
Total number of Priority Notices     0008
Total number of Routine Notices      0110
Total number of Messages for MQ3     0124
If this audit does not match your manual tracking 
then call the Call Center and request a retransmission.





SEQUENCE NUMBER 0001   CDC = PL1

TESS audit for CDC of PL1 on 021031
Serial# & Seq#  Serial# & Seq#  Serial# & Seq#  Serial# & Seq#
023040940 0033  023040970 0041  023041032 0062  023041099 0091  
023041102 0093  023041221 0112  023041225 0114  023041272 0126  
023041276 0127  023041277 0128  023041285 0129  023041380 0133  
023041331 0140  023041336 0141  023041370 0146  023041381 0147  
023045324 0149  023045328 0150  023045333 0153  023041419 0154  
023045337 0157  023045343 0159  023045349 0163  023045355 0164  
023045358 0170  023041447 0171  023045362 0173  023041454 0174  
023045366 0176  023041462 0178  023041540 0179  023045383 0180  
023045370 0181  023045375 0184  023045381 0185  023045390 0187  
023041485 0188  023045395 0189  023045398 0193  023045407 0195  
023045413 0197  023041503 0200  023045420 0201  023041510 0202  
023045424 0204  023041513 0205  023041521 0206  023041544 0209  
023041555 0213  023041557 0216  023041609 0227  023041618 0231  
023041731 0245  023041744 0248  023041747 0251  023041762 0253  
023041772 0260  023041775 0261  023041763 0262  023041807 0287  
023041857 0326  023041868 0332  023041872 0336  023041876 0341  
023041885 0343  023041886 0344  023041890 0345  023041896 0346  
023042013 0351  023042016 0353  023041902 0354  023041904 0355  
023041908 0356  023041914 0357  023041921 0359  023041928 0360  
023041936 0362  023041938 0363  023041940 0364  023041948 0365  
023041953 0366  023041967 0368  023041969 0369  023041973 0371  
023041974 0372  023041976 0373  023041979 0374  023041993 0375  
023041996 0377  023041999 0378  023042000 0379  023042009 0381  
023042090 0402  023042104 0406  023042108 0409  023042112 0411  
023042130 0413  023045867 0418  023042173 0424  023042237 0445  
023042240 0447  023042247 0448  023042312 0462  023042335 0472  
023042338 0473  023042341 0474  023042357 0476  023042386 0486  
023042387 0487  023042392 0489  023042394 0490  023042397 0492  
023042420 0495  023046118 0496  023042425 0498  023042422 0508  
023042438 0510  023042450 0512  023042456 0513  023042459 0514  
023042462 0515  023042476 0521  023042565 0523  023042518 0531  
023042521 0533  023042529 0534  023042532 0535  023042534 0536  
023042599 0546  023042604 0547  023042605 0548  023042610 0549  
023042614 0550  023042616 0551  023042618 0552  023042628 0554  
023042629 0555  023042631 0556  023042637 0557  023042638 0558  
023042640 0559  023042641 0562  023042643 0563  023042646 0566  
023042647 0567  023042650 0568  023042652 0569  023046223 0570  
023042659 0571  023042661 0572  023042665 0573  023042784 0589  
023042847 0594  023042907 0603  023042918 0606  023042936 0613  
023042949 0614  023042969 0617  023042970 0618  023042972 0620  
023042975 0621  023042977 0623  023042980 0624  023021458 0640  
023043062 0641  023043092 0643  023043131 0657  023043219 0680  
023043266 0688  023043305 0692  023043325 0696  023043344 0700  
023043349 0704  023043373 0709  023043408 0718  023043415 0721  
023043417 0724  023043421 0728  023043424 0730  023040075 0731  
023043444 0742  023043467 0755  023043531 0792  023043533 0795  
023043545 0803  023040108 0805  023040109 0806  023040110 0807  
023040111 0808  023040112 0809  023040113 0810  023043592 0812  
023043651 0827  023043652 0828  023043655 0829  023043657 0830  
023043658 0831  023043659 0832  023043660 0833  023043661 0834  
023043664 0835  023043667 0836  023043668 0837  023043669 0840  
023043670 0841  023043671 0842  023043673 0845  023043674 0846  
023043675 0847  023043676 0848  023043677 0850  023043678 0851  
023043681 0852  023043682 0853  023043683 0854  023043684 0855  
023043688 0856  023043690 0857  023043691 0858  023043694 0859  





SEQUENCE NUMBER 0001   CDC = PL1

023043697 0860  023043699 0861  023043700 0862  023043702 0863  
023043703 0864  023043704 0865  023043705 0866  023043711 0867  
Total number of Dig-ups or Emergency 0002
Total number of Short Notices        0000
Total number of Priority Notices     0012
Total number of Routine Notices      0214
Total number of Messages for PL1     0228
If this audit does not match your manual tracking 
then call the Call Center and request a retransmission.





SEQUENCE NUMBER 0001   CDC = PR1

TESS audit for CDC of PR1 on 021031
Serial# & Seq#  Serial# & Seq#  Serial# & Seq#  Serial# & Seq#
023040811 0001  023040813 0003  023040814 0005  023040816 0009  
023040975 0048  023041070 0077  023041079 0080  023041422 0134  
023041502 0198  023041746 0250  023041765 0255  023041778 0256  
023041795 0263  023041917 0358  023041932 0361  023041995 0376  
023046167 0545  023042670 0574  023042917 0604  023043313 0693  
023043318 0694  023043610 0814  023043626 0817  
Total number of Dig-ups or Emergency 0006
Total number of Short Notices        0000
Total number of Priority Notices     0001
Total number of Routine Notices      0016
Total number of Messages for PR1     0023
If this audit does not match your manual tracking 
then call the Call Center and request a retransmission.





SEQUENCE NUMBER 0001   CDC = PRE

TESS audit for CDC of PRE on 021031
Serial# & Seq#  Serial# & Seq#  Serial# & Seq#  Serial# & Seq#
023040975 0049  023041079 0081  023041422 0135  023041778 0257  
023041795 0265  023046199 0525  023046218 0526  023042670 0575  
023042917 0605  023042966 0615  023043226 0681  
Total number of Dig-ups or Emergency 0003
Total number of Short Notices        0000
Total number of Priority Notices     0003
Total number of Routine Notices      0005
Total number of Messages for PRE     0011
If this audit does not match your manual tracking 
then call the Call Center and request a retransmission.





SEQUENCE NUMBER 0001   CDC = SSE

TESS audit for CDC of SSE on 021031
Serial# & Seq#  Serial# & Seq#  Serial# & Seq#  Serial# & Seq#
023040811 0002  023040813 0004  023040814 0006  023040816 0010  
023041502 0199  023042376 0482  023042519 0532  023043028 0630  
023043517 0797  
Total number of Dig-ups or Emergency 0002
Total number of Short Notices        0000
Total number of Priority Notices     0000
Total number of Routine Notices      0007
Total number of Messages for SSE     0009
If this audit does not match your manual tracking 
then call the Call Center and request a retransmission.





SEQUENCE NUMBER 0001   CDC = TL1

TESS audit for CDC of TL1 on 021031
Serial# & Seq#  Serial# & Seq#  Serial# & Seq#  Serial# & Seq#
023041199 0103  023041613 0228  023041788 0269  023041792 0273  
023041797 0276  023041863 0328  023041870 0333  023041875 0339  
023041997 0347  023042085 0387  023042083 0399  023045959 0464  
023042405 0480  023042687 0578  023042920 0608  023043003 0626  
023043006 0628  023040074 0725  023040080 0753  023040081 0756  
023040082 0758  023040083 0760  023040084 0762  023040085 0764  
023040086 0766  023040087 0768  023040088 0770  023040089 0772  
023040090 0774  023040091 0776  023040092 0778  023040093 0780  
023040094 0782  023040095 0784  023040096 0786  023043532 0793  
023043529 0798  023043536 0801  023043672 0843  023043721 0869  
Total number of Dig-ups or Emergency 0001
Total number of Short Notices        0002
Total number of Priority Notices     0001
Total number of Routine Notices      0036
Total number of Messages for TL1     0040
If this audit does not match your manual tracking 
then call the Call Center and request a retransmission.





SEQUENCE NUMBER 0001   CDC = TLE

TESS audit for CDC of TLE on 021031
Serial# & Seq#  Serial# & Seq#  Serial# & Seq#  Serial# & Seq#
023041199 0115  023041613 0229  023041788 0270  023041792 0274  
023041797 0277  023041863 0329  023041870 0334  023041875 0340  
023041997 0349  023042085 0388  023042083 0400  023045992 0470  
023042405 0481  023046163 0524  023042687 0579  023042920 0609  
023043003 0627  023043006 0629  023043061 0638  023040074 0726  
023040080 0754  023040081 0757  023040082 0759  023040083 0761  
023040084 0763  023040085 0765  023040086 0767  023040087 0769  
023040088 0771  023040089 0773  023040090 0775  023040091 0777  
023040092 0779  023040093 0781  023040094 0783  023040095 0785  
023040096 0787  023043532 0794  023043672 0844  023043721 0870  
Total number of Dig-ups or Emergency 0002
Total number of Short Notices        0002
Total number of Priority Notices     0003
Total number of Routine Notices      0033
Total number of Messages for TLE     0040
If this audit does not match your manual tracking 
then call the Call Center and request a retransmission.







