
Audit
From AROCS
VALOR TELECOMMUNICATIONS, LLC
VALOR
Audit for 10/20/02

For Code VALOR

Type  Seq#  Ticket                    Status                                
----  ----  ------------------------  ------------------------------------- 
      0001  021020-0003               Delivered

Normal    : 0
Resend    : 0
Emergency : 1
Failed    : 0
Total for : 1




Legend
-----------------------
  - Normal
* - Resend
! - Emergency


+++A.+Mvw
