AUDIT	2004/06/22 00:02:31	00001

*********************************************************************
*  This is your End of Day Audit from Qwest Local Network (QLN)     *
*  for the period 2004/06/21 00:01:05 thru 2004/06/22 00:01:05.     *
*********************************************************************

Service Area: 303342
 00088 UNCC2004062100238 09:02   00089 UNCC2004062100239 09:02
 00106 UNCC2004062100260 09:31   00128 UNCC2004062100246 09:33
 00130 UNCC2004062100247 09:33   00256 UNCC2004062100633 10:11
 00267 UNCC2004062100488 10:12   00274 UNCC2004062100550 10:12
 00307 UNCC2004062100634 10:15   00308 UNCC2004062100642 10:15
 00309 UNCC2004062100641 10:15   00339 UNCC2004062100664 10:38
 01192 UNCC2004062102239 15:04


Service Area: 303441
 00004 UNCC2004062100080 07:07   00005 UNCC2004062100081 07:07
 00006 UNCC2004062100082 07:08   00007 UNCC2004062100083 07:08
 00008 UNCC2004062100084 07:08   00009 UNCC2004062100085 08:04
 00010 UNCC2004062100086 08:04   00011 UNCC2004062100087 08:04
 00012 UNCC2004062100088 08:04   00013 UNCC2004062100089 08:04
 00087 UNCC2004062100207 09:02  *00100 UNCC2004062100245 09:02
 00107 UNCC2004062100258 09:31   00132 UNCC2004062100219 09:33
 00155 UNCC2004062100318 09:43  *00200 UNCC2004062100288 09:47
 00216 UNCC2004062100414 09:50  *00218 UNCC2004062100539 09:53
 00223 UNCC2004062100434 09:55   00299 UNCC2004062100626 10:13
 00320 UNCC2004062100457 10:24   00327 UNCC2004062100598 10:33
 00338 UNCC2004062100671 10:38   00486 UNCC2004062100672 11:08
 00512 UNCC2004062101079 11:17   00518 UNCC2004062101100 11:18
 00693 UNCC2004062101350 11:51   00711 UNCC2004062101383 12:00
 00714 UNCC2004062101384 12:00   00742 UNCC2004062100208 12:14
 00774 UNCC2004062100669 12:31   00846 UNCC2004062101628 12:59
 00847 UNCC2004062101629 12:59   00854 UNCC2004062101627 13:05
 00861 UNCC2004062101652 13:06   00863 UNCC2004062101660 13:06
 00922 UNCC2004062101759 13:24   00925 UNCC2004062101765 13:24
 00987 UNCC2004062101878 13:56  *01026 UNCC2004062101946 14:06
 01030 UNCC2004062101958 14:11   01031 UNCC2004062101959 14:11
 01040 UNCC2004062101975 14:12  *01073 UNCC2004062102032 14:27
 01079 UNCC2004062101717 14:35   01083 UNCC2004062101993 14:35
 01086 UNCC2004062102008 14:35   01099 UNCC2004062102043 14:35
 01121 UNCC2004062102077 14:45   01130 UNCC2004062102101 14:45
 01132 UNCC2004062102102 14:46  *01137 UNCC2004062102134 14:48
 01268 UNCC2004062102247 15:17   01275 UNCC2004062102365 15:17
 01278 UNCC2004062102366 15:17   01279 UNCC2004062102367 15:17
 01281 UNCC2004062102368 15:17   01282 UNCC2004062102369 15:17
 01296 UNCC2004062102396 15:22   01319 UNCC2004062102179 15:29
 01334 UNCC2004062102452 15:29   01364 UNCC2004062102510 15:37
 01403 UNCC2004062102511 15:49   01416 UNCC2004062102587 15:50
 01427 UNCC2004062102639 15:50   01440 UNCC2004062102620 15:54
 01441 UNCC2004062102638 15:54   01477 UNCC2004062102724 16:19
 01481 UNCC2004062102667 16:27   01482 UNCC2004062102668 16:27
 01483 UNCC2004062102669 16:27   01484 UNCC2004062102689 16:27
 01485 UNCC2004062102690 16:27   01489 UNCC2004062102740 16:27
 01491 UNCC2004062102767 16:27  *01535 UNCC2004062102891 16:43
 01547 UNCC2004062102788 16:43   01551 UNCC2004062102835 16:43
 01561 UNCC2004062102861 16:44   01562 UNCC2004062102862 16:44
 01564 UNCC2004062102870 16:44   01663 UNCC2004062103052 17:07
 01664 UNCC2004062103058 17:07   01665 UNCC2004062103062 17:07
*01679 UNCC2004062103121 17:07   01794 UNCC2004062100635 17:51
 01864 UNCC2004062101960 19:56


Service Area: 303778
 00002 UNCC2004062100078 06:59   00003 UNCC2004062100079 07:07
*00014 UNCC2004062100094 08:04  *00015 UNCC2004062100099 08:07
*00016 UNCC2004062100101 08:08  *00017 UNCC2004062100102 08:08
*00018 UNCC2004062100128 08:15  *00019 UNCC2004062100137 08:21
 00020 UNCC2004062100114 08:22   00021 UNCC2004062100116 08:22
 00022 UNCC2004062100138 08:22  *00023 UNCC2004062100139 08:22
*00024 UNCC2004062100144 08:27  *00025 UNCC2004062100150 08:30
 00026 UNCC2004062100106 08:32   00027 UNCC2004062100149 08:32
*00028 UNCC2004062100157 08:32   00029 UNCC2004062100093 08:38
 00030 UNCC2004062100090 08:38   00031 UNCC2004062100091 08:38
 00032 UNCC2004062100092 08:38   00033 UNCC2004062100104 08:38
 00034 UNCC2004062100107 08:38   00035 UNCC2004062100108 08:38
 00036 UNCC2004062100109 08:38   00037 UNCC2004062100112 08:38
 00038 UNCC2004062100113 08:38   00039 UNCC2004062100125 08:38
 00040 UNCC2004062100126 08:38   00041 UNCC2004062100105 08:38
 00042 UNCC2004062100105 08:38   00043 UNCC2004062100127 08:38
 00044 UNCC2004062100122 08:40   00045 UNCC2004062100117 08:40
 00046 UNCC2004062100123 08:40   00047 UNCC2004062100129 08:40
 00048 UNCC2004062100151 08:40   00049 UNCC2004062100151 08:40
 00052 UNCC2004062100124 08:46   00053 UNCC2004062100164 08:46
 00056 UNCC2004062100131 08:47  *00057 UNCC2004062100200 08:47
*00058 UNCC2004062100201 08:47   00059 UNCC2004062100140 08:55
 00060 UNCC2004062100142 08:55   00061 UNCC2004062100145 08:55
 00062 UNCC2004062100146 08:55   00063 UNCC2004062100174 08:55
 00064 UNCC2004062100175 08:55   00065 UNCC2004062100176 08:55
 00066 UNCC2004062100177 08:55   00067 UNCC2004062100134 08:55
 00068 UNCC2004062100143 08:55   00069 UNCC2004062100152 08:55
 00070 UNCC2004062100153 08:55   00071 UNCC2004062100154 08:55
 00072 UNCC2004062100156 08:55   00073 UNCC2004062100159 08:55
 00074 UNCC2004062100162 08:55  *00075 UNCC2004062100173 08:58
*00076 UNCC2004062100171 08:58  *00077 UNCC2004062100173 08:58
*00078 UNCC2004062100171 08:58  *00079 UNCC2004062100199 08:58
*00080 UNCC2004062100199 08:58   00081 UNCC2004062100188 08:58
 00082 UNCC2004062100188 08:58  *00083 UNCC2004062100230 08:58
 00084 UNCC2004062100189 09:02   00085 UNCC2004062100204 09:02
 00086 UNCC2004062100210 09:02   00090 UNCC2004062100178 09:02
 00091 UNCC2004062100179 09:02   00092 UNCC2004062100190 09:02
 00093 UNCC2004062100197 09:02   00094 UNCC2004062100205 09:02
 00095 UNCC2004062100206 09:02   00096 UNCC2004062100232 09:02
 00097 UNCC2004062100234 09:02   00098 UNCC2004062100235 09:02
*00099 UNCC2004062100242 09:02   00101 UNCC2004062100115 09:23
 00102 UNCC2004062100262 09:23   00103 UNCC2004062100268 09:23
 00104 UNCC2004062100259 09:31   00105 UNCC2004062100250 09:31
 00108 UNCC2004062100252 09:31   00109 UNCC2004062100255 09:31
 00110 UNCC2004062100266 09:31   00111 UNCC2004062100265 09:31
 00112 UNCC2004062100267 09:31   00113 UNCC2004062100263 09:31
 00114 UNCC2004062100263 09:31   00115 UNCC2004062100275 09:31
 00116 UNCC2004062100275 09:31   00117 UNCC2004062100278 09:31
 00118 UNCC2004062100278 09:31   00119 UNCC2004062100279 09:31
 00120 UNCC2004062100279 09:31   00121 UNCC2004062100280 09:31
 00122 UNCC2004062100280 09:31   00123 UNCC2004062100310 09:31
 00124 UNCC2004062100331 09:31   00125 UNCC2004062100291 09:32
*00126 UNCC2004062100425 09:32   00129 UNCC2004062100249 09:33
 00131 UNCC2004062100214 09:33   00133 UNCC2004062100269 09:33
 00134 UNCC2004062100272 09:33  *00135 UNCC2004062100437 09:33
 00136 UNCC2004062100305 09:37  *00137 UNCC2004062100456 09:37
 00138 UNCC2004062100293 09:43   00139 UNCC2004062100282 09:43
 00140 UNCC2004062100283 09:43   00141 UNCC2004062100155 09:43
*00142 UNCC2004062100462 09:43   00143 UNCC2004062100216 09:43
 00144 UNCC2004062100217 09:43   00145 UNCC2004062100264 09:43
 00146 UNCC2004062100281 09:43   00147 UNCC2004062100301 09:43
 00148 UNCC2004062100302 09:43   00149 UNCC2004062100303 09:43
*00150 UNCC2004062100427 09:43   00151 UNCC2004062100300 09:43
*00152 UNCC2004062100459 09:43   00153 UNCC2004062100309 09:43
 00154 UNCC2004062100335 09:43   00156 UNCC2004062100320 09:43
 00157 UNCC2004062100330 09:43   00158 UNCC2004062100336 09:43
 00159 UNCC2004062100321 09:43   00160 UNCC2004062100333 09:43
 00161 UNCC2004062100333 09:43   00162 UNCC2004062100322 09:43
 00163 UNCC2004062100332 09:43   00164 UNCC2004062100332 09:43
 00165 UNCC2004062100323 09:43   00166 UNCC2004062100324 09:43
 00167 UNCC2004062100325 09:43   00168 UNCC2004062100327 09:43
 00169 UNCC2004062100328 09:43   00170 UNCC2004062100329 09:43
 00171 UNCC2004062100420 09:43   00172 UNCC2004062100432 09:43
*00173 UNCC2004062100417 09:45  *00174 UNCC2004062100317 09:45
 00175 UNCC2004062100271 09:45   00176 UNCC2004062100297 09:45
 00177 UNCC2004062100341 09:45   00178 UNCC2004062100345 09:45
 00179 UNCC2004062100346 09:45   00180 UNCC2004062100347 09:45
 00181 UNCC2004062100348 09:45   00182 UNCC2004062100349 09:45
 00183 UNCC2004062100351 09:45   00184 UNCC2004062100343 09:45
 00185 UNCC2004062100355 09:45   00186 UNCC2004062100356 09:45
 00187 UNCC2004062100357 09:45   00188 UNCC2004062100358 09:45
 00189 UNCC2004062100394 09:45   00190 UNCC2004062100395 09:45
*00191 UNCC2004062100400 09:45  *00192 UNCC2004062100479 09:45
*00193 UNCC2004062100476 09:45  *00194 UNCC2004062100485 09:45
*00195 UNCC2004062100489 09:45   00196 UNCC2004062100393 09:46
*00197 UNCC2004062100213 09:46  *00198 UNCC2004062100231 09:46
*00199 UNCC2004062100287 09:46   00201 UNCC2004062100390 09:47
 00202 UNCC2004062100396 09:47   00203 UNCC2004062100397 09:47
*00204 UNCC2004062100313 09:47  *00205 UNCC2004062100478 09:47
*00206 UNCC2004062100315 09:47   00207 UNCC2004062100402 09:47
 00208 UNCC2004062100392 09:47   00209 UNCC2004062100398 09:47
 00210 UNCC2004062100399 09:47   00211 UNCC2004062100403 09:47
 00212 UNCC2004062100412 09:47   00213 UNCC2004062100446 09:47
*00214 UNCC2004062100477 09:47   00215 UNCC2004062100494 09:47
*00217 UNCC2004062100518 09:50  *00219 UNCC2004062100540 09:54
*00220 UNCC2004062100549 09:54  *00221 UNCC2004062100532 09:54
 00222 UNCC2004062100535 09:55   00224 UNCC2004062100438 09:55
 00225 UNCC2004062100466 09:55   00226 UNCC2004062100499 09:56
 00227 UNCC2004062100509 09:56   00228 UNCC2004062100492 09:56
 00229 UNCC2004062100487 09:56   00230 UNCC2004062100517 09:56
*00232 UNCC2004062100557 09:56  *00233 UNCC2004062100569 09:57
 00234 UNCC2004062100465 10:03   00235 UNCC2004062100486 10:03
 00236 UNCC2004062100500 10:03   00237 UNCC2004062100500 10:03
 00238 UNCC2004062100537 10:03  *00239 UNCC2004062100596 10:04
*00240 UNCC2004062100604 10:06  *00241 UNCC2004062100576 10:06
 00242 UNCC2004062100555 10:06   00243 UNCC2004062100559 10:06
 00244 UNCC2004062100560 10:06   00245 UNCC2004062100573 10:06
 00246 UNCC2004062100575 10:06   00247 UNCC2004062100582 10:06
 00248 UNCC2004062100583 10:06   00249 UNCC2004062100584 10:06
 00250 UNCC2004062100585 10:06   00251 UNCC2004062100597 10:06
 00252 UNCC2004062100599 10:06   00253 UNCC2004062100593 10:06
 00254 UNCC2004062100600 10:06   00255 UNCC2004062100586 10:11
 00257 UNCC2004062100442 10:11   00258 UNCC2004062100449 10:12
 00259 UNCC2004062100443 10:12   00260 UNCC2004062100444 10:12
 00261 UNCC2004062100455 10:12   00262 UNCC2004062100458 10:12
 00263 UNCC2004062100472 10:12   00264 UNCC2004062100467 10:12
 00265 UNCC2004062100507 10:12   00266 UNCC2004062100508 10:12
 00268 UNCC2004062100491 10:12   00269 UNCC2004062100515 10:12
 00270 UNCC2004062100533 10:12   00271 UNCC2004062100545 10:12
 00272 UNCC2004062100541 10:12   00273 UNCC2004062100542 10:12
 00275 UNCC2004062100548 10:12   00276 UNCC2004062100563 10:12
 00277 UNCC2004062100564 10:12   00278 UNCC2004062100568 10:12
 00279 UNCC2004062100561 10:12   00280 UNCC2004062100565 10:12
 00281 UNCC2004062100587 10:12   00282 UNCC2004062100588 10:12
 00283 UNCC2004062100589 10:12   00284 UNCC2004062100590 10:12
 00285 UNCC2004062100591 10:12   00286 UNCC2004062100592 10:12
 00287 UNCC2004062100605 10:12   00288 UNCC2004062100270 10:12
 00289 UNCC2004062100544 10:12   00290 UNCC2004062100546 10:12
 00291 UNCC2004062100608 10:12   00292 UNCC2004062100607 10:12
 00293 UNCC2004062100610 10:12   00294 UNCC2004062100611 10:13
 00295 UNCC2004062100612 10:13   00296 UNCC2004062100616 10:13
 00297 UNCC2004062100613 10:13   00298 UNCC2004062100620 10:13
 00300 UNCC2004062100617 10:13   00301 UNCC2004062100621 10:13
 00302 UNCC2004062100614 10:13   00303 UNCC2004062100614 10:13
 00304 UNCC2004062100627 10:13   00305 UNCC2004062100628 10:13
*00306 UNCC2004062100632 10:13   00310 UNCC2004062100440 10:15
 00311 UNCC2004062100445 10:15   00312 UNCC2004062100510 10:15
 00313 UNCC2004062100511 10:15   00314 UNCC2004062100574 10:15
 00315 UNCC2004062100646 10:15  *00316 UNCC2004062100647 10:15
 00317 UNCC2004062100651 10:18  *00318 UNCC2004062100630 10:18
 00319 UNCC2004062100639 10:18   00321 UNCC2004062100506 10:24
 00322 UNCC2004062100512 10:24   00323 UNCC2004062100650 10:24
 00324 UNCC2004062100158 10:26  *00326 UNCC2004062100656 10:26
 00328 UNCC2004062100615 10:33   00329 UNCC2004062100619 10:33
 00330 UNCC2004062100660 10:33   00331 UNCC2004062100411 10:34
*00332 UNCC2004062100754 10:34  *00333 UNCC2004062100708 10:36
*00334 UNCC2004062100688 10:36  *00335 UNCC2004062100696 10:36
*00336 UNCC2004062100749 10:37  *00337 UNCC2004062100753 10:37
 00340 UNCC2004062100602 10:38   00341 UNCC2004062100666 10:38
 00342 UNCC2004062100707 10:38   00343 UNCC2004062100692 10:38
 00344 UNCC2004062100676 10:38   00345 UNCC2004062100677 10:38
 00346 UNCC2004062100693 10:38   00347 UNCC2004062100678 10:38
 00348 UNCC2004062100679 10:38   00349 UNCC2004062100680 10:38
*00350 UNCC2004062100792 10:38  *00351 UNCC2004062100793 10:38
 00352 UNCC2004062100798 10:41   00353 UNCC2004062100800 10:41
 00355 UNCC2004062100847 10:47   00356 UNCC2004062100840 10:47
 00357 UNCC2004062100845 10:47   00358 UNCC2004062100849 10:47
*00359 UNCC2004062100895 10:47   00360 UNCC2004062100850 10:47
 00361 UNCC2004062100852 10:47   00362 UNCC2004062100751 10:47
 00363 UNCC2004062100854 10:47   00364 UNCC2004062100856 10:47
 00365 UNCC2004062100859 10:47   00366 UNCC2004062100860 10:47
 00367 UNCC2004062100861 10:47   00368 UNCC2004062100864 10:47
 00369 UNCC2004062100870 10:47   00370 UNCC2004062100871 10:47
 00371 UNCC2004062100795 10:48   00372 UNCC2004062100873 10:48
 00373 UNCC2004062100874 10:48   00374 UNCC2004062100796 10:48
 00375 UNCC2004062100876 10:48   00376 UNCC2004062100878 10:48
 00377 UNCC2004062100695 10:48   00378 UNCC2004062100879 10:48
 00379 UNCC2004062100799 10:48   00380 UNCC2004062100880 10:48
 00381 UNCC2004062100801 10:48   00382 UNCC2004062100883 10:48
 00383 UNCC2004062100802 10:48   00384 UNCC2004062100803 10:48
 00385 UNCC2004062100804 10:48   00386 UNCC2004062100809 10:48
 00387 UNCC2004062100810 10:48   00388 UNCC2004062100812 10:48
 00389 UNCC2004062100813 10:48   00390 UNCC2004062100888 10:48
 00391 UNCC2004062100889 10:48   00392 UNCC2004062100890 10:48
 00393 UNCC2004062100891 10:48   00395 UNCC2004062100805 10:54
 00396 UNCC2004062100806 10:54   00397 UNCC2004062100808 10:54
 00398 UNCC2004062100814 10:54   00399 UNCC2004062100815 10:54
 00400 UNCC2004062100817 10:54   00401 UNCC2004062100818 10:54
 00402 UNCC2004062100757 10:54   00403 UNCC2004062100825 10:54
 00404 UNCC2004062100903 10:54   00405 UNCC2004062100908 10:54
 00406 UNCC2004062100909 10:54   00407 UNCC2004062100858 10:54
 00408 UNCC2004062100862 10:54   00409 UNCC2004062100943 10:54
 00410 UNCC2004062100954 10:54   00411 UNCC2004062100816 10:54
 00412 UNCC2004062100929 10:54   00413 UNCC2004062100944 10:54
 00414 UNCC2004062100935 10:54   00415 UNCC2004062100955 10:54
 00416 UNCC2004062100961 10:55   00417 UNCC2004062100964 10:55
 00418 UNCC2004062100928 10:57   00419 UNCC2004062100930 10:57
 00420 UNCC2004062100931 10:57   00421 UNCC2004062100932 10:57
 00422 UNCC2004062100939 10:57   00423 UNCC2004062100940 10:57
 00424 UNCC2004062100948 10:57   00425 UNCC2004062100941 10:57
 00426 UNCC2004062100942 10:57   00427 UNCC2004062100957 10:57
 00428 UNCC2004062100945 10:57   00429 UNCC2004062100960 10:57
 00430 UNCC2004062100965 10:57   00431 UNCC2004062100977 10:57
 00432 UNCC2004062100983 10:57   00433 UNCC2004062100978 10:57
 00434 UNCC2004062100986 10:57   00435 UNCC2004062100979 10:57
 00436 UNCC2004062100980 10:57   00437 UNCC2004062100981 10:57
 00438 UNCC2004062100988 10:57   00439 UNCC2004062100996 10:57
 00440 UNCC2004062100982 10:57   00441 UNCC2004062100989 10:57
 00442 UNCC2004062100997 10:57   00443 UNCC2004062100990 10:57
 00444 UNCC2004062100998 10:58   00445 UNCC2004062100993 10:58
 00446 UNCC2004062101005 10:58  *00447 UNCC2004062100994 10:58
*00448 UNCC2004062101007 10:59   00449 UNCC2004062100869 11:04
 00450 UNCC2004062100872 11:04   00451 UNCC2004062100875 11:04
 00452 UNCC2004062100797 11:04   00453 UNCC2004062100881 11:04
 00454 UNCC2004062100882 11:04   00455 UNCC2004062100827 11:04
 00456 UNCC2004062100887 11:04   00457 UNCC2004062100962 11:04
 00458 UNCC2004062101010 11:04   00459 UNCC2004062101020 11:04
 00460 UNCC2004062101023 11:04   00461 UNCC2004062100819 11:04
 00462 UNCC2004062100905 11:04   00463 UNCC2004062100947 11:04
 00464 UNCC2004062100949 11:04   00465 UNCC2004062100951 11:04
 00466 UNCC2004062101026 11:04   00467 UNCC2004062101027 11:04
 00468 UNCC2004062101034 11:04   00469 UNCC2004062101036 11:04
*00470 UNCC2004062101040 11:04   00471 UNCC2004062101048 11:04
*00472 UNCC2004062101019 11:07   00473 UNCC2004062101051 11:07
 00474 UNCC2004062100822 11:07   00475 UNCC2004062100884 11:07
 00476 UNCC2004062100823 11:07   00477 UNCC2004062100950 11:07
 00478 UNCC2004062100985 11:07   00479 UNCC2004062100987 11:07
 00480 UNCC2004062101017 11:07   00481 UNCC2004062101018 11:07
 00482 UNCC2004062101032 11:07   00483 UNCC2004062101047 11:07
 00484 UNCC2004062101049 11:07   00485 UNCC2004062100649 11:08
*00487 UNCC2004062101058 11:08  *00488 UNCC2004062101062 11:08
 00489 UNCC2004062100851 11:13   00490 UNCC2004062100853 11:13
 00491 UNCC2004062100855 11:13   00492 UNCC2004062100857 11:13
 00493 UNCC2004062100831 11:13   00494 UNCC2004062100900 11:13
 00495 UNCC2004062100917 11:13   00496 UNCC2004062100893 11:13
 00497 UNCC2004062100901 11:13   00498 UNCC2004062100894 11:13
 00499 UNCC2004062100946 11:14   00500 UNCC2004062101000 11:14
 00501 UNCC2004062101070 11:14   00502 UNCC2004062101073 11:14
 00503 UNCC2004062101075 11:14  *00504 UNCC2004062101087 11:14
*00505 UNCC2004062100896 11:17   00506 UNCC2004062100892 11:17
 00507 UNCC2004062100938 11:17   00508 UNCC2004062100984 11:17
 00509 UNCC2004062101060 11:17   00510 UNCC2004062101078 11:17
 00511 UNCC2004062101076 11:17   00513 UNCC2004062101090 11:18
 00514 UNCC2004062101092 11:18   00515 UNCC2004062101094 11:18
 00516 UNCC2004062101095 11:18   00517 UNCC2004062101096 11:18
 00519 UNCC2004062101101 11:18   00520 UNCC2004062101103 11:18
 00521 UNCC2004062100165 11:19   00522 UNCC2004062101109 11:19
 00523 UNCC2004062101110 11:19  *00525 UNCC2004062100999 11:20
 00526 UNCC2004062100169 11:20   00527 UNCC2004062101119 11:20
 00528 UNCC2004062101111 11:21   00529 UNCC2004062101117 11:21
*00530 UNCC2004062101030 11:22  *00531 UNCC2004062101035 11:22
*00532 UNCC2004062101041 11:22  *00533 UNCC2004062101054 11:22
*00534 UNCC2004062101080 11:22   00535 UNCC2004062101120 11:22
 00536 UNCC2004062101121 11:22   00537 UNCC2004062101122 11:22
 00538 UNCC2004062101125 11:23   00539 UNCC2004062101126 11:23
 00540 UNCC2004062101127 11:23   00541 UNCC2004062101128 11:23
 00542 UNCC2004062101136 11:23   00543 UNCC2004062101129 11:23
 00544 UNCC2004062101137 11:23   00545 UNCC2004062101130 11:23
 00546 UNCC2004062101145 11:23   00547 UNCC2004062101146 11:23
 00548 UNCC2004062101147 11:23   00549 UNCC2004062101039 11:23
 00550 UNCC2004062101071 11:23   00551 UNCC2004062101088 11:23
 00552 UNCC2004062101089 11:23   00553 UNCC2004062101148 11:23
 00554 UNCC2004062101153 11:23   00555 UNCC2004062101157 11:23
 00556 UNCC2004062100534 11:26   00557 UNCC2004062101061 11:26
 00558 UNCC2004062101072 11:26   00559 UNCC2004062101099 11:26
 00561 UNCC2004062100933 11:27   00562 UNCC2004062101077 11:27
 00563 UNCC2004062101091 11:27   00564 UNCC2004062101107 11:27
 00565 UNCC2004062101112 11:27   00566 UNCC2004062100952 11:27
 00567 UNCC2004062101116 11:27   00568 UNCC2004062101149 11:27
 00569 UNCC2004062101160 11:27   00570 UNCC2004062101161 11:27
 00571 UNCC2004062101163 11:27   00572 UNCC2004062101173 11:27
 00573 UNCC2004062101168 11:27   00574 UNCC2004062101169 11:27
 00575 UNCC2004062101178 11:27   00576 UNCC2004062101185 11:27
 00577 UNCC2004062101187 11:27   00578 UNCC2004062101188 11:27
 00579 UNCC2004062101189 11:27   00580 UNCC2004062101195 11:27
 00581 UNCC2004062101190 11:27   00582 UNCC2004062101191 11:27
*00583 UNCC2004062101192 11:27  *00584 UNCC2004062101193 11:28
 00585 UNCC2004062101197 11:28   00586 UNCC2004062101196 11:28
 00587 UNCC2004062101207 11:29   00588 UNCC2004062101138 11:29
 00589 UNCC2004062101139 11:29   00590 UNCC2004062101201 11:29
 00591 UNCC2004062101205 11:29  *00592 UNCC2004062101209 11:29
*00593 UNCC2004062101200 11:36   00594 UNCC2004062100168 11:37
 00595 UNCC2004062100240 11:37   00596 UNCC2004062100543 11:37
 00597 UNCC2004062100691 11:37   00598 UNCC2004062100675 11:37
 00599 UNCC2004062100902 11:37   00600 UNCC2004062100906 11:37
 00601 UNCC2004062101006 11:37   00602 UNCC2004062101011 11:37
 00603 UNCC2004062101152 11:37   00604 UNCC2004062101210 11:37
 00605 UNCC2004062101221 11:37   00606 UNCC2004062101213 11:37
 00607 UNCC2004062101220 11:37   00608 UNCC2004062101222 11:37
*00609 UNCC2004062101211 11:38   00610 UNCC2004062100254 11:38
 00611 UNCC2004062100251 11:38  *00612 UNCC2004062101224 11:38
*00614 UNCC2004062101245 11:39  *00615 UNCC2004062101244 11:39
*00616 UNCC2004062101246 11:39   00617 UNCC2004062101031 11:39
 00618 UNCC2004062101055 11:39   00619 UNCC2004062101230 11:39
 00620 UNCC2004062101250 11:39   00621 UNCC2004062101253 11:39
 00622 UNCC2004062101254 11:39   00623 UNCC2004062101059 11:43
 00624 UNCC2004062101097 11:43   00625 UNCC2004062101097 11:43
 00626 UNCC2004062101108 11:43   00627 UNCC2004062101267 11:43
 00628 UNCC2004062101268 11:43   00629 UNCC2004062101258 11:43
 00630 UNCC2004062101269 11:43   00631 UNCC2004062101270 11:43
 00632 UNCC2004062101262 11:43   00633 UNCC2004062101271 11:43
 00634 UNCC2004062101273 11:43   00635 UNCC2004062101275 11:43
 00636 UNCC2004062101276 11:43   00637 UNCC2004062101277 11:43
 00638 UNCC2004062101259 11:43   00639 UNCC2004062101278 11:43
 00640 UNCC2004062101280 11:43   00641 UNCC2004062101281 11:43
 00642 UNCC2004062101282 11:43   00643 UNCC2004062101283 11:43
 00644 UNCC2004062101284 11:43   00645 UNCC2004062101260 11:43
 00646 UNCC2004062101285 11:43   00647 UNCC2004062101287 11:43
 00648 UNCC2004062101288 11:43   00649 UNCC2004062101289 11:43
 00650 UNCC2004062101290 11:43   00651 UNCC2004062101291 11:43
 00652 UNCC2004062101292 11:43   00653 UNCC2004062101293 11:43
 00654 UNCC2004062101303 11:43   00655 UNCC2004062101294 11:44
 00656 UNCC2004062101295 11:44   00657 UNCC2004062101296 11:44
 00658 UNCC2004062101297 11:44   00659 UNCC2004062101298 11:44
 00660 UNCC2004062101299 11:44  *00661 UNCC2004062101301 11:46
 00662 UNCC2004062100307 11:46   00663 UNCC2004062101206 11:46
 00664 UNCC2004062101302 11:46   00665 UNCC2004062101308 11:46
 00666 UNCC2004062101311 11:46   00667 UNCC2004062101313 11:46
 00668 UNCC2004062101312 11:46   00669 UNCC2004062101307 11:46
 00670 UNCC2004062101314 11:46   00671 UNCC2004062101330 11:46
 00672 UNCC2004062101324 11:46   00673 UNCC2004062101327 11:47
 00674 UNCC2004062101333 11:47  *00676 UNCC2004062101340 11:49
 00677 UNCC2004062101223 11:49   00678 UNCC2004062101249 11:49
 00679 UNCC2004062101257 11:49   00680 UNCC2004062101305 11:49
 00681 UNCC2004062101323 11:49   00682 UNCC2004062100389 11:49
 00683 UNCC2004062101326 11:49   00684 UNCC2004062101331 11:49
*00685 UNCC2004062101346 11:49   00686 UNCC2004062101274 11:50
 00687 UNCC2004062101342 11:51   00688 UNCC2004062101361 11:51
 00689 UNCC2004062101348 11:51   00690 UNCC2004062101348 11:51
 00691 UNCC2004062101349 11:51   00692 UNCC2004062101343 11:51
 00694 UNCC2004062101351 11:51   00695 UNCC2004062101352 11:51
 00696 UNCC2004062101345 11:51   00697 UNCC2004062101353 11:51
 00698 UNCC2004062101354 11:51   00699 UNCC2004062101355 11:51
 00700 UNCC2004062101356 11:51   00703 UNCC2004062101363 11:53
 00704 UNCC2004062101364 11:53   00705 UNCC2004062101366 11:53
*00706 UNCC2004062101367 11:53   00707 UNCC2004062100450 12:00
 00708 UNCC2004062100451 12:00   00709 UNCC2004062100474 12:00
 00710 UNCC2004062100493 12:00   00712 UNCC2004062101374 12:00
 00713 UNCC2004062101379 12:00   00715 UNCC2004062101380 12:00
 00716 UNCC2004062101381 12:01   00717 UNCC2004062101386 12:01
 00718 UNCC2004062101394 12:01   00719 UNCC2004062101395 12:01
 00720 UNCC2004062101396 12:01   00721 UNCC2004062100490 12:01
 00722 UNCC2004062100497 12:07   00723 UNCC2004062101444 12:07
 00724 UNCC2004062101410 12:07   00725 UNCC2004062101410 12:07
 00726 UNCC2004062101404 12:07   00727 UNCC2004062101405 12:07
 00728 UNCC2004062101408 12:07   00729 UNCC2004062101406 12:07
 00730 UNCC2004062101412 12:07   00731 UNCC2004062101413 12:07
*00732 UNCC2004062101431 12:07   00733 UNCC2004062101407 12:07
 00734 UNCC2004062101422 12:07   00735 UNCC2004062101424 12:07
 00736 UNCC2004062101430 12:07   00737 UNCC2004062101436 12:07
 00738 UNCC2004062101441 12:07   00739 UNCC2004062101442 12:07
 00740 UNCC2004062101447 12:07   00743 UNCC2004062100496 12:14
 00744 UNCC2004062101463 12:14   00745 UNCC2004062101450 12:14
 00746 UNCC2004062101465 12:14  *00747 UNCC2004062101471 12:14
 00748 UNCC2004062100551 12:14  *00750 UNCC2004062101472 12:14
*00751 UNCC2004062101494 12:19   00752 UNCC2004062101460 12:19
 00753 UNCC2004062101451 12:19   00754 UNCC2004062101466 12:19
 00755 UNCC2004062101462 12:19   00756 UNCC2004062101474 12:19
 00757 UNCC2004062101487 12:19   00758 UNCC2004062101475 12:19
 00759 UNCC2004062101489 12:19   00760 UNCC2004062101490 12:19
 00761 UNCC2004062101491 12:19   00762 UNCC2004062101493 12:19
 00763 UNCC2004062101492 12:19   00764 UNCC2004062100866 12:25
 00765 UNCC2004062100867 12:25   00766 UNCC2004062101024 12:25
 00767 UNCC2004062101514 12:25   00768 UNCC2004062101505 12:25
 00769 UNCC2004062101508 12:25   00770 UNCC2004062101509 12:25
 00771 UNCC2004062101510 12:25   00772 UNCC2004062101511 12:25
*00773 UNCC2004062101517 12:31   00775 UNCC2004062101124 12:31
 00776 UNCC2004062101135 12:31   00777 UNCC2004062101536 12:31
 00778 UNCC2004062101516 12:31   00779 UNCC2004062101537 12:31
 00780 UNCC2004062101538 12:31   00781 UNCC2004062101540 12:31
 00782 UNCC2004062101539 12:31   00783 UNCC2004062101541 12:31
 00784 UNCC2004062101547 12:31   00785 UNCC2004062101549 12:31
 00786 UNCC2004062101515 12:31   00787 UNCC2004062101524 12:31
 00788 UNCC2004062101534 12:31   00789 UNCC2004062101545 12:31
 00790 UNCC2004062101546 12:31   00791 UNCC2004062100807 12:34
 00792 UNCC2004062100811 12:34   00793 UNCC2004062101279 12:34
 00794 UNCC2004062101310 12:34  *00795 UNCC2004062101564 12:34
*00796 UNCC2004062101565 12:34   00797 UNCC2004061501475 12:40
 00798 UNCC2004062100885 12:40   00799 UNCC2004062100886 12:40
 00800 UNCC2004062101559 12:40   00801 UNCC2004062101562 12:40
 00802 UNCC2004062101575 12:40   00803 UNCC2004062101570 12:40
 00804 UNCC2004062101382 12:40   00805 UNCC2004062101458 12:40
 00806 UNCC2004062101459 12:40   00807 UNCC2004062101571 12:40
 00808 UNCC2004062101572 12:41   00809 UNCC2004062101573 12:41
 00810 UNCC2004062101461 12:41   00811 UNCC2004062101576 12:41
 00812 UNCC2004062100601 12:46   00813 UNCC2004062100907 12:46
 00814 UNCC2004062100910 12:46   00815 UNCC2004062101488 12:46
 00816 UNCC2004062101497 12:46   00817 UNCC2004062101560 12:46
 00818 UNCC2004062101561 12:46   00819 UNCC2004062101577 12:46
 00820 UNCC2004062101582 12:46   00821 UNCC2004062101583 12:46
 00822 UNCC2004062101587 12:46   00823 UNCC2004062101588 12:46
 00824 UNCC2004062101596 12:46   00825 UNCC2004062101598 12:46
*00826 UNCC2004062101599 12:46   00827 UNCC2004062101608 12:49
 00828 UNCC2004062101585 12:49   00829 UNCC2004062101610 12:49
 00830 UNCC2004062101613 12:49  *00831 UNCC2004062101611 12:49
*00832 UNCC2004062101616 12:49  *00833 UNCC2004062101592 12:51
*00834 UNCC2004062101595 12:51  *00835 UNCC2004062101601 12:51
*00836 UNCC2004062101603 12:51  *00837 UNCC2004062101604 12:51
*00838 UNCC2004062101605 12:51   00839 UNCC2004062101065 12:51
*00840 UNCC2004062101591 12:51  *00841 UNCC2004062101606 12:51
*00842 UNCC2004062101612 12:51   00843 UNCC2004062101617 12:59
 00844 UNCC2004062101619 12:59   00845 UNCC2004062101623 12:59
 00848 UNCC2004062101624 12:59   00849 UNCC2004062101634 13:00
 00850 UNCC2004062101643 13:00   00851 UNCC2004062101631 13:05
 00852 UNCC2004062101618 13:05   00853 UNCC2004062101626 13:05
 00855 UNCC2004062101630 13:05   00856 UNCC2004062101632 13:05
 00857 UNCC2004062101635 13:05   00858 UNCC2004062101633 13:05
 00859 UNCC2004062101640 13:05   00860 UNCC2004062101645 13:05
 00862 UNCC2004062101655 13:06   00864 UNCC2004062101662 13:06
 00865 UNCC2004062101658 13:06   00866 UNCC2004062101663 13:06
 00867 UNCC2004062101667 13:06   00868 UNCC2004062101665 13:06
 00869 UNCC2004062101669 13:06   00870 UNCC2004062101670 13:06
 00871 UNCC2004062101675 13:06   00872 UNCC2004062101664 13:08
 00873 UNCC2004062101666 13:08  *00874 UNCC2004062101691 13:08
 00875 UNCC2004062101674 13:08   00876 UNCC2004062101676 13:09
 00877 UNCC2004062101678 13:09   00878 UNCC2004062101679 13:09
 00879 UNCC2004062101680 13:09   00880 UNCC2004062101693 13:09
 00881 UNCC2004062101681 13:09   00882 UNCC2004062101682 13:09
 00883 UNCC2004062101684 13:09   00884 UNCC2004062101685 13:09
 00885 UNCC2004062101686 13:09   00886 UNCC2004062101687 13:09
 00887 UNCC2004062101688 13:09   00888 UNCC2004062101689 13:09
 00889 UNCC2004062101690 13:09   00891 UNCC2004062100431 13:12
 00892 UNCC2004062101654 13:12   00893 UNCC2004062101653 13:13
 00894 UNCC2004062101661 13:13   00895 UNCC2004062101701 13:13
 00896 UNCC2004062101702 13:13   00897 UNCC2004062101695 13:13
 00898 UNCC2004062101703 13:13   00899 UNCC2004062101699 13:13
 00900 UNCC2004062101700 13:13   00901 UNCC2004062101704 13:13
 00902 UNCC2004062101705 13:13   00903 UNCC2004062101708 13:13
*00904 UNCC2004062101709 13:13   00906 UNCC2004062101710 13:24
 00907 UNCC2004062101711 13:24   00908 UNCC2004062101712 13:24
 00909 UNCC2004062101714 13:24   00910 UNCC2004062101715 13:24
 00911 UNCC2004062101721 13:24   00912 UNCC2004062101722 13:24
 00913 UNCC2004062101732 13:24   00914 UNCC2004062101733 13:24
 00915 UNCC2004062101734 13:24   00916 UNCC2004062101735 13:24
 00917 UNCC2004062101736 13:24   00918 UNCC2004062101746 13:24
 00919 UNCC2004062101748 13:24   00920 UNCC2004062101749 13:24
 00921 UNCC2004062101758 13:24   00923 UNCC2004062101760 13:24
 00924 UNCC2004062101720 13:24   00928 UNCC2004062101423 13:34
 00929 UNCC2004062101771 13:34   00930 UNCC2004062101774 13:34
 00931 UNCC2004062101776 13:34   00932 UNCC2004062101779 13:34
 00933 UNCC2004062101782 13:34   00934 UNCC2004062101783 13:34
 00935 UNCC2004062101785 13:34   00936 UNCC2004062101796 13:34
 00937 UNCC2004062101797 13:34   00938 UNCC2004062101803 13:34
 00939 UNCC2004062101074 13:36   00940 UNCC2004062101151 13:36
 00941 UNCC2004062101150 13:36   00942 UNCC2004062101713 13:36
 00943 UNCC2004062101744 13:36   00944 UNCC2004062101790 13:36
 00945 UNCC2004062101799 13:36   00946 UNCC2004062101800 13:36
 00947 UNCC2004062101801 13:36   00948 UNCC2004062101802 13:36
 00949 UNCC2004062101804 13:36  *00950 UNCC2004062101808 13:36
*00951 UNCC2004062101807 13:36   00952 UNCC2004062101162 13:42
 00953 UNCC2004062101177 13:42   00954 UNCC2004062101199 13:42
 00955 UNCC2004062101248 13:42   00956 UNCC2004062101737 13:42
 00957 UNCC2004062101780 13:42   00958 UNCC2004062101784 13:42
 00959 UNCC2004062101789 13:42   00960 UNCC2004062101791 13:43
*00961 UNCC2004062101806 13:43   00962 UNCC2004062101811 13:43
*00963 UNCC2004062101817 13:43   00964 UNCC2004062101252 13:49
 00965 UNCC2004062101272 13:49   00966 UNCC2004062101306 13:49
 00967 UNCC2004062101813 13:49   00968 UNCC2004062101814 13:49
 00969 UNCC2004062101815 13:49   00970 UNCC2004062101840 13:49
 00971 UNCC2004062101841 13:49  *00972 UNCC2004062101828 13:49
 00973 UNCC2004062101839 13:49   00974 UNCC2004062101332 13:55
 00975 UNCC2004062101344 13:56   00976 UNCC2004062101816 13:56
 00977 UNCC2004062101837 13:56   00978 UNCC2004062101844 13:56
 00979 UNCC2004062101877 13:56   00980 UNCC2004062101852 13:56
 00981 UNCC2004062101853 13:56   00982 UNCC2004062101854 13:56
 00983 UNCC2004062101850 13:56   00984 UNCC2004062101855 13:56
 00985 UNCC2004062101856 13:56   00986 UNCC2004062101857 13:56
 00988 UNCC2004062101872 13:56   00989 UNCC2004062101880 13:56
 00990 UNCC2004062101873 13:56   00991 UNCC2004062101874 13:56
 00992 UNCC2004062101881 13:56   00993 UNCC2004062101875 13:56
 00994 UNCC2004062101876 13:56   00995 UNCC2004062101891 13:56
 00996 UNCC2004062101893 13:56  *00997 UNCC2004062101910 14:02
 00998 UNCC2004062101871 14:02   00999 UNCC2004062101879 14:02
 01000 UNCC2004062101921 14:02   01001 UNCC2004062101883 14:02
 01002 UNCC2004062101892 14:02   01003 UNCC2004062101898 14:02
 01004 UNCC2004062101900 14:02   01005 UNCC2004062101901 14:02
 01006 UNCC2004062101902 14:02   01007 UNCC2004062101903 14:02
 01008 UNCC2004062101904 14:02   01009 UNCC2004062101906 14:02
 01010 UNCC2004062101907 14:02   01011 UNCC2004062101908 14:02
 01012 UNCC2004062101919 14:02   01013 UNCC2004062101909 14:02
 01014 UNCC2004062101920 14:02   01015 UNCC2004062101923 14:02
 01016 UNCC2004062101925 14:05   01017 UNCC2004062101926 14:05
 01018 UNCC2004062101932 14:05   01019 UNCC2004062101928 14:05
 01020 UNCC2004062101944 14:05   01021 UNCC2004062101929 14:05
 01022 UNCC2004062101931 14:05   01023 UNCC2004062101949 14:06
 01024 UNCC2004062101950 14:06   01025 UNCC2004062101945 14:06
 01027 UNCC2004062101485 14:11   01028 UNCC2004062101495 14:11
 01029 UNCC2004062101512 14:11   01032 UNCC2004062101955 14:11
 01033 UNCC2004062101952 14:11   01034 UNCC2004062101953 14:11
 01035 UNCC2004062101956 14:11   01036 UNCC2004062101962 14:11
 01037 UNCC2004062101963 14:11   01038 UNCC2004062101968 14:11
 01039 UNCC2004062101964 14:12   01041 UNCC2004062101965 14:12
 01042 UNCC2004062101969 14:12   01043 UNCC2004062101966 14:12
 01044 UNCC2004062101976 14:12   01045 UNCC2004062101981 14:12
 01046 UNCC2004062101967 14:12   01047 UNCC2004062101983 14:12
 01048 UNCC2004062101978 14:12   01049 UNCC2004062101522 14:12
 01050 UNCC2004062101984 14:12   01051 UNCC2004062101979 14:12
 01052 UNCC2004062101980 14:12   01053 UNCC2004062101525 14:12
 01054 UNCC2004062101985 14:12   01055 UNCC2004062101986 14:12
 01056 UNCC2004062101990 14:12   01057 UNCC2004062101527 14:19
 01058 UNCC2004062101543 14:19   01059 UNCC2004062101991 14:19
 01060 UNCC2004062101994 14:19   01061 UNCC2004062101995 14:19
 01062 UNCC2004062101997 14:19   01063 UNCC2004062101998 14:19
 01064 UNCC2004062102000 14:19   01065 UNCC2004062102013 14:19
 01066 UNCC2004062102003 14:19   01067 UNCC2004062102017 14:20
*01068 UNCC2004062102019 14:27   01069 UNCC2004062101584 14:27
 01070 UNCC2004062101762 14:27  *01071 UNCC2004062102036 14:27
 01072 UNCC2004062102015 14:27   01075 UNCC2004062101656 14:35
 01076 UNCC2004062101683 14:35   01077 UNCC2004062101697 14:35
 01078 UNCC2004062101698 14:35   01080 UNCC2004062101723 14:35
 01081 UNCC2004062101866 14:35   01082 UNCC2004062101866 14:35
 01084 UNCC2004062101992 14:35   01085 UNCC2004062102007 14:35
 01087 UNCC2004062101996 14:35   01088 UNCC2004062101999 14:35
 01089 UNCC2004062102002 14:35   01090 UNCC2004062102016 14:35
 01091 UNCC2004062102022 14:35   01092 UNCC2004062102023 14:35
 01093 UNCC2004062102025 14:35   01094 UNCC2004062102033 14:35
 01095 UNCC2004062102035 14:35   01096 UNCC2004062102037 14:35
 01097 UNCC2004062102038 14:35   01098 UNCC2004062102039 14:35
 01100 UNCC2004062102046 14:35  *01101 UNCC2004062102092 14:39
 01102 UNCC2004062101513 14:39   01103 UNCC2004062102090 14:39
 01104 UNCC2004062102095 14:39   01105 UNCC2004062101982 14:39
 01106 UNCC2004062102020 14:39   01107 UNCC2004062102024 14:39
 01108 UNCC2004062102044 14:39   01109 UNCC2004062102045 14:39
 01110 UNCC2004062102047 14:39   01111 UNCC2004062101764 14:45
 01112 UNCC2004062101770 14:45   01113 UNCC2004062101775 14:45
 01114 UNCC2004062102119 14:45   01115 UNCC2004062102143 14:45
 01116 UNCC2004062102050 14:45   01117 UNCC2004062102053 14:45
 01118 UNCC2004062102054 14:45   01119 UNCC2004062102061 14:45
 01120 UNCC2004062102065 14:45   01122 UNCC2004062102080 14:45
 01123 UNCC2004062102082 14:45   01124 UNCC2004062102086 14:45
 01125 UNCC2004062102087 14:45   01126 UNCC2004062102089 14:45
 01127 UNCC2004062102093 14:45   01128 UNCC2004062102094 14:45
 01129 UNCC2004062102099 14:45   01131 UNCC2004062102109 14:45
 01133 UNCC2004062102097 14:46   01134 UNCC2004062102098 14:46
 01135 UNCC2004062102107 14:46   01136 UNCC2004062102110 14:46
 01138 UNCC2004062102100 14:48   01139 UNCC2004062102113 14:48
 01140 UNCC2004062102114 14:48   01141 UNCC2004062102115 14:48
 01142 UNCC2004062102125 14:48   01143 UNCC2004062102116 14:48
 01144 UNCC2004062102126 14:48   01145 UNCC2004062102126 14:48
 01146 UNCC2004062102127 14:48   01147 UNCC2004062102128 14:48
 01148 UNCC2004062102152 14:48   01149 UNCC2004062102146 14:48
 01150 UNCC2004062102146 14:48   01151 UNCC2004062102165 14:48
 01152 UNCC2004062102167 14:48  *01153 UNCC2004062102196 14:48
*01154 UNCC2004062102208 14:48  *01155 UNCC2004062102207 14:49
*01156 UNCC2004062102203 14:49   01157 UNCC2004062102057 14:49
 01158 UNCC2004062102131 14:50   01159 UNCC2004062102145 14:50
 01160 UNCC2004062102142 14:50   01161 UNCC2004062102144 14:50
*01162 UNCC2004062102138 14:50   01163 UNCC2004062102161 14:50
 01164 UNCC2004062102168 14:50   01165 UNCC2004062101798 14:56
 01166 UNCC2004062102052 14:56   01167 UNCC2004062102172 14:56
 01168 UNCC2004062102162 14:56   01169 UNCC2004062102163 14:56
 01170 UNCC2004062102173 14:56   01171 UNCC2004062102170 14:56
 01172 UNCC2004062102180 14:56   01173 UNCC2004062102181 14:56
 01174 UNCC2004062102183 14:56   01175 UNCC2004062102186 14:56
 01176 UNCC2004062102184 14:56   01177 UNCC2004062102189 14:56
 01178 UNCC2004062102182 14:57   01179 UNCC2004062102185 14:57
 01180 UNCC2004062102194 14:57   01181 UNCC2004062102195 14:57
 01182 UNCC2004062102226 14:57   01183 UNCC2004062102227 14:57
 01184 UNCC2004062102228 14:57   01185 UNCC2004062102229 14:57
 01186 UNCC2004062102230 14:57   01187 UNCC2004062102283 15:04
 01188 UNCC2004062102210 15:04   01189 UNCC2004062102213 15:04
 01190 UNCC2004062102215 15:04   01191 UNCC2004062102231 15:04
 01193 UNCC2004062102253 15:04   01194 UNCC2004062102255 15:04
 01195 UNCC2004062102249 15:04   01196 UNCC2004062102254 15:04
 01197 UNCC2004062102259 15:04   01198 UNCC2004062102265 15:04
 01199 UNCC2004062102272 15:04   01200 UNCC2004062102267 15:04
 01201 UNCC2004062102280 15:04   01202 UNCC2004062102281 15:04
 01203 UNCC2004062102289 15:04   01204 UNCC2004062102300 15:04
 01205 UNCC2004062102306 15:04   01206 UNCC2004062102312 15:04
 01207 UNCC2004062102315 15:04   01208 UNCC2004062102297 15:07
 01209 UNCC2004062102258 15:07  *01210 UNCC2004062102317 15:07
*01211 UNCC2004062102311 15:07   01212 UNCC2004062102314 15:07
 01213 UNCC2004062102257 15:07   01214 UNCC2004062101933 15:09
 01215 UNCC2004062101927 15:09   01216 UNCC2004062101930 15:09
 01217 UNCC2004062102256 15:09   01218 UNCC2004062102287 15:09
 01219 UNCC2004062102331 15:09   01220 UNCC2004062102336 15:09
 01221 UNCC2004062102296 15:09  *01222 UNCC2004062102344 15:09
 01223 UNCC2004062102338 15:09   01224 UNCC2004062102201 15:10
 01225 UNCC2004062102202 15:10   01226 UNCC2004062102216 15:10
 01227 UNCC2004062102217 15:10   01228 UNCC2004062102223 15:10
 01229 UNCC2004062102241 15:10   01230 UNCC2004062102248 15:10
 01231 UNCC2004062102250 15:10   01232 UNCC2004062102112 15:10
 01233 UNCC2004062102251 15:10   01234 UNCC2004062102264 15:10
 01235 UNCC2004062102266 15:10   01236 UNCC2004062102273 15:10
 01237 UNCC2004062102282 15:10   01238 UNCC2004062102288 15:10
 01239 UNCC2004062102294 15:10   01240 UNCC2004062102295 15:10
 01241 UNCC2004062102298 15:10   01242 UNCC2004062102301 15:10
 01243 UNCC2004062102302 15:10   01244 UNCC2004062102304 15:10
*01245 UNCC2004062102307 15:10   01246 UNCC2004062102325 15:10
 01247 UNCC2004062102328 15:10  *01248 UNCC2004062102321 15:10
 01249 UNCC2004062102332 15:10   01250 UNCC2004062102330 15:10
 01251 UNCC2004062102333 15:10   01252 UNCC2004062102326 15:10
 01253 UNCC2004062102334 15:10   01254 UNCC2004062102329 15:10
 01255 UNCC2004062102335 15:10   01256 UNCC2004062102339 15:10
 01257 UNCC2004062102340 15:10   01258 UNCC2004062102343 15:10
 01259 UNCC2004062102347 15:10   01260 UNCC2004062102348 15:10
 01261 UNCC2004062102010 15:16   01262 UNCC2004062102001 15:17
 01263 UNCC2004062102349 15:17   01264 UNCC2004062102164 15:17
 01265 UNCC2004062102353 15:17   01266 UNCC2004062102354 15:17
 01267 UNCC2004062102081 15:17   01269 UNCC2004062102350 15:17
 01270 UNCC2004062102355 15:17   01271 UNCC2004062102358 15:17
 01272 UNCC2004062102359 15:17   01273 UNCC2004062102361 15:17
 01274 UNCC2004062102364 15:17   01276 UNCC2004062102381 15:17
 01277 UNCC2004062102383 15:17   01280 UNCC2004062102384 15:17
 01283 UNCC2004062102390 15:17   01284 UNCC2004062102395 15:17
 01285 UNCC2004062102397 15:17   01286 UNCC2004062101951 15:22
 01287 UNCC2004062102117 15:22   01288 UNCC2004062102130 15:22
 01289 UNCC2004062102219 15:22   01290 UNCC2004062102386 15:22
 01291 UNCC2004062102382 15:22   01292 UNCC2004062102392 15:22
 01293 UNCC2004062102388 15:22   01294 UNCC2004062102389 15:22
 01295 UNCC2004062102391 15:22   01297 UNCC2004062102398 15:22
 01298 UNCC2004062102399 15:22   01299 UNCC2004062102401 15:22
 01300 UNCC2004062102402 15:22   01301 UNCC2004062102403 15:22
 01302 UNCC2004062102400 15:22   01303 UNCC2004062102405 15:22
 01304 UNCC2004062102406 15:22   01305 UNCC2004062102407 15:22
 01306 UNCC2004062102408 15:22   01307 UNCC2004062102409 15:22
 01308 UNCC2004062102410 15:22   01309 UNCC2004062102427 15:22
 01310 UNCC2004062102411 15:23   01311 UNCC2004062102412 15:23
 01312 UNCC2004062102413 15:23   01313 UNCC2004062102414 15:23
 01314 UNCC2004062102415 15:23   01315 UNCC2004062102416 15:23
 01316 UNCC2004062100547 15:29   01317 UNCC2004062102133 15:29
 01318 UNCC2004062102140 15:29   01320 UNCC2004062102218 15:29
 01321 UNCC2004062102428 15:29   01322 UNCC2004062102430 15:29
 01323 UNCC2004062102431 15:29   01324 UNCC2004062102436 15:29
 01325 UNCC2004062102437 15:29   01326 UNCC2004062102438 15:29
 01327 UNCC2004062102439 15:29   01328 UNCC2004062102211 15:29
 01329 UNCC2004062102440 15:29   01330 UNCC2004062102441 15:29
 01331 UNCC2004062102442 15:29   01332 UNCC2004062102443 15:29
 01333 UNCC2004062102432 15:29   01335 UNCC2004062102444 15:29
 01336 UNCC2004062102453 15:29   01337 UNCC2004062102455 15:29
 01338 UNCC2004062102456 15:29   01339 UNCC2004062102457 15:29
 01340 UNCC2004062102463 15:29   01341 UNCC2004062102464 15:29
 01342 UNCC2004062102468 15:29  *01344 UNCC2004062102472 15:31
 01345 UNCC2004062102291 15:37   01346 UNCC2004062102313 15:37
 01347 UNCC2004062102318 15:37   01348 UNCC2004062102320 15:37
*01349 UNCC2004062102512 15:37   01350 UNCC2004062102465 15:37
 01351 UNCC2004062102484 15:37   01352 UNCC2004062102475 15:37
 01353 UNCC2004062102476 15:37   01354 UNCC2004062102477 15:37
 01355 UNCC2004062102490 15:37   01356 UNCC2004062102479 15:37
 01357 UNCC2004062102497 15:37   01358 UNCC2004062102493 15:37
 01359 UNCC2004062102498 15:37   01360 UNCC2004062102499 15:37
 01361 UNCC2004062102501 15:37   01362 UNCC2004062102503 15:37
 01363 UNCC2004062102504 15:37   01365 UNCC2004062102513 15:37
 01366 UNCC2004062102516 15:37   01367 UNCC2004062102404 15:37
 01368 UNCC2004062102520 15:38   01369 UNCC2004062102521 15:38
 01370 UNCC2004062102524 15:38   01371 UNCC2004062102525 15:38
 01372 UNCC2004062102526 15:38   01373 UNCC2004062102527 15:38
 01374 UNCC2004062102530 15:38   01375 UNCC2004062102531 15:38
*01376 UNCC2004062102538 15:41   01377 UNCC2004062102460 15:42
*01378 UNCC2004062102579 15:42   01379 UNCC2004062102565 15:42
*01380 UNCC2004062102585 15:42  *01381 UNCC2004062102537 15:43
*01382 UNCC2004062102539 15:43  *01383 UNCC2004062102553 15:43
*01384 UNCC2004062102558 15:44  *01385 UNCC2004062102561 15:44
*01386 UNCC2004062102577 15:44  *01387 UNCC2004062102578 15:44
 01388 UNCC2004062102528 15:44   01389 UNCC2004062102543 15:49
 01390 UNCC2004062102474 15:49   01391 UNCC2004062102488 15:49
 01392 UNCC2004062102478 15:49   01393 UNCC2004062102491 15:49
 01394 UNCC2004062102500 15:49   01395 UNCC2004062102508 15:49
 01396 UNCC2004062102517 15:49   01397 UNCC2004062102545 15:49
 01398 UNCC2004062102547 15:49   01399 UNCC2004062102548 15:49
 01400 UNCC2004062102549 15:49   01401 UNCC2004062102550 15:49
 01402 UNCC2004062102551 15:49   01404 UNCC2004062102245 15:49
 01405 UNCC2004062102552 15:49   01406 UNCC2004062102534 15:49
 01407 UNCC2004062102535 15:49   01408 UNCC2004062102588 15:49
 01409 UNCC2004062102562 15:49   01410 UNCC2004062102563 15:50
 01411 UNCC2004062102589 15:50   01412 UNCC2004062102584 15:50
 01413 UNCC2004062102590 15:50   01414 UNCC2004062102544 15:50
 01415 UNCC2004062102559 15:50   01417 UNCC2004062102591 15:50
 01418 UNCC2004062102532 15:50   01419 UNCC2004062102593 15:50
 01420 UNCC2004062102600 15:50   01421 UNCC2004062102604 15:50
 01422 UNCC2004062102607 15:50   01423 UNCC2004062102605 15:50
 01424 UNCC2004062102616 15:50   01425 UNCC2004062102617 15:50
 01426 UNCC2004062102618 15:50  *01428 UNCC2004062102637 15:51
 01429 UNCC2004062102232 15:51   01430 UNCC2004062102446 15:52
 01431 UNCC2004062102458 15:52   01432 UNCC2004062102469 15:52
 01433 UNCC2004062102529 15:52   01434 UNCC2004062102533 15:52
 01435 UNCC2004062102633 15:52  *01436 UNCC2004062102640 15:54
 01437 UNCC2004062102445 15:54   01438 UNCC2004062102473 15:54
 01439 UNCC2004062102492 15:54   01442 UNCC2004062102642 15:54
 01443 UNCC2004062102647 15:54  *01444 UNCC2004062102671 15:58
 01445 UNCC2004062102471 15:58   01446 UNCC2004062102485 15:58
 01447 UNCC2004062102486 15:59   01448 UNCC2004062102502 15:59
 01449 UNCC2004062102515 15:59   01450 UNCC2004062102546 15:59
 01451 UNCC2004062102542 15:59   01452 UNCC2004062102594 15:59
 01453 UNCC2004062102641 15:59   01454 UNCC2004062102665 15:59
 01455 UNCC2004062102666 15:59   01456 UNCC2004062102666 15:59
*01457 UNCC2004062102684 15:59  *01458 UNCC2004062102708 16:11
 01459 UNCC2004062102680 16:11   01460 UNCC2004062102681 16:11
 01461 UNCC2004062102691 16:11   01462 UNCC2004062102695 16:11
 01463 UNCC2004062102709 16:11   01464 UNCC2004062102714 16:11
 01465 UNCC2004062102710 16:11   01466 UNCC2004062102711 16:11
*01467 UNCC2004062102726 16:11   01468 UNCC2004062102715 16:11
 01470 UNCC2004062102721 16:11   01471 UNCC2004062102735 16:12
*01472 UNCC2004062102741 16:17   01473 UNCC2004062102758 16:17
*01474 UNCC2004062102766 16:17  *01475 UNCC2004062102739 16:18
*01476 UNCC2004062102774 16:19  *01478 UNCC2004062102801 16:27
 01479 UNCC2004062102784 16:27   01480 UNCC2004062102656 16:27
 01486 UNCC2004062102693 16:27   01487 UNCC2004062102712 16:27
 01488 UNCC2004062102751 16:27   01490 UNCC2004062102754 16:27
 01492 UNCC2004062102777 16:27   01493 UNCC2004062102785 16:27
 01494 UNCC2004062102791 16:27   01495 UNCC2004062102795 16:27
 01496 UNCC2004062102805 16:27   01497 UNCC2004062102810 16:27
 01498 UNCC2004062102814 16:27  *01499 UNCC2004062102811 16:27
 01500 UNCC2004062102634 16:32   01501 UNCC2004062102657 16:32
 01502 UNCC2004062102658 16:32   01503 UNCC2004062102696 16:32
 01504 UNCC2004062102752 16:32   01505 UNCC2004062102755 16:32
 01506 UNCC2004062102750 16:32   01507 UNCC2004062102756 16:32
 01508 UNCC2004062102757 16:32   01509 UNCC2004062102764 16:32
 01510 UNCC2004062102765 16:32   01511 UNCC2004062102775 16:32
 01512 UNCC2004062102778 16:32   01513 UNCC2004062102781 16:32
 01514 UNCC2004062102786 16:32   01515 UNCC2004062102792 16:32
 01516 UNCC2004062102799 16:32   01517 UNCC2004062102803 16:32
 01518 UNCC2004062102816 16:32   01519 UNCC2004062102817 16:32
 01520 UNCC2004062102818 16:33   01521 UNCC2004062102820 16:33
 01522 UNCC2004062102824 16:33   01523 UNCC2004062102821 16:33
 01524 UNCC2004062102822 16:33   01525 UNCC2004062102823 16:33
 01526 UNCC2004062102827 16:33   01527 UNCC2004062102830 16:33
 01528 UNCC2004062102832 16:33   01529 UNCC2004062102833 16:33
 01530 UNCC2004062102837 16:33   01531 UNCC2004062102839 16:33
 01532 UNCC2004062102845 16:33   01533 UNCC2004062102847 16:33
 01536 UNCC2004062102892 16:43   01537 UNCC2004062102606 16:43
 01538 UNCC2004062102635 16:43   01539 UNCC2004062102655 16:43
 01540 UNCC2004062102763 16:43   01541 UNCC2004062102771 16:43
 01542 UNCC2004062102772 16:43   01543 UNCC2004062102776 16:43
 01544 UNCC2004062102779 16:43   01545 UNCC2004062102780 16:43
 01546 UNCC2004062102782 16:43  *01548 UNCC2004062102904 16:43
 01549 UNCC2004062102808 16:43   01550 UNCC2004062102815 16:43
 01552 UNCC2004062102846 16:44   01553 UNCC2004062102840 16:44
 01554 UNCC2004062102841 16:44  *01555 UNCC2004062102879 16:44
 01556 UNCC2004062102842 16:44   01557 UNCC2004062102848 16:44
 01558 UNCC2004062102858 16:44   01559 UNCC2004062102859 16:44
 01560 UNCC2004062102860 16:44   01563 UNCC2004062102867 16:44
 01565 UNCC2004062102880 16:44   01566 UNCC2004062102896 16:44
 01567 UNCC2004062102881 16:44   01568 UNCC2004062102894 16:44
 01569 UNCC2004062102882 16:44   01570 UNCC2004062102889 16:44
 01571 UNCC2004062102897 16:44   01572 UNCC2004062102906 16:44
 01573 UNCC2004062102898 16:44   01574 UNCC2004062102914 16:44
*01575 UNCC2004062102935 16:44   01576 UNCC2004062102560 16:53
 01577 UNCC2004062102713 16:53   01578 UNCC2004062102736 16:53
 01579 UNCC2004062102753 16:53   01580 UNCC2004062102770 16:53
 01581 UNCC2004062102868 16:53   01582 UNCC2004062102883 16:54
 01583 UNCC2004062102884 16:54   01584 UNCC2004062102885 16:54
 01585 UNCC2004062102886 16:54   01586 UNCC2004062102887 16:54
 01587 UNCC2004062102888 16:54   01588 UNCC2004062102905 16:54
 01589 UNCC2004062102915 16:54   01590 UNCC2004062102907 16:54
 01591 UNCC2004062102916 16:54   01592 UNCC2004062102908 16:54
 01593 UNCC2004062102918 16:54   01594 UNCC2004062102910 16:54
 01595 UNCC2004062102920 16:54   01596 UNCC2004062102911 16:54
 01597 UNCC2004062102921 16:54   01598 UNCC2004062102926 16:54
 01599 UNCC2004062102927 16:54   01600 UNCC2004062102932 16:54
 01601 UNCC2004062102950 16:54   01602 UNCC2004062102948 16:54
 01603 UNCC2004062102934 16:54   01604 UNCC2004062102953 16:54
 01605 UNCC2004062102954 16:54   01606 UNCC2004062102956 16:54
 01607 UNCC2004062102979 16:54   01608 UNCC2004062102980 16:54
 01609 UNCC2004062102988 16:54   01610 UNCC2004062102983 16:54
 01611 UNCC2004062102984 16:54   01612 UNCC2004062103003 16:54
 01613 UNCC2004062100848 17:01   01614 UNCC2004062102759 17:01
 01615 UNCC2004062102819 17:01   01616 UNCC2004062102917 17:01
 01617 UNCC2004062102929 17:01   01618 UNCC2004062102931 17:01
 01619 UNCC2004062102959 17:01   01620 UNCC2004062102976 17:01
 01621 UNCC2004062103005 17:01   01622 UNCC2004062103006 17:01
 01623 UNCC2004062101526 17:01   01624 UNCC2004062103012 17:01
 01625 UNCC2004062103013 17:01   01626 UNCC2004062103007 17:01
 01627 UNCC2004062103031 17:01   01628 UNCC2004062103009 17:01
 01629 UNCC2004062103014 17:01   01630 UNCC2004062103033 17:01
 01631 UNCC2004062103045 17:01   01632 UNCC2004062103040 17:02
 01633 UNCC2004062103037 17:02   01634 UNCC2004062103051 17:02
 01635 UNCC2004062103053 17:02   01636 UNCC2004062103054 17:02
 01637 UNCC2004062103061 17:02   01638 UNCC2004062103063 17:02
 01639 UNCC2004062103065 17:02   01640 UNCC2004062103068 17:02
 01641 UNCC2004062102489 17:04   01642 UNCC2004062102831 17:04
 01643 UNCC2004062102933 17:04   01644 UNCC2004062102955 17:04
 01645 UNCC2004062102960 17:04   01646 UNCC2004062102977 17:04
 01647 UNCC2004062102978 17:04   01648 UNCC2004062103064 17:04
 01649 UNCC2004062103066 17:04   01650 UNCC2004062103071 17:04
*01651 UNCC2004062103077 17:04   01652 UNCC2004062102996 17:04
 01653 UNCC2004062102997 17:04   01654 UNCC2004062103034 17:04
 01655 UNCC2004062103046 17:04   01656 UNCC2004062103075 17:04
 01657 UNCC2004062103076 17:04   01658 UNCC2004062102981 17:04
 01659 UNCC2004062103032 17:07   01660 UNCC2004062102925 17:07
 01661 UNCC2004062102982 17:07   01662 UNCC2004062103035 17:07
 01666 UNCC2004062103072 17:07   01667 UNCC2004062103074 17:07
 01668 UNCC2004062103079 17:07   01669 UNCC2004062103086 17:07
 01670 UNCC2004062103087 17:07   01671 UNCC2004062103088 17:07
 01672 UNCC2004062103092 17:07   01673 UNCC2004062103096 17:07
 01674 UNCC2004062103098 17:07   01675 UNCC2004062103106 17:07
 01676 UNCC2004062103107 17:07   01677 UNCC2004062103112 17:07
*01678 UNCC2004062103113 17:07  *01680 UNCC2004062103136 17:10
*01681 UNCC2004062103138 17:11  *01682 UNCC2004062103140 17:11
 01683 UNCC2004062102923 17:11   01684 UNCC2004062102924 17:11
 01685 UNCC2004062102761 17:11   01686 UNCC2004062103057 17:11
 01687 UNCC2004062103085 17:11   01688 UNCC2004062103099 17:11
 01689 UNCC2004062103116 17:11   01690 UNCC2004062103117 17:11
 01691 UNCC2004062103122 17:11   01692 UNCC2004062103123 17:11
 01693 UNCC2004062103039 17:14   01694 UNCC2004062103133 17:14
 01695 UNCC2004062102949 17:14   01696 UNCC2004062102961 17:14
 01697 UNCC2004062103036 17:14   01698 UNCC2004062103070 17:14
 01699 UNCC2004062103115 17:14   01700 UNCC2004062103119 17:14
 01701 UNCC2004062103124 17:14   01702 UNCC2004062103126 17:14
 01703 UNCC2004062103130 17:14   01704 UNCC2004062103131 17:14
 01705 UNCC2004062103127 17:14   01706 UNCC2004062103128 17:14
 01707 UNCC2004062103129 17:14   01708 UNCC2004062103139 17:14
 01709 UNCC2004062103141 17:14   01710 UNCC2004062103145 17:14
 01711 UNCC2004062103146 17:14   01712 UNCC2004062103153 17:14
 01713 UNCC2004062103152 17:14   01714 UNCC2004062103147 17:14
 01715 UNCC2004062103154 17:14   01716 UNCC2004062103148 17:14
 01717 UNCC2004062103160 17:14   01718 UNCC2004062103155 17:14
 01719 UNCC2004062103161 17:14   01720 UNCC2004062103164 17:14
 01721 UNCC2004062103165 17:14   01722 UNCC2004062103166 17:14
*01723 UNCC2004062103203 17:22  *01724 UNCC2004062103193 17:22
 01725 UNCC2004062101558 17:22   01726 UNCC2004062102787 17:22
 01727 UNCC2004062102804 17:22   01728 UNCC2004062102809 17:22
 01729 UNCC2004062102834 17:22   01730 UNCC2004062102866 17:22
 01731 UNCC2004062102975 17:22   01732 UNCC2004062103000 17:22
 01733 UNCC2004062103097 17:22   01734 UNCC2004062103132 17:22
 01735 UNCC2004062103135 17:22   01736 UNCC2004062103151 17:22
 01737 UNCC2004062103171 17:22   01738 UNCC2004062103173 17:22
 01739 UNCC2004062103177 17:22   01740 UNCC2004062103172 17:22
 01741 UNCC2004062103182 17:22   01742 UNCC2004062103183 17:22
 01743 UNCC2004062103185 17:22   01744 UNCC2004062103189 17:22
 01745 UNCC2004062103190 17:22  *01746 UNCC2004062103192 17:23
*01747 UNCC2004062103197 17:23   01748 UNCC2004062103201 17:23
 01749 UNCC2004062103208 17:23   01750 UNCC2004062103210 17:23
 01751 UNCC2004062103217 17:23   01752 UNCC2004062102895 17:30
 01753 UNCC2004062102890 17:30   01754 UNCC2004062102919 17:30
 01755 UNCC2004062102951 17:30   01756 UNCC2004062103199 17:30
 01757 UNCC2004062103200 17:30   01758 UNCC2004062103207 17:31
 01759 UNCC2004062103211 17:31   01760 UNCC2004062103221 17:31
 01761 UNCC2004062103225 17:31   01762 UNCC2004062103234 17:31
 01763 UNCC2004062102957 17:36   01764 UNCC2004062102987 17:36
 01765 UNCC2004062102999 17:36   01766 UNCC2004062103196 17:36
 01767 UNCC2004062103202 17:36   01768 UNCC2004062103216 17:36
 01769 UNCC2004062103220 17:36   01770 UNCC2004062103224 17:36
 01771 UNCC2004062103235 17:36   01772 UNCC2004062103244 17:37
 01773 UNCC2004062103254 17:37   01774 UNCC2004062103008 17:43
 01775 UNCC2004062103044 17:43   01776 UNCC2004062103163 17:43
 01777 UNCC2004062103245 17:43   01778 UNCC2004062103252 17:43
 01779 UNCC2004062103268 17:43   01780 UNCC2004062103269 17:43
 01781 UNCC2004062103270 17:43   01782 UNCC2004062103271 17:43
 01783 UNCC2004062103272 17:43   01784 UNCC2004062103273 17:43
 01785 UNCC2004062103274 17:43   01786 UNCC2004062103275 17:43
 01787 UNCC2004062103279 17:43   01788 UNCC2004062103284 17:43
 01789 UNCC2004062103285 17:43   01790 UNCC2004062103286 17:43
 01791 UNCC2004062103289 17:43   01792 UNCC2004062103290 17:43
 01793 UNCC2004062103293 17:43   01795 UNCC2004062102096 17:51
 01796 UNCC2004062103206 17:51   01797 UNCC2004062103294 17:51
 01798 UNCC2004062103296 17:51   01799 UNCC2004062103297 17:51
 01800 UNCC2004062103299 17:51   01801 UNCC2004062103301 17:51
 01802 UNCC2004062103300 17:51   01803 UNCC2004062103302 17:51
 01804 UNCC2004062103303 17:51   01805 UNCC2004062103304 17:51
 01806 UNCC2004062103305 17:51  *01807 UNCC2004062103316 17:51
 01808 UNCC2004062101870 17:57   01809 UNCC2004062103322 17:57
 01810 UNCC2004062103083 17:57  *01811 UNCC2004062103295 17:59
 01812 UNCC2004062103091 17:59   01813 UNCC2004062103306 17:59
 01814 UNCC2004062103314 17:59   01815 UNCC2004062103320 18:00
*01816 UNCC2004062103326 18:00   01817 UNCC2004062103111 18:00
 01818 UNCC2004062103118 18:06   01819 UNCC2004062103162 18:06
 01820 UNCC2004062103309 18:06   01821 UNCC2004062103310 18:06
 01822 UNCC2004062103321 18:06   01823 UNCC2004062103319 18:06
 01824 UNCC2004062103332 18:06   01825 UNCC2004062103338 18:06
 01826 UNCC2004062103340 18:06   01827 UNCC2004062103344 18:06
 01828 UNCC2004062103184 18:12   01829 UNCC2004062103222 18:12
 01830 UNCC2004062103223 18:12   01831 UNCC2004062103288 18:12
 01832 UNCC2004062103345 18:12   01833 UNCC2004062103346 18:12
 01834 UNCC2004062103347 18:12  *01835 UNCC2004062103348 18:12
 01836 UNCC2004062103315 18:20   01837 UNCC2004062103349 18:20
 01838 UNCC2004062100304 18:22   01839 UNCC2004062103325 18:22
 01840 UNCC2004062103328 18:22  *01841 UNCC2004062103351 18:22
 01842 UNCC2004062103329 18:29   01843 UNCC2004062103341 18:29
 01844 UNCC2004062100222 18:37   01845 UNCC2004062102958 18:37
 01846 UNCC2004062101251 18:43   01847 UNCC2004062101113 18:57
 01848 UNCC2004062103335 19:22   01849 UNCC2004062103298 19:30
 01850 UNCC2004062100516 19:36   01851 UNCC2004062100236 19:56
 01852 UNCC2004062100495 19:56   01853 UNCC2004062100603 19:56
 01854 UNCC2004062100609 19:56   01855 UNCC2004062100674 19:56
 01856 UNCC2004062100904 19:56   01857 UNCC2004062100991 19:56
 01858 UNCC2004062101286 19:56   01859 UNCC2004062101464 19:56
 01860 UNCC2004062101724 19:56   01861 UNCC2004062101769 19:56
 01862 UNCC2004062101810 19:56   01863 UNCC2004062101922 19:56
 01865 UNCC2004062101977 19:56   01866 UNCC2004062102206 19:56
 01867 UNCC2004062102387 19:56   01868 UNCC2004062102429 19:56
 01869 UNCC2004062102592 19:56   01870 UNCC2004062102636 19:56
 01871 UNCC2004062102952 19:56


Service Area: CO_LRAC_UTILIQUEST
*00050 UNCC2004062100171 08:40  *00051 UNCC2004062100171 08:40
*00054 UNCC2004062100198 08:46  *00055 UNCC2004062100198 08:46
*00127 UNCC2004062100433 09:32  *00231 UNCC2004062100556 09:56
*00325 UNCC2004062100655 10:26  *00354 UNCC2004062100820 10:41
*00394 UNCC2004062100897 10:48  *00524 UNCC2004062101118 11:19
*00560 UNCC2004062101180 11:26  *00613 UNCC2004062101247 11:38
*00675 UNCC2004062101334 11:47  *00701 UNCC2004062101357 11:51
*00702 UNCC2004062101358 11:51  *00741 UNCC2004062101448 12:07
*00749 UNCC2004062101469 12:14  *00890 UNCC2004062101692 13:09
*00905 UNCC2004062101716 13:13  *00926 UNCC2004062101768 13:25
*00927 UNCC2004062101773 13:28  *01074 UNCC2004062102051 14:27
*01343 UNCC2004062102480 15:29  *01469 UNCC2004062102716 16:11
*01534 UNCC2004062102856 16:33

Total number of notices sent during time period: 1870


Please notify Qwest Local Network (QLN) immediately of any missing
transmissions.

