
AC1110 CALL SUNSHINE 06/02/06 23:46:25ET

***************************************************************************
* NOW ENDING TRANSMISSION FOR TODAY - THIS IS YOUR END OF DAY AUDIT       *
* PLEASE VERIFY YOU RECEIVED ALL TKTS - IF ERRORS, PLEASE CALL THE CENTER *
***************************************************************************

00001 150609831-001 09:55  00002 152602585-001 09:55  00003 153600135-000 09:55
00004 153600161-000 09:55  00005 153600275-000 09:55  00006 153600355-000 09:55
00007 153600529-000 09:55  00008 153600795-000 09:55  00009 153600847-000 09:55
00010 153600883-000 09:55  00011 153601027-000 09:56  00012 153601159-000 09:56
00013 153601337-000 09:56  00014 153601567-000 09:56  00015 153601577-000 09:56
00016 153601609-000 09:56  00017 153601685-000 09:56  00018 153601805-000 09:56
00019 153602043-000 09:56  00020 153602123-000 09:56  00021 153602225-000 09:56
00022 153602227-000 09:56  00023 153602369-000 09:56  00024 153602373-000 09:56
00025 153602459-000 09:56  00026 153602479-000 09:56  00027 153602607-000 09:56
00028 153602761-000 09:56  00029 153603013-000 09:56  00030 153603181-000 09:56
00031 153603197-000 09:57  00032 153603253-000 09:57  00033 153603327-000 09:57
00034 153603503-000 09:57  00035 153603641-000 09:58  00036 153603655-000 09:58
00037 153603671-000 09:59  00038 153603729-000 10:05  00039 153603841-000 10:05
00040 153604017-000 10:11  00041 153604041-000 10:12  00042 153604167-000 10:16
00043 153604299-000 10:21  00044 153604313-000 10:21  00045 153604387-000 10:25
00046 153604423-000 10:27  00047 153604517-000 10:31  00048 153604603-000 10:36
00049 153604659-000 10:38  00050 153604859-000 10:47  00051 153605039-000 10:55
00052 153605157-000 10:59  00053 153605279-000 11:05  00054 153605447-000 11:09
00055 153605513-000 11:11  00056 153605589-000 11:13  00057 153603253-001 11:16
00058 153603181-001 11:17  00059 153605693-000 11:18  00060 153603327-001 11:20
00061 153605781-000 11:22  00062 153606177-000 11:41  00063 153606467-000 11:55
00064 153606579-000 12:00  00065 153606661-000 12:05  00066 153606735-000 12:06
00067 153606789-000 12:09  00068 153606841-000 12:12  00069 153606901-000 12:14
00070 153606963-000 12:18  00071 153607013-000 12:20  00072 152610747-001 12:22
00073 152614187-001 12:23  00074 153607361-000 12:38  00075 153608163-000 13:17
00076 153608259-000 13:21  00077 153608263-000 13:21  00078 153608289-000 13:23
00079 153608469-000 13:31  00080 153608543-000 13:34  00081 153608559-000 13:35
00082 153608563-000 13:35  00083 153608713-000 13:41  00084 153608941-000 13:50
00085 153609003-000 13:51  00086 153609191-000 13:58  00087 153609313-000 14:06
00088 153609335-000 14:06  00089 153609373-000 14:06  00090 153609385-000 14:06
00091 153609505-000 14:11  00092 153609543-000 14:12  00093 153609675-000 14:18
00094 153609687-000 14:18  00095 153609831-000 14:24  00096 153609937-000 14:28
00097 153610037-000 14:32  00098 153610053-000 14:33  00099 153610097-000 14:35
00100 153610183-000 14:38  00101 153610241-000 14:41  00102 153610267-000 14:42
00103 153610355-000 14:46  00104 153610683-000 14:58  00105 153610991-000 15:11
00106 153611271-000 15:21  00107 153611437-000 15:28  00108 153611473-000 15:30
00109 153611683-000 15:39  00110 153612257-000 16:04  00111 153612303-000 16:06
00112 153612337-000 16:07  00113 153612435-000 16:14  00114 153612479-000 16:14
00115 153612553-000 16:18  00116 153612553-001 16:19  00117 153612609-000 16:20
00118 153612479-001 16:27  00119 153612875-000 16:33  00120 153612933-000 16:37
00121 153612975-000 16:39  00122 153613017-000 16:41  00123 153613059-000 16:43
00124 153613089-000 16:44  00125 153613173-000 16:50  00126 153613175-000 16:50
00127 153613375-000 17:03  00128 153613409-000 17:05  00129 153613435-000 17:07
00130 153613453-000 17:08  00131 153613483-000 17:10  00132 153613499-000 17:11
00133 153613511-000 17:12  00134 153613523-000 17:14  00135 153613543-000 17:16

Total: 135


