SEQUENCE NUMBER 0002   CDC = GP4

NJ1C audit for CDC of GP4 on 070103

Serial# & Seq# &XTime   Serial# & Seq# &Xtime   Serial# & Seq# &XTime
070030021 0010   0657   

Total number of Emergencies          0001
Total number of Routine Notices      0000
Total number of Messages for GP4     0001

If this audit does not match your manual tracking 
then call the Call Center and request a retransmission.

SEQUENCE NUMBER 0002   CDC = GP9

NJ1C audit for CDC of GP9 on 070103

Serial# & Seq# &XTime   Serial# & Seq# &Xtime   Serial# & Seq# &XTime
070031027        0044   070030006 0003   0606   070030013 0006   0646   
070031768 0017   1730   

Total number of Emergencies          0003
Total number of Routine Notices      0000
Total number of Messages for GP9     0003

If this audit does not match your manual tracking 
then call the Call Center and request a retransmission.

SEQUENCE NUMBER 0002   CDC = GPC

NJ1C audit for CDC of GPC on 070103

Serial# & Seq# &XTime   Serial# & Seq# &Xtime   Serial# & Seq# &XTime
070031028        0045   070030015 0007   0648   070031609 0014   1632   
070031716 0016   1701   

Total number of Emergencies          0003
Total number of Routine Notices      0000
Total number of Messages for GPC     0003

If this audit does not match your manual tracking 
then call the Call Center and request a retransmission.


