


SEQUENCE NUMBER 0001   CDC = CSD

Audit for CDC of CSD Last Audit was on 020228 at 002942
Serial# & Seq#  Serial# & Seq#  Serial# & Seq#  Serial# & Seq#
 590011ds 0001  0590018ET 0002  0590019ET 0003  0590031ET 0004  
0590032ET 0005  0590033ET 0006  0590069ET 0007  0590079ET 0008  
0590070ET 0009  0590071ET 0010  0590082ET 0011  0590211ET 0012  
0590175ET 0013  0590220ET 0014  0595091ET 0015  0595094ET 0016  
0590253ET 0017  0590264ET 0018  0590464ET 0019  0590478ET 0020  
0590356ET 0021  0590434ET 0022  0590514ET 0023  0590574ET 0024  
0590581ET 0025  0590575ET 0026  0590582ET 0027  0590583ET 0028  
0590730ET 0029  0590722ET 0030  0590741ET 0031  0590811ET 0032  
0590806ET 0033  0590818ET 0034  0590794ET 0036  0590805ET 0037  
0590814ET 0038  0590823ET 0039  0590833ET 0040  0590849ET 0041  
0590955ET 0042  0590872ET 0043  0590880ET 0044  0590926ET 0045  
0590931ET 0046  0590934ET 0047  0590936ET 0048  0590938ET 0049  
0590961ET 0050  0595535ET 0052  0591104ET 0053  0591156ET 0054  
0591217ET 0055  0591440ET 0056  0591261ET 0057  0591414ET 0058  
0591586ET 0059  0591517ET 0061  0591677ET 0062  0591691ET 0063  
0591725ET 0064  0591782ET 0065  0595773ET 0066  0591761ET 0067  
0595786ET 0068  0591995ET 0069  0592019ET 0070  0592004ET 0071  
0592009ET 0072  0592013ET 0073  0592022ET 0074  0592264ET 0075  
0592134ET 0076  0592043ET 0077  0592053ET 0078  0592066ET 0079  
0592067ET 0080  0592079ET 0081  0592119ET 0083  0592253ET 0085  
0592350ET 0086  0592497ET 0087  0592465ET 0088  0592490ET 0089  
0592504ET 0090  0592522ET 0091  0592698ET 0092  0592554ET 0093  
0592600ET 0094  0592690ET 0095  0592760ET 0096  0596179ET 0097  
0592784ET 0098  0592815ET 0099  0592827ET 0100  0592835ET 0101  
0592840ET 0102  0592943ET 0103  0592869ET 0104  0592922ET 0105  
0592958ET 0107  0592959ET 0108  0592999ET 0109  0592962ET 0110  
0593005ET 0113  0593013ET 0114  0593014ET 0115  0593022ET 0116  
0593101ET 0117  0593068ET 0118  0593168ET 0119  0593206ET 0120  
0593317ET 0121  0593328ET 0122  0593385ET 0123  
Total number of Dig-ups or Emergency 0023
Total number of Short Notices        0005
Total number of Priority Notices     0007
Total number of Routine Notices      0079
Total number of Messages for CSD     0114
If this audit does not match your manual tracking 
then call the Call Center and request a retransmission.





SEQUENCE NUMBER 0001   CDC = KMC

Audit for CDC of KMC Last Audit was on 020228 at 002952
Serial# & Seq#  Serial# & Seq#  Serial# & Seq#  Serial# & Seq#
 590012ds 0001  0595029ET 0001  0595365ET 0035  0595531ET 0051  
0595668ET 0060  0592109ET 0082  0592152ET 0084  0592956ET 0106  
0592969ET 0111  0592984ET 0112  
Total number of Dig-ups or Emergency 0003
Total number of Short Notices        0000
Total number of Priority Notices     0001
Total number of Routine Notices      0005
Total number of Messages for KMC     0009
If this audit does not match your manual tracking 
then call the Call Center and request a retransmission.







SEQUENCE NUMBER 0003   CDC = CSD

Audit for CDC of CSD
Serial# & Seq#  Serial# & Seq#  Serial# & Seq#  Serial# & Seq#
0985033ET 0001   980009ds 0002  0985034ET 0002  0980285ET 0003  
0985093ET 0004  0985114ET 0005  0980254ET 0006  0980266ET 0007  
0980270ET 0008  0980422ET 0009  0980340ET 0010  0980342ET 0011  
0980364ET 0012  0985137ET 0013  0980443ET 0014  0980484ET 0015  
0980488ET 0016  0980497ET 0017  0980508ET 0018  0980520ET 0019  
0980533ET 0020  0980587ET 0021  0985261ET 0022  0980946ET 0023  
0980967ET 0024  0980780ET 0025  0980790ET 0026  0980914ET 0027  
0980942ET 0028  0981062ET 0029  0985420ET 0030  0985526ET 0031  
0981132ET 0032  0981268ET 0033  0985589ET 0034  0981425ET 0035  
0985616ET 0036  0981450ET 0037  0981552ET 0038  0985688ET 0039  
0981461ET 0040  0981470ET 0041  0981490ET 0042  0981498ET 0043  
0981505ET 0044  0981514ET 0045  0981524ET 0046  0981537ET 0047  
0981542ET 0048  0985713ET 0049  0985720ET 0050  0985728ET 0051  
0981619ET 0052  0981607ET 0053  0981610ET 0054  0981618ET 0055  
0981621ET 0056  0981627ET 0057  0981630ET 0058  0981659ET 0059  
0981640ET 0060  0981643ET 0061  0981647ET 0062  0981654ET 0063  
0981656ET 0064  0981660ET 0065  0981663ET 0066  0981666ET 0067  
0981713ET 0068  0981805ET 0069  0981840ET 0070  0981861ET 0071  
0985936ET 0072  0985942ET 0073  0985972ET 0074  0982011ET 0075  
0982018ET 0076  0982060ET 0077  0982024ET 0078  0986038ET 0079  
0982140ET 0080  0986048ET 0081  0982254ET 0082  0982295ET 0083  
0982373ET 0084  0982473ET 0085  0986215ET 0086  0982633ET 0087  
0982495ET 0088  0982504ET 0089  0982575ET 0090  0982589ET 0091  
0982634ET 0092  0982649ET 0093  0982679ET 0094  0982699ET 0095  
0982792ET 0096  0982803ET 0097  0982812ET 0098  0982820ET 0099  
0982831ET 0100  0982834ET 0101  0982841ET 0102  0982845ET 0103  
0982894ET 0104  0986479ET 0105  0982979ET 0106  0982985ET 0107  
0982989ET 0108  0983013ET 0109  0983029ET 0110  0986521ET 0111  
0983048ET 0112  0983053ET 0113  0983064ET 0114  0983174ET 0115  
0983282ET 0116  0983292ET 0117  0983319ET 0118  0983417ET 0119  
0983541ET 0120  0986955ET 0121  0983602ET 0122  0983629ET 0123  
0987192ET 0124  0987214ET 0125  0983875ET 0126  
Total number of Dig-ups or Emergency 0015
Total number of Short Notices        0002
Total number of Priority Notices     0012
Total number of Routine Notices      0097
Total number of Messages for CSD     0126
If this audit does not match your manual tracking 
then call the Call Center and request a retransmission.



