
Arizona Blue Stake

DESTINATION AUDIT FOR STSINCE00
LIST OF ALL TICKETS SENT BETWEEN 02/18/2005 11:45 PM AND 02/21/2005 11:45 PM

                    SORT BY SEQUENCE NUMBER
Seq. No   |Notice Number     |Type|SadaCode|Delivery Time
----------+------------------+----+--------|-------------------
1         |2005020301219.001 |UPDT|VALYTE11|02/21/2005 07:50 AM
2         |2005022100270.000 |    |CPVLTE13|02/21/2005 09:34 AM
3         |2005021601945.001 |REV |VALYTE10|02/21/2005 01:15 PM
4         |2005022100992.000 |    |CPVLTE11|02/21/2005 02:15 PM
5         |2005022101079.000 |    |VALYTE10|02/21/2005 02:44 PM
6         |2005022101376.000 |    |VALYTE10|02/21/2005 04:23 PM

* indicates ticket # is repeated

Total Tickets: 6

    -Routine            4
REV -Revision           1
UPDT-Update             1

Please call (602) 659-7500 if this data
does not match the tickets you received
between 02/18/2005 11:45 pm and 02/21/2005 11:45 pm


Arizona Blue Stake

DESTINATION AUDIT FOR STSINCE00
LIST OF ALL TICKETS SENT BETWEEN 02/17/2005 11:45 PM AND 02/18/2005 11:45 PM

                    SORT BY SEQUENCE NUMBER
Seq. No   |Notice Number     |Type|SadaCode|Delivery Time
----------+------------------+----+--------|-------------------
1         |2004081301154.009 |UPDT|CPVLTE13|02/18/2005 07:22 AM
2         |2004081301157.009 |UPDT|CPVLTE13|02/18/2005 07:22 AM
3         |2005021800782.000 |    |VALYTE10|02/18/2005 12:09 PM
4         |2005021800792.000 |    |CPVLTE13|02/18/2005 12:09 PM
5         |2005021801026.000 |    |VALYTE10|02/18/2005 01:54 PM
6         |2005021801033.000 |    |VALYTE10|02/18/2005 01:54 PM
7         |2005020201473.002 |UPDT|VALYTE10|02/18/2005 03:30 PM
8         |2005021801422.000 |    |CPVLTE13|02/18/2005 03:30 PM
9         |2005020100099.001 |UPDT|VALYTE11|02/18/2005 04:25 PM
10        |2005021801602.000 |    |VALYTE11|02/18/2005 04:25 PM

* indicates ticket # is repeated

Total Tickets: 10

    -Routine            6
UPDT-Update             4

Please call (602) 659-7500 if this data
does not match the tickets you received
between 02/17/2005 11:45 pm and 02/18/2005 11:45 pm


Arizona Blue Stake

DESTINATION AUDIT FOR STSINCE00
LIST OF ALL TICKETS SENT BETWEEN 02/15/2005 11:45 PM AND 02/16/2005 11:45 PM

                    SORT BY SEQUENCE NUMBER
Seq. No   |Notice Number     |Type|SadaCode|Delivery Time
----------+------------------+----+--------|-------------------
1         |2005021600093.000 |    |VALYTE10|02/16/2005 08:02 AM
2         |2005021600260.000 |    |CPVLTE12|02/16/2005 09:03 AM
3         |2005021600330.000 |    |VALYTE11|02/16/2005 09:18 AM
4         |2005021600464.000 |    |VALYTE10|02/16/2005 09:49 AM
5         |2005021600608.000 |    |VALYTE11|02/16/2005 10:20 AM
6         |2005012601110.002 |UPDT|CPVLTE13|02/16/2005 11:36 AM
7         |2005012601127.002 |UPDT|CPVLTE13|02/16/2005 11:36 AM
8         |2005021600937.000 |    |VALYTE10|02/16/2005 11:36 AM
9         |2005021401233.001 |REV |VALYTE10|02/16/2005 11:41 AM
10        |2005021601143.000 |    |VALYTE10|02/16/2005 12:47 PM
11        |2005021601287.000 |    |VALYTE11|02/16/2005 01:23 PM
12        |2005021601297.000 |    |VALYTE12|02/16/2005 01:23 PM
13        |2005021601388.000 |    |VALYTE10|02/16/2005 01:45 PM
14        |2005021601846.000 |    |CPVLTE12|02/16/2005 03:09 PM
15        |2005021601919.000 |    |CPVLTE12|02/16/2005 03:22 PM
16        |2005021601928.000 |    |CPVLTE12|02/16/2005 03:22 PM
17        |2005021601945.000 |    |VALYTE10|02/16/2005 03:22 PM
18        |2004101302374.009 |UPDT|VALYTE10|02/16/2005 03:45 PM
19        |2004101302381.009 |UPDT|VALYTE10|02/16/2005 03:45 PM
20        |2004101302386.009 |UPDT|VALYTE10|02/16/2005 03:45 PM
21        |2005021602065.000 |    |VALYTE10|02/16/2005 03:45 PM
22        |2005021602279.000 |    |VALYTE11|02/16/2005 05:03 PM

* indicates ticket # is repeated

Total Tickets: 22

    -Routine           16
REV -Revision           1
UPDT-Update             5

Please call (602) 659-7500 if this data
does not match the tickets you received
between 02/15/2005 11:45 pm and 02/16/2005 11:45 pm


Arizona Blue Stake

DESTINATION AUDIT FOR STSINCE00
LIST OF ALL TICKETS SENT BETWEEN 02/16/2005 11:45 PM AND 02/17/2005 11:45 PM

                    SORT BY SEQUENCE NUMBER
Seq. No   |Notice Number     |Type|SadaCode|Delivery Time
----------+------------------+----+--------|-------------------
1         |2005021700056.000 |DMGU|CPVLTE12|02/17/2005 07:04 AM
2         |2005021700058.000 |DMGU|CPVLTE12|02/17/2005 07:05 AM
3         |2005021700181.000 |    |CPVLTE11|02/17/2005 08:11 AM
4         |2005021700277.000 |    |CPVLTE13|02/17/2005 08:33 AM
5         |2005021700551.000 |    |VALYTE11|02/17/2005 09:33 AM
6         |2005021700591.000 |    |VALYTE11|02/17/2005 09:33 AM
7         |2005021700637.000 |    |VALYTE11|02/17/2005 09:53 AM
8         |2005012801683.001 |UPDT|VALYTE10|02/17/2005 10:20 AM
9         |2005012701611.001 |UPDT|VALYTE10|02/17/2005 10:56 AM
10        |2005012701331.001 |UPDT|VALYTE10|02/17/2005 11:15 AM
11        |2005021701023.000 |    |CPVLTE11|02/17/2005 11:27 AM
12        |2005021701051.000 |    |CPVLTE12|02/17/2005 11:27 AM
13        |2005021701137.000 |    |VALYTE10|02/17/2005 12:00 PM
14        |2005021701200.001*|REV |CPVLTE13|02/17/2005 12:13 PM
15        |2005021701200.000*|    |CPVLTE13|02/17/2005 12:13 PM
16        |2005021701500.000 |    |VALYTE11|02/17/2005 01:54 PM
17        |2005021701598.000 |    |VALYTE10|02/17/2005 02:23 PM
18        |2005021701765.000*|EMER|VALYTE10|02/17/2005 02:49 PM
19        |2005021701900.000 |EMER|VALYTE10|02/17/2005 03:16 PM
20        |2005021701765.001*|CANL|VALYTE10|02/17/2005 03:18 PM
21        |2005021702121.000 |    |VALYTE10|02/17/2005 04:27 PM

* indicates ticket # is repeated

Total Tickets: 21

    -Routine           12
CANL-Cancel             1
DMGU-Damaged Utility    2
EMER-Emergency          2
REV -Revision           1
UPDT-Update             3

Please call (602) 659-7500 if this data
does not match the tickets you received
between 02/16/2005 11:45 pm and 02/17/2005 11:45 pm


Arizona Blue Stake

DESTINATION AUDIT FOR STSINCE00
LIST OF ALL TICKETS SENT BETWEEN 02/14/2005 11:45 PM AND 02/15/2005 11:45 PM

                    SORT BY SEQUENCE NUMBER
Seq. No   |Notice Number     |Type|SadaCode|Delivery Time
----------+------------------+----+--------|-------------------
1         |2005021500104.000 |MEET|CPVLTE12|02/15/2005 07:58 AM
2         |2005021500370.000 |    |VALYTE11|02/15/2005 09:09 AM
3         |2005021500471.000 |    |VALYTE11|02/15/2005 09:30 AM
4         |2005012500569.001 |UPDT|VALYTE10|02/15/2005 10:19 AM
5         |2005021500713.000 |    |VALYTE10|02/15/2005 10:40 AM
6         |2005011002057.002 |UPDT|CPVLTE11|02/15/2005 10:53 AM
7         |2005013100540.001 |UPDT|VALYTE11|02/15/2005 10:53 AM
8         |2005021500824.000 |    |CPVLTE12|02/15/2005 11:07 AM
9         |2005021500895.000 |    |CPVLTE13|02/15/2005 11:28 AM
10        |2005021501209.000 |    |VALYTE10|02/15/2005 01:10 PM
11        |2005021501723.000 |    |CPVLTE13|02/15/2005 03:01 PM
12        |2004082600622.009 |UPDT|VALYTE10|02/15/2005 03:37 PM
13        |2005021502040.000 |    |CPVLTE13|02/15/2005 04:04 PM
14        |2005021502046.000 |    |CPVLTE13|02/15/2005 04:04 PM
15        |2005021502048.000 |    |CPVLTE13|02/15/2005 04:04 PM
16        |2005021502052.000 |    |CPVLTE13|02/15/2005 04:04 PM
17        |2005021502056.000 |    |CPVLTE13|02/15/2005 04:04 PM
18        |2005021502060.000 |    |CPVLTE13|02/15/2005 04:15 PM
19        |2005021502107.000 |    |VALYTE11|02/15/2005 04:30 PM
20        |2005021502141.000 |    |VALYTE10|02/15/2005 04:43 PM

* indicates ticket # is repeated

Total Tickets: 20

    -Routine           15
MEET-Meet               1
UPDT-Update             4

Please call (602) 659-7500 if this data
does not match the tickets you received
between 02/14/2005 11:45 pm and 02/15/2005 11:45 pm


