

PUPS AUDIT
UTILIQUEST
ZZQ35
AUDIT FOR 2/4/2004

FOR CODE ZZQ35

TYPE  SEQ#  TICKET                    STATUS                                
----  ----  ------------------------  ------------------------------------- 
      0001  0402020249                DELIVERED
      0002  0402020250                DELIVERED
      0003  0402020251                DELIVERED
      0004  0402020252                DELIVERED
      0005  0402020253                DELIVERED
      0006  0402020254                DELIVERED
      0007  0402020255                DELIVERED
      0008  0402020256                DELIVERED
      0009  0402020257                DELIVERED
      0010  0402020258                DELIVERED
      0011  0402020259                DELIVERED
      0012  0402020260                DELIVERED
      0013  0402020261                DELIVERED
      0014  0402020262                DELIVERED
      0015  0402020263                DELIVERED
      0016  0402020264                DELIVERED
 M    0017  0401300033                DELIVERED
 M    0018  0401300037                DELIVERED
 M    0019  0401300045                DELIVERED
 M    0020  0401300050                DELIVERED
 M    0021  0401300051                DELIVERED
 M    0022  0401300052                DELIVERED
 M    0023  0401300053                DELIVERED
 M    0024  0401300054                DELIVERED
 M    0025  0401300055                DELIVERED
 M    0026  0401300057                DELIVERED
 M    0027  0401300058                DELIVERED
 M    0028  0401300059                DELIVERED
 M    0029  0401300060                DELIVERED
 M    0030  0402020016                DELIVERED
 M    0031  0402020020                DELIVERED
 M    0032  0402020021                DELIVERED
 M    0033  0402020022                DELIVERED
 M    0034  0402020023                DELIVERED
 M    0035  0402020024                DELIVERED
 M    0036  0402020025                DELIVERED
 M    0037  0402020027                DELIVERED
 M    0038  0402020029                DELIVERED
 M    0039  0402020030                DELIVERED
 M    0040  0402020032                DELIVERED
 M    0041  0402020034                DELIVERED
 M    0042  0402020036                DELIVERED
 M    0043  0402020037                DELIVERED
 M    0044  0402020038                DELIVERED
 M    0045  0402020044                DELIVERED
 M    0046  0402020046                DELIVERED
 M    0047  0402020052                DELIVERED
 M    0048  0402020059                DELIVERED
 M    0049  0402020065                DELIVERED
 M    0050  0402020068                DELIVERED
 M    0051  0402020072                DELIVERED
 M    0052  0402020073                DELIVERED
 M    0053  0402020074                DELIVERED
 M    0054  0402020075                DELIVERED
 M    0055  0402020079                DELIVERED
 M    0056  0402020080                DELIVERED
 M    0057  0402020196                DELIVERED
 M    0058  0402020197                DELIVERED
 M    0059  0402020200                DELIVERED
 M    0060  0402020202                DELIVERED
 M    0061  0402020205                DELIVERED
 M    0062  0402020207                DELIVERED
 M    0063  0402020208                DELIVERED
 M    0064  0402020210                DELIVERED
 M    0065  0402020211                DELIVERED
 M    0066  0402020212                DELIVERED
 M    0067  0402020213                DELIVERED
 M    0068  0402020214                DELIVERED
 M    0069  0402020215                DELIVERED
 M    0070  0402020216                DELIVERED
 M    0071  0402020218                DELIVERED
 M    0072  0402020219                DELIVERED
 M    0073  0402020221                DELIVERED
 M    0074  0402020222                DELIVERED
 M    0075  0402020223                DELIVERED
 M    0076  0402020224                DELIVERED
 M    0077  0402020225                DELIVERED
 M    0078  0402020226                DELIVERED
 M    0079  0402020228                DELIVERED
 M    0080  0402020229                DELIVERED
 M    0081  0402020231                DELIVERED
 M    0082  0402020232                DELIVERED
 M    0083  0402020233                DELIVERED
 M    0084  0402020234                DELIVERED
 M    0085  0402020235                DELIVERED
 M    0086  0402020236                DELIVERED
 M    0087  0402020237                DELIVERED
 M    0088  0402020238                DELIVERED
 M    0089  0402020239                DELIVERED
 M    0090  0402020240                DELIVERED
 M    0091  0402020241                DELIVERED
 M    0092  0402020242                DELIVERED
 M    0093  0402020243                DELIVERED
 M    0094  0402030001                DELIVERED
 M    0095  0402030002                DELIVERED
 M    0096  0402030003                DELIVERED
 M    0097  0402030004                DELIVERED
 M    0098  0402030005                DELIVERED
 M    0099  0402030006                DELIVERED
 M    0100  0402030007                DELIVERED
 M    0101  0402030008                DELIVERED
 M    0102  0402030009                DELIVERED
 M    0103  0402030010                DELIVERED
 M    0104  0402030011                DELIVERED
 M    0105  0402030012                DELIVERED
 M    0106  0402030013                DELIVERED
 M    0107  0402030014                DELIVERED
 M    0108  0402030015                DELIVERED
 M    0109  0402030016                DELIVERED
 M    0110  0402030017                DELIVERED
 M    0111  0402030018                DELIVERED
 M    0112  0402030021                DELIVERED
 M    0113  0402030026                DELIVERED
 M    0114  0402030032                DELIVERED
 M    0115  0402030036                DELIVERED
 M    0116  0402030038                DELIVERED
 M    0117  0402030039                DELIVERED
 M    0118  0402030040                DELIVERED
 M    0119  0402030046                DELIVERED
 M    0120  0402030049                DELIVERED
 M    0121  0402030055                DELIVERED
 M    0122  0402030061                DELIVERED
 M    0123  0402030082                DELIVERED
 M    0124  0402030083                DELIVERED
 M    0125  0402030085                DELIVERED
 M    0126  0402030089                DELIVERED
 M    0127  0402030092                DELIVERED
 M    0128  0402030094                DELIVERED
 M    0129  0402030095                DELIVERED
 M    0130  0402030099                DELIVERED
 M    0131  0402030106                DELIVERED
 M    0132  0402030110                DELIVERED
 M    0133  0402030111                DELIVERED
 M    0134  0402030112                DELIVERED
 M    0135  0402030130                DELIVERED
 M    0136  0402030134                DELIVERED
 M    0137  0402030144                DELIVERED
 M    0138  0402030146                DELIVERED
 M    0139  0402030148                DELIVERED
 M    0140  0402030149                DELIVERED
 M    0141  0402030151                DELIVERED
 M    0142  0402030154                DELIVERED
 M    0143  0402030158                DELIVERED
 M    0144  0402030161                DELIVERED
 M    0145  0402030162                DELIVERED
 M    0146  0402030164                DELIVERED
 M    0147  0402030166                DELIVERED
 M    0148  0402030167                DELIVERED
 M    0149  0402030178                DELIVERED
 M    0150  0402030185                DELIVERED
 M    0151  0402030218                DELIVERED
 M    0152  0402030235                DELIVERED
 M    0153  0402030236                DELIVERED
 M    0154  0402030238                DELIVERED
 M    0155  0402030240                DELIVERED
 M    0156  0402030242                DELIVERED
 M    0157  0402030244                DELIVERED
 M    0158  0402030245                DELIVERED
 M    0159  0402030246                DELIVERED
 M    0160  0402030247                DELIVERED
 M    0161  0402030250                DELIVERED
 M    0162  0402030251                DELIVERED
 M    0163  0402030254                DELIVERED
 M    0164  0402030256                DELIVERED
 M    0165  0402030257                DELIVERED
 M    0166  0402030259                DELIVERED
 M    0167  0402030261                DELIVERED
 M    0168  0402030262                DELIVERED
 M    0169  0402030265                DELIVERED
 M    0170  0402030267                DELIVERED
 M    0171  0402030268                DELIVERED
 M    0172  0402030269                DELIVERED
 M    0173  0402030270                DELIVERED
 M    0174  0402030271                DELIVERED
 M    0175  0402030272                DELIVERED
 M    0176  0402030273                DELIVERED
 M    0177  0402030274                DELIVERED
 M    0178  0402030275                DELIVERED
 M    0179  0402030278                DELIVERED
 M    0180  0402030280                DELIVERED
 M    0181  0402030281                DELIVERED
 M    0182  0402030284                DELIVERED
 M    0183  0402030285                DELIVERED
 M    0184  0402030286                DELIVERED
 M    0185  0402030288                DELIVERED
 M    0186  0402030290                DELIVERED
 M    0187  0402030292                DELIVERED
 M    0188  0402030293                DELIVERED
 M    0189  0402030295                DELIVERED
 M    0190  0402030296                DELIVERED
 M    0191  0402030297                DELIVERED
 M    0192  0402030298                DELIVERED
 M    0193  0402030301                DELIVERED
 M    0194  0402030302                DELIVERED
 M    0195  0402030304                DELIVERED
 M    0196  0402030306                DELIVERED
 M    0197  0402030307                DELIVERED
 M    0198  0402030310                DELIVERED
 M    0199  0402030312                DELIVERED
 M    0200  0402030315                DELIVERED
 M    0201  0402030317                DELIVERED
 M    0202  0402030318                DELIVERED
 M    0203  0402030319                DELIVERED
 M    0204  0402030320                DELIVERED
 M    0205  0402030321                DELIVERED
 M    0206  0402030322                DELIVERED
 M    0207  0402030323                DELIVERED
 M    0208  0402030324                DELIVERED
 M    0209  0402040009                DELIVERED
 M    0210  0402040011                DELIVERED
!     0211  0402040014                DELIVERED
!     0212  0402040015                DELIVERED
 M    0213  0402040016                DELIVERED
!     0214  0402040031                DELIVERED
 M    0215  0402040032                DELIVERED
 M    0216  0402040034                DELIVERED
 M    0217  0402040036                DELIVERED
 M    0218  0402040041                DELIVERED
 M    0219  0402040043                DELIVERED
 M    0220  0402040045                DELIVERED
 M    0221  0402040046                DELIVERED
 M    0222  0402040048                DELIVERED
 M    0223  0402040049                DELIVERED
 M    0224  0402040050                DELIVERED
 M    0225  0402040052                DELIVERED
 M    0226  0402040053                DELIVERED
 M    0227  0402040055                DELIVERED
 M    0228  0402040059                DELIVERED
 M    0229  0402040061                DELIVERED
 M    0230  0402040062                DELIVERED
 M    0231  0402040063                DELIVERED
 M    0232  0402040064                DELIVERED
 M    0233  0402040065                DELIVERED
 M    0234  0402040069                DELIVERED
 M    0235  0402040071                DELIVERED
 M    0236  0402040075                DELIVERED
 M    0237  0402040077                DELIVERED
 M    0238  0402040078                DELIVERED
 M    0239  0402040083                DELIVERED
!     0240  0402040084                DELIVERED
 M    0241  0402040085                DELIVERED
 M    0242  0402040088                DELIVERED
 M    0243  0402040091                DELIVERED
 M    0244  0402040092                DELIVERED
 M    0245  0402040093                DELIVERED
 M    0246  0402040094                DELIVERED
 M    0247  0402040096                DELIVERED
!     0248  0402040097                DELIVERED
 M    0249  0402040099                DELIVERED
!     0250  0402040106                DELIVERED
 M    0251  0402040102                DELIVERED
 M    0252  0402040103                DELIVERED
 M    0253  0402040110                DELIVERED
 M    0254  0402040112                DELIVERED
 M    0255  0402040118                DELIVERED
 M    0256  0402040119                DELIVERED
 M    0257  0402040125                DELIVERED
 M    0258  0402040128                DELIVERED
 M    0259  0402040129                DELIVERED
 M    0260  0402040133                DELIVERED
 M    0261  0402040137                DELIVERED
 M    0262  0402040139                DELIVERED
 M    0263  0402040140                DELIVERED
 M    0264  0402040142                DELIVERED
 M    0265  0402040143                DELIVERED
 M    0266  0402040145                DELIVERED
 M    0267  0402040150                DELIVERED
 M    0268  0402040153                DELIVERED
!     0269  0402040155                DELIVERED
 M    0270  0402040157                DELIVERED
 M    0271  0402040159                DELIVERED
 M    0272  0402040161                DELIVERED
 M    0273  0402040163                DELIVERED
 M    0274  0402040164                DELIVERED
!     0275  0402040165                DELIVERED
 M    0276  0402040167                DELIVERED
 M    0277  0402040169                DELIVERED
 M    0278  0402040171                DELIVERED
 M    0279  0402040174                DELIVERED
 M    0280  0402040175                DELIVERED
 M    0281  0402040177                DELIVERED
 M    0282  0402040178                DELIVERED
 M    0283  0402040183                DELIVERED
 M    0284  0402040185                DELIVERED
 M    0285  0402040188                DELIVERED
 M    0286  0402040190                DELIVERED
 M    0287  0402040192                DELIVERED
 M    0288  0402040196                DELIVERED
 M    0289  0402040199                DELIVERED
 M    0290  0402040201                DELIVERED
 M    0291  0402040203                DELIVERED
 M    0292  0402040204                DELIVERED
 M    0293  0402040206                DELIVERED
 M    0294  0402040213                DELIVERED
 M    0295  0402040214                DELIVERED
 M    0296  0402040218                DELIVERED
 M    0297  0402040220                DELIVERED
 M    0298  0402040222                DELIVERED
 M    0299  0402040224                DELIVERED
 M    0300  0402040225                DELIVERED
 M    0301  0402040226                DELIVERED
 M    0302  0402040227                DELIVERED
 M    0303  0402040230                DELIVERED
 M    0304  0402040232                DELIVERED
 M    0305  0402040233                DELIVERED
 M    0306  0402040234                DELIVERED
 M    0307  0402040237                DELIVERED
 M    0308  0402040238                DELIVERED
 M    0309  0402040239                DELIVERED
 M    0310  0402040241                DELIVERED
 M    0311  0402040245                DELIVERED
 M    0312  0402040246                DELIVERED
 M    0313  0402040247                DELIVERED
 M    0314  0402040249                DELIVERED
 M    0315  0402040252                DELIVERED
 M    0316  0402040256                DELIVERED
 M    0317  0402040257                DELIVERED
 M    0318  0402040259                DELIVERED
 M    0319  0402040260                DELIVERED
 M    0320  0402040264                DELIVERED
 M    0321  0402040265                DELIVERED
 M    0322  0402040266                DELIVERED
 M    0323  0402040268                DELIVERED
 M    0324  0402040270                DELIVERED
 M    0325  0402040273                DELIVERED
 M    0326  0402040278                DELIVERED
 M    0327  0402040281                DELIVERED
 M    0328  0402040287                DELIVERED
 M    0329  0402040289                DELIVERED
 M    0330  0402040296                DELIVERED
 M    0331  0402040299                DELIVERED
!     0332  0402040300                DELIVERED
 M    0333  0402040301                DELIVERED
 M    0334  0402040305                DELIVERED
 M    0335  0402040307                DELIVERED
 M    0336  0402040309                DELIVERED
!     0337  0402040314                DELIVERED
 M    0338  0402040316                DELIVERED
!     0339  0402040317                DELIVERED
 M    0340  0402040320                DELIVERED
 M    0341  0402040326                DELIVERED
 M    0342  0402040329                DELIVERED
 M    0343  0402040331                DELIVERED
 M    0344  0402040333                DELIVERED
 M    0345  0402040339                DELIVERED
 M    0346  0402040343                DELIVERED
 M    0347  0402040348                DELIVERED
 M    0348  0402040354                DELIVERED
 M    0349  0402040357                DELIVERED
 M    0350  0402040362                DELIVERED
 M    0351  0402040368                DELIVERED
!     0352  0402040373                DELIVERED
 M    0353  0402040379                DELIVERED
 M    0354  0402040382                DELIVERED
 M    0355  0402040406                DELIVERED
 M    0356  0402040395                DELIVERED
 M    0357  0402040405                DELIVERED
 M    0358  0402040398                DELIVERED
 M    0359  0402040402                DELIVERED
 M    0360  0402040404                DELIVERED
 M    0361  0402040409                DELIVERED
 M    0362  0402040410                DELIVERED
 M    0363  0402040413                DELIVERED
 M    0364  0402040414                DELIVERED
 M    0365  0402040419                DELIVERED
 M    0366  0402040420                DELIVERED
 M    0367  0402040422                DELIVERED
 M    0368  0402040423                DELIVERED
 M    0369  0402040424                DELIVERED
 M    0370  0402040426                DELIVERED
 M    0371  0402040428                DELIVERED
 M    0372  0402040429                DELIVERED
 M    0373  0402040431                DELIVERED
 M    0374  0402040433                DELIVERED
 M    0375  0402040435                DELIVERED
 M    0376  0402040442                DELIVERED
 M    0377  0402040445                DELIVERED
 M    0378  0402040447                DELIVERED
 M    0379  0402040448                DELIVERED
 M    0380  0402040449                DELIVERED
 M    0381  0402040453                DELIVERED
 M    0382  0402040456                DELIVERED
 M    0383  0402040458                DELIVERED
 M    0384  0402040460                DELIVERED
 M    0385  0402040461                DELIVERED
 M    0386  0402040466                DELIVERED
 M    0387  0402040471                DELIVERED
 M    0388  0402040476                DELIVERED
 M    0389  0402040485                DELIVERED
 M    0390  0402040489                DELIVERED
 M    0391  0402040491                DELIVERED
 M    0392  0402040494                DELIVERED
      0393  0402040498                DELIVERED
 M    0394  0402040502                DELIVERED
 M    0395  0402040503                DELIVERED
 M    0396  0402040505                DELIVERED
 M    0397  0402040506                DELIVERED
 M    0398  0402040508                DELIVERED
 M    0399  0402040510                DELIVERED
 M    0400  0402040512                DELIVERED
 M    0401  0402040513                DELIVERED
 M    0402  0402040518                DELIVERED
 M    0403  0402040519                DELIVERED
 M    0404  0402040521                DELIVERED
 M    0405  0402040526                DELIVERED
 M    0406  0402040535                DELIVERED
 M    0407  0402040538                DELIVERED
!     0408  0402040542                DELIVERED
 M    0409  0402040545                DELIVERED
 M    0410  0402040547                DELIVERED
 M    0411  0402040551                DELIVERED
 M    0412  0402040558                DELIVERED
 M    0413  0402040568                DELIVERED
 M    0414  0402040576                DELIVERED
 M    0415  0402040577                DELIVERED
!     0416  0402040587                DELIVERED
 M    0417  0402040588                DELIVERED
 M    0418  0402040592                DELIVERED
 M    0419  0402040594                DELIVERED
 M    0420  0402040597                DELIVERED
 M    0421  0402040600                DELIVERED
 M    0422  0402040601                DELIVERED
 M    0423  0402040603                DELIVERED
 M    0424  0402040607                DELIVERED
 M    0425  0402040610                DELIVERED
 M    0426  0402040611                DELIVERED
 M    0427  0402040612                DELIVERED
 M    0428  0402040613                DELIVERED
 M    0429  0402040614                DELIVERED
 M    0430  0402040615                DELIVERED
 M    0431  0402040616                DELIVERED
 M    0432  0402040619                DELIVERED
 M    0433  0402040620                DELIVERED
 M    0434  0402040621                DELIVERED
 M    0435  0402040622                DELIVERED
 M    0436  0402040623                DELIVERED
!     0437  0402040624                DELIVERED
!     0438  0402040627                DELIVERED
 M    0439  0402040628                DELIVERED
 M    0440  0402040630                DELIVERED
!     0441  0402040633                DELIVERED
 M    0442  0402040643                DELIVERED
 M    0443  0402040644                DELIVERED
 M    0444  0402040648                DELIVERED
 M    0445  0402040647                DELIVERED
 M    0446  0402040651                DELIVERED
 M    0447  0402040656                DELIVERED
 M    0448  0402040658                DELIVERED
!     0449  0402040661                DELIVERED
 M    0450  0402040662                DELIVERED
!     0451  0402040665                DELIVERED
 M    0452  0402040666                DELIVERED
 M    0453  0402040667                DELIVERED
 M    0454  0402040670                DELIVERED
 M    0455  0402040673                DELIVERED
*M    0456  0402040535                DELIVERED
*M    0457  0402040538                DELIVERED
*M    0458  0402040508                DELIVERED
*M    0459  0402040506                DELIVERED
*M    0460  0402040510                DELIVERED
*M    0461  0402040512                DELIVERED
*M    0462  0402040502                DELIVERED
*M    0463  0402040503                DELIVERED
*M    0464  0402040485                DELIVERED
*M    0465  0402040476                DELIVERED
*M    0466  0402040471                DELIVERED
*M    0467  0402040466                DELIVERED
*M    0468  0402040456                DELIVERED
*M    0469  0402040453                DELIVERED
*M    0470  0402040458                DELIVERED
*M    0471  0402040448                DELIVERED
*M    0472  0402040449                DELIVERED
*M    0473  0402040442                DELIVERED
*M    0474  0402040445                DELIVERED
*M    0475  0402040447                DELIVERED
*M    0476  0402040357                DELIVERED
*M    0477  0402040362                DELIVERED
*M    0478  0402040368                DELIVERED
*M    0479  0402040333                DELIVERED
*M    0480  0402040339                DELIVERED
*!    0481  0402040300                DELIVERED
*M    0482  0402040343                DELIVERED
*M    0483  0402040307                DELIVERED
*M    0484  0402040309                DELIVERED
*M    0485  0402040301                DELIVERED
*M    0486  0402040305                DELIVERED
*M    0487  0402040299                DELIVERED
*M    0488  0402040273                DELIVERED
*M    0489  0402040281                DELIVERED
*M    0490  0402040232                DELIVERED
*M    0491  0402040234                DELIVERED
*M    0492  0402040237                DELIVERED
*M    0493  0402040199                DELIVERED
*M    0494  0402040204                DELIVERED
*M    0495  0402040196                DELIVERED
*M    0496  0402040183                DELIVERED
*M    0497  0402040185                DELIVERED
*M    0498  0402040175                DELIVERED
*M    0499  0402040174                DELIVERED
*M    0500  0402040171                DELIVERED
*M    0501  0402040171                IN PROCESS
*M    0502  0402040164                DELIVERED
*M    0503  0402040167                DELIVERED
*M    0504  0402040163                DELIVERED
*!    0505  0402040155                DELIVERED
*M    0506  0402040161                DELIVERED
*M    0507  0402040159                DELIVERED
*M    0508  0402040153                DELIVERED
*M    0509  0402040145                DELIVERED
*M    0510  0402040137                DELIVERED
*M    0511  0402040140                DELIVERED
 M    0512  0402040689                DELIVERED
 M    0513  0402040691                DELIVERED
 M    0514  0402040698                DELIVERED
 M    0515  0402040701                DELIVERED
 M    0516  0402040709                DELIVERED
 M    0517  0402040710                DELIVERED
 M    0518  0402040719                DELIVERED
 M    0519  0402040738                DELIVERED
 M    0520  0402040741                DELIVERED
 M    0521  0402040742                DELIVERED
!     0522  0402040745                DELIVERED
 M    0523  0402040746                DELIVERED
!     0524  0402040747                DELIVERED
 M    0525  0402040749                DELIVERED
 M    0526  0402040752                DELIVERED
 M    0527  0402040753                DELIVERED
 M    0528  0402040756                DELIVERED
 M    0529  0402040759                DELIVERED
 M    0530  0402040761                DELIVERED
 M    0531  0402040765                DELIVERED
 M    0532  0402040767                DELIVERED
 M    0533  0402040772                DELIVERED
 M    0534  0402040774                DELIVERED
 M    0535  0402040778                DELIVERED
 M    0536  0402040779                DELIVERED
 M    0537  0402040782                DELIVERED
*M    0538  0402040129                DELIVERED
 M    0539  0402040788                DELIVERED
 M    0540  0402040789                DELIVERED
 M    0541  0402040791                DELIVERED
*!    0542  0402040106                DELIVERED
 M    0543  0402040792                DELIVERED
*M    0544  0402040125                DELIVERED
*M    0545  0402040128                DELIVERED
*M    0546  0402040118                DELIVERED
*M    0547  0402040119                DELIVERED
*!    0548  0402040097                DELIVERED
*M    0549  0402040099                DELIVERED
*M    0550  0402040096                DELIVERED
*M    0551  0402040075                DELIVERED
*M    0552  0402040077                DELIVERED
*M    0553  0402040065                DELIVERED
*M    0554  0402040069                DELIVERED
*M    0555  0402040064                DELIVERED
*!    0556  0402040031                DELIVERED
*!    0557  0402040014                DELIVERED
*M    0558  0402040011                DELIVERED
 M    0559  0402040795                DELIVERED
 M    0560  0402040796                DELIVERED
*!    0561  0402040587                DELIVERED
 M    0562  0402040801                DELIVERED
 M    0563  0402040802                DELIVERED
*M    0564  0402040588                DELIVERED
*M    0565  0402040576                DELIVERED
*M    0566  0402040577                DELIVERED
*M    0567  0402040568                DELIVERED
*M    0568  0402040558                DELIVERED
*M    0569  0402040551                DELIVERED
*M    0570  0402040545                DELIVERED
*!    0571  0402040542                DELIVERED
 M    0572  0402040804                DELIVERED
*M    0573  0402040597                DELIVERED
 M    0574  0402040806                DELIVERED
*M    0575  0402040594                DELIVERED
*M    0576  0402040592                DELIVERED
 M    0577  0402040810                DELIVERED
 M    0578  0402040811                DELIVERED
 M    0579  0402040819                DELIVERED
 M    0580  0402040822                DELIVERED
 M    0581  0402040826                DELIVERED
 M    0582  0402040828                DELIVERED
 M    0583  0402040831                DELIVERED
 M    0584  0402040835                DELIVERED
 M    0585  0402040836                DELIVERED
 M    0586  0402040841                DELIVERED
 M    0587  0402040845                DELIVERED
 M    0588  0402040851                DELIVERED
 M    0589  0402040852                DELIVERED
 M    0590  0402040853                DELIVERED
 M    0591  0402040854                DELIVERED
 M    0592  0402040856                DELIVERED
!     0593  0402040858                DELIVERED
 M    0594  0402040860                DELIVERED
 M    0595  0402040862                DELIVERED
 M    0596  0402040863                DELIVERED
 M    0597  0402040865                DELIVERED
 M    0598  0402040867                DELIVERED
 M    0599  0402040869                DELIVERED
 M    0600  0402040871                DELIVERED
 M    0601  0402040874                DELIVERED
 M    0602  0402040880                DELIVERED
 M    0603  0402040881                DELIVERED
 M    0604  0402040883                DELIVERED
 M    0605  0402040887                DELIVERED
 M    0606  0402040889                DELIVERED
 M    0607  0402040890                DELIVERED
 M    0608  0402040892                DELIVERED
 M    0609  0402040893                DELIVERED
!     0610  0402040894                DELIVERED
!     0611  0402040899                DELIVERED
!     0612  0402040904                DELIVERED
 M    0613  0402040905                DELIVERED
 M    0614  0402040908                DELIVERED
 M    0615  0402040911                DELIVERED
 M    0616  0402040914                DELIVERED
 M    0617  0402040915                DELIVERED
 M    0618  0402040921                DELIVERED
 M    0619  0402040933                DELIVERED
 M    0620  0402040935                DELIVERED
 M    0621  0402040939                DELIVERED
 M    0622  0402040940                DELIVERED
 M    0623  0402040943                DELIVERED
!     0624  0402040944                DELIVERED
 M    0625  0402040946                DELIVERED
 M    0626  0402040948                DELIVERED
 M    0627  0402040949                DELIVERED
 M    0628  0402040953                DELIVERED
 M    0629  0402040956                DELIVERED
 M    0630  0402040961                DELIVERED
 M    0631  0402040962                DELIVERED
 M    0632  0402040966                DELIVERED
!     0633  0402040970                DELIVERED
 M    0634  0402040967                DELIVERED
 M    0635  0402040968                DELIVERED
 M    0636  0402040972                DELIVERED
 M    0637  0402040973                DELIVERED
 M    0638  0402040974                DELIVERED
 M    0639  0402040975                DELIVERED
 M    0640  0402040976                DELIVERED
 M    0641  0402040977                DELIVERED
 M    0642  0402040978                DELIVERED
 M    0643  0402040979                DELIVERED
 M    0644  0402040980                DELIVERED
 M    0645  0402040983                DELIVERED
 M    0646  0402040985                DELIVERED
*!    0647  0402040624                DELIVERED
*!    0648  0402040627                DELIVERED
 M    0649  0402040988                DELIVERED
 M    0650  0402040989                DELIVERED
 M    0651  0402040990                DELIVERED
*M    0652  0402040979                DELIVERED
*M    0653  0402040612                DELIVERED
*M    0654  0402040616                DELIVERED
*M    0655  0402040613                DELIVERED
*M    0656  0402040615                DELIVERED
*M    0657  0402040620                DELIVERED
*M    0658  0402040623                DELIVERED
*M    0659  0402040621                DELIVERED
*M    0660  0402040597                DELIVERED
*M    0661  0402040594                DELIVERED
*M    0662  0402040600                DELIVERED
*M    0663  0402040603                DELIVERED
*M    0664  0402040607                DELIVERED
*M    0665  0402040611                DELIVERED
*M    0666  0402040610                DELIVERED
 M    0667  0402040993                DELIVERED
 M    0668  0402040995                DELIVERED
 M    0669  0402040996                DELIVERED
 M    0670  0402040998                DELIVERED
 M    0671  0402041001                DELIVERED
 M    0672  0402041002                DELIVERED
 M    0673  0402041003                DELIVERED
 M    0674  0402041005                DELIVERED
 M    0675  0402041006                DELIVERED
 M    0676  0402041009                DELIVERED
 M    0677  0402041012                DELIVERED
 M    0678  0402041013                DELIVERED
 M    0679  0402041014                DELIVERED
 M    0680  0402041015                DELIVERED
 M    0681  0402041017                DELIVERED
 M    0682  0402041019                DELIVERED
 M    0683  0402041022                DELIVERED
 M    0684  0402041024                DELIVERED
 M    0685  0402041025                DELIVERED
 M    0686  0402041026                DELIVERED
 M    0687  0402041028                DELIVERED
 M    0688  0402041029                DELIVERED
 M    0689  0402041030                DELIVERED
 M    0690  0402041031                DELIVERED
 M    0691  0402041032                DELIVERED
 M    0692  0402041033                DELIVERED
 M    0693  0402041035                DELIVERED
 M    0694  0402041037                DELIVERED
 M    0695  0402041038                DELIVERED
 M    0696  0402041039                DELIVERED
 M    0697  0402041040                DELIVERED
 M    0698  0402041043                DELIVERED
 M    0699  0402041044                DELIVERED
 M    0700  0402041045                DELIVERED
 M    0701  0402041046                DELIVERED
 M    0702  0402041047                DELIVERED
 M    0703  0402041049                DELIVERED
 M    0704  0402041054                DELIVERED
 M    0705  0402041057                DELIVERED
 M    0706  0402041058                DELIVERED
 M    0707  0402041060                DELIVERED
 M    0708  0402041064                DELIVERED
 M    0709  0402041066                DELIVERED
 M    0710  0402041067                DELIVERED
 M    0711  0402041073                DELIVERED
 M    0712  0402041077                DELIVERED
 M    0713  0402041078                DELIVERED
 M    0714  0402041079                DELIVERED
 M    0715  0402041081                DELIVERED
 M    0716  0402041082                DELIVERED
 M    0717  0402041088                DELIVERED
 M    0718  0402041091                DELIVERED
 M    0719  0402041093                DELIVERED
 M    0720  0402041096                DELIVERED
 M    0721  0402041099                DELIVERED
 M    0722  0402041101                DELIVERED
 M    0723  0402041103                DELIVERED
 M    0724  0402041105                DELIVERED
 M    0725  0402041107                DELIVERED
      0726  0402041109                DELIVERED
!     0727  0402041110                DELIVERED
 M    0728  0402041111                DELIVERED
 M    0729  0402041113                DELIVERED
 M    0730  0402041115                DELIVERED
 M    0731  0402041118                DELIVERED
 M    0732  0402041119                DELIVERED
 M    0733  0402041120                DELIVERED
 M    0734  0402041122                DELIVERED
 M    0735  0402041126                DELIVERED
 M    0736  0402041127                DELIVERED
 M    0737  0402041128                DELIVERED
 M    0738  0402041129                DELIVERED
 M    0739  0402041131                DELIVERED
 M    0740  0402041132                DELIVERED
      0741  0402041134                DELIVERED
 M    0742  0402041135                DELIVERED
 M    0743  0402041139                DELIVERED
 M    0744  0402041142                DELIVERED
 M    0745  0402041143                DELIVERED
 M    0746  0402041155                DELIVERED
 M    0747  0402041162                DELIVERED
!     0748  0402041163                DELIVERED
 M    0749  0402041166                DELIVERED
 M    0750  0402041170                DELIVERED
 M    0751  0402041171                DELIVERED
 M    0752  0402041172                DELIVERED
 M    0753  0402041174                DELIVERED
 M    0754  0402041175                DELIVERED
*M    0755  0402040628                DELIVERED
*M    0756  0402040630                DELIVERED
*!    0757  0402040633                DELIVERED
 M    0758  0402041178                DELIVERED
 M    0759  0402041179                DELIVERED
 M    0760  0402041185                DELIVERED
 M    0761  0402041186                DELIVERED
 M    0762  0402041193                DELIVERED
 M    0763  0402041195                DELIVERED
 M    0764  0402041198                DELIVERED
 M    0765  0402041199                DELIVERED
 M    0766  0402041201                DELIVERED
 M    0767  0402041204                DELIVERED
!     0768  0402041205                DELIVERED
 M    0769  0402041209                DELIVERED
 M    0770  0402041210                DELIVERED
 M    0771  0402041212                DELIVERED
      0772  0402041213                DELIVERED
 M    0773  0402041214                DELIVERED
 M    0774  0402041215                DELIVERED
 M    0775  0402041217                DELIVERED
 M    0776  0402041223                DELIVERED
 M    0777  0402041226                DELIVERED
 M    0778  0402041233                DELIVERED
 M    0779  0402041235                DELIVERED
 M    0780  0402041236                DELIVERED
 M    0781  0402041242                DELIVERED
 M    0782  0402041243                DELIVERED
 M    0783  0402041244                DELIVERED
 M    0784  0402041252                DELIVERED
 M    0785  0402041256                DELIVERED
 M    0786  0402041260                DELIVERED
 M    0787  0402041263                DELIVERED
 M    0788  0402041264                DELIVERED
 M    0789  0402041265                DELIVERED
 M    0790  0402041274                DELIVERED
 M    0791  0402041275                DELIVERED
 M    0792  0402041276                DELIVERED
 M    0793  0402041285                DELIVERED
 M    0794  0402041288                DELIVERED
 M    0795  0402041296                DELIVERED
 M    0796  0402041297                DELIVERED
 M    0797  0402041299                DELIVERED
      0798  0402041300                DELIVERED
 M    0799  0402041302                DELIVERED
 M    0800  0402041308                DELIVERED
 M    0801  0402041309                DELIVERED
 M    0802  0402041312                DELIVERED
 M    0803  0402041314                DELIVERED
 M    0804  0402041317                DELIVERED
 M    0805  0402041318                DELIVERED
 M    0806  0402041320                DELIVERED
 M    0807  0402041323                DELIVERED
 M    0808  0402041324                DELIVERED
!     0809  0402041330                DELIVERED
 M    0810  0402041328                DELIVERED
 M    0811  0402041329                DELIVERED
 M    0812  0402041331                DELIVERED
 M    0813  0402041336                DELIVERED
!     0814  0402041338                DELIVERED
      0815  0402041342                DELIVERED
 M    0816  0402041344                DELIVERED
 M    0817  0402041345                DELIVERED
 M    0818  0402041346                DELIVERED
 M    0819  0402041349                DELIVERED
      0820  0402041351                DELIVERED
      0821  0402041352                DELIVERED
 M    0822  0402041353                DELIVERED
 M    0823  0402041355                DELIVERED
 M    0824  0402041356                DELIVERED
 M    0825  0402041360                DELIVERED
 M    0826  0402041361                DELIVERED
 M    0827  0402041363                DELIVERED
 M    0828  0402041367                DELIVERED
 M    0829  0402041368                DELIVERED
 M    0830  0402041373                DELIVERED
 M    0831  0402041381                DELIVERED
 M    0832  0402041386                DELIVERED
 M    0833  0402041387                DELIVERED
 M    0834  0402041389                DELIVERED
 M    0835  0402041394                DELIVERED
 M    0836  0402041396                DELIVERED
 M    0837  0402041398                DELIVERED
 M    0838  0402041400                DELIVERED
 M    0839  0402041403                DELIVERED
 M    0840  0402041405                DELIVERED
 M    0841  0402041408                DELIVERED
      0842  0402041410                DELIVERED
 M    0843  0402041412                DELIVERED
 M    0844  0402041413                DELIVERED
 M    0845  0402041416                DELIVERED
 M    0846  0402041417                DELIVERED
      0847  0402041418                DELIVERED
 M    0848  0402041419                DELIVERED
 M    0849  0402041421                DELIVERED
 M    0850  0402041422                DELIVERED
 M    0851  0402041425                DELIVERED
 M    0852  0402041426                DELIVERED
 M    0853  0402041428                DELIVERED
 M    0854  0402041430                DELIVERED
 M    0855  0402041431                DELIVERED
 M    0856  0402041435                DELIVERED
 M    0857  0402041436                DELIVERED
 M    0858  0402041439                DELIVERED
      0859  0402041443                DELIVERED
 M    0860  0402041440                DELIVERED
 M    0861  0402041444                DELIVERED
 M    0862  0402041446                DELIVERED
 M    0863  0402041449                DELIVERED
 M    0864  0402041451                DELIVERED
 M    0865  0402041455                DELIVERED
 M    0866  0402041457                DELIVERED
 M    0867  0402041458                DELIVERED
 M    0868  0402041460                DELIVERED
 M    0869  0402041465                DELIVERED
 M    0870  0402041468                DELIVERED
 M    0871  0402041471                DELIVERED
 M    0872  0402041472                DELIVERED
 M    0873  0402041473                DELIVERED
 M    0874  0402041474                DELIVERED
 M    0875  0402041475                DELIVERED
 M    0876  0402041476                DELIVERED
 M    0877  0402041478                DELIVERED
 M    0878  0402041479                DELIVERED
 M    0879  0402041482                DELIVERED
 M    0880  0402041485                DELIVERED
 M    0881  0402041489                DELIVERED
!     0882  0402041490                DELIVERED
 M    0883  0402041493                DELIVERED
 M    0884  0402041497                DELIVERED
 M    0885  0402041498                DELIVERED
 M    0886  0402041501                DELIVERED
 M    0887  0402041504                DELIVERED
 M    0888  0402041507                DELIVERED
 M    0889  0402041508                DELIVERED
 M    0890  0402041509                DELIVERED
 M    0891  0402041510                DELIVERED
 M    0892  0402041511                DELIVERED
 M    0893  0402041512                DELIVERED
 M    0894  0402041514                DELIVERED
 M    0895  0402041515                DELIVERED
 M    0896  0402041517                DELIVERED
 M    0897  0402041520                DELIVERED
      0898  0402041521                DELIVERED
 M    0899  0402041522                DELIVERED
 M    0900  0402041524                DELIVERED
 M    0901  0402041527                DELIVERED
 M    0902  0402041528                DELIVERED
 M    0903  0402041529                DELIVERED
 M    0904  0402041531                DELIVERED
 M    0905  0402041533                DELIVERED
 M    0906  0402041535                DELIVERED
 M    0907  0402041536                DELIVERED
 M    0908  0402041538                DELIVERED
 M    0909  0402041542                DELIVERED
 M    0910  0402041543                DELIVERED
 M    0911  0402041547                DELIVERED
 M    0912  0402041548                DELIVERED
 M    0913  0402041556                DELIVERED
 M    0914  0402041558                DELIVERED
 M    0915  0402041559                DELIVERED
 M    0916  0402041562                DELIVERED
 M    0917  0402041563                DELIVERED
 M    0918  0402041564                DELIVERED
 M    0919  0402041567                DELIVERED
 M    0920  0402041569                DELIVERED
 M    0921  0402041573                DELIVERED
 M    0922  0402041575                IN PROCESS
 M    0923  0402041576                DELIVERED
 M    0924  0402041577                DELIVERED
 M    0925  0402041578                DELIVERED
 M    0926  0402041579                DELIVERED
 M    0927  0402041583                DELIVERED
 M    0928  0402041584                DELIVERED
 M    0929  0402041585                DELIVERED
 M    0930  0402041589                DELIVERED
 M    0931  0402041593                DELIVERED
 M    0932  0402041594                DELIVERED
 M    0933  0402041596                DELIVERED
 M    0934  0402041599                DELIVERED
 M    0935  0402041600                DELIVERED
 M    0936  0402041603                DELIVERED
 M    0937  0402041604                DELIVERED
 M    0938  0402041605                DELIVERED
 M    0939  0402041606                DELIVERED
 M    0940  0402041607                DELIVERED
 M    0941  0402041608                DELIVERED
 M    0942  0402041609                DELIVERED
 M    0943  0402041610                DELIVERED
 M    0944  0402041611                DELIVERED
 M    0945  0402041612                DELIVERED
 M    0946  0402041617                DELIVERED
      0947  0402041618                DELIVERED
      0948  0402041621                DELIVERED
 M    0949  0402041622                DELIVERED
 M    0950  0402041626                DELIVERED
 M    0951  0402041628                DELIVERED
 M    0952  0402041630                DELIVERED
      0953  0402041633                DELIVERED
 M    0954  0402041635                DELIVERED
      0955  0402041637                DELIVERED
      0956  0402041638                DELIVERED
 M    0957  0402041642                DELIVERED
 M    0958  0402041641                DELIVERED
 M    0959  0402041643                DELIVERED
 M    0960  0402041646                DELIVERED
      0961  0402041648                DELIVERED
 M    0962  0402041649                DELIVERED
 M    0963  0402041650                DELIVERED
      0964  0402041652                DELIVERED
 M    0965  0402041655                DELIVERED
 M    0966  0402041656                DELIVERED
 M    0967  0402041658                DELIVERED
 M    0968  0402041659                DELIVERED
      0969  0402041660                DELIVERED
 M    0970  0402041662                DELIVERED
 M    0971  0402041663                DELIVERED
      0972  0402041665                DELIVERED
 M    0973  0402041666                DELIVERED
 M    0974  0402041668                DELIVERED
      0975  0402041669                DELIVERED
 M    0976  0402041672                DELIVERED
 M    0977  0402041674                DELIVERED
 M    0978  0402041678                DELIVERED
 M    0979  0402041679                DELIVERED
 M    0980  0402041681                DELIVERED
 M    0981  0402041682                DELIVERED
 M    0982  0402041683                DELIVERED
      0983  0402041684                DELIVERED
 M    0984  0402041685                DELIVERED
 M    0985  0402041687                DELIVERED
      0986  0402041688                DELIVERED
 M    0987  0402041690                DELIVERED
 M    0988  0402041692                DELIVERED
 M    0989  0402041696                DELIVERED
 M    0990  0402041697                DELIVERED
      0991  0402041698                DELIVERED
      0992  0402041699                DELIVERED
 M    0993  0402041700                DELIVERED
 M    0994  0402041701                DELIVERED
 M    0995  0402041705                DELIVERED
 M    0996  0402041708                DELIVERED
      0997  0402041709                DELIVERED
      0998  0402041711                DELIVERED
 M    0999  0402041713                DELIVERED
 M    1000  0402041715                DELIVERED
 M    1001  0402041717                DELIVERED
 M    1002  0402041724                DELIVERED
 M    1003  0402041730                DELIVERED
 M    1004  0402041736                DELIVERED
      1005  0402041739                FAILED
 M    1006  0402041741                FAILED
 M    1007  0402041742                DELIVERED
 M    1008  0402041746                DELIVERED
 M    1009  0402041749                DELIVERED
 M    1010  0402041752                DELIVERED
 M    1011  0402041771                DELIVERED
 M    1012  0402041775                DELIVERED
      1013  0402041783                DELIVERED
 M    1014  0402041785                DELIVERED
 M    1015  0402041787                DELIVERED
      1016  0402041789                DELIVERED
      1017  0402041792                DELIVERED
 M    1018  0402041794                DELIVERED
      1019  0402041796                DELIVERED
 M    1020  0402041802                DELIVERED
 M    1021  0402041803                DELIVERED
      1022  0402041808                DELIVERED
 M    1023  0402041810                DELIVERED
 M    1024  0402041817                DELIVERED
      1025  0402041824                DELIVERED
 M    1026  0402041822                DELIVERED
      1027  0402041826                DELIVERED
 M    1028  0402041827                DELIVERED
      1029  0402041828                DELIVERED
 M    1030  0402041830                DELIVERED
      1031  0402041831                DELIVERED
 M    1032  0402041832                DELIVERED
      1033  0402041834                DELIVERED
 M    1034  0402041835                DELIVERED
 M    1035  0402041837                DELIVERED
 M    1036  0402041839                DELIVERED
 M    1037  0402041842                DELIVERED
      1038  0402041843                DELIVERED
      1039  0402041844                DELIVERED
      1040  0402041845                DELIVERED
 M    1041  0402041846                DELIVERED
 M    1042  0402041847                DELIVERED
 M    1043  0402041848                DELIVERED
 M    1044  0402041849                DELIVERED
      1045  0402041854                DELIVERED
 M    1046  0402041855                DELIVERED
 M    1047  0402041857                DELIVERED
      1048  0402041858                DELIVERED
 M    1049  0402041859                DELIVERED
 M    1050  0402041860                DELIVERED
 M    1051  0402041861                DELIVERED
 M    1052  0402041867                DELIVERED
 M    1053  0402041868                DELIVERED
 M    1054  0402041870                DELIVERED
 M    1055  0402041874                DELIVERED
      1056  0402041878                DELIVERED
 M    1057  0402041879                DELIVERED
      1058  0402041880                DELIVERED
      1059  0402041882                DELIVERED
 M    1060  0402041883                DELIVERED
 M    1061  0402041884                DELIVERED
 M    1062  0402041886                DELIVERED
 M    1063  0402041889                DELIVERED
 M    1064  0402041890                DELIVERED
 M    1065  0402041897                DELIVERED
 M    1066  0402041899                DELIVERED
 M    1067  0402041901                DELIVERED
 M    1068  0402041910                DELIVERED
 M    1069  0402041911                DELIVERED
 M    1070  0402041914                DELIVERED
 M    1071  0402041917                DELIVERED
      1072  0402041918                DELIVERED
      1073  0402041920                DELIVERED
 M    1074  0402041924                DELIVERED
 M    1075  0402041929                DELIVERED
      1076  0402041935                DELIVERED
 M    1077  0402041942                DELIVERED
 M    1078  0402041953                DELIVERED
      1079  0402041959                DELIVERED
 M    1080  0402041964                DELIVERED
 M    1081  0402041965                DELIVERED
 M    1082  0402041968                DELIVERED
 M    1083  0402041969                DELIVERED
 M    1084  0402041970                DELIVERED
 M    1085  0402041973                DELIVERED
 M    1086  0402041974                DELIVERED
 M    1087  0402041976                DELIVERED
 M    1088  0402041978                DELIVERED
 M    1089  0402041980                DELIVERED
 M    1090  0402041989                DELIVERED
 M    1091  0402041990                DELIVERED
      1092  0402041993                DELIVERED
 M    1093  0402041994                DELIVERED
 M    1094  0402041995                DELIVERED
 M    1095  0402041996                DELIVERED
      1096  0402041997                DELIVERED
 M    1097  0402042001                DELIVERED
 M    1098  0402042002                DELIVERED
 M    1099  0402042005                DELIVERED
 M    1100  0402042010                DELIVERED
 M    1101  0402042011                DELIVERED
 M    1102  0402042012                DELIVERED
 M    1103  0402042013                DELIVERED
 M    1104  0402042014                DELIVERED
 M    1105  0402042016                DELIVERED
 M    1106  0402042020                DELIVERED
 M    1107  0402042026                DELIVERED
 M    1108  0402042027                DELIVERED
 M    1109  0402042029                DELIVERED
 M    1110  0402042030                DELIVERED
 M    1111  0402042031                DELIVERED
 M    1112  0402042037                DELIVERED
 M    1113  0402042039                DELIVERED
 M    1114  0402042043                DELIVERED
 M    1115  0402042044                DELIVERED
 M    1116  0402042047                DELIVERED
 M    1117  0402042051                DELIVERED
 M    1118  0402042053                DELIVERED
 M    1119  0402042055                DELIVERED
 M    1120  0402042061                DELIVERED
 M    1121  0402042065                DELIVERED
 M    1122  0402042066                DELIVERED
 M    1123  0402042067                DELIVERED
 M    1124  0402042068                DELIVERED
 M    1125  0402042069                DELIVERED
 M    1126  0402042072                DELIVERED
 M    1127  0402042073                DELIVERED
 M    1128  0402042074                DELIVERED
 M    1129  0402042075                DELIVERED
 M    1130  0402042078                DELIVERED
 M    1131  0402042079                DELIVERED
 M    1132  0402042082                DELIVERED
 M    1133  0402042083                DELIVERED
 M    1134  0402042088                DELIVERED
 M    1135  0402042090                DELIVERED
 M    1136  0402042092                DELIVERED
 M    1137  0402042093                DELIVERED
 M    1138  0402042095                DELIVERED
 M    1139  0402042096                DELIVERED
 M    1140  0402042098                DELIVERED
 M    1141  0402042099                DELIVERED
 M    1142  0402042106                DELIVERED
 M    1143  0402042113                DELIVERED
 M    1144  0402042114                DELIVERED
 M    1145  0402042118                DELIVERED
 M    1146  0402042119                DELIVERED
 M    1147  0402042120                DELIVERED
 M    1148  0402042122                DELIVERED
 M    1149  0402042131                DELIVERED
 M    1150  0402042139                DELIVERED
 M    1151  0402042143                DELIVERED
 M    1152  0402042145                DELIVERED
 M    1153  0402042147                DELIVERED
 M    1154  0402042146                DELIVERED
 M    1155  0402042149                DELIVERED
 M    1156  0402042151                DELIVERED
 M    1157  0402042154                DELIVERED
 M    1158  0402042155                DELIVERED
 M    1159  0402042156                DELIVERED
 M    1160  0402042157                DELIVERED
 M    1161  0402042160                DELIVERED
 M    1162  0402042164                DELIVERED
 M    1163  0402042165                DELIVERED
      1164  0402042196                DELIVERED
 M    1165  0402042179                DELIVERED
 M    1166  0402042181                DELIVERED
 M    1167  0402042184                DELIVERED
 M    1168  0402042185                DELIVERED
 M    1169  0402042187                DELIVERED
 M    1170  0402042188                DELIVERED
 M    1171  0402042191                DELIVERED
 M    1172  0402042197                DELIVERED
 M    1173  0402042200                DELIVERED
 M    1174  0402042201                DELIVERED
 M    1175  0402042202                DELIVERED
 M    1176  0402042206                DELIVERED
 M    1177  0402042208                DELIVERED
 M    1178  0402042213                DELIVERED
 M    1179  0402042214                DELIVERED
 M    1180  0402042215                DELIVERED
 M    1181  0402042220                DELIVERED
 M    1182  0402042221                DELIVERED
 M    1183  0402042224                DELIVERED
 M    1184  0402042228                DELIVERED
 M    1185  0402042229                DELIVERED
 M    1186  0402042231                FAILED
      1187  0402042233                DELIVERED
 M    1188  0402042236                DELIVERED
      1189  0402042241                DELIVERED
 M    1190  0402042239                DELIVERED
 M    1191  0402042242                DELIVERED
      1192  0402042247                DELIVERED
 M    1193  0402042246                DELIVERED
 M    1194  0402042251                DELIVERED
 M    1195  0402042253                DELIVERED
      1196  0402042258                DELIVERED
 M    1197  0402042261                DELIVERED
 M    1198  0402042263                DELIVERED
 M    1199  0402042265                DELIVERED
 M    1200  0402042284                DELIVERED
 M    1201  0402042287                DELIVERED
 M    1202  0402042289                DELIVERED
 M    1203  0402042293                DELIVERED
 M    1204  0402042294                DELIVERED
 M    1205  0402042295                DELIVERED
 M    1206  0402042297                DELIVERED
 M    1207  0402042299                DELIVERED
 M    1208  0402042303                DELIVERED
 M    1209  0402042308                DELIVERED
 M    1210  0402042315                DELIVERED
 M    1211  0402042317                DELIVERED
 M    1212  0402042318                DELIVERED
 M    1213  0402042319                DELIVERED
 M    1214  0402042322                DELIVERED
      1215  0402042327                DELIVERED
 M    1216  0402042335                DELIVERED
 M    1217  0402042337                DELIVERED
 M    1218  0402042339                DELIVERED
      1219  0402042347                DELIVERED
 M    1220  0402042342                DELIVERED
 M    1221  0402042343                DELIVERED
 M    1222  0402042344                DELIVERED
 M    1223  0402042346                DELIVERED
      1224  0402042357                DELIVERED
 M    1225  0402042351                DELIVERED
 M    1226  0402042354                DELIVERED
 M    1227  0402042356                DELIVERED
 M    1228  0402042355                DELIVERED
 M    1229  0402042360                DELIVERED
 M    1230  0402042361                DELIVERED
 M    1231  0402042362                DELIVERED
 M    1232  0402042364                DELIVERED
 M    1233  0402042369                DELIVERED
 M    1234  0402042370                DELIVERED
 M    1235  0402042371                DELIVERED
 M    1236  0402042379                DELIVERED
 M    1237  0402042373                DELIVERED
 M    1238  0402042378                DELIVERED
 M    1239  0402042366                DELIVERED
 M    1240  0402042375                DELIVERED
 M    1241  0402042376                DELIVERED
 M    1242  0402042380                DELIVERED
 M    1243  0402042383                DELIVERED
 M    1244  0402042386                DELIVERED
 M    1245  0402042387                DELIVERED
 M    1246  0402042389                DELIVERED
 M    1247  0402042390                DELIVERED
 M    1248  0402042391                DELIVERED
 M    1249  0402042392                DELIVERED
 M    1250  0402042394                DELIVERED
 M    1251  0402042398                DELIVERED
 M    1252  0402042399                DELIVERED
 M    1253  0402042401                DELIVERED
 M    1254  0402042405                DELIVERED
 M    1255  0402042406                DELIVERED
 M    1256  0402042407                DELIVERED
 M    1257  0402042410                DELIVERED
 M    1258  0402042414                DELIVERED
 M    1259  0402042415                DELIVERED
 M    1260  0402042416                DELIVERED
 M    1261  0402042421                DELIVERED
 M    1262  0402042422                DELIVERED
 M    1263  0402042423                DELIVERED
 M    1264  0402042424                DELIVERED
 M    1265  0402042425                DELIVERED
 M    1266  0402042429                DELIVERED
 M    1267  0402042430                DELIVERED
 M    1268  0402042431                DELIVERED
 M    1269  0402042432                DELIVERED
 M    1270  0402042433                DELIVERED
 M    1271  0402042434                DELIVERED
 M    1272  0402042436                DELIVERED
 M    1273  0402042437                DELIVERED
 M    1274  0402042438                DELIVERED
 M    1275  0402042439                DELIVERED
 M    1276  0402042440                DELIVERED
 M    1277  0402042441                DELIVERED
 M    1278  0402042442                DELIVERED
 M    1279  0402042443                DELIVERED
 M    1280  0402042444                DELIVERED
 M    1281  0402042445                DELIVERED
 M    1282  0402042446                DELIVERED
 M    1283  0402042447                DELIVERED
 M    1284  0402042448                DELIVERED
 M    1285  0402042449                DELIVERED
 M    1286  0402042450                DELIVERED
 M    1287  0402042452                DELIVERED
 M    1288  0402042453                DELIVERED
 M    1289  0402042454                DELIVERED
 M    1290  0402042456                DELIVERED
 M    1291  0402042458                DELIVERED
 M    1292  0402042459                DELIVERED
 M    1293  0402042460                DELIVERED
 M    1294  0402042461                DELIVERED
 M    1295  0402042462                DELIVERED
 M    1296  0402042463                DELIVERED
 M    1297  0402042464                DELIVERED
 M    1298  0402042465                DELIVERED
 M    1299  0402042466                DELIVERED
 M    1300  0402042468                DELIVERED
 M    1301  0402042469                DELIVERED
 M    1302  0402042470                DELIVERED
      1303  0402042471                DELIVERED
 M    1304  0402042472                DELIVERED
 M    1305  0402042474                DELIVERED
 M    1306  0402042475                DELIVERED
 M    1307  0402042476                DELIVERED
      1308  0402042477                DELIVERED
 M    1309  0402042479                DELIVERED
 M    1310  0402042480                DELIVERED
 M    1311  0402042481                DELIVERED
 M    1312  0402042482                DELIVERED
 M    1313  0402042483                DELIVERED
 M    1314  0402042484                DELIVERED
 M    1315  0402042486                DELIVERED
 M    1316  0402042487                DELIVERED
      1317  0402042488                DELIVERED
 M    1318  0402042490                DELIVERED
      1319  0402042491                DELIVERED
 M    1320  0402042493                DELIVERED
      1321  0402042495                DELIVERED
      1322  0402042496                DELIVERED
 M    1323  0402042497                DELIVERED
 M    1324  0402042505                DELIVERED
 M    1325  0402042509                DELIVERED
 M    1326  0402042511                DELIVERED
 M    1327  0402042517                DELIVERED
 M    1328  0402042519                DELIVERED
 M    1329  0402042520                DELIVERED
 M    1330  0402042527                DELIVERED
 M    1331  0402042528                DELIVERED
 M    1332  0402042529                DELIVERED
 M    1333  0402042530                DELIVERED
      1334  0402042531                DELIVERED
 M    1335  0402042532                DELIVERED
      1336  0402042533                DELIVERED
 M    1337  0402042534                DELIVERED
 M    1338  0402042535                DELIVERED
      1339  0402042536                DELIVERED
 M    1340  0402042537                DELIVERED
      1341  0402042539                DELIVERED
 M    1342  0402042540                DELIVERED
      1343  0402042542                DELIVERED
 M    1344  0402042544                DELIVERED
 M    1345  0402042546                DELIVERED
 M    1346  0402042547                DELIVERED
      1347  0402042548                DELIVERED
      1348  0402042550                DELIVERED
      1349  0402042551                DELIVERED
 M    1350  0402042553                DELIVERED
 M    1351  0402042554                DELIVERED
      1352  0402042555                DELIVERED
      1353  0402042556                DELIVERED
      1354  0402042558                DELIVERED
      1355  0402042559                DELIVERED
 M    1356  0402042560                DELIVERED
      1357  0402042563                DELIVERED
      1358  0402042564                DELIVERED
 M    1359  0402042565                DELIVERED
      1360  0402042567                DELIVERED
 M    1361  0402042568                DELIVERED
 M    1362  0402042570                DELIVERED
      1363  0402042571                DELIVERED
 M    1364  0402042574                DELIVERED
 M    1365  0402042575                DELIVERED
      1366  0402042576                DELIVERED
 M    1367  0402042577                DELIVERED
 M    1368  0402042579                DELIVERED
      1369  0402042581                DELIVERED
      1370  0402042584                DELIVERED
      1371  0402042586                DELIVERED
 M    1372  0402042587                DELIVERED
 M    1373  0402042589                DELIVERED
      1374  0402042591                DELIVERED
 M    1375  0402042592                DELIVERED
      1376  0402042594                DELIVERED
 M    1377  0402042593                DELIVERED
 M    1378  0402042595                DELIVERED
 M    1379  0402042597                DELIVERED
      1380  0402042599                DELIVERED
 M    1381  0402042600                DELIVERED
      1382  0402042601                DELIVERED
      1383  0402042603                DELIVERED
 M    1384  0402042604                DELIVERED
 M    1385  0402042606                DELIVERED
 M    1386  0402042608                DELIVERED
 M    1387  0402042609                DELIVERED
      1388  0402042610                DELIVERED
      1389  0402042612                DELIVERED
      1390  0402042615                DELIVERED
 M    1391  0402042613                DELIVERED
 M    1392  0402042616                DELIVERED
      1393  0402042617                DELIVERED
      1394  0402042618                DELIVERED
      1395  0402042621                DELIVERED
      1396  0402042622                DELIVERED
 M    1397  0402042623                DELIVERED
      1398  0402042624                DELIVERED
 M    1399  0402042625                DELIVERED
      1400  0402042627                DELIVERED
      1401  0402042628                DELIVERED
 M    1402  0402042629                DELIVERED
      1403  0402042631                DELIVERED
      1404  0402042632                DELIVERED
 M    1405  0402042633                DELIVERED
 M    1406  0402042634                DELIVERED
      1407  0402042635                DELIVERED
 M    1408  0402042636                DELIVERED
      1409  0402042637                DELIVERED
 M    1410  0402042638                DELIVERED
 M    1411  0402042639                DELIVERED
 M    1412  0402042640                DELIVERED
      1413  0402042641                DELIVERED
      1414  0402042642                DELIVERED
 M    1415  0402042643                DELIVERED
 M    1416  0402042644                DELIVERED
      1417  0402042648                DELIVERED
 M    1418  0402042646                DELIVERED
 M    1419  0402042647                DELIVERED
 M    1420  0402042649                DELIVERED
 M    1421  0402042650                DELIVERED
 M    1422  0402042651                DELIVERED
 M    1423  0402042652                DELIVERED
 M    1424  0402042653                DELIVERED
 M    1425  0402042654                DELIVERED
 M    1426  0402042655                DELIVERED
 M    1427  0402042656                DELIVERED
 M    1428  0402042657                DELIVERED
 M    1429  0402042659                DELIVERED
 M    1430  0402042662                DELIVERED
 M    1431  0402042665                DELIVERED
 M    1432  0402042667                DELIVERED
 M    1433  0402042669                DELIVERED
 M    1434  0402042672                DELIVERED
 M    1435  0402042674                DELIVERED
 M    1436  0402042676                DELIVERED
 M    1437  0402042679                DELIVERED
 M    1438  0402042680                DELIVERED
 M    1439  0402042683                DELIVERED
 M    1440  0402042684                DELIVERED
 M    1441  0402042687                DELIVERED
 M    1442  0402042690                DELIVERED
 M    1443  0402042691                DELIVERED
 M    1444  0402042693                DELIVERED
 M    1445  0402042695                DELIVERED

NORMAL    : 1401
RESEND    : 105
EMERGENCY : 44
FAILED    : 3
TOTAL FOR ZZQ35: 1445




LEGEND
-----------------------
C - CANCEL
! - EMERGENCY
M - MEET
  - NORMAL
N - NO SHOW
* - RESEND
S - SURVEY
V - VOID





