PBTHA5 USAN 09/13/02 23:52:56
**************************************************************************
* THIS IS YOUR DAILY TICKET RECAP FOR 09/13/02.  IF THERE ARE ANY        *
* DISCREPANCIES, PLEASE NOTIFY THE USAN CENTER AT (925) 798-9504 EXT 1.  *
**************************************************************************



(+) RETRANSMIT - 00000
(!) CANCEL     - 00000
(-) RESENT     - 00000
(*) BROADCAST  - 00000
( ) NORMAL     - 00000

    TOTAL      - 00000

PBTHA5 USAN 09/13/02 23:53:01
**************************************************************************
* THIS IS YOUR DAILY TICKET RECAP FOR 09/13/02.  IF THERE ARE ANY        *
* DISCREPANCIES, PLEASE NOTIFY THE USAN CENTER AT (925) 798-9504 EXT 1.  *
**************************************************************************

0339300+00001 / 0389884 00002 / 0389878 00003 / 0389882 00004 / 0389883 00005
0389885 00006 / 0389886 00007 / 0389887 00008 / 0389888 00009 / 0389889 00010
0389890 00011 / 0389893 00012 / 0389895 00013 / 0389898 00014 / 0389900 00015
0389902 00016 / 0389904 00017 / 0389906 00018 / 0389908 00019 / 0389909 00020
0389910 00021 / 0389911 00022 / 0389913 00023 / 0389914 00024 / 0389915 00025
0389918 00026 / 0389919 00027 / 0389920 00028 / 0389921 00029 / 0389924 00030
0337842+00031 / 0337845+00032 / 0357824+00033 / 0389926 00034 / 0389928 00035
0389930 00036 / 0389932 00037 / 0389937 00038 / 0230996+00039 / 0266030+00040
0266220+00041 / 0284815+00042 / 0284818+00043 / 0358359+00044 / 0389939 00045
0389941 00046 / 0389942 00047 / 0389944 00048 / 0357166+00049 / 0361077+00050
0361085+00051 / 0389946 00052 / 0389948 00053 / 0389952 00054 / 0389956 00055
0361068+00056 / 0389961 00057 / 0389966 00058 / 0389967 00059 / 0389972 00060
0359170+00061 / 0359180+00062 / 0359195+00063 / 0359207+00064 / 0359214+00065
0359218+00066 / 0359220+00067 / 0359226+00068 / 0359249+00069 / 0359252+00070
0359254+00071 / 0359261+00072 / 0359268+00073 / 0359256+00074 / 0359246+00075
0359271+00076 / 0359291+00077 / 0359294+00078 / 0359276+00079 / 0359280+00080
0359299+00081 / 0359309+00082 / 0359320+00083 / 0359359+00084 / 0359322+00085
0359394+00086 / 0359377+00087 / 0359362+00088 / 0207752+00089 / 0207768+00090
0342731+00091 / 0359381+00092 / 0359386+00093 / 0359397+00094 / 0359401+00095
0360865+00096 / 0360871+00097 / 0360875+00098 / 0360879+00099 / 0360917+00100
0360913+00101 / 0360889+00102 / 0360893+00103 / 0360896+00104 / 0360928+00105
0360901+00106 / 0360931+00107 / 0360937+00108 / 0390004 00109 / 0390006 00110
0362623+00111 / 0362629+00112 / 0362631+00113 / 0362642+00114 / 0362638+00115
0362647+00116 / 0362655+00117 / 0390008 00118 / 0362666+00119 / 0362676+00120
0362681+00121 / 0372584+00122 / 0372586+00123 / 0390023 00124 / 0390024 00125
0372589+00126 / 0390028 00127 / 0372593+00128 / 0390029 00129 / 0390044 00130
0358748+00131 / 0356798+00132 / 0372594+00133 / 0372596+00134 / 0372599+00135
0372603+00136 / 0374037+00137 / 0389884!00138 / 0374030+00139 / 0374041+00140
0374045+00141 / 0374050+00142 / 0374055+00143 / 0374060+00144 / 0374067+00145
0374070+00146 / 0374079+00147 / 0374085+00148 / 0374091+00149 / 0374100+00150
0374104+00151 / 0374113+00152 / 0374121+00153 / 0374127+00154 / 0374131+00155
0374135+00156 / 0374142+00157 / 0374145+00158 / 0374150+00159 / 0374157+00160
0374163+00161 / 0374170+00162 / 0374197+00163 / 0374247+00164 / 0374252+00165
0374194+00166 / 0374187+00167 / 0374260+00168 / 0374185+00169 / 0374267+00170
0374203+00171 / 0374276+00172 / 0374280+00173 / 0374285+00174 / 0373644+00175
0374306+00176 / 0374309+00177 / 0374313+00178 / 0390064 00179 / 0374213+00180
0390106 00181 / 0390106!00182 / 0390113 00183 / 0390117 00184 / 0374223+00185
0390120 00186 / 0390124 00187 / 0390129 00188 / 0374217+00189 / 0374228+00190
0374236+00191 / 0374318+00192 / 0375888+00193 / 0374325+00194 / 0390135 00195
0374327+00196 / 0374344+00197 / 0374290+00198 / 0374331+00199 / 0374296+00200
0374338+00201 / 0374347+00202 / 0374356+00203 / 0374375+00204 / 0374377+00205
0374300+00206 / 0374378+00207 / 0383505+00208 / 0390146 00209 / 0390151 00210
0390156 00211 / 0390158 00212 / 0390163 00213 / 0390166 00214 / 0373848+00215
0373849+00216 / 0390171 00217 / 0390173 00218 / 0373846+00219 / 0373853+00220
0373855+00221 / 0373861+00222 / 0373867+00223 / 0373869+00224 / 0373871+00225
0373876+00226 / 0373880+00227 / 0373883+00228 / 0373884+00229 / 0373887+00230
0373889+00231 / 0373891+00232 / 0373894+00233 / 0373897+00234 / 0373903+00235
0373920+00236 / 0373929+00237 / 0373934+00238 / 0373935+00239 / 0373838+00240
0390186 00241 / 0373840+00242 / 0373844+00243 / 0373864+00244 / 0373906+00245
0373914+00246 / 0373917+00247 / 0373919+00248 / 0373923+00249 / 0373938+00250
0373941+00251 / 0373942+00252 / 0373955+00253 / 0373961+00254 / 0358540+00255
0266735+00256 / 0266727+00257 / 0373965+00258 / 0373969+00259 / 0373976+00260
0373978+00261 / 0373980+00262 / 0373945+00263 / 0373981+00264 / 0373986+00265
0373987+00266 / 0373990+00267 / 0373991+00268 / 0373995+00269 / 0373998+00270
0374004+00271 / 0374008+00272 / 0374012+00273 / 0374015+00274 / 0374020+00275
0390201 00276 / 0390208 00277 / 0374418+00278 / 0374379+00279 / 0374381+00280
0374408+00281 / 0374399+00282 / 0390226 00283 / 0204747+00284 / 0374387+00285
0204763+00286 / 0359541+00287 / 0374393+00288 / 0374411+00289 / 0374420+00290
0374425+00291 / 0374428+00292 / 0374474+00293 / 0374432+00294 / 0374440+00295

PBTHA5 USAN 09/13/02 23:53:01
**************************************************************************
* THIS IS YOUR DAILY TICKET RECAP FOR 09/13/02.  IF THERE ARE ANY        *
* DISCREPANCIES, PLEASE NOTIFY THE USAN CENTER AT (925) 798-9504 EXT 1.  *
**************************************************************************

0374477+00296 / 0374483+00297 / 0374468+00298 / 0376028+00299 / 0374465+00300
0374443+00301 / 0376031+00302 / 0374447+00303 / 0374459+00304 / 0355699+00305
0355706+00306 / 0377367+00307 / 0377977+00308 / 0390230 00309 / 0390237 00310
0390242 00311 / 0390246 00312 / 0390263 00313 / 0390247 00314 / 0390250 00315
0390251 00316 / 0390260 00317 / 0390262 00318 / 0390265 00319 / 0372384+00320
0390266 00321 / 0390268 00322 / 0390269 00323 / 0372385+00324 / 0372387+00325
0372388+00326 / 0372392+00327 / 0372394+00328 / 0372398+00329 / 0372400+00330
0372402+00331 / 0372404+00332 / 0372406+00333 / 0372408+00334 / 0372409+00335
0372410+00336 / 0372411+00337 / 0372413+00338 / 0372414+00339 / 0372417+00340
0372418+00341 / 0230401+00342 / 0372420+00343 / 0269216+00344 / 0372421+00345
0372423+00346 / 0303707+00347 / 0372424+00348 / 0390274 00349 / 0390275 00350
0372427+00351 / 0390287 00352 / 0372428+00353 / 0372429+00354 / 0378304+00355
0372430+00356 / 0372432+00357 / 0390290 00358 / 0372433+00359 / 0372434+00360
0372437+00361 / 0372438+00362 / 0372440+00363 / 0372443+00364 / 0354629+00365
0372442+00366 / 0372441+00367 / 0361172+00368 / 0390292 00369 / 0361175+00370
0390295 00371 / 0390297 00372 / 0390303 00373 / 0339752+00374 / 0357273+00375
0361180+00376 / 0361191+00377 / 0361193+00378 / 0361182+00379 / 0361201+00380
0361205+00381 / 0361209+00382 / 0361212+00383 / 0361214+00384 / 0372445+00385
0372446+00386 / 0372448+00387 / 0372449+00388 / 0372450+00389 / 0374491+00390
0374499+00391 / 0374502+00392 / 0374488+00393 / 0374507+00394 / 0374511+00395
0374516+00396 / 0374517+00397 / 0374523+00398 / 0374526+00399 / 0390309 00400
0390327 00401 / 0390331 00402 / 0390332 00403 / 0390335 00404 / 0390337 00405
0390342 00406 / 0361226+00407 / 0361228+00408 / 0361230+00409 / 0361232+00410
0361354+00411 / 0361355+00412 / 0361356+00413 / 0361360+00414 / 0361361+00415
0361362+00416 / 0361364+00417 / 0361367+00418 / 0361368+00419 / 0361369+00420
0361371+00421 / 0361373+00422 / 0320940+00423 / 0390401 00424 / 0320936+00425
0361375+00426 / 0361377+00427 / 0390409 00428 / 0361381+00429 / 0361386+00430
0361389+00431 / 0361391+00432 / 0372475+00433 / 0372478+00434 / 0372485+00435
0372487+00436 / 0372489+00437 / 0372492+00438 / 0372510+00439 / 0372511+00440
0372513+00441 / 0374539+00442 / 0374545+00443 / 0374560+00444 / 0372494+00445
0374566+00446 / 0372496+00447 / 0374551+00448 / 0374576+00449 / 0372498+00450
0374553+00451 / 0374584+00452 / 0374587+00453 / 0374617+00454 / 0372504+00455
0374623+00456 / 0374558+00457 / 0358075+00458 / 0374611+00459 / 0377980+00460
0390365 00461 / 0390368 00462 / 0390372 00463 / 0324097+00464 / 0323947+00465
0375797+00466 / 0390376 00467 / 0324100+00468 / 0390380 00469 / 0323956+00470
0390391 00471 / 0324088+00472 / 0390396 00473 / 0324000+00474 / 0324002+00475
0390399 00476 / 0390420 00477 / 0323916+00478 / 0390422 00479 / 0390431 00480
0323881+00481 / 0323896+00482 / 0323929+00483 / 0323935+00484 / 0323965+00485
0323980+00486 / 0318444+00487 / 0323989+00488 / 0323994+00489 / 0318445+00490
0324016+00491 / 0318446+00492 / 0324035+00493 / 0324042+00494 / 0324050+00495
0318449+00496 / 0324090+00497 / 0390467 00498 / 0318450+00499 / 0324094+00500
0318454+00501 / 0324095+00502 / 0357753+00503 / 0318457+00504 / 0357846+00505
0357838+00506 / 0357835+00507 / 0357857+00508 / 0357860+00509 / 0357868+00510
0357871+00511 / 0357866+00512 / 0357853+00513 / 0357850+00514 / 0357876+00515
0357830+00516 / 0357823+00517 / 0357813+00518 / 0357879+00519 / 0357807+00520
0357882+00521 / 0357883+00522 / 0357885+00523 / 0357886+00524 / 0357889+00525
0390444 00526 / 0390458 00527 / 0390462 00528 / 0390464 00529 / 0390473 00530
0390479 00531 / 0390484 00532 / 0390486 00533 / 0390496 00534 / 0390507 00535
0206787+00536 / 0389119!00537 / 0390534 00538 / 0376853+00539 / 0386921+00540
0390186!00541 / 0390527 00542 / 0390530 00543 / 0390542 00544 / 0390546 00545
0390555 00546 / 0390573 00547 / 0390575 00548 / 0390582 00549 / 0390583 00550
0390586 00551 / 0390588 00552 / 0390596 00553 / 0386214+00554 / 0390581 00555
0390598 00556 / 0390602 00557 / 0390608 00558 / 0390615 00559 / 0386808+00560
0285465+00561 / 0301437+00562 / 0320913+00563 / 0358333+00564 / 0358365+00565
0358368+00566 / 0358410+00567 / 0358505+00568 / 0390637 00569 / 0390638 00570
0358327+00571 / 0358355+00572 / 0358385+00573 / 0358387+00574 / 0358401+00575
0390653 00576 / 0288462+00577 / 0390661 00578 / 0390662 00579 / 0390663 00580
0390668 00581 / 0385589!00582 / 0390676 00583 / 0390687 00584 / 0390688 00585
0390694 00586 / 0390712 00587 / 0390714 00588 / 0390727 00589 / 0390737 00590

PBTHA5 USAN 09/13/02 23:53:01
**************************************************************************
* THIS IS YOUR DAILY TICKET RECAP FOR 09/13/02.  IF THERE ARE ANY        *
* DISCREPANCIES, PLEASE NOTIFY THE USAN CENTER AT (925) 798-9504 EXT 1.  *
**************************************************************************

0390739 00591 / 0390740 00592 / 0390741 00593 / 0390746 00594 / 0376483+00595
0390751 00596 / 0390754 00597 / 0390756 00598 / 0390759 00599 / 0390760 00600
0390762 00601 / 0390767 00602 / 0390771 00603 / 0390772 00604 / 0390777 00605
0390783 00606 / 0390789 00607 / 0390793 00608 / 0390800 00609 / 0390814 00610
0390815 00611 / 0321465+00612 / 0321472+00613 / 0358621+00614 / 0358639+00615
0386595!00616 / 0264718+00617 / 0390875 00618 / 0386834!00619 / 0390878 00620
0390880 00621 / 0390882 00622 / 0390884 00623 / 0390887 00624 / 0389796!00625
0390894 00626 / 0390904 00627 / 0390905 00628 / 0390926 00629 / 0390932 00630
0306282+00631 / 0390952 00632 / 0387511+00633 / 0390986 00634 / 0391006 00635
0391012 00636 / 0391018 00637 / 0391024 00638 / 0391025 00639 / 0391036 00640
0391041 00641 / 0391045 00642 / 0374774+00643 / 0391047 00644 / 0391052 00645
0391054 00646 / 0391058 00647 / 0391059 00648 / 0388946+00649 / 0391062 00650
0391068 00651 / 0391079 00652 / 0391085 00653 / 0391088 00654 / 0391078 00655
0391090 00656 / 0391095 00657 / 0391098 00658 / 0391100 00659 / 0391108 00660
0391110 00661 / 0391111 00662 / 0334913+00663 / 0206379+00664 / 0206393+00665
0391129 00666 / 0391130 00667 / 0285998+00668 / 0286014+00669 / 0391134 00670
0359115+00671 / 0391137 00672 / 0359144+00673 / 0391139 00674 / 0391143 00675
0391151 00676 / 0267119+00677 / 0340883+00678 / 0374603+00679 / 0391163 00680
0391164 00681 / 0391165 00682 / 0391182 00683 / 0391183 00684 / 0391189 00685
0204185+00686 / 0204201+00687 / 0391176 00688 / 0391206 00689 / 0391219 00690
0391221 00691 / 0391225 00692 / 0285030+00693 / 0285027+00694 / 0285033+00695
0285666+00696 / 0285667+00697 / 0374315+00698 / 0391228 00699 / 0391231 00700
0204437+00701 / 0204431+00702 / 0204417+00703 / 0207113+00704 / 0207125+00705
0359239+00706 / 0391254 00707 / 0391264 00708 / 0391265 00709 / 0391268 00710
0391271 00711 / 0391273 00712 / 0391275 00713 / 0391280 00714 / 0377906+00715
0377906+00716 / 0359812+00717 / 0358032+00718 / 0391283 00719 / 0391286 00720
0391289 00721 / 0391324 00722 / 0375002+00723 / 0391332 00724 / 0391339 00725
0391341 00726 / 0391343 00727 / 0391345 00728 / 0391349 00729 / 0391475 00730
0391476 00731 / 0391479 00732 / 0391501 00733

(+) RETRANSMIT - 00464
(!) CANCEL     - 00008
(-) RESENT     - 00000
(*) BROADCAST  - 00000
( ) NORMAL     - 00261

    TOTAL      - 00733


UQSTNO USAN 10/11/02 00:07:53
**************************************************************************
* THIS IS YOUR DAILY TICKET RECAP FOR 10/10/02.  IF THERE ARE ANY        *
* DISCREPANCIES, PLEASE NOTIFY THE USAN CENTER AT (925) 798-9504 EXT 1.  *
**************************************************************************

0425741 00001 / 0425748 00002 / 0425768 00010 / 0425776 00011 / 0425778 00012
0425779 00013 / 0425796 00021 / 0425801 00024 / 0425809 00025 / 0425818 00026
0425819 00027 / 0425832 00028 / 0425832!00029 / 0425835 00030 / 0425854 00031
0425892 00032 / 0412333+00033 / 0425880 00037 / 0374195+00039 / 0374204+00040
0374208+00041 / 0374211+00042 / 0374218+00043 / 0425900 00044 / 0425903 00045
0374151+00050 / 0374158+00051 / 0374167+00052 / 0374172+00053 / 0374180+00054
0425996 00057 / 0394289+00059 / 0394298+00060 / 0394305+00061 / 0426014 00062
0426030 00065 / 0426045 00066 / 0394313+00067 / 0394324+00068 / 0394330+00069
0394337+00070 / 0394341+00071 / 0394345+00072 / 0394347+00073 / 0394362+00074
0394368+00075 / 0394373+00077 / 0394376+00078 / 0394381+00079 / 0394393+00080
0394409+00081 / 0426088 00082 / 0426085 00083 / 0426104 00084 / 0426142 00085
0426187 00086 / 0407378+00087 / 0413523+00088 / 0426165 00089 / 0426191 00090
0426195 00091 / 0426198 00092 / 0426201 00093 / 0426209 00094 / 0426187!00095
0426229 00096 / 0426234 00098 / 0426235 00099 / 0426290 00100 / 0412167+00101
0412172+00102 / 0412176+00103 / 0426269 00104 / 0426309 00105 / 0283633+00106
0426317 00107 / 0426327 00109 / 0426332 00110 / 0426335 00112 / 0426342 00113
0426346 00115 / 0374847+00116 / 0374849+00117 / 0374856+00118 / 0426349 00119
0426377 00121 / 0426388 00122 / 0426400 00123 / 0426453 00124 / 0413095+00125
0426423 00126 / 0426425 00127 / 0391599+00128 / 0426464 00129 / 0426467 00130
0426483 00131 / 0426484 00132 / 0426490 00133 / 0426496 00134 / 0426502 00136
0426544 00138 / 0426548 00139 / 0426551 00141 / 0426558 00142 / 0299144+00144
0299242+00145 / 0300080+00146 / 0300091+00147 / 0300094+00148 / 0300158+00149
0300168+00150 / 0300170+00151 / 0300177+00152 / 0393246+00153 / 0393254+00154
0413305+00155 / 0426609 00156 / 0426635 00157 / 0413690+00158 / 0426676 00159
0426685 00160 / 0340867+00161 / 0380906+00162 / 0413259+00163 / 0426544!00164
0426728 00165 / 0426731 00166 / 0426751 00167 / 0426802 00169 / 0426806 00170
0426812 00171 / 0426860 00172 / 0426855 00176 / 0426860-00178 / 0340867-00180
0380906-00181 / 0413259-00184 / 0413305-00185 / 0413690-00186 / 0426544-00187
0426609-00188 / 0426635-00189 / 0426676-00190 / 0426685-00191 / 0426728-00192
0426731-00193 / 0426751-00194 / 0426802-00195 / 0426806-00196 / 0426812-00197
0426855-00198 / 0426887 00203 / 0426922 00205 / 0426908 00206 / 0426973 00207
0426935 00208 / 0426998 00209 / 0426999 00211 / 0427016 00212 / 0206212+00213
0362589+00214 / 0391904+00215 / 0392596+00216 / 0392602+00217 / 0427035 00218
0427043 00219 / 0427046 00220 / 0427050 00221 / 0300841+00223 / 0206229+00224
0206242+00225 / 0229948+00226 / 0248369+00227 / 0342317+00229 / 0342374+00230
0342392+00231 / 0342929+00232 / 0427088 00233 / 0427091 00234 / 0427098 00236
0427114 00237 / 0427103 00238 / 0361203+00241 / 0413157+00243 / 0427145 00244
0427178 00247 / 0427181 00248 / 0301781+00249 / 0408718+00250 / 0427204 00251
0427209 00252 / 0427212 00253 / 0427247 00254 / 0420804+00260 / 0427223 00261
0427224 00262 / 0427237 00264 / 0427240 00265 / 0427242 00266 / 0427244 00267
0409845+00269 / 0409852+00270 / 0409857+00271 / 0413978+00272 / 0413979+00273
0413985+00274 / 0413987+00275 / 0413988+00276 / 0427275 00278 / 0413990+00280
0413992+00281 / 0427282 00282 / 0427299 00283 / 0427307 00284 / 0427355 00288
0427358 00289 / 0427359 00290 / 0427358+00292 / 0266122+00295 / 0301181+00296
0424155+00298 / 0427378 00299 / 0427380 00300 / 0427380+00301 / 0427388 00303
0427393 00304 / 0427400 00305 / 0427399 00306 / 0321947+00307 / 0427402 00308
0427411 00310 / 0394417+00311 / 0427415 00312 / 0427417 00313 / 0427421 00314
0427422 00315 / 0427423 00316 / 0427426 00317 / 0427428 00318 / 0427429 00319
0427434 00320 / 0427435 00321 / 0427436 00322 / 0372829+00324 / 0424513+00325
0427470 00328

(+) RETRANSMIT - 00093
(!) CANCEL     - 00003
(-) RESENT     - 00018
(*) BROADCAST  - 00000
( ) NORMAL     - 00132

    TOTAL      - 00246




