

Fri Mar 30                                                             page    1
                          Daily Summary Report 032907

MSGID  OCC_TKTNUM      OCC_SITE DELIVERED                                       
-----------------------------------------                                       
00001  0108517         PBTNPA   08:21 CST                                       
00002  0108566         PBTCHI   09:15 CST                                       
00003  0108646         PBTMDO   09:44 CST                                       
00004  0046581         PBTNPA   09:50 CST                                       
00005  0077142         PBTNPA   09:54 CST                                       
00006  0416454         PBTNPA   09:57 CST                                       
00007  0416466         PBTNPA   09:57 CST                                       
00008  0416480         PBTNPA   09:57 CST                                       
00009  0108819         PBTNPA   10:41 CST                                       
00010  0097961         PBTNPA   10:52 CST                                       
00011  0047674         PBTCHI   10:52 CST                                       
00012  0047649         PBTCHI   10:52 CST                                       
00013  0108883         PBTMDO   10:59 CST                                       
00014  0078412         PBTMDO   11:07 CST                                       
00015  0109015         PBTNPA   11:32 CST                                       
00016  0109113         PBTNPA   11:59 CST                                       
00017  0109146         PBTNPA   12:08 CST                                       
00018  0072234         PBTNPA   12:14 CST                                       
00019  0109173         PBTHAN   12:14 CST                                       
00020  0109180         PBTNPA   12:14 CST                                       
00021  0109145         PBTHAN   12:19 CST                                       
00022  0109234         PBTNPA   12:29 CST                                       
00023  0109229         PBTMDO   12:34 CST                                       
00024  0109271         PBTCHI   12:39 CST                                       
00025  0109281         PBTMDO   12:39 CST                                       
00026  0109297         PBTMDO   12:44 CST                                       
00027  0109302         PBTCHI   12:47 CST                                       
00028  0109312         PBTNPA   12:52 CST                                       
00029  0109336         PBTNPA   13:00 CST                                       
00030  0109363         PBTMDO   13:09 CST                                       
00031  0109370         PBTMDO   13:11 CST                                       
00032  0109380         PBTCHI   13:15 CST                                       
00033  0109401         PBTCHI   13:19 CST                                       
00034  0109427         PBTNPA   13:25 CST                                       
00035  0446434         PBTNPA   13:42 CST                                       
00036  0109486         PBTNPA   13:42 CST                                       
00037  0109506         PBTNPA   13:48 CST                                       
00038  0109537         PBTMDO   13:57 CST                                       
00039  0109564         PBTMDO   14:08 CST                                       
00040  0109596         PBTNPA   14:21 CST                                       
00041  0109619         PBTCHI   14:29 CST                                       
00042  0109732         PBTMDO   15:10 CST                                       
00043  0109735         PBTNPA   15:10 CST                                       
00044  0109736         PBTMDO   15:10 CST                                       
00045  0412992         PBTHAN   15:18 CST                                       
00046  0109799         PBTMDO   15:35 CST                                       
00047  0109889         PBTNPA   16:05 CST                                       
00048  0109900         PBTNPA   16:08 CST                                       
00049  0109918         PBTMDO   16:11 CST                                       
00050  0047964         PBTMDO   16:11 CST                                       
00051  0109925         PBTMDO   16:14 CST                                       
00052  0109958         PBTCHI   16:23 CST                                       
00053  0110041         PBTNPA   16:51 CST                                       
00054  0110085         PBTMDO   17:05 CST                                       
00055  0042541         PBTNPA   17:10 CST                                       
00056  0092726         PBTMDO   17:17 CST                                       
00057  0092729         PBTMDO   17:17 CST                                       
00058  0092738         PBTMDO   17:17 CST                                       
00059  0041835         PBTMDO   17:17 CST                                       
00060  0000141         PBTMDO   17:17 CST                                       
00061  0087192         PBTMDO   17:19 CST                                       
00062  0087179         PBTMDO   17:19 CST                                       
00063  0087211         PBTMDO   17:19 CST                                       
00064  0110130         PBTNPA   17:19 CST                                       
00065  0060383         PBTMDO   17:19 CST                                       
00066  0046390         PBTMDO   17:22 CST                                       
00067  0067329         PBTMDO   17:22 CST                                       
00068  0110134         PBTMDO   17:26 CST                                       
00069  0066595         PBTMDO   17:26 CST                                       
00070  0053511         PBTMDO   17:26 CST                                       
00071  0073967         PBTHAN   17:34 CST                                       
00072  0419630         PBTNPA   17:34 CST                                       
00073  0110172         PBTMDO   17:37 CST                                       
00074  0110175         PBTNPA   17:37 CST                                       
00075  0110179         PBTMDO   17:43 CST                                       
00076  0110192         PBTMDO   17:47 CST                                       
00077  0110248         PBTNPA   18:10 CST                                       
00078  0110249         PBTNPA   18:10 CST                                       
00079  0110251         PBTNPA   18:10 CST                                       
00080  0110253         PBTNPA   18:13 CST                                       
00081  0110279         PBTNPA   18:23 CST                                       
00082  0110281         PBTNPA   18:23 CST                                       
00083  0110297         PBTNPA   18:30 CST                                       
00084  0110299         PBTNPA   18:30 CST                                       
00085  0110264         PBTNPA   21:07 CST                                       
00086  0110267         PBTNPA   21:08 CST                                       
00087  0110288         PBTNPA   21:08 CST                                       
00088  0110286         PBTNPA   21:09 CST                                       
00089  0110274         PBTNPA   21:09 CST                                       
00090  0110273         PBTNPA   21:09 CST                                       
00091  0110270         PBTNPA   21:10 CST                                       
00092  0110301         PBTNPA   21:10 CST                                       
00093  0110307         PBTNPA   21:10 CST                                       
00094  0110310         PBTNPA   21:11 CST                                       
00095  0110165         PBTMDO   21:11 CST                                       
00096  0110256         PBTNPA   21:29 CST                                       
00097  0110258         PBTNPA   21:30 CST                                       
00098  0110262         PBTNPA   21:31 CST                                       
00099  0110332         PBTNPA   21:31 CST                                       
       ----------------                                                         
TOTAL                99                                                         



Fri Mar 30                                                             page    1
                          Daily Summary Report 032807

MSGID  OCC_TKTNUM      OCC_SITE DELIVERED                                       
-----------------------------------------                                       
00001  0009496         PBTNPA   09:19 CST                                       
00002  0106573         PBTMDO   09:25 CST                                       
00003  0077205         PBTNPA   09:25 CST                                       
00004  0077223         PBTNPA   09:25 CST                                       
00005  0106580         PBTMDO   09:25 CST                                       
00006  0106589         PBTCHI   09:31 CST                                       
00007  0102105         PBTCHI   09:31 CST                                       
00008  0413041         PBTMDO   09:37 CST                                       
00009  0106638         PBTMDO   09:58 CST                                       
00010  0010604         PBTNPA   10:03 CST                                       
00011  0106657         PBTNPA   10:06 CST                                       
00012  0106661         PBTMDO   10:08 CST                                       
00013  0106685         PBTMDO   10:16 CST                                       
00014  0106722         PBTCHI   10:29 CST                                       
00015  0043521         PBTCHI   10:32 CST                                       
00016  0106728         PBTNPA   10:32 CST                                       
00017  0106774         PBTMDO   10:44 CST                                       
00018  0106776         PBTMDO   10:44 CST                                       
00019  0106783         PBTCHI   10:47 CST                                       
00020  0007409         PBTNPA   11:07 CST                                       
00021  0106881         PBTMDO   11:12 CST                                       
00022  0445045         PBTNPA   11:21 CST                                       
00023  0106945         PBTHAN   11:21 CST                                       
00024  0106946         PBTMDO   11:21 CST                                       
00025  0106994         PBTNPA   11:38 CST                                       
00026  0106999         PBTMDO   11:38 CST                                       
00027  0107032         PBTHAN   11:48 CST                                       
00028  0107053         PBTCHI   11:55 CST                                       
00029  0107077         PBTNPA   12:04 CST                                       
00030  0107081         PBTNPA   12:04 CST                                       
00031  0102823         PBTCHI   12:08 CST                                       
00032  0046390         PBTMDO   12:13 CST                                       
00033  0107180         PBTHAN   12:31 CST                                       
00034  0107254         PBTHAN   12:50 CST                                       
00035  0008502         PBTMDO   12:57 CST                                       
00036  0107334         PBTMDO   13:13 CST                                       
00037  0107340         PBTNPA   13:17 CST                                       
00038  0045523         PBTNPA   13:17 CST                                       
00039  0045529         PBTNPA   13:17 CST                                       
00040  0107352         PBTNPA   13:19 CST                                       
00041  0107377         PBTCHI   13:26 CST                                       
00042  0107342         PBTNPA   13:26 CST                                       
00043  0445108         PBTMDO   13:27 CST                                       
00044  0415073         PBTNPA   13:45 CST                                       
00045  0068215         PBTMDO   13:49 CST                                       
00046  0102823         PBTCHI   14:06 CST                                       
00047  0107520         PBTHAN   14:19 CST                                       
00048  0042530         PBTNPA   14:55 CST                                       
00049  0107633         PBTNPA   14:55 CST                                       
00050  0107750         PBTNPA   15:35 CST                                       
00051  0107769         PBTHAN   15:41 CST                                       
00052  0107792         PBTMDO   15:47 CST                                       
00053  0107817         PBTNPA   15:58 CST                                       
00054  0107843         PBTMDO   16:09 CST                                       
00055  0104190         PBTHAN   16:22 CST                                       
00056  0107902         PBTHAN   16:22 CST                                       
00057  0043906         PBTMDO   16:27 CST                                       
00058  0107972         PBTNPA   16:43 CST                                       
00059  0107991         PBTMDO   16:48 CST                                       
00060  0107992         PBTNPA   16:48 CST                                       
00061  0108060         PBTMDO   17:08 CST                                       
00062  0108137         PBTMDO   17:25 CST                                       
00063  0044486         PBTMDO   17:41 CST                                       
00064  0108256         PBTMDO   17:59 CST                                       
00065  0108289         PBTNPA   18:10 CST                                       
00066  0108325         PBTNPA   18:24 CST                                       
00067  0101476         PBTMDO   18:29 CST                                       
00068  0108362         PBTNPA   18:41 CST                                       
00069  0105029         PBTCHI   18:41 CST                                       
00070  0108381         PBTMDO   18:49 CST                                       
00071  0108392         PBTNPA   18:52 CST                                       
00072  0108422         PBTNPA   19:00 CST                                       
       ----------------                                                         
TOTAL                72                                                         


