0
Date/Time :  4-20-06 at  0:15

Washington One Call
SUMM
DAILY AUDIT OF TICKETS SENT ON 04/19/06

Date/Time: 04/20/2006 12:15:02 AM
Receiving Terminal: CHARTR02

Seq #   Ticket #    Seq #   Ticket #    Seq #   Ticket #    Seq #   Ticket #    
----- ------------  ----- ------------  ----- ------------  -----------------  
   1  6114655-EMER |   3  6114926-48HR |   5  6115436-48HR |   7  6115521-48HR |
   2  6114738-48HR |   4  6115416-48HR |   6  6115464-48HR |   8  6115820-48HR |

* indicates ticket # is repeated

Total Tickets: 8

EMER - ++EMERGENCY++                  |    1

48HR - 2 FULL BUSINESS DAYS           |    7


Please call (503) 232-1987 if this data does
not match the tickets you received on 04/19/06









