


SEQUENCE NUMBER 0001   CDC = L40

TESS audit for CDC of L40 on 021103
Serial# & Seq#  Serial# & Seq#  Serial# & Seq#  Serial# & Seq#
023051058 0091  023051048 0098  023050112 0211  023052395 0521  
023061336 0570  
Total number of Dig-ups or Emergency 0000
Total number of Short Notices        0000
Total number of Priority Notices     0002
Total number of Routine Notices      0003
Total number of Messages for L40     0005
If this audit does not match your manual tracking 
then call the Call Center and request a retransmission.





SEQUENCE NUMBER 0001   CDC = P71

TESS audit for CDC of P71 on 021103
Serial# & Seq#  Serial# & Seq#  Serial# & Seq#  Serial# & Seq#
023055666 0285  023051921 0339  
Total number of Dig-ups or Emergency 0000
Total number of Short Notices        0000
Total number of Priority Notices     0001
Total number of Routine Notices      0001
Total number of Messages for P71     0002
If this audit does not match your manual tracking 
then call the Call Center and request a retransmission.





SEQUENCE NUMBER 0001   CDC = P72

TESS audit for CDC of P72 on 021103
Serial# & Seq#  Serial# & Seq#  Serial# & Seq#  Serial# & Seq#
Total number of Dig-ups or Emergency 0000
Total number of Short Notices        0000
Total number of Priority Notices     0000
Total number of Routine Notices      0000
Total number of Messages for P72     0000
If this audit does not match your manual tracking 
then call the Call Center and request a retransmission.





SEQUENCE NUMBER 0001   CDC = P73

TESS audit for CDC of P73 on 021103
Serial# & Seq#  Serial# & Seq#  Serial# & Seq#  Serial# & Seq#
023050983 0072  
Total number of Dig-ups or Emergency 0000
Total number of Short Notices        0000
Total number of Priority Notices     0001
Total number of Routine Notices      0000
Total number of Messages for P73     0001
If this audit does not match your manual tracking 
then call the Call Center and request a retransmission.





SEQUENCE NUMBER 0001   CDC = P74

TESS audit for CDC of P74 on 021103
Serial# & Seq#  Serial# & Seq#  Serial# & Seq#  Serial# & Seq#
023050855 0027  023050920 0052  023050933 0056  023050922 0060  
023051037 0086  023051038 0087  023051052 0089  023051064 0096  
023051048 0099  023051051 0103  023051096 0107  023051101 0109  
023051178 0119  023051398 0163  023055412 0200  023050097 0204  
023050165 0241  023050174 0248  023050175 0250  023050288 0308  
023056238 0509  023061380 0573  023071206 0576  
Total number of Dig-ups or Emergency 0001
Total number of Short Notices        0000
Total number of Priority Notices     0007
Total number of Routine Notices      0015
Total number of Messages for P74     0023
If this audit does not match your manual tracking 
then call the Call Center and request a retransmission.





SEQUENCE NUMBER 0001   CDC = P75

TESS audit for CDC of P75 on 021103
Serial# & Seq#  Serial# & Seq#  Serial# & Seq#  Serial# & Seq#
023051132 0111  023051142 0112  023055666 0286  023051781 0290  
023050273 0301  023055832 0338  023056205 0500  
Total number of Dig-ups or Emergency 0000
Total number of Short Notices        0000
Total number of Priority Notices     0002
Total number of Routine Notices      0005
Total number of Messages for P75     0007
If this audit does not match your manual tracking 
then call the Call Center and request a retransmission.





SEQUENCE NUMBER 0001   CDC = PGC

TESS audit for CDC of PGC on 021103
Serial# & Seq#  Serial# & Seq#  Serial# & Seq#  Serial# & Seq#
023050830 0009  023050832 0011  023050837 0013  023050847 0015  
023050848 0018  023050851 0019  023050852 0021  023050863 0029  
023050881 0032  023050867 0033  023050872 0035  023050874 0037  
023050879 0040  023050889 0043  023050908 0048  023055041 0058  
023050935 0062  023050997 0068  023050986 0081  023051010 0082  
023051027 0084  023051074 0094  023051066 0105  023051175 0117  
023051262 0123  023051255 0129  023051256 0130  023051257 0132  
023055174 0134  023051273 0136  023055178 0138  023051284 0140  
023051290 0142  023050001 0147  023050009 0150  023051346 0152  
023050015 0156  023051407 0159  023051409 0160  023051437 0166  
023051468 0174  023050057 0178  023051483 0183  023050071 0185  
023051515 0190  023055410 0192  023055411 0194  023051524 0198  
023051528 0202  023051538 0208  023050113 0209  023050123 0219  
023050130 0222  023051602 0225  023055512 0229  023055546 0234  
023050180 0237  023055560 0239  023055557 0246  023055606 0256  
023051738 0258  023051720 0263  023051730 0268  023055633 0269  
023051734 0271  023051744 0275  023051752 0280  023050250 0291  
023051851 0296  023050283 0303  023050293 0306  023055772 0314  
023050310 0317  023051869 0319  023051887 0321  023050321 0324  
023051876 0326  023050333 0328  023051919 0330  023051902 0334  
023050369 0340  023051931 0342  023050425 0345  023051962 0348  
023050402 0350  023050417 0354  023055881 0357  023050442 0363  
023050471 0366  023050461 0368  023050484 0370  023050498 0372  
023055952 0374  023056005 0377  023052018 0380  023050476 0381  
023050490 0383  023055953 0388  023050517 0391  023050535 0399  
023050540 0402  023050543 0404  023050548 0406  023050550 0408  
023050552 0411  023050555 0413  023050556 0415  023050561 0417  
023050558 0419  023050564 0422  023050566 0424  023050568 0426  
023052009 0428  023052012 0430  023052015 0432  023052016 0434  
023052019 0436  023052094 0438  023052024 0441  023052026 0443  
023050569 0445  023050571 0449  023050572 0453  023050575 0455  
023050579 0457  023050583 0459  023052107 0462  023050588 0464  
023052116 0470  023052066 0474  023050598 0478  023052121 0480  
023050607 0482  023050617 0485  023052141 0491  023052144 0493  
023052153 0496  023052156 0498  023052219 0506  023052235 0510  
023052244 0512  023052328 0517  023052387 0522  023052410 0525  
023052436 0526  023052435 0529  023052439 0530  023052441 0532  
023052478 0534  023052445 0536  023052467 0538  023056577 0556  
023052550 0559  023061235 0563  023061227 0565  023061329 0568  
023071222 0582  023071224 0584  023075049 0586  023071241 0588  
023071256 0593  
Total number of Dig-ups or Emergency 0029
Total number of Short Notices        0003
Total number of Priority Notices     0013
Total number of Routine Notices      0116
Total number of Messages for PGC     0161
If this audit does not match your manual tracking 
then call the Call Center and request a retransmission.





SEQUENCE NUMBER 0001   CDC = RD1

TESS audit for CDC of RD1 on 021103
Serial# & Seq#  Serial# & Seq#  Serial# & Seq#  Serial# & Seq#
Total number of Dig-ups or Emergency 0000
Total number of Short Notices        0000
Total number of Priority Notices     0000
Total number of Routine Notices      0000
Total number of Messages for RD1     0000
If this audit does not match your manual tracking 
then call the Call Center and request a retransmission.





SEQUENCE NUMBER 0001   CDC = RR1

TESS audit for CDC of RR1 on 021103
Serial# & Seq#  Serial# & Seq#  Serial# & Seq#  Serial# & Seq#
023050810 0002  023050827 0006  023050824 0008  023050853 0023  
023050854 0025  023050855 0028  023050920 0053  023050928 0054  
023050933 0057  023050922 0061  023050993 0066  023050977 0070  
023050983 0073  023051004 0074  023051008 0076  023051014 0079  
023051052 0090  023051058 0092  023051064 0097  023051048 0100  
023051096 0108  023051101 0110  023051372 0154  023051398 0164  
023055312 0167  023050049 0170  023055340 0176  023051487 0181  
023050089 0196  023055412 0201  023050097 0205  023050112 0212  
023051557 0215  023051579 0217  023050162 0232  023051670 0242  
023050165 0243  023050166 0244  023050174 0249  023050175 0251  
023050218 0261  023050219 0265  023050225 0277  023051761 0282  
023050298 0310  023051995 0359  023055987 0397  023056238 0508  
023052326 0514  023052330 0515  023052395 0519  023052509 0540  
023052511 0542  023052513 0544  023052518 0546  023052528 0547  
023052516 0550  023052522 0551  023052524 0552  023052549 0557  
023061336 0571  023071211 0578  023071220 0580  
Total number of Dig-ups or Emergency 0008
Total number of Short Notices        0005
Total number of Priority Notices     0016
Total number of Routine Notices      0034
Total number of Messages for RR1     0063
If this audit does not match your manual tracking 
then call the Call Center and request a retransmission.





SEQUENCE NUMBER 0001   CDC = RRE

TESS audit for CDC of RRE on 021103
Serial# & Seq#  Serial# & Seq#  Serial# & Seq#  Serial# & Seq#
023050809 0001  023050810 0003  023050827 0007  023050853 0024  
023050854 0026  023050928 0055  023050993 0067  023050977 0071  
023051004 0075  023051008 0077  023051014 0080  023051058 0093  
023051168 0115  023051300 0146  023050049 0171  023055340 0177  
023050089 0197  023050112 0213  023051557 0216  023051579 0218  
023050162 0233  023050166 0245  023055626 0260  023050218 0262  
023050219 0266  023050225 0278  023051761 0283  023050298 0311  
023051995 0360  023055987 0398  023052021 0440  023052330 0516  
023052395 0520  023052509 0541  023052511 0543  023052513 0545  
023052528 0548  023052505 0549  023052524 0553  023056485 0555  
023065025 0562  023061336 0572  023071207 0577  023071211 0579  
023071220 0581  
Total number of Dig-ups or Emergency 0006
Total number of Short Notices        0004
Total number of Priority Notices     0011
Total number of Routine Notices      0024
Total number of Messages for RRE     0045
If this audit does not match your manual tracking 
then call the Call Center and request a retransmission.





SEQUENCE NUMBER 0001   CDC = SSA

TESS audit for CDC of SSA on 021103
Serial# & Seq#  Serial# & Seq#  Serial# & Seq#  Serial# & Seq#
023050822 0004  023050823 0005  023050830 0010  023050832 0012  
023050837 0014  023050847 0016  023050848 0017  023050851 0020  
023050852 0022  023050863 0030  023050881 0031  023050867 0034  
023050872 0036  023050874 0038  023050877 0039  023050879 0041  
023050883 0042  023050889 0044  023050886 0045  023050890 0046  
023050896 0047  023050908 0049  023050916 0050  023050937 0051  
023055041 0059  023050935 0063  023050948 0064  023050956 0065  
023050997 0069  023050986 0078  023051010 0083  023051027 0085  
023051061 0088  023051074 0095  023055095 0101  023051049 0102  
023055097 0104  023051066 0106  023051154 0113  023051156 0114  
023051175 0116  023051188 0118  023051274 0120  023051265 0121  
023051209 0122  023051262 0124  023055149 0125  023051192 0126  
023051224 0127  023051255 0128  023051256 0131  023051257 0133  
023055174 0135  023051273 0137  023055178 0139  023051284 0141  
023051290 0143  023051353 0144  023051358 0145  023050001 0148  
023051336 0149  023050009 0151  023051346 0153  023055255 0155  
023050015 0157  023051407 0158  023051409 0161  023055267 0162  
023051437 0165  023051432 0168  023051434 0169  023051438 0172  
023055328 0173  023051468 0175  023050057 0179  023051452 0180  
023055375 0182  023051483 0184  023050071 0186  023050069 0187  
023051518 0188  023051520 0189  023051515 0191  023055410 0193  
023055411 0195  023051524 0199  023051528 0203  023055423 0206  
023051538 0207  023050113 0210  023055457 0214  023050123 0220  
023055516 0221  023050130 0223  023050138 0224  023051602 0226  
023051610 0227  023051615 0228  023055512 0230  023050155 0231  
023055546 0235  023050163 0236  023050180 0238  023055560 0240  
023055557 0247  023050182 0252  023055573 0253  023055605 0254  
023055622 0255  023055606 0257  023051738 0259  023051720 0264  
023051730 0267  023055633 0270  023051734 0272  023050221 0273  
023055630 0274  023051744 0276  023050234 0279  023051752 0281  
023055660 0284  023055680 0287  023055687 0288  023051780 0289  
023050250 0292  023050254 0293  023050266 0294  023050271 0295  
023051851 0297  023055712 0298  023055716 0299  023055717 0300  
023050275 0302  023050283 0304  023050284 0305  023050293 0307  
023050297 0309  023050301 0312  023050313 0313  023055772 0315  
023050309 0316  023050310 0318  023051869 0320  023051887 0322  
023055777 0323  023050321 0325  023051876 0327  023050333 0329  
023051919 0331  023050349 0332  023050373 0333  023051902 0335  
023050355 0336  023051925 0337  023050369 0341  023051931 0343  
023050381 0344  023050425 0346  023051942 0347  023051962 0349  
023050402 0351  023051969 0352  023050407 0353  023050417 0355  
023051990 0356  023055881 0358  023050423 0361  023050437 0362  
023050442 0364  023050427 0365  023050471 0367  023050461 0369  
023050484 0371  023050498 0373  023055952 0375  023055988 0376  
023056005 0378  023052018 0379  023050476 0382  023050490 0384  
023050435 0385  023052049 0386  023050513 0387  023055953 0389  
023050515 0390  023050517 0392  023050520 0393  023050522 0394  
023050524 0395  023052061 0396  023050535 0400  023052065 0401  
023050540 0403  023050543 0405  023050548 0407  023050550 0409  
023056012 0410  023050552 0412  023050555 0414  023050556 0416  
023050561 0418  023050558 0420  023050559 0421  023050564 0423  
023050566 0425  023050568 0427  023052009 0429  023052012 0431  
023052015 0433  023052016 0435  023052019 0437  023052094 0439  
023052024 0442  023052026 0444  023056087 0446  023056092 0447  
023056104 0448  023050571 0450  023050569 0451  023050570 0452  





SEQUENCE NUMBER 0001   CDC = SSA

023050572 0454  023050575 0456  023050579 0458  023050583 0460  
023052105 0461  023052107 0463  023050588 0465  023052111 0466  
023052030 0467  023052033 0468  023052037 0469  023052116 0471  
023052039 0472  023052042 0473  023052066 0475  023052108 0476  
023052149 0477  023050598 0479  023052121 0481  023050607 0483  
023050616 0484  023050617 0486  023050619 0487  023050621 0488  
023050622 0489  023052140 0490  023052141 0492  023052144 0494  
023052151 0495  023052153 0497  023052156 0499  023052157 0501  
023052167 0502  023056235 0503  023056239 0504  023056240 0505  
023052219 0507  023052235 0511  023052244 0513  023052328 0518  
023052387 0523  023052410 0524  023052436 0527  023052435 0528  
023052439 0531  023052441 0533  023052478 0535  023052445 0537  
023052467 0539  023056487 0554  023056577 0558  023052550 0560  
023061207 0561  023061235 0564  023061227 0566  023061308 0567  
023061329 0569  023061409 0574  023071205 0575  023071222 0583  
023071224 0585  023075049 0587  023071241 0589  023075081 0590  
023075083 0591  023071256 0592  023071282 0594  023071290 0595  
023071293 0596  
Total number of Dig-ups or Emergency 0055
Total number of Short Notices        0007
Total number of Priority Notices     0030
Total number of Routine Notices      0197
Total number of Messages for SSA     0289
If this audit does not match your manual tracking 
then call the Call Center and request a retransmission.







