Notified Date      Ticket Id         Member    Ticket Type
04/28/2005 01:04   5187543:1         Wgl06     Late
04/28/2005 01:05   5186656:1         Wgl06     
04/28/2005 01:05   5186392:1         Wgl06     Late
04/28/2005 01:05   5186693:1         Wgl06     Late
04/28/2005 01:05   5186844:1         Wgl06     Late
04/28/2005 01:05   5187005:1         Wgl06     Late
04/28/2005 01:05   5187530:1         Wgl06     Late
04/28/2005 01:05   5187719:1         Wgl06     Late
04/28/2005 01:05   5187671:1         Wgl06     Late
04/28/2005 01:06   5186247:1         Wgl06     Late
04/28/2005 01:06   5186252:1         Wgl06     Late
04/28/2005 01:13   5180387:1         Wgl06     Late
04/28/2005 01:13   5168734:1         Wgl06     Late
04/28/2005 01:13   5180391:1         Wgl06     Late
04/28/2005 01:13   5180401:1         Wgl06     Late
04/28/2005 01:13   5182668:1         Wgl06     Late
04/28/2005 01:13   5182673:1         Wgl06     Late
04/28/2005 01:13   5182841:1         Wgl06     Late
04/28/2005 05:46   5194702:0         Wgl06     Normal
04/28/2005 05:46   5194703:0         Wgl06     Normal
04/28/2005 05:47   5194704:0         Wgl06     Normal
04/28/2005 05:47   5194705:0         Wgl06     Normal
04/28/2005 05:47   5194706:0         Wgl06     Normal
04/28/2005 05:48   5194707:0         Wgl06     Normal
04/28/2005 05:49   5194711:0         Wgl06     Normal
04/28/2005 05:50   5194712:0         Wgl06     Normal
04/28/2005 05:51   5194714:0         Wgl06     Normal
04/28/2005 06:11   5194722:0         Wgl06     Normal
04/28/2005 06:12   5194723:0         Wgl06     Normal
04/28/2005 06:14   5194724:0         Wgl06     Normal
04/28/2005 06:27   5194729:0         Wgl06     Normal
04/28/2005 06:29   5194737:0         Wgl06     Normal
04/28/2005 06:31   5194740:0         Wgl06     Normal
04/28/2005 06:31   5194743:0         Wgl06     Normal
04/28/2005 06:32   5194744:0         Wgl06     Normal
04/28/2005 06:33   5194745:0         Wgl06     Normal
04/28/2005 06:34   5194746:0         Wgl06     Normal
04/28/2005 06:35   5194747:0         Wgl06     Normal
04/28/2005 06:36   5194749:0         Wgl06     Normal
04/28/2005 06:36   5194748:0         Wgl06     Normal
04/28/2005 06:36   5194750:0         Wgl06     Normal
04/28/2005 06:37   5194752:0         Wgl06     Normal
04/28/2005 06:37   5194751:0         Wgl06     Normal
04/28/2005 06:37   5194753:0         Wgl06     Normal
04/28/2005 06:37   5194754:0         Wgl06     Normal
04/28/2005 06:38   5194755:0         Wgl06     Normal
04/28/2005 06:42   5194756:0         Wgl06     Normal
04/28/2005 06:43   5194757:0         Wgl06     Normal
04/28/2005 06:44   5194758:0         Wgl06     Normal
04/28/2005 06:44   5194760:0         Wgl06     Normal
04/28/2005 06:44   5194761:0         Wgl06     Normal
04/28/2005 06:45   5194762:0         Wgl06     Normal
04/28/2005 06:45   5194763:0         Wgl06     Normal
04/28/2005 06:46   5194764:0         Wgl06     Normal
04/28/2005 06:46   5194765:0         Wgl06     Normal
04/28/2005 06:47   5194766:0         Wgl06     Normal
04/28/2005 06:47   5194767:0         Wgl06     Normal
04/28/2005 06:47   5194769:0         Wgl06     Normal
04/28/2005 06:48   5194770:0         Wgl06     Normal
04/28/2005 06:49   5194771:0         Wgl06     Normal
04/28/2005 06:49   5194772:0         Wgl06     Normal
04/28/2005 06:49   5194773:0         Wgl06     Normal
04/28/2005 06:50   5194774:0         Wgl06     Normal
04/28/2005 06:51   5194775:0         Wgl06     Normal
04/28/2005 06:52   5194776:0         Wgl06     Normal
04/28/2005 06:52   5194777:0         Wgl06     Normal
04/28/2005 06:54   5194778:0         Wgl06     Normal
04/28/2005 06:54   5194779:0         Wgl06     Normal
04/28/2005 06:55   5194780:0         Wgl06     Normal
04/28/2005 06:56   5194782:0         Wgl06     Normal
04/28/2005 07:00   5194786:0         Wgl06     Normal
04/28/2005 07:05   5194795:0         Wgl06     Normal
04/28/2005 07:06   5194801:0         Wgl06     Normal
04/28/2005 07:08   5194807:0         Wgl06     Normal
04/28/2005 07:10   5194812:0         Wgl06     Normal
04/28/2005 07:11   5194815:0         Wgl06     Normal
04/28/2005 07:11   5194805:0         Wgl06     Normal
04/28/2005 07:14   5194821:0         Wgl06     Normal
04/28/2005 07:15   5194826:0         Wgl06     Normal
04/28/2005 07:17   5194829:0         Wgl06     Normal
04/28/2005 07:18   5194823:0         Wgl06     Emergency
04/28/2005 07:18   5194836:0         Wgl06     Normal
04/28/2005 07:21   5194847:0         Wgl06     Normal
04/28/2005 07:22   5194849:0         Wgl06     Normal
04/28/2005 07:23   5194851:0         Wgl06     Normal
04/28/2005 07:23   5194856:0         Wgl06     Normal
04/28/2005 07:24   5194858:0         Wgl06     Normal
04/28/2005 07:26   5194865:0         Wgl06     Normal
04/28/2005 07:28   5194869:0         Wgl06     Normal
04/28/2005 07:29   5194873:0         Wgl06     Normal
04/28/2005 07:30   5194877:0         Wgl06     Normal
04/28/2005 07:31   5194879:0         Wgl06     Normal
04/28/2005 07:31   5194883:0         Wgl06     Normal
04/28/2005 07:32   5194885:0         Wgl06     Normal
04/28/2005 07:32   5194886:0         Wgl06     Normal
04/28/2005 07:33   5194889:0         Wgl06     Normal
04/28/2005 07:34   5194892:0         Wgl06     Normal
04/28/2005 07:35   5194895:0         Wgl06     Normal
04/28/2005 07:36   5194891:0         Wgl06     Emergency
04/28/2005 07:38   5194906:0         Wgl06     Normal
04/28/2005 07:41   5194903:0         Wgl06     Normal
04/28/2005 07:42   5194916:0         Wgl06     Normal
04/28/2005 07:42   5194901:0         Wgl06     Normal
04/28/2005 07:42   5194919:0         Wgl06     Normal
04/28/2005 07:43   5194920:0         Wgl06     Normal
04/28/2005 07:44   5194925:0         Wgl06     Normal
04/28/2005 07:45   5194929:0         Wgl06     Normal
04/28/2005 07:45   5194931:0         Wgl06     Normal
04/28/2005 07:45   5194933:0         Wgl06     Normal
04/28/2005 07:46   5194936:0         Wgl06     Normal
04/28/2005 07:47   5194937:0         Wgl06     Normal
04/28/2005 07:47   5194941:0         Wgl06     Normal
04/28/2005 07:47   5194942:0         Wgl06     Normal
04/28/2005 07:48   5194946:0         Wgl06     Normal
04/28/2005 07:48   5194947:0         Wgl06     Normal
04/28/2005 07:48   5194950:0         Wgl06     Normal
04/28/2005 07:50   5194922:0         Wgl06     Normal
04/28/2005 07:50   5194958:0         Wgl06     Normal
04/28/2005 07:51   5194962:0         Wgl06     Normal
04/28/2005 07:51   5194940:0         Wgl06     Emergency
04/28/2005 07:52   5194927:0         Wgl06     Normal
04/28/2005 07:52   5194923:0         Wgl06     Normal
04/28/2005 07:53   5194966:0         Wgl06     Normal
04/28/2005 07:53   5194964:0         Wgl06     Normal
04/28/2005 07:53   5194970:0         Wgl06     Normal
04/28/2005 07:54   5194974:0         Wgl06     Normal
04/28/2005 07:54   5194976:0         Wgl06     Normal
04/28/2005 07:55   5194989:0         Wgl06     Normal
04/28/2005 07:56   5194978:0         Wgl06     Normal
04/28/2005 07:56   5194993:0         Wgl06     Normal
04/28/2005 07:56   5194991:0         Wgl06     Normal
04/28/2005 07:56   5194995:0         Wgl06     Normal
04/28/2005 07:57   5195000:0         Wgl06     Normal
04/28/2005 07:57   5194985:0         Wgl06     Emergency
04/28/2005 07:58   5194986:0         Wgl06     Emergency
04/28/2005 07:59   5176662:1         Wgl06     Update
04/28/2005 08:00   5195005:0         Wgl06     Normal
04/28/2005 08:00   5195002:0         Wgl06     Normal
04/28/2005 08:00   5195008:0         Wgl06     Normal
04/28/2005 08:00   5194981:0         Wgl06     Normal
04/28/2005 08:01   5195017:0         Wgl06     Normal
04/28/2005 08:01   5195018:0         Wgl06     Normal
04/28/2005 08:01   5195021:0         Wgl06     Normal
04/28/2005 08:02   5195022:0         Wgl06     Normal
04/28/2005 08:02   5195001:0         Wgl06     Normal
04/28/2005 08:02   5194996:0         Wgl06     Normal
04/28/2005 08:03   5195023:0         Wgl06     Normal
04/28/2005 08:03   5195026:0         Wgl06     Normal
04/28/2005 08:04   5195012:0         Wgl06     Normal
04/28/2005 08:04   5195011:0         Wgl06     Normal
04/28/2005 08:07   5195034:0         Wgl06     Normal
04/28/2005 08:08   5195035:0         Wgl06     Normal
04/28/2005 08:10   5195049:0         Wgl06     Normal
04/28/2005 08:10   5195046:0         Wgl06     Normal
04/28/2005 08:10   5195056:0         Wgl06     Normal
04/28/2005 08:11   5195062:0         Wgl06     Normal
04/28/2005 08:12   5195054:0         Wgl06     Emergency
04/28/2005 08:12   5195064:0         Wgl06     Normal
04/28/2005 08:12   5195060:0         Wgl06     Normal
04/28/2005 08:14   5195059:0         Wgl06     Normal
04/28/2005 08:14   5195073:0         Wgl06     Normal
04/28/2005 08:16   5195070:0         Wgl06     Emergency
04/28/2005 08:16   5195072:0         Wgl06     Emergency
04/28/2005 08:16   5195081:0         Wgl06     Normal
04/28/2005 08:22   5195083:0         Wgl06     Short
04/28/2005 08:23   5195075:0         Wgl06     Emergency
04/28/2005 08:23   5195068:0         Wgl06     Short
04/28/2005 08:23   5195066:0         Wgl06     Normal
04/28/2005 08:25   5195063:0         Wgl06     Emergency
04/28/2005 08:26   5195098:0         Wgl06     Normal
04/28/2005 08:26   5195101:0         Wgl06     Normal
04/28/2005 08:26   5195112:0         Wgl06     Emergency
04/28/2005 08:26   5195114:0         Wgl06     Normal
04/28/2005 08:26   5195116:0         Wgl06     Emergency
04/28/2005 08:28   5195111:0         Wgl06     Normal
04/28/2005 08:29   5195106:0         Wgl06     Normal
04/28/2005 08:29   5195051:0         Wgl06     Normal
04/28/2005 08:34   5195144:0         Wgl06     Normal
04/28/2005 08:34   5195131:0         Wgl06     Normal
04/28/2005 08:34   5195146:0         Wgl06     Normal
04/28/2005 08:34   5195113:0         Wgl06     Normal
04/28/2005 08:35   5195139:0         Wgl06     Normal
04/28/2005 08:36   5195133:0         Wgl06     Normal
04/28/2005 08:36   5195151:0         Wgl06     Normal
04/28/2005 08:37   5195149:0         Wgl06     Normal
04/28/2005 08:37   5195152:0         Wgl06     Normal
04/28/2005 08:37   5195153:0         Wgl06     Normal
04/28/2005 08:37   5195157:0         Wgl06     Normal
04/28/2005 08:40   5195162:0         Wgl06     Normal
04/28/2005 08:40   5195165:0         Wgl06     Normal
04/28/2005 08:40   5195164:0         Wgl06     Normal
04/28/2005 08:40   5195166:0         Wgl06     Normal
04/28/2005 08:41   5195142:0         Wgl06     Normal
04/28/2005 08:41   5195186:0         Wgl06     Normal
04/28/2005 08:41   5195159:0         Wgl06     Normal
04/28/2005 08:42   5195175:0         Wgl06     Normal
04/28/2005 08:42   5195193:0         Wgl06     Normal
04/28/2005 08:43   5195194:0         Wgl06     Normal
04/28/2005 08:43   5195168:0         Wgl06     Normal
04/28/2005 08:43   5195201:0         Wgl06     Normal
04/28/2005 08:44   5195178:0         Wgl06     Normal
04/28/2005 08:46   5195208:0         Wgl06     Normal
04/28/2005 08:46   5195216:0         Wgl06     Normal
04/28/2005 08:48   5195195:0         Wgl06     Emergency
04/28/2005 08:48   5195199:0         Wgl06     Normal
04/28/2005 08:48   5195220:0         Wgl06     Normal
04/28/2005 08:49   5193865:1         Wgl06     Cancel
04/28/2005 08:50   5195180:0         Wgl06     Normal
04/28/2005 08:51   5195197:0         Wgl06     Normal
04/28/2005 08:51   5195210:0         Wgl06     Normal
04/28/2005 08:51   5195234:0         Wgl06     Normal
04/28/2005 08:51   5195077:0         Wgl06     Normal
04/28/2005 08:52   5195235:0         Wgl06     Normal
04/28/2005 08:54   5195244:0         Wgl06     Normal
04/28/2005 08:55   5195247:0         Wgl06     Normal
04/28/2005 08:55   5195248:0         Wgl06     Normal
04/28/2005 08:56   5195249:0         Wgl06     Normal
04/28/2005 08:56   5195221:0         Wgl06     Emergency
04/28/2005 08:56   5195251:0         Wgl06     Normal
04/28/2005 08:56   5195252:0         Wgl06     Normal
04/28/2005 08:56   5195254:0         Wgl06     Normal
04/28/2005 08:59   5195263:0         Wgl06     Normal
04/28/2005 08:59   5195137:0         Wgl06     Normal
04/28/2005 09:01   5195161:0         Wgl06     Normal
04/28/2005 09:02   5195267:0         Wgl06     Normal
04/28/2005 09:02   5195272:0         Wgl06     Normal
04/28/2005 09:02   5195274:0         Wgl06     Normal
04/28/2005 09:02   5181344:1         Wgl06     Update
04/28/2005 09:03   5195273:0         Wgl06     Emergency
04/28/2005 09:03   5194430:1         Wgl06     Cancel
04/28/2005 09:03   5195191:0         Wgl06     Short
04/28/2005 09:03   5195173:0         Wgl06     Normal
04/28/2005 09:08   5195265:0         Wgl06     Normal
04/28/2005 09:12   5195301:0         Wgl06     Normal
04/28/2005 09:12   5195321:0         Wgl06     Normal
04/28/2005 09:12   5195309:0         Wgl06     Emergency
04/28/2005 09:12   5195212:0         Wgl06     Normal
04/28/2005 09:12   5195204:0         Wgl06     Emergency
04/28/2005 09:12   5195163:0         Wgl06     Short
04/28/2005 09:12   5195223:0         Wgl06     Normal
04/28/2005 09:12   5195207:0         Wgl06     Normal
04/28/2005 09:12   5195214:0         Wgl06     Normal
04/28/2005 09:12   5195219:0         Wgl06     Normal
04/28/2005 09:14   5195231:0         Wgl06     Normal
04/28/2005 09:14   5195318:0         Wgl06     Emergency
04/28/2005 09:15   5195079:0         Wgl06     Emergency
04/28/2005 09:15   5195090:0         Wgl06     Normal
04/28/2005 09:16   5195294:0         Wgl06     Short
04/28/2005 09:16   5195245:0         Wgl06     Normal
04/28/2005 09:16   5195253:0         Wgl06     Normal
04/28/2005 09:18   5195336:0         Wgl06     Normal
04/28/2005 09:18   5195122:0         Wgl06     Normal
04/28/2005 09:18   5195128:0         Wgl06     Normal
04/28/2005 09:19   5195136:0         Wgl06     Emergency
04/28/2005 09:19   5195340:0         Wgl06     Normal
04/28/2005 09:20   5195281:0         Wgl06     Normal
04/28/2005 09:21   5195323:0         Wgl06     Normal
04/28/2005 09:21   5195119:0         Wgl06     Emergency
04/28/2005 09:24   5180261:1         Wgl06     Update
04/28/2005 09:26   5195358:0         Wgl06     Emergency
04/28/2005 09:26   5183629:1         Wgl06     Update
04/28/2005 09:26   5195296:0         Wgl06     Short
04/28/2005 09:27   5195285:0         Wgl06     Normal
04/28/2005 09:27   5195278:0         Wgl06     Short
04/28/2005 09:29   5195205:0         Wgl06     Normal
04/28/2005 09:29   5195352:0         Wgl06     Normal
04/28/2005 09:30   5195376:0         Wgl06     Normal
04/28/2005 09:31   5195339:0         Wgl06     Normal
04/28/2005 09:32   5195343:0         Wgl06     Normal
04/28/2005 09:33   5195334:0         Wgl06     Normal
04/28/2005 09:33   5195342:0         Wgl06     Normal
04/28/2005 09:33   5187985:1         Wgl06     Update
04/28/2005 09:34   5195396:0         Wgl06     Normal
04/28/2005 09:34   5195351:0         Wgl06     Emergency
04/28/2005 09:34   5195288:0         Wgl06     Short
04/28/2005 09:35   5195402:0         Wgl06     Normal
04/28/2005 09:35   5195355:0         Wgl06     Emergency
04/28/2005 09:37   5195409:0         Wgl06     Normal
04/28/2005 09:37   5195410:0         Wgl06     Normal
04/28/2005 09:37   5195397:0         Wgl06     Normal
04/28/2005 09:39   5195404:0         Wgl06     Normal
04/28/2005 09:39   5195423:0         Wgl06     Normal
04/28/2005 09:39   5195398:0         Wgl06     Normal
04/28/2005 09:40   5195319:0         Wgl06     Normal
04/28/2005 09:40   5195335:0         Wgl06     Normal
04/28/2005 09:41   5195422:0         Wgl06     Normal
04/28/2005 09:41   5195401:0         Wgl06     Normal
04/28/2005 09:44   5195417:0         Wgl06     Normal
04/28/2005 09:44   5195416:0         Wgl06     Normal
04/28/2005 09:44   5195411:0         Wgl06     Normal
04/28/2005 09:44   5182702:1         Wgl06     Update
04/28/2005 09:44   5195451:0         Wgl06     Normal
04/28/2005 09:45   5195415:0         Wgl06     Normal
04/28/2005 09:45   5195426:0         Wgl06     Normal
04/28/2005 09:45   5195456:0         Wgl06     Normal
04/28/2005 09:45   5195460:0         Wgl06     Normal
04/28/2005 09:45   5195463:0         Wgl06     Normal
04/28/2005 09:46   5195437:0         Wgl06     Normal
04/28/2005 09:46   5195443:0         Wgl06     Emergency
04/28/2005 09:46   5195452:0         Wgl06     Normal
04/28/2005 09:46   5195468:0         Wgl06     Normal
04/28/2005 09:46   5195472:0         Wgl06     Normal
04/28/2005 09:46   5195474:0         Wgl06     Normal
04/28/2005 09:48   5195475:0         Wgl06     Normal
04/28/2005 09:48   5195482:0         Wgl06     Normal
04/28/2005 09:49   5195377:0         Wgl06     Normal
04/28/2005 09:49   5195407:0         Wgl06     Normal
04/28/2005 09:49   5195361:0         Wgl06     Normal
04/28/2005 09:50   5195386:0         Wgl06     Normal
04/28/2005 09:50   5195391:0         Wgl06     Normal
04/28/2005 09:50   5195421:0         Wgl06     Normal
04/28/2005 09:50   5195495:0         Wgl06     Normal
04/28/2005 09:52   5195500:0         Wgl06     Normal
04/28/2005 09:52   5195514:0         Wgl06     Normal
04/28/2005 09:54   5182707:1         Wgl06     Cancel
04/28/2005 09:54   5195440:0         Wgl06     Normal
04/28/2005 09:54   5195357:0         Wgl06     Normal
04/28/2005 09:55   5195520:0         Wgl06     Emergency
04/28/2005 09:56   5195445:0         Wgl06     Normal
04/28/2005 09:57   5195348:0         Wgl06     Emergency
04/28/2005 09:58   5195459:0         Wgl06     Normal
04/28/2005 09:58   5195465:0         Wgl06     Normal
04/28/2005 09:58   5195467:0         Wgl06     Normal
04/28/2005 09:58   5173319:1         Wgl06     
04/28/2005 09:58   5195507:0         Wgl06     Normal
04/28/2005 09:58   5195471:0         Wgl06     Normal
04/28/2005 10:00   5195477:0         Wgl06     Normal
04/28/2005 10:00   5195378:0         Wgl06     Normal
04/28/2005 10:01   5195488:0         Wgl06     Normal
04/28/2005 10:01   5195578:0         Wgl06     Normal
04/28/2005 10:01   5195566:0         Wgl06     Emergency
04/28/2005 10:01   5195580:0         Wgl06     Normal
04/28/2005 10:01   5195583:0         Wgl06     Normal
04/28/2005 10:02   5195501:0         Wgl06     Normal
04/28/2005 10:02   5195590:0         Wgl06     Normal
04/28/2005 10:02   5195592:0         Wgl06     Normal
04/28/2005 10:02   5195596:0         Wgl06     Normal
04/28/2005 10:02   5195585:0         Wgl06     Emergency
04/28/2005 10:03   5194676:0         Wgl06     Normal
04/28/2005 10:03   5195603:0         Wgl06     Normal
04/28/2005 10:04   5164181:1         Wgl06     
04/28/2005 10:04   5164187:1         Wgl06     
04/28/2005 10:04   5172370:1         Wgl06     
04/28/2005 10:04   5195569:0         Wgl06     Normal
04/28/2005 10:04   5195615:0         Wgl06     Normal
04/28/2005 10:05   5195382:0         Wgl06     Normal
04/28/2005 10:06   5195625:0         Wgl06     Normal
04/28/2005 10:07   5195519:0         Wgl06     Normal
04/28/2005 10:07   5195454:0         Wgl06     Normal
04/28/2005 10:08   5195528:0         Wgl06     Normal
04/28/2005 10:08   5195572:0         Wgl06     Normal
04/28/2005 10:08   5195637:0         Wgl06     Normal
04/28/2005 10:09   5195646:0         Wgl06     Normal
04/28/2005 10:09   5195649:0         Wgl06     Normal
04/28/2005 10:09   5195586:0         Wgl06     Normal
04/28/2005 10:11   5195643:0         Wgl06     Emergency
04/28/2005 10:11   5195664:0         Wgl06     Normal
04/28/2005 10:14   5195693:0         Wgl06     Normal
04/28/2005 10:14   5195694:0         Wgl06     Normal
04/28/2005 10:14   5195686:0         Wgl06     Normal
04/28/2005 10:15   5195662:0         Wgl06     Normal
04/28/2005 10:15   5195628:0         Wgl06     Normal
04/28/2005 10:15   5195669:0         Wgl06     Normal
04/28/2005 10:15   5195655:0         Wgl06     Normal
04/28/2005 10:16   5195624:0         Wgl06     Normal
04/28/2005 10:17   5195673:0         Wgl06     Normal
04/28/2005 10:17   5194944:0         Wgl06     Normal
04/28/2005 10:18   5195712:0         Wgl06     Normal
04/28/2005 10:18   5195620:0         Wgl06     Normal
04/28/2005 10:19   5195715:0         Wgl06     Normal
04/28/2005 10:20   5195720:0         Wgl06     Normal
04/28/2005 10:20   5195724:0         Wgl06     Normal
04/28/2005 10:20   5194955:0         Wgl06     Normal
04/28/2005 10:21   5195705:0         Wgl06     Normal
04/28/2005 10:22   5195731:0         Wgl06     Normal
04/28/2005 10:22   5195631:0         Wgl06     Normal
04/28/2005 10:22   5195708:0         Wgl06     Normal
04/28/2005 10:23   5195734:0         Wgl06     Normal
04/28/2005 10:23   5195735:0         Wgl06     Normal
04/28/2005 10:23   5195740:0         Wgl06     Normal
04/28/2005 10:23   5195741:0         Wgl06     Normal
04/28/2005 10:23   5195726:0         Wgl06     Normal
04/28/2005 10:23   5195728:0         Wgl06     Normal
04/28/2005 10:24   5195748:0         Wgl06     Normal
04/28/2005 10:26   5195755:0         Wgl06     Normal
04/28/2005 10:26   5195689:0         Wgl06     Normal
04/28/2005 10:27   5195753:0         Wgl06     Emergency
04/28/2005 10:28   5195770:0         Wgl06     Normal
04/28/2005 10:28   5195772:0         Wgl06     Normal
04/28/2005 10:29   5195752:0         Wgl06     Normal
04/28/2005 10:29   5195775:0         Wgl06     Normal
04/28/2005 10:30   5195782:0         Wgl06     Normal
04/28/2005 10:33   5195783:0         Wgl06     Normal
04/28/2005 10:33   5195790:0         Wgl06     Normal
04/28/2005 10:33   5195793:0         Wgl06     Normal
04/28/2005 10:34   5195777:0         Wgl06     Normal
04/28/2005 10:34   5195796:0         Wgl06     Normal
04/28/2005 10:35   5195799:0         Wgl06     Normal
04/28/2005 10:36   5195804:0         Wgl06     Normal
04/28/2005 10:36   5195757:0         Wgl06     Normal
04/28/2005 10:36   5195787:0         Wgl06     Normal
04/28/2005 10:36   5195779:0         Wgl06     Normal
04/28/2005 10:39   5195812:0         Wgl06     Normal
04/28/2005 10:39   5195791:0         Wgl06     Normal
04/28/2005 10:39   5195795:0         Wgl06     Normal
04/28/2005 10:39   5195820:0         Wgl06     Normal
04/28/2005 10:39   5195813:0         Wgl06     Normal
04/28/2005 10:41   5195794:0         Wgl06     Normal
04/28/2005 10:42   5195819:0         Wgl06     Normal
04/28/2005 10:43   5195789:0         Wgl06     Normal
04/28/2005 10:43   5195837:0         Wgl06     Normal
04/28/2005 10:44   5195800:0         Wgl06     Short
04/28/2005 10:45   5195524:0         Wgl06     Normal
04/28/2005 10:45   5195802:0         Wgl06     Normal
04/28/2005 10:46   5195848:0         Wgl06     Normal
04/28/2005 10:46   5195829:0         Wgl06     Normal
04/28/2005 10:46   5195835:0         Wgl06     Normal
04/28/2005 10:48   5195857:0         Wgl06     Normal
04/28/2005 10:49   5195865:0         Wgl06     Normal
04/28/2005 10:51   5195853:0         Wgl06     Normal
04/28/2005 10:51   5195870:0         Wgl06     Normal
04/28/2005 10:53   5195872:0         Wgl06     Normal
04/28/2005 10:53   5195835:1         Wgl06     Update
04/28/2005 10:53   5195855:0         Wgl06     Normal
04/28/2005 10:54   5195885:0         Wgl06     Normal
04/28/2005 10:55   5195882:0         Wgl06     Normal
04/28/2005 10:56   5195548:0         Wgl06     Normal
04/28/2005 10:56   5195859:0         Wgl06     Normal
04/28/2005 10:57   5195892:0         Wgl06     Normal
04/28/2005 10:58   5195897:0         Wgl06     Normal
04/28/2005 10:58   5195808:0         Wgl06     Normal
04/28/2005 10:58   5195880:0         Wgl06     Normal
04/28/2005 10:58   5195886:0         Wgl06     Normal
04/28/2005 10:58   5195903:0         Wgl06     Normal
04/28/2005 10:59   5195906:0         Wgl06     Normal
04/28/2005 11:07   5195888:0         Wgl06     Normal
04/28/2005 11:07   5195902:0         Wgl06     Normal
04/28/2005 11:09   5195406:0         Wgl06     Normal
04/28/2005 11:09   5195427:0         Wgl06     Normal
04/28/2005 11:09   5195439:0         Wgl06     Normal
04/28/2005 11:09   5195453:0         Wgl06     Normal
04/28/2005 11:09   5195913:0         Wgl06     Normal
04/28/2005 11:10   5195462:0         Wgl06     Normal
04/28/2005 11:10   5195918:0         Wgl06     Normal
04/28/2005 11:10   5195912:0         Wgl06     Emergency
04/28/2005 11:10   5195529:0         Wgl06     Normal
04/28/2005 11:10   5195899:0         Wgl06     Normal
04/28/2005 11:11   5195905:0         Wgl06     Normal
04/28/2005 11:11   5195852:0         Wgl06     Normal
04/28/2005 11:12   5195868:0         Wgl06     Normal
04/28/2005 11:12   5195877:0         Wgl06     Normal
04/28/2005 11:12   5195929:0         Wgl06     Normal
04/28/2005 11:12   5195884:0         Wgl06     Normal
04/28/2005 11:12   5195934:0         Wgl06     Normal
04/28/2005 11:12   5195904:0         Wgl06     Normal
04/28/2005 11:12   5195919:0         Wgl06     Normal
04/28/2005 11:12   5195937:0         Wgl06     Normal
04/28/2005 11:12   5195938:0         Wgl06     Normal
04/28/2005 11:12   5195941:0         Wgl06     Normal
04/28/2005 11:12   5195476:0         Wgl06     Normal
04/28/2005 11:12   5195944:0         Wgl06     Normal
04/28/2005 11:12   5195894:0         Wgl06     Short
04/28/2005 11:12   5195946:0         Wgl06     Normal
04/28/2005 11:12   5195920:0         Wgl06     Normal
04/28/2005 11:12   5195948:0         Wgl06     Normal
04/28/2005 11:13   5195949:0         Wgl06     Normal
04/28/2005 11:13   5195951:0         Wgl06     Normal
04/28/2005 11:13   5195950:0         Wgl06     Normal
04/28/2005 11:13   5195953:0         Wgl06     Normal
04/28/2005 11:13   5195954:0         Wgl06     Normal
04/28/2005 11:13   5195955:0         Wgl06     Normal
04/28/2005 11:13   5195956:0         Wgl06     Normal
04/28/2005 11:13   5195958:0         Wgl06     Normal
04/28/2005 11:13   5195960:0         Wgl06     Normal
04/28/2005 11:13   5195961:0         Wgl06     Normal
04/28/2005 11:13   5195962:0         Wgl06     Normal
04/28/2005 11:13   5195963:0         Wgl06     Normal
04/28/2005 11:13   5195964:0         Wgl06     Normal
04/28/2005 11:14   5195967:0         Wgl06     Normal
04/28/2005 11:15   5195971:0         Wgl06     Normal
04/28/2005 11:15   5195959:0         Wgl06     Normal
04/28/2005 11:15   5195973:0         Wgl06     Normal
04/28/2005 11:17   5195970:0         Wgl06     Emergency
04/28/2005 11:20   5195979:0         Wgl06     Short
04/28/2005 11:20   5195976:0         Wgl06     Normal
04/28/2005 11:21   5195990:0         Wgl06     Normal
04/28/2005 11:21   5195981:0         Wgl06     Normal
04/28/2005 11:21   5195991:0         Wgl06     Normal
04/28/2005 11:22   5195994:0         Wgl06     Normal
04/28/2005 11:23   5195989:0         Wgl06     Emergency
04/28/2005 11:23   5195982:0         Wgl06     Normal
04/28/2005 11:24   5195995:0         Wgl06     Normal
04/28/2005 11:24   5195975:0         Wgl06     Normal
04/28/2005 11:24   5196001:0         Wgl06     Normal
04/28/2005 11:25   5195969:0         Wgl06     Normal
04/28/2005 11:27   5195997:0         Wgl06     Short
04/28/2005 11:31   5196006:0         Wgl06     Normal
04/28/2005 11:32   5196021:0         Wgl06     Short
04/28/2005 11:32   5196034:0         Wgl06     Short
04/28/2005 11:34   5196012:0         Wgl06     Short
04/28/2005 11:34   5196033:0         Wgl06     Normal
04/28/2005 11:37   5195313:0         Wgl06     Normal
04/28/2005 11:39   5196050:0         Wgl06     Normal
04/28/2005 11:41   5196058:0         Wgl06     Emergency
04/28/2005 11:43   5196062:0         Wgl06     Normal
04/28/2005 11:44   5196069:0         Wgl06     Normal
04/28/2005 11:47   5196025:0         Wgl06     Short
04/28/2005 11:49   5196095:0         Wgl06     Normal
04/28/2005 11:49   5196088:0         Wgl06     Emergency
04/28/2005 11:50   5196059:0         Wgl06     Normal
04/28/2005 11:50   5196091:0         Wgl06     Normal
04/28/2005 11:52   5196100:0         Wgl06     Normal
04/28/2005 11:54   5195544:0         Wgl06     Normal
04/28/2005 11:57   5196111:0         Wgl06     Normal
04/28/2005 11:58   5196109:0         Wgl06     Normal
04/28/2005 11:58   5196122:0         Wgl06     Normal
04/28/2005 11:59   5196105:0         Wgl06     Emergency
04/28/2005 11:59   5196104:0         Wgl06     Short
04/28/2005 11:59   5196128:0         Wgl06     Normal
04/28/2005 12:01   5196132:0         Wgl06     Normal
04/28/2005 12:01   5196135:0         Wgl06     Normal
04/28/2005 12:02   5195533:0         Wgl06     Normal
04/28/2005 12:02   5196139:0         Wgl06     Normal
04/28/2005 12:02   5196137:0         Wgl06     Normal
04/28/2005 12:02   5196121:0         Wgl06     Normal
04/28/2005 12:03   5196144:0         Wgl06     Normal
04/28/2005 12:03   5196146:0         Wgl06     Normal
04/28/2005 12:03   5196148:0         Wgl06     Normal
04/28/2005 12:04   5196136:0         Wgl06     Normal
04/28/2005 12:05   5196158:0         Wgl06     Normal
04/28/2005 12:06   5196157:0         Wgl06     Normal
04/28/2005 12:06   5196159:0         Wgl06     Normal
04/28/2005 12:06   5196160:0         Wgl06     Normal
04/28/2005 12:07   5196106:0         Wgl06     Normal
04/28/2005 12:07   5196166:0         Wgl06     Normal
04/28/2005 12:09   5196168:0         Wgl06     Normal
04/28/2005 12:09   5196169:0         Wgl06     Normal
04/28/2005 12:34   5196177:0         Wgl06     Normal
04/28/2005 12:34   5196208:0         Wgl06     Normal
04/28/2005 12:34   5196207:0         Wgl06     Normal
04/28/2005 12:35   5196209:0         Wgl06     Normal
04/28/2005 12:39   5196195:0         Wgl06     Normal
04/28/2005 12:39   5196184:0         Wgl06     Normal
04/28/2005 12:39   5196210:0         Wgl06     Normal
04/28/2005 12:42   5196216:0         Wgl06     Normal
04/28/2005 12:42   5196226:0         Wgl06     Normal
04/28/2005 12:44   5196231:0         Wgl06     Normal
04/28/2005 12:44   5196199:0         Wgl06     Normal
04/28/2005 12:44   5196211:0         Wgl06     Normal
04/28/2005 12:44   5196218:0         Wgl06     Normal
04/28/2005 12:44   5196237:0         Wgl06     Normal
04/28/2005 12:44   5196241:0         Wgl06     Normal
04/28/2005 12:45   5196189:0         Wgl06     Normal
04/28/2005 12:46   5196204:0         Wgl06     Normal
04/28/2005 12:49   5196244:0         Wgl06     Normal
04/28/2005 12:49   5196248:0         Wgl06     Normal
04/28/2005 12:49   5196247:0         Wgl06     Normal
04/28/2005 12:49   5196250:0         Wgl06     Normal
04/28/2005 12:50   5196249:0         Wgl06     Normal
04/28/2005 12:50   5196245:0         Wgl06     Normal
04/28/2005 12:50   5196252:0         Wgl06     Normal
04/28/2005 12:50   5196254:0         Wgl06     Normal
04/28/2005 12:50   5196257:0         Wgl06     Normal
04/28/2005 12:50   5196255:0         Wgl06     Normal
04/28/2005 12:50   5196259:0         Wgl06     Normal
04/28/2005 13:04   5196260:0         Wgl06     Normal
04/28/2005 13:04   5196261:0         Wgl06     Normal
04/28/2005 13:04   5196263:0         Wgl06     Normal
04/28/2005 13:10   5196265:0         Wgl06     Normal
04/28/2005 13:10   5196266:0         Wgl06     Normal
04/28/2005 13:10   5196267:0         Wgl06     Normal
04/28/2005 13:10   5196268:0         Wgl06     Normal
04/28/2005 13:10   5196270:0         Wgl06     Normal
04/28/2005 13:10   5196212:0         Wgl06     Normal
04/28/2005 13:10   5196271:0         Wgl06     Normal
04/28/2005 13:10   5196272:0         Wgl06     Normal
04/28/2005 13:10   5196273:0         Wgl06     Normal
04/28/2005 13:10   5196275:0         Wgl06     Normal
04/28/2005 13:10   5196278:0         Wgl06     Normal
04/28/2005 13:11   5196280:0         Wgl06     Normal
04/28/2005 13:11   5196281:0         Wgl06     Normal
04/28/2005 13:11   5196283:0         Wgl06     Normal
04/28/2005 13:11   5196256:0         Wgl06     Normal
04/28/2005 13:11   5196284:0         Wgl06     Normal
04/28/2005 13:11   5184349:1         Wgl06     Update
04/28/2005 13:12   5196288:0         Wgl06     Normal
04/28/2005 13:12   5196289:0         Wgl06     Normal
04/28/2005 13:12   5196285:0         Wgl06     Normal
04/28/2005 13:12   5196294:0         Wgl06     Normal
04/28/2005 13:12   5196295:0         Wgl06     Normal
04/28/2005 13:12   5196296:0         Wgl06     Normal
04/28/2005 13:12   5196253:0         Wgl06     Normal
04/28/2005 13:13   5196297:0         Wgl06     Normal
04/28/2005 13:13   5196299:0         Wgl06     Normal
04/28/2005 13:13   5196301:0         Wgl06     Normal
04/28/2005 13:13   5196302:0         Wgl06     Normal
04/28/2005 13:13   5196304:0         Wgl06     Normal
04/28/2005 13:13   5196305:0         Wgl06     Normal
04/28/2005 13:14   5196292:0         Wgl06     Normal
04/28/2005 13:14   5196307:0         Wgl06     Normal
04/28/2005 13:14   5196309:0         Wgl06     Normal
04/28/2005 13:14   5196308:0         Wgl06     Normal
04/28/2005 13:14   5196312:0         Wgl06     Normal
04/28/2005 13:14   5196313:0         Wgl06     Normal
04/28/2005 13:14   5196314:0         Wgl06     Normal
04/28/2005 13:14   5196315:0         Wgl06     Normal
04/28/2005 13:14   5196317:0         Wgl06     Normal
04/28/2005 13:14   5196318:0         Wgl06     Normal
04/28/2005 13:14   5196321:0         Wgl06     Normal
04/28/2005 13:14   5196306:0         Wgl06     Normal
04/28/2005 13:14   5196322:0         Wgl06     Normal
04/28/2005 13:14   5196323:0         Wgl06     Normal
04/28/2005 13:14   5196324:0         Wgl06     Normal
04/28/2005 13:14   5196328:0         Wgl06     Normal
04/28/2005 13:14   5196331:0         Wgl06     Normal
04/28/2005 13:14   5196326:0         Wgl06     Normal
04/28/2005 13:14   5196334:0         Wgl06     Normal
04/28/2005 13:14   5196329:0         Wgl06     Normal
04/28/2005 13:15   5196325:0         Wgl06     Normal
04/28/2005 13:15   5196347:0         Wgl06     Normal
04/28/2005 13:15   5196360:0         Wgl06     Normal
04/28/2005 13:15   5196372:0         Wgl06     Normal
04/28/2005 13:16   5196320:0         Wgl06     Normal
04/28/2005 13:16   5196300:0         Wgl06     Normal
04/28/2005 13:17   5196337:0         Wgl06     Normal
04/28/2005 13:17   5196359:0         Wgl06     Normal
04/28/2005 13:17   5196330:0         Wgl06     Normal
04/28/2005 13:17   5196282:0         Wgl06     Normal
04/28/2005 13:18   5196339:0         Wgl06     Normal
04/28/2005 13:18   5196362:0         Wgl06     Normal
04/28/2005 13:18   5196319:0         Wgl06     Normal
04/28/2005 13:18   5196338:0         Wgl06     Normal
04/28/2005 13:18   5196367:0         Wgl06     Normal
04/28/2005 13:18   5196357:0         Wgl06     Normal
04/28/2005 13:19   5196392:0         Wgl06     Normal
04/28/2005 13:19   5196402:0         Wgl06     Normal
04/28/2005 13:24   5196435:0         Wgl06     Normal
04/28/2005 13:24   5196424:0         Wgl06     Normal
04/28/2005 13:24   5196443:0         Wgl06     Normal
04/28/2005 13:24   5196439:0         Wgl06     Normal
04/28/2005 13:24   5196447:0         Wgl06     Normal
04/28/2005 13:24   5196417:0         Wgl06     Normal
04/28/2005 13:24   5196422:0         Wgl06     Normal
04/28/2005 13:24   5196425:0         Wgl06     Normal
04/28/2005 13:24   5196432:0         Wgl06     Normal
04/28/2005 13:25   5196453:0         Wgl06     Normal
04/28/2005 13:28   5196446:0         Wgl06     Normal
04/28/2005 13:28   5196445:0         Wgl06     Normal
04/28/2005 13:28   5196450:0         Wgl06     Normal
04/28/2005 13:28   5196459:0         Wgl06     Normal
04/28/2005 13:28   5196414:0         Wgl06     Normal
04/28/2005 13:28   5196449:0         Wgl06     Normal
04/28/2005 13:29   5196457:0         Wgl06     Normal
04/28/2005 13:29   5196456:0         Wgl06     Emergency
04/28/2005 13:29   5196471:0         Wgl06     Normal
04/28/2005 13:29   5196475:0         Wgl06     Normal
04/28/2005 13:30   5196481:0         Wgl06     Normal
04/28/2005 13:32   5196490:0         Wgl06     Normal
04/28/2005 13:32   5196488:0         Wgl06     Normal
04/28/2005 13:32   5196504:0         Wgl06     Normal
04/28/2005 13:34   5196503:0         Wgl06     Normal
04/28/2005 13:35   5196501:0         Wgl06     Normal
04/28/2005 13:35   5196510:0         Wgl06     Normal
04/28/2005 13:36   5196516:0         Wgl06     Normal
04/28/2005 13:37   5196507:0         Wgl06     Emergency
04/28/2005 13:37   5196513:0         Wgl06     Normal
04/28/2005 13:38   5196514:0         Wgl06     Normal
04/28/2005 13:38   5196508:0         Wgl06     Normal
04/28/2005 13:39   5196525:0         Wgl06     Normal
04/28/2005 13:41   5196523:0         Wgl06     Emergency
04/28/2005 13:42   5196529:0         Wgl06     Normal
04/28/2005 13:42   5196533:0         Wgl06     Normal
04/28/2005 13:43   5196532:0         Wgl06     Normal
04/28/2005 13:44   5196539:0         Wgl06     Normal
04/28/2005 13:44   5196535:0         Wgl06     Normal
04/28/2005 13:46   5196543:0         Wgl06     Normal
04/28/2005 13:47   5196335:0         Wgl06     Emergency
04/28/2005 13:47   5196547:0         Wgl06     Normal
04/28/2005 13:48   5196544:0         Wgl06     Normal
04/28/2005 13:49   5196551:0         Wgl06     Normal
04/28/2005 13:49   5196518:0         Wgl06     Normal
04/28/2005 13:49   5196540:0         Wgl06     Normal
04/28/2005 13:50   5196552:0         Wgl06     Normal
04/28/2005 13:51   5196531:0         Wgl06     Normal
04/28/2005 13:51   5196542:0         Wgl06     Normal
04/28/2005 13:54   5196555:0         Wgl06     Normal
04/28/2005 13:56   5196521:0         Wgl06     Normal
04/28/2005 13:56   5196559:0         Wgl06     Normal
04/28/2005 13:57   5196564:0         Wgl06     Normal
04/28/2005 13:57   5196565:0         Wgl06     Normal
04/28/2005 13:58   5196436:0         Wgl06     Normal
04/28/2005 13:59   5196463:0         Wgl06     Normal
04/28/2005 14:00   5196469:0         Wgl06     Normal
04/28/2005 14:00   5196483:0         Wgl06     Normal
04/28/2005 14:01   5196574:0         Wgl06     Normal
04/28/2005 14:01   5196581:0         Wgl06     Normal
04/28/2005 14:03   5196588:0         Wgl06     Normal
04/28/2005 14:03   5196246:0         Wgl06     Normal
04/28/2005 14:03   5196591:0         Wgl06     Normal
04/28/2005 14:03   5196590:0         Wgl06     Normal
04/28/2005 14:05   5196595:0         Wgl06     Normal
04/28/2005 14:07   5196609:0         Wgl06     Normal
04/28/2005 14:07   5196603:0         Wgl06     Normal
04/28/2005 14:09   5196585:0         Wgl06     Normal
04/28/2005 14:09   5196601:0         Wgl06     Emergency
04/28/2005 14:10   5196631:0         Wgl06     Normal
04/28/2005 14:13   5196582:0         Wgl06     Normal
04/28/2005 14:13   5196618:0         Wgl06     Normal
04/28/2005 14:13   5196639:0         Wgl06     Normal
04/28/2005 14:13   5196653:0         Wgl06     Normal
04/28/2005 14:13   5196589:0         Wgl06     Normal
04/28/2005 14:16   5196655:0         Wgl06     Normal
04/28/2005 14:16   5196617:0         Wgl06     Normal
04/28/2005 14:16   5196640:0         Wgl06     Normal
04/28/2005 14:19   5196665:0         Wgl06     Normal
04/28/2005 14:19   5196667:0         Wgl06     Normal
04/28/2005 14:21   5196612:0         Wgl06     Emergency
04/28/2005 14:21   5196673:0         Wgl06     Normal
04/28/2005 14:23   5196670:0         Wgl06     Normal
04/28/2005 14:27   5196642:0         Wgl06     Normal
04/28/2005 14:28   5196656:0         Wgl06     Normal
04/28/2005 14:28   5196681:0         Wgl06     Normal
04/28/2005 14:28   5196688:0         Wgl06     Normal
04/28/2005 14:28   5196685:0         Wgl06     Normal
04/28/2005 14:30   5196695:0         Wgl06     Normal
04/28/2005 14:30   5196692:0         Wgl06     Normal
04/28/2005 14:31   5196699:0         Wgl06     Normal
04/28/2005 14:32   5196696:0         Wgl06     Normal
04/28/2005 14:32   5196594:0         Wgl06     Normal
04/28/2005 14:33   5196700:0         Wgl06     Normal
04/28/2005 14:33   5196697:0         Wgl06     Normal
04/28/2005 14:34   5196708:0         Wgl06     Normal
04/28/2005 14:34   5196687:0         Wgl06     Normal
04/28/2005 14:34   5196715:0         Wgl06     Normal
04/28/2005 14:35   5196710:0         Wgl06     Normal
04/28/2005 14:35   5196717:0         Wgl06     Normal
04/28/2005 14:35   5196718:0         Wgl06     Normal
04/28/2005 14:36   5196712:0         Wgl06     Normal
04/28/2005 14:36   5196709:0         Wgl06     Normal
04/28/2005 14:36   5196734:0         Wgl06     Normal
04/28/2005 14:36   5196738:0         Wgl06     Normal
04/28/2005 14:37   5196687:1         Wgl06     Update
04/28/2005 14:37   5196722:0         Wgl06     Emergency
04/28/2005 14:37   5196724:0         Wgl06     Normal
04/28/2005 14:38   5189331:2         Wgl06     Emergency
04/28/2005 14:39   5196740:0         Wgl06     Normal
04/28/2005 14:39   5196725:0         Wgl06     Normal
04/28/2005 14:42   5196763:0         Wgl06     Normal
04/28/2005 14:44   5196770:0         Wgl06     Normal
04/28/2005 14:46   5196772:0         Wgl06     Emergency
04/28/2005 14:49   5196787:0         Wgl06     Short
04/28/2005 14:56   5196812:0         Wgl06     Normal
04/28/2005 14:56   5196815:0         Wgl06     Normal
04/28/2005 14:57   5196819:0         Wgl06     Normal
04/28/2005 15:00   5196814:0         Wgl06     Normal
04/28/2005 15:01   5196830:0         Wgl06     Normal
04/28/2005 15:01   5196831:0         Wgl06     Normal
04/28/2005 15:01   5196824:0         Wgl06     Normal
04/28/2005 15:01   5196833:0         Wgl06     Normal
04/28/2005 15:01   5196817:0         Wgl06     Normal
04/28/2005 15:02   5196832:0         Wgl06     Normal
04/28/2005 15:02   5196834:0         Wgl06     Normal
04/28/2005 15:04   5196835:0         Wgl06     Normal
04/28/2005 15:06   5196845:0         Wgl06     Normal
04/28/2005 15:07   5196837:0         Wgl06     Normal
04/28/2005 15:07   5196851:0         Wgl06     Normal
04/28/2005 15:08   5196843:0         Wgl06     Normal
04/28/2005 15:08   5196839:0         Wgl06     Normal
04/28/2005 15:09   5196860:0         Wgl06     Normal
04/28/2005 15:10   5196861:0         Wgl06     Normal
04/28/2005 15:10   5196855:0         Wgl06     Normal
04/28/2005 15:10   5196862:0         Wgl06     Normal
04/28/2005 15:10   5196864:0         Wgl06     Normal
04/28/2005 15:10   5196866:0         Wgl06     Normal
04/28/2005 15:10   5196867:0         Wgl06     Normal
04/28/2005 15:12   5196871:0         Wgl06     Normal
04/28/2005 15:12   5196872:0         Wgl06     Normal
04/28/2005 15:12   5196874:0         Wgl06     Normal
04/28/2005 15:12   5196848:0         Wgl06     Normal
04/28/2005 15:12   5196875:0         Wgl06     Normal
04/28/2005 15:12   5196877:0         Wgl06     Normal
04/28/2005 15:12   5196879:0         Wgl06     Normal
04/28/2005 15:14   5196857:0         Wgl06     Normal
04/28/2005 15:16   5196886:0         Wgl06     Normal
04/28/2005 15:17   5196888:0         Wgl06     Normal
04/28/2005 15:18   5196892:0         Wgl06     Normal
04/28/2005 15:21   5196891:0         Wgl06     Normal
04/28/2005 15:45   5196897:0         Wgl06     Normal
04/28/2005 15:45   5196767:0         Wgl06     Normal
04/28/2005 15:46   5196901:0         Wgl06     Normal
04/28/2005 15:47   5196900:0         Wgl06     Normal
04/28/2005 15:47   5196905:0         Wgl06     Normal
04/28/2005 15:47   5196881:0         Wgl06     Normal
04/28/2005 15:48   5196911:0         Wgl06     Normal
04/28/2005 15:49   5196913:0         Wgl06     Normal
04/28/2005 15:49   5196906:0         Wgl06     Normal
04/28/2005 15:50   5196914:0         Wgl06     Normal
04/28/2005 15:51   5196923:0         Wgl06     Normal
04/28/2005 15:51   5196915:0         Wgl06     Normal
04/28/2005 15:51   5196925:0         Wgl06     Normal
04/28/2005 15:56   5196926:0         Wgl06     Normal
04/28/2005 15:56   5196904:0         Wgl06     Normal
04/28/2005 15:56   5196920:0         Wgl06     Normal
04/28/2005 15:57   5196933:0         Wgl06     Normal
04/28/2005 15:57   5196930:0         Wgl06     Normal
04/28/2005 15:57   5196849:0         Wgl06     Short
04/28/2005 15:57   5196883:0         Wgl06     Normal
04/28/2005 15:57   5196890:0         Wgl06     Normal
04/28/2005 15:57   5196936:0         Wgl06     Normal
04/28/2005 15:57   5196910:0         Wgl06     Normal
04/28/2005 15:57   5196941:0         Wgl06     Normal
04/28/2005 15:57   5196949:0         Wgl06     Normal
04/28/2005 15:57   5196952:0         Wgl06     Normal
04/28/2005 15:57   5196980:0         Wgl06     Normal
04/28/2005 15:57   5196981:0         Wgl06     Normal
04/28/2005 15:57   5196953:0         Wgl06     Normal
04/28/2005 15:58   5174416:2         Wgl06     
04/28/2005 16:00   5186656:2         Wgl06     
04/28/2005 16:01   5196950:0         Wgl06     Normal
04/28/2005 16:01   5196954:0         Wgl06     Normal
04/28/2005 16:01   5196958:0         Wgl06     Normal
04/28/2005 16:01   5196983:0         Wgl06     Normal
04/28/2005 16:02   5196987:0         Wgl06     Normal
04/28/2005 16:02   5196961:0         Wgl06     Normal
04/28/2005 16:02   5196962:0         Wgl06     Normal
04/28/2005 16:02   5196965:0         Wgl06     Normal
04/28/2005 16:02   5196963:0         Wgl06     Normal
04/28/2005 16:02   5196992:0         Wgl06     Normal
04/28/2005 16:02   5196994:0         Wgl06     Normal
04/28/2005 16:02   5196999:0         Wgl06     Normal
04/28/2005 16:04   5196972:0         Wgl06     Normal
04/28/2005 16:04   5196944:0         Wgl06     Normal
04/28/2005 16:04   5174498:1         Wgl06     
04/28/2005 16:04   5196955:0         Wgl06     Normal
04/28/2005 16:04   5175206:1         Wgl06     
04/28/2005 16:04   5196968:0         Wgl06     Normal
04/28/2005 16:05   5197006:0         Wgl06     Normal
04/28/2005 16:05   5196990:0         Wgl06     Normal
04/28/2005 16:05   5196986:0         Wgl06     Normal
04/28/2005 16:05   5197011:0         Wgl06     Normal
04/28/2005 16:06   5196937:0         Wgl06     Normal
04/28/2005 16:06   5196940:0         Wgl06     Normal
04/28/2005 16:07   5196945:0         Wgl06     Normal
04/28/2005 16:07   5196919:0         Wgl06     Normal
04/28/2005 16:08   5197023:0         Wgl06     Normal
04/28/2005 16:08   5197025:0         Wgl06     Normal
04/28/2005 16:08   5197026:0         Wgl06     Normal
04/28/2005 16:08   5197029:0         Wgl06     Normal
04/28/2005 16:09   5197031:0         Wgl06     Normal
04/28/2005 16:09   5197032:0         Wgl06     Normal
04/28/2005 16:09   5197036:0         Wgl06     Normal
04/28/2005 16:09   5197015:0         Wgl06     Normal
04/28/2005 16:10   5197038:0         Wgl06     Normal
04/28/2005 16:10   5197039:0         Wgl06     Normal
04/28/2005 16:10   5197020:0         Wgl06     Normal
04/28/2005 16:10   5197027:0         Wgl06     Normal
04/28/2005 16:10   5197041:0         Wgl06     Normal
04/28/2005 16:10   5197042:0         Wgl06     Normal
04/28/2005 16:10   5197045:0         Wgl06     Normal
04/28/2005 16:10   5197012:0         Wgl06     Normal
04/28/2005 16:10   5197049:0         Wgl06     Normal
04/28/2005 16:10   5197047:0         Wgl06     Normal
04/28/2005 16:10   5197048:0         Wgl06     Normal
04/28/2005 16:10   5197053:0         Wgl06     Normal
04/28/2005 16:10   5197050:0         Wgl06     Normal
04/28/2005 16:11   5196982:0         Wgl06     Normal
04/28/2005 16:11   5196988:0         Wgl06     Normal
04/28/2005 16:11   5197059:0         Wgl06     Normal
04/28/2005 16:11   5197043:0         Wgl06     Normal
04/28/2005 16:12   5197018:0         Wgl06     Normal
04/28/2005 16:12   5197054:0         Wgl06     Normal
04/28/2005 16:12   5197062:0         Wgl06     Normal
04/28/2005 16:13   5197058:0         Wgl06     Normal
04/28/2005 16:14   5197064:0         Wgl06     Normal
04/28/2005 16:15   5197073:0         Wgl06     Normal
04/28/2005 16:15   5197082:0         Wgl06     Normal
04/28/2005 16:15   5197084:0         Wgl06     Normal
04/28/2005 16:16   5197088:0         Wgl06     Emergency
04/28/2005 16:17   5196991:0         Wgl06     Normal
04/28/2005 16:17   5196995:0         Wgl06     Normal
04/28/2005 16:17   5196998:0         Wgl06     Normal
04/28/2005 16:17   5197001:0         Wgl06     Normal
04/28/2005 16:17   5197096:0         Wgl06     Normal
04/28/2005 16:17   5197004:0         Wgl06     Normal
04/28/2005 16:17   5197005:0         Wgl06     Normal
04/28/2005 16:17   5197098:0         Wgl06     Normal
04/28/2005 16:17   5197009:0         Wgl06     Normal
04/28/2005 16:18   5197101:0         Wgl06     Normal
04/28/2005 16:18   5197104:0         Wgl06     Normal
04/28/2005 16:19   5197106:0         Wgl06     Normal
04/28/2005 16:20   5197108:0         Wgl06     Normal
04/28/2005 16:21   5197109:0         Wgl06     Normal
04/28/2005 16:22   5197111:0         Wgl06     Normal
04/28/2005 16:22   5197112:0         Wgl06     Normal
04/28/2005 16:23   5197114:0         Wgl06     Normal
04/28/2005 16:26   5197118:0         Wgl06     Normal
04/28/2005 16:28   5197122:0         Wgl06     Normal
04/28/2005 16:32   5188772:1         Wgl06     
04/28/2005 16:32   5188774:1         Wgl06     
04/28/2005 16:32   5188776:1         Wgl06     
04/28/2005 16:32   5188778:1         Wgl06     
04/28/2005 16:32   5188780:1         Wgl06     
04/28/2005 16:32   5188779:1         Wgl06     
04/28/2005 16:33   5197013:0         Wgl06     Normal
04/28/2005 16:33   5188787:1         Wgl06     
04/28/2005 16:33   5188796:1         Wgl06     
04/28/2005 16:33   5188799:1         Wgl06     
04/28/2005 16:33   5188801:1         Wgl06     
04/28/2005 16:33   5188804:1         Wgl06     
04/28/2005 16:33   5188808:1         Wgl06     
04/28/2005 16:33   5188807:1         Wgl06     
04/28/2005 16:33   5188812:1         Wgl06     
04/28/2005 16:34   5188813:1         Wgl06     
04/28/2005 16:34   5188820:1         Wgl06     
04/28/2005 16:34   5188829:1         Wgl06     
04/28/2005 16:34   5197142:0         Wgl06     Normal
04/28/2005 16:34   5188810:1         Wgl06     
04/28/2005 16:44   5188847:1         Wgl06     
04/28/2005 16:44   5197144:0         Wgl06     Normal
04/28/2005 16:45   5188873:1         Wgl06     
04/28/2005 16:45   5188874:1         Wgl06     
04/28/2005 16:45   5197139:0         Wgl06     Normal
04/28/2005 16:45   5192560:1         Wgl06     
04/28/2005 16:45   5191165:2         Wgl06     
04/28/2005 16:45   5192598:1         Wgl06     
04/28/2005 16:45   5176103:1         Wgl06     
04/28/2005 16:45   5176346:1         Wgl06     
04/28/2005 16:45   5189797:1         Wgl06     
04/28/2005 16:45   5189801:1         Wgl06     
04/28/2005 16:45   5189419:1         Wgl06     
04/28/2005 16:45   5189448:1         Wgl06     
04/28/2005 16:45   5189447:1         Wgl06     
04/28/2005 16:45   5189450:1         Wgl06     
04/28/2005 16:45   5189452:1         Wgl06     
04/28/2005 16:45   5189459:1         Wgl06     
04/28/2005 16:45   5189462:1         Wgl06     
04/28/2005 16:45   5188751:1         Wgl06     
04/28/2005 16:45   5188753:1         Wgl06     
04/28/2005 16:45   5188757:1         Wgl06     
04/28/2005 16:45   5188759:1         Wgl06     
04/28/2005 16:45   5188764:1         Wgl06     
04/28/2005 16:45   5188762:1         Wgl06     
04/28/2005 16:45   5197124:0         Wgl06     Normal
04/28/2005 16:46   5188766:1         Wgl06     
04/28/2005 16:46   5188860:1         Wgl06     
04/28/2005 16:46   5188867:1         Wgl06     
04/28/2005 16:46   5189483:1         Wgl06     
04/28/2005 16:46   5189481:1         Wgl06     
04/28/2005 16:46   5189486:1         Wgl06     
04/28/2005 16:46   5189489:1         Wgl06     
04/28/2005 16:46   5189471:1         Wgl06     
04/28/2005 16:46   5189492:1         Wgl06     
04/28/2005 16:46   5189495:1         Wgl06     
04/28/2005 16:46   5189177:1         Wgl06     
04/28/2005 16:46   5189181:1         Wgl06     
04/28/2005 16:46   5189184:1         Wgl06     
04/28/2005 16:46   5189185:1         Wgl06     
04/28/2005 16:46   5189186:1         Wgl06     
04/28/2005 16:46   5189499:1         Wgl06     
04/28/2005 16:46   5189162:1         Wgl06     
04/28/2005 16:46   5189167:1         Wgl06     
04/28/2005 16:46   5189500:1         Wgl06     
04/28/2005 16:46   5189516:1         Wgl06     
04/28/2005 16:46   5189533:1         Wgl06     
04/28/2005 16:46   5189538:1         Wgl06     
04/28/2005 16:46   5188604:1         Wgl06     
04/28/2005 16:46   5189189:1         Wgl06     
04/28/2005 16:46   5189193:1         Wgl06     
04/28/2005 16:46   5189552:1         Wgl06     
04/28/2005 16:46   5189553:1         Wgl06     
04/28/2005 16:47   5197169:0         Wgl06     Normal
04/28/2005 16:47   5189199:1         Wgl06     
04/28/2005 16:47   5189197:1         Wgl06     
04/28/2005 16:47   5189201:1         Wgl06     
04/28/2005 16:47   5189200:1         Wgl06     
04/28/2005 16:47   5189203:1         Wgl06     
04/28/2005 16:47   5189208:1         Wgl06     
04/28/2005 16:47   5189211:1         Wgl06     
04/28/2005 16:47   5189212:1         Wgl06     
04/28/2005 16:47   5189214:1         Wgl06     
04/28/2005 16:47   5189569:1         Wgl06     
04/28/2005 16:47   5189574:1         Wgl06     
04/28/2005 16:47   5189220:1         Wgl06     
04/28/2005 16:47   5189221:1         Wgl06     
04/28/2005 16:47   5189563:1         Wgl06     
04/28/2005 16:47   5189224:1         Wgl06     
04/28/2005 16:47   5189231:1         Wgl06     
04/28/2005 16:47   5189232:1         Wgl06     
04/28/2005 16:47   5175214:1         Wgl06     
04/28/2005 16:47   5197014:0         Wgl06     Normal
04/28/2005 16:48   5175373:1         Wgl06     
04/28/2005 16:48   5197164:0         Wgl06     Normal
04/28/2005 16:48   5189233:1         Wgl06     
04/28/2005 16:48   5189242:1         Wgl06     
04/28/2005 16:48   5189239:1         Wgl06     
04/28/2005 16:48   5189244:1         Wgl06     
04/28/2005 16:48   5190151:1         Wgl06     
04/28/2005 16:48   5189258:1         Wgl06     
04/28/2005 16:48   5188883:1         Wgl06     
04/28/2005 16:48   5189261:1         Wgl06     
04/28/2005 16:48   5189265:1         Wgl06     
04/28/2005 16:48   5188886:1         Wgl06     
04/28/2005 16:48   5190148:1         Wgl06     
04/28/2005 16:48   5188887:1         Wgl06     
04/28/2005 16:48   5190159:1         Wgl06     
04/28/2005 16:48   5188889:1         Wgl06     
04/28/2005 16:48   5188895:1         Wgl06     
04/28/2005 16:48   5188898:1         Wgl06     
04/28/2005 16:48   5188899:1         Wgl06     
04/28/2005 16:48   5188911:1         Wgl06     
04/28/2005 16:48   5188912:1         Wgl06     
04/28/2005 16:48   5190170:1         Wgl06     
04/28/2005 16:48   5190175:1         Wgl06     
04/28/2005 16:48   5190183:1         Wgl06     
04/28/2005 16:48   5188918:1         Wgl06     
04/28/2005 16:48   5189248:1         Wgl06     
04/28/2005 16:48   5189249:1         Wgl06     
04/28/2005 16:48   5189251:1         Wgl06     
04/28/2005 16:48   5189254:1         Wgl06     
04/28/2005 16:48   5190128:1         Wgl06     
04/28/2005 16:48   5190137:1         Wgl06     
04/28/2005 16:48   5189595:1         Wgl06     
04/28/2005 16:48   5188921:1         Wgl06     
04/28/2005 16:48   5189262:1         Wgl06     
04/28/2005 16:48   5189275:1         Wgl06     
04/28/2005 16:49   5189276:1         Wgl06     
04/28/2005 16:49   5189277:1         Wgl06     
04/28/2005 16:49   5189279:1         Wgl06     
04/28/2005 16:49   5189281:1         Wgl06     
04/28/2005 16:49   5189282:1         Wgl06     
04/28/2005 16:49   5189283:1         Wgl06     
04/28/2005 16:49   5189285:1         Wgl06     
04/28/2005 16:49   5189289:1         Wgl06     
04/28/2005 16:49   5190199:1         Wgl06     
04/28/2005 16:49   5190202:1         Wgl06     
04/28/2005 16:49   5188927:1         Wgl06     
04/28/2005 16:49   5188938:1         Wgl06     
04/28/2005 16:49   5190211:1         Wgl06     
04/28/2005 16:49   5190212:1         Wgl06     
04/28/2005 16:49   5190217:1         Wgl06     
04/28/2005 16:49   5189290:1         Wgl06     
04/28/2005 16:49   5190216:1         Wgl06     
04/28/2005 16:49   5189423:1         Wgl06     
04/28/2005 16:49   5189428:1         Wgl06     
04/28/2005 16:49   5190221:1         Wgl06     
04/28/2005 16:50   5189429:1         Wgl06     
04/28/2005 16:50   5189434:1         Wgl06     
04/28/2005 16:50   5189436:1         Wgl06     
04/28/2005 16:50   5189437:1         Wgl06     
04/28/2005 16:50   5189763:1         Wgl06     
04/28/2005 16:50   5189440:1         Wgl06     
04/28/2005 16:50   5189442:1         Wgl06     
04/28/2005 16:50   5189766:1         Wgl06     
04/28/2005 16:50   5189115:1         Wgl06     
04/28/2005 16:50   5189117:1         Wgl06     
04/28/2005 16:50   5188959:1         Wgl06     
04/28/2005 16:50   5189804:1         Wgl06     
04/28/2005 16:50   5189814:1         Wgl06     
04/28/2005 16:50   5188962:1         Wgl06     
04/28/2005 16:50   5188977:1         Wgl06     
04/28/2005 16:50   5189004:1         Wgl06     
04/28/2005 16:50   5189005:1         Wgl06     
04/28/2005 16:50   5189015:1         Wgl06     
04/28/2005 16:50   5189020:1         Wgl06     
04/28/2005 16:50   5189022:1         Wgl06     
04/28/2005 16:50   5189817:1         Wgl06     
04/28/2005 16:50   5189044:1         Wgl06     
04/28/2005 16:50   5189024:1         Wgl06     
04/28/2005 16:50   5189053:1         Wgl06     
04/28/2005 16:50   5189854:1         Wgl06     
04/28/2005 16:50   5189054:1         Wgl06     
04/28/2005 16:50   5189062:1         Wgl06     
04/28/2005 16:50   5189073:1         Wgl06     
04/28/2005 16:50   5189076:1         Wgl06     
04/28/2005 16:50   5189085:1         Wgl06     
04/28/2005 16:50   5189086:1         Wgl06     
04/28/2005 16:50   5189101:1         Wgl06     
04/28/2005 16:50   5189110:1         Wgl06     
04/28/2005 16:50   5189865:1         Wgl06     
04/28/2005 16:50   5189890:1         Wgl06     
04/28/2005 16:50   5189230:1         Wgl06     
04/28/2005 16:50   5189246:1         Wgl06     
04/28/2005 16:50   5189236:1         Wgl06     
04/28/2005 16:50   5197173:0         Wgl06     Normal
04/28/2005 16:50   5189219:1         Wgl06     
04/28/2005 16:51   5197148:0         Wgl06     Normal
04/28/2005 16:51   5197129:0         Wgl06     Normal
04/28/2005 16:51   5197152:0         Wgl06     Normal
04/28/2005 16:51   5189257:1         Wgl06     
04/28/2005 16:51   5197154:0         Wgl06     Normal
04/28/2005 16:51   5189121:1         Wgl06     
04/28/2005 16:51   5189872:1         Wgl06     
04/28/2005 16:51   5189127:1         Wgl06     
04/28/2005 16:51   5189129:1         Wgl06     
04/28/2005 16:51   5189130:1         Wgl06     
04/28/2005 16:51   5189888:1         Wgl06     
04/28/2005 16:51   5189897:1         Wgl06     
04/28/2005 16:51   5189900:1         Wgl06     
04/28/2005 16:51   5189910:1         Wgl06     
04/28/2005 16:51   5189141:1         Wgl06     
04/28/2005 16:51   5189095:1         Wgl06     
04/28/2005 16:52   5189120:1         Wgl06     
04/28/2005 16:52   5189143:1         Wgl06     
04/28/2005 16:52   5189146:1         Wgl06     
04/28/2005 16:52   5189157:1         Wgl06     
04/28/2005 16:52   5176348:1         Wgl06     
04/28/2005 16:52   5177204:1         Wgl06     
04/28/2005 16:52   5177466:1         Wgl06     
04/28/2005 16:52   5197155:0         Wgl06     Normal
04/28/2005 16:52   5175557:1         Wgl06     
04/28/2005 16:52   5175939:1         Wgl06     
04/28/2005 16:52   5197180:0         Wgl06     Short
04/28/2005 16:52   5189426:1         Wgl06     
04/28/2005 16:52   5197133:0         Wgl06     Normal
04/28/2005 16:53   5189146:2         Wgl06     
04/28/2005 16:53   5189157:2         Wgl06     
04/28/2005 16:53   5189095:2         Wgl06     
04/28/2005 16:53   5189120:2         Wgl06     
04/28/2005 16:53   5189165:1         Wgl06     
04/28/2005 16:53   5189156:1         Wgl06     
04/28/2005 16:53   5189169:1         Wgl06     
04/28/2005 16:53   5189171:1         Wgl06     
04/28/2005 16:54   5189174:1         Wgl06     
04/28/2005 16:54   5189175:1         Wgl06     
04/28/2005 16:54   5189912:1         Wgl06     
04/28/2005 16:54   5189925:1         Wgl06     
04/28/2005 16:54   5189605:1         Wgl06     
04/28/2005 16:54   5189143:2         Wgl06     
04/28/2005 16:54   5189160:1         Wgl06     
04/28/2005 16:54   5189163:1         Wgl06     
04/28/2005 16:54   5189613:1         Wgl06     
04/28/2005 16:54   5189616:1         Wgl06     
04/28/2005 16:54   5189619:1         Wgl06     
04/28/2005 16:54   5189630:1         Wgl06     
04/28/2005 16:54   5189940:1         Wgl06     
04/28/2005 16:54   5189941:1         Wgl06     
04/28/2005 16:54   5189631:1         Wgl06     
04/28/2005 16:54   5189633:1         Wgl06     
04/28/2005 16:54   5189635:1         Wgl06     
04/28/2005 16:54   5189955:1         Wgl06     
04/28/2005 16:54   5189958:1         Wgl06     
04/28/2005 16:54   5189965:1         Wgl06     
04/28/2005 16:54   5190225:1         Wgl06     
04/28/2005 16:54   5190226:1         Wgl06     
04/28/2005 16:54   5190228:1         Wgl06     
04/28/2005 16:54   5189633:2         Wgl06     
04/28/2005 16:54   5189631:2         Wgl06     
04/28/2005 16:54   5189635:2         Wgl06     
04/28/2005 16:54   5190234:1         Wgl06     
04/28/2005 16:54   5190236:1         Wgl06     
04/28/2005 16:54   5190237:1         Wgl06     
04/28/2005 16:54   5189290:2         Wgl06     
04/28/2005 16:54   5189654:1         Wgl06     
04/28/2005 16:54   5189666:1         Wgl06     
04/28/2005 16:54   5190243:1         Wgl06     
04/28/2005 16:54   5190244:1         Wgl06     
04/28/2005 16:54   5189607:1         Wgl06     
04/28/2005 16:54   5189604:1         Wgl06     
04/28/2005 16:55   5190248:1         Wgl06     
04/28/2005 16:55   5190250:1         Wgl06     
04/28/2005 16:55   5189673:1         Wgl06     
04/28/2005 16:55   5189682:1         Wgl06     
04/28/2005 16:55   5189686:1         Wgl06     
04/28/2005 16:55   5189687:1         Wgl06     
04/28/2005 16:55   5190260:1         Wgl06     
04/28/2005 16:55   5190453:1         Wgl06     
04/28/2005 16:55   5190471:1         Wgl06     
04/28/2005 16:55   5189689:1         Wgl06     
04/28/2005 16:55   5189693:1         Wgl06     
04/28/2005 16:55   5189699:1         Wgl06     
04/28/2005 16:55   5189700:1         Wgl06     
04/28/2005 16:55   5190485:1         Wgl06     
04/28/2005 16:55   5190497:1         Wgl06     
04/28/2005 16:55   5190499:1         Wgl06     
04/28/2005 16:55   5189704:1         Wgl06     
04/28/2005 16:55   5189711:1         Wgl06     
04/28/2005 16:55   5189717:1         Wgl06     
04/28/2005 16:56   5189724:1         Wgl06     
04/28/2005 16:56   5189726:1         Wgl06     
04/28/2005 16:56   5190266:1         Wgl06     
04/28/2005 16:56   5189729:1         Wgl06     
04/28/2005 16:56   5189734:1         Wgl06     
04/28/2005 16:56   5190275:1         Wgl06     
04/28/2005 16:56   5189750:1         Wgl06     
04/28/2005 16:56   5189770:1         Wgl06     
04/28/2005 16:56   5190529:1         Wgl06     
04/28/2005 16:56   5190559:2         Wgl06     
04/28/2005 16:56   5189761:1         Wgl06     
04/28/2005 16:56   5189773:1         Wgl06     
04/28/2005 16:56   5189781:1         Wgl06     
04/28/2005 16:56   5189782:1         Wgl06     
04/28/2005 16:56   5189783:1         Wgl06     
04/28/2005 16:56   5190577:1         Wgl06     
04/28/2005 16:56   5190286:1         Wgl06     
04/28/2005 16:56   5190595:1         Wgl06     
04/28/2005 16:57   5190323:1         Wgl06     
04/28/2005 16:57   5190579:1         Wgl06     
04/28/2005 16:57   5190580:1         Wgl06     
04/28/2005 16:57   5190592:1         Wgl06     
04/28/2005 16:57   5190600:1         Wgl06     
04/28/2005 16:57   5190607:1         Wgl06     
04/28/2005 16:57   5197142:1         Wgl06     Update
04/28/2005 16:57   5190343:1         Wgl06     
04/28/2005 16:57   5190584:1         Wgl06     
04/28/2005 16:57   5190370:1         Wgl06     
04/28/2005 16:57   5190376:1         Wgl06     
04/28/2005 16:57   5190377:1         Wgl06     
04/28/2005 16:57   5190386:1         Wgl06     
04/28/2005 16:57   5190387:1         Wgl06     
04/28/2005 16:57   5190393:1         Wgl06     
04/28/2005 16:57   5190633:1         Wgl06     
04/28/2005 16:57   5190637:1         Wgl06     
04/28/2005 16:57   5190396:1         Wgl06     
04/28/2005 16:57   5190397:1         Wgl06     
04/28/2005 16:57   5190381:2         Wgl06     
04/28/2005 16:57   5190401:1         Wgl06     
04/28/2005 16:57   5197144:1         Wgl06     Update
04/28/2005 16:57   5190407:1         Wgl06     
04/28/2005 16:57   5190408:1         Wgl06     
04/28/2005 16:57   5190404:1         Wgl06     
04/28/2005 16:57   5190410:1         Wgl06     
04/28/2005 16:57   5190412:1         Wgl06     
04/28/2005 16:57   5190414:1         Wgl06     
04/28/2005 16:57   5190415:1         Wgl06     
04/28/2005 16:57   5190681:1         Wgl06     
04/28/2005 16:57   5190411:1         Wgl06     
04/28/2005 16:57   5190418:1         Wgl06     
04/28/2005 16:57   5188699:1         Wgl06     
04/28/2005 16:57   5188691:1         Wgl06     
04/28/2005 16:57   5188589:1         Wgl06     
04/28/2005 16:57   5188592:1         Wgl06     
04/28/2005 16:57   5190276:1         Wgl06     
04/28/2005 16:57   5190288:1         Wgl06     
04/28/2005 16:57   5190405:1         Wgl06     
04/28/2005 16:57   5190419:1         Wgl06     
04/28/2005 16:57   5190423:1         Wgl06     
04/28/2005 16:57   5190425:1         Wgl06     
04/28/2005 16:57   5190428:1         Wgl06     
04/28/2005 16:57   5188594:1         Wgl06     
04/28/2005 16:57   5188597:1         Wgl06     
04/28/2005 16:57   5188600:1         Wgl06     
04/28/2005 16:57   5188602:1         Wgl06     
04/28/2005 16:57   5188603:1         Wgl06     
04/28/2005 16:57   5188605:1         Wgl06     
04/28/2005 16:57   5190296:1         Wgl06     
04/28/2005 16:57   5190429:1         Wgl06     
04/28/2005 16:57   5190430:1         Wgl06     
04/28/2005 16:57   5190958:1         Wgl06     
04/28/2005 16:57   5190965:1         Wgl06     
04/28/2005 16:57   5188613:1         Wgl06     
04/28/2005 16:58   5188619:1         Wgl06     
04/28/2005 16:58   5188621:1         Wgl06     
04/28/2005 16:58   5188624:1         Wgl06     
04/28/2005 16:58   5188625:1         Wgl06     
04/28/2005 16:58   5188630:1         Wgl06     
04/28/2005 16:58   5188634:1         Wgl06     
04/28/2005 16:58   5188635:1         Wgl06     
04/28/2005 16:58   5190431:1         Wgl06     
04/28/2005 16:58   5190435:1         Wgl06     
04/28/2005 16:58   5190443:1         Wgl06     
04/28/2005 16:58   5190961:1         Wgl06     
04/28/2005 16:58   5190967:1         Wgl06     
04/28/2005 16:58   5190970:1         Wgl06     
04/28/2005 16:58   5190975:1         Wgl06     
04/28/2005 16:58   5188667:1         Wgl06     
04/28/2005 16:58   5188678:1         Wgl06     
04/28/2005 16:58   5191217:1         Wgl06     
04/28/2005 16:58   5191219:1         Wgl06     
04/28/2005 16:58   5188690:1         Wgl06     
04/28/2005 16:58   5190973:1         Wgl06     
04/28/2005 16:58   5191235:1         Wgl06     
04/28/2005 16:58   5191244:1         Wgl06     
04/28/2005 16:58   5191246:1         Wgl06     
04/28/2005 16:58   5188632:1         Wgl06     
04/28/2005 16:59   5191253:1         Wgl06     
04/28/2005 16:59   5191258:1         Wgl06     
04/28/2005 16:59   5191279:1         Wgl06     
04/28/2005 16:59   5191281:1         Wgl06     
04/28/2005 16:59   5191283:1         Wgl06     
04/28/2005 16:59   5191291:1         Wgl06     
04/28/2005 16:59   5191292:1         Wgl06     
04/28/2005 16:59   5191294:1         Wgl06     
04/28/2005 16:59   5188698:1         Wgl06     
04/28/2005 16:59   5188700:1         Wgl06     
04/28/2005 16:59   5188701:1         Wgl06     
04/28/2005 16:59   5188702:1         Wgl06     
04/28/2005 16:59   5188705:1         Wgl06     
04/28/2005 16:59   5190980:1         Wgl06     
04/28/2005 16:59   5191301:1         Wgl06     
04/28/2005 16:59   5188707:1         Wgl06     
04/28/2005 16:59   5188708:1         Wgl06     
04/28/2005 16:59   5191305:1         Wgl06     
04/28/2005 16:59   5191306:1         Wgl06     
04/28/2005 16:59   5191312:1         Wgl06     
04/28/2005 16:59   5188713:1         Wgl06     
04/28/2005 16:59   5191039:1         Wgl06     
04/28/2005 16:59   5191044:1         Wgl06     
04/28/2005 16:59   5191051:1         Wgl06     
04/28/2005 16:59   5191064:1         Wgl06     
04/28/2005 16:59   5191317:1         Wgl06     
04/28/2005 16:59   5191069:1         Wgl06     
04/28/2005 17:00   5188718:1         Wgl06     
04/28/2005 17:00   5188724:1         Wgl06     
04/28/2005 17:00   5191327:1         Wgl06     
04/28/2005 17:00   5191331:1         Wgl06     
04/28/2005 17:00   5191333:1         Wgl06     
04/28/2005 17:00   5191337:1         Wgl06     
04/28/2005 17:01   5197213:0         Wgl06     Normal
04/28/2005 17:01   5188730:1         Wgl06     
04/28/2005 17:01   5188735:1         Wgl06     
04/28/2005 17:01   5188738:1         Wgl06     
04/28/2005 17:01   5188740:1         Wgl06     
04/28/2005 17:01   5188744:1         Wgl06     
04/28/2005 17:01   5188747:1         Wgl06     
04/28/2005 17:01   5188750:1         Wgl06     
04/28/2005 17:01   5191100:1         Wgl06     
04/28/2005 17:01   5191103:1         Wgl06     
04/28/2005 17:01   5191113:1         Wgl06     
04/28/2005 17:01   5191111:1         Wgl06     
04/28/2005 17:01   5191123:1         Wgl06     
04/28/2005 17:01   5191132:1         Wgl06     
04/28/2005 17:01   5191336:1         Wgl06     
04/28/2005 17:01   5191358:1         Wgl06     
04/28/2005 17:01   5189295:1         Wgl06     
04/28/2005 17:01   5189298:1         Wgl06     
04/28/2005 17:01   5189303:1         Wgl06     
04/28/2005 17:01   5189304:1         Wgl06     
04/28/2005 17:01   5191142:1         Wgl06     
04/28/2005 17:01   5191144:1         Wgl06     
04/28/2005 17:01   5191151:1         Wgl06     
04/28/2005 17:01   5191147:1         Wgl06     
04/28/2005 17:01   5191373:1         Wgl06     
04/28/2005 17:01   5189308:1         Wgl06     
04/28/2005 17:01   5189310:1         Wgl06     
04/28/2005 17:01   5189313:1         Wgl06     
04/28/2005 17:01   5189318:1         Wgl06     
04/28/2005 17:01   5191050:1         Wgl06     
04/28/2005 17:01   5191386:1         Wgl06     
04/28/2005 17:01   5191421:1         Wgl06     
04/28/2005 17:02   5191056:1         Wgl06     
04/28/2005 17:02   5191058:1         Wgl06     
04/28/2005 17:02   5191060:1         Wgl06     
04/28/2005 17:02   5189294:1         Wgl06     
04/28/2005 17:02   5191467:1         Wgl06     
04/28/2005 17:02   5189351:1         Wgl06     
04/28/2005 17:02   5191066:1         Wgl06     
04/28/2005 17:02   5191068:1         Wgl06     
04/28/2005 17:02   5191185:1         Wgl06     
04/28/2005 17:02   5191446:1         Wgl06     
04/28/2005 17:02   5191449:1         Wgl06     
04/28/2005 17:02   5191452:1         Wgl06     
04/28/2005 17:02   5191456:1         Wgl06     
04/28/2005 17:02   5191457:1         Wgl06     
04/28/2005 17:02   5191490:1         Wgl06     
04/28/2005 17:02   5191491:1         Wgl06     
04/28/2005 17:03   5189359:1         Wgl06     
04/28/2005 17:03   5191071:1         Wgl06     
04/28/2005 17:03   5191077:1         Wgl06     
04/28/2005 17:03   5191178:1         Wgl06     
04/28/2005 17:03   5189362:1         Wgl06     
04/28/2005 17:03   5177344:2         Wgl06     
04/28/2005 17:03   5191200:1         Wgl06     
04/28/2005 17:03   5191203:1         Wgl06     
04/28/2005 17:03   5191205:1         Wgl06     
04/28/2005 17:03   5191206:1         Wgl06     
04/28/2005 17:03   5197214:0         Wgl06     Normal
04/28/2005 17:03   5188792:1         Wgl06     
04/28/2005 17:03   5188844:1         Wgl06     
04/28/2005 17:03   5189368:1         Wgl06     
04/28/2005 17:03   5189370:1         Wgl06     
04/28/2005 17:03   5188922:1         Wgl06     
04/28/2005 17:03   5189375:1         Wgl06     
04/28/2005 17:03   5189377:1         Wgl06     
04/28/2005 17:03   5189379:1         Wgl06     
04/28/2005 17:03   5189380:1         Wgl06     
04/28/2005 17:03   5189381:1         Wgl06     
04/28/2005 17:03   5189382:1         Wgl06     
04/28/2005 17:03   5189383:1         Wgl06     
04/28/2005 17:03   5189384:1         Wgl06     
04/28/2005 17:03   5189385:1         Wgl06     
04/28/2005 17:03   5189386:1         Wgl06     
04/28/2005 17:03   5189388:1         Wgl06     
04/28/2005 17:03   5188937:1         Wgl06     
04/28/2005 17:03   5188945:1         Wgl06     
04/28/2005 17:03   5189330:1         Wgl06     
04/28/2005 17:04   5177554:1         Wgl06     
04/28/2005 17:04   5177714:1         Wgl06     
04/28/2005 17:04   5189389:1         Wgl06     
04/28/2005 17:04   5189394:1         Wgl06     
04/28/2005 17:04   5189395:1         Wgl06     
04/28/2005 17:04   5189396:1         Wgl06     
04/28/2005 17:04   5189399:1         Wgl06     
04/28/2005 17:04   5189297:1         Wgl06     
04/28/2005 17:04   5189392:1         Wgl06     
04/28/2005 17:05   5180338:1         Wgl06     
04/28/2005 17:05   5180450:1         Wgl06     
04/28/2005 17:05   5189403:1         Wgl06     
04/28/2005 17:05   5189405:1         Wgl06     
04/28/2005 17:05   5189408:1         Wgl06     
04/28/2005 17:05   5189390:1         Wgl06     
04/28/2005 17:05   5189391:1         Wgl06     
04/28/2005 17:05   5189412:1         Wgl06     
04/28/2005 17:05   5189411:1         Wgl06     
04/28/2005 17:05   5189413:1         Wgl06     
04/28/2005 17:05   5189414:1         Wgl06     
04/28/2005 17:05   5189416:1         Wgl06     
04/28/2005 17:05   5189417:1         Wgl06     
04/28/2005 17:05   5189418:1         Wgl06     
04/28/2005 17:05   5189738:1         Wgl06     
04/28/2005 17:05   5189422:1         Wgl06     
04/28/2005 17:05   5189876:1         Wgl06     
04/28/2005 17:06   5189982:1         Wgl06     
04/28/2005 17:06   5189972:1         Wgl06     
04/28/2005 17:06   5189988:1         Wgl06     
04/28/2005 17:06   5189973:1         Wgl06     
04/28/2005 17:06   5189989:1         Wgl06     
04/28/2005 17:06   5189993:1         Wgl06     
04/28/2005 17:06   5189996:1         Wgl06     
04/28/2005 17:06   5197216:0         Wgl06     Normal
04/28/2005 17:06   5189409:1         Wgl06     
04/28/2005 17:10   5197019:0         Wgl06     Normal
04/28/2005 17:12   5197087:0         Wgl06     Normal
04/28/2005 17:12   5197187:0         Wgl06     Normal
04/28/2005 17:13   5190010:1         Wgl06     
04/28/2005 17:13   5190025:1         Wgl06     
04/28/2005 17:13   5190045:1         Wgl06     
04/28/2005 17:13   5190047:1         Wgl06     
04/28/2005 17:17   5190054:1         Wgl06     
04/28/2005 17:17   5190056:1         Wgl06     
04/28/2005 17:17   5190058:1         Wgl06     
04/28/2005 17:17   5190059:1         Wgl06     
04/28/2005 17:17   5190060:2         Wgl06     
04/28/2005 17:17   5190065:1         Wgl06     
04/28/2005 17:17   5190061:1         Wgl06     
04/28/2005 17:17   5190066:2         Wgl06     
04/28/2005 17:17   5190071:1         Wgl06     
04/28/2005 17:17   5190079:1         Wgl06     
04/28/2005 17:17   5190073:1         Wgl06     
04/28/2005 17:17   5190083:1         Wgl06     
04/28/2005 17:17   5190088:1         Wgl06     
04/28/2005 17:17   5190093:1         Wgl06     
04/28/2005 17:17   5190096:1         Wgl06     
04/28/2005 17:17   5190102:1         Wgl06     
04/28/2005 17:17   5190114:1         Wgl06     
04/28/2005 17:17   5197205:0         Wgl06     Normal
04/28/2005 17:17   5197185:0         Wgl06     Normal
04/28/2005 17:17   5197177:0         Wgl06     Normal
04/28/2005 17:17   5197203:0         Wgl06     Normal
04/28/2005 17:17   5190684:1         Wgl06     
04/28/2005 17:18   5190687:1         Wgl06     
04/28/2005 17:18   5190691:1         Wgl06     
04/28/2005 17:18   5190692:1         Wgl06     
04/28/2005 17:18   5190694:1         Wgl06     
04/28/2005 17:18   5190697:1         Wgl06     
04/28/2005 17:18   5190701:1         Wgl06     
04/28/2005 17:18   5190737:1         Wgl06     
04/28/2005 17:18   5190752:1         Wgl06     
04/28/2005 17:18   5190792:1         Wgl06     
04/28/2005 17:19   5190795:1         Wgl06     
04/28/2005 17:19   5190798:1         Wgl06     
04/28/2005 17:19   5190801:1         Wgl06     
04/28/2005 17:19   5190808:1         Wgl06     
04/28/2005 17:19   5190804:1         Wgl06     
04/28/2005 17:19   5190809:1         Wgl06     
04/28/2005 17:19   5190806:1         Wgl06     
04/28/2005 17:19   5190813:1         Wgl06     
04/28/2005 17:19   5190815:1         Wgl06     
04/28/2005 17:19   5190816:1         Wgl06     
04/28/2005 17:19   5190817:1         Wgl06     
04/28/2005 17:19   5190825:1         Wgl06     
04/28/2005 17:22   5190836:1         Wgl06     
04/28/2005 17:22   5190850:1         Wgl06     
04/28/2005 17:22   5190856:1         Wgl06     
04/28/2005 17:22   5190857:1         Wgl06     
04/28/2005 17:22   5190861:1         Wgl06     
04/28/2005 17:22   5190864:1         Wgl06     
04/28/2005 17:22   5190865:1         Wgl06     
04/28/2005 17:22   5197198:0         Wgl06     Normal
04/28/2005 17:22   5197202:0         Wgl06     Normal
04/28/2005 17:22   5190893:1         Wgl06     
04/28/2005 17:23   5190898:1         Wgl06     
04/28/2005 17:23   5190903:1         Wgl06     
04/28/2005 17:23   5190911:1         Wgl06     
04/28/2005 17:23   5190899:1         Wgl06     
04/28/2005 17:23   5190935:1         Wgl06     
04/28/2005 17:23   5190946:1         Wgl06     
04/28/2005 17:40   5197221:0         Wgl06     Normal
04/28/2005 17:46   5197222:0         Wgl06     Normal
04/28/2005 17:51   5197223:0         Wgl06     Normal
04/28/2005 17:53   5197224:0         Wgl06     Normal
04/28/2005 17:56   5197225:0         Wgl06     Emergency
04/28/2005 17:56   5197226:0         Wgl06     Normal
04/28/2005 17:59   5197227:0         Wgl06     Normal
04/28/2005 18:00   5197228:0         Wgl06     Normal
04/28/2005 18:03   5197229:0         Wgl06     Normal
04/28/2005 19:45   5197243:0         Wgl06     Emergency
04/28/2005 22:00   5197271:0         Wgl06     Emergency
04/28/2005 23:25   5197275:0         Wgl06     Normal
04/28/2005 23:28   5197276:0         Wgl06     Normal
04/28/2005 23:30   5197277:0         Wgl06     Normal
04/28/2005 23:39   5197281:0         Wgl06     Normal
04/28/2005 23:46   5197284:0         Wgl06     Normal
04/28/2005 23:47   5197282:0         Wgl06     Normal
04/28/2005 23:51   5197285:0         Wgl06     Normal

Total Tickets Sent: 1504

