
BAJA *SUM* UTAHc 01/10/06 06:34:25

***************************************************************************
*   THIS IS YOUR END OF OF DAY SUMMARY FOR 01/09/06.  THERE WILL BE NO    *
*          MORE REQUESTS TAKEN TODAY.  IF QUESTIONS, PLEASE CALL.         *
***************************************************************************

00001 C60090015-00C 07:40   00002 C60090017-00C 07:41
00003 C60090033-00C 07:49   00004 C60090044-00C 07:59
00005 A60030355-01C 08:00 Y 00006 C60090075-00C 08:14
00007 C60090085-00C 08:20 R 00008 C60090087-00C 08:23 R
00009 C60090089-00C 08:25 R 00010 C60090091-00C 08:27 R
00011 C60090094-00C 08:29 R 00012 C60090099-00C 08:31 R
00013 C60090102-00C 08:33 R 00014 C60090105-00C 08:33 R
00015 C60090110-00C 08:35 R 00016 C60090013-00C 08:43
00017 C60090014-00C 08:43   00018 C60090012-00C 08:44
00019 C60090145-00C 09:13   00020 C60030365-01C 09:43 Y
00021 C60090206-00C 10:19   00022 C60090235-00C 10:48
00023 C60090244-00C 10:59   00024 C60090247-00C 11:02
00025 C60090250-00C 11:04   00026 C60090260-00C 11:13
00027 C60090261-00C 11:15   00028 C60090262-00C 11:15
00029 C60090263-00C 11:15   00030 C60090265-00C 11:16
00031 C60090268-00C 11:18   00032 C60090269-00C 11:18
00033 C60090270-00C 11:19   00034 C60090273-00C 11:20
00035 C60090274-00C 11:21   00036 C60030365-02C 11:39 Y
00037 C60090304-00C 12:29   00038 C60090317-00C 12:39
00039 C60090322-00C 12:42   00040 C60090327-00C 12:44
00041 C60090330-00C 12:44   00042 C60090351-00C 12:56 R
00043 C60090353-00C 12:58 R 00044 C60090356-00C 12:59
00045 C60090358-00C 13:01   00046 C60090375-00C 13:19
00047 C60090386-00C 13:42   00048 C60090390-00C 13:54
00049 C60090395-00C 13:54   00050 C60090398-00C 13:54
00051 C60090406-00C 13:54   00052 C60090414-00C 14:05
00053 C60090415-00C 14:07   00054 C60090416-00C 14:09
00055 C60090437-00C 14:48   00056 C60090506-00C 16:02
00057 C60090510-00C 16:17   00058 A60050371-01C 16:21 Y

(R) REVISED    - 00011
(C) CANCEL     - 00000
(S) RESENT     - 00000
(Y) RENOTIFY   - 00004
(U) UNGRIDDED  - 00000
( ) NORMAL     - 00043
    TOTAL      - 00058



BAJA *EOD* UTAHc 01/10/06 06:34:25

***************************************************************************
*   THIS IS YOUR END OF OF DAY SUMMARY FOR 01/09/06.  THERE WILL BE NO    *
*          MORE REQUESTS TAKEN TODAY.  IF QUESTIONS, PLEASE CALL.         *
***************************************************************************

00001 C60090304-00C 12:23   00002 C60090317-00C 12:39
00003 C60090322-00C 12:41   00004 C60090327-00C 12:43
00005 C60090330-00C 12:44   00006 C60090351-00C 12:56 R
00007 C60090353-00C 12:57 R 00008 C60090356-00C 12:58
00009 C60090358-00C 13:00   00010 C60090375-00C 13:18
00011 C60090386-00C 13:42   00012 C60090390-00C 13:48
00013 C60090395-00C 13:49   00014 C60090398-00C 13:50
00015 C60090406-00C 13:53   00016 C60090414-00C 14:05
00017 C60090415-00C 14:07   00018 C60090416-00C 14:08
00019 C60090437-00C 14:47   00020 C60090506-00C 16:01
00021 C60090510-00C 16:16   00022 A60050371-01C 16:20 Y

(R) REVISED    - 00002
(C) CANCEL     - 00000
(S) RESENT     - 00000
(Y) RENOTIFY   - 00001
(U) UNGRIDDED  - 00000
( ) NORMAL     - 00019
    TOTAL      - 00022


