
0
Date/Time :  3-27-04 at  0:19

Washington One Call
SUMM
DAILY AUDIT OF TICKETS SENT ON 03/26/04

Date/Time: 03/27/2004 12:15:00 AM
Receiving Terminal: TEST03

Seq #   Ticket #    Seq #   Ticket #    Seq #   Ticket #    Seq #   Ticket #    
----- ------------  ----- ------------  ----- ------------  ----- ------------  
   1  4078037-48HR |  23  4078223-48HR |  45  4078381-48HR |  67  4078551-48HR |
   2  4078045-48HR |  24  4078166-48HR |  46  4078383-48HR |  68  4078364-48HR |
   3  4078042-48HR |  25  4078169-48HR |  47  4078379-48HR |  69  4078387-48HR |
   4  4078044-48HR |  26  4078256-48HR |  48  4078391-48HR |  70  4078392-48HR |
   5  4078060-48HR |  27  4078255-48HR |  49  4078413-48HR |  71  4078601-48HR |
   6  4078059-48HR |  28  4078268-CREW |  50  4078416-48HR |  72  4078584-48HR |
   7  4078077-NON  |  29  4078272-CREW |  51  4078445-48HR |  73  4078617-48HR |
   8  4078099-NON  |  30  4078299-48HR |  52  4078440-48HR |  74  4078485-48HR |
   9  4078116-48HR |  31  4078324-48HR |  53  4078448-48HR |  75  4078629-48HR |
  10  4078125-48HR |  32  4078317-48HR |  54  4078449-48HR |  76  4078622-48HR |
  11  4078134-48HR |  33  4078329-48HR |  55  4078481-EMER |  77  4078666-48HR |
  12  4078142-48HR |  34  4078325-EMER |  56  4078491-48HR |  78  4078672-48HR |
  13  4078148-48HR |  35  4078334-48HR |  57  4078498-48HR |  79  4078690-48HR |
  14  4078149-NON  |  36  4078333-48HR |  58  4078238-48HR |  80  4078717-48HR |
  15  4078152-48HR |  37  4078327-48HR |  59  4078542-48HR |  81  4074363-48HR |
  16  4078159-48HR |  38  4078346-48HR |  60  4078534-48HR |  82  4078725-48HR |
  17  4078150-48HR |  39  4078355-48HR |  61  4078539-48HR |  83  4078732-EMER |
  18  4078182-48HR |  40  4078365-48HR |  62  4078552-48HR |  84  4078735-48HR |
  19  4078184-48HR |  41  4078366-48HR |  63  4078555-48HR |  85  4078738-48HR |
  20  4078193-48HR |  42  4078375-48HR |  64  4078561-EMER |  86  4078740-48HR |
  21  4078187-48HR |  43  4078378-48HR |  65  4078560-48HR |  87  4078741-48HR |
  22  4078157-48HR |  44* 4078379-48HR |  66  4078579-48HR |  88  4078746-48HR |

* indicates ticket # is repeated

Total Tickets: 88

48HR - 2 FULL BUSINESS DAYS           |   79
 NON - +NON-EMERGENCY+                |    3
CREW - +CREW ON SITE+                 |    2
EMER - ++EMERGENCY++                  |    4

Please call (503) 232-1987 if this data does
not match the tickets you received on 03/26/04


0
Date/Time :  3-30-04 at  0:19

Washington One Call
SUMM
DAILY AUDIT OF TICKETS SENT ON 03/29/04

Date/Time: 03/30/2004 12:15:00 AM
Receiving Terminal: TEST03

Seq #   Ticket #    Seq #   Ticket #    Seq #   Ticket #    Seq #   Ticket #    
----- ------------  ----- ------------  ----- ------------  ----- ------------  
   1  4078907-48HR |  61  4079687-48HR | 121  4080205-48HR | 181  4080677-48HR |
   2  4078953-48HR |  62  4079705-EMER | 122  4080207-48HR | 182  4080672-48HR |
   3  4078990-48HR |  63  4079646-48HR | 123  4080201-48HR | 183  4080694-48HR |
   4  4079001-48HR |  64  4079714-NON  | 124  4080210-48HR | 184  4080741-48HR |
   5  4079019-CREW |  65  4079743-48HR | 125  4080216-48HR | 185  4080752-48HR |
   6  4079015-48HR |  66  4079709-48HR | 126  4080217-48HR | 186  4080601-48HR |
   7  4079069-48HR |  67  4079742-NON  | 127  4080220-48HR | 187  4080798-48HR |
   8  4079063-48HR |  68  4079755-48HR | 128  4080211-48HR | 188  4080638-48HR |
   9  4079105-48HR |  69  4079775-48HR | 129  4080222-48HR | 189  4080803-48HR |
  10  4079115-CREW |  70  4079792-48HR | 130  4080225-48HR | 190  4080807-48HR |
  11  4079111-48HR |  71  4079796-48HR | 131  4080227-48HR | 191  4080779-48HR |
  12  4079129-NON  |  72  4079800-48HR | 132  4080214-48HR | 192  4080812-48HR |
  13  4079156-48HR |  73  4079813-48HR | 133  4080228-48HR | 193  4080814-48HR |
  14  4079165-48HR |  74  4079821-48HR | 134  4080221-48HR | 194  4080796-48HR |
  15  4079153-48HR |  75  4079834-48HR | 135  4080229-48HR | 195  4080804-48HR |
  16  4079168-48HR |  76  4079836-48HR | 136  4080223-48HR | 196  4080781-48HR |
  17  4079172-48HR |  77  4079842-48HR | 137  4080235-48HR | 197  4080805-48HR |
  18  4079179-48HR |  78  4079856-48HR | 138  4080233-48HR | 198  4080816-48HR |
  19  4079181-48HR |  79  4079845-48HR | 139  4080231-48HR | 199  4080874-48HR |
  20  4079185-48HR |  80  4079862-48HR | 140  4080195-48HR | 200  4080886-48HR |
  21  4079159-NON  |  81  4079880-NON  | 141  4080237-48HR | 201  4080888-48HR |
  22  4079193-48HR |  82  4079895-48HR | 142  4080249-48HR | 202  4080896-48HR |
  23  4079198-48HR |  83  4079904-48HR | 143* 4080256-48HR | 203  4080914-48HR |
  24  4079197-48HR |  84  4079909-48HR | 144  4080263-48HR | 204  4080907-48HR |
  25  4079201-48HR |  85  4079918-48HR | 145  4080262-EMER | 205  4080927-48HR |
  26  4079224-48HR |  86  4079926-48HR | 146  4080256-48HR | 206  4080933-48HR |
  27  4079211-48HR |  87  4079924-48HR | 147* 4080264-48HR | 207  4080944-48HR |
  28  4079231-48HR |  88  4079922-48HR | 148  4080264-48HR | 208  4080986-48HR |
  29  4079214-48HR |  89  4079933-48HR | 149  4080304-NON  | 209  4080978-48HR |
  30  4079252-48HR |  90  4079929-EMER | 150  4079955-EMER | 210  4081000-48HR |
  31  4079285-48HR |  91* 4079955-EMER | 151  4080297-48HR | 211  4081006-48HR |
  32  4079293-48HR |  92  4079970-48HR | 152  4080327-CREW | 212  4081009-48HR |
  33  4079307-48HR |  93  4079977-48HR | 153  4080283-48HR | 213  4081013-48HR |
  34  4079345-48HR |  94  4080020-48HR | 154  4080294-48HR | 214  4081017-48HR |
  35  4079350-48HR |  95  4080012-48HR | 155  4080409-48HR | 215  4081019-48HR |
  36  4079354-48HR |  96  4080030-48HR | 156  4080318-48HR | 216  4081026-48HR |
  37  4079377-48HR |  97  4080041-48HR | 157  4080449-48HR | 217  4081031-48HR |
  38  4079399-48HR |  98  4080036-48HR | 158  4080325-48HR | 218  4081033-48HR |
  39  4079391-48HR |  99  4080046-48HR | 159  4080406-48HR | 219  4081039-48HR |
  40  4079419-48HR | 100  4080058-48HR | 160  4080458-48HR | 220  4081040-48HR |
  41  4079398-48HR | 101  4080075-48HR | 161  4080441-48HR | 221  4081043-48HR |
  42  4079435-48HR | 102  4080090-48HR | 162  4080471-48HR | 222  4081044-48HR |
  43  4079428-48HR | 103  4080088-48HR | 163  4080481-NON  | 223  4081055-48HR |
  44  4079446-48HR | 104  4080092-48HR | 164  4080503-48HR | 224  4081067-48HR |
  45  4079490-48HR | 105  4080085-48HR | 165  4080508-48HR | 225  4081119-48HR |
  46  4079488-48HR | 106  4080091-48HR | 166  4080513-48HR | 226  4081118-PRIO |
  47  4079533-48HR | 107  4080105-48HR | 167  4080510-48HR | 227  4081112-48HR |
  48  4079525-48HR | 108  4080098-48HR | 168  4080527-EMER | 228  4081126-48HR |
  49  4079548-48HR | 109  4080116-48HR | 169  4080546-48HR | 229  4081130-48HR |
  50  4079544-48HR | 110  4080112-48HR | 170  4080552-EMER | 230  4081141-48HR |
  51  4079549-48HR | 111  4080113-48HR | 171  4080533-48HR | 231  4081146-48HR |
  52  4079574-48HR | 112  4080133-48HR | 172  4080567-48HR | 232  4081154-48HR |
  53  4079622-48HR | 113  4080147-48HR | 173  4080540-48HR | 233  4081160-48HR |
  54  4079629-48HR | 114  4080153-48HR | 174  4080564-48HR | 234  4081162-EMER |
  55  4079619-EMER | 115  4080170-48HR | 175  4080571-48HR | 235  4081169-48HR |
  56  4079635-48HR | 116  4080161-48HR | 176  4080566-48HR | 236  4081178-48HR |
  57  4079638-48HR | 117  4080173-PRIO | 177  4080587-48HR | 237  4081181-48HR |
  58  4079656-48HR | 118  4080181-48HR | 178  4080588-48HR | 238  4081183-48HR |
  59  4079658-48HR | 119  4080198-48HR | 179  4080641-48HR | 239  4081184-48HR |
  60  4079680-48HR | 120  4080203-48HR | 180  4080644-48HR |

* indicates ticket # is repeated

Total Tickets: 239

48HR - 2 FULL BUSINESS DAYS           |  218
CREW - +CREW ON SITE+                 |    3
 NON - +NON-EMERGENCY+                |    7
EMER - ++EMERGENCY++                  |    9
PRIO - PRIORITY                       |    2

Please call (503) 232-1987 if this data does
not match the tickets you received on 03/29/04


