\n\n\n\n\nSEQUENCE NUMBER 0001   CDC = CCK

WELLSCO audit for CDC of CCK on 021026

Serial# & Seq#  Serial# & Seq#  Serial# & Seq#  Serial# & Seq#
022981112 0012  022981215 0015  022981575 0028  022982068 0042
022982084 0046  022985803 0047  022985831 0049  022986021 0064
022986167 0080  022983059 0081  022986171 0083  022983105 0084
022986175 0085  022986177 0086  022986178 0087  022986181 0088

Total number of Dig-ups or Emergency 0001
Total number of Short Notices        0000
Total number of Priority Notices     0001
Total number of Routine Notices      0014
Total number of Messages for CCK     0016

If this audit does not match your manual tracking
then call the Call Center and request a retransmission.


SEQUENCE NUMBER 0001   CDC = DFD

WELLSCO audit for CDC of DFD on 021026

Serial# & Seq#  Serial# & Seq#  Serial# & Seq#  Serial# & Seq#
022980882 0001  022981294 0017

Total number of Dig-ups or Emergency 0000
Total number of Short Notices        0000
Total number of Priority Notices     0000
Total number of Routine Notices      0002
Total number of Messages for DFD     0002

If this audit does not match your manual tracking
then call the Call Center and request a retransmission.


SEQUENCE NUMBER 0001   CDC = FFD

WELLSCO audit for CDC of FFD on 021026

Serial# & Seq#  Serial# & Seq#  Serial# & Seq#  Serial# & Seq#
022981074 0008  022981077 0009  022981081 0010  022981255 0014
022981275 0016  022982549 0066  022982650 0067  022983087 0082
022973001 0111

Total number of Dig-ups or Emergency 0002
Total number of Short Notices        0001
Total number of Priority Notices     0004
Total number of Routine Notices      0002
Total number of Messages for FFD     0009

If this audit does not match your manual tracking
then call the Call Center and request a retransmission.


SEQUENCE NUMBER 0001   CDC = HTN

WELLSCO audit for CDC of HTN on 021026

Serial# & Seq#  Serial# & Seq#  Serial# & Seq#  Serial# & Seq#
022981162 0013  022981546 0027  022981892 0038  022976451 0108
022976453 0109

Total number of Dig-ups or Emergency 0000
Total number of Short Notices        0000
Total number of Priority Notices     0000
Total number of Routine Notices      0005
Total number of Messages for HTN     0005

If this audit does not match your manual tracking
then call the Call Center and request a retransmission.


SEQUENCE NUMBER 0001   CDC = NBN

WELLSCO audit for CDC of NBN on 021026

Serial# & Seq#  Serial# & Seq#  Serial# & Seq#  Serial# & Seq#
022985960 0058  022985968 0059  022985972 0060  022982849 0074

Total number of Dig-ups or Emergency 0000
Total number of Short Notices        0000
Total number of Priority Notices     0000
Total number of Routine Notices      0004
Total number of Messages for NBN     0004

If this audit does not match your manual tracking
then call the Call Center and request a retransmission.


SEQUENCE NUMBER 0001   CDC = TKA

WELLSCO audit for CDC of TKA on 021026

Serial# & Seq#  Serial# & Seq#  Serial# & Seq#  Serial# & Seq#
022985119 0003  022981005 0004  022981394 0020  022981762 0033
022981815 0035  022981909 0039  022982415 0057  022986102 0069
022982709 0070  022986088 0071  022982849 0075

Total number of Dig-ups or Emergency 0000
Total number of Short Notices        0001
Total number of Priority Notices     0000
Total number of Routine Notices      0010
Total number of Messages for TKA     0011

If this audit does not match your manual tracking
then call the Call Center and request a retransmission.



