KD TICKET SUMMARY REPORT AS OF 06/21/05 00:02:30 AM FOR KD             PAGE 1
***************************************************************************
*     THIS IS THE END-OF-DAY SUMMARY AUDIT OF MESSAGES TRANSMITTED        *
*            06/20/05 FROM PENNSYLVANIA ONE CALL SYSTEM, INC.             *
***************************************************************************

SEQ #  TICKET PRI  TIME     SEQ #  TICKET PRI  TIME     SEQ #  TICKET PRI  TIME
    1 1715013 N   5:41AM        2 1715014 N   6:01AM        3 1715110 E   7:28AM
    4 1715122 N   7:35AM        5 1687449 HY  7:57AM        6 1715171 N   7:57AM
    7 1715182 N   8:02AM        8 1715200 N   8:06AM        9 1715217 N   8:11AM
   10 1715224 N   8:13AM       11 1715243 N   8:18AM       12 1715264 N   8:22AM
   13 1715280 N   8:25AM       14 1715286 N   8:27AM       15 1715319 N   8:35AM
   16 1715353 E   8:44AM       17 1715359 N   8:45AM       18 1715378 N   8:49AM
   19 1715399 N   8:53AM       20 1715425 N   8:59AM       21 1715435 N   9:01AM
   22 1715438 N   9:02AM       23 1715449 N   9:04AM       24 1715484 N   9:11AM
   25 1715495 E   9:15AM       26 1715497 N   9:16AM       27 1715498 N   9:16AM
   28 1715564 N   9:28AM       29 1715568 N   9:29AM       30 1715578 E   9:30AM
   31 1715596 N   9:34AM       32 1715629 N   9:39AM       33 1715643 N   9:42AM
   34 1646301 HY  9:46AM       35 1715691 N   9:51AM       36 1715733 N   9:58AM
   37 1715748 N  10:01AM       38 1666359 HY 10:05AM       39 1715801 N  10:09AM
   40 1715904 H  10:23AM       41 1715929 N  10:27AM       42 1715947 N  10:30AM
   43 1715954 N  10:33AM       44 1716046 N  10:49AM       45 1716063 N  10:54AM
   46 1716066 N  10:55AM       47 1716072 N  10:57AM       48 1716128 N  11:06AM
   49 1716133 N  11:07AM       50 1716141 N  11:08AM       51 1716149 N  11:09AM
   52 1716212 E  11:21AM       53 1716218 N  11:22AM       54 1716224 N  11:23AM
   55 1716226 N  11:23AM       56 1716228 N  11:24AM       57 1716259 N  11:30AM
   58 1716376 N  11:53AM       59 1666301 HY 11:54AM       60 1716493 N  12:19PM
   61 1716573 N  12:43PM       62 1716581 N  12:45PM       63 1716594 N  12:48PM
   64 1716604 N  12:50PM       65 1716612 N  12:52PM       66 1716613 N  12:52PM
   67 1716618 N  12:53PM       68 1716621 N  12:53PM       69 1716623 N  12:54PM
   70 1716629 N  12:56PM       71 1716642 N   1:00PM       72 1716662 N   1:06PM
   73 1716664 N   1:06PM       74 1716666 N   1:06PM       75 1716674 E   1:08PM
   76 1647968 HY  1:16PM       77 1716718 N   1:17PM       78 1716761 N   1:28PM
   79 1716793 N   1:34PM       80 1716799 N   1:35PM       81 1716808 N   1:36PM
   82 1716814 N   1:37PM       83 1716827 N   1:40PM       84 1716831 N   1:41PM
   85 1716832 N   1:41PM       86 1716842 N   1:43PM       87 1716855 N   1:46PM
   88 1716877 N   1:49PM       89 1716903 N   1:52PM       90 1716914 N   1:53PM
   91 1716959 N   2:01PM       92 1717012 E   2:11PM       93 1717013 E   2:11PM
   94 1717040 N   2:17PM       95 1717059 N   2:20PM       96 1717102 N   2:29PM
   97 1717118 N   2:33PM       98 1717131 N   2:35PM       99 1717149 N   2:39PM
  100 1717152 N   2:40PM      101 1717156 N   2:41PM      102 1717158 N   2:42PM
  103 1717172 N   2:44PM      104 1717182 N   2:47PM      105 1717189 N   2:48PM
  106 1717191 N   2:48PM      107 1717199 N   2:50PM      108 1717219 N   2:53PM
  109 1717220 N   2:53PM      110 1717231 N   2:55PM      111 1717238 N   2:57PM
  112 1717239 N   2:57PM      113 1717244 N   2:58PM      114 1717252 N   3:00PM
  115 1717253 N   3:00PM      116 1717257 N   3:00PM      117 1717260 N   3:01PM
  118 1717261 N   3:02PM      119 1717262 N   3:02PM      120 1717270 N   3:04PM
  121 1717273 N   3:05PM      122 1717279 N   3:06PM      123 1717282 N   3:07PM
  124 1717288 N   3:08PM      125 1717296 N   3:09PM      126 1717297 N   3:09PM
  127 1717303 N   3:11PM      128 1717308 N   3:14PM      129 1717311 N   3:14PM
  130 1717313 N   3:14PM      131 1717316 N   3:16PM      132 1717324 N   3:17PM
  133 1717326 N   3:17PM      134 1717337 N   3:19PM      135 1717342 N   3:20PM
  136 1717347 N   3:22PM      137 1717349 N   3:23PM      138 1717359 N   3:26PM
  139 1717365 N   3:28PM      140 1717370 N   3:29PM      141 1646631 HY  3:29PM
  142 1647677 HY  3:30PM      143 1647681 HY  3:31PM      144 1717383 N   3:32PM
  145 1717402 N   3:36PM      146 1717418 N   3:38PM      147 1717427 N   3:40PM
  148 1717439 N   3:42PM      149 1717530 N   4:03PM      150 1717533 N   4:04PM
  151 1717578 N   4:16PM      152 1717622 N   4:27PM      153 1717627 N   4:28PM
  154 1717630 N   4:29PM      155 1717633 N   4:29PM      156 1717635 N   4:29PM
  157 1717638 N   4:30PM      158 1717640 N   4:30PM      159 1717642 N   4:31PM
  160 1717656 N   4:35PM      161 1717663 N   4:37PM      162 1717674 N   4:41PM
  163 1717708 N   4:53PM      164 1717728 N   4:58PM      165 1717746 N   5:03PM
  166 1717750 N   5:05PM      167 1717768 N   5:16PM      168 1717770 N   5:18PM
  169 1717775 N   5:20PM      170 1717786 N   5:25PM      171 1717788 N   5:27PM
  172 1717790 N   5:27PM      173 1717792 N   5:27PM      174 1717793 N   5:28PM
  175 1717796 N   5:29PM      176 1717799 N   5:34PM      177 1717800 N   5:34PM
  178 1717839 N   6:02PM      179 1717845 E   6:06PM      180 1717846 N   6:07PM
  181 1717847 N   6:08PM      182 1717848 N   6:08PM      183 1717850 N   6:09PM
  184 1717851 N   6:09PM      185 1717852 N   6:09PM      186 1717853 N   6:10PM
  187 1717854 N   6:11PM      188 1717855 N   6:11PM      189 1717857 N   6:13PM
  190 1717860 N   6:15PM      191 1717863 N   6:16PM      192 1717865 N   6:17PM
  193 1717867 N   6:18PM      194 1717887 N   6:29PM      195 1717911 N   6:53PM
  196 1717929 N   7:01PM      197 1717942 N   7:11PM      198 1717977 N   7:52PM
  199 1717993 N   8:06PM      200 1718045 N   9:14PM      201 1718047 N   9:16PM
  202 1718072 N   9:47PM      203 1718073 N   9:49PM      204 1718075 N   9:50PM
  205 1718077 N   9:53PM      206 1718079 N   9:54PM      207 1718080 N   9:54PM
  208 1718081 N   9:55PM      209 1718082 N   9:55PM      210 1718084 N   9:56PM
  211 1718114 E  11:03PM    

Total: 211

KC TICKET SUMMARY REPORT AS OF 06/21/05 00:02:30 AM FOR KC             PAGE 1
***************************************************************************
*     THIS IS THE END-OF-DAY SUMMARY AUDIT OF MESSAGES TRANSMITTED        *
*            06/20/05 FROM PENNSYLVANIA ONE CALL SYSTEM, INC.             *
***************************************************************************

SEQ #  TICKET PRI  TIME     SEQ #  TICKET PRI  TIME     SEQ #  TICKET PRI  TIME
    1 1715002 E  12:21AM        2 1715012 E   5:38AM        3 1715070 N   7:02AM
    4 1715078 E   7:06AM        5 1657189 HY  7:11AM        6 1657193 HY  7:12AM
    7 1715104 N   7:26AM        8 1715132 N   7:41AM        9 1715134 N   7:41AM
   10 1715136 N   7:42AM       11 1715160 N   7:51AM       12 1715012 EY  7:52AM
   13 1715213 N   8:10AM       14 1715347 N   8:43AM       15 1715369 N   8:47AM
   16 1715372 N   8:48AM       17 1715401 E   8:53AM       18 1616898 HY  8:54AM
   19 1607309 HY  8:55AM       20 1715410 N   8:56AM       21 1715419 N   8:57AM
   22 1715421 N   8:58AM       23 1715429 N   9:00AM       24 1715445 N   9:03AM
   25 1715446 N   9:03AM       26 1715453 N   9:05AM       27 1715468 N   9:08AM
   28 1715490 N   9:13AM       29 1715493 N   9:14AM       30 1715499 N   9:16AM
   31 1715500 N   9:16AM       32 1715501 N   9:16AM       33 1715504 N   9:16AM
   34 1715549 N   9:26AM       35 1715552 N   9:27AM       36 1715557 N   9:27AM
   37 1715561 N   9:28AM       38 1715573 N   9:29AM       39 1715597 N   9:34AM
   40 1715645 H   9:43AM       41 1715651 N   9:44AM       42 1667260 HY  9:46AM
   43 1715671 E   9:48AM       44 1715697 N   9:52AM       45 1715726 N   9:56AM
   46 1715735 N   9:59AM       47 1715745 N  10:00AM       48 1715749 N  10:01AM
   49 1715770 N  10:04AM       50 1715771 N  10:04AM       51 1715779 N  10:06AM
   52 1715884 N  10:21AM       53 1715900 N  10:23AM       54 1715903 N  10:23AM
   55 1715907 N  10:24AM       56 1715908 N  10:24AM       57 1715938 N  10:29AM
   58 1645544 HY 10:35AM       59 1715973 N  10:38AM       60 1715974 N  10:39AM
   61 1715975 N  10:39AM       62 1716052 E  10:52AM       63 1716118 N  11:04AM
   64 1716134 N  11:07AM       65 1716136 H  11:08AM       66 1716192 N  11:16AM
   67 1716200 N  11:17AM       68 1716211 N  11:20AM       69 1716255 N  11:29AM
   70 1716257 N  11:29AM       71 1716262 N  11:30AM       72 1716263 N  11:30AM
   73 1596292 HY 11:35AM       74 1716292 N  11:35AM       75 1716315 E  11:41AM
   76 1716331 E  11:45AM       77 1716347 N  11:47AM       78 1716350 N  11:47AM
   79 1716351 N  11:47AM       80 1716352 N  11:47AM       81 1716363 N  11:50AM
   82 1716374 N  11:53AM       83 1716377 N  11:54AM       84 1716379 N  11:55AM
   85 1716393 N  11:58AM       86 1716400 E  12:00PM       87 1716413 N  12:01PM
   88 1716414 N  12:01PM       89 1716433 N  12:06PM       90 1716455 N  12:09PM
   91 1716476 N  12:15PM       92 1716485 N  12:17PM       93 1716486 N  12:17PM
   94 1716515 N  12:25PM       95 1716520 N  12:26PM       96 1716523 N  12:27PM
   97 1716527 N  12:28PM       98 1716530 N  12:28PM       99 1716564 E  12:40PM
  100 1685675 HY 12:42PM      101 1647612 HY 12:44PM      102 1647620 HY 12:45PM
  103 1647625 HY 12:46PM      104 1647630 HY 12:46PM      105 1647641 HY 12:47PM
  106 1716591 N  12:47PM      107 1647644 HY 12:48PM      108 1647651 HY 12:49PM
  109 1647657 HY 12:53PM      110 1716619 E  12:53PM      111 1716641 N   1:00PM
  112 1716667 H   1:07PM      113 1716681 N   1:09PM      114 1716690 N   1:11PM
  115 1716777 H   1:31PM      116 1716920 N   1:54PM      117 1716929 N   1:55PM
  118 1716930 N   1:55PM      119 1716984 N   2:04PM      120 1717034 N   2:16PM
  121 1717055 N   2:20PM      122 1717060 N   2:21PM      123 1717068 N   2:23PM
  124 1717069 N   2:23PM      125 1717073 N   2:23PM      126 1717075 N   2:25PM
  127 1717076 N   2:25PM      128 1717079 N   2:25PM      129 1717098 N   2:29PM
  130 1717105 N   2:30PM      131 1717108 N   2:31PM      132 1717111 E   2:31PM
  133 1717133 N   2:35PM      134 1717139 N   2:37PM      135 1717160 N   2:42PM
  136 1717163 N   2:43PM      137 1717169 N   2:44PM      138 1717185 N   2:48PM
  139 1717212 N   2:52PM      140 1656830 HY  2:57PM      141 1717241 N   2:58PM
  142 1717245 N   2:58PM      143 1717248 N   2:59PM      144 1717266 N   3:03PM
  145 1717294 N   3:09PM      146 1717298 N   3:10PM      147 1717304 N   3:11PM
  148 1717306 N   3:13PM      149 1717312 N   3:14PM      150 1717372 N   3:29PM
  151 1717381 N   3:31PM      152 1717404 N   3:36PM      153 1717453 N   3:45PM
  154 1717462 N   3:48PM      155 1717486 N   3:54PM      156 1717490 N   3:55PM
  157 1717515 N   4:01PM      158 1717541 N   4:05PM      159 1717548 N   4:07PM
  160 1717637 N   4:30PM      161 1717648 N   4:33PM      162 1717662 N   4:38PM
  163 1717670 N   4:40PM      164 1717676 N   4:42PM      165 1717678 N   4:42PM
  166 1717695 N   4:50PM      167 1717718 N   4:56PM      168 1717720 N   4:56PM
  169 1717752 N   5:06PM      170 1717781 N   5:22PM      171 1717782 N   5:23PM
  172 1717828 N   5:54PM      173 1717858 H   6:13PM      174 1717873 N   6:22PM
  175 1717875 N   6:23PM      176 1717877 N   6:24PM      177 1717880 N   6:25PM
  178 1717881 N   6:25PM      179 1717882 N   6:25PM      180 1717883 N   6:26PM
  181 1717884 N   6:26PM      182 1717894 N   6:34PM      183 1717896 E   6:35PM
  184 1717909 N   6:52PM      185 1717912 N   6:54PM      186 1717916 N   6:55PM
  187 1717927 E   7:01PM      188 1717943 N   7:12PM      189 1717957 N   7:22PM
  190 1717998 E   8:16PM      191 1718007 N   8:33PM      192 1718011 N   8:38PM
  193 1718016 N   8:44PM      194 1718028 N   8:56PM      195 1718036 N   9:06PM
  196 1718040 N   9:09PM      197 1718041 N   9:12PM      198 1718044 N   9:14PM
  199 1718048 N   9:16PM      200 1718052 N   9:18PM      201 1718062 N   9:24PM
  202 1718064 N   9:26PM      203 1718069 N   9:39PM      204 1718078 N   9:53PM
  205 1718103 N  10:19PM      206 1718118 N  11:20PM      207 1718120 N  11:23PM

Total: 207

KE TICKET SUMMARY REPORT AS OF 06/21/05 00:02:31 AM FOR KE             PAGE 1
***************************************************************************
*     THIS IS THE END-OF-DAY SUMMARY AUDIT OF MESSAGES TRANSMITTED        *
*            06/20/05 FROM PENNSYLVANIA ONE CALL SYSTEM, INC.             *
***************************************************************************

SEQ #  TICKET PRI  TIME     SEQ #  TICKET PRI  TIME     SEQ #  TICKET PRI  TIME
    1 1715005 E   3:10AM        2 1715058 E   6:54AM        3 1715095 N   7:17AM
    4 1635188 HY  7:19AM        5 1635189 HY  7:21AM        6 1715100 N   7:22AM
    7 1715121 N   7:35AM        8 1715168 H   7:56AM        9 1715180 N   8:00AM
   10 1715183 N   8:02AM       11 1715226 N   8:14AM       12 1715261 N   8:22AM
   13 1715291 N   8:28AM       14 1715310 N   8:33AM       15 1715334 E   8:39AM
   16 1715336 N   8:39AM       17 1665487 HY  8:41AM       18 1715341 N   8:41AM
   19 1665489 HY  8:42AM       20 1715350 N   8:43AM       21 1715365 N   8:46AM
   22 1715385 N   8:51AM       23 1686745 HY  8:51AM       24 1715431 N   9:00AM
   25 1715436 E   9:01AM       26 1715488 N   9:13AM       27 1715502 N   9:16AM
   28 1715512 N   9:18AM       29 1715516 N   9:19AM       30 1715535 N   9:23AM
   31 1715559 N   9:27AM       32 1715566 N   9:28AM       33 1715590 N   9:32AM
   34 1715599 N   9:35AM       35 1715605 N   9:36AM       36 1715614 N   9:37AM
   37 1715625 N   9:39AM       38 1715630 N   9:39AM       39 1667192 HY  9:43AM
   40 1715654 N   9:45AM       41 1715688 N   9:51AM       42 1715692 N   9:51AM
   43 1715695 N   9:52AM       44 1715696 N   9:52AM       45 1715699 N   9:52AM
   46 1715702 N   9:52AM       47 1715706 N   9:53AM       48 1715708 N   9:53AM
   49 1715718 N   9:56AM       50 1715721 N   9:56AM       51 1715731 N   9:58AM
   52 1715738 E   9:59AM       53 1715818 N  10:12AM       54 1715822 N  10:13AM
   55 1715831 N  10:14AM       56 1715853 N  10:17AM       57 1715856 N  10:18AM
   58 1715862 N  10:18AM       59 1715873 N  10:19AM       60 1715875 N  10:20AM
   61 1715968 N  10:38AM       62 1715976 N  10:39AM       63 1716047 N  10:49AM
   64 1716060 N  10:53AM       65 1716070 N  10:55AM       66 1716076 N  10:57AM
   67 1716111 N  11:03AM       68 1716113 N  11:03AM       69 1716145 N  11:09AM
   70 1716176 E  11:13AM       71 1716182 E  11:14AM       72 1716190 N  11:16AM
   73 1716216 N  11:22AM       74 1716219 N  11:22AM       75 1716227 N  11:24AM
   76 1716234 N  11:24AM       77 1716238 N  11:25AM       78 1716249 N  11:28AM
   79 1716256 N  11:29AM       80 1716300 E  11:38AM       81 1716328 N  11:43AM
   82 1716369 E  11:51AM       83 1716430 N  12:05PM       84 1716436 N  12:06PM
   85 1716448 N  12:09PM       86 1716467 N  12:12PM       87 1716472 N  12:14PM
   88 1716477 N  12:16PM       89 1716479 N  12:16PM       90 1716487 N  12:17PM
   91 1716494 N  12:19PM       92 1716498 N  12:21PM       93 1716509 N  12:23PM
   94 1716588 N  12:46PM       95 1716600 N  12:49PM       96 1716614 N  12:52PM
   97 1716644 N   1:00PM       98 1667198 HY  1:07PM       99 1716675 N   1:08PM
  100 1575900 HY  1:22PM      101 1657525 HY  1:23PM      102 1716748 N   1:25PM
  103 1716776 N   1:31PM      104 1716839 N   1:43PM      105 1716854 N   1:46PM
  106 1716860 N   1:46PM      107 1716876 N   1:49PM      108 1716887 N   1:50PM
  109 1716910 N   1:52PM      110 1716931 N   1:55PM      111 1716946 N   1:59PM
  112 1716973 N   2:03PM      113 1717023 N   2:14PM      114 1717033 N   2:15PM
  115 1717035 N   2:16PM      116 1717061 N   2:21PM      117 1717063 N   2:21PM
  118 1717117 N   2:33PM      119 1717119 N   2:33PM      120 1717128 N   2:35PM
  121 1717187 N   2:48PM      122 1717197 N   2:49PM      123 1717205 N   2:51PM
  124 1717211 N   2:52PM      125 1717224 N   2:54PM      126 1717234 N   2:55PM
  127 1717301 N   3:11PM      128 1717380 N   3:31PM      129 1717382 N   3:32PM
  130 1717384 N   3:32PM      131 1717419 E   3:38PM      132 1717437 N   3:42PM
  133 1717448 N   3:44PM      134 1717477 N   3:52PM      135 1717556 N   4:09PM
  136 1717606 N   4:22PM      137 1717607 N   4:22PM      138 1717609 N   4:23PM
  139 1717612 N   4:24PM      140 1717618 N   4:26PM      141 1717693 N   4:49PM
  142 1717697 N   4:51PM      143 1717700 N   4:51PM      144 1717730 N   4:59PM
  145 1717795 N   5:29PM      146 1717878 H   6:24PM      147 1717994 N   8:06PM
  148 1718035 N   9:06PM      149 1718065 E   9:27PM      150 1718067 E   9:32PM
  151 1718119 N  11:23PM      152 1718122 N  11:48PM    

Total: 152

