

Tue Mar 13                                                             page    1
                          Daily Summary Report 031307

MSGID  OCC_TKTNUM      OCC_SITE DELIVERED                                       
-----------------------------------------                                       
00001  A70720017-00A   PTT18    08:30 CST                                       
00002  A70720035-00A   PTT25    08:59 CST                                       
00003  A70720037-00A   PTT14    09:01 CST                                       
00004  A70720065-00A   PTT18    09:19 CST                                       
00005  A70720066-00A   PTT18    09:19 CST                                       
00006  A03311052-05A   PTT01    09:19 CST                                       
00007  A70720067-00A   PTT18    09:19 CST                                       
00008  A70720068-00A   PTT18    09:19 CST                                       
00009  A70720072-00A   PTT18    09:22 CST                                       
00010  A70720078-00A   PTT01    09:27 CST                                       
00011  A70160140-02A   PTT124   09:28 CST                                       
00012  A70160143-02A   PTT124   09:28 CST                                       
00013  A03351212-08A   PTT124   09:40 CST                                       
00014  A03351212-09A   PTT124   09:40 CST                                       
00015  A70720102-00A   PTT25    09:43 CST                                       
00016  A70710783-01A   PTT124   09:55 CST                                       
00017  A03550080-03A   PTT124   09:58 CST                                       
00018  A70720128-00A   PTT19    09:58 CST                                       
00019  A70720128-00A   PTT01    09:58 CST                                       
00020  A03550083-03A   PTT28    09:58 CST                                       
00021  A03550081-03A   PTT28    09:58 CST                                       
00022  A03550085-04A   PTT124   10:00 CST                                       
00023  A03550101-03A   PTT28    10:03 CST                                       
00024  A70441224-01A   PTT14    10:03 CST                                       
00025  A70441239-01A   PTT14    10:03 CST                                       
00026  A70441197-01A   PTT14    10:06 CST                                       
00027  A70720150-00A   PTT14    10:06 CST                                       
00028  A03050305-05A   PTT14    10:11 CST                                       
00029  A70720157-00A   PTT124   10:13 CST                                       
00030  A70720173-00A   PTT25    10:22 CST                                       
00031  A70600217-01A   PTT28    10:22 CST                                       
00032  A70441412-02A   PTT14    10:30 CST                                       
00033  A70031018-09A   PTT124   10:30 CST                                       
00034  A70720207-00A   PTT18    10:34 CST                                       
00035  A70720208-00A   PTT124   10:34 CST                                       
00036  A70720215-00A   PTT124   10:35 CST                                       
00037  A70660745-01A   PTT124   10:38 CST                                       
00038  A70720239-00A   PTT28    10:43 CST                                       
00039  A70720251-00A   PTT14    10:47 CST                                       
00040  A70720259-00A   PTT28    10:51 CST                                       
00041  A70720267-00A   PTT28    10:53 CST                                       
00042  A70720272-00A   PTT28    10:53 CST                                       
00043  A70720276-00A   PTT28    10:53 CST                                       
00044  A70720281-00A   PTT28    10:53 CST                                       
00045  A70720283-00A   PTT28    10:55 CST                                       
00046  A70720294-00A   PTT28    10:59 CST                                       
00047  A70720300-00A   PTT28    10:59 CST                                       
00048  A70720316-00A   PTT01    11:01 CST                                       
00049  A70720288-00A   PTT19    11:01 CST                                       
00050  A03251203-04A   PTT28    11:03 CST                                       
00051  A70720319-00A   PTT28    11:03 CST                                       
00052  A70720337-00A   PTT14    11:10 CST                                       
00053  A70720373-00A   PTT28    11:16 CST                                       
00054  A70720379-00A   PTT28    11:19 CST                                       
00055  A70580566-01A   PTT01    11:24 CST                                       
00056  A70720439-00A   PTT28    11:33 CST                                       
00057  A70720442-00A   PTT28    11:33 CST                                       
00058  A70720446-00A   PTT28    11:33 CST                                       
00059  A70720449-00A   PTT124   11:35 CST                                       
00060  A70580470-01A   PTT28    11:35 CST                                       
00061  A70720452-00A   PTT124   11:35 CST                                       
00062  A70580470-02A   PTT28    11:35 CST                                       
00063  A70720466-00A   PTT14    11:41 CST                                       
00064  A70720467-00A   PTT28    11:41 CST                                       
00065  A70720467-00A   PTT124   11:41 CST                                       
00066  A70720497-00A   PTT01    11:53 CST                                       
00067  A70651478-01A   PTT28    11:53 CST                                       
00068  A70720508-00A   PTT28    11:57 CST                                       
00069  A70440727-01A   PTT14    12:00 CST                                       
00070  A70720530-00A   PTT28    12:04 CST                                       
00071  A70720550-00A   PTT25    12:10 CST                                       
00072  A70720551-00A   PTT19    12:16 CST                                       
00073  A70720564-00A   PTT01    12:16 CST                                       
00074  A70720583-00A   PTT19    12:21 CST                                       
00075  A70671719-01A   PTT124   12:26 CST                                       
00076  A70640392-02A   PTT18    12:26 CST                                       
00077  A70640392-02A   PTT20    12:26 CST                                       
00078  A70720598-00A   PTT124   12:26 CST                                       
00079  A70711140-01A   PTT14    12:29 CST                                       
00080  A70521024-01A   PTT28    12:29 CST                                       
00081  A03311052-06A   PTT01    12:34 CST                                       
00082  A70720627-00A   PTT124   12:41 CST                                       
00083  A70720643-00A   PTT124   12:47 CST                                       
00084  A70720647-00A   PTT18    12:47 CST                                       
00085  A70720657-00A   PTT22    12:52 CST                                       
00086  A70720662-00A   PTT01    12:52 CST                                       
00087  A70720688-00A   PTT28    13:01 CST                                       
00088  A70720672-00A   PTT22    13:01 CST                                       
00089  A70720672-00A   PTT25    13:01 CST                                       
00090  A70720683-00A   PTT25    13:05 CST                                       
00091  A70720717-00A   PTT01    13:11 CST                                       
00092  A70720722-00A   PTT14    13:11 CST                                       
00093  A70720717-01A   PTT01    13:11 CST                                       
00094  A70451424-01A   PTT28    13:13 CST                                       
00095  A70720740-00A   PTT28    13:18 CST                                       
00096  A70720741-00A   PTT124   13:20 CST                                       
00097  A70720761-00A   PTT01    13:30 CST                                       
00098  A70720763-00A   PTT01    13:30 CST                                       
00099  A70390400-03A   PTT14    13:43 CST                                       
00100  A70600323-01A   PTT124   13:43 CST                                       
00101  A70720439-01A   PTT28    13:49 CST                                       
00102  A70720808-00A   PTT14    13:49 CST                                       
00103  A70720879-00A   PTT28    14:29 CST                                       
00104  A70720882-00A   PTT14    14:29 CST                                       
00105  A70720882-01A   PTT14    14:29 CST                                       
00106  A70720887-00A   PTT28    14:32 CST                                       
00107  A70720892-00A   PTT124   14:32 CST                                       
00108  A70720900-00A   PTT19    14:38 CST                                       
00109  A70720903-00A   PTT19    14:38 CST                                       
00110  A70720906-00A   PTT20    14:38 CST                                       
00111  A70720910-00A   PTT19    14:38 CST                                       
00112  A70720912-00A   PTT19    14:41 CST                                       
00113  A70720925-00A   PTT18    14:47 CST                                       
00114  A70720936-00A   PTT01    14:50 CST                                       
00115  A70720969-00A   PTT18    14:59 CST                                       
00116  A70650949-01A   PTT25    15:04 CST                                       
00117  A70460484-02A   PTT28    15:07 CST                                       
00118  A70460504-02A   PTT28    15:07 CST                                       
00119  A70721007-00A   PTT20    15:14 CST                                       
00120  A70721036-00A   PTT19    15:21 CST                                       
00121  A70721002-00A   PTT19    15:21 CST                                       
00122  A70721045-00A   PTT20    15:25 CST                                       
00123  A70721052-00A   PTT28    15:25 CST                                       
00124  A70721056-00A   PTT124   15:28 CST                                       
00125  A03210017-06A   PTT124   15:28 CST                                       
00126  A70721059-00A   PTT124   15:28 CST                                       
00127  A70720337-01A   PTT14    15:34 CST                                       
00128  A70221429-02A   PTT01    15:40 CST                                       
00129  A70721111-00A   PTT124   15:46 CST                                       
00130  A70721120-00A   PTT124   15:50 CST                                       
00131  A70510180-01A   PTT01    15:50 CST                                       
00132  A70721127-00A   PTT124   15:50 CST                                       
00133  A70720969-01A   PTT18    15:59 CST                                       
00134  A70721172-00A   PTT14    15:59 CST                                       
00135  A70650949-02A   PTT25    16:03 CST                                       
00136  A03111166-05A   PTT28    16:06 CST                                       
00137  A02850869-06A   PTT28    16:06 CST                                       
00138  A70721178-00A   PTT19    16:10 CST                                       
00139  A70721198-00A   PTT19    16:10 CST                                       
00140  A70721223-00A   PTT28    16:12 CST                                       
00141  A70721196-00A   PTT19    16:12 CST                                       
00142  A70721192-00A   PTT19    16:15 CST                                       
00143  A70721165-00A   PTT19    16:15 CST                                       
00144  A70721188-00A   PTT19    16:15 CST                                       
00145  A70721241-00A   PTT28    19:19 CST                                       
00146  A70600323-02A   PTT124   19:19 CST                                       
00147  A70721252-00A   PTT28    19:19 CST                                       
00148  A70721268-00A   PTT28    19:19 CST                                       
00149  A70721277-00A   PTT28    19:19 CST                                       
00150  A70721291-00A   PTT28    19:19 CST                                       
00151  A70721301-00A   PTT28    19:19 CST                                       
00152  A70721314-00A   PTT28    19:19 CST                                       
00153  A70170549-02A   PTT28    19:19 CST                                       
00154  A70721323-00A   PTT28    19:19 CST                                       
00155  A70250220-02A   PTT01    19:19 CST                                       
00156  A70250285-02A   PTT124   19:19 CST                                       
00157  A70440699-01A   PTT19    19:19 CST                                       
00158  A70721354-00A   PTT19    19:19 CST                                       
00159  A70440693-01A   PTT19    19:19 CST                                       
00160  A70440703-01A   PTT19    19:19 CST                                       
00161  A70440708-01A   PTT19    19:19 CST                                       
00162  A70440712-01A   PTT19    19:19 CST                                       
00163  A70440719-01A   PTT19    19:19 CST                                       
00164  A70440726-01A   PTT19    19:19 CST                                       
00165  A70440724-01A   PTT19    19:24 CST                                       
00166  A70440730-01A   PTT19    19:24 CST                                       
00167  A70721349-00A   PTT28    19:24 CST                                       
00168  A70440716-01A   PTT20    19:24 CST                                       
00169  A70721358-00A   PTT25    19:24 CST                                       
00170  A70440721-01A   PTT20    19:24 CST                                       
00171  A70440742-01A   PTT19    19:24 CST                                       
00172  A70440749-01A   PTT20    19:24 CST                                       
00173  A70440751-01A   PTT19    19:24 CST                                       
00174  A70721380-00A   PTT28    19:24 CST                                       
00175  A70721380-01A   PTT28    19:24 CST                                       
00176  A70721392-00A   PTT18    19:24 CST                                       
00177  A70721404-00A   PTT01    19:24 CST                                       
00178  A70721412-00A   PTT19    19:24 CST                                       
00179  A70721419-00A   PTT124   19:24 CST                                       
00180  A70721427-00A   PTT01    19:24 CST                                       
00181  A70721432-00A   PTT19    19:24 CST                                       
00182  A70721437-00A   PTT19    19:24 CST                                       
00183  A70460722-01A   PTT14    19:24 CST                                       
00184  A70220501-02A   PTT14    19:24 CST                                       
00185  A70721459-00A   PTT124   19:30 CST                                       
00186  A70721520-00A   PTT19    19:30 CST                                       
00187  A70721523-00A   PTT19    19:30 CST                                       
00188  A70721459-02A   PTT124   19:30 CST                                       
00189  A70721537-00A   PTT124   19:30 CST                                       
00190  A70721542-00A   PTT25    19:30 CST                                       
00191  A70721546-00A   PTT14    19:30 CST                                       
00192  A70721593-00A   PTT28    19:30 CST                                       
00193  A70721599-00A   PTT25    19:30 CST                                       
00194  A02511157-08A   PTT25    19:30 CST                                       
00195  A70721618-00A   PTT28    19:30 CST                                       
00196  A70721631-00A   PTT28    19:30 CST                                       
00197  A70721649-00A   PTT25    19:30 CST                                       
00198  A70721671-00A   PTT01    19:30 CST                                       
00199  A70721676-00A   PTT28    19:30 CST                                       
00200  A70721690-00A   PTT25    19:30 CST                                       
00201  A70721290-00A   PTT25    19:30 CST                                       
00202  A70440684-01A   PTT19    19:45 CST                                       
00203  A70440734-01A   PTT19    19:45 CST                                       
00204  A70440747-01A   PTT19    19:45 CST                                       
00205  A70721297-00A   PTT19    19:45 CST                                       
00206  A70721288-00A   PTT25    19:45 CST                                       
00207  A70721377-00A   PTT25    19:45 CST                                       
       ----------------                                                         
TOTAL               207                                                         
