SEQUENCE NUMBER 0001   CDC = CCK

TESS audit for CDC of CCK on 021020
Serial# & Seq#  Serial# & Seq#  Serial# & Seq#  Serial# & Seq#
Total number of Dig-ups or Emergency 0000
Total number of Short Notices        0000
Total number of Priority Notices     0000
Total number of Routine Notices      0000
Total number of Messages for CCK     0000
If this audit does not match your manual tracking 
then call the Call Center and request a retransmission.




SEQUENCE NUMBER 0001   CDC = CS2

TESS audit for CDC of CS2 on 021020
Serial# & Seq#  Serial# & Seq#  Serial# & Seq#  Serial# & Seq#
022903402 0003  
Total number of Dig-ups or Emergency 0001
Total number of Short Notices        0000
Total number of Priority Notices     0000
Total number of Routine Notices      0000
Total number of Messages for CS2     0001
If this audit does not match your manual tracking 
then call the Call Center and request a retransmission.




SEQUENCE NUMBER 0001   CDC = CS3

TESS audit for CDC of CS3 on 021020
Serial# & Seq#  Serial# & Seq#  Serial# & Seq#  Serial# & Seq#
022910931 0004  022910936 0005  022920749 0116  
Total number of Dig-ups or Emergency 0001
Total number of Short Notices        0000
Total number of Priority Notices     0000
Total number of Routine Notices      0002
Total number of Messages for CS3     0003
If this audit does not match your manual tracking 
then call the Call Center and request a retransmission.




SEQUENCE NUMBER 0001   CDC = DFD

TESS audit for CDC of DFD on 021020
Serial# & Seq#  Serial# & Seq#  Serial# & Seq#  Serial# & Seq#
022930693 0121  
Total number of Dig-ups or Emergency 0001
Total number of Short Notices        0000
Total number of Priority Notices     0000
Total number of Routine Notices      0000
Total number of Messages for DFD     0001
If this audit does not match your manual tracking 
then call the Call Center and request a retransmission.




SEQUENCE NUMBER 0001   CDC = FFD

TESS audit for CDC of FFD on 021020
Serial# & Seq#  Serial# & Seq#  Serial# & Seq#  Serial# & Seq#
022912420 0081  022910440 0092  
Total number of Dig-ups or Emergency 0002
Total number of Short Notices        0000
Total number of Priority Notices     0000
Total number of Routine Notices      0000
Total number of Messages for FFD     0002
If this audit does not match your manual tracking 
then call the Call Center and request a retransmission.




SEQUENCE NUMBER 0001   CDC = HB1

TESS audit for CDC of HB1 on 021020
Serial# & Seq#  Serial# & Seq#  Serial# & Seq#  Serial# & Seq#
022911105 0020  022911130 0021  022910007 0031  
Total number of Dig-ups or Emergency 0000
Total number of Short Notices        0000
Total number of Priority Notices     0000
Total number of Routine Notices      0003
Total number of Messages for HB1     0003
If this audit does not match your manual tracking 
then call the Call Center and request a retransmission.




SEQUENCE NUMBER 0001   CDC = HB2

TESS audit for CDC of HB2 on 021020
Serial# & Seq#  Serial# & Seq#  Serial# & Seq#  Serial# & Seq#
022911105 0019  022912805 0097  
Total number of Dig-ups or Emergency 0000
Total number of Short Notices        0000
Total number of Priority Notices     0000
Total number of Routine Notices      0002
Total number of Messages for HB2     0002
If this audit does not match your manual tracking 
then call the Call Center and request a retransmission.




SEQUENCE NUMBER 0001   CDC = HTN

TESS audit for CDC of HTN on 021020
Serial# & Seq#  Serial# & Seq#  Serial# & Seq#  Serial# & Seq#
Total number of Dig-ups or Emergency 0000
Total number of Short Notices        0000
Total number of Priority Notices     0000
Total number of Routine Notices      0000
Total number of Messages for HTN     0000
If this audit does not match your manual tracking 
then call the Call Center and request a retransmission.




SEQUENCE NUMBER 0001   CDC = KL2

TESS audit for CDC of KL2 on 021020
Serial# & Seq#  Serial# & Seq#  Serial# & Seq#  Serial# & Seq#
022915572 0035  022911505 0036  022915525 0037  022911663 0043  
022915816 0045  022915819 0047  022915827 0048  022915840 0050  
022915842 0051  022915845 0052  022915886 0054  022915896 0055  
022915880 0060  022915882 0061  022915884 0062  022915888 0063  
022915909 0064  022911892 0068  022916207 0073  022916219 0074  
022916221 0075  022912302 0076  022912335 0077  022912371 0079  
022925038 0099  022920612 0100  022925079 0101  022925078 0102  
022925080 0103  022925081 0104  022925082 0105  022925083 0106  
022925084 0107  022925085 0108  022925086 0109  022925087 0110  
022925089 0111  022925090 0112  022925091 0113  022920827 0117  
022930621 0120  
Total number of Dig-ups or Emergency 0001
Total number of Short Notices        0000
Total number of Priority Notices     0009
Total number of Routine Notices      0031
Total number of Messages for KL2     0041
If this audit does not match your manual tracking 
then call the Call Center and request a retransmission.




SEQUENCE NUMBER 0001   CDC = MA1

TESS audit for CDC of MA1 on 021020
Serial# & Seq#  Serial# & Seq#  Serial# & Seq#  Serial# & Seq#
022911026 0006  022911030 0007  022911040 0013  022911056 0014  
022915555 0034  022911783 0046  022935009 0118  
Total number of Dig-ups or Emergency 0004
Total number of Short Notices        0000
Total number of Priority Notices     0000
Total number of Routine Notices      0003
Total number of Messages for MA1     0007
If this audit does not match your manual tracking 
then call the Call Center and request a retransmission.




SEQUENCE NUMBER 0001   CDC = MX1

TESS audit for CDC of MX1 on 021020
Serial# & Seq#  Serial# & Seq#  Serial# & Seq#  Serial# & Seq#
022911065 0015  022915303 0025  022911574 0038  022911887 0066  
022910322 0085  022910330 0088  022920747 0114  
Total number of Dig-ups or Emergency 0002
Total number of Short Notices        0000
Total number of Priority Notices     0000
Total number of Routine Notices      0005
Total number of Messages for MX1     0007
If this audit does not match your manual tracking 
then call the Call Center and request a retransmission.




SEQUENCE NUMBER 0001   CDC = NBN

TESS audit for CDC of NBN on 021020
Serial# & Seq#  Serial# & Seq#  Serial# & Seq#  Serial# & Seq#
022912075 0070  
Total number of Dig-ups or Emergency 0001
Total number of Short Notices        0000
Total number of Priority Notices     0000
Total number of Routine Notices      0000
Total number of Messages for NBN     0001
If this audit does not match your manual tracking 
then call the Call Center and request a retransmission.




SEQUENCE NUMBER 0001   CDC = PS1

TESS audit for CDC of PS1 on 021020
Serial# & Seq#  Serial# & Seq#  Serial# & Seq#  Serial# & Seq#
022916392 0091  
Total number of Dig-ups or Emergency 0000
Total number of Short Notices        0000
Total number of Priority Notices     0001
Total number of Routine Notices      0000
Total number of Messages for PS1     0001
If this audit does not match your manual tracking 
then call the Call Center and request a retransmission.




SEQUENCE NUMBER 0001   CDC = SO2

TESS audit for CDC of SO2 on 021020
Serial# & Seq#  Serial# & Seq#  Serial# & Seq#  Serial# & Seq#
022911065 0016  022915303 0026  022911445 0032  022911468 0033  
022911574 0039  022911577 0040  022911817 0049  022911887 0067  
022910322 0086  022910330 0089  022912538 0090  022920747 0115  
Total number of Dig-ups or Emergency 0002
Total number of Short Notices        0000
Total number of Priority Notices     0000
Total number of Routine Notices      0010
Total number of Messages for SO2     0012
If this audit does not match your manual tracking 
then call the Call Center and request a retransmission.




SEQUENCE NUMBER 0001   CDC = TKA

TESS audit for CDC of TKA on 021020
Serial# & Seq#  Serial# & Seq#  Serial# & Seq#  Serial# & Seq#
022910449 0094  
Total number of Dig-ups or Emergency 0001
Total number of Short Notices        0000
Total number of Priority Notices     0000
Total number of Routine Notices      0000
Total number of Messages for TKA     0001
If this audit does not match your manual tracking 
then call the Call Center and request a retransmission.




SEQUENCE NUMBER 0001   CDC = TM2

TESS audit for CDC of TM2 on 021020
Serial# & Seq#  Serial# & Seq#  Serial# & Seq#  Serial# & Seq#
022910921 0002  022910962 0008  022915176 0009  022915185 0010  
022915188 0011  022911149 0017  022915768 0044  022911857 0053  
022915862 0056  022915870 0057  022915873 0058  022915876 0059  
022915915 0065  022912159 0071  022910242 0078  022916245 0080  
022912420 0082  022916597 0096  022912876 0098  
Total number of Dig-ups or Emergency 0005
Total number of Short Notices        0000
Total number of Priority Notices     0004
Total number of Routine Notices      0010
Total number of Messages for TM2     0019
If this audit does not match your manual tracking 
then call the Call Center and request a retransmission.




SEQUENCE NUMBER 0001   CDC = WC1

TESS audit for CDC of WC1 on 021020
Serial# & Seq#  Serial# & Seq#  Serial# & Seq#  Serial# & Seq#
022910756 0001  022911085 0012  022911136 0022  022915261 0023  
022911151 0024  022911241 0027  022911252 0028  022915390 0029  
022911320 0030  022911703 0041  022911655 0042  022911944 0069  
022910234 0072  022910283 0083  022910286 0084  022912525 0087  
022912692 0093  022910481 0095  022930554 0119  
Total number of Dig-ups or Emergency 0004
Total number of Short Notices        0001
Total number of Priority Notices     0000
Total number of Routine Notices      0014
Total number of Messages for WC1     0019
If this audit does not match your manual tracking 
then call the Call Center and request a retransmission.




SEQUENCE NUMBER 0001   CDC = WS1

TESS audit for CDC of WS1 on 021020
Serial# & Seq#  Serial# & Seq#  Serial# & Seq#  Serial# & Seq#
022911150 0018  
Total number of Dig-ups or Emergency 0001
Total number of Short Notices        0000
Total number of Priority Notices     0000
Total number of Routine Notices      0000
Total number of Messages for WS1     0001
If this audit does not match your manual tracking 
then call the Call Center and request a retransmission.






