
LONESTAR
SUMM
DAILY AUDIT OF TICKETS SENT ON 10/20/02

Date/Time: 10/21/02 04:30:01 AM
Receiving Terminal: SUGAR01

Seq #   Ticket #    Seq #   Ticket #    Seq #   Ticket #    Seq #   Ticket #    
----- ------------  ----- ------------  ----- ------------  ----- ------------  

* indicates ticket # is repeated

Total Tickets: 0


Please call (713) 432-0365 if this data does
not match the tickets you received on 10/20/02





LONESTAR
SUMM
DAILY AUDIT OF TICKETS SENT ON 10/20/02

Date/Time: 10/21/02 04:30:01 AM
Receiving Terminal: SUGAR00

Seq #   Ticket #    Seq #   Ticket #    Seq #   Ticket #    Seq #   Ticket #    
----- ------------  ----- ------------  ----- ------------  ----- ------------  

* indicates ticket # is repeated

Total Tickets: 0


Please call (713) 432-0365 if this data does
not match the tickets you received on 10/20/02





LONESTAR
SUMM
DAILY AUDIT OF TICKETS SENT ON 10/20/02

Date/Time: 10/21/02 04:30:01 AM
Receiving Terminal: TWC40

Seq #   Ticket #    Seq #   Ticket #    Seq #   Ticket #    Seq #   Ticket #    
----- ------------  ----- ------------  ----- ------------  ----- ------------  
   1 29200172-ROUT |   3 29300053-EMER |   5 29300163-EMER |   7 29300230-UPDA |
   2 29200398-REPA |   4*29300163-EMER |   6 29300229-ROUT |

* indicates ticket # is repeated

Total Tickets: 7

ROUT - NOTI-ROUTINE                   |    2
REPA - NOTI-REPAIR                    |    1
EMER - EMER-EMERGENCY                 |    3
UPDA - NOTI-UPDATE                    |    1

Please call (713) 432-0365 if this data does
not match the tickets you received on 10/20/02





LONESTAR
SUMM
DAILY AUDIT OF TICKETS SENT ON 10/20/02

Date/Time: 10/21/02 04:30:01 AM
Receiving Terminal: TWC10

Seq #   Ticket #    Seq #   Ticket #    Seq #   Ticket #    Seq #   Ticket #    
----- ------------  ----- ------------  ----- ------------  ----- ------------  
   1 29200305-EMER |   5 29200033-ROUT |   9 29300041-EMER |  13 29300171-ROUT |
   2 29200029-ROUT |   6 29200039-ROUT |  10 29300046-EMER |  14 29300187-EMER |
   3 29200030-ROUT |   7 29200050-ROUT |  11 29300065-EMER |  15 29300234-ROUT |
   4 29200031-ROUT |   8 29200153-ROUT |  12 29300084-EMER |

* indicates ticket # is repeated

Total Tickets: 15

EMER - EMER-EMERGENCY                 |    6
ROUT - NOTI-ROUTINE                   |    9

Please call (713) 432-0365 if this data does
not match the tickets you received on 10/20/02





LONESTAR
SUMM
DAILY AUDIT OF TICKETS SENT ON 10/20/02

Date/Time: 10/21/02 04:30:01 AM
Receiving Terminal: TWC30

Seq #   Ticket #    Seq #   Ticket #    Seq #   Ticket #    Seq #   Ticket #    
----- ------------  ----- ------------  ----- ------------  ----- ------------  
   1 29200137-EMER |   6 29200141-ROUT |  10 29300047-REPA |  14 29300062-REPA |
   2 29200098-REPA |   7 29200239-ROUT |  11 29300048-REPA |  15*29300193-EMER |
   3 29200082-REPA |   8 29200393-ROUT |  12 29300054-EMER |  16 29300193-EMER |
   4 29200096-ROUT |   9 29200400-ROUT |  13 29104575-ROUT |  17 29300194-EMER |
   5 29200097-ROUT |

* indicates ticket # is repeated

Total Tickets: 17

EMER - EMER-EMERGENCY                 |    5
REPA - NOTI-REPAIR                    |    5
ROUT - NOTI-ROUTINE                   |    7

Please call (713) 432-0365 if this data does
not match the tickets you received on 10/20/02





LONESTAR
SUMM
DAILY AUDIT OF TICKETS SENT ON 10/20/02

Date/Time: 10/21/02 04:30:01 AM
Receiving Terminal: TWC20

Seq #   Ticket #    Seq #   Ticket #    Seq #   Ticket #    Seq #   Ticket #    
----- ------------  ----- ------------  ----- ------------  ----- ------------  
   1 29300172-EMER |

* indicates ticket # is repeated

Total Tickets: 1

EMER - EMER-EMERGENCY                 |    1

Please call (713) 432-0365 if this data does
not match the tickets you received on 10/20/02





Jns*|/uRVo+=
