
0
Date/Time :  5-14-02 at  1:19

MISSU
SUMM
DAILY AUDIT OF TICKETS SENT ON  5/13/02

Date/Time: 05/14/02 12:30:00 AM
Receiving Terminal: JTV02

Seq #   Ticket #    Seq #   Ticket #    Seq #   Ticket #    Seq #   Ticket #    
----- ------------  ----- ------------  ----- ------------  ----- ------------  
   1   351304-UPDT |  23   352466-48HR |  45   352919-48HR |  67   354149-UPDT |
   2   351315-48HR |  24   352471-48HR |  46   352927-48HR |  68   354151-UPDT |
   3   351322-48HR |  25   352478-48HR |  47   352956-48HR |  69   354154-UPDT |
   4   351490-ETKT |  26   352480-48HR |  48   352963-48HR |  70   354155-UPDT |
   5   351595-48HR |  27   341211-CORR |  49   352936-48HR |  71   354157-UPDT |
   6   351637-48HR |  28   352596-48HR |  50   352976-48HR |  72   354160-UPDT |
   7   351668-48HR |  29   352645-48HR |  51   353030-48HR |  73   345340-CANC |
   8   351703-48HR |  30   352664-48HR |  52   353043-48HR |  74   354384-48HR |
   9   351845-UPDT |  31   352672-48HR |  53   353057-48HR |  75   354496-ETKT |
  10   351987-UPDT |  32   352723-UPDT |  54   353065-48HR |  76   354527-ETKT |
  11   352024-UPDT |  33   352731-UPDT |  55   353027-48HR |  77   354511-48HR |
  12   352074-ETKT |  34   352513-48HR |  56*  353142-ETKT |  78   354633-48HR |
  13   352100-UPDT |  35   352763-48HR |  57   353205-UPDT |  79   354654-48HR |
  14   352146-ETKT |  36   352796-48HR |  58   353210-UPDT |  80   354792-UPDT |
  15   320855-DSPC |  37   352654-48HR |  59   353351-48HR |  81   355154-48HR |
  16   352220-48HR |  38   352701-48HR |  60   353142-CANC |  82   355093-48HR |
  17   352431-48HR |  39   352834-48HR |  61   353401-ETKT |  83   355172-48HR |
  18   352440-48HR |  40   352914-UPDT |  62   353528-48HR |  84   354714-48HR |
  19   352443-48HR |  41   352859-48HR |  63   353611-ETKT |  85   354729-48HR |
  20   352395-PTKT |  42   352891-48HR |  64   353834-STKT |  86   354748-48HR |
  21   352451-48HR |  43   352899-48HR |  65   326682-CORR |  87   354759-48HR |
  22   352461-UPDT |  44   352910-48HR |  66   354148-UPDT |  88   355242-48HR |

* indicates ticket # is repeated

Total Tickets: 88

UPDT - UPDATE                         |   19
48HR - STANDARD                       |   54
ETKT - EMERGENCY                      |    8
DSPC - DISCREPANCY                    |    1
PTKT - INSUFFICIENT NOTICE            |    1
CORR - CORRECTION                     |    2
CANC - CANCELLATION                   |    2
STKT - SHORT NOTICE                   |    1

Please call (410) 712-0056 if this data does
not match the tickets you received on  5/13/02



0
Date/Time :  5-14-02 at  1:19

MISSU
SUMM
DAILY AUDIT OF TICKETS SENT ON  5/13/02

Date/Time: 05/14/02 12:30:00 AM
Receiving Terminal: MTV01

Seq #   Ticket #    Seq #   Ticket #    Seq #   Ticket #    Seq #   Ticket #    
----- ------------  ----- ------------  ----- ------------  ----- ------------  
   1   331947-NR   |  35   351984-UPDT |  69   353368-48HR | 103   354402-UPDT |
   2   334486-NR   |  36   352024-UPDT |  70   353693-UPDT | 104   354404-UPDT |
   3   334721-NR   |  37   351993-48HR |  71   354019-UPDT | 105   354409-UPDT |
   4   337515-NR   |  38   352134-ETKT |  72   354132-UPDT | 106   354410-UPDT |
   5   337723-NR   |  39   352110-48HR |  73   354133-UPDT | 107   354414-UPDT |
   6   339081-NR   |  40   352273-48HR |  74   354135-UPDT | 108   354416-UPDT |
   7   339464-NR   |  41   352289-48HR |  75   354166-UPDT | 109   354418-UPDT |
   8   339472-NR   |  42   352298-48HR |  76   354140-48HR | 110   354420-UPDT |
   9   339530-NR   |  43   352325-48HR |  77   354168-ETKT | 111   354423-UPDT |
  10   340812-NR   |  44   352387-48HR |  78   354229-48HR | 112   354424-UPDT |
  11   341085-NR   |  45   352399-UPDT |  79   354320-48HR | 113   354428-UPDT |
  12   341180-NR   |  46   352407-48HR |  80   354332-STKT | 114   354429-UPDT |
  13   341565-NR   |  47   352414-48HR |  81   354336-48HR | 115   354431-UPDT |
  14   341850-NR   |  48   352420-48HR |  82   354345-UPDT | 116   354433-UPDT |
  15   342115-NR   |  49   352484-ETKT |  83   354344-48HR | 117   354435-UPDT |
  16   342867-NR   |  50   352461-UPDT |  84   354349-48HR | 118   354440-UPDT |
  17   343293-NR   |  51   352472-UPDT |  85   354350-UPDT | 119   354441-UPDT |
  18   351239-ETKT |  52   352636-ETKT |  86   354355-UPDT | 120   354444-UPDT |
  19   351243-ETKT |  53   352655-48HR |  87   354358-UPDT | 121   354417-48HR |
  20   351338-48HR |  54   352653-ETKT |  88   354361-UPDT | 122   334111-DSPC |
  21   351342-48HR |  55   352679-48HR |  89   354362-UPDT | 123   354809-48HR |
  22   351345-48HR |  56   352711-48HR |  90   354363-UPDT | 124   354881-48HR |
  23   351349-48HR |  57   352727-48HR |  91   354366-UPDT | 125   354917-48HR |
  24   351354-48HR |  58   352717-48HR |  92   354367-UPDT | 126   355041-STKT |
  25   351547-UPDT |  59   352838-ETKT |  93   354371-UPDT | 127   311942-CANC |
  26   351593-48HR |  60   352829-48HR |  94   354373-UPDT | 128   354677-48HR |
  27   351643-UPDT |  61   352880-48HR |  95   354375-UPDT | 129   354714-48HR |
  28   351636-ETKT |  62   352736-ETKT |  96   354377-UPDT | 130   354729-48HR |
  29   351655-48HR |  63   353052-UPDT |  97   354388-UPDT | 131   355258-48HR |
  30   351673-48HR |  64   353225-ETKT |  98   354392-UPDT | 132   355387-UPDT |
  31   351769-48HR |  65   353380-ETKT |  99   354393-UPDT | 133   355390-UPDT |
  32   351786-48HR |  66   353464-48HR | 100   354396-UPDT | 134   355394-UPDT |
  33   351864-48HR |  67   353476-48HR | 101   354397-UPDT | 135   355483-48HR |
  34   351970-48HR |  68   353580-48HR | 102   354399-UPDT | 136   355510-48HR |

* indicates ticket # is repeated

Total Tickets: 136

  NR - NO RESPONSE                    |   17
ETKT - EMERGENCY                      |   12
48HR - STANDARD                       |   49
UPDT - UPDATE                         |   54
STKT - SHORT NOTICE                   |    2
DSPC - DISCREPANCY                    |    1
CANC - CANCELLATION                   |    1

Please call (410) 712-0056 if this data does
not match the tickets you received on  5/13/02



0
Date/Time :  5-14-02 at  1:19

MISSU
SUMM
DAILY AUDIT OF TICKETS SENT ON  5/13/02

Date/Time: 05/14/02 12:30:00 AM
Receiving Terminal: PEP04

Seq #   Ticket #    Seq #   Ticket #    Seq #   Ticket #    Seq #   Ticket #    
----- ------------  ----- ------------  ----- ------------  ----- ------------  
   1   352494-48HR |   4   352755-UPDT |   6   352875-48HR |   8   354486-RELC |
   2   352743-UPDT |   5   352844-48HR |   7   354146-48HR |   9   354727-UPDT |
   3   352750-UPDT |

* indicates ticket # is repeated

Total Tickets: 9

48HR - STANDARD                       |    4
UPDT - UPDATE                         |    4
RELC - RELOCATE                       |    1

Please call (410) 712-0056 if this data does
not match the tickets you received on  5/13/02



0
Date/Time :  5-14-02 at  1:19

MISSU
SUMM
DAILY AUDIT OF TICKETS SENT ON  5/13/02

Date/Time: 05/14/02 12:30:00 AM
Receiving Terminal: STAR01

Seq #   Ticket #    Seq #   Ticket #    Seq #   Ticket #    Seq #   Ticket #    
----- ------------  ----- ------------  ----- ------------  ----- ------------  
   1   337069-NR   |  11   351770-48HR |  20   353044-48HR |  29   353902-UPDT |
   2   339227-NR   |  12   351629-CANC |  21   353130-ETKT |  30   334109-CORR |
   3   342487-NR   |  13   351662-CANC |  22   353132-48HR |  31   354067-48HR |
   4   351490-ETKT |  14   351860-UPDT |  23   353303-48HR |  32   354086-48HR |
   5*  351629-48HR |  15   352010-UPDT |  24   353868-UPDT |  33   354330-48HR |
   6*  351662-48HR |  16   352041-ETKT |  25   353870-UPDT |  34   354337-48HR |
   7   351716-ETKT |  17   352886-UPDT |  26   353874-UPDT |  35   354292-48HR |
   8   351695-48HR |  18   352895-UPDT |  27   353877-UPDT |  36   354675-48HR |
   9   351735-48HR |  19   352900-UPDT |  28   353878-UPDT |  37   355402-UPDT |
  10   351753-48HR |

* indicates ticket # is repeated

Total Tickets: 37

  NR - NO RESPONSE                    |    3
ETKT - EMERGENCY                      |    4
48HR - STANDARD                       |   15
CANC - CANCELLATION                   |    2
UPDT - UPDATE                         |   12
CORR - CORRECTION                     |    1

Please call (410) 712-0056 if this data does
not match the tickets you received on  5/13/02



0
Date/Time :  5-14-02 at  1:19

MISSU
SUMM
DAILY AUDIT OF TICKETS SENT ON  5/13/02

Date/Time: 05/14/02 12:30:00 AM
Receiving Terminal: WGL06

Seq #   Ticket #    Seq #   Ticket #    Seq #   Ticket #    Seq #   Ticket #    
----- ------------  ----- ------------  ----- ------------  ----- ------------  
   1   327627-NR   | 195   352029-UPDT | 389   353318-UPDT | 583   354363-UPDT |
   2   331947-NR   | 196   352031-UPDT | 390   353321-UPDT | 584   354366-UPDT |
   3   333672-NR   | 197   352035-UPDT | 391   353324-UPDT | 585   354360-48HR |
   4   333867-NR   | 198   352022-STKT | 392   353327-UPDT | 586   354367-UPDT |
   5   334486-NR   | 199   352025-48HR | 393   353330-UPDT | 587   354371-UPDT |
   6   334721-NR   | 200   352039-UPDT | 394   353331-UPDT | 588   354373-UPDT |
   7   334789-NR   | 201   352041-ETKT | 395   353336-UPDT | 589   354375-UPDT |
   8   335087-NR   | 202   351916-48HR | 396   353337-UPDT | 590   354368-48HR |
   9   335092-NR   | 203   351993-48HR | 397   353338-UPDT | 591   354365-48HR |
  10   335310-NR   | 204   340327-CORR | 398   353339-UPDT | 592   345340-CANC |
  11   336684-NR   | 205   352081-UPDT | 399   353340-UPDT | 593   354381-48HR |
  12   337000-NR   | 206   352086-UPDT | 400   353341-UPDT | 594   354377-UPDT |
  13   337069-NR   | 207   352074-ETKT | 401   353344-UPDT | 595   354388-UPDT |
  14   337320-NR   | 208   352100-UPDT | 402   353351-48HR | 596   354392-UPDT |
  15   337515-NR   | 209   352121-UPDT | 403   353353-48HR | 597   354393-UPDT |
  16   337723-NR   | 210   352146-ETKT | 404   353380-ETKT | 598   354396-UPDT |
  17   337963-NR   | 211   352134-ETKT | 405   353360-48HR | 599   354387-48HR |
  18   338201-NR   | 212   320855-DSPC | 406   353142-CANC | 600   354397-UPDT |
  19   338259-NR   | 213   352108-PTKT | 407   353371-48HR | 601   354399-UPDT |
  20   339081-NR   | 214   320503-CORR | 408   353378-48HR | 602   354402-UPDT |
  21   339102-NR   | 215   352110-48HR | 409   353387-48HR | 603   354404-UPDT |
  22   339126-NR   | 216   352124-48HR | 410   353403-48HR | 604   354409-UPDT |
  23   339227-NR   | 217   352140-48HR | 411   353401-ETKT | 605   354258-48HR |
  24   339250-NR   | 218   352149-48HR | 412   351738-48HR | 606   354384-48HR |
  25   339263-NR   | 219   352180-UPDT | 413   352045-48HR | 607   354400-48HR |
  26   339306-NR   | 220   352198-48HR | 414   353395-48HR | 608   354410-UPDT |
  27   339338-NR   | 221   352214-48HR | 415   353423-48HR | 609   354413-48HR |
  28   339349-NR   | 222   352220-48HR | 416   353530-ETKT | 610   354414-UPDT |
  29   339452-NR   | 223   352244-UPDT | 417   353548-ETKT | 611   354416-UPDT |
  30   339464-NR   | 224   352246-48HR | 418   353553-ETKT | 612   354418-UPDT |
  31   339472-NR   | 225   352249-UPDT | 419   353446-48HR | 613   354420-UPDT |
  32   339530-NR   | 226   352251-UPDT | 420   353464-48HR | 614   354421-48HR |
  33   339594-NR   | 227   352253-UPDT | 421   353476-48HR | 615   354423-UPDT |
  34   340140-NR   | 228   352258-UPDT | 422   353510-48HR | 616   354424-UPDT |
  35   340310-NR   | 229   352260-UPDT | 423   353519-48HR | 617   354426-48HR |
  36*  340327-NR   | 230   352264-UPDT | 424   353521-48HR | 618   354428-UPDT |
  37   340345-NR   | 231   352266-UPDT | 425   353528-48HR | 619   354429-UPDT |
  38   340454-NR   | 232   352265-ETKT | 426   353573-48HR | 620   354431-UPDT |
  39   340471-NR   | 233   352273-48HR | 427   353592-ETKT | 621   354433-UPDT |
  40   340493-NR   | 234   352287-UPDT | 428   353611-ETKT | 622   354434-48HR |
  41   340541-NR   | 235   352289-48HR | 429   353373-48HR | 623   354435-UPDT |
  42   340812-NR   | 236   352316-ETKT | 430   353580-48HR | 624   354439-48HR |
  43   340856-NR   | 237   343124-CORR | 431   353618-UPDT | 625   354440-UPDT |
  44   340957-NR   | 238   352279-48HR | 432   353578-STKT | 626   354441-UPDT |
  45   340978-NR   | 239   352281-48HR | 433   352551-48HR | 627   354444-UPDT |
  46   341085-NR   | 240   352292-48HR | 434   353368-48HR | 628   354445-48HR |
  47   341121-NR   | 241   352298-48HR | 435   353504-48HR | 629   354449-48HR |
  48   341180-NR   | 242   352301-UPDT | 436   353584-48HR | 630   354417-48HR |
  49   341302-NR   | 243   352308-UPDT | 437   353627-48HR | 631   354450-48HR |
  50   341341-NR   | 244   352319-UPDT | 438   353650-48HR | 632   354453-48HR |
  51   341375-NR   | 245   352325-48HR | 439   353450-48HR | 633   354458-48HR |
  52   341517-NR   | 246   352357-UPDT | 440   353693-UPDT | 634   354459-UPDT |
  53   341527-NR   | 247   352369-48HR | 441   353703-48HR | 635   354464-48HR |
  54   341565-NR   | 248   352378-UPDT | 442   353200-48HR | 636   354471-48HR |
  55   341850-NR   | 249   352379-48HR | 443   353721-48HR | 637   354436-48HR |
  56   342013-NR   | 250   352387-48HR | 444   353750-UPDT | 638   354463-STKT |
  57   342028-NR   | 251   352389-UPDT | 445   353303-48HR | 639   354476-48HR |
  58   342044-NR   | 252   352399-UPDT | 446   353785-UPDT | 640   354493-UPDT |
  59   342074-NR   | 253   352407-48HR | 447   353788-UPDT | 641   354497-UPDT |
  60   342115-NR   | 254   352414-48HR | 448   353791-UPDT | 642   354496-ETKT |
  61   342145-NR   | 255   352420-48HR | 449   353794-UPDT | 643   354525-UPDT |
  62   342487-NR   | 256   352425-48HR | 450   353798-UPDT | 644   354527-ETKT |
  63   342578-NR   | 257   352431-48HR | 451   353800-UPDT | 645   354511-48HR |
  64   342587-NR   | 258   352440-48HR | 452   353790-48HR | 646   354533-UPDT |
  65*  342665-NR   | 259   352443-48HR | 453   353809-UPDT | 647   354535-UPDT |
  66   342679-NR   | 260   352484-ETKT | 454   353824-UPDT | 648   354542-UPDT |
  67*  342683-NR   | 261   352395-PTKT | 455   353834-STKT | 649   354546-UPDT |
  68*  342691-NR   | 262   352451-48HR | 456   353748-48HR | 650   354552-UPDT |
  69*  342696-NR   | 263   352461-UPDT | 457   353858-UPDT | 651   354531-48HR |
  70*  342701-NR   | 264   352466-48HR | 458   353862-UPDT | 652   354555-UPDT |
  71   342778-NR   | 265   352471-48HR | 459   353864-UPDT | 653   354561-UPDT |
  72   342863-NR   | 266   352472-UPDT | 460   353868-UPDT | 654   354526-48HR |
  73   342867-NR   | 267   352478-48HR | 461   353870-UPDT | 655   354572-UPDT |
  74   342911-NR   | 268   352480-48HR | 462   353872-UPDT | 656   354577-UPDT |
  75   342993-NR   | 269   352515-48HR | 463   353874-UPDT | 657   354587-UPDT |
  76   343096-NR   | 270   352536-48HR | 464   353877-UPDT | 658   354592-UPDT |
  77   343165-NR   | 271   352548-ETKT | 465   353878-UPDT | 659   354596-UPDT |
  78   343182-NR   | 272   341211-CORR | 466   353881-UPDT | 660   354606-UPDT |
  79   343192-NR   | 273   352636-ETKT | 467*  353837-ETKT | 661   354633-48HR |
  80   343198-NR   | 274   323111-CORR | 468   353884-UPDT | 662   353837-CORR |
  81   343293-NR   | 275   323135-CORR | 469   353885-UPDT | 663   350776-CANC |
  82   351239-ETKT | 276   323140-CORR | 470   353886-UPDT | 664   354629-48HR |
  83   351243-ETKT | 277   352009-48HR | 471   353890-UPDT | 665   354648-48HR |
  84   351249-ETKT | 278   352568-48HR | 472   353902-UPDT | 666   354649-48HR |
  85   351268-ETKT | 279   352570-48HR | 473   353904-UPDT | 667   354654-48HR |
  86   351304-UPDT | 280   352573-48HR | 474   353909-UPDT | 668   354675-48HR |
  87   351308-48HR | 281   352596-48HR | 475   353910-UPDT | 669   354663-48HR |
  88   351315-48HR | 282   352626-48HR | 476   353912-UPDT | 670   354697-48HR |
  89   351316-UPDT | 283   352645-48HR | 477   353913-UPDT | 671   334111-DSPC |
  90   351322-48HR | 284   352647-48HR | 478   353915-UPDT | 672   354768-48HR |
  91   351334-48HR | 285   352655-48HR | 479   353920-UPDT | 673   354792-UPDT |
  92   351338-48HR | 286   352653-ETKT | 480   353922-UPDT | 674   354806-48HR |
  93   351342-48HR | 287   352664-48HR | 481   353938-48HR | 675   354809-48HR |
  94   351345-48HR | 288   352672-48HR | 482   353942-48HR | 676   354826-48HR |
  95   335630-CORR | 289   352679-48HR | 483   353947-48HR | 677   354836-48HR |
  96   351349-48HR | 290   352703-48HR | 484   353962-UPDT | 678   354837-UPDT |
  97   351354-48HR | 291   352697-48HR | 485   353965-UPDT | 679   354907-STKT |
  98   351353-UPDT | 292   352711-48HR | 486   353968-UPDT | 680   354854-UPDT |
  99   351359-48HR | 293   352723-UPDT | 487   353972-UPDT | 681   354893-48HR |
 100   351352-ETKT | 294   352731-UPDT | 488   353977-UPDT | 682   354901-48HR |
 101   351400-ETKT | 295   352727-48HR | 489   353979-UPDT | 683   354881-48HR |
 102   351384-48HR | 296   352744-48HR | 490   353982-UPDT | 684   354914-48HR |
 103   351406-48HR | 297   352513-48HR | 491   353984-UPDT | 685   354935-48HR |
 104   351417-48HR | 298   352717-48HR | 492   353990-UPDT | 686   354917-48HR |
 105   351453-48HR | 299   352763-48HR | 493   353994-UPDT | 687   355016-48HR |
 106   351480-48HR | 300   351541-CORR | 494   353995-48HR | 688   355021-UPDT |
 107   351490-ETKT | 301   352210-48HR | 495   354012-ETKT | 689   355022-48HR |
 108   351515-48HR | 302   352778-48HR | 496   354019-UPDT | 690   355036-48HR |
 109*  351541-UPDT | 303   352808-48HR | 497   354026-48HR | 691   355037-UPDT |
 110   351542-UPDT | 304   352796-48HR | 498   325656-CORR | 692   355042-UPDT |
 111   351547-UPDT | 305   352838-ETKT | 499   334109-CORR | 693   355047-UPDT |
 112   351587-ETKT | 306   352865-ETKT | 500   354044-48HR | 694   355052-UPDT |
 113   351598-ETKT | 307   352654-48HR | 501   354051-UPDT | 695   355055-UPDT |
 114   351568-48HR | 308   352701-48HR | 502   354055-UPDT | 696   355064-UPDT |
 115   351583-48HR | 309   352829-48HR | 503   354057-UPDT | 697   355070-UPDT |
 116   351593-48HR | 310   352886-UPDT | 504   354067-48HR | 698   355041-STKT |
 117   351594-48HR | 311   352895-UPDT | 505   354070-48HR | 699   355063-48HR |
 118   351595-48HR | 312   352900-UPDT | 506   354076-48HR | 700   355079-UPDT |
 119   351596-48HR | 313   352909-UPDT | 507   354081-48HR | 701   311942-CANC |
 120   351597-48HR | 314   352834-48HR | 508   326682-CORR | 702   355081-48HR |
 121   351602-48HR | 315   352896-ETKT | 509   354086-48HR | 703   355085-UPDT |
 122   351611-48HR | 316   352914-UPDT | 510   354092-48HR | 704   355087-48HR |
 123   351639-UPDT | 317   352709-48HR | 511   354095-48HR | 705   355103-48HR |
 124   351643-UPDT | 318   352880-48HR | 512   354099-48HR | 706   355116-48HR |
 125   351636-ETKT | 319   352859-48HR | 513   354107-48HR | 707   355141-UPDT |
 126   351652-ETKT | 320   352891-48HR | 514   354113-48HR | 708   355145-UPDT |
 127*  351629-48HR | 321   352899-48HR | 515   354119-48HR | 709   355149-UPDT |
 128   351635-48HR | 322   352910-48HR | 516   354126-48HR | 710   355153-UPDT |
 129   351637-48HR | 323   352912-48HR | 517   354131-48HR | 711   355156-UPDT |
 130   351646-UPDT | 324   352857-48HR | 518   354132-UPDT | 712   355160-UPDT |
 131   351649-48HR | 325   352919-48HR | 519   354133-UPDT | 713   355161-UPDT |
 132   351655-48HR | 326   352927-48HR | 520   354135-UPDT | 714   355162-UPDT |
 133   351660-48HR | 327   352933-48HR | 521   354141-48HR | 715   354512-48HR |
 134   351668-48HR | 328   352956-48HR | 522   354147-48HR | 716   355164-UPDT |
 135*  351662-48HR | 329   352966-48HR | 523   354148-UPDT | 717   355165-UPDT |
 136   351673-48HR | 330   352963-48HR | 524   354149-UPDT | 718   355169-UPDT |
 137   351690-48HR | 331   352936-48HR | 525   354151-UPDT | 719   355154-48HR |
 138*  351657-ETKT | 332   352976-48HR | 526   354154-UPDT | 720   355171-UPDT |
 139   351703-48HR | 333   352736-ETKT | 527   354071-48HR | 721   355173-UPDT |
 140   351657-CORR | 334   352990-48HR | 528   354155-UPDT | 722   355175-UPDT |
 141   351701-ETKT | 335   353000-UPDT | 529   354156-48HR | 723   355179-UPDT |
 142   351715-ETKT | 336   353011-UPDT | 530   354157-UPDT | 724   355093-48HR |
 143   351716-ETKT | 337   353022-48HR | 531   354160-UPDT | 725   355172-48HR |
 144   351732-ETKT | 338   352915-48HR | 532   354166-UPDT | 726   355182-UPDT |
 145   351695-48HR | 339   353030-48HR | 533   354169-48HR | 727   354677-48HR |
 146   351719-UPDT | 340   353043-48HR | 534   354140-48HR | 728   355130-48HR |
 147   351735-48HR | 341   353049-48HR | 535   354168-ETKT | 729   355184-UPDT |
 148   351753-48HR | 342   353052-UPDT | 536   354177-48HR | 730   354714-48HR |
 149   351769-48HR | 343   353057-48HR | 537   354178-48HR | 731   354729-48HR |
 150   351770-48HR | 344   353044-48HR | 538   354194-48HR | 732   354736-48HR |
 151   351629-CANC | 345   353064-48HR | 539   354203-48HR | 733   354748-48HR |
 152   351786-48HR | 346   353065-48HR | 540   354207-UPDT | 734   354759-48HR |
 153   351798-48HR | 347   353070-UPDT | 541   354208-48HR | 735   355185-UPDT |
 154   351662-CANC | 348   353071-48HR | 542   354217-48HR | 736   355189-UPDT |
 155   351807-48HR | 349   353027-48HR | 543   354225-48HR | 737   355191-UPDT |
 156   351781-48HR | 350   353075-48HR | 544   354228-48HR | 738   355192-UPDT |
 157   342665-CORR | 351   353114-ETKT | 545   354237-48HR | 739   355199-UPDT |
 158   342683-CORR | 352   353130-ETKT | 546   354242-48HR | 740   355203-UPDT |
 159   342691-CORR | 353*  353142-ETKT | 547   354243-48HR | 741   355204-UPDT |
 160   342696-CORR | 354   350557-CANC | 548   354245-48HR | 742   355207-UPDT |
 161   342701-CORR | 355   353132-48HR | 549   354251-48HR | 743   355148-48HR |
 162   351811-48HR | 356   353166-48HR | 550   354259-48HR | 744   355210-UPDT |
 163   351843-UPDT | 357   353225-ETKT | 551   354261-48HR | 745   355214-UPDT |
 164   351852-STKT | 358   353184-48HR | 552   354272-48HR | 746   355242-48HR |
 165   351845-UPDT | 359   353204-48HR | 553   354274-48HR | 747   355274-48HR |
 166   351850-48HR | 360   353205-UPDT | 554   354229-48HR | 748   355258-48HR |
 167   351800-48HR | 361   353210-UPDT | 555   354247-48HR | 749   355285-48HR |
 168   351853-UPDT | 362   353218-UPDT | 556   354282-48HR | 750   355267-48HR |
 169   351854-UPDT | 363   353223-48HR | 557   354294-48HR | 751   355299-48HR |
 170   351860-UPDT | 364   353235-48HR | 558   354202-48HR | 752   355297-48HR |
 171   351856-48HR | 365   353236-48HR | 559   354299-48HR | 753   355309-48HR |
 172   351863-UPDT | 366   353243-48HR | 560   354312-48HR | 754   355339-UPDT |
 173   351868-UPDT | 367   353251-48HR | 561   354314-48HR | 755   355346-48HR |
 174   351869-48HR | 368   353271-UPDT | 562   354322-48HR | 756   355378-UPDT |
 175   351871-UPDT | 369   353273-UPDT | 563   354324-UPDT | 757   355382-UPDT |
 176   351865-48HR | 370   353275-UPDT | 564   354320-48HR | 758   355385-UPDT |
 177   351895-48HR | 371   353279-UPDT | 565   354330-48HR | 759   355387-UPDT |
 178   351818-48HR | 372   353281-UPDT | 566   354323-48HR | 760   355390-UPDT |
 179   351906-ETKT | 373   353283-UPDT | 567   354332-STKT | 761   355386-ETKT |
 180   351864-48HR | 374   353286-UPDT | 568   354336-48HR | 762   355394-UPDT |
 181   351904-48HR | 375   353289-UPDT | 569   354337-48HR | 763   355396-UPDT |
 182   351942-48HR | 376   353294-UPDT | 570   354345-UPDT | 764   355399-UPDT |
 183   351970-48HR | 377   353298-UPDT | 571   354340-48HR | 765   355402-UPDT |
 184   351974-UPDT | 378   353299-UPDT | 572   354344-48HR | 766   355438-48HR |
 185   351982-UPDT | 379   353301-UPDT | 573   354292-48HR | 767   355471-48HR |
 186   351984-UPDT | 380   353305-UPDT | 574   354339-48HR | 768   355476-48HR |
 187   351987-UPDT | 381   353307-UPDT | 575   354349-48HR | 769   355479-48HR |
 188   351996-UPDT | 382   353276-ETKT | 576   354350-UPDT | 770   355483-48HR |
 189   352000-UPDT | 383   353309-UPDT | 577   354348-48HR | 771   355477-48HR |
 190   352004-UPDT | 384   353310-UPDT | 578   354346-48HR | 772   355484-48HR |
 191   352010-UPDT | 385   353311-UPDT | 579   354355-UPDT | 773   355504-48HR |
 192   352014-UPDT | 386   353312-UPDT | 580   354358-UPDT | 774   355510-48HR |
 193   351452-48HR | 387   353314-UPDT | 581   354361-UPDT | 775   355513-48HR |
 194   352024-UPDT | 388   353316-UPDT | 582   354362-UPDT |

* indicates ticket # is repeated

Total Tickets: 775

  NR - NO RESPONSE                    |   81
ETKT - EMERGENCY                      |   49
UPDT - UPDATE                         |  267
48HR - STANDARD                       |  340
CORR - CORRECTION                     |   19
CANC - CANCELLATION                   |    7
STKT - SHORT NOTICE                   |    8
DSPC - DISCREPANCY                    |    2
PTKT - INSUFFICIENT NOTICE            |    2

Please call (410) 712-0056 if this data does
not match the tickets you received on  5/13/02



0
Date/Time :  5-14-02 at  1:19

MISSU
SUMM
DAILY AUDIT OF TICKETS SENT ON  5/13/02

Date/Time: 05/14/02 12:30:00 AM
Receiving Terminal: TDC01

Seq #   Ticket #    Seq #   Ticket #    Seq #   Ticket #    Seq #   Ticket #    
----- ------------  ----- ------------  ----- ------------  ----- ------------  
   1   351248-ETKT |  84   352312-48HR | 167   353062-UPDT | 250   354162-48HR |
   2   351253-ETKT |  85   352152-CANC | 168   353066-48HR | 251   354176-48HR |
   3   351260-ETKT |  86   346462-CORR | 169   353072-48HR | 252   354182-48HR |
   4   351269-ETKT |  87*  352481-48HR | 170   353074-48HR | 253   353509-48HR |
   5   351306-ETKT |  88   352572-UPDT | 171   352481-CANC | 254   354302-48HR |
   6   351298-48HR |  89   352606-UPDT | 172   353269-UPDT | 255   354406-48HR |
   7   351318-48HR |  90   352618-48HR | 173   353277-UPDT | 256   354540-48HR |
   8   351329-48HR |  91   352633-48HR | 174   353389-UPDT | 257   354543-48HR |
   9   351339-48HR |  92   352644-48HR | 175   353390-UPDT | 258   354575-48HR |
  10   351343-48HR |  93   352661-48HR | 176   353391-UPDT | 259   354597-48HR |
  11   351347-48HR |  94   352667-48HR | 177   353157-48HR | 260   354611-48HR |
  12   351360-48HR |  95   352669-48HR | 178   353533-48HR | 261   354634-ETKT |
  13   351361-48HR |  96   352674-48HR | 179   353577-48HR | 262   354664-48HR |
  14   351365-48HR |  97   352678-48HR | 180   353579-48HR | 263   354910-UPDT |
  15   351428-48HR |  98   352684-48HR | 181   353583-48HR | 264   354286-48HR |
  16   351435-48HR |  99   352692-48HR | 182   353586-48HR | 265   355188-48HR |
  17   351440-48HR | 100   352702-48HR | 183   353587-48HR | 266   355201-48HR |
  18   351442-48HR | 101   352707-48HR | 184   353588-48HR | 267   355213-48HR |
  19   351447-48HR | 102   352646-PTKT | 185   353590-48HR | 268   355218-48HR |
  20   351454-UPDT | 103   352710-48HR | 186   353591-48HR | 269   355223-48HR |
  21   351462-UPDT | 104   352719-48HR | 187   353594-48HR | 270   355227-48HR |
  22   351448-PTKT | 105   352725-48HR | 188   353595-48HR | 271   355229-48HR |
  23   351468-48HR | 106   352734-48HR | 189   353596-48HR | 272   355231-48HR |
  24   351477-48HR | 107   352741-48HR | 190   353600-48HR | 273   355234-48HR |
  25   351488-UPDT | 108   352745-48HR | 191   353602-48HR | 274   355239-48HR |
  26   351491-UPDT | 109   352749-UPDT | 192   353603-48HR | 275   355249-48HR |
  27   351494-UPDT | 110   352752-48HR | 193   353606-48HR | 276   355253-48HR |
  28   351496-UPDT | 111   352757-UPDT | 194   353608-48HR | 277   355255-48HR |
  29   351497-UPDT | 112   352760-48HR | 195   353610-48HR | 278   355256-48HR |
  30*  351500-48HR | 113   352767-48HR | 196   353613-48HR | 279   355259-48HR |
  31   351500-CANC | 114   352770-48HR | 197   353615-48HR | 280   355262-48HR |
  32   351502-UPDT | 115   352774-48HR | 198   353621-48HR | 281   355266-48HR |
  33   351508-UPDT | 116   352775-48HR | 199   353623-48HR | 282   355268-48HR |
  34   351509-48HR | 117   352773-48HR | 200   353631-48HR | 283   355273-48HR |
  35   351510-UPDT | 118   352780-48HR | 201   353643-48HR | 284   355276-48HR |
  36   351511-UPDT | 119   352540-48HR | 202   353683-48HR | 285   355281-48HR |
  37   351513-UPDT | 120   352785-ETKT | 203   353687-48HR | 286   355284-48HR |
  38   351589-48HR | 121   352786-48HR | 204   353690-48HR | 287   355287-48HR |
  39   351681-UPDT | 122   352787-48HR | 205   353694-48HR | 288   355288-48HR |
  40   351696-UPDT | 123   352788-48HR | 206   353697-48HR | 289   355296-48HR |
  41   351745-ETKT | 124   352794-48HR | 207   353700-48HR | 290   355303-48HR |
  42   351750-ETKT | 125   352799-48HR | 208   353707-48HR | 291   355306-48HR |
  43   351734-UPDT | 126   352810-48HR | 209   353714-48HR | 292   355313-48HR |
  44   351763-UPDT | 127   352818-48HR | 210   353717-48HR | 293   355319-48HR |
  45   351767-ETKT | 128   352722-48HR | 211   353722-48HR | 294   355323-48HR |
  46   351771-UPDT | 129   352819-48HR | 212   353727-48HR | 295   355324-48HR |
  47   351776-48HR | 130   352822-48HR | 213   353730-48HR | 296   355326-48HR |
  48   351782-UPDT | 131   352826-48HR | 214   353734-48HR | 297   355328-48HR |
  49   351787-48HR | 132   352830-48HR | 215   353742-48HR | 298   355332-48HR |
  50   351795-48HR | 133   352833-48HR | 216   353745-48HR | 299   355334-48HR |
  51   351806-48HR | 134   352832-PTKT | 217   353749-48HR | 300   355336-48HR |
  52   351812-48HR | 135   352836-48HR | 218   353755-48HR | 301   355343-48HR |
  53   351816-48HR | 136   352842-48HR | 219   353759-48HR | 302   355347-48HR |
  54   351821-48HR | 137   352846-48HR | 220   353762-48HR | 303   355353-48HR |
  55   351824-48HR | 138   352853-48HR | 221   353766-48HR | 304   355355-48HR |
  56   351828-48HR | 139   352881-48HR | 222   353770-48HR | 305   355357-48HR |
  57   351834-48HR | 140   352924-48HR | 223   353787-48HR | 306   355360-48HR |
  58   351840-48HR | 141   352940-48HR | 224   353796-48HR | 307   355365-48HR |
  59   351842-48HR | 142   352974-ETKT | 225   353801-48HR | 308   355367-48HR |
  60*  351846-48HR | 143   352946-48HR | 226   353804-48HR | 309   355369-48HR |
  61   351846-CANC | 144   352953-48HR | 227   353810-48HR | 310   355370-48HR |
  62   351851-48HR | 145   352959-48HR | 228   353817-48HR | 311   355372-48HR |
  63   351857-48HR | 146   352964-48HR | 229   353822-48HR | 312   355375-48HR |
  64   351896-ETKT | 147   353005-ETKT | 230   353827-48HR | 313   355380-48HR |
  65   352075-ETKT | 148   352975-48HR | 231   353830-48HR | 314*  355384-48HR |
  66   352077-ETKT | 149   352981-48HR | 232   353840-48HR | 315   355418-48HR |
  67   352107-48HR | 150   352984-48HR | 233   353848-48HR | 316   355419-48HR |
  68   352115-48HR | 151   352991-48HR | 234   353852-48HR | 317   355424-48HR |
  69   352120-48HR | 152   352994-48HR | 235   353860-48HR | 318   355433-48HR |
  70   352126-48HR | 153   352999-48HR | 236   353901-48HR | 319   355435-48HR |
  71   352129-48HR | 154   352843-ETKT | 237   353905-48HR | 320   355437-48HR |
  72   352132-48HR | 155   353004-48HR | 238   353802-48HR | 321   355441-48HR |
  73   352137-48HR | 156   353009-48HR | 239   353911-48HR | 322   355443-48HR |
  74   352139-48HR | 157   353021-48HR | 240   353914-48HR | 323   355445-48HR |
  75   352143-48HR | 158   353026-48HR | 241   353918-48HR | 324   355448-48HR |
  76   352147-48HR | 159   353031-48HR | 242   353924-48HR | 325   355449-48HR |
  77   352150-48HR | 160   353035-48HR | 243   353926-48HR | 326   355452-48HR |
  78*  352152-ETKT | 161   353039-48HR | 244   353927-48HR | 327   355465-48HR |
  79   352199-ETKT | 162   353042-48HR | 245   353928-48HR | 328   355467-48HR |
  80   352276-UPDT | 163   353048-48HR | 246   353931-48HR | 329   355384-CANC |
  81   352267-48HR | 164   353051-48HR | 247   353933-48HR | 330   355512-UPDT |
  82   352256-ETKT | 165   353054-48HR | 248   353936-48HR | 331   355515-ETKT |
  83   352274-ETKT | 166   353060-48HR | 249   354138-48HR | 332   355517-ETKT |

* indicates ticket # is repeated

Total Tickets: 332

ETKT - EMERGENCY                      |   22
48HR - STANDARD                       |  270
UPDT - UPDATE                         |   31
PTKT - INSUFFICIENT NOTICE            |    3
CANC - CANCELLATION                   |    5
CORR - CORRECTION                     |    1

Please call (410) 712-0056 if this data does
not match the tickets you received on  5/13/02



0
Date/Time :  5-14-02 at  1:19

MISSU
SUMM
DAILY AUDIT OF TICKETS SENT ON  5/13/02

Date/Time: 05/14/02 12:30:00 AM
Receiving Terminal: TMT01

Seq #   Ticket #    Seq #   Ticket #    Seq #   Ticket #    Seq #   Ticket #    
----- ------------  ----- ------------  ----- ------------  ----- ------------  
   1   335087-NR   |  62   352260-UPDT | 123   353842-UPDT | 183   354242-48HR |
   2   335092-NR   |  63   352266-UPDT | 124   353845-UPDT | 184   354243-48HR |
   3   335126-NR   |  64   352265-ETKT | 125   353851-UPDT | 185   354245-48HR |
   4   336684-NR   |  65   352287-UPDT | 126   353855-UPDT | 186   354251-48HR |
   5   337000-NR   |  66   352316-ETKT | 127   353858-UPDT | 187   354259-48HR |
   6   337069-NR   |  67   352515-48HR | 128   353862-UPDT | 188   354261-48HR |
   7   337320-NR   |  68   352536-48HR | 129   353864-UPDT | 189   354274-48HR |
   8   337963-NR   |  69   323111-CORR | 130   353868-UPDT | 190   354282-48HR |
   9   338201-NR   |  70   323135-CORR | 131   353870-UPDT | 191   354299-48HR |
  10   342487-NR   |  71   323140-CORR | 132   353872-UPDT | 192   354314-48HR |
  11   342578-NR   |  72   352009-48HR | 133   353874-UPDT | 193   354324-UPDT |
  12   342587-NR   |  73   352568-48HR | 134   353877-UPDT | 194   354323-48HR |
  13   351249-ETKT |  74   352626-48HR | 135   353878-UPDT | 195   354340-48HR |
  14   351308-48HR |  75   352647-48HR | 136   353881-UPDT | 196   354292-48HR |
  15   335630-CORR |  76   351541-CORR | 137   353884-UPDT | 197   354365-48HR |
  16   351359-48HR |  77   352783-48HR | 138   353885-UPDT | 198   354258-48HR |
  17   351400-ETKT |  78   352808-48HR | 139   353886-UPDT | 199   354463-STKT |
  18   351480-48HR |  79   352709-48HR | 140   353890-UPDT | 200   354493-UPDT |
  19*  351541-UPDT |  80   352990-48HR | 141   353902-UPDT | 201   354497-UPDT |
  20   351597-48HR |  81   353000-UPDT | 142   353904-UPDT | 202   354500-UPDT |
  21   351639-UPDT |  82   353011-UPDT | 143   353909-UPDT | 203   354502-UPDT |
  22   351652-ETKT |  83   353044-48HR | 144   353910-UPDT | 204   354505-UPDT |
  23*  351629-48HR |  84   353064-48HR | 145   353912-UPDT | 205   354525-UPDT |
  24*  351662-48HR |  85   353130-ETKT | 146   353962-UPDT | 206   354533-UPDT |
  25*  351657-ETKT |  86   353236-48HR | 147   353965-UPDT | 207   354535-UPDT |
  26   351657-CORR |  87   353289-UPDT | 148   353968-UPDT | 208   354542-UPDT |
  27   351701-ETKT |  88   353294-UPDT | 149   353972-UPDT | 209   354546-UPDT |
  28   351715-ETKT |  89   353298-UPDT | 150   353977-UPDT | 210   354552-UPDT |
  29   351716-ETKT |  90   353299-UPDT | 151   353979-UPDT | 211   354572-UPDT |
  30   351695-48HR |  91   353276-ETKT | 152   353982-UPDT | 212   354577-UPDT |
  31   351735-48HR |  92   353328-UPDT | 153   353984-UPDT | 213   354582-UPDT |
  32   351753-48HR |  93   353331-UPDT | 154   353990-UPDT | 214   350776-CANC |
  33   351770-48HR |  94   353336-UPDT | 155   353994-UPDT | 215   354648-48HR |
  34   351629-CANC |  95   353337-UPDT | 156   354057-UPDT | 216   354649-48HR |
  35   351662-CANC |  96   353338-UPDT | 157   354067-48HR | 217   354697-48HR |
  36   351811-48HR |  97   353339-UPDT | 158   354070-48HR | 218   354768-48HR |
  37   351850-48HR |  98   353340-UPDT | 159   354076-48HR | 219   354806-48HR |
  38   351856-48HR |  99   353341-UPDT | 160   354081-48HR | 220   354826-48HR |
  39   351863-UPDT | 100   353344-UPDT | 161   354086-48HR | 221   354893-48HR |
  40   351869-48HR | 101   353353-48HR | 162   354092-48HR | 222   354914-48HR |
  41   351865-48HR | 102   353360-48HR | 163   354095-48HR | 223   355021-UPDT |
  42   351895-48HR | 103   353403-48HR | 164   354099-48HR | 224   355042-UPDT |
  43   351942-48HR | 104   353423-48HR | 165   354107-48HR | 225   355047-UPDT |
  44   351974-UPDT | 105   353530-ETKT | 166   354113-48HR | 226   355052-UPDT |
  45   351996-UPDT | 106   353553-ETKT | 167   354119-48HR | 227   355070-UPDT |
  46   352000-UPDT | 107   353510-48HR | 168   354131-48HR | 228   355079-UPDT |
  47   352010-UPDT | 108   353519-48HR | 169   354141-48HR | 229   355085-UPDT |
  48   352014-UPDT | 109   353592-ETKT | 170   354147-48HR | 230   355116-48HR |
  49   352031-UPDT | 110   352551-48HR | 171   354071-48HR | 231   355130-48HR |
  50   352035-UPDT | 111   353504-48HR | 172   354156-48HR | 232   354736-48HR |
  51   352121-UPDT | 112   353584-48HR | 173   354169-48HR | 233   355199-UPDT |
  52   352108-PTKT | 113   353627-48HR | 174   354177-48HR | 234   355203-UPDT |
  53   320503-CORR | 114   353650-48HR | 175   354183-48HR | 235   355204-UPDT |
  54   352140-48HR | 115   353450-48HR | 176   354178-48HR | 236   355207-UPDT |
  55   352180-UPDT | 116   353785-UPDT | 177   354194-48HR | 237   355148-48HR |
  56   352198-48HR | 117   353788-UPDT | 178   354203-48HR | 238   355210-UPDT |
  57   352244-UPDT | 118   353791-UPDT | 179   354208-48HR | 239   355214-UPDT |
  58   352218-48HR | 119   353794-UPDT | 180   354217-48HR | 240   355274-48HR |
  59   352249-UPDT | 120   353798-UPDT | 181   354228-48HR | 241   355299-48HR |
  60   352253-UPDT | 121   353809-UPDT | 182   354237-48HR | 242   355504-48HR |
  61   352258-UPDT | 122   353824-UPDT |

* indicates ticket # is repeated

Total Tickets: 242

  NR - NO RESPONSE                    |   12
ETKT - EMERGENCY                      |   14
48HR - STANDARD                       |  101
CORR - CORRECTION                     |    7
UPDT - UPDATE                         |  103
CANC - CANCELLATION                   |    3
PTKT - INSUFFICIENT NOTICE            |    1
STKT - SHORT NOTICE                   |    1

Please call (410) 712-0056 if this data does
not match the tickets you received on  5/13/02



0
Date/Time :  5-14-02 at  1:20

MISSU
SUMM
DAILY AUDIT OF TICKETS SENT ON  5/13/02

Date/Time: 05/14/02 12:30:00 AM
Receiving Terminal: TMT02

Seq #   Ticket #    Seq #   Ticket #    Seq #   Ticket #    Seq #   Ticket #    
----- ------------  ----- ------------  ----- ------------  ----- ------------  
   1   332694-NR   |  64   351854-UPDT | 126   353371-48HR | 188   354471-48HR |
   2   333672-NR   |  65   351860-UPDT | 127   352045-48HR | 189   354436-48HR |
   3   333867-NR   |  66   351868-UPDT | 128   353395-48HR | 190   354476-48HR |
   4   334789-NR   |  67   351871-UPDT | 129   353548-ETKT | 191   354531-48HR |
   5   339102-NR   |  68   351904-48HR | 130   353446-48HR | 192   354566-UPDT |
   6   339126-NR   |  69   351982-UPDT | 131   353521-48HR | 193   354526-48HR |
   7   339227-NR   |  70   351452-48HR | 132   353703-48HR | 194   354587-UPDT |
   8   339250-NR   |  71   352029-UPDT | 133   353200-48HR | 195   354592-UPDT |
   9   339263-NR   |  72   352041-ETKT | 134   353721-48HR | 196   354596-UPDT |
  10   339306-NR   |  73   340327-CORR | 135   353750-UPDT | 197   354606-UPDT |
  11   339338-NR   |  74   352124-48HR | 136   353303-48HR | 198   353837-CORR |
  12   339349-NR   |  75   352149-48HR | 137   353800-UPDT | 199   354675-48HR |
  13   339452-NR   |  76   352214-48HR | 138   353790-48HR | 200   354663-48HR |
  14   340140-NR   |  77   352246-48HR | 139   353812-UPDT | 201   354907-STKT |
  15   340310-NR   |  78   352279-48HR | 140   353814-UPDT | 202   354935-48HR |
  16*  340327-NR   |  79   352281-48HR | 141   353748-48HR | 203   355016-48HR |
  17   340345-NR   |  80   352357-UPDT | 142*  353837-ETKT | 204   355022-48HR |
  18   340471-NR   |  81   352369-48HR | 143   353913-UPDT | 205   355036-48HR |
  19   340583-NR   |  82   352378-UPDT | 144   353915-UPDT | 206   355037-UPDT |
  20   340856-NR   |  83   352379-48HR | 145   353920-UPDT | 207   355055-UPDT |
  21   340957-NR   |  84   352389-UPDT | 146   353922-UPDT | 208   355064-UPDT |
  22   340978-NR   |  85   352460-48HR | 147   353938-48HR | 209   355063-48HR |
  23   341150-NR   |  86   352548-ETKT | 148   354000-UPDT | 210   355081-48HR |
  24   341341-NR   |  87   352570-48HR | 149   354002-UPDT | 211   355087-48HR |
  25   341517-NR   |  88   352573-48HR | 150   354012-ETKT | 212   355103-48HR |
  26   341527-NR   |  89   352865-ETKT | 151   354005-UPDT | 213   355141-UPDT |
  27   342013-NR   |  90   352886-UPDT | 152   354007-UPDT | 214   355145-UPDT |
  28   342028-NR   |  91   352895-UPDT | 153   354010-UPDT | 215   355149-UPDT |
  29   342044-NR   |  92   352900-UPDT | 154   354039-UPDT | 216   355153-UPDT |
  30   342074-NR   |  93   352909-UPDT | 155   325656-CORR | 217   355156-UPDT |
  31   342145-NR   |  94   352896-ETKT | 156   334109-CORR | 218   355160-UPDT |
  32*  342665-NR   |  95   352857-48HR | 157   354043-UPDT | 219   355161-UPDT |
  33   342679-NR   |  96   352980-48HR | 158   354044-48HR | 220   355162-UPDT |
  34*  342683-NR   |  97   352915-48HR | 159   354051-UPDT | 221   354512-48HR |
  35*  342691-NR   |  98   353070-UPDT | 160   354055-UPDT | 222   355164-UPDT |
  36*  342696-NR   |  99   353114-ETKT | 161   354207-UPDT | 223   355165-UPDT |
  37*  342701-NR   | 100   350557-CANC | 162   354225-48HR | 224   355169-UPDT |
  38   342778-NR   | 101   353132-48HR | 163   354272-48HR | 225   355171-UPDT |
  39   342993-NR   | 102   353166-48HR | 164   354294-48HR | 226   355173-UPDT |
  40   343096-NR   | 103   353204-48HR | 165   354312-48HR | 227   355175-UPDT |
  41   343165-NR   | 104   353218-UPDT | 166   354322-48HR | 228   355179-UPDT |
  42   343182-NR   | 105   353223-48HR | 167   354330-48HR | 229   355182-UPDT |
  43   343192-NR   | 106   353235-48HR | 168   354337-48HR | 230   355184-UPDT |
  44   343198-NR   | 107   353243-48HR | 169   354348-48HR | 231   355185-UPDT |
  45   351268-ETKT | 108   353251-48HR | 170   354346-48HR | 232   355189-UPDT |
  46   351515-48HR | 109   353275-UPDT | 171   354360-48HR | 233   355191-UPDT |
  47   351598-ETKT | 110   353279-UPDT | 172   354368-48HR | 234   355192-UPDT |
  48   351583-48HR | 111   353281-UPDT | 173   354381-48HR | 235   355168-48HR |
  49   351596-48HR | 112   353301-UPDT | 174   354387-48HR | 236   355267-48HR |
  50   351602-48HR | 113   353305-UPDT | 175   354400-48HR | 237   355297-48HR |
  51   351611-48HR | 114   353307-UPDT | 176   354413-48HR | 238   355339-UPDT |
  52   351690-48HR | 115   353309-UPDT | 177   354421-48HR | 239   355378-UPDT |
  53   351732-ETKT | 116   353310-UPDT | 178   354426-48HR | 240   355382-UPDT |
  54   351781-48HR | 117   353311-UPDT | 179   354434-48HR | 241   355385-UPDT |
  55   342665-CORR | 118   353312-UPDT | 180   354439-48HR | 242   355396-UPDT |
  56   342683-CORR | 119   353314-UPDT | 181   354445-48HR | 243   355399-UPDT |
  57   342691-CORR | 120   353316-UPDT | 182   354449-48HR | 244   355402-UPDT |
  58   342696-CORR | 121   353318-UPDT | 183   354450-48HR | 245   355471-48HR |
  59   342701-CORR | 122   353321-UPDT | 184   354453-48HR | 246   355476-48HR |
  60   351843-UPDT | 123   353324-UPDT | 185   354458-48HR | 247   355479-48HR |
  61   351852-STKT | 124   353327-UPDT | 186   354459-UPDT | 248   355484-48HR |
  62   351800-48HR | 125   353330-UPDT | 187   354464-48HR | 249   355513-48HR |
  63   351853-UPDT |

* indicates ticket # is repeated

Total Tickets: 249

  NR - NO RESPONSE                    |   44
ETKT - EMERGENCY                      |   11
48HR - STANDARD                       |   93
CORR - CORRECTION                     |    9
UPDT - UPDATE                         |   89
STKT - SHORT NOTICE                   |    2
CANC - CANCELLATION                   |    1

Please call (410) 712-0056 if this data does
not match the tickets you received on  5/13/02



0
Date/Time :  5-14-02 at  1:20

MISSU
SUMM
DAILY AUDIT OF TICKETS SENT ON  5/13/02

Date/Time: 05/14/02 12:30:00 AM
Receiving Terminal: TPG01

Seq #   Ticket #    Seq #   Ticket #    Seq #   Ticket #    Seq #   Ticket #    
----- ------------  ----- ------------  ----- ------------  ----- ------------  
   1   327627-NR   |  61   352039-UPDT | 121   352910-48HR | 181   354363-UPDT |
   2   331947-NR   |  62   351993-48HR | 122   352919-48HR | 182   354366-UPDT |
   3   333672-NR   |  63   352074-ETKT | 123   352927-48HR | 183   354367-UPDT |
   4   334486-NR   |  64   352100-UPDT | 124   352956-48HR | 184   354371-UPDT |
   5   334721-NR   |  65   352134-ETKT | 125   352966-48HR | 185   354373-UPDT |
   6   337515-NR   |  66   320855-DSPC | 126   352936-48HR | 186   354375-UPDT |
   7   337723-NR   |  67   352110-48HR | 127   352976-48HR | 187   345340-CANC |
   8   339081-NR   |  68   352220-48HR | 128   352736-ETKT | 188   354377-UPDT |
   9   339464-NR   |  69   352218-48HR | 129   353022-48HR | 189   354388-UPDT |
  10   339472-NR   |  70   352251-UPDT | 130   353030-48HR | 190   354392-UPDT |
  11   339530-NR   |  71   352264-UPDT | 131   353043-48HR | 191   354393-UPDT |
  12   339594-NR   |  72   352273-48HR | 132   353052-UPDT | 192   354396-UPDT |
  13   340812-NR   |  73   352289-48HR | 133   353057-48HR | 193   354397-UPDT |
  14   341085-NR   |  74   352292-48HR | 134   353065-48HR | 194   354399-UPDT |
  15   341180-NR   |  75   352298-48HR | 135   353071-48HR | 195   354402-UPDT |
  16   341565-NR   |  76   352325-48HR | 136   353075-48HR | 196   354404-UPDT |
  17   341850-NR   |  77   352387-48HR | 137*  353142-ETKT | 197   354409-UPDT |
  18   342115-NR   |  78   352399-UPDT | 138   353225-ETKT | 198   354384-48HR |
  19   342867-NR   |  79   352407-48HR | 139   353184-48HR | 199   354410-UPDT |
  20   343293-NR   |  80   352414-48HR | 140   353205-UPDT | 200   354414-UPDT |
  21   351239-ETKT |  81   352420-48HR | 141   353210-UPDT | 201   354416-UPDT |
  22   351243-ETKT |  82   352425-48HR | 142   353271-UPDT | 202   354418-UPDT |
  23   351304-UPDT |  83   352431-48HR | 143   353273-UPDT | 203   354420-UPDT |
  24   351315-48HR |  84   352440-48HR | 144   353351-48HR | 204   354423-UPDT |
  25   351316-UPDT |  85   352443-48HR | 145   353380-ETKT | 205   354424-UPDT |
  26   351322-48HR |  86   352484-ETKT | 146   353142-CANC | 206   354428-UPDT |
  27   351334-48HR |  87   352395-PTKT | 147   353378-48HR | 207   354429-UPDT |
  28   351338-48HR |  88   352451-48HR | 148   353401-ETKT | 208   354431-UPDT |
  29   351342-48HR |  89   352461-UPDT | 149   353464-48HR | 209   354433-UPDT |
  30   351345-48HR |  90   352471-48HR | 150   353476-48HR | 210   354435-UPDT |
  31   351349-48HR |  91   352472-UPDT | 151   353528-48HR | 211   354440-UPDT |
  32   351354-48HR |  92   352478-48HR | 152   353373-48HR | 212   354441-UPDT |
  33   351353-UPDT |  93   352480-48HR | 153   353580-48HR | 213   354444-UPDT |
  34   351352-ETKT |  94   341211-CORR | 154   353368-48HR | 214   354417-48HR |
  35   351384-48HR |  95   352636-ETKT | 155   353693-UPDT | 215   354527-ETKT |
  36   351490-ETKT |  96   352596-48HR | 156   353942-48HR | 216   354511-48HR |
  37   351542-UPDT |  97   352645-48HR | 157   353961-UPDT | 217   354633-48HR |
  38   351547-UPDT |  98   352655-48HR | 158   354019-UPDT | 218   334111-DSPC |
  39   351587-ETKT |  99   352653-ETKT | 159   354026-48HR | 219   354809-48HR |
  40   351593-48HR | 100   352664-48HR | 160   326682-CORR | 220   354881-48HR |
  41   351643-UPDT | 101   352672-48HR | 161   354132-UPDT | 221   354917-48HR |
  42   351636-ETKT | 102   352679-48HR | 162   354133-UPDT | 222   355041-STKT |
  43   351635-48HR | 103   352697-48HR | 163   354135-UPDT | 223   311942-CANC |
  44   351637-48HR | 104   352711-48HR | 164   354160-UPDT | 224   355154-48HR |
  45   351649-48HR | 105   352723-UPDT | 165   354166-UPDT | 225   355093-48HR |
  46   351655-48HR | 106   352731-UPDT | 166   354140-48HR | 226   355172-48HR |
  47   351660-48HR | 107   352727-48HR | 167   354168-ETKT | 227   354677-48HR |
  48   351668-48HR | 108   352513-48HR | 168   354229-48HR | 228   354714-48HR |
  49   351673-48HR | 109   352717-48HR | 169   354247-48HR | 229   354729-48HR |
  50   351703-48HR | 110   352763-48HR | 170   354320-48HR | 230   355242-48HR |
  51   351769-48HR | 111   352778-48HR | 171   354332-STKT | 231   355258-48HR |
  52   351786-48HR | 112   352796-48HR | 172   354336-48HR | 232   355346-48HR |
  53   351798-48HR | 113   352838-ETKT | 173   354345-UPDT | 233   355387-UPDT |
  54   351807-48HR | 114   352654-48HR | 174   354344-48HR | 234   355390-UPDT |
  55   351845-UPDT | 115   352701-48HR | 175   354349-48HR | 235   355386-ETKT |
  56   351864-48HR | 116   352829-48HR | 176   354350-UPDT | 236   355394-UPDT |
  57   351970-48HR | 117   352914-UPDT | 177   354355-UPDT | 237   355430-48HR |
  58   351984-UPDT | 118   352880-48HR | 178   354358-UPDT | 238   355483-48HR |
  59   351987-UPDT | 119   352859-48HR | 179   354361-UPDT | 239   355477-48HR |
  60   352024-UPDT | 120   352899-48HR | 180   354362-UPDT | 240   355510-48HR |

* indicates ticket # is repeated

Total Tickets: 240

  NR - NO RESPONSE                    |   20
ETKT - EMERGENCY                      |   20
UPDT - UPDATE                         |   73
48HR - STANDARD                       |  117
DSPC - DISCREPANCY                    |    2
PTKT - INSUFFICIENT NOTICE            |    1
CORR - CORRECTION                     |    2
CANC - CANCELLATION                   |    3
STKT - SHORT NOTICE                   |    2

Please call (410) 712-0056 if this data does
not match the tickets you received on  5/13/02



0
Date/Time :  5-14-02 at  1:20

MISSU
SUMM
DAILY AUDIT OF TICKETS SENT ON  5/13/02

Date/Time: 05/14/02 12:30:00 AM
Receiving Terminal: TRU01

Seq #   Ticket #    Seq #   Ticket #    Seq #   Ticket #    Seq #   Ticket #    
----- ------------  ----- ------------  ----- ------------  ----- ------------  
   1   335087-NR   |  58   352244-UPDT | 115   353791-UPDT | 171   354208-48HR |
   2   335092-NR   |  59   352249-UPDT | 116   353794-UPDT | 172   354217-48HR |
   3   335126-NR   |  60   352253-UPDT | 117   353809-UPDT | 173   354228-48HR |
   4   336684-NR   |  61   352258-UPDT | 118   353824-UPDT | 174   354237-48HR |
   5   337000-NR   |  62   352260-UPDT | 119   353858-UPDT | 175   354242-48HR |
   6   337069-NR   |  63   352266-UPDT | 120   353862-UPDT | 176   354243-48HR |
   7   337320-NR   |  64   352265-ETKT | 121   353864-UPDT | 177   354245-48HR |
   8   337963-NR   |  65   352287-UPDT | 122   353868-UPDT | 178   354251-48HR |
   9   338201-NR   |  66   352316-ETKT | 123   353870-UPDT | 179   354261-48HR |
  10   341787-NR   |  67   352515-48HR | 124   353872-UPDT | 180   354274-48HR |
  11   342487-NR   |  68   352536-48HR | 125   353874-UPDT | 181   354282-48HR |
  12   342578-NR   |  69   323111-CORR | 126   353877-UPDT | 182   354299-48HR |
  13   351249-ETKT |  70   323135-CORR | 127   353878-UPDT | 183   354314-48HR |
  14   351308-48HR |  71   323140-CORR | 128   353881-UPDT | 184   354324-UPDT |
  15   335630-CORR |  72   352009-48HR | 129   353884-UPDT | 185   354323-48HR |
  16   351359-48HR |  73   352568-48HR | 130   353885-UPDT | 186   354340-48HR |
  17   351400-ETKT |  74   352626-48HR | 131   353886-UPDT | 187   354292-48HR |
  18   351480-48HR |  75   352647-48HR | 132   353890-UPDT | 188   354365-48HR |
  19*  351541-UPDT |  76   351541-CORR | 133   353902-UPDT | 189   354258-48HR |
  20   351597-48HR |  77   352808-48HR | 134   353904-UPDT | 190   354463-STKT |
  21   351639-UPDT |  78   352709-48HR | 135   353909-UPDT | 191   354493-UPDT |
  22   351652-ETKT |  79   352990-48HR | 136   353962-UPDT | 192   354497-UPDT |
  23*  351629-48HR |  80   353000-UPDT | 137   353965-UPDT | 193   354525-UPDT |
  24*  351662-48HR |  81   353011-UPDT | 138   353968-UPDT | 194   354533-UPDT |
  25*  351657-ETKT |  82   353044-48HR | 139   353972-UPDT | 195   354535-UPDT |
  26   351657-CORR |  83   353064-48HR | 140   353977-UPDT | 196   354546-UPDT |
  27   351701-ETKT |  84   353130-ETKT | 141   353979-UPDT | 197   354552-UPDT |
  28   351715-ETKT |  85   353236-48HR | 142   353982-UPDT | 198   354555-UPDT |
  29   351716-ETKT |  86   353289-UPDT | 143   353984-UPDT | 199   354561-UPDT |
  30   351695-48HR |  87   353294-UPDT | 144   353990-UPDT | 200   354572-UPDT |
  31   351735-48HR |  88   353298-UPDT | 145   353994-UPDT | 201   350776-CANC |
  32   351753-48HR |  89   353299-UPDT | 146   354057-UPDT | 202   354648-48HR |
  33   351770-48HR |  90   353276-ETKT | 147   354067-48HR | 203   354697-48HR |
  34   351629-CANC |  91   353331-UPDT | 148   354070-48HR | 204   354768-48HR |
  35   351662-CANC |  92   353336-UPDT | 149   354076-48HR | 205   354806-48HR |
  36   351811-48HR |  93   353337-UPDT | 150   354081-48HR | 206   354826-48HR |
  37   351850-48HR |  94   353338-UPDT | 151   354086-48HR | 207   354914-48HR |
  38   351856-48HR |  95   353339-UPDT | 152   354092-48HR | 208   355021-UPDT |
  39   351863-UPDT |  96   353340-UPDT | 153   354095-48HR | 209   355042-UPDT |
  40   351865-48HR |  97   353341-UPDT | 154   354099-48HR | 210   355047-UPDT |
  41   351895-48HR |  98   353344-UPDT | 155   354107-48HR | 211   355070-UPDT |
  42   351818-48HR |  99   353360-48HR | 156   354113-48HR | 212   355079-UPDT |
  43   351942-48HR | 100   353403-48HR | 157   354119-48HR | 213   355085-UPDT |
  44   351974-UPDT | 101   353423-48HR | 158   354126-48HR | 214   355116-48HR |
  45   351996-UPDT | 102   353530-ETKT | 159   354131-48HR | 215   355130-48HR |
  46   352000-UPDT | 103   353553-ETKT | 160   354141-48HR | 216   354736-48HR |
  47   352004-UPDT | 104   353510-48HR | 161   354147-48HR | 217   355199-UPDT |
  48   352010-UPDT | 105   353519-48HR | 162   354071-48HR | 218   355203-UPDT |
  49   352014-UPDT | 106   353592-ETKT | 163   354156-48HR | 219   355204-UPDT |
  50   352031-UPDT | 107   352551-48HR | 164   354163-48HR | 220   355207-UPDT |
  51   352035-UPDT | 108   353504-48HR | 165   354169-48HR | 221   355210-UPDT |
  52   352121-UPDT | 109   353584-48HR | 166   354177-48HR | 222   355214-UPDT |
  53   352108-PTKT | 110   353627-48HR | 167   354183-48HR | 223   355274-48HR |
  54   320503-CORR | 111   353650-48HR | 168   354178-48HR | 224   355285-48HR |
  55   352140-48HR | 112   353450-48HR | 169   354194-48HR | 225   355299-48HR |
  56   352180-UPDT | 113   353785-UPDT | 170   354203-48HR | 226   355504-48HR |
  57   352198-48HR | 114   353788-UPDT |

* indicates ticket # is repeated

Total Tickets: 226

  NR - NO RESPONSE                    |   12
ETKT - EMERGENCY                      |   14
48HR - STANDARD                       |   97
CORR - CORRECTION                     |    7
UPDT - UPDATE                         |   91
CANC - CANCELLATION                   |    3
PTKT - INSUFFICIENT NOTICE            |    1
STKT - SHORT NOTICE                   |    1

Please call (410) 712-0056 if this data does
not match the tickets you received on  5/13/02



0
Date/Time :  5-14-02 at  1:20

MISSU
SUMM
DAILY AUDIT OF TICKETS SENT ON  5/13/02

Date/Time: 05/14/02 12:30:00 AM
Receiving Terminal: TRU02

Seq #   Ticket #    Seq #   Ticket #    Seq #   Ticket #    Seq #   Ticket #    
----- ------------  ----- ------------  ----- ------------  ----- ------------  
   1   333867-NR   |  49   342696-CORR |  96   353548-ETKT | 143   354476-48HR |
   2   334789-NR   |  50   342701-CORR |  97   353446-48HR | 144   354531-48HR |
   3   339102-NR   |  51   351843-UPDT |  98   353200-48HR | 145   354526-48HR |
   4   339126-NR   |  52   351852-STKT |  99   353721-48HR | 146   354587-UPDT |
   5   339227-NR   |  53   351800-48HR | 100   353750-UPDT | 147   354592-UPDT |
   6   339250-NR   |  54   351860-UPDT | 101   353303-48HR | 148   354596-UPDT |
   7   339263-NR   |  55   351868-UPDT | 102   353800-UPDT | 149   354606-UPDT |
   8   339338-NR   |  56   351871-UPDT | 103   353748-48HR | 150   353837-CORR |
   9   339349-NR   |  57   351904-48HR | 104*  353837-ETKT | 151   355016-48HR |
  10   339452-NR   |  58   351982-UPDT | 105   353913-UPDT | 152   355022-48HR |
  11   340140-NR   |  59   351452-48HR | 106   353915-UPDT | 153   355036-48HR |
  12*  340327-NR   |  60   352029-UPDT | 107   353920-UPDT | 154   355037-UPDT |
  13   340345-NR   |  61   352041-ETKT | 108   353922-UPDT | 155   355055-UPDT |
  14   340583-NR   |  62   340327-CORR | 109   353938-48HR | 156   355064-UPDT |
  15   340856-NR   |  63   352124-48HR | 110   354012-ETKT | 157   355103-48HR |
  16   340957-NR   |  64   352214-48HR | 111   325656-CORR | 158   355141-UPDT |
  17   340978-NR   |  65   352279-48HR | 112   334109-CORR | 159   355145-UPDT |
  18   341150-NR   |  66   352281-48HR | 113   354044-48HR | 160   355149-UPDT |
  19   341341-NR   |  67   352357-UPDT | 114   354051-UPDT | 161   355153-UPDT |
  20   341517-NR   |  68   352378-UPDT | 115   354055-UPDT | 162   355156-UPDT |
  21   341527-NR   |  69   352548-ETKT | 116   354207-UPDT | 163   355160-UPDT |
  22   342013-NR   |  70   352570-48HR | 117   354225-48HR | 164   355161-UPDT |
  23   342028-NR   |  71   352573-48HR | 118   354272-48HR | 165   355162-UPDT |
  24   342044-NR   |  72   352865-ETKT | 119   354294-48HR | 166   355164-UPDT |
  25   342074-NR   |  73   352886-UPDT | 120   354312-48HR | 167   355165-UPDT |
  26   342145-NR   |  74   352895-UPDT | 121   354322-48HR | 168   355169-UPDT |
  27*  342665-NR   |  75   352900-UPDT | 122   354330-48HR | 169   355171-UPDT |
  28   342679-NR   |  76   352909-UPDT | 123   354337-48HR | 170   355173-UPDT |
  29*  342683-NR   |  77   352896-ETKT | 124   354348-48HR | 171   355175-UPDT |
  30*  342691-NR   |  78   352980-48HR | 125   354346-48HR | 172   355179-UPDT |
  31*  342696-NR   |  79   352915-48HR | 126   354360-48HR | 173   355182-UPDT |
  32*  342701-NR   |  80   353114-ETKT | 127   354381-48HR | 174   355184-UPDT |
  33   342778-NR   |  81   350557-CANC | 128   354387-48HR | 175   355185-UPDT |
  34   342993-NR   |  82   353132-48HR | 129   354400-48HR | 176   355191-UPDT |
  35   343096-NR   |  83   353166-48HR | 130   354421-48HR | 177   355192-UPDT |
  36   343165-NR   |  84   353204-48HR | 131   354426-48HR | 178   355168-48HR |
  37   343198-NR   |  85   353218-UPDT | 132   354434-48HR | 179   355267-48HR |
  38   351268-ETKT |  86   353223-48HR | 133   354439-48HR | 180   355297-48HR |
  39   351515-48HR |  87   353235-48HR | 134   354445-48HR | 181   355339-UPDT |
  40   351598-ETKT |  88   353243-48HR | 135   354449-48HR | 182   355378-UPDT |
  41   351583-48HR |  89   353251-48HR | 136   354450-48HR | 183   355382-UPDT |
  42   351596-48HR |  90   353281-UPDT | 137   354453-48HR | 184   355385-UPDT |
  43   351602-48HR |  91   353301-UPDT | 138   354458-48HR | 185   355396-UPDT |
  44   351732-ETKT |  92   353330-UPDT | 139   354459-UPDT | 186   355399-UPDT |
  45   351781-48HR |  93   353371-48HR | 140   354464-48HR | 187   355402-UPDT |
  46   342665-CORR |  94   352045-48HR | 141   354471-48HR | 188   355484-48HR |
  47   342683-CORR |  95   353395-48HR | 142   354436-48HR | 189   355513-48HR |
  48   342691-CORR |

* indicates ticket # is repeated

Total Tickets: 189

  NR - NO RESPONSE                    |   37
ETKT - EMERGENCY                      |   11
48HR - STANDARD                       |   70
CORR - CORRECTION                     |    9
UPDT - UPDATE                         |   60
STKT - SHORT NOTICE                   |    1
CANC - CANCELLATION                   |    1

Please call (410) 712-0056 if this data does
not match the tickets you received on  5/13/02



0
Date/Time :  5-14-02 at  1:21

MISSU
SUMM
DAILY AUDIT OF TICKETS SENT ON  5/13/02

Date/Time: 05/14/02 12:30:00 AM
Receiving Terminal: WSS01

Seq #   Ticket #    Seq #   Ticket #    Seq #   Ticket #    Seq #   Ticket #    
----- ------------  ----- ------------  ----- ------------  ----- ------------  
   1   331947-NR   | 166   352035-UPDT | 331   353327-UPDT | 496   354349-48HR |
   2   333672-NR   | 167   352039-UPDT | 332   353330-UPDT | 497   354350-UPDT |
   3   333867-NR   | 168   352041-ETKT | 333   353331-UPDT | 498   354348-48HR |
   4   334486-NR   | 169   351993-48HR | 334   353336-UPDT | 499   354346-48HR |
   5   334721-NR   | 170   340327-CORR | 335   353337-UPDT | 500   354355-UPDT |
   6   335092-NR   | 171   352074-ETKT | 336   353338-UPDT | 501   354358-UPDT |
   7   335126-NR   | 172   352100-UPDT | 337   353339-UPDT | 502   354361-UPDT |
   8   336684-NR   | 173   352121-UPDT | 338   353340-UPDT | 503   354362-UPDT |
   9   337000-NR   | 174   352146-ETKT | 339   353341-UPDT | 504   354363-UPDT |
  10   337069-NR   | 175   352134-ETKT | 340   353344-UPDT | 505   354366-UPDT |
  11   337320-NR   | 176   320855-DSPC | 341   353351-48HR | 506   354360-48HR |
  12   337515-NR   | 177   352108-PTKT | 342   353380-ETKT | 507   354367-UPDT |
  13   337723-NR   | 178   320503-CORR | 343   353360-48HR | 508   354371-UPDT |
  14   337963-NR   | 179   352110-48HR | 344   353142-CANC | 509   354373-UPDT |
  15   338201-NR   | 180   352124-48HR | 345   353371-48HR | 510   354375-UPDT |
  16   339081-NR   | 181   352140-48HR | 346   353378-48HR | 511   354368-48HR |
  17   339102-NR   | 182   352149-48HR | 347   353403-48HR | 512   354365-48HR |
  18   339126-NR   | 183   352180-UPDT | 348   353401-ETKT | 513   345340-CANC |
  19   339227-NR   | 184   352198-48HR | 349   352045-48HR | 514   354381-48HR |
  20   339263-NR   | 185   352214-48HR | 350   353395-48HR | 515   354377-UPDT |
  21   339338-NR   | 186   352220-48HR | 351   353423-48HR | 516   354388-UPDT |
  22   339349-NR   | 187   352244-UPDT | 352   353530-ETKT | 517   354392-UPDT |
  23   339452-NR   | 188   352246-48HR | 353   353548-ETKT | 518   354393-UPDT |
  24   339464-NR   | 189   352249-UPDT | 354   353553-ETKT | 519   354396-UPDT |
  25   339472-NR   | 190   352253-UPDT | 355   353446-48HR | 520   354387-48HR |
  26   339530-NR   | 191   352258-UPDT | 356   353464-48HR | 521   354397-UPDT |
  27   339594-NR   | 192   352260-UPDT | 357   353476-48HR | 522   354399-UPDT |
  28   340140-NR   | 193   352266-UPDT | 358   353510-48HR | 523   354402-UPDT |
  29   340310-NR   | 194   352265-ETKT | 359   353519-48HR | 524   354404-UPDT |
  30*  340327-NR   | 195   352287-UPDT | 360   353521-48HR | 525   354409-UPDT |
  31   340345-NR   | 196   352316-ETKT | 361   353528-48HR | 526   354258-48HR |
  32   340471-NR   | 197   352279-48HR | 362   353592-ETKT | 527   354384-48HR |
  33   340812-NR   | 198   352281-48HR | 363   353611-ETKT | 528   354400-48HR |
  34   340856-NR   | 199   352292-48HR | 364   353580-48HR | 529   354410-UPDT |
  35   340957-NR   | 200   352325-48HR | 365   352551-48HR | 530   354413-48HR |
  36   340978-NR   | 201   352357-UPDT | 366   353368-48HR | 531   354414-UPDT |
  37   341085-NR   | 202   352369-48HR | 367   353504-48HR | 532   354416-UPDT |
  38   341150-NR   | 203   352378-UPDT | 368   353584-48HR | 533   354418-UPDT |
  39   341180-NR   | 204   352387-48HR | 369   353627-48HR | 534   354420-UPDT |
  40   341341-NR   | 205   352389-UPDT | 370   353650-48HR | 535   354421-48HR |
  41   341517-NR   | 206   352399-UPDT | 371   353450-48HR | 536   354423-UPDT |
  42   341527-NR   | 207   352407-48HR | 372   353703-48HR | 537   354424-UPDT |
  43   341565-NR   | 208   352414-48HR | 373   353200-48HR | 538   354426-48HR |
  44   341787-NR   | 209   352420-48HR | 374   353721-48HR | 539   354428-UPDT |
  45   341850-NR   | 210   352425-48HR | 375   353750-UPDT | 540   354429-UPDT |
  46   342013-NR   | 211   352431-48HR | 376   353303-48HR | 541   354431-UPDT |
  47   342028-NR   | 212   352440-48HR | 377   353791-UPDT | 542   354433-UPDT |
  48   342044-NR   | 213   352443-48HR | 378   353794-UPDT | 543   354434-48HR |
  49   342074-NR   | 214   352484-ETKT | 379   353800-UPDT | 544   354435-UPDT |
  50   342115-NR   | 215   352395-PTKT | 380   353790-48HR | 545   354439-48HR |
  51   342145-NR   | 216   352451-48HR | 381   353809-UPDT | 546   354440-UPDT |
  52   342487-NR   | 217   352461-UPDT | 382   353834-STKT | 547   354441-UPDT |
  53   342578-NR   | 218   352466-48HR | 383   353748-48HR | 548   354444-UPDT |
  54*  342665-NR   | 219   352471-48HR | 384   353862-UPDT | 549   354445-48HR |
  55   342679-NR   | 220   352472-UPDT | 385   353864-UPDT | 550   354449-48HR |
  56*  342683-NR   | 221   352478-48HR | 386   353868-UPDT | 551   354417-48HR |
  57*  342691-NR   | 222   352480-48HR | 387   353870-UPDT | 552   354450-48HR |
  58*  342696-NR   | 223   352548-ETKT | 388   353872-UPDT | 553   354453-48HR |
  59*  342701-NR   | 224   341211-CORR | 389   353874-UPDT | 554   354458-48HR |
  60   342778-NR   | 225   352636-ETKT | 390   353877-UPDT | 555   354459-UPDT |
  61   342867-NR   | 226   323111-CORR | 391   353878-UPDT | 556   354464-48HR |
  62   342993-NR   | 227   323135-CORR | 392   353881-UPDT | 557   354471-48HR |
  63   343096-NR   | 228   323140-CORR | 393*  353837-ETKT | 558   354436-48HR |
  64   343165-NR   | 229   352009-48HR | 394   353884-UPDT | 559   354463-STKT |
  65   343182-NR   | 230   352570-48HR | 395   353885-UPDT | 560   354476-48HR |
  66   343192-NR   | 231   352573-48HR | 396   353886-UPDT | 561   354500-UPDT |
  67   343198-NR   | 232   352596-48HR | 397   353890-UPDT | 562   354502-UPDT |
  68   343293-NR   | 233   352626-48HR | 398   353902-UPDT | 563   354505-UPDT |
  69   351239-ETKT | 234   352645-48HR | 399   353904-UPDT | 564   354496-ETKT |
  70   351243-ETKT | 235   352647-48HR | 400   353909-UPDT | 565   354525-UPDT |
  71   351249-ETKT | 236   352655-48HR | 401   353913-UPDT | 566   354527-ETKT |
  72   351268-ETKT | 237   352653-ETKT | 402   353915-UPDT | 567   354511-48HR |
  73   351304-UPDT | 238   352664-48HR | 403   353920-UPDT | 568   354533-UPDT |
  74   351308-48HR | 239   352672-48HR | 404   353922-UPDT | 569   354535-UPDT |
  75   351315-48HR | 240   352679-48HR | 405   353938-48HR | 570   354546-UPDT |
  76   351316-UPDT | 241   352697-48HR | 406   353942-48HR | 571   354552-UPDT |
  77   351322-48HR | 242   352711-48HR | 407   353962-UPDT | 572   354531-48HR |
  78   351338-48HR | 243   352723-UPDT | 408   353965-UPDT | 573   354526-48HR |
  79   351342-48HR | 244   352731-UPDT | 409   353968-UPDT | 574   354572-UPDT |
  80   351345-48HR | 245   352727-48HR | 410   353972-UPDT | 575   354587-UPDT |
  81   335630-CORR | 246   352513-48HR | 411   353977-UPDT | 576   354592-UPDT |
  82   351349-48HR | 247   352717-48HR | 412   353979-UPDT | 577   354596-UPDT |
  83   351354-48HR | 248   352763-48HR | 413   353982-UPDT | 578   354606-UPDT |
  84   351353-UPDT | 249   351541-CORR | 414   353984-UPDT | 579   354633-48HR |
  85   351359-48HR | 250   352778-48HR | 415   353990-UPDT | 580   353837-CORR |
  86   351352-ETKT | 251   352808-48HR | 416   353994-UPDT | 581   350776-CANC |
  87   351384-48HR | 252   352796-48HR | 417   354000-UPDT | 582   354648-48HR |
  88   351480-48HR | 253   352865-ETKT | 418   354002-UPDT | 583   354649-48HR |
  89   351490-ETKT | 254   352654-48HR | 419   354012-ETKT | 584   354654-48HR |
  90   351515-48HR | 255   352701-48HR | 420   354005-UPDT | 585   354675-48HR |
  91*  351541-UPDT | 256   352886-UPDT | 421   354007-UPDT | 586   354663-48HR |
  92   351542-UPDT | 257   352895-UPDT | 422   354010-UPDT | 587   354697-48HR |
  93   351547-UPDT | 258   352900-UPDT | 423   354019-UPDT | 588   334111-DSPC |
  94   351598-ETKT | 259   352909-UPDT | 424   354026-48HR | 589   354768-48HR |
  95   351583-48HR | 260   352834-48HR | 425   354039-UPDT | 590   354792-UPDT |
  96   351593-48HR | 261   352896-ETKT | 426   325656-CORR | 591   354806-48HR |
  97   351595-48HR | 262   352914-UPDT | 427   334109-CORR | 592   354809-48HR |
  98   351596-48HR | 263   352709-48HR | 428   354043-UPDT | 593   354826-48HR |
  99   351597-48HR | 264   352880-48HR | 429   354044-48HR | 594   354881-48HR |
 100   351602-48HR | 265   352859-48HR | 430   354051-UPDT | 595   354914-48HR |
 101   351611-48HR | 266   352891-48HR | 431   354055-UPDT | 596   354935-48HR |
 102   351639-UPDT | 267   352899-48HR | 432   354057-UPDT | 597   354917-48HR |
 103   351643-UPDT | 268   352910-48HR | 433   354067-48HR | 598   355016-48HR |
 104   351636-ETKT | 269   352857-48HR | 434   354070-48HR | 599   355021-UPDT |
 105   351652-ETKT | 270   352919-48HR | 435   354076-48HR | 600   355022-48HR |
 106*  351629-48HR | 271   352927-48HR | 436   354081-48HR | 601   355036-48HR |
 107   351635-48HR | 272   352956-48HR | 437   326682-CORR | 602   355037-UPDT |
 108   351637-48HR | 273   352963-48HR | 438   354086-48HR | 603   355042-UPDT |
 109   351649-48HR | 274   352976-48HR | 439   354092-48HR | 604   355047-UPDT |
 110   351655-48HR | 275   352736-ETKT | 440   354095-48HR | 605   355052-UPDT |
 111   351668-48HR | 276   352980-48HR | 441   354099-48HR | 606   355055-UPDT |
 112*  351662-48HR | 277   352990-48HR | 442   354107-48HR | 607   355064-UPDT |
 113   351673-48HR | 278   353000-UPDT | 443   354113-48HR | 608   355070-UPDT |
 114   351690-48HR | 279   353011-UPDT | 444   354119-48HR | 609   355041-STKT |
 115*  351657-ETKT | 280   353022-48HR | 445   354126-48HR | 610   355063-48HR |
 116   351703-48HR | 281   352915-48HR | 446   354131-48HR | 611   355079-UPDT |
 117   351657-CORR | 282   353030-48HR | 447   354132-UPDT | 612   311942-CANC |
 118   351715-ETKT | 283   353043-48HR | 448   354133-UPDT | 613   355081-48HR |
 119   351716-ETKT | 284   353049-48HR | 449   354135-UPDT | 614   355085-UPDT |
 120   351732-ETKT | 285   353052-UPDT | 450   354141-48HR | 615   355087-48HR |
 121   351695-48HR | 286   353057-48HR | 451   354147-48HR | 616   355103-48HR |
 122   351735-48HR | 287   353044-48HR | 452   354148-UPDT | 617   355116-48HR |
 123   351753-48HR | 288   353064-48HR | 453   354149-UPDT | 618   354512-48HR |
 124   351769-48HR | 289   353065-48HR | 454   354151-UPDT | 619   355154-48HR |
 125   351770-48HR | 290   353070-UPDT | 455   354154-UPDT | 620   355093-48HR |
 126   351629-CANC | 291   353027-48HR | 456   354071-48HR | 621   355172-48HR |
 127   351786-48HR | 292   353114-ETKT | 457   354155-UPDT | 622   354677-48HR |
 128   351798-48HR | 293   353130-ETKT | 458   354156-48HR | 623   355130-48HR |
 129   351662-CANC | 294*  353142-ETKT | 459   354157-UPDT | 624   354714-48HR |
 130   351807-48HR | 295   350557-CANC | 460   354160-UPDT | 625   354729-48HR |
 131   351781-48HR | 296   353132-48HR | 461   354166-UPDT | 626   354736-48HR |
 132   342665-CORR | 297   353166-48HR | 462   354169-48HR | 627   354748-48HR |
 133   342683-CORR | 298   353225-ETKT | 463   354140-48HR | 628   354759-48HR |
 134   342691-CORR | 299   353204-48HR | 464   354168-ETKT | 629   355199-UPDT |
 135   342696-CORR | 300   353205-UPDT | 465   354177-48HR | 630   355203-UPDT |
 136   342701-CORR | 301   353210-UPDT | 466   354178-48HR | 631   355204-UPDT |
 137   351811-48HR | 302   353218-UPDT | 467   354194-48HR | 632   355207-UPDT |
 138   351843-UPDT | 303   353223-48HR | 468   354208-48HR | 633   355210-UPDT |
 139   351852-STKT | 304   353235-48HR | 469   354225-48HR | 634   355214-UPDT |
 140   351850-48HR | 305   353236-48HR | 470   354228-48HR | 635   355242-48HR |
 141   351800-48HR | 306   353243-48HR | 471   354242-48HR | 636   355274-48HR |
 142   351854-UPDT | 307   353251-48HR | 472   354243-48HR | 637   355258-48HR |
 143   351860-UPDT | 308   353273-UPDT | 473   354245-48HR | 638   355285-48HR |
 144   351856-48HR | 309   353275-UPDT | 474   354261-48HR | 639   355267-48HR |
 145   351863-UPDT | 310   353279-UPDT | 475   354272-48HR | 640   355299-48HR |
 146   351868-UPDT | 311   353281-UPDT | 476   354274-48HR | 641   355297-48HR |
 147   351871-UPDT | 312   353283-UPDT | 477   354229-48HR | 642   355339-UPDT |
 148   351865-48HR | 313   353286-UPDT | 478   354247-48HR | 643   355346-48HR |
 149   351895-48HR | 314   353289-UPDT | 479   354282-48HR | 644   355378-UPDT |
 150   351864-48HR | 315   353294-UPDT | 480   354294-48HR | 645   355382-UPDT |
 151   351904-48HR | 316   353298-UPDT | 481   354299-48HR | 646   355385-UPDT |
 152   351942-48HR | 317   353299-UPDT | 482   354312-48HR | 647   355387-UPDT |
 153   351974-UPDT | 318   353301-UPDT | 483   354314-48HR | 648   355390-UPDT |
 154   351982-UPDT | 319   353305-UPDT | 484   354322-48HR | 649   355386-ETKT |
 155   351984-UPDT | 320   353307-UPDT | 485   354324-UPDT | 650   355394-UPDT |
 156   351987-UPDT | 321   353276-ETKT | 486   354320-48HR | 651   355396-UPDT |
 157   351996-UPDT | 322   353309-UPDT | 487   354330-48HR | 652   355399-UPDT |
 158   352000-UPDT | 323   353310-UPDT | 488   354323-48HR | 653   355402-UPDT |
 159   352004-UPDT | 324   353311-UPDT | 489   354332-STKT | 654   355483-48HR |
 160   352010-UPDT | 325   353312-UPDT | 490   354336-48HR | 655   355477-48HR |
 161   352014-UPDT | 326   353314-UPDT | 491   354337-48HR | 656   355484-48HR |
 162   351452-48HR | 327   353316-UPDT | 492   354345-UPDT | 657   355504-48HR |
 163   352024-UPDT | 328   353318-UPDT | 493   354340-48HR | 658   355510-48HR |
 164   352029-UPDT | 329   353321-UPDT | 494   354344-48HR | 659   355513-48HR |
 165   352031-UPDT | 330   353324-UPDT | 495   354292-48HR |

* indicates ticket # is repeated

Total Tickets: 659

  NR - NO RESPONSE                    |   68
ETKT - EMERGENCY                      |   44
UPDT - UPDATE                         |  226
48HR - STANDARD                       |  287
CORR - CORRECTION                     |   18
CANC - CANCELLATION                   |    7
STKT - SHORT NOTICE                   |    5
DSPC - DISCREPANCY                    |    2
PTKT - INSUFFICIENT NOTICE            |    2

Please call (410) 712-0056 if this data does
not match the tickets you received on  5/13/02



0
Date/Time :  5-14-02 at  1:21

MISSU
SUMM
DAILY AUDIT OF TICKETS SENT ON  5/13/02

Date/Time: 05/14/02 12:30:00 AM
Receiving Terminal: YPSM01

Seq #   Ticket #    Seq #   Ticket #    Seq #   Ticket #    Seq #   Ticket #    
----- ------------  ----- ------------  ----- ------------  ----- ------------  

* indicates ticket # is repeated

Total Tickets: 0


Please call (410) 712-0056 if this data does
not match the tickets you received on  5/13/02



0
Date/Time :  5-14-02 at  1:21

MISSU
SUMM
DAILY AUDIT OF TICKETS SENT ON  5/13/02

Date/Time: 05/14/02 12:30:00 AM
Receiving Terminal: KMC   02

Seq #   Ticket #    Seq #   Ticket #    Seq #   Ticket #    Seq #   Ticket #    
----- ------------  ----- ------------  ----- ------------  ----- ------------  
   1   336684-NR   |  11   352357-UPDT |  20   353870-UPDT |  29   354381-48HR |
   2   342487-NR   |  12   352709-48HR |  21   353874-UPDT |  30   354436-48HR |
   3   351308-48HR |  13   353218-UPDT |  22   353877-UPDT |  31   354531-48HR |
   4   351639-UPDT |  14   353338-UPDT |  23   353878-UPDT |  32   355070-UPDT |
   5   351701-ETKT |  15   353340-UPDT |  24   353902-UPDT |  33   355087-48HR |
   6   351860-UPDT |  16   353403-48HR |  25   325656-CORR |  34   355116-48HR |
   7   351865-48HR |  17   353530-ETKT |  26   354194-48HR |  35   355185-UPDT |
   8   351895-48HR |  18   353553-ETKT |  27   354237-48HR |  36   355299-48HR |
   9   351942-48HR |  19   353868-UPDT |  28   354245-48HR |  37   355385-UPDT |
  10   352031-UPDT |

* indicates ticket # is repeated

Total Tickets: 37

  NR - NO RESPONSE                    |    2
48HR - STANDARD                       |   15
UPDT - UPDATE                         |   16
ETKT - EMERGENCY                      |    3
CORR - CORRECTION                     |    1

Please call (410) 712-0056 if this data does
not match the tickets you received on  5/13/02



0
Date/Time :  5-14-02 at  1:22

MISSU
SUMM
DAILY AUDIT OF TICKETS SENT ON  5/13/02

Date/Time: 05/14/02 12:30:00 AM
Receiving Terminal: JTV06

Seq #   Ticket #    Seq #   Ticket #    Seq #   Ticket #    Seq #   Ticket #    
----- ------------  ----- ------------  ----- ------------  ----- ------------  
   1   351643-UPDT |   7   352664-48HR |  12   353065-48HR |  17   353611-ETKT |
   2   351987-UPDT |   8   352717-48HR |  13*  353142-ETKT |  18   353368-48HR |
   3   352024-UPDT |   9   352763-48HR |  14   353142-CANC |  19   354140-48HR |
   4   352461-UPDT |  10   352829-48HR |  15   353401-ETKT |  20   345340-CANC |
   5   352596-48HR |  11   352899-48HR |  16   353528-48HR |  21   355510-48HR |
   6   352655-48HR |

* indicates ticket # is repeated

Total Tickets: 21

UPDT - UPDATE                         |    4
48HR - STANDARD                       |   12
ETKT - EMERGENCY                      |    3
CANC - CANCELLATION                   |    2

Please call (410) 712-0056 if this data does
not match the tickets you received on  5/13/02



0
Date/Time :  5-14-02 at  1:24

MISSU
SUMM
DAILY AUDIT OF TICKETS SENT ON  5/13/02

Date/Time: 05/14/02 12:30:00 AM
Receiving Terminal: WGL07

Seq #   Ticket #    Seq #   Ticket #    Seq #   Ticket #    Seq #   Ticket #    
----- ------------  ----- ------------  ----- ------------  ----- ------------  
   1   351248-ETKT |  84   352312-48HR | 167   353062-UPDT | 250   354162-48HR |
   2   351253-ETKT |  85   352152-CANC | 168   353066-48HR | 251   354176-48HR |
   3   351260-ETKT |  86   346462-CORR | 169   353072-48HR | 252   354182-48HR |
   4   351269-ETKT |  87*  352481-48HR | 170   353074-48HR | 253   353509-48HR |
   5   351306-ETKT |  88   352572-UPDT | 171   352481-CANC | 254   354302-48HR |
   6   351298-48HR |  89   352606-UPDT | 172   353269-UPDT | 255   354406-48HR |
   7   351318-48HR |  90   352618-48HR | 173   353277-UPDT | 256   354540-48HR |
   8   351329-48HR |  91   352633-48HR | 174   353389-UPDT | 257   354543-48HR |
   9   351339-48HR |  92   352644-48HR | 175   353390-UPDT | 258   354575-48HR |
  10   351343-48HR |  93   352661-48HR | 176   353391-UPDT | 259   354597-48HR |
  11   351347-48HR |  94   352667-48HR | 177   353157-48HR | 260   354611-48HR |
  12   351360-48HR |  95   352669-48HR | 178   353533-48HR | 261   354634-ETKT |
  13   351361-48HR |  96   352674-48HR | 179   353577-48HR | 262   354664-48HR |
  14   351365-48HR |  97   352678-48HR | 180   353579-48HR | 263   354910-UPDT |
  15   351428-48HR |  98   352684-48HR | 181   353583-48HR | 264   354286-48HR |
  16   351435-48HR |  99   352692-48HR | 182   353586-48HR | 265   355188-48HR |
  17   351440-48HR | 100   352702-48HR | 183   353587-48HR | 266   355201-48HR |
  18   351442-48HR | 101   352707-48HR | 184   353588-48HR | 267   355213-48HR |
  19   351447-48HR | 102   352646-PTKT | 185   353590-48HR | 268   355218-48HR |
  20   351454-UPDT | 103   352710-48HR | 186   353591-48HR | 269   355223-48HR |
  21   351462-UPDT | 104   352719-48HR | 187   353594-48HR | 270   355227-48HR |
  22   351448-PTKT | 105   352725-48HR | 188   353595-48HR | 271   355229-48HR |
  23   351468-48HR | 106   352734-48HR | 189   353596-48HR | 272   355231-48HR |
  24   351477-48HR | 107   352741-48HR | 190   353600-48HR | 273   355234-48HR |
  25   351488-UPDT | 108   352745-48HR | 191   353602-48HR | 274   355239-48HR |
  26   351491-UPDT | 109   352749-UPDT | 192   353603-48HR | 275   355249-48HR |
  27   351494-UPDT | 110   352752-48HR | 193   353606-48HR | 276   355253-48HR |
  28   351496-UPDT | 111   352757-UPDT | 194   353608-48HR | 277   355255-48HR |
  29   351497-UPDT | 112   352760-48HR | 195   353610-48HR | 278   355256-48HR |
  30*  351500-48HR | 113   352767-48HR | 196   353613-48HR | 279   355259-48HR |
  31   351500-CANC | 114   352770-48HR | 197   353615-48HR | 280   355262-48HR |
  32   351502-UPDT | 115   352774-48HR | 198   353621-48HR | 281   355266-48HR |
  33   351508-UPDT | 116   352775-48HR | 199   353623-48HR | 282   355268-48HR |
  34   351509-48HR | 117   352773-48HR | 200   353631-48HR | 283   355273-48HR |
  35   351510-UPDT | 118   352780-48HR | 201   353643-48HR | 284   355276-48HR |
  36   351511-UPDT | 119   352540-48HR | 202   353683-48HR | 285   355281-48HR |
  37   351513-UPDT | 120   352785-ETKT | 203   353687-48HR | 286   355284-48HR |
  38   351589-48HR | 121   352786-48HR | 204   353690-48HR | 287   355287-48HR |
  39   351681-UPDT | 122   352787-48HR | 205   353694-48HR | 288   355288-48HR |
  40   351696-UPDT | 123   352788-48HR | 206   353697-48HR | 289   355296-48HR |
  41   351745-ETKT | 124   352794-48HR | 207   353700-48HR | 290   355303-48HR |
  42   351750-ETKT | 125   352799-48HR | 208   353707-48HR | 291   355306-48HR |
  43   351734-UPDT | 126   352810-48HR | 209   353714-48HR | 292   355313-48HR |
  44   351763-UPDT | 127   352818-48HR | 210   353717-48HR | 293   355319-48HR |
  45   351767-ETKT | 128   352722-48HR | 211   353722-48HR | 294   355323-48HR |
  46   351771-UPDT | 129   352819-48HR | 212   353727-48HR | 295   355324-48HR |
  47   351776-48HR | 130   352822-48HR | 213   353730-48HR | 296   355326-48HR |
  48   351782-UPDT | 131   352826-48HR | 214   353734-48HR | 297   355328-48HR |
  49   351787-48HR | 132   352830-48HR | 215   353742-48HR | 298   355332-48HR |
  50   351795-48HR | 133   352833-48HR | 216   353745-48HR | 299   355334-48HR |
  51   351806-48HR | 134   352832-PTKT | 217   353749-48HR | 300   355336-48HR |
  52   351812-48HR | 135   352836-48HR | 218   353755-48HR | 301   355343-48HR |
  53   351816-48HR | 136   352842-48HR | 219   353759-48HR | 302   355347-48HR |
  54   351821-48HR | 137   352846-48HR | 220   353762-48HR | 303   355353-48HR |
  55   351824-48HR | 138   352853-48HR | 221   353766-48HR | 304   355355-48HR |
  56   351828-48HR | 139   352881-48HR | 222   353770-48HR | 305   355357-48HR |
  57   351834-48HR | 140   352924-48HR | 223   353787-48HR | 306   355360-48HR |
  58   351840-48HR | 141   352940-48HR | 224   353796-48HR | 307   355365-48HR |
  59   351842-48HR | 142   352974-ETKT | 225   353801-48HR | 308   355367-48HR |
  60*  351846-48HR | 143   352946-48HR | 226   353804-48HR | 309   355369-48HR |
  61   351846-CANC | 144   352953-48HR | 227   353810-48HR | 310   355370-48HR |
  62   351851-48HR | 145   352959-48HR | 228   353817-48HR | 311   355372-48HR |
  63   351857-48HR | 146   352964-48HR | 229   353822-48HR | 312   355375-48HR |
  64   351896-ETKT | 147   353005-ETKT | 230   353827-48HR | 313   355380-48HR |
  65   352075-ETKT | 148   352975-48HR | 231   353830-48HR | 314*  355384-48HR |
  66   352077-ETKT | 149   352981-48HR | 232   353840-48HR | 315   355418-48HR |
  67   352107-48HR | 150   352984-48HR | 233   353848-48HR | 316   355419-48HR |
  68   352115-48HR | 151   352991-48HR | 234   353852-48HR | 317   355424-48HR |
  69   352120-48HR | 152   352994-48HR | 235   353860-48HR | 318   355433-48HR |
  70   352126-48HR | 153   352999-48HR | 236   353901-48HR | 319   355435-48HR |
  71   352129-48HR | 154   352843-ETKT | 237   353905-48HR | 320   355437-48HR |
  72   352132-48HR | 155   353004-48HR | 238   353802-48HR | 321   355441-48HR |
  73   352137-48HR | 156   353009-48HR | 239   353911-48HR | 322   355443-48HR |
  74   352139-48HR | 157   353021-48HR | 240   353914-48HR | 323   355445-48HR |
  75   352143-48HR | 158   353026-48HR | 241   353918-48HR | 324   355448-48HR |
  76   352147-48HR | 159   353031-48HR | 242   353924-48HR | 325   355449-48HR |
  77   352150-48HR | 160   353035-48HR | 243   353926-48HR | 326   355452-48HR |
  78*  352152-ETKT | 161   353039-48HR | 244   353927-48HR | 327   355465-48HR |
  79   352199-ETKT | 162   353042-48HR | 245   353928-48HR | 328   355467-48HR |
  80   352276-UPDT | 163   353048-48HR | 246   353931-48HR | 329   355384-CANC |
  81   352267-48HR | 164   353051-48HR | 247   353933-48HR | 330   355512-UPDT |
  82   352256-ETKT | 165   353054-48HR | 248   353936-48HR | 331   355515-ETKT |
  83   352274-ETKT | 166   353060-48HR | 249   354138-48HR | 332   355517-ETKT |

* indicates ticket # is repeated

Total Tickets: 332

ETKT - EMERGENCY                      |   22
48HR - STANDARD                       |  270
UPDT - UPDATE                         |   31
PTKT - INSUFFICIENT NOTICE            |    3
CANC - CANCELLATION                   |    5
CORR - CORRECTION                     |    1

Please call (410) 712-0056 if this data does
not match the tickets you received on  5/13/02



0
Date/Time :  5-14-02 at  1:25

MISSU
SUMM
DAILY AUDIT OF TICKETS SENT ON  5/13/02

Date/Time: 05/14/02 12:30:00 AM
Receiving Terminal: YPSW01

Seq #   Ticket #    Seq #   Ticket #    Seq #   Ticket #    Seq #   Ticket #    
----- ------------  ----- ------------  ----- ------------  ----- ------------  

* indicates ticket # is repeated

Total Tickets: 0


Please call (410) 712-0056 if this data does
not match the tickets you received on  5/13/02


