UQST0A *EOD* JULIE 07/31/02 00:03:07

        ATTENTION JULIE MEMBERS : END OF DAY AUDIT
THE FOLLOWING IS A DAILY AUDIT OF ALL DIG NUMBERS AND SEQUENCE
NUMBERS RECEIVED AT YOUR LOCATION YESTERDAY. PLEASE VERIFY THAT
YOU HAVE RECEIVED EACH LOCATE REQUEST.

2110010 00001 / 2110011 00002 / 2110012 00003 / 2110029 00004 / 2110034 00005
1972073+00006 / 2110038 00007 / 2110040 00008 / 2110058 00009 / 2110062 00010
2110063 00011 / 2110064 00012 / 2110066 00013 / 2110070 00014 / 2110084 00015
2110086 00016 / 2110089 00017 / 1990163+00018 / 2110095 00019 / 2110096 00020
2110098 00021 / 2110100 00022 / 2110101 00023 / 2110029+00024 / 2110104 00025
2110106 00026 / 2110108 00027 / 2110110 00028 / 2110011+00029 / 2110117 00030
2110121 00031 / 2110130 00032 / 2110136 00033 / 2110140 00034 / 2110141 00035
2110147 00036 / 2110154 00037 / 2110156 00038 / 2110159 00039 / 2110160 00040
2110164 00041 / 2063105+00042 / 2110168 00043 / 2110173 00044 / 2110175 00045
2110183 00046 / 2110191 00047 / 2100446+00048 / 2053811+00049 / 2110198 00050
2110204 00051 / 2103922+00052 / 2110217 00053 / 2110218 00054 / 2110220 00055
2110225 00056 / 2110226 00057 / 2110228 00058 / 2110233 00059 / 2110234 00060
2110235 00061 / 2110237 00062 / 2110240 00063 / 2110241 00064 / 2110245 00065
2110249 00066 / 2110245+00067 / 2110254 00068 / 2110256 00069 / 2110263 00070
2110264 00071 / 2110273 00072 / 2110277 00073 / 2110284 00074 / 2110287 00075
2110288 00076 / 2110294 00077 / 2110297 00078 / 2110295 00079 / 2110296 00080
2110298 00081 / 2110300 00082 / 2110302 00083 / 2110305 00084 / 2110308 00085
2110311 00086 / 2110312 00087 / 2110315 00088 / 2110317 00089 / 2110319 00090
2110320 00091 / 2110322 00092 / 2051824+00093 / 2110326 00094 / 2110327 00095
2110328 00096 / 2110332 00097 / 2110333 00098 / 2110335 00099 / 2110336 00100
2110340 00101 / 2110346 00102 / 2110349 00103 / 2110350 00104 / 2110352 00105
2110357 00106 / 2110363 00107 / 2110366 00108 / 2110369 00109 / 2110370 00110
2110373 00111 / 2110379 00112 / 2110382 00113 / 2110383 00114 / 2110385 00115
2110387 00116 / 2110159+00117 / 2110389 00118 / 2110395 00119 / 1974013+00120
2110404 00121 / 1974035+00122 / 2110408 00123 / 2110411 00124 / 2110413 00125
2110416 00126 / 2110423 00127 / 2110433 00128 / 2110434 00129 / 2110439 00130
2110442 00131 / 2110446 00132 / 2110448 00133 / 2110453 00134 / 2110455 00135
2110458 00136 / 2110459 00137 / 2110465 00138 / 2110466 00139 / 2110474 00140
2110479 00141 / 2110482 00142 / 2110484 00143 / 2110502 00144 / 2110507 00145
2110510 00146 / 2110515 00147 / 2110522 00148 / 2110523 00149 / 2110531 00150
2110530 00151 / 2110533 00152 / 2110534 00153 / 2110542 00154 / 2110548 00155
2110550 00156 / 2110551 00157 / 2110563 00158 / 2110568 00159 / 1912110+00160
2110570 00161 / 2110571 00162 / 2110576 00163 / 2110580 00164 / 2110582 00165
2110586 00166 / 2110589 00167 / 2110570+00168 / 2110595 00169 / 2110597 00170
2110601 00171 / 2110603 00172 / 2110607 00173 / 2110608 00174 / 2110611 00175
2033240+00176 / 2110614 00177 / 2110619 00178 / 2110625 00179 / 2110628 00180
2110630 00181 / 2110300+00182 / 2110633 00183 / 2110636 00184 / 2110647 00185
2110648 00186 / 2110650 00187 / 2110656 00188 / 2110663 00189 / 2110667 00190
2110669 00191 / 2110672 00192 / 2110681 00193 / 2110685 00194 / 2110692 00195
2062839+00196 / 2110700 00197 / 2110702 00198 / 2110704 00199 / 2110708 00200
2110710 00201 / 2110723 00202 / 2110741 00203 / 2110744 00204 / 2110760 00205
2110806 00206 / 2110815 00207 / 2110820 00208 / 2110751 00209 / 1780794+00210
2110747 00211 / 2110752 00212 / 2110757 00213 / 2110758 00214 / 2110762 00215
2110765 00216 / 2110776 00217 / 2110777 00218 / 2110780 00219 / 2110782 00220
2110790 00221 / 2110792 00222 / 2110835 00223 / 2110793 00224 / 2110798 00225
2110799 00226 / 2110800 00227 / 2110804 00228 / 2110805 00229 / 2110807 00230
2110810 00231 / 2110834 00232 / 2110839 00233 / 2051445+00234 / 2110849 00235
2110851 00236 / 2110853 00237 / 2110856 00238 / 2110859 00239 / 2110860 00240
2110863 00241 / 2110864 00242 / 2110865 00243 / 2110868 00244 / 2062914+00245
2110872 00246 / 2110882 00247 / 2110892 00248 / 2110897 00249 / 2110909 00250
2110906 00251 / 2110918 00252 / 2110926 00253 / 2110929 00254 / 2110936 00255
2110941 00256 / 2110946 00257 / 2062102+00258 / 2110957 00259 / 2101733+00260
2110988 00261 / 2110992 00262 / 2111006 00263 / 2111007 00264 / 2111012 00265
2111013 00266 / 2111016 00267 / 2111021 00268 / 2111019 00269 / 2111023 00270
2111025 00271 / 2111030 00272 / 2111039 00273 / 2111040 00274 / 2111042 00275
2111049 00276 / 2111056 00277 / 2111057 00278 / 2111063 00279 / 2111039+00280
2111071 00281 / 2111072 00282 / 2111078 00283 / 2111093 00284 / 2111100 00285
2071503+00286 / 2111103 00287 / 2054245+00288 / 2111108 00289 / 2111116 00290
2111117 00291 / 2111119 00292 / 2111123 00293 / 2111125 00294 / 2111127 00295
2111138 00296 / 2111142 00297 / 2050892+00298 / 2111165 00299 / 2111169 00300
2111175 00301 / 2111183 00302 / 2111185 00303 / 2111187 00304 / 2111191 00305
2111194 00306 / 2111203 00307 / 2111205 00308 / 2111208 00309 / 2111214 00310
2111216 00311 / 2111217 00312 / 2111226 00313 / 2111227 00314 / 2111232 00315
2111235 00316 / 2111236 00317 / 2111239 00318 / 2111243 00319 / 2111246 00320
2111248 00321 / 2111255 00322 / 2111259 00323 / 2111267 00324 / 2111266 00325
2111270 00326 / 2111277 00327 / 2111278 00328 / 2111284 00329 / 2111286 00330
2111290 00331 / 2111292 00332 / 2111293 00333 / 2111294 00334 / 2111299 00335
2111301 00336 / 2111315 00337 / 2111316 00338 / 2111324 00339 / 2111326 00340
2111330 00341 / 2111331 00342 / 2111335 00343 / 2111337 00344 / 2111339 00345
2111343 00346 / 2111350 00347 / 2041264+00348 / 2111351 00349 / 2111356 00350
2111365 00351 / 2111366 00352 / 2111370 00353 / 2111378 00354 / 2111381 00355
2111382 00356 / 2111383 00357 / 2111389 00358 / 2111394 00359 / 2111396 00360
2111404 00361 / 2111409 00362 / 2032114+00363 / 2111412 00364 / 2111414 00365
2111416 00366 / 2111423 00367 / 2111426 00368 / 2111428 00369 / 2111366+00370
2111430 00371 / 2111432 00372 / 2111437 00373 / 2111439 00374 / 2111446 00375
2111447 00376 / 2111458 00377 / 2111459 00378 / 2111460 00379 / 2111461 00380
2111462 00381 / 2111465 00382 / 2111467 00383 / 2111470 00384 / 2111474 00385
2111481 00386 / 2111484 00387 / 1964062+00388 / 2111485 00389 / 2111487 00390
2111488 00391 / 2111490 00392 / 1964021+00393 / 2111498 00394 / 2111503 00395
2111507 00396 / 1963269+00397 / 2111516 00398 / 2111520 00399 / 2111521 00400
2111526 00401 / 2111528 00402 / 2111530 00403 / 1991538+00404 / 2111537 00405
2111546 00406 / 2111547 00407 / 2111548 00408 / 2111551 00409 / 2111556 00410
2111559 00411 / 2111567 00412 / 2111570 00413 / 2111572 00414 / 2111580 00415
2111585 00416 / 2111593 00417 / 2111594 00418 / 2111595 00419 / 2111597 00420
2111600 00421 / 2071107+00422 / 2111602 00423 / 2111605 00424 / 2111612 00425
2111611 00426 / 2111613 00427 / 2111614 00428 / 2111617 00429 / 2111618 00430
2111621 00431 / 2111623 00432 / 2111625 00433 / 2111626 00434 / 2111627 00435
2111629 00436 / 2111636 00437 / 2111646 00438 / 2111656 00439 / 2111657 00440
2111664 00441 / 2111679 00442 / 2111681 00443 / 2111686 00444 / 2111691 00445
2032297+00446 / 2111698 00447 / 2111706 00448 / 2111707 00449 / 2111708 00450
2111714 00451 / 2111716 00452 / 2111718 00453 / 2111720 00454 / 2111731 00455
1973645+00456 / 2111734 00457 / 2111740 00458 / 2111746 00459 / 2111547+00460
2111756 00461 / 2111763 00462 / 2111764 00463 / 2111767 00464 / 2111778 00465
2111779 00466 / 2111780 00467 / 2101803+00468 / 2111791 00469 / 2111799 00470
2111805 00471 / 2111808 00472 / 2111812 00473 / 1693279+00474 / 2111817 00475
2111818 00476 / 2111822 00477 / 2111825 00478 / 2111828 00479 / 2111829 00480
2111831 00481 / 2111834 00482 / 2111840 00483 / 2111841 00484 / 2111842 00485
2111846 00486 / 2111847 00487 / 2111848 00488 / 2111853 00489 / 2111854 00490
2111857 00491 / 2111862 00492 / 2111867 00493 / 2111871 00494 / 2111872 00495
2111876 00496 / 2111877 00497 / 2111880 00498 / 2111882 00499 / 2111885 00500
2111893 00501 / 2111895 00502 / 2111900 00503 / 2111903 00504 / 2111907 00505
2111908 00506 / 2111909 00507 / 2111911 00508 / 2111912 00509 / 2110332+00510
2111913 00511 / 2111919 00512 / 2111922 00513 / 2111921 00514 / 2111937 00515
2111938 00516 / 2111948 00517 / 2111954 00518 / 2111960 00519 / 2050870+00520
2111961 00521 / 2111962 00522 / 2100423+00523 / 2111990 00524 / 2111993 00525
2111990+00526 / 2111997 00527 / 2101055+00528 / 2112008 00529 / 2112017 00530
2112018 00531 / 2112020 00532 / 2112022 00533 / 2112024 00534 / 2112027 00535
2112032 00536 / 2112033 00537 / 2112035 00538 / 2112045 00539 / 2112048 00540
2112052 00541 / 2112057 00542 / 2112062 00543 / 2112063 00544 / 2112066 00545
2112070 00546 / 2112074 00547 / 2112081 00548 / 2112087 00549 / 2112092 00550
2112094 00551 / 2112096 00552 / 2112103 00553 / 2112108 00554 / 2112109 00555
2112115 00556 / 2112087+00557 / 2112117 00558 / 2112122 00559 / 2112126 00560
2112129 00561 / 2112130 00562 / 2112132 00563 / 2112134 00564 / 2112136 00565
2101357+00566 / 2112139 00567 / 2112142 00568 / 2112145 00569 / 2112146 00570
2112148 00571 / 2053423+00572 / 2112154 00573 / 2112161 00574 / 2112162 00575
2112163 00576 / 2112165 00577 / 2112167 00578 / 2112168 00579 / 2112171 00580
2112184 00581 / 2112187 00582 / 2112188 00583 / 2112189 00584 / 2112191 00585
2112194 00586 / 2112195 00587 / 2112197 00588 / 2112200 00589 / 2112202 00590
2112204 00591 / 2112205 00592 / 2112210 00593 / 2112212 00594 / 2080044+00595
2112213 00596 / 2112217 00597 / 2112221 00598 / 2112222 00599 / 2112223 00600
2112224 00601 / 2112228 00602 / 2112230 00603 / 2112231 00604 / 2112233 00605
2112234 00606 / 2112236 00607 / 2112238 00608 / 2112239 00609 / 2112241 00610
2112247 00611 / 2112248 00612 / 2112250 00613 / 2112255 00614 / 2112256 00615
2112260 00616 / 2112263 00617 / 2112264 00618 / 2112268 00619 / 2112271 00620
2112272 00621 / 2112273 00622 / 2112274 00623 / 2112280 00624 / 2112282 00625
2112285 00626 / 2112286 00627 / 2112288 00628 / 2112289 00629 / 2112290 00630
2112295 00631 / 2112297 00632 / 2112298 00633 / 2112300 00634 / 2112302 00635
2112304 00636 / 2112306 00637 / 2112308 00638 / 2112309 00639 / 2112311 00640
2112314 00641 / 2112315 00642 / 2112320 00643 / 2112321 00644 / 2112324 00645
2112326 00646 / 2112328 00647 / 2112332 00648 / 2112333 00649 / 2112334 00650
2112263+00651 / 2112340 00652 / 2112341 00653 / 2112343 00654 / 2112344 00655
2112345 00656 / 2112346 00657 / 2112348 00658 / 2112350 00659 / 2112352 00660
2112353 00661 / 2112355 00662 / 2112358 00663 / 2112360 00664 / 2112364 00665
2112365 00666 / 2112370 00667 / 2112373 00668 / 2112374 00669 / 2112378 00670
2112376 00671 / 2112379 00672 / 2112358+00673 / 2112382 00674 / 2112384 00675
2112388 00676 / 2112391 00677 / 2112395 00678 / 2112396 00679 / 2112397 00680
2112398 00681 / 2112399 00682 / 2112401 00683 / 2112402 00684 / 2112403 00685
2112404 00686 / 2112407 00687 / 2112410 00688 / 2112411 00689 / 2112414 00690
2112420 00691 / 2112421 00692 / 2112427 00693 / 2112432 00694 / 2112436 00695
2112438 00696 / 2112439 00697 / 2112440 00698 / 2112442 00699 / 2112444 00700
2112446 00701 / 2112449 00702 / 2112453 00703 / 2112454 00704 / 2112455 00705
2112457 00706 / 2112460 00707 / 2112461 00708 / 2051423+00709 / 2112463 00710
2112465 00711 / 2112470 00712 / 2112480 00713 / 2112484 00714 / 1560043+00715
2112487 00716 / 2111382!00717 / 2112496 00718 / 2112501 00719 / 2031058+00720
2112505 00721 / 2112509 00722 / 2112513 00723 / 2112515 00724 / 2112516 00725
2112519 00726 / 2112524 00727 / 2112526 00728 / 2112527 00729 / 2112528 00730
2112529 00731 / 2070994+00732 / 2112538 00733 / 2112537 00734 / 2112543 00735
2112544 00736 / 2112546 00737 / 2112548 00738 / 2112559 00739 / 2112560 00740
2112563 00741 / 2112565 00742 / 2112568 00743 / 2112572 00744 / 2112573 00745
2112576 00746 / 2112581 00747 / 2072347+00748 / 2112587 00749 / 2112590 00750
2112597 00751 / 2112602 00752 / 2112609 00753 / 2112617 00754 / 2112618 00755
2112621 00756 / 2112626 00757 / 2112627 00758 / 2112632 00759 / 2112641 00760
2112647 00761 / 2112649 00762 / 2112213+00763 / 2112654 00764 / 2112655 00765
2112659 00766 / 2112665 00767 / 2112664 00768 / 2112666 00769 / 2112668 00770
2112671 00771 / 2041435+00772 / 2112677 00773 / 2112678 00774 / 2112679 00775
2112681 00776 / 2112689 00777 / 2112691 00778 / 2112696 00779 / 2112697 00780
2112700 00781 / 2112704 00782 / 2112705 00783 / 2112709 00784 / 2112711 00785
2112714 00786 / 2112718 00787 / 2112722 00788 / 2112729 00789 / 2112730 00790
2112731 00791 / 2112736 00792 / 2112737 00793 / 2112740 00794 / 2112741 00795
2112745 00796 / 2112748 00797 / 2112750 00798 / 2112754 00799 / 2112756 00800
2112757 00801 / 2112759 00802 / 2112764 00803 / 2112765 00804 / 1970935+00805
2112769 00806 / 2112767 00807 / 2112776 00808 / 2112777 00809 / 2112778 00810
2112782 00811 / 2112785 00812 / 2112789 00813 / 2112800 00814 / 2112806 00815
2112811 00816 / 2112820 00817 / 2112822 00818 / 2112832 00819 / 2112829 00820
2112835 00821 / 2112839 00822 / 2112843 00823 / 2112844 00824 / 2112850 00825
2112855 00826 / 2112858 00827 / 2112860 00828 / 2112862 00829 / 2112864 00830
2112870 00831 / 2112876 00832 / 2112878 00833 / 2112883 00834 / 2112884 00835
2112888 00836 / 2112893 00837 / 2112894 00838 / 2001782+00839 / 2112911 00840
2112917 00841 / 2112918 00842 / 2112923 00843 / 2112924 00844 / 2112928 00845
2112933 00846 / 2112945 00847 / 2112952 00848 / 2112953 00849 / 2112957 00850
2112958 00851 / 2112971 00852 / 2112973 00853 / 2112977 00854 / 2112976 00855
2112981 00856 / 2112986 00857 / 2112988 00858 / 2112994 00859 / 2112995 00860
2071563+00861 / 2112770+00862 / 2113001 00863 / 2113010 00864 / 2112717+00865
1711641+00866 / 2113020 00867 / 2113021 00868 / 2112667+00869 / 2113027 00870
2113028 00871 / 2113032 00872 / 2113036 00873 / 2112799+00874 / 2113038 00875
2112812+00876 / 2112770+00877 / 2112994+00878 / 2113060 00879 / 1782647+00880
2113079 00881 / 2113080 00882 / 2113081 00883 / 1782671+00884 / 2113085 00885
2113098 00886 / 1561428+00887 / 2113101 00888 / 2113103 00889 / 2113104 00890
2113105 00891 / 2113110 00892 / 2113113 00893 / 2113114 00894 / 2113118 00895
2113120 00896 / 2113125 00897 / 2113135 00898 / 2113136 00899 / 2113144 00900
2113145 00901 / 2113161 00902 / 2113165 00903 / 2113172 00904 / 2113173 00905
2113174 00906 / 2113176 00907 / 2113182 00908 / 2113189 00909 / 2113192 00910
2113193 00911 / 2113197 00912 / 2113198 00913 / 2113118+00914 / 2113199 00915
2113202 00916 / 2113209 00917 / 2113211 00918 / 2113214 00919 / 2113217 00920
2113218 00921 / 2113220 00922 / 2113231 00923 / 2113236 00924 / 2113239 00925
2113243 00926 / 2113245 00927 / 2113255 00928 / 2113266 00929 / 2113268 00930
2113270 00931 / 2113273 00932 / 2113275 00933 / 2113288 00934 / 2113292 00935
2113295 00936 / 2113299 00937 / 2113300 00938 / 2113306 00939 / 2113308 00940
2113313 00941 / 2113318 00942 / 2113322 00943 / 2113324 00944 / 2113327 00945
2113329 00946 / 2113334 00947 / 2113343 00948 / 2113360 00949 / 2113395 00950
2113332 00951 / 2113339 00952 / 2113340 00953 / 2113345 00954 / 2113349 00955
2113356 00956 / 2113358 00957 / 2113365 00958 / 2113375 00959 / 2113377 00960
2113378 00961 / 2113379 00962 / 2113382 00963 / 2113385 00964 / 2113394 00965
2113399 00966 / 2113401 00967 / 2113408 00968 / 2113410 00969 / 2113413 00970
2113414 00971 / 2113418 00972 / 2113421 00973 / 2113420 00974 / 2113422 00975
2113423 00976 / 2113418+00977 / 2113430 00978 / 2113422+00979 / 2113431 00980
2113437 00981 / 2113442 00982 / 2113443 00983 / 2113445 00984 / 2113447 00985
2113450 00986 / 2113418+00987 / 2113453 00988 / 2113455 00989 / 2113460 00990
2113447+00991 / 2113462 00992 / 2113466 00993 / 2062121+00994 / 2113473 00995
2113474 00996 / 2113477 00997 / 2113479 00998 / 2112414+00999 / 2113485 01000
2113491 01001 / 2113493 01002 / 2113494 01003 / 2113498 01004 / 2113505 01005
2113521 01006 / 2113526 01007 / 2113531 01008 / 2113532 01009 / 2113548 01010
2113551 01011 / 2113553 01012 / 2113555 01013 / 2072598+01014 / 2113559 01015
2113560 01016 / 2113561 01017 / 2113566 01018 / 2113567 01019 / 2113570 01020
2113414+01021 / 2113571 01022 / 2113574 01023 / 2113575 01024 / 2113401!01025
2113589 01026 / 2113408!01027 / 2113598 01028 / 2113601 01029 / 2113605 01030
2113611 01031 / 2113612 01032 / 2113324+01033 / 2113620 01034 / 2113621 01035
2113329!01036 / 2113625 01037 / 2113626 01038 / 2113431+01039 / 2113631 01040
2113632 01041 / 2113437!01042 / 2113638 01043 / 2113641 01044 / 2113644 01045
2113651 01046 / 2113378+01047 / 2113365!01048 / 2113660 01049 / 2113670 01050
2113675 01051 / 2113682 01052 / 2113684 01053 / 2113685 01054 / 2113686 01055
2113691 01056 / 2062419+01057 / 2113699 01058 / 2113708 01059 / 2113710 01060
2113711 01061 / 2113719 01062 / 2113723 01063 / 2113722 01064 / 2113724 01065
2113725 01066 / 2113729 01067 / 2113733 01068 / 2113736 01069 / 2113745 01070
2113746 01071 / 2113748 01072 / 2113752 01073 / 2113756 01074 / 2113759 01075
2113761 01076 / 2113762 01077 / 2113765 01078 / 2113770 01079 / 2113773 01080
2113774 01081 / 2113779 01082 / 2113781 01083 / 2113784 01084 / 2113786 01085
2113795 01086 / 2113798 01087 / 2113803 01088 / 2113805 01089 / 2113810 01090
2113814 01091 / 2113815 01092 / 2113817 01093 / 2113818 01094 / 2113822 01095
2113823 01096 / 2113831 01097 / 2113521+01098 / 2113838 01099 / 2113839 01100
2113851 01101 / 2113858 01102 / 2113866 01103 / 2113870 01104 / 2113874 01105
2113878 01106 / 2113882 01107 / 2113883 01108 / 2113891 01109 / 2113894 01110
2113901 01111 / 2113906 01112 / 1964456+01113 / 2113917 01114 / 2113920 01115
2113923 01116 / 2113917+01117 / 2113927 01118 / 2113928 01119 / 2113931 01120
2113932 01121 / 2113935 01122 / 2113937 01123 / 2113939 01124 / 2113943 01125
1960085+01126 / 2113950 01127 / 2113954 01128 / 2113959 01129 / 2113968 01130
2113969 01131 / 2113972 01132 / 2113978 01133 / 2113984 01134 / 2113986 01135
2113992 01136 / 2113999 01137 / 2114003 01138 / 2114007 01139 / 1963401+01140
2114029 01141 / 2114031 01142 / 2114032 01143 / 2114034 01144 / 2114038 01145
2114043 01146 / 2114048 01147 / 2114050 01148 / 2114051 01149 / 2114054 01150
2114057 01151 / 2114060 01152 / 2114062 01153 / 1914973+01154 / 2114066 01155
2114083 01156 / 2103065+01157 / 2114099 01158 / 2114106 01159 / 2114110 01160
2114114 01161 / 2114115 01162 / 2114116 01163 / 2114117 01164 / 2114118 01165
2114124 01166 / 2114125 01167 / 2114128 01168 / 2114129 01169 / 2114130 01170
2114125+01171 / 2114136 01172 / 2114137 01173 / 1582212+01174 / 2114152 01175
2114154 01176 / 2114155 01177 / 2114156 01178 / 2114157 01179 / 2114160 01180
2114161 01181 / 2114164 01182 / 2114166 01183 / 2114167 01184 / 2114169 01185
2114172 01186 / 2114176 01187 / 2114179 01188 / 2114029+01189 / 2114190 01190
2114191 01191 / 2114194 01192 / 2114196 01193 / 2114199 01194 / 2114200 01195
2114202 01196 / 2114203 01197 / 2114205 01198 / 2114214 01199 / 2114225 01200
2114226 01201 / 2114226+01202 / 2114231 01203 / 2114233 01204 / 2114234 01205
2114239 01206 / 2114243 01207 / 2114249 01208 / 2114252 01209 / 2114253 01210
2114255 01211 / 1970162+01212 / 2114264 01213 / 2072497+01214 / 2114270 01215
2114285 01216 / 2114286 01217 / 2114293 01218 / 2034677+01219 / 2114305 01220
2114307 01221 / 2114309 01222 / 2114316 01223 / 2072709+01224 / 2114319 01225
2114321 01226 / 2114326 01227 / 2114327 01228 / 2114331 01229 / 2114332 01230
2114340 01231 / 2114346 01232 / 2114349 01233 / 2114351 01234 / 2114354 01235
2114370 01236 / 2114401 01237 / 2114404 01238 / 2114410 01239 / 2114413 01240
2114415 01241 / 2114422 01242 / 2114422+01243 / 2114439 01244 / 2114455 01245
2114457 01246 / 2114461 01247 / 2114462 01248

(+) RETRANSMIT - 00101
(!) CANCEL     - 00006
(-) RESENT     - 00000
(*) BROADCAST  - 00000
( ) NORMAL     - 01141

    TOTAL      - 01248

