Ticket Number,Sequence Number, Transmit Date,KeyMap Page,KeyMap Grid, Type,House Number,Street Name,Company,Intersecting Street,Description,Type of Work,Extent of Work,Remarks,Contact Name,Contact Phone,Alternate Contact Name,Alternate Contact Phone,Retransmitted,Update of Ticket,Update By,Original Call Date,Begin Work Date,Place,State,County,Work Being Done For,Facility Code,Transaction Date,Transaction Remarks,Transaction Status Code,Workflow Status,User ID,Last Name,First Name
24004043,1221,8/28/2003 15:40,828,B,NOTI,      ,RANCH HOUSE LOOP,CASILLAS CABLE,SPANISH TRACE,ROUTINE,INSTL UG CATV-INSTL UG CATV,304 - 344 RANCH HOUSE LOOP WORKING FROM 304 TO 344 RANCH  HOUSE LOOP IN THE REAR EASMENT B/S.            FAX #: 512-312-2705  CCCONST@AOL.COM  FAXBACKREQ: N,WK TO BEGIN DT 09/02/03 15:30:00  TESSTOC: 032407416 SEQ: 3024 ON 28-AUG-03 AT 1523 RCD: 08/28/03 15:33:00,MARIA DELACRUZ,(512)312-2705,CARLOS DE LA CRUZ,(512)801-2526,ORIGINAL,,,8/28/2003 15:33,9/2/2003 15:30,ANGLETON,TX,BRAZORIA,CABLEVISION,ALL_GAS,9/3/2003 13:47,Locating ahead of contractor.,SEE REM,525,912562,Lee,Terry
23900612,300,8/27/2003 9:56,828,B,NOTI,0,SARITA RD,CASILLAS CABLE CONSTRUCTION,RANCH HOUSE LOOP,ROUTINE,BURY CATV LINE-BURY CATV LINE,9 - 31 SARITA RD MARK BOTH SIDES OF THE REAR EASEMENT AT  9 THRU 31 SARITA RD            FAX #: 512-312-2705  CCCONST@AOL.COM  FAXBACKREQ: N,WK TO BEGIN DT 08/29/03 09:00:00  TESSTOC: 032396153 SEQ: 0439 ON 27-AUG-03 AT 0849 RCD: 08/27/03 08:54:41,CARLOS DE LA CRUZ,(512)312-2705,CARLOS DE LA CRUZ,(512)801-2526,ORIGINAL,,,8/27/2003 8:54,8/29/2003 9:00,ANGLETON,TX,BRAZORIA,CABLEVISION,ALL_GAS,9/3/2003 13:59,Locating ahead of contractors.,SEE REM,525,912562,Lee,Terry
23900612,300,8/27/2003 9:56,828,B,NOTI,0,SARITA RD,CASILLAS CABLE CONSTRUCTION,RANCH HOUSE LOOP,ROUTINE,BURY CATV LINE-BURY CATV LINE,9 - 31 SARITA RD MARK BOTH SIDES OF THE REAR EASEMENT AT  9 THRU 31 SARITA RD            FAX #: 512-312-2705  CCCONST@AOL.COM  FAXBACKREQ: N,WK TO BEGIN DT 08/29/03 09:00:00  TESSTOC: 032396153 SEQ: 0439 ON 27-AUG-03 AT 0849 RCD: 08/27/03 08:54:41,CARLOS DE LA CRUZ,(512)312-2705,CARLOS DE LA CRUZ,(512)801-2526,ORIGINAL,,,8/27/2003 8:54,8/29/2003 9:00,ANGLETON,TX,BRAZORIA,CABLEVISION,ALL_GAS,9/3/2003 14:12,Locating ahead of contractor.,SEE REM,525,912562,Lee,Terry
24004043,1221,8/28/2003 15:40,828,B,NOTI,      ,RANCH HOUSE LOOP,CASILLAS CABLE,SPANISH TRACE,ROUTINE,INSTL UG CATV-INSTL UG CATV,304 - 344 RANCH HOUSE LOOP WORKING FROM 304 TO 344 RANCH  HOUSE LOOP IN THE REAR EASMENT B/S.            FAX #: 512-312-2705  CCCONST@AOL.COM  FAXBACKREQ: N,WK TO BEGIN DT 09/02/03 15:30:00  TESSTOC: 032407416 SEQ: 3024 ON 28-AUG-03 AT 1523 RCD: 08/28/03 15:33:00,MARIA DELACRUZ,(512)312-2705,CARLOS DE LA CRUZ,(512)801-2526,ORIGINAL,,,8/28/2003 15:33,9/2/2003 15:30,ANGLETON,TX,BRAZORIA,CABLEVISION,ALL_GAS,9/3/2003 14:17,Locating ahead of contractor.,SEE REM,525,912562,Lee,Terry
24500210,78,9/2/2003 7:49,528,T,NOTI,      ,WELLSWORTH DR,BRH GARVER,REDHILL DR,REPAIR,REPAIR OF SEWER MAIN,MARK REAR ESMENT FROM 9422 WELLSWORTH DR GOING NE TO 9202  WELLSWORTH DR.,none,PHILLIP TOMAS,(713)634-0439,CELL,(713)545-2280,ORIGINAL,,,9/2/2003 7:47,9/4/2003 8:00,HOUSTON CITY,TX,HARRIS,RENN RD MUD,ALL_ELEC,9/4/2003 8:54,gates are locked,SEE REM,525,912613,Seals,Thaddeus
24500224,86,9/2/2003 7:52,528,T,NOTI,      ,REDHILL DR,BRH GARVER,RIVERSIDE LODGE DR,REPAIR,REPAIR OF SEWER LINE,MARK N SIDEWALK AREA OF REDHILL DR FROM 9423 WELLSWORTH  DR GOING E TO 9422 HOMELAND DR.,none,PHILLIP TOMAS,(713)634-0439,CELL,(713)545-2280,ORIGINAL,,,9/2/2003 7:49,9/4/2003 8:00,HOUSTON CITY,TX,HARRIS,RENN RD MUD,ALL_ELEC,9/4/2003 8:54,gates are locked,SEE REM,525,912613,Seals,Thaddeus

