"Ticket Number","Sequence Number"," Transmit Date","KeyMap Page","KeyMap Grid"," Type","House Number","Street Name","Company","Intersecting Street","Description","Type of Work","Extent of Work","Remarks","Contact Name","Contact Phone","Alternate Contact Name","Alternate Contact Phone","Retransmitted","Update of Ticket","Update By","Original Call Date","Begin Work Date","Place","State","County","Work Being Done For","Facility Code","Transaction Date","Transaction Remarks","Transaction Status Code","Workflow Status","User ID","Last Name","First Name"
"01165194","1570","1/11/2006 2:44:00 PM","489","Y","NOTI","      ","RICHMOND AVE","MP TECHNOLOGIES LLC","WILCREST","ROUTINE","REPAIR OF STREET LIGHT PRIMARY CABLE","MARK ENTIRE FRONT EASEMENT ON BOTH SIDES OF STREET TO  INCLUDE ENTIRE RD RIGHT OF WAY OF RICHMOND AVE FROM WILCREST GOING W  500FT W OF WOODLAND PARK DR, TO INCLUDE 100FT RADIUS OF ALL  INTERSECTIONS.","CPE MAP 5","BOBBY DOBBS","(281)477-7008","BOBBY/CELL","(713)816-8260","ORIGINAL","","","1/11/2006 2:39:00 PM","1/13/2006 2:45:00 PM","HOUSTON DIVISION","TX","HARRIS","CPE 39865060 MPK ANDREW","ALL_GAS","1/15/2006 8:11:26 PM","long project, not finished marking, crew not working","IN PROG","530","00912571","Prove","Ken"
"01363702","976","1/13/2006 2:39:00 PM","489","T","NOTI","11805","MEADOW GLEN LN","CABLE TV CONSTRUCTION INSTALL","S KIRKWOOD","ROUTINE","INSTALLATION CATV MAIN","MARK ENTIRE LOT OF ABOVE ADDRESS.","CALLER STATES CAMDEN ROYAL OAKS APTS LOCATE ENTIRE PROPERTY","ROBIN MESSEL","(713)896-4252","JOHN REED","(832)731-7458","ORIGINAL","","","1/13/2006 2:28:00 PM","1/17/2006 2:30:00 PM","HOUSTON CITY","TX","HARRIS","TIME WARNER CABLE","ALL_GAS","1/17/2006 6:36:36 AM","not finished marking, long project, crew not working","IN PROG","525","00912571","Prove","Ken"
"01363702","976","1/13/2006 2:39:00 PM","489","T","NOTI","11805","MEADOW GLEN LN","CABLE TV CONSTRUCTION INSTALL","S KIRKWOOD","ROUTINE","INSTALLATION CATV MAIN","MARK ENTIRE LOT OF ABOVE ADDRESS.","CALLER STATES CAMDEN ROYAL OAKS APTS LOCATE ENTIRE PROPERTY","ROBIN MESSEL","(713)896-4252","JOHN REED","(832)731-7458","ORIGINAL","","","1/13/2006 2:28:00 PM","1/17/2006 2:30:00 PM","HOUSTON CITY","TX","HARRIS","TIME WARNER CABLE","ELEC_3PH","1/17/2006 6:36:36 AM","not finished marking, long project, crew not working","IN PROG","525","00912571","Prove","Ken"
"01665138","1351","1/16/2006 4:21:00 PM","445","R","NOTI","      ","MORTON RD","CRAVENS PARTNERS","MASON RD","ROUTINE","INSTALLATION OF WATER /SANITARY SEWER / DRAINAGE","MARK WITHIN 3000FT S AND 3000FT E OF ABOVE INTERSECTION  TO INCLUDE ENTIRE AREA. CALLER STATES THIS IS 17.99 ACRES.","CALLER STATES THIS IS MORTON RANCH SECTION 4.  CALLER STATES WORK ALSO IN MAP PAGE:446  GRID:N","DEBBIE FREEMAN","(713)300-1530","DARRIN HOLY","(713)253-3214","ORIGINAL","","","1/16/2006 4:08:00 PM","1/18/2006 4:15:00 PM","HOUSTON CITY","TX","HARRIS","CENTEX HOMES / HCMUD #71","GAS_SERV","1/18/2006 3:31:09 PM","MARKED INTERSECTION WILL CONTINUE PROJECT ON AN ONGOING STATUS","IN PROG","499","00912695","Mendez","Miguel"
"01665138","1351","1/16/2006 4:21:00 PM","445","R","NOTI","      ","MORTON RD","CRAVENS PARTNERS","MASON RD","ROUTINE","INSTALLATION OF WATER /SANITARY SEWER / DRAINAGE","MARK WITHIN 3000FT S AND 3000FT E OF ABOVE INTERSECTION  TO INCLUDE ENTIRE AREA. CALLER STATES THIS IS 17.99 ACRES.","CALLER STATES THIS IS MORTON RANCH SECTION 4.  CALLER STATES WORK ALSO IN MAP PAGE:446  GRID:N","DEBBIE FREEMAN","(713)300-1530","DARRIN HOLY","(713)253-3214","ORIGINAL","","","1/16/2006 4:08:00 PM","1/18/2006 4:15:00 PM","HOUSTON CITY","TX","HARRIS","CENTEX HOMES / HCMUD #71","GAS_MAIN","1/18/2006 3:31:09 PM","","IN PROG","499","00912695","Mendez","Miguel"
"01665138","1351","1/16/2006 4:21:00 PM","445","R","NOTI","      ","MORTON RD","CRAVENS PARTNERS","MASON RD","ROUTINE","INSTALLATION OF WATER /SANITARY SEWER / DRAINAGE","MARK WITHIN 3000FT S AND 3000FT E OF ABOVE INTERSECTION  TO INCLUDE ENTIRE AREA. CALLER STATES THIS IS 17.99 ACRES.","CALLER STATES THIS IS MORTON RANCH SECTION 4.  CALLER STATES WORK ALSO IN MAP PAGE:446  GRID:N","DEBBIE FREEMAN","(713)300-1530","DARRIN HOLY","(713)253-3214","ORIGINAL","","","1/16/2006 4:08:00 PM","1/18/2006 4:15:00 PM","HOUSTON CITY","TX","HARRIS","CENTEX HOMES / HCMUD #71","ELEC_S/L","1/18/2006 3:31:10 PM","","IN PROG","499","00912695","Mendez","Miguel"
"01761276","311","1/17/2006 9:24:00 AM","489","V","INSU","10303","BRIAR RIVER","COASTLINE EXCAVATIONS","BRIAR BRANCH DR","SHORT NOT","INSTALL MAIN PHONE LINE-INSTALL MAIN PHONE LINE","MARK REAR EASEMENT OF: 10303,10307,10311,10315,10319,1032  3,10327 OF  BRIAR RIVER. MARK 500 FT RADIUS, IN ALL DIRECTIONS OF ABOVE  INTER,  INCLUDING RD R/W AND EASEMENTS. MARK ENTIRE PROP AT 2323 BRIAR B  RANCH  DR TO AND INCLUDING EASEMENTS. MAP PG: 489,V      FAX #: 281-835-","MARK ALL FACILITIES AS NECESSARY  TESSTOC: 060178119 Seq: 0904 Rcd: 01/17/06 09:24 WTBD: 01/19/06 09:15","ALBERT PLATA","(281)705-2356","ALBERT PLATA","none","ORIGINAL","","","1/17/2006 9:18:00 AM","1/19/2006 9:15:00 AM","HOUSTON","TX","HARRIS","SBC","ALL_GAS","1/19/2006 1:31:51 PM","Not finished marking. Im unable to get into 10303, 10311 and 10315.  Crew was onsite locating phone.  I notified him and he said that they were just hand digging today.  They said they would be back in the morning and for me to meet them.","IN PROG","525","00912571","Prove","Ken"
"01761276","311","1/17/2006 9:24:00 AM","489","V","INSU","10303","BRIAR RIVER","COASTLINE EXCAVATIONS","BRIAR BRANCH DR","SHORT NOT","INSTALL MAIN PHONE LINE-INSTALL MAIN PHONE LINE","MARK REAR EASEMENT OF: 10303,10307,10311,10315,10319,1032  3,10327 OF  BRIAR RIVER. MARK 500 FT RADIUS, IN ALL DIRECTIONS OF ABOVE  INTER,  INCLUDING RD R/W AND EASEMENTS. MARK ENTIRE PROP AT 2323 BRIAR B  RANCH  DR TO AND INCLUDING EASEMENTS. MAP PG: 489,V      FAX #: 281-835-","MARK ALL FACILITIES AS NECESSARY  TESSTOC: 060178119 Seq: 0904 Rcd: 01/17/06 09:24 WTBD: 01/19/06 09:15","ALBERT PLATA","(281)705-2356","ALBERT PLATA","none","ORIGINAL","","","1/17/2006 9:18:00 AM","1/19/2006 9:15:00 AM","HOUSTON","TX","HARRIS","SBC","ELEC_URD","1/19/2006 1:31:53 PM","","IN PROG","525","00912571","Prove","Ken"
"01767090","1820","1/17/2006 5:53:00 PM","489","Y","NOTI","      ","WALNUT BEND LN","JH QUALITY CNST SERVICES INC","RICHMOND","ROUTINE","REPLACING STAIR-REPLACING STAIR","3005 - 3085 WALNUT BEND LN SITE IS RIVERSTON 1 CONDOS .  MARK EAST END OF 3025 BUILDING          FAX #: 713-532-7107  JHQUALITY@S  BCGLOBAL.NET","MARK ALL FACILITIES AS NECESSARY  TESSTOC: 060178844 Seq: 5327 Rcd: 01/17/06 17:53 WTBD: 01/25/06 07:30","THERESE MORALES","(713)789-3545","THERESE MORALES","none","ORIGINAL","","","1/17/2006 5:36:00 PM","1/25/2006 7:30:00 AM","HOUSTON","TX","HARRIS","RIVERSTONE 1 CONDOS","GAS_SERV","1/19/2006 10:14:29 PM","not finished marking, crew not working, I will finish in morning","IN PROG","525","00912571","Prove","Ken"
"01767090","1820","1/17/2006 5:53:00 PM","489","Y","NOTI","      ","WALNUT BEND LN","JH QUALITY CNST SERVICES INC","RICHMOND","ROUTINE","REPLACING STAIR-REPLACING STAIR","3005 - 3085 WALNUT BEND LN SITE IS RIVERSTON 1 CONDOS .  MARK EAST END OF 3025 BUILDING          FAX #: 713-532-7107  JHQUALITY@S  BCGLOBAL.NET","MARK ALL FACILITIES AS NECESSARY  TESSTOC: 060178844 Seq: 5327 Rcd: 01/17/06 17:53 WTBD: 01/25/06 07:30","THERESE MORALES","(713)789-3545","THERESE MORALES","none","ORIGINAL","","","1/17/2006 5:36:00 PM","1/25/2006 7:30:00 AM","HOUSTON","TX","HARRIS","RIVERSTONE 1 CONDOS","ELEC_URD","1/19/2006 10:14:29 PM","not finished marking, crew not working, I will finish in morning","IN PROG","525","00912571","Prove","Ken"
"01866627","1654","1/18/2006 5:41:00 PM","489","H","NOTI","      ","HANSEL LANE","MP TECHNOLOGIES LLC","GRETEL DR","UPDATE","REPLACE UTILITY POLES","MARK THE REAR EASEMENT AND BOTH SIDES OF THE FENCE OF  12811 AND 12815 HANSEL LANE TO INCLUDE MARK 35FT RADIUS OF ALL  UTILITY POLES","UPDATE PER CALLER-MARKINGS HAVE BEEN WASHED AWAY","BOBBY DOBBS","(281)477-7008","BOBBY DOBBS  /  CELL","(713)816-8260","ORIGINAL","00960337","","1/18/2006 5:40:00 PM","1/23/2006 7:00:00 AM","HOUSTON CITY","TX","HARRIS","CPE 39737621SBR DOUG","ALL_GAS","1/20/2006 12:37:55 AM","unable to get onto property, I notified Bobby and he said that they would call in a 2nd request when they get to job","IN PROG","525","00912571","Prove","Ken"
"02060966","244","1/20/2006 8:53:00 AM","449","B","NOTI","      ","THOMAS RD","H AND H DIVERSIFIED SERVICES I","TANNER","ROUTINE","PIPELINE WORK-OTHER","UPDATE & REMARK-053290856- FROM THE INTER GO 2000' N ON T  HOMAS ROAD , CONSTRUCTION BEGINS 600' W OF THOMAS ROAD, THEN PARALELLS O  N E SIDE  OF THOMAS RIGHT OF WAY 1200' THEN CONT E 1200'. KEY MAP 449        DICKHINESSR@AOL.COM","MARK ALL FACILITIES AS NECESSARY  TESSTOC: 060200790 Seq: 0682 Rcd: 01/20/06 08:53 WTBD: 01/24/06 08:45","DICK HINES","(713)628-2715","DICK HINES","(713)857-3344","ORIGINAL","","","1/20/2006 8:46:00 AM","1/24/2006 8:45:00 AM","HOUSTON","TX","HARRIS","NETCO PIPELINE","ALL_GAS","1/24/2006 8:45:08 AM","I will be meeting with Mr. Hines on job.","IN PROG","525","00912571","Prove","Ken"
"02063995","1120","1/20/2006 1:51:00 PM","447","N","NOTI","      ","MORTON ROAD","CE BARKER INC","EAGLE RIDGE WAY","UPDATE","INSTALLATION OF WATER SANITARY SEWER AND DRAIN","MARK ENTIRE ROAD RIGHT OF WAY OF MORTON ROAD FROM EAGLE  RIDGE WAY GOING E APPROX 2 MILES TO TAXIE WAY RD.","CALLER STATES WILL ALSO BE IN KEY MAP PAGE: 447 GRIDS:N,P  UPDATE PER REMARK","MELANIE BELL","(281)252-3677","DANNETTE CANTU /SAME","none","ORIGINAL","01364548","","1/20/2006 1:49:00 PM","1/24/2006 2:00:00 PM","HOUSTON CITY","TX","HARRIS","HARRIS COUNTY MUD 238","GAS_SERV","1/24/2006 11:52:48 AM","MARKED INTERSECTION WILL CONTINUE PROJECT ON AN ONGOING STATUS","IN PROG","499","00912695","Mendez","Miguel"
"02063995","1120","1/20/2006 1:51:00 PM","447","N","NOTI","      ","MORTON ROAD","CE BARKER INC","EAGLE RIDGE WAY","UPDATE","INSTALLATION OF WATER SANITARY SEWER AND DRAIN","MARK ENTIRE ROAD RIGHT OF WAY OF MORTON ROAD FROM EAGLE  RIDGE WAY GOING E APPROX 2 MILES TO TAXIE WAY RD.","CALLER STATES WILL ALSO BE IN KEY MAP PAGE: 447 GRIDS:N,P  UPDATE PER REMARK","MELANIE BELL","(281)252-3677","DANNETTE CANTU /SAME","none","ORIGINAL","01364548","","1/20/2006 1:49:00 PM","1/24/2006 2:00:00 PM","HOUSTON CITY","TX","HARRIS","HARRIS COUNTY MUD 238","GAS_MAIN","1/24/2006 11:52:48 AM","","IN PROG","499","00912695","Mendez","Miguel"
"02063995","1120","1/20/2006 1:51:00 PM","447","N","NOTI","      ","MORTON ROAD","CE BARKER INC","EAGLE RIDGE WAY","UPDATE","INSTALLATION OF WATER SANITARY SEWER AND DRAIN","MARK ENTIRE ROAD RIGHT OF WAY OF MORTON ROAD FROM EAGLE  RIDGE WAY GOING E APPROX 2 MILES TO TAXIE WAY RD.","CALLER STATES WILL ALSO BE IN KEY MAP PAGE: 447 GRIDS:N,P  UPDATE PER REMARK","MELANIE BELL","(281)252-3677","DANNETTE CANTU /SAME","none","ORIGINAL","01364548","","1/20/2006 1:49:00 PM","1/24/2006 2:00:00 PM","HOUSTON CITY","TX","HARRIS","HARRIS COUNTY MUD 238","ELEC_URD","1/24/2006 11:52:49 AM","","IN PROG","499","00912695","Mendez","Miguel"
"02063995","1120","1/20/2006 1:51:00 PM","447","N","NOTI","      ","MORTON ROAD","CE BARKER INC","EAGLE RIDGE WAY","UPDATE","INSTALLATION OF WATER SANITARY SEWER AND DRAIN","MARK ENTIRE ROAD RIGHT OF WAY OF MORTON ROAD FROM EAGLE  RIDGE WAY GOING E APPROX 2 MILES TO TAXIE WAY RD.","CALLER STATES WILL ALSO BE IN KEY MAP PAGE: 447 GRIDS:N,P  UPDATE PER REMARK","MELANIE BELL","(281)252-3677","DANNETTE CANTU /SAME","none","ORIGINAL","01364548","","1/20/2006 1:49:00 PM","1/24/2006 2:00:00 PM","HOUSTON CITY","TX","HARRIS","HARRIS COUNTY MUD 238","ELEC_S/L","1/24/2006 11:52:49 AM","","IN PROG","499","00912695","Mendez","Miguel"
"02066203","1716","1/20/2006 5:52:00 PM","445","Z","NOTI","      ","ALDRICH LN","GRAYCO COMMUNICATIONS","BARRAUD CT","ROUTINE","INSTALLATION OF CATV MAIN LINE","MARK THE ENTRE REAR EASEMENTS ON BOTH SIDES OF THE FENCE  FOR THE WIDTH  OF THE LOT OF ADDRESSES 1514 THROUGH 1502, INCLUDING THE  SOUTHEAST  EASEMENT OF 1502","KEY MAP 445 Z","BERTHA DELFIN","(832)553-1411","OMAR M","(832)553-1411","ORIGINAL","","","1/20/2006 5:42:00 PM","1/25/2006 7:00:00 AM","KATY CITY","TX","HARRIS","TIME WARNER CABLE","ELEC_URD","1/24/2006 3:16:12 PM","TICKET IS DUE LATER THIS EVENING WILL GET STARTED FIRST THING IN THE MORNING","IN PROG","499","00912695","Mendez","Miguel"
"02066203","1716","1/20/2006 5:52:00 PM","445","Z","NOTI","      ","ALDRICH LN","GRAYCO COMMUNICATIONS","BARRAUD CT","ROUTINE","INSTALLATION OF CATV MAIN LINE","MARK THE ENTRE REAR EASEMENTS ON BOTH SIDES OF THE FENCE  FOR THE WIDTH  OF THE LOT OF ADDRESSES 1514 THROUGH 1502, INCLUDING THE  SOUTHEAST  EASEMENT OF 1502","KEY MAP 445 Z","BERTHA DELFIN","(832)553-1411","OMAR M","(832)553-1411","ORIGINAL","","","1/20/2006 5:42:00 PM","1/25/2006 7:00:00 AM","KATY CITY","TX","HARRIS","TIME WARNER CABLE","ELEC_S/L","1/24/2006 3:16:12 PM","","IN PROG","499","00912695","Mendez","Miguel"
"02464710","1123","1/24/2006 2:56:00 PM","489","Q","NOTI","10815","HOLLY SPRINGS","ATLAS FOUNDATION REPAIR","BLUEWILLOW","REPAIR","FOUNDATION REPAIR"," MARK 6 FOOT RADIUS OF HOUSE","none","CHRIS JOHNSTON","(713)641-4844","DANA","(713)641-4844","ORIGINAL","","","1/24/2006 2:38:00 PM","1/26/2006 2:45:00 PM","HOUSTON DIVISION","TX","HARRIS","SCOTT","GAS_SERV","1/25/2006 10:23:57 AM","","STAKED","530","00912571","Prove","Ken"
"02462849","790","1/24/2006 11:30:00 AM","528","A","NOTI","      ","WINDMILL FOREST DR","M WOOTTON CONSTRUCTION","WINDMILL VILLAGE DR","ROUTINE","INSTALLATION OF WATER TAPS","MARK ENTIRE FRONT EASEMENT ON BOTH SIDES OF STREET TO
 INCL UDE ENTIRE ROAD RIGHT OF WAY ON BOTH SIDES OF RD FOR ROAD BORE FOR
 WIDTH O F OF ADDRESSES OF 14523 AND 14507 WINDMILL FOREST DR","none","BOB WOOTTON","(281)431-1109","MARY WOOTTON","(281)431-1109","ORIGINAL","","","1/24/2006 11:27:00 AM","1/26/2006 11:30:00 AM","HOUSTON CITY","TX","HARRIS","M WOOTTON CONSTRUCTION","GAS_MAIN","1/25/2006 10:25:00 AM","","STAKED","530","00912750","Hodgkiss","Sheldon"
"02462849","790","1/24/2006 11:30:00 AM","528","A","NOTI","      ","WINDMILL FOREST DR","M WOOTTON CONSTRUCTION","WINDMILL VILLAGE DR","ROUTINE","INSTALLATION OF WATER TAPS","MARK ENTIRE FRONT EASEMENT ON BOTH SIDES OF STREET TO
 INCL UDE ENTIRE ROAD RIGHT OF WAY ON BOTH SIDES OF RD FOR ROAD BORE FOR
 WIDTH O F OF ADDRESSES OF 14523 AND 14507 WINDMILL FOREST DR","none","BOB WOOTTON","(281)431-1109","MARY WOOTTON","(281)431-1109","ORIGINAL","","","1/24/2006 11:27:00 AM","1/26/2006 11:30:00 AM","HOUSTON CITY","TX","HARRIS","M WOOTTON CONSTRUCTION","GAS_SERV","1/25/2006 10:25:00 AM","","STAKED","530","00912750","Hodgkiss","Sheldon"
"02461796","391","1/24/2006 10:13:00 AM","489","L","NOTI","10902","CRANBROOK","unknown","LAKESIDE ESTATES","ROUTINE","INSTALLATION OF FENCE","MARK ENTIRE N LOT LINE TO INCLUDE 40FT IN FROM N LOT LINE
  FOR WIDTH OF LOT. THEN MARK ENTIRE E LOT LINE TO INLCUDE 40FT INTO LOT
 FOR  WIDTH OF LOT.","none","TONY COUNCIL","(713)789-4795","TONY C./CELL","(713)823-4379","ORIGINAL","","","1/24/2006 10:05:00 AM","1/26/2006 10:15:00 AM","HOUSTON CITY","TX","HARRIS","TONY COUNCIL","GAS_SERV","1/25/2006 10:25:00 AM","","STAKED","530","00912571","Prove","Ken"
"02462849","790","1/24/2006 11:30:00 AM","528","A","NOTI","      ","WINDMILL FOREST DR","M WOOTTON CONSTRUCTION","WINDMILL VILLAGE DR","ROUTINE","INSTALLATION OF WATER TAPS","MARK ENTIRE FRONT EASEMENT ON BOTH SIDES OF STREET TO
 INCL UDE ENTIRE ROAD RIGHT OF WAY ON BOTH SIDES OF RD FOR ROAD BORE FOR
 WIDTH O F OF ADDRESSES OF 14523 AND 14507 WINDMILL FOREST DR","none","BOB WOOTTON","(281)431-1109","MARY WOOTTON","(281)431-1109","ORIGINAL","","","1/24/2006 11:27:00 AM","1/26/2006 11:30:00 AM","HOUSTON CITY","TX","HARRIS","M WOOTTON CONSTRUCTION","ELEC_URD","1/25/2006 10:25:01 AM","","STAKED","530","00912750","Hodgkiss","Sheldon"
"02462849","790","1/24/2006 11:30:00 AM","528","A","NOTI","      ","WINDMILL FOREST DR","M WOOTTON CONSTRUCTION","WINDMILL VILLAGE DR","ROUTINE","INSTALLATION OF WATER TAPS","MARK ENTIRE FRONT EASEMENT ON BOTH SIDES OF STREET TO
 INCL UDE ENTIRE ROAD RIGHT OF WAY ON BOTH SIDES OF RD FOR ROAD BORE FOR
 WIDTH O F OF ADDRESSES OF 14523 AND 14507 WINDMILL FOREST DR","none","BOB WOOTTON","(281)431-1109","MARY WOOTTON","(281)431-1109","ORIGINAL","","","1/24/2006 11:27:00 AM","1/26/2006 11:30:00 AM","HOUSTON CITY","TX","HARRIS","M WOOTTON CONSTRUCTION","ELEC_S/L","1/25/2006 10:25:01 AM","","STAKED","530","00912750","Hodgkiss","Sheldon"
"02461796","391","1/24/2006 10:13:00 AM","489","L","NOTI","10902","CRANBROOK","unknown","LAKESIDE ESTATES","ROUTINE","INSTALLATION OF FENCE","MARK ENTIRE N LOT LINE TO INCLUDE 40FT IN FROM N LOT LINE
  FOR WIDTH OF LOT. THEN MARK ENTIRE E LOT LINE TO INLCUDE 40FT INTO LOT
 FOR  WIDTH OF LOT.","none","TONY COUNCIL","(713)789-4795","TONY C./CELL","(713)823-4379","ORIGINAL","","","1/24/2006 10:05:00 AM","1/26/2006 10:15:00 AM","HOUSTON CITY","TX","HARRIS","TONY COUNCIL","GAS_MAIN","1/25/2006 10:25:03 AM","","STAKED","530","00912571","Prove","Ken"
"02461796","391","1/24/2006 10:13:00 AM","489","L","NOTI","10902","CRANBROOK","unknown","LAKESIDE ESTATES","ROUTINE","INSTALLATION OF FENCE","MARK ENTIRE N LOT LINE TO INCLUDE 40FT IN FROM N LOT LINE
  FOR WIDTH OF LOT. THEN MARK ENTIRE E LOT LINE TO INLCUDE 40FT INTO LOT
 FOR  WIDTH OF LOT.","none","TONY COUNCIL","(713)789-4795","TONY C./CELL","(713)823-4379","ORIGINAL","","","1/24/2006 10:05:00 AM","1/26/2006 10:15:00 AM","HOUSTON CITY","TX","HARRIS","TONY COUNCIL","ELEC_URD","1/25/2006 10:25:03 AM","","STAKED","530","00912571","Prove","Ken"
"02364544","1409","1/23/2006 1:38:00 PM","528","K","NOTI","7500","ELDRIDGE PKWY","TEX STAR SERVICES","BELLAIRE","ROUTINE","INSTALLATION OF STORM SEWER AND SITE UTILITIES","MARK ENTIRE LOT.","none","KENNEN BYLER","(281)590-4577","SHAWN BYLER  /  CELL","(936)672-3559","ORIGINAL","","","1/23/2006 1:33:00 PM","1/25/2006 1:45:00 PM","HOUSTON CITY","TX","HARRIS","CENTURY BUILDERS","GAS_MAIN","1/25/2006 10:44:34 AM","","STAKED","530","00912750","Hodgkiss","Sheldon"
"02364544","1409","1/23/2006 1:38:00 PM","528","K","NOTI","7500","ELDRIDGE PKWY","TEX STAR SERVICES","BELLAIRE","ROUTINE","INSTALLATION OF STORM SEWER AND SITE UTILITIES","MARK ENTIRE LOT.","none","KENNEN BYLER","(281)590-4577","SHAWN BYLER  /  CELL","(936)672-3559","ORIGINAL","","","1/23/2006 1:33:00 PM","1/25/2006 1:45:00 PM","HOUSTON CITY","TX","HARRIS","CENTURY BUILDERS","GAS_SERV","1/25/2006 10:44:34 AM","","STAKED","530","00912750","Hodgkiss","Sheldon"
"02561462","431","1/25/2006 9:27:00 AM","489","Y","EMER","3100","WALNUT BEND LANE","CHURCH SERVICES","MEADOWGLEN LANE","EMERGENCY","EMERGENCY REPAIR SANITARY SEWER SERVICE LINE","MARK 5FT RADIUS OF UNITS 113 AND 115 AT ABOVE ADDRESS.","CALLER STATES CREW IS ON SITE NOW","SUSAN KASSARD","(281)497-8602","EVA SMITH","(281)497-8602","ORIGINAL","","","1/25/2006 9:21:00 AM","1/25/2006 9:30:00 AM","HOUSTON CITY","TX","HARRIS","TERRA COURT CONDOS","ELEC_S/L","1/25/2006 12:02:43 PM","no s/l in area of excavation ","NC","530","00912571","Prove","Ken"
"02561462","431","1/25/2006 9:27:00 AM","489","Y","EMER","3100","WALNUT BEND LANE","CHURCH SERVICES","MEADOWGLEN LANE","EMERGENCY","EMERGENCY REPAIR SANITARY SEWER SERVICE LINE","MARK 5FT RADIUS OF UNITS 113 AND 115 AT ABOVE ADDRESS.","CALLER STATES CREW IS ON SITE NOW","SUSAN KASSARD","(281)497-8602","EVA SMITH","(281)497-8602","ORIGINAL","","","1/25/2006 9:21:00 AM","1/25/2006 9:30:00 AM","HOUSTON CITY","TX","HARRIS","TERRA COURT CONDOS","ELEC_URD","1/25/2006 12:02:43 PM","","STAKED","530","00912571","Prove","Ken"
"02463983","942","1/24/2006 1:32:00 PM","489","Z","NOTI","3003","SEAGLER ROAD","BARRY PLUMBING","MEADOWGLEN","UPDATE","INSTALLATION OF SANITARY/STORM/WATER SERVICE","MARK ENTIRE LOT TO INCLUDE ENTIRE RD RIGHT OF WAY FOR
 WIDT H OF LOT.","UPDATE PER REMARK","ROBERT L","(713)896-1615","JERRY HICKS","(713)896-1615","ORIGINAL","31852140","","1/24/2006 1:28:00 PM","1/26/2006 1:30:00 PM","HOUSTON CITY","TX","HARRIS","RICHFIELD INVESTMENTS","GAS_SERV","1/25/2006 12:12:28 PM","no utilities in area of excavation ","NC","530","00912571","Prove","Ken"
"02463983","942","1/24/2006 1:32:00 PM","489","Z","NOTI","3003","SEAGLER ROAD","BARRY PLUMBING","MEADOWGLEN","UPDATE","INSTALLATION OF SANITARY/STORM/WATER SERVICE","MARK ENTIRE LOT TO INCLUDE ENTIRE RD RIGHT OF WAY FOR
 WIDT H OF LOT.","UPDATE PER REMARK","ROBERT L","(713)896-1615","JERRY HICKS","(713)896-1615","ORIGINAL","31852140","","1/24/2006 1:28:00 PM","1/26/2006 1:30:00 PM","HOUSTON CITY","TX","HARRIS","RICHFIELD INVESTMENTS","GAS_MAIN","1/25/2006 12:12:28 PM","no utilities in area of excavation ","NC","530","00912571","Prove","Ken"
"02463983","942","1/24/2006 1:32:00 PM","489","Z","NOTI","3003","SEAGLER ROAD","BARRY PLUMBING","MEADOWGLEN","UPDATE","INSTALLATION OF SANITARY/STORM/WATER SERVICE","MARK ENTIRE LOT TO INCLUDE ENTIRE RD RIGHT OF WAY FOR
 WIDT H OF LOT.","UPDATE PER REMARK","ROBERT L","(713)896-1615","JERRY HICKS","(713)896-1615","ORIGINAL","31852140","","1/24/2006 1:28:00 PM","1/26/2006 1:30:00 PM","HOUSTON CITY","TX","HARRIS","RICHFIELD INVESTMENTS","ELEC_URD","1/25/2006 12:12:28 PM","no utilities in area of excavation ","NC","530","00912571","Prove","Ken"
"02463983","942","1/24/2006 1:32:00 PM","489","Z","NOTI","3003","SEAGLER ROAD","BARRY PLUMBING","MEADOWGLEN","UPDATE","INSTALLATION OF SANITARY/STORM/WATER SERVICE","MARK ENTIRE LOT TO INCLUDE ENTIRE RD RIGHT OF WAY FOR
 WIDT H OF LOT.","UPDATE PER REMARK","ROBERT L","(713)896-1615","JERRY HICKS","(713)896-1615","ORIGINAL","31852140","","1/24/2006 1:28:00 PM","1/26/2006 1:30:00 PM","HOUSTON CITY","TX","HARRIS","RICHFIELD INVESTMENTS","ELEC_S/L","1/25/2006 12:12:29 PM","no utilities in area of excavation ","NC","530","00912571","Prove","Ken"
"02463983","942","1/24/2006 1:32:00 PM","489","Z","NOTI","3003","SEAGLER ROAD","BARRY PLUMBING","MEADOWGLEN","UPDATE","INSTALLATION OF SANITARY/STORM/WATER SERVICE","MARK ENTIRE LOT TO INCLUDE ENTIRE RD RIGHT OF WAY FOR
 WIDT H OF LOT.","UPDATE PER REMARK","ROBERT L","(713)896-1615","JERRY HICKS","(713)896-1615","ORIGINAL","31852140","","1/24/2006 1:28:00 PM","1/26/2006 1:30:00 PM","HOUSTON CITY","TX","HARRIS","RICHFIELD INVESTMENTS","ELEC_3PH","1/25/2006 12:12:29 PM","no utilities in area of excavation ","NC","530","00912571","Prove","Ken"
"02367351","1950","1/23/2006 6:03:00 PM","489","N","NOTI","12014","WALDEMAR DR","JENNIFER PRICE","KURKWOOD DR","ROUTINE","ADDING ON TO PROP-NEW CONSTRUCTION","LOC THE REAR OF PROP BEHIND THE GARAGE.  JPRICE1210@AOL.COM","MARK ALL FACILITIES AS NECESSARY  TESSTOC: 060236334 Seq: 5391 Rcd: 01/23/06 18:03 WTBD: 01/25/06 18:00","JENNIFER PRICE","(281)293-8360","JENNIFER PRICE","(337)263-3020","ORIGINAL","","","1/23/2006 5:56:00 PM","1/25/2006 6:00:00 PM","HOUSTON","TX","HARRIS","JENNIFER PRICE","GAS_MAIN","1/25/2006 12:45:00 PM","","STAKED","530","00912571","Prove","Ken"
"02367351","1950","1/23/2006 6:03:00 PM","489","N","NOTI","12014","WALDEMAR DR","JENNIFER PRICE","KURKWOOD DR","ROUTINE","ADDING ON TO PROP-NEW CONSTRUCTION","LOC THE REAR OF PROP BEHIND THE GARAGE.  JPRICE1210@AOL.COM","MARK ALL FACILITIES AS NECESSARY  TESSTOC: 060236334 Seq: 5391 Rcd: 01/23/06 18:03 WTBD: 01/25/06 18:00","JENNIFER PRICE","(281)293-8360","JENNIFER PRICE","(337)263-3020","ORIGINAL","","","1/23/2006 5:56:00 PM","1/25/2006 6:00:00 PM","HOUSTON","TX","HARRIS","JENNIFER PRICE","GAS_SERV","1/25/2006 12:45:00 PM","","STAKED","530","00912571","Prove","Ken"
"02463842","922","1/24/2006 1:15:00 PM","489","T","NOTI","11622","SOUTHLAKE","ATLAS FOUNDATION REPAIR","KIRKWOOD","REPAIR","FOUNDATION REPAIR"," MARK 6 FOOT RADIUS OF HOUSE","none","CHRIS JOHNSTON","(713)641-4844","DANA","(713)641-4844","ORIGINAL","","","1/24/2006 1:09:00 PM","1/26/2006 1:15:00 PM","HOUSTON DIVISION","TX","HARRIS","REHAGE","GAS_SERV","1/25/2006 12:55:16 PM","","STAKED","530","00912571","Prove","Ken"
"02463842","922","1/24/2006 1:15:00 PM","489","T","NOTI","11622","SOUTHLAKE","ATLAS FOUNDATION REPAIR","KIRKWOOD","REPAIR","FOUNDATION REPAIR"," MARK 6 FOOT RADIUS OF HOUSE","none","CHRIS JOHNSTON","(713)641-4844","DANA","(713)641-4844","ORIGINAL","","","1/24/2006 1:09:00 PM","1/26/2006 1:15:00 PM","HOUSTON DIVISION","TX","HARRIS","REHAGE","GAS_MAIN","1/25/2006 12:55:16 PM","not in conflict with area of excavation ","NC","530","00912571","Prove","Ken"
"02463275","852","1/24/2006 12:19:00 PM","489","T","NOTI","2230","HICKORY LAWN DR","MEMORIAL FENCE AND DECK","WOODLAND SPRINGS ST","ROUTINE","INSTALLATION OF FENCE","MARK ENTIRE LOT.","none","DELFINA VASQUEZ","(713)464-3812","SAME","none","ORIGINAL","","","1/24/2006 12:13:00 PM","1/26/2006 12:15:00 PM","HOUSTON CITY","TX","HARRIS","MR. FRANCISCO DELATORRE","GAS_SERV","1/25/2006 1:12:14 PM","","STAKED","530","00912571","Prove","Ken"
"02463275","852","1/24/2006 12:19:00 PM","489","T","NOTI","2230","HICKORY LAWN DR","MEMORIAL FENCE AND DECK","WOODLAND SPRINGS ST","ROUTINE","INSTALLATION OF FENCE","MARK ENTIRE LOT.","none","DELFINA VASQUEZ","(713)464-3812","SAME","none","ORIGINAL","","","1/24/2006 12:13:00 PM","1/26/2006 12:15:00 PM","HOUSTON CITY","TX","HARRIS","MR. FRANCISCO DELATORRE","GAS_MAIN","1/25/2006 1:12:14 PM","main on other side of fence ","NC","530","00912571","Prove","Ken"
"02463275","852","1/24/2006 12:19:00 PM","489","T","NOTI","2230","HICKORY LAWN DR","MEMORIAL FENCE AND DECK","WOODLAND SPRINGS ST","ROUTINE","INSTALLATION OF FENCE","MARK ENTIRE LOT.","none","DELFINA VASQUEZ","(713)464-3812","SAME","none","ORIGINAL","","","1/24/2006 12:13:00 PM","1/26/2006 12:15:00 PM","HOUSTON CITY","TX","HARRIS","MR. FRANCISCO DELATORRE","ELEC_URD","1/25/2006 1:12:14 PM","","STAKED","530","00912571","Prove","Ken"
"02469082","1619","1/24/2006 3:40:00 PM","489","G","NOTI","330","GERSHWIN DR","PACE PLUMBING","INDIAN CIR","ROUTINE","INSTL WTR METER-INSTL WTR METER","MARK ENTIRE PROPERTY WHERE UTILITY LINES RUN.  MAP PAGE
 48 9,G  INVALID MSG .. MSG NO T FOUND  !      FAX #: 713-951-0980","MARK ALL FACILITIES AS NECESSARY  TESSTOC: 060248511 Seq: 3881 Rcd: 01/24/06 15:29 WTBD: 01/27/06 09:00","DEBBIE PACE","(713)659-7669","DEBBIE PACE","none","ORIGINAL","","","1/24/2006 3:13:00 PM","1/27/2006 9:00:00 AM","HOUSTON","TX","HARRIS","AUTUMN PLACE DEVELOPER","GAS_SERV","1/25/2006 1:13:31 PM","no service in area of excavation ","NC","530","00912571","Prove","Ken"
"02469082","1619","1/24/2006 3:40:00 PM","489","G","NOTI","330","GERSHWIN DR","PACE PLUMBING","INDIAN CIR","ROUTINE","INSTL WTR METER-INSTL WTR METER","MARK ENTIRE PROPERTY WHERE UTILITY LINES RUN.  MAP PAGE
 48 9,G  INVALID MSG .. MSG NO T FOUND  !      FAX #: 713-951-0980","MARK ALL FACILITIES AS NECESSARY  TESSTOC: 060248511 Seq: 3881 Rcd: 01/24/06 15:29 WTBD: 01/27/06 09:00","DEBBIE PACE","(713)659-7669","DEBBIE PACE","none","ORIGINAL","","","1/24/2006 3:13:00 PM","1/27/2006 9:00:00 AM","HOUSTON","TX","HARRIS","AUTUMN PLACE DEVELOPER","GAS_MAIN","1/25/2006 1:13:31 PM","","STAKED","530","00912571","Prove","Ken"
"02469082","1619","1/24/2006 3:40:00 PM","489","G","NOTI","330","GERSHWIN DR","PACE PLUMBING","INDIAN CIR","ROUTINE","INSTL WTR METER-INSTL WTR METER","MARK ENTIRE PROPERTY WHERE UTILITY LINES RUN.  MAP PAGE
 48 9,G  INVALID MSG .. MSG NO T FOUND  !      FAX #: 713-951-0980","MARK ALL FACILITIES AS NECESSARY  TESSTOC: 060248511 Seq: 3881 Rcd: 01/24/06 15:29 WTBD: 01/27/06 09:00","DEBBIE PACE","(713)659-7669","DEBBIE PACE","none","ORIGINAL","","","1/24/2006 3:13:00 PM","1/27/2006 9:00:00 AM","HOUSTON","TX","HARRIS","AUTUMN PLACE DEVELOPER","ELEC_S/L","1/25/2006 1:13:32 PM","no s/l in area of excavation ","NC","530","00912571","Prove","Ken"
"02470863","1809","1/24/2006 4:41:00 PM","489","M","NOTI","303","PAUL REVERE","VENADOS PLUMBING","MEMORIAL DR","UPDATE","INSTALLING WATER METER","MARK THE ENTIRE FRONT HALF OF LOT TO INCLUDE THE ENTIRE
 RO AD RIGHT OF WAY BOTH SIDES OF PAUL REVERE FOR THE WIDTH OF THE LOT.","CALLER STATES ALSO IN PG 490 GRID J  UPDATE PER REMARK","DALID ROSALES","(713)472-5749","OFFICE","(713)477-2935","ORIGINAL","31352353","","1/24/2006 4:37:00 PM","1/26/2006 4:45:00 PM","HOUSTON CITY","TX","HARRIS","DWANE C BROUSSARD","GAS_SERV","1/25/2006 1:42:58 PM","no service at this area of excavation ","NC","530","00912571","Prove","Ken"
"02470863","1809","1/24/2006 4:41:00 PM","489","M","NOTI","303","PAUL REVERE","VENADOS PLUMBING","MEMORIAL DR","UPDATE","INSTALLING WATER METER","MARK THE ENTIRE FRONT HALF OF LOT TO INCLUDE THE ENTIRE
 RO AD RIGHT OF WAY BOTH SIDES OF PAUL REVERE FOR THE WIDTH OF THE LOT.","CALLER STATES ALSO IN PG 490 GRID J  UPDATE PER REMARK","DALID ROSALES","(713)472-5749","OFFICE","(713)477-2935","ORIGINAL","31352353","","1/24/2006 4:37:00 PM","1/26/2006 4:45:00 PM","HOUSTON CITY","TX","HARRIS","DWANE C BROUSSARD","GAS_MAIN","1/25/2006 1:42:59 PM","","STAKED","530","00912571","Prove","Ken"
"02462498","711","1/24/2006 10:59:00 AM","528","L","NOTI","0","ELDRIDGE TRACE DR","NORTH HOUSTON POLE LINE","ELDRIDGE RD","UPDATE","INSTALLING UNDERGROUND GAS AND ELECTRIC LINES","13502 THRU 13546 ELDRIDGE TRACE DR. MARK THE ENTIRE
 PROPER TY, SIDE AND  REAR EASEMENT, BOTH SIDES OF THE REAR EASEMENT AND
 THE ROAD  RIGHT OF  WAY ON BOTH SIDES OF THE ROAD.","JOB# 39237433, ELDRIDGE TRACE, 528 L  UPDATE PER CALLER-MARKINGS HAVE BEEN WASHED AWAY","PHILLIP TAMBORELLO","(713)691-3616","CALL FIRST","(713)333-2134","ORIGINAL","01364737","","1/24/2006 10:58:00 AM","1/26/2006 11:00:00 AM","HOUSTON CITY","TX","HARRIS","CENTERPOINT ENERGY","GAS_MAIN","1/25/2006 5:18:04 PM","","STAKED","530","00912750","Hodgkiss","Sheldon"
"02462498","711","1/24/2006 10:59:00 AM","528","L","NOTI","0","ELDRIDGE TRACE DR","NORTH HOUSTON POLE LINE","ELDRIDGE RD","UPDATE","INSTALLING UNDERGROUND GAS AND ELECTRIC LINES","13502 THRU 13546 ELDRIDGE TRACE DR. MARK THE ENTIRE
 PROPER TY, SIDE AND  REAR EASEMENT, BOTH SIDES OF THE REAR EASEMENT AND
 THE ROAD  RIGHT OF  WAY ON BOTH SIDES OF THE ROAD.","JOB# 39237433, ELDRIDGE TRACE, 528 L  UPDATE PER CALLER-MARKINGS HAVE BEEN WASHED AWAY","PHILLIP TAMBORELLO","(713)691-3616","CALL FIRST","(713)333-2134","ORIGINAL","01364737","","1/24/2006 10:58:00 AM","1/26/2006 11:00:00 AM","HOUSTON CITY","TX","HARRIS","CENTERPOINT ENERGY","GAS_SERV","1/25/2006 5:18:04 PM","","STAKED","530","00912750","Hodgkiss","Sheldon"
"02462573","728","1/24/2006 11:02:00 AM","528","L","NOTI","0","ELDRIDGE TRACE DR","NORTH HOUSTON POLE LINE","ELDRIDGE RD","UPDATE","INSTALLING UNDERGROUND GAS AND ELECTRIC LINES","START MARKING FROM THE INTERSECTION GOING EAST MARK THE
 EN TIRE  PROPERTY ON THE NORTH SIDE OF THE ROAD FOR 500 FEET.","JOB# 39237433, ELDRIDGE TRACE, 528 L  UPDATE PER CALLER-MARKINGS HAVE BEEN WASHED AWAY","PHILLIP TAMBORELLO","(713)691-3616","CALL FIRST","(713)333-2134","ORIGINAL","01364769","","1/24/2006 11:01:00 AM","1/26/2006 11:15:00 AM","HOUSTON CITY","TX","HARRIS","CENTERPOINT ENERGY","GAS_MAIN","1/25/2006 5:45:17 PM","","STAKED","530","00912750","Hodgkiss","Sheldon"
"02462567","726","1/24/2006 11:02:00 AM","528","L","NOTI","0","BEECH RIDGE LN","NORTH HOUSTON POLE LINE","ELDRIDGE RD","UPDATE","INSTALLING UNDERGROUND GAS AND ELECTRIC LINES","13503 THRU 13551 BEECH RIDGE LN. MARK THE REAR OF
 PROPERTY , REAR  EASEMENT AND BOTH SIDES OF THE REAR EASEMENT.","JOB# 39237433, ELDRIDGE TRACE, 528 L  UPDATE PER CALLER-MARKINGS HAVE BEEN WASHED AWAY","PHILLIP TAMBORELLO","(713)691-3616","CALL FIRST","(713)333-2134","ORIGINAL","01364759","","1/24/2006 11:01:00 AM","1/26/2006 11:15:00 AM","HOUSTON CITY","TX","HARRIS","CENTERPOINT ENERGY","GAS_MAIN","1/25/2006 6:02:16 PM","","STAKED","530","00912750","Hodgkiss","Sheldon"
"02462567","726","1/24/2006 11:02:00 AM","528","L","NOTI","0","BEECH RIDGE LN","NORTH HOUSTON POLE LINE","ELDRIDGE RD","UPDATE","INSTALLING UNDERGROUND GAS AND ELECTRIC LINES","13503 THRU 13551 BEECH RIDGE LN. MARK THE REAR OF
 PROPERTY , REAR  EASEMENT AND BOTH SIDES OF THE REAR EASEMENT.","JOB# 39237433, ELDRIDGE TRACE, 528 L  UPDATE PER CALLER-MARKINGS HAVE BEEN WASHED AWAY","PHILLIP TAMBORELLO","(713)691-3616","CALL FIRST","(713)333-2134","ORIGINAL","01364759","","1/24/2006 11:01:00 AM","1/26/2006 11:15:00 AM","HOUSTON CITY","TX","HARRIS","CENTERPOINT ENERGY","GAS_SERV","1/25/2006 6:02:16 PM","","STAKED","530","00912750","Hodgkiss","Sheldon"
"02462597","731","1/24/2006 11:02:00 AM","528","L","NOTI","0","ELDRIDGE RD","NORTH HOUSTON POLE LINE","ELDRIDGE TRACE DR","UPDATE","INSTALLING UNDERGROUND GAS AND ELECTRIC LINES","START MARKING FROM THE INTERSECTION GOING SOUTH MARK THE
 F RONT OF  PROPERTY AND THE ROAD RIGHT OF WAY ON BOTH SIDES OF THE ROAD TO
   BEECHNUT.","JOB# 39237433, ELDRIDGE TRACE, 528 L  UPDATE PER CALLER-MARKINGS HAVE BEEN WASHED AWAY","PHILLIP TAMBORELLO","(713)691-3616","CALL FIRST","(713)333-2134","ORIGINAL","01364784","","1/24/2006 11:02:00 AM","1/26/2006 11:15:00 AM","HOUSTON CITY","TX","HARRIS","CENTERPOINT ENERGY","GAS_MAIN","1/25/2006 6:51:13 PM","","STAKED","530","00912750","Hodgkiss","Sheldon"
"02462584","730","1/24/2006 11:02:00 AM","528","L","NOTI","0","ELDRIDGE RD","NORTH HOUSTON POLE LINE","ELDRIDGE TRACE DR","UPDATE","INSTALLING UNDERGROUND GAS AND ELECTRIC LINES","START MARKING FROM THE INTERSECTION GOING NORTH MARK THE
 F RONT OF  PROPERTY AND THE ROAD RIGHT OF WAY ON BOTH SIDES OF THE ROAD
 FOR  300  FEET.","JOB# 39237433, ELDRIDGE TRACE, 528 L  UPDATE PER CALLER-MARKINGS HAVE BEEN WASHED AWAY","PHILLIP TAMBORELLO","(713)691-3616","CALL FIRST","(713)333-2134","ORIGINAL","01364777","","1/24/2006 11:02:00 AM","1/26/2006 11:15:00 AM","HOUSTON CITY","TX","HARRIS","CENTERPOINT ENERGY","GAS_MAIN","1/25/2006 6:51:49 PM","","STAKED","530","00912750","Hodgkiss","Sheldon"
"02462584","730","1/24/2006 11:02:00 AM","528","L","NOTI","0","ELDRIDGE RD","NORTH HOUSTON POLE LINE","ELDRIDGE TRACE DR","UPDATE","INSTALLING UNDERGROUND GAS AND ELECTRIC LINES","START MARKING FROM THE INTERSECTION GOING NORTH MARK THE
 F RONT OF  PROPERTY AND THE ROAD RIGHT OF WAY ON BOTH SIDES OF THE ROAD
 FOR  300  FEET.","JOB# 39237433, ELDRIDGE TRACE, 528 L  UPDATE PER CALLER-MARKINGS HAVE BEEN WASHED AWAY","PHILLIP TAMBORELLO","(713)691-3616","CALL FIRST","(713)333-2134","ORIGINAL","01364777","","1/24/2006 11:02:00 AM","1/26/2006 11:15:00 AM","HOUSTON CITY","TX","HARRIS","CENTERPOINT ENERGY","GAS_SERV","1/25/2006 6:51:50 PM","","STAKED","530","00912750","Hodgkiss","Sheldon"
"01165194","1570","1/11/2006 2:44:00 PM","489","Y","NOTI","      ","RICHMOND AVE","MP TECHNOLOGIES LLC","WILCREST","ROUTINE","REPAIR OF STREET LIGHT PRIMARY CABLE","MARK ENTIRE FRONT EASEMENT ON BOTH SIDES OF STREET TO  INCLUDE ENTIRE RD RIGHT OF WAY OF RICHMOND AVE FROM WILCREST GOING W  500FT W OF WOODLAND PARK DR, TO INCLUDE 100FT RADIUS OF ALL  INTERSECTIONS.","CPE MAP 5","BOBBY DOBBS","(281)477-7008","BOBBY/CELL","(713)816-8260","ORIGINAL","","","1/11/2006 2:39:00 PM","1/13/2006 2:45:00 PM","HOUSTON DIVISION","TX","HARRIS","CPE 39865060 MPK ANDREW","GAS_MAIN","1/26/2006 2:57:06 AM","","STAKED","530","00912571","Prove","Ken"
"01165194","1570","1/11/2006 2:44:00 PM","489","Y","NOTI","      ","RICHMOND AVE","MP TECHNOLOGIES LLC","WILCREST","ROUTINE","REPAIR OF STREET LIGHT PRIMARY CABLE","MARK ENTIRE FRONT EASEMENT ON BOTH SIDES OF STREET TO  INCLUDE ENTIRE RD RIGHT OF WAY OF RICHMOND AVE FROM WILCREST GOING W  500FT W OF WOODLAND PARK DR, TO INCLUDE 100FT RADIUS OF ALL  INTERSECTIONS.","CPE MAP 5","BOBBY DOBBS","(281)477-7008","BOBBY/CELL","(713)816-8260","ORIGINAL","","","1/11/2006 2:39:00 PM","1/13/2006 2:45:00 PM","HOUSTON DIVISION","TX","HARRIS","CPE 39865060 MPK ANDREW","GAS_SERV","1/26/2006 2:57:07 AM","","STAKED","530","00912571","Prove","Ken"
"02365212","1546","1/23/2006 2:50:00 PM","449","V","NOTI","      ","SHADOW WOOD","JIMERSON UNDERGROUND","SHADOW BEND DR","UPDATE","INSTALLATION OF WATER MAIN","MARK AND STAKE SHADOW WOOD GOING W APPROX 525FT FROM  SHADOW BEND DR, MARKING THE RD RIGHT OF WAY AND BOTH SIDES OF STREET.","UPDATE PER REMARK  CALLER REQUESTS FAX BACK","GILBERT HILL","(281)261-0976","SAME","none","ORIGINAL","00965572","","1/23/2006 2:49:00 PM","1/25/2006 3:00:00 PM","HOUSTON DIVISION","TX","HARRIS","CITY OF HOUSTON","GAS_SERV","1/26/2006 6:05:37 AM","no service in area of excavation ","NC","530","00912571","Prove","Ken"
"02365212","1546","1/23/2006 2:50:00 PM","449","V","NOTI","      ","SHADOW WOOD","JIMERSON UNDERGROUND","SHADOW BEND DR","UPDATE","INSTALLATION OF WATER MAIN","MARK AND STAKE SHADOW WOOD GOING W APPROX 525FT FROM  SHADOW BEND DR, MARKING THE RD RIGHT OF WAY AND BOTH SIDES OF STREET.","UPDATE PER REMARK  CALLER REQUESTS FAX BACK","GILBERT HILL","(281)261-0976","SAME","none","ORIGINAL","00965572","","1/23/2006 2:49:00 PM","1/25/2006 3:00:00 PM","HOUSTON DIVISION","TX","HARRIS","CITY OF HOUSTON","GAS_MAIN","1/26/2006 6:05:37 AM","","STAKED","530","00912571","Prove","Ken"
"02365212","1546","1/23/2006 2:50:00 PM","449","V","NOTI","      ","SHADOW WOOD","JIMERSON UNDERGROUND","SHADOW BEND DR","UPDATE","INSTALLATION OF WATER MAIN","MARK AND STAKE SHADOW WOOD GOING W APPROX 525FT FROM  SHADOW BEND DR, MARKING THE RD RIGHT OF WAY AND BOTH SIDES OF STREET.","UPDATE PER REMARK  CALLER REQUESTS FAX BACK","GILBERT HILL","(281)261-0976","SAME","none","ORIGINAL","00965572","","1/23/2006 2:49:00 PM","1/25/2006 3:00:00 PM","HOUSTON DIVISION","TX","HARRIS","CITY OF HOUSTON","ELEC_S/L","1/26/2006 6:05:37 AM","","STAKED","530","00912571","Prove","Ken"
"02460036","362","1/24/2006 10:03:00 AM","525","B","NOTI","7311","STARY NIGHT","GULF COAST ELECTRICAL SERVICES","LEGENDARY LN","ROUTINE","INSTALLING ELECTRICAL DROP","LOCATE ALL MAINS SERVICES ON ENTIRE PROPERTY LOCATE ALL
 AD JOINING EASEMENTS- WE MUST BE NOTIFIED IF ANY UTILITY HAS MULTIPLE
 LINES -  SUBDIVISION SEVEN MEADOWS","FAXED LOCATE REQUEST // CORRECT PER LOCATION OF WORK.  1-23-06","NONA SMITH","(281)993-5503","SAME","none","CORRECTION","","","1/24/2006 5:37:00 AM","1/26/2006 7:00:00 AM","KATY CITY","TX","FORT BEND","KATY","GAS_MAIN","1/26/2006 6:21:22 AM","IN ROUTE","IN PROG","525","00912759","Fowler","Michael"
"02460036","362","1/24/2006 10:03:00 AM","525","B","NOTI","7311","STARY NIGHT","GULF COAST ELECTRICAL SERVICES","LEGENDARY LN","ROUTINE","INSTALLING ELECTRICAL DROP","LOCATE ALL MAINS SERVICES ON ENTIRE PROPERTY LOCATE ALL
 AD JOINING EASEMENTS- WE MUST BE NOTIFIED IF ANY UTILITY HAS MULTIPLE
 LINES -  SUBDIVISION SEVEN MEADOWS","FAXED LOCATE REQUEST // CORRECT PER LOCATION OF WORK.  1-23-06","NONA SMITH","(281)993-5503","SAME","none","CORRECTION","","","1/24/2006 5:37:00 AM","1/26/2006 7:00:00 AM","KATY CITY","TX","FORT BEND","KATY","GAS_SERV","1/26/2006 6:21:22 AM","IN ROUTE","IN PROG","525","00912759","Fowler","Michael"
"02460036","26","1/24/2006 5:41:00 AM","525","F","NOTI","7311","STARY NIGHT","GULF COAST ELECTRICAL SERVICES","LEGENDARY LN","ROUTINE","INSTALLING ELECTRICAL DROP"," SERVICES ON ENTIRE PROPERTY LOCATE ALL ADJOINING EASEMENTS- - WE M ST BE NOTIFIED IF ANY UTILITY HAS MULTIPLE LINES - SUBDIVISION SEVEN","FAXED LOCATE REQUEST  1-23-06","NONA SMITH","(281)993-5503","SAME","none","ORIGINAL","","","1/24/2006 5:37:00 AM","1/26/2006 7:00:00 AM","KATY CITY","TX","FORT BEND","KATY","GAS_MAIN","1/26/2006 6:22:20 AM","IN ROUTE TICKET DUE  1/26/2006 7:00:00 AM","IN PROG","525","00912759","Fowler","Michael"
"02460036","26","1/24/2006 5:41:00 AM","525","F","NOTI","7311","STARY NIGHT","GULF COAST ELECTRICAL SERVICES","LEGENDARY LN","ROUTINE","INSTALLING ELECTRICAL DROP"," SERVICES ON ENTIRE PROPERTY LOCATE ALL ADJOINING EASEMENTS- - WE M ST BE NOTIFIED IF ANY UTILITY HAS MULTIPLE LINES - SUBDIVISION SEVEN","FAXED LOCATE REQUEST  1-23-06","NONA SMITH","(281)993-5503","SAME","none","ORIGINAL","","","1/24/2006 5:37:00 AM","1/26/2006 7:00:00 AM","KATY CITY","TX","FORT BEND","KATY","GAS_SERV","1/26/2006 6:22:20 AM","IN ROUTE TICKET DUE  1/26/2006 7:00:00 AM","IN PROG","525","00912759","Fowler","Michael"
