


SEQUENCE NUMBER 0001   CDC = AC 
 @@@@@ @   @ @@@@@ @@@@   @@@@ @@@@@ @   @  @@@@ @   @
 @     @@ @@ @     @   @ @     @     @@  @ @     @   @
 @@@@  @ @ @ @@@@  @@@@  @     @@@@  @ @ @ @      @ @
 @     @   @ @     @ @   @  @@ @     @ @ @ @       @
 @     @   @ @     @  @  @   @ @     @  @@ @       @
 @@@@@ @   @ @@@@@ @   @  @@@@ @@@@@ @   @  @@@@   @

 AC +VRIZON W V-UTIL EW =EQUITRANS       HRE+HARRISN RRL ELE HVL+HODGESVILLE PSD
 MPC+AP ELE/CLK-UTIL AED=BLAZER ENERGY-D CGB+COL GAS-BUCKHAN

             ------>  Miss Utility of West Virginia Notice <-----

 NOTICE:   10003  -->EMERGENCY                          Lead Time:    0

 County:         UPSHUR                     Town:       BUCKHANNON
 Street:         0  TURKEY RUN RD 
 Near Inter:     RT 20
 Excavation Length: 30 FT                   Excavation Direction: N
 Excavation Depth : 3-4FT                   Blasting:   NO
 Work for:       HODGEVILLE PSD
 Type of Work:   EMERGENCY-WTR LINE REPAIR
 In St:                                    On Sidewk:  
 Other:          RIGHT SIDE PROP TO INCL R/W
 On Prop Location:                          SIDE
 Dig Site Marked in White ?: YES    

 Start Date:     01-JAN-03                  Time:        1137
 DBLookup:       PINPOINT GRIDS  4          Prepared By: NICHOLE NIEMCZYK

 Remarks:  Distance From Intersection: 2     Direction: W
 EMERGENCY-WTR LINE REPAIR
 FROM INTER, GO APPX 2MI W ON TURKEY RUN RD AKA RT 6 TO SITE ON
 LEFT SIDE RD
 CREW ON SITE

 - - - - - - - - - - - - - - - - - - - - - - - - - - - - - - - - - - - - - - -
 Contractor:          ZINN'S HOE SERVICE
 Phone:               304-472-7962
 Address:             PO BOX 185; BUCKHANNON WV 26201
 Contact:             DARRYL ZINN          Contact Phone:   304-472-7962
 Alt Contact Phone:                        Fax:             304-472-9644
 Alt Contact:                              Alt Phone:       
 Caller:              DARRYL ZINN          Prepared:        01-JAN-03@1142

 Grids:
      39022-080146  39022-080148  39024-080148  39024-080150 






SEQUENCE NUMBER 0002   CDC = MPC
 @@@@@ @   @ @@@@@ @@@@   @@@@ @@@@@ @   @  @@@@ @   @
 @     @@ @@ @     @   @ @     @     @@  @ @     @   @
 @@@@  @ @ @ @@@@  @@@@  @     @@@@  @ @ @ @      @ @
 @     @   @ @     @ @   @  @@ @     @ @ @ @       @
 @     @   @ @     @  @  @   @ @     @  @@ @       @
 @@@@@ @   @ @@@@@ @   @  @@@@ @@@@@ @   @  @@@@   @

 AC +VRIZON W V-UTIL EW =EQUITRANS       HRE+HARRISN RRL ELE HVL+HODGESVILLE PSD
 MPC+AP ELE/CLK-UTIL AED=BLAZER ENERGY-D CGB+COL GAS-BUCKHAN

             ------>  Miss Utility of West Virginia Notice <-----

 NOTICE:   10003  -->EMERGENCY                          Lead Time:    0

 County:         UPSHUR                     Town:       BUCKHANNON
 Street:         0  TURKEY RUN RD 
 Near Inter:     RT 20
 Excavation Length: 30 FT                   Excavation Direction: N
 Excavation Depth : 3-4FT                   Blasting:   NO
 Work for:       HODGEVILLE PSD
 Type of Work:   EMERGENCY-WTR LINE REPAIR
 In St:                                    On Sidewk:  
 Other:          RIGHT SIDE PROP TO INCL R/W
 On Prop Location:                          SIDE
 Dig Site Marked in White ?: YES    

 Start Date:     01-JAN-03                  Time:        1137
 DBLookup:       PINPOINT GRIDS  4          Prepared By: NICHOLE NIEMCZYK

 Remarks:  Distance From Intersection: 2     Direction: W
 EMERGENCY-WTR LINE REPAIR
 FROM INTER, GO APPX 2MI W ON TURKEY RUN RD AKA RT 6 TO SITE ON
 LEFT SIDE RD
 CREW ON SITE

 - - - - - - - - - - - - - - - - - - - - - - - - - - - - - - - - - - - - - - -
 Contractor:          ZINN'S HOE SERVICE
 Phone:               304-472-7962
 Address:             PO BOX 185; BUCKHANNON WV 26201
 Contact:             DARRYL ZINN          Contact Phone:   304-472-7962
 Alt Contact Phone:                        Fax:             304-472-9644
 Alt Contact:                              Alt Phone:       
 Caller:              DARRYL ZINN          Prepared:        01-JAN-03@1142

 Grids:
      39022-080146  39022-080148  39024-080148  39024-080150 






SEQUENCE NUMBER 0003   CDC = AC 
 @@@@@ @   @ @@@@@ @@@@   @@@@ @@@@@ @   @  @@@@ @   @
 @     @@ @@ @     @   @ @     @     @@  @ @     @   @
 @@@@  @ @ @ @@@@  @@@@  @     @@@@  @ @ @ @      @ @
 @     @   @ @     @ @   @  @@ @     @ @ @ @       @
 @     @   @ @     @  @  @   @ @     @  @@ @       @
 @@@@@ @   @ @@@@@ @   @  @@@@ @@@@@ @   @  @@@@   @

 AC =VRIZON W V-UTIL EW =EQUITRANS       HRE=HARRISN RRL ELE HVL=HODGESVILLE PSD
 MPC=AP ELE/CLK-UTIL AED=BLAZER ENERGY-D CGB=COL GAS-BUCKHAN

             ------>  Miss Utility of West Virginia Notice <-----

 NOTICE:   10004  -->EMERGENCY                          Lead Time:    0

 County:         UPSHUR                     Town:       BUCKHANNON
 Street:         0  TURKEY RUN RD 
 Near Inter:     RT 20
 Excavation Length: 30 FT                   Excavation Direction: N
 Excavation Depth : 3-4FT                   Blasting:   NO
 Work for:       HODGEVILLE PSD
 Type of Work:   EMERGENCY-WTR LINE REPAIR
 In St:                                    On Sidewk:  
 Other:          RIGHT SIDE PROP TO INCL R/W
 On Prop Location:                          SIDE
 Dig Site Marked in White ?: YES    

 Start Date:     01-JAN-03                  Time:        1143
 DBLookup:       PINPOINT GRIDS  4          Prepared By: NICHOLE NIEMCZYK

 Remarks:  Distance From Intersection: 2     Direction: W
 EMERGENCY-WTR LINE REPAIR
 FROM INTER, GO APPX 2MI W ON TURKEY RUN RD AKA RT 6 TO SITE ON
 LEFT SIDE RD
 CREW ON SITE
 UPDATE 10003 TO ADD CELL #

 - - - - - - - - - - - - - - - - - - - - - - - - - - - - - - - - - - - - - - -
 Contractor:          ZINN'S HOE SERVICE
 Phone:               304-472-7962
 Address:             PO BOX 185; BUCKHANNON WV 26201
 Contact:             DARRYL ZINN          Contact Phone:   304-472-7962
 Alt Contact Phone:                        Fax:             304-472-9644
 Alt Contact:                              Alt Phone:       304-678-6014 CELL
 Caller:              DARRYL ZINN          Prepared:        01-JAN-03@1144

 Grids:
      39022-080146  39022-080148  39024-080148  39024-080150 






SEQUENCE NUMBER 0004   CDC = MPC
 @@@@@ @   @ @@@@@ @@@@   @@@@ @@@@@ @   @  @@@@ @   @
 @     @@ @@ @     @   @ @     @     @@  @ @     @   @
 @@@@  @ @ @ @@@@  @@@@  @     @@@@  @ @ @ @      @ @
 @     @   @ @     @ @   @  @@ @     @ @ @ @       @
 @     @   @ @     @  @  @   @ @     @  @@ @       @
 @@@@@ @   @ @@@@@ @   @  @@@@ @@@@@ @   @  @@@@   @

 AC =VRIZON W V-UTIL EW =EQUITRANS       HRE=HARRISN RRL ELE HVL=HODGESVILLE PSD
 MPC=AP ELE/CLK-UTIL AED=BLAZER ENERGY-D CGB=COL GAS-BUCKHAN

             ------>  Miss Utility of West Virginia Notice <-----

 NOTICE:   10004  -->EMERGENCY                          Lead Time:    0

 County:         UPSHUR                     Town:       BUCKHANNON
 Street:         0  TURKEY RUN RD 
 Near Inter:     RT 20
 Excavation Length: 30 FT                   Excavation Direction: N
 Excavation Depth : 3-4FT                   Blasting:   NO
 Work for:       HODGEVILLE PSD
 Type of Work:   EMERGENCY-WTR LINE REPAIR
 In St:                                    On Sidewk:  
 Other:          RIGHT SIDE PROP TO INCL R/W
 On Prop Location:                          SIDE
 Dig Site Marked in White ?: YES    

 Start Date:     01-JAN-03                  Time:        1143
 DBLookup:       PINPOINT GRIDS  4          Prepared By: NICHOLE NIEMCZYK

 Remarks:  Distance From Intersection: 2     Direction: W
 EMERGENCY-WTR LINE REPAIR
 FROM INTER, GO APPX 2MI W ON TURKEY RUN RD AKA RT 6 TO SITE ON
 LEFT SIDE RD
 CREW ON SITE
 UPDATE 10003 TO ADD CELL #

 - - - - - - - - - - - - - - - - - - - - - - - - - - - - - - - - - - - - - - -
 Contractor:          ZINN'S HOE SERVICE
 Phone:               304-472-7962
 Address:             PO BOX 185; BUCKHANNON WV 26201
 Contact:             DARRYL ZINN          Contact Phone:   304-472-7962
 Alt Contact Phone:                        Fax:             304-472-9644
 Alt Contact:                              Alt Phone:       304-678-6014 CELL
 Caller:              DARRYL ZINN          Prepared:        01-JAN-03@1144

 Grids:
      39022-080146  39022-080148  39024-080148  39024-080150 






SEQUENCE NUMBER 0005   CDC = AW 
 @@@@   @@@  @   @ @@@@@ @@@@@ @   @ @@@@@
 @   @ @   @ @   @   @     @   @@  @ @
 @@@@  @   @ @   @   @     @   @ @ @ @@@@
 @ @   @   @ @   @   @     @   @ @ @ @
 @  @  @   @ @   @   @     @   @  @@ @
 @   @  @@@   @@@    @   @@@@@ @   @ @@@@@

 AW =VRZN WV CL-UTIL MPW=AE ELE/WRT-UTIL CHS=CHESTER CITY    CWW=AP/MT GAS/COVRD


             ------>  Miss Utility of West Virginia Notice <-----

 NOTICE:   10002  -->ROUTINE                            Lead Time:   48

 County:         HANCOCK                    Town:       CHESTER
 Street:         0  JOHNSONVILLE RD 
 Near Inter:     OLD US HWY 30
 Excavation Length: 300 FT                  Excavation Direction: U
 Excavation Depth : 8FT                     Blasting:   NO
 Work for:       MARK COOPER
 Type of Work:   INSTL SEWER LINES
 In St:                                    On Sidewk:  
 Other:          
 On Prop Location:                          FRONT, REAR, SIDE
 Dig Site Marked in White ?: NO     

 Start Date:     04-JAN-03                  Time:        0800
 DBLookup:       PINPOINT GRIDS  7          Prepared By: REBECCA COLEMAN

 Remarks:  Distance From Intersection: .5     Direction: E
 FROM THE BUSINESS ON THE PROPERTY (FRONT) TO THE FRONT OF THE
 PROPERTY (ON THE SAME LAND) APPX 60FT, GOING AT AN ANGLE FROM
 FRONT OF BUSINESS TO THE MAIN
 FROM THE INTER 5/10 MILES EAST ON SOUTH SIDE

 - - - - - - - - - - - - - - - - - - - - - - - - - - - - - - - - - - - - - - -
 Contractor:          OYSTER SEWER & DRAIN SERVICE
 Phone:               304-387-4051
 Address:             RR1 BOX 699; CHESTER WV 26034
 Contact:             JEFF OYSTER          Contact Phone:   304-387-4051
 Alt Contact Phone:                        Fax:             
 Alt Contact:                              Alt Phone:       
 Caller:              JEFF OYSTER          Prepared:        01-JAN-03@1128

 Grids:
      40364-080322  40366-080322  40364-080324  40366-080324  40366-080326 
      40366-080328  40366-080330 






SEQUENCE NUMBER 0006   CDC = MPW
 @@@@   @@@  @   @ @@@@@ @@@@@ @   @ @@@@@
 @   @ @   @ @   @   @     @   @@  @ @
 @@@@  @   @ @   @   @     @   @ @ @ @@@@
 @ @   @   @ @   @   @     @   @ @ @ @
 @  @  @   @ @   @   @     @   @  @@ @
 @   @  @@@   @@@    @   @@@@@ @   @ @@@@@

 AW =VRZN WV CL-UTIL MPW=AE ELE/WRT-UTIL CHS=CHESTER CITY    CWW=AP/MT GAS/COVRD


             ------>  Miss Utility of West Virginia Notice <-----

 NOTICE:   10002  -->ROUTINE                            Lead Time:   48

 County:         HANCOCK                    Town:       CHESTER
 Street:         0  JOHNSONVILLE RD 
 Near Inter:     OLD US HWY 30
 Excavation Length: 300 FT                  Excavation Direction: U
 Excavation Depth : 8FT                     Blasting:   NO
 Work for:       MARK COOPER
 Type of Work:   INSTL SEWER LINES
 In St:                                    On Sidewk:  
 Other:          
 On Prop Location:                          FRONT, REAR, SIDE
 Dig Site Marked in White ?: NO     

 Start Date:     04-JAN-03                  Time:        0800
 DBLookup:       PINPOINT GRIDS  7          Prepared By: REBECCA COLEMAN

 Remarks:  Distance From Intersection: .5     Direction: E
 FROM THE BUSINESS ON THE PROPERTY (FRONT) TO THE FRONT OF THE
 PROPERTY (ON THE SAME LAND) APPX 60FT, GOING AT AN ANGLE FROM
 FRONT OF BUSINESS TO THE MAIN
 FROM THE INTER 5/10 MILES EAST ON SOUTH SIDE

 - - - - - - - - - - - - - - - - - - - - - - - - - - - - - - - - - - - - - - -
 Contractor:          OYSTER SEWER & DRAIN SERVICE
 Phone:               304-387-4051
 Address:             RR1 BOX 699; CHESTER WV 26034
 Contact:             JEFF OYSTER          Contact Phone:   304-387-4051
 Alt Contact Phone:                        Fax:             
 Alt Contact:                              Alt Phone:       
 Caller:              JEFF OYSTER          Prepared:        01-JAN-03@1128

 Grids:
      40364-080322  40366-080322  40364-080324  40366-080324  40366-080326 
      40366-080328  40366-080330 




SEQUENCE NUMBER 0021   CDC = AC 
 @@@@@ @   @ @@@@@ @@@@   @@@@ @@@@@ @   @  @@@@ @   @
 @     @@ @@ @     @   @ @     @     @@  @ @     @   @
 @@@@  @ @ @ @@@@  @@@@  @     @@@@  @ @ @ @      @ @
 @     @   @ @     @ @   @  @@ @     @ @ @ @       @
 @     @   @ @     @  @  @   @ @     @  @@ @       @
 @@@@@ @   @ @@@@@ @   @  @@@@ @@@@@ @   @  @@@@   @

 AC =VRIZON W V-UTIL CJ =DOMINION-PRKRBG LWS=LUBECK PSD      MPP=AL PWR/PKB-UTIL


             ------>  Miss Utility of West Virginia Notice <-----

 NOTICE:   20022  -->EMERGENCY                          Lead Time:    0

 County:         WOOD                       Town:       WASHINGTON*
 Street:         19  SANDY LN 
 Near Inter:     MELDAHL RD
 Excavation Length: 10 FT                   Excavation Direction: U
 Excavation Depth : 5FT                     Blasting:   NO
 Work for:       LUBECK PSD
 Type of Work:   EMERGENCY REPAIR WATER LEAK
 In St:          X                          On Sidewk:  X
 Other:          
 On Prop Location:                          FRONT
 Dig Site Marked in White ?: YES    

 Start Date:     02-JAN-03                  Time:        0908
 DBLookup:       FP  1 39140-081384         Prepared By: LINDA SMITH

 Remarks:  Distance From Intersection: .25     Direction: SW
 EMERGENCY CREW IS ENROUTE
 PROPERTY LOCATED APPX 1/4MI SW OF ABOVE INTER
 MELDAHL RD AKA CR 3/6

 - - - - - - - - - - - - - - - - - - - - - - - - - - - - - - - - - - - - - - -
 Contractor:          LUBECK PUBLIC SERVICE DISTRICT
 Phone:               304-863-3341
 Address:             PO BOX 700; WASHINGTON WV 26181
 Contact:             JIM COX              Contact Phone:   304-863-3341
 Alt Contact Phone:   304-863-3341         Fax:             304-863-3791
 Alt Contact:         JOHN KIRK            Alt Phone:       
 Caller:              JIM COX              Prepared:        02-JAN-03@0913

 Grids:






SEQUENCE NUMBER 0022   CDC = MPP
 @@@@@ @   @ @@@@@ @@@@   @@@@ @@@@@ @   @  @@@@ @   @
 @     @@ @@ @     @   @ @     @     @@  @ @     @   @
 @@@@  @ @ @ @@@@  @@@@  @     @@@@  @ @ @ @      @ @
 @     @   @ @     @ @   @  @@ @     @ @ @ @       @
 @     @   @ @     @  @  @   @ @     @  @@ @       @
 @@@@@ @   @ @@@@@ @   @  @@@@ @@@@@ @   @  @@@@   @

 AC =VRIZON W V-UTIL CJ =DOMINION-PRKRBG LWS=LUBECK PSD      MPP=AL PWR/PKB-UTIL


             ------>  Miss Utility of West Virginia Notice <-----

 NOTICE:   20022  -->EMERGENCY                          Lead Time:    0

 County:         WOOD                       Town:       WASHINGTON*
 Street:         19  SANDY LN 
 Near Inter:     MELDAHL RD
 Excavation Length: 10 FT                   Excavation Direction: U
 Excavation Depth : 5FT                     Blasting:   NO
 Work for:       LUBECK PSD
 Type of Work:   EMERGENCY REPAIR WATER LEAK
 In St:          X                          On Sidewk:  X
 Other:          
 On Prop Location:                          FRONT
 Dig Site Marked in White ?: YES    

 Start Date:     02-JAN-03                  Time:        0908
 DBLookup:       FP  1 39140-081384         Prepared By: LINDA SMITH

 Remarks:  Distance From Intersection: .25     Direction: SW
 EMERGENCY CREW IS ENROUTE
 PROPERTY LOCATED APPX 1/4MI SW OF ABOVE INTER
 MELDAHL RD AKA CR 3/6

 - - - - - - - - - - - - - - - - - - - - - - - - - - - - - - - - - - - - - - -
 Contractor:          LUBECK PUBLIC SERVICE DISTRICT
 Phone:               304-863-3341
 Address:             PO BOX 700; WASHINGTON WV 26181
 Contact:             JIM COX              Contact Phone:   304-863-3341
 Alt Contact Phone:   304-863-3341         Fax:             304-863-3791
 Alt Contact:         JOHN KIRK            Alt Phone:       
 Caller:              JIM COX              Prepared:        02-JAN-03@0913

 Grids:






SEQUENCE NUMBER 0023   CDC = AW 
 @@@@   @@@  @   @ @@@@@ @@@@@ @   @ @@@@@
 @   @ @   @ @   @   @     @   @@  @ @
 @@@@  @   @ @   @   @     @   @ @ @ @@@@
 @ @   @   @ @   @   @     @   @ @ @ @
 @  @  @   @ @   @   @     @   @  @@ @
 @   @  @@@   @@@    @   @@@@@ @   @ @@@@@

 AW =VRZN WV CL-UTIL CW =AP/MT GAS/WHLNG MH =AEP/WHELING PWR MPW=AE ELE/WRT-UTIL
 OCP=OHIO COUNTY PSD CGL=COL GAS-CLAYSVL TCB=AT&T-BRIDGEPORT

             ------>  Miss Utility of West Virginia Notice <-----

 NOTICE:   20019  -->ROUTINE                            Lead Time:   77

 County:         OHIO                       Town:       VALLEY GROVE
 Street:         0  CR 41  
 Near Inter:     CR 41/2
 Excavation Length: 600 FT                  Excavation Direction: U
 Excavation Depth : 5FT                     Blasting:   NO
 Work for:       WVDOH
 Type of Work:   INSTALL GUARDRAIL
 In St:          X                          On Sidewk:  
 Other:          GUARDRAIL AREA
 On Prop Location:                          UNKNOWN
 Dig Site Marked in White ?: YES    

 Start Date:     07-JAN-03                  Time:        1500
 DBLookup:       PINPOINT GRIDS 20          Prepared By: ANNA MASAOUD

 Remarks:  Distance From Intersection: 0     Direction: U
 INSTALLING 600FT OF GAURDRAIL 300 FT N & S OF THE ABOVE INTER
 AREA OF EXCAVATION MARKED WITH WHITE PAINT
 CR 41 AKA DALLAS PIKE RD **** CR 41/2 AKA JENKINS LANE

 - - - - - - - - - - - - - - - - - - - - - - - - - - - - - - - - - - - - - - -
 Contractor:          GREEN ACRES CONTRACTING COMPANY
 Phone:               724-887-8096
 Address:             PO BOX 463; SCOTTDALE PA 15683
 Contact:             AL PISULA            Contact Phone:   724-887-8096
 Alt Contact Phone:   724-887-8096         Fax:             724-887-8111
 Alt Contact:         JUDY BOYD            Alt Phone:       
 Caller:              AL PISULA            Prepared:        02-JAN-03@0910

 Grids:
      40036-080336  40038-080336  40040-080336  40042-080336  40036-080338 
      40038-080338  40040-080338  40042-080338  40036-080340  40038-080340 
      40040-080340  40042-080340  40036-080342  40038-080342  40040-080342 
      40042-080342  40036-080344  40038-080344  40040-080344  40042-080344 
     






SEQUENCE NUMBER 0024   CDC = MPW
 @@@@   @@@  @   @ @@@@@ @@@@@ @   @ @@@@@
 @   @ @   @ @   @   @     @   @@  @ @
 @@@@  @   @ @   @   @     @   @ @ @ @@@@
 @ @   @   @ @   @   @     @   @ @ @ @
 @  @  @   @ @   @   @     @   @  @@ @
 @   @  @@@   @@@    @   @@@@@ @   @ @@@@@

 AW =VRZN WV CL-UTIL CW =AP/MT GAS/WHLNG MH =AEP/WHELING PWR MPW=AE ELE/WRT-UTIL
 OCP=OHIO COUNTY PSD CGL=COL GAS-CLAYSVL TCB=AT&T-BRIDGEPORT

             ------>  Miss Utility of West Virginia Notice <-----

 NOTICE:   20019  -->ROUTINE                            Lead Time:   77

 County:         OHIO                       Town:       VALLEY GROVE
 Street:         0  CR 41  
 Near Inter:     CR 41/2
 Excavation Length: 600 FT                  Excavation Direction: U
 Excavation Depth : 5FT                     Blasting:   NO
 Work for:       WVDOH
 Type of Work:   INSTALL GUARDRAIL
 In St:          X                          On Sidewk:  
 Other:          GUARDRAIL AREA
 On Prop Location:                          UNKNOWN
 Dig Site Marked in White ?: YES    

 Start Date:     07-JAN-03                  Time:        1500
 DBLookup:       PINPOINT GRIDS 20          Prepared By: ANNA MASAOUD

 Remarks:  Distance From Intersection: 0     Direction: U
 INSTALLING 600FT OF GAURDRAIL 300 FT N & S OF THE ABOVE INTER
 AREA OF EXCAVATION MARKED WITH WHITE PAINT
 CR 41 AKA DALLAS PIKE RD **** CR 41/2 AKA JENKINS LANE

 - - - - - - - - - - - - - - - - - - - - - - - - - - - - - - - - - - - - - - -
 Contractor:          GREEN ACRES CONTRACTING COMPANY
 Phone:               724-887-8096
 Address:             PO BOX 463; SCOTTDALE PA 15683
 Contact:             AL PISULA            Contact Phone:   724-887-8096
 Alt Contact Phone:   724-887-8096         Fax:             724-887-8111
 Alt Contact:         JUDY BOYD            Alt Phone:       
 Caller:              AL PISULA            Prepared:        02-JAN-03@0910

 Grids:
      40036-080336  40038-080336  40040-080336  40042-080336  40036-080338 
      40038-080338  40040-080338  40042-080338  40036-080340  40038-080340 
      40040-080340  40042-080340  40036-080342  40038-080342  40040-080342 
      40042-080342  40036-080344  40038-080344  40040-080344  40042-080344 
     






SEQUENCE NUMBER 0025   CDC = AW 
 @@@@   @@@  @   @ @@@@@ @@@@@ @   @ @@@@@
 @   @ @   @ @   @   @     @   @@  @ @
 @@@@  @   @ @   @   @     @   @ @ @ @@@@
 @ @   @   @ @   @   @     @   @ @ @ @
 @  @  @   @ @   @   @     @   @  @@ @
 @   @  @@@   @@@    @   @@@@@ @   @ @@@@@

 AW =VRZN WV CL-UTIL CL =COL GAS-CLINTON CWW=AP/MT GAS/COVRD MPW=AE ELE/WRT-UTIL
 NEW=NEWELL WATER CO

             ------>  Miss Utility of West Virginia Notice <-----

 NOTICE:   20020  -->ROUTINE                            Lead Time:   48

 County:         HANCOCK                    Town:       NEWELL
 Street:         119  GRANT ST 
 Near Inter:     2ND ST
 Excavation Length:                         Excavation Direction: 
 Excavation Depth : UNKNOWN                 Blasting:   NO
 Work for:       ALLEGHENY POWER(MOUNTAINEER)
 Type of Work:   REPAIR GAS LINE
 In St:          X                          On Sidewk:  
 Other:          BOTH SIDES OF ST
 On Prop Location:                          UNKNOWN
 Dig Site Marked in White ?: NO     

 Start Date:     06-JAN-03                  Time:        0915
 DBLookup:       STREET GRIDS 12            Prepared By: ANNEMARIE HUSSAK

 Remarks:  Distance From Intersection:      Direction: 

 - - - - - - - - - - - - - - - - - - - - - - - - - - - - - - - - - - - - - - -
 Contractor:          ALLEGHENY POWER (MOUNTAINEER GAS)
 Phone:               304-723-5986
 Address:             PO BOX 2455; WEIRTON WV 26062
 Contact:             EARLENE MERCER       Contact Phone:   304-723-5986
 Alt Contact Phone:                        Fax:             304-723-5209
 Alt Contact:                              Alt Phone:       
 Caller:              EARLENE MERCER       Prepared:        02-JAN-03@0910

 Grids:
      40372-080356  40374-080358  40374-080356  40374-080354  40372-080358 
      40372-080354  40370-080358  40370-080356  40370-080354  40374-080360 
      40372-080360  40370-080360 






SEQUENCE NUMBER 0026   CDC = MPW
 @@@@   @@@  @   @ @@@@@ @@@@@ @   @ @@@@@
 @   @ @   @ @   @   @     @   @@  @ @
 @@@@  @   @ @   @   @     @   @ @ @ @@@@
 @ @   @   @ @   @   @     @   @ @ @ @
 @  @  @   @ @   @   @     @   @  @@ @
 @   @  @@@   @@@    @   @@@@@ @   @ @@@@@

 AW =VRZN WV CL-UTIL CL =COL GAS-CLINTON CWW=AP/MT GAS/COVRD MPW=AE ELE/WRT-UTIL
 NEW=NEWELL WATER CO

             ------>  Miss Utility of West Virginia Notice <-----

 NOTICE:   20020  -->ROUTINE                            Lead Time:   48

 County:         HANCOCK                    Town:       NEWELL
 Street:         119  GRANT ST 
 Near Inter:     2ND ST
 Excavation Length:                         Excavation Direction: 
 Excavation Depth : UNKNOWN                 Blasting:   NO
 Work for:       ALLEGHENY POWER(MOUNTAINEER)
 Type of Work:   REPAIR GAS LINE
 In St:          X                          On Sidewk:  
 Other:          BOTH SIDES OF ST
 On Prop Location:                          UNKNOWN
 Dig Site Marked in White ?: NO     

 Start Date:     06-JAN-03                  Time:        0915
 DBLookup:       STREET GRIDS 12            Prepared By: ANNEMARIE HUSSAK

 Remarks:  Distance From Intersection:      Direction: 

 - - - - - - - - - - - - - - - - - - - - - - - - - - - - - - - - - - - - - - -
 Contractor:          ALLEGHENY POWER (MOUNTAINEER GAS)
 Phone:               304-723-5986
 Address:             PO BOX 2455; WEIRTON WV 26062
 Contact:             EARLENE MERCER       Contact Phone:   304-723-5986
 Alt Contact Phone:                        Fax:             304-723-5209
 Alt Contact:                              Alt Phone:       
 Caller:              EARLENE MERCER       Prepared:        02-JAN-03@0910

 Grids:
      40372-080356  40374-080358  40374-080356  40374-080354  40372-080358 
      40372-080354  40370-080358  40370-080356  40370-080354  40374-080360 
      40372-080360  40370-080360 






SEQUENCE NUMBER 0027   CDC = AW 
 @@@@   @@@  @   @ @@@@@ @@@@@ @   @ @@@@@
 @   @ @   @ @   @   @     @   @@  @ @
 @@@@  @   @ @   @   @     @   @ @ @ @@@@
 @ @   @   @ @   @   @     @   @ @ @ @
 @  @  @   @ @   @   @     @   @  @@ @
 @   @  @@@   @@@    @   @@@@@ @   @ @@@@@

 AW =VRZN WV CL-UTIL CWW=AP/MT GAS/COVRD MPW=AE ELE/WRT-UTIL NEW=NEWELL WATER CO
 CL =COL GAS-CLINTON GRT=GRANT PSD      

             ------>  Miss Utility of West Virginia Notice <-----

 NOTICE:   20021  -->ROUTINE                            Lead Time:   48

 County:         HANCOCK                    Town:       NEWELL
 Street:         602  HARKER AVE 
 Near Inter:     WATER ST
 Excavation Length:                         Excavation Direction: 
 Excavation Depth : UNKNOWN                 Blasting:   NO
 Work for:       ALLEGHENY POWER(MOUNTAINEER)
 Type of Work:   REPAIR MAIN GAS LINE
 In St:                                    On Sidewk:  
 Other:          BOTH SIDES OF ALLEY A
 On Prop Location:                          UNKNOWN
 Dig Site Marked in White ?: NO     

 Start Date:     06-JAN-03                  Time:        0915
 DBLookup:       STREET GRIDS  9            Prepared By: ANNEMARIE HUSSAK

 Remarks:  Distance From Intersection:      Direction: 
 LOCATE IN ALLEY A IN REAR OF ABOVE ADDRESS

 - - - - - - - - - - - - - - - - - - - - - - - - - - - - - - - - - - - - - - -
 Contractor:          ALLEGHENY POWER (MOUNTAINEER GAS)
 Phone:               304-723-5986
 Address:             PO BOX 2455; WEIRTON WV 26062
 Contact:             EARLENE MERCER       Contact Phone:   304-723-5986
 Alt Contact Phone:                        Fax:             304-723-5209
 Alt Contact:                              Alt Phone:       
 Caller:              EARLENE MERCER       Prepared:        02-JAN-03@0912

 Grids:
      40366-080360  40368-080362  40368-080360  40368-080358  40366-080362 
      40366-080358  40364-080362  40364-080360  40364-080358 






SEQUENCE NUMBER 0028   CDC = MPW
 @@@@   @@@  @   @ @@@@@ @@@@@ @   @ @@@@@
 @   @ @   @ @   @   @     @   @@  @ @
 @@@@  @   @ @   @   @     @   @ @ @ @@@@
 @ @   @   @ @   @   @     @   @ @ @ @
 @  @  @   @ @   @   @     @   @  @@ @
 @   @  @@@   @@@    @   @@@@@ @   @ @@@@@

 AW =VRZN WV CL-UTIL CWW=AP/MT GAS/COVRD MPW=AE ELE/WRT-UTIL NEW=NEWELL WATER CO
 CL =COL GAS-CLINTON GRT=GRANT PSD      

             ------>  Miss Utility of West Virginia Notice <-----

 NOTICE:   20021  -->ROUTINE                            Lead Time:   48

 County:         HANCOCK                    Town:       NEWELL
 Street:         602  HARKER AVE 
 Near Inter:     WATER ST
 Excavation Length:                         Excavation Direction: 
 Excavation Depth : UNKNOWN                 Blasting:   NO
 Work for:       ALLEGHENY POWER(MOUNTAINEER)
 Type of Work:   REPAIR MAIN GAS LINE
 In St:                                    On Sidewk:  
 Other:          BOTH SIDES OF ALLEY A
 On Prop Location:                          UNKNOWN
 Dig Site Marked in White ?: NO     

 Start Date:     06-JAN-03                  Time:        0915
 DBLookup:       STREET GRIDS  9            Prepared By: ANNEMARIE HUSSAK

 Remarks:  Distance From Intersection:      Direction: 
 LOCATE IN ALLEY A IN REAR OF ABOVE ADDRESS

 - - - - - - - - - - - - - - - - - - - - - - - - - - - - - - - - - - - - - - -
 Contractor:          ALLEGHENY POWER (MOUNTAINEER GAS)
 Phone:               304-723-5986
 Address:             PO BOX 2455; WEIRTON WV 26062
 Contact:             EARLENE MERCER       Contact Phone:   304-723-5986
 Alt Contact Phone:                        Fax:             304-723-5209
 Alt Contact:                              Alt Phone:       
 Caller:              EARLENE MERCER       Prepared:        02-JAN-03@0912

 Grids:
      40366-080360  40368-080362  40368-080360  40368-080358  40366-080362 
      40366-080358  40364-080362  40364-080360  40364-080358 






SEQUENCE NUMBER 0029   CDC = AC 
 @@@@   @@@  @   @ @@@@@ @@@@@ @   @ @@@@@
 @   @ @   @ @   @   @     @   @@  @ @
 @@@@  @   @ @   @   @     @   @ @ @ @@@@
 @ @   @   @ @   @   @     @   @ @ @ @
 @  @  @   @ @   @   @     @   @  @@ @
 @   @  @@@   @@@    @   @@@@@ @   @ @@@@@

 AC =VRIZON W V-UTIL BUC=BUCKHANNON CITY CE =AP/MT GAS/RNDPH MPC=AP ELE/CLK-UTIL
 CGB=COL GAS-BUCKHAN

             ------>  Miss Utility of West Virginia Notice <-----

 NOTICE:   20023  -->ROUTINE                            Lead Time:   48

 County:         UPSHUR                     Town:       BUCKHANNON
 Street:         8  FRANKLIN PL 
 Near Inter:     CHESTNUT ST
 Excavation Length:                         Excavation Direction: 
 Excavation Depth : 18IN                    Blasting:   NO
 Work for:       BRENT HYRE
 Type of Work:   INSTALL GAS SVC
 In St:                                    On Sidewk:  
 Other:          LEFT SIDE
 On Prop Location:                          SIDE
 Dig Site Marked in White ?: YES    

 Start Date:     06-JAN-03                  Time:        0915
 DBLookup:       STREET GRIDS 12            Prepared By: MELISSA CROOKS

 Remarks:  Distance From Intersection:      Direction: 

 - - - - - - - - - - - - - - - - - - - - - - - - - - - - - - - - - - - - - - -
 Contractor:          BRENT HYRE
 Phone:               304-472-8532
 Address:             8 FRANKLIN PL; BUCKHANNON WV 26201
 Contact:             BRENT HYRE           Contact Phone:   304-472-8532
 Alt Contact Phone:                        Fax:             
 Alt Contact:                              Alt Phone:       304-362-5099
 Caller:              BRENT HYRE           Prepared:        02-JAN-03@0913

 Grids:
      38592-080136  38594-080138  38594-080136  38594-080134  38592-080138 
      38592-080134  38590-080138  38590-080136  38590-080134  38594-080140 
      38592-080140  38590-080140 






SEQUENCE NUMBER 0030   CDC = MPC
 @@@@   @@@  @   @ @@@@@ @@@@@ @   @ @@@@@
 @   @ @   @ @   @   @     @   @@  @ @
 @@@@  @   @ @   @   @     @   @ @ @ @@@@
 @ @   @   @ @   @   @     @   @ @ @ @
 @  @  @   @ @   @   @     @   @  @@ @
 @   @  @@@   @@@    @   @@@@@ @   @ @@@@@

 AC =VRIZON W V-UTIL BUC=BUCKHANNON CITY CE =AP/MT GAS/RNDPH MPC=AP ELE/CLK-UTIL
 CGB=COL GAS-BUCKHAN

             ------>  Miss Utility of West Virginia Notice <-----

 NOTICE:   20023  -->ROUTINE                            Lead Time:   48

 County:         UPSHUR                     Town:       BUCKHANNON
 Street:         8  FRANKLIN PL 
 Near Inter:     CHESTNUT ST
 Excavation Length:                         Excavation Direction: 
 Excavation Depth : 18IN                    Blasting:   NO
 Work for:       BRENT HYRE
 Type of Work:   INSTALL GAS SVC
 In St:                                    On Sidewk:  
 Other:          LEFT SIDE
 On Prop Location:                          SIDE
 Dig Site Marked in White ?: YES    

 Start Date:     06-JAN-03                  Time:        0915
 DBLookup:       STREET GRIDS 12            Prepared By: MELISSA CROOKS

 Remarks:  Distance From Intersection:      Direction: 

 - - - - - - - - - - - - - - - - - - - - - - - - - - - - - - - - - - - - - - -
 Contractor:          BRENT HYRE
 Phone:               304-472-8532
 Address:             8 FRANKLIN PL; BUCKHANNON WV 26201
 Contact:             BRENT HYRE           Contact Phone:   304-472-8532
 Alt Contact Phone:                        Fax:             
 Alt Contact:                              Alt Phone:       304-362-5099
 Caller:              BRENT HYRE           Prepared:        02-JAN-03@0913

 Grids:
      38592-080136  38594-080138  38594-080136  38594-080134  38592-080138 
      38592-080134  38590-080138  38590-080136  38590-080134  38594-080140 
      38592-080140  38590-080140 






SEQUENCE NUMBER 0031   CDC = AX 
 @@@@   @@@  @   @ @@@@@ @@@@@ @   @ @@@@@
 @   @ @   @ @   @   @     @   @@  @ @
 @@@@  @   @ @   @   @     @   @ @ @ @@@@
 @ @   @   @ @   @   @     @   @ @ @ @
 @  @  @   @ @   @   @     @   @  @@ @
 @   @  @@@   @@@    @   @@@@@ @   @ @@@@@

 AX =VRZN WV-MD-UTIL CEM=AP/MT GAS/ARDEN PEB=AL PWR/PEB-UTIL

             ------>  Miss Utility of West Virginia Notice <-----

 NOTICE:   20024  -->ROUTINE                            Lead Time:   48

 County:         BERKELEY                   Town:       MARTINSBURG
 Street:         91  COMPASSION DR 
 Near Inter:     PAYNES FORD RD
 Excavation Length:                         Excavation Direction: 
 Excavation Depth : 40IN                    Blasting:   NO
 Work for:       MODERN RENOVATORS
 Type of Work:   TRENCHING UG POWER LINE
 In St:                                    On Sidewk:  
 Other:          
 On Prop Location:                          FRONT
 Dig Site Marked in White ?: YES    

 Start Date:     06-JAN-03                  Time:        0930
 DBLookup:       STREET GRIDS 21            Prepared By: SHANNON GYURE

 Remarks:  Distance From Intersection:      Direction: 
 RC/3610019-STILL WAITING FOR TEL TO RESPOND.
 SITE IS IN FRONT OF A GRAY TRAILER

 - - - - - - - - - - - - - - - - - - - - - - - - - - - - - - - - - - - - - - -
 Contractor:          MODERN RENAVATORS
 Phone:               304-264-4663
 Address:             908 W KING ST; MARTINSBURG WV 25401
 Contact:             STEVE DEMICK         Contact Phone:   304-264-4663
 Alt Contact Phone:                        Fax:             304-264-4663
 Alt Contact:                              Alt Phone:       304-671-1301 CELL
 Caller:              STEVE DEMICK         Prepared:        02-JAN-03@0914

 Grids:
      39242-077572  39244-077574  39244-077572  39244-077570  39242-077574 
      39242-077570  39240-077574  39240-077572  39240-077570  39244-077576 
      39242-077576  39240-077576  39244-077578  39242-077578  39240-077578 
      39246-077572  39246-077570  39246-077568  39244-077568  39242-077568 
      39246-077574 






SEQUENCE NUMBER 0032   CDC = PEB
 @@@@   @@@  @   @ @@@@@ @@@@@ @   @ @@@@@
 @   @ @   @ @   @   @     @   @@  @ @
 @@@@  @   @ @   @   @     @   @ @ @ @@@@
 @ @   @   @ @   @   @     @   @ @ @ @
 @  @  @   @ @   @   @     @   @  @@ @
 @   @  @@@   @@@    @   @@@@@ @   @ @@@@@

 AX =VRZN WV-MD-UTIL CEM=AP/MT GAS/ARDEN PEB=AL PWR/PEB-UTIL

             ------>  Miss Utility of West Virginia Notice <-----

 NOTICE:   20024  -->ROUTINE                            Lead Time:   48

 County:         BERKELEY                   Town:       MARTINSBURG
 Street:         91  COMPASSION DR 
 Near Inter:     PAYNES FORD RD
 Excavation Length:                         Excavation Direction: 
 Excavation Depth : 40IN                    Blasting:   NO
 Work for:       MODERN RENOVATORS
 Type of Work:   TRENCHING UG POWER LINE
 In St:                                    On Sidewk:  
 Other:          
 On Prop Location:                          FRONT
 Dig Site Marked in White ?: YES    

 Start Date:     06-JAN-03                  Time:        0930
 DBLookup:       STREET GRIDS 21            Prepared By: SHANNON GYURE

 Remarks:  Distance From Intersection:      Direction: 
 RC/3610019-STILL WAITING FOR TEL TO RESPOND.
 SITE IS IN FRONT OF A GRAY TRAILER

 - - - - - - - - - - - - - - - - - - - - - - - - - - - - - - - - - - - - - - -
 Contractor:          MODERN RENAVATORS
 Phone:               304-264-4663
 Address:             908 W KING ST; MARTINSBURG WV 25401
 Contact:             STEVE DEMICK         Contact Phone:   304-264-4663
 Alt Contact Phone:                        Fax:             304-264-4663
 Alt Contact:                              Alt Phone:       304-671-1301 CELL
 Caller:              STEVE DEMICK         Prepared:        02-JAN-03@0914

 Grids:
      39242-077572  39244-077574  39244-077572  39244-077570  39242-077574 
      39242-077570  39240-077574  39240-077572  39240-077570  39244-077576 
      39242-077576  39240-077576  39244-077578  39242-077578  39240-077578 
      39246-077572  39246-077570  39246-077568  39244-077568  39242-077568 
      39246-077574 






SEQUENCE NUMBER 0033   CDC = AW 
 @@@@   @@@  @   @ @@@@@ @@@@@ @   @ @@@@@
 @   @ @   @ @   @   @     @   @@  @ @
 @@@@  @   @ @   @   @     @   @ @ @ @@@@
 @ @   @   @ @   @   @     @   @ @ @ @
 @  @  @   @ @   @   @     @   @  @@ @
 @   @  @@@   @@@    @   @@@@@ @   @ @@@@@

 AW =VRZN WV CL-UTIL GRT=GRANT PSD       MPW=AE ELE/WRT-UTIL

             ------>  Miss Utility of West Virginia Notice <-----

 NOTICE:   20025  -->ROUTINE                            Lead Time:   48

 County:         HANCOCK                    Town:       NEWELL
 Street:         0  CR RT 1  
 Near Inter:     RT 2
 Excavation Length: 50 FT                   Excavation Direction: S
 Excavation Depth : 5FT                     Blasting:   NO
 Work for:       WVDOH
 Type of Work:   REPAIR  GUARDRAIL
 In St:          X                          On Sidewk:  
 Other:          GUARDRAIL AREA
 On Prop Location:                          UNKNOWN
 Dig Site Marked in White ?: YES    

 Start Date:     06-JAN-03                  Time:        1000
 DBLookup:       PINPOINT GRIDS  6          Prepared By: ANNA MASAOUD

 Remarks:  Distance From Intersection: 1.4     Direction: S
 REPAIRING GUARDRAIL DUE TO ACCIDENT 1.4 MI S OF THE ABOVE INTER
 ON LEFT SIDE OF RD
 AREA OF EXCAVATION MARKED IN WHITE PAINT
 CR 1 AKA NEWELL RD

 - - - - - - - - - - - - - - - - - - - - - - - - - - - - - - - - - - - - - - -
 Contractor:          GREEN ACRES CONTRACTING COMPANY
 Phone:               724-887-8096
 Address:             PO BOX 463; SCOTTDALE PA 15683
 Contact:             AL PISULA            Contact Phone:   724-887-8096
 Alt Contact Phone:   724-887-8096         Fax:             724-887-8111
 Alt Contact:         JUDY BOYD            Alt Phone:       
 Caller:              AL PISULA            Prepared:        02-JAN-03@0914

 Grids:
      40362-080360  40360-080362  40362-080362  40356-080364  40358-080364 
      40360-080364 






SEQUENCE NUMBER 0034   CDC = MPW
 @@@@   @@@  @   @ @@@@@ @@@@@ @   @ @@@@@
 @   @ @   @ @   @   @     @   @@  @ @
 @@@@  @   @ @   @   @     @   @ @ @ @@@@
 @ @   @   @ @   @   @     @   @ @ @ @
 @  @  @   @ @   @   @     @   @  @@ @
 @   @  @@@   @@@    @   @@@@@ @   @ @@@@@

 AW =VRZN WV CL-UTIL GRT=GRANT PSD       MPW=AE ELE/WRT-UTIL

             ------>  Miss Utility of West Virginia Notice <-----

 NOTICE:   20025  -->ROUTINE                            Lead Time:   48

 County:         HANCOCK                    Town:       NEWELL
 Street:         0  CR RT 1  
 Near Inter:     RT 2
 Excavation Length: 50 FT                   Excavation Direction: S
 Excavation Depth : 5FT                     Blasting:   NO
 Work for:       WVDOH
 Type of Work:   REPAIR  GUARDRAIL
 In St:          X                          On Sidewk:  
 Other:          GUARDRAIL AREA
 On Prop Location:                          UNKNOWN
 Dig Site Marked in White ?: YES    

 Start Date:     06-JAN-03                  Time:        1000
 DBLookup:       PINPOINT GRIDS  6          Prepared By: ANNA MASAOUD

 Remarks:  Distance From Intersection: 1.4     Direction: S
 REPAIRING GUARDRAIL DUE TO ACCIDENT 1.4 MI S OF THE ABOVE INTER
 ON LEFT SIDE OF RD
 AREA OF EXCAVATION MARKED IN WHITE PAINT
 CR 1 AKA NEWELL RD

 - - - - - - - - - - - - - - - - - - - - - - - - - - - - - - - - - - - - - - -
 Contractor:          GREEN ACRES CONTRACTING COMPANY
 Phone:               724-887-8096
 Address:             PO BOX 463; SCOTTDALE PA 15683
 Contact:             AL PISULA            Contact Phone:   724-887-8096
 Alt Contact Phone:   724-887-8096         Fax:             724-887-8111
 Alt Contact:         JUDY BOYD            Alt Phone:       
 Caller:              AL PISULA            Prepared:        02-JAN-03@0914

 Grids:
      40362-080360  40360-080362  40362-080362  40356-080364  40358-080364 
      40360-080364 








