
PBTHAN 00390 USAN 04/03/12 14:54:20 0112596 NORMAL NOTICE 

Message Number: 0112596 Received by USAN at 14:47 on 04/03/12 by CJM

Work Begins:    04/09/12 at 08:00   Notice: 033 hrs      Priority: 2
Night Work: N    Weekend Work: N

Expires: 05/01/12 at 23:59   Update By: 04/27/12 at 16:59

Caller:         RUPERT SALINAS           
Company:        PGE FRESNO                         
Address:        3850 E. CALIFORNIA AV                   
City:           FRESNO                        State: CA Zip: 00000
Business Tel:   661-342-0785                  Fax:                             
Email Address:  RXSW@PGE.COM                                                

Nature of Work: HAND DIG TO PLUG OFF GAS L              
Done for:       SAME #4165 8116               Explosives: N
Foreman:        CALLER                   
Field Tel:                                    Cell Tel: 661-342-0785           
Area Premarked: Y   Premark Method: WHITE PAINT                                
Permit Type:    CITY                          Number: PEND                     
Vac / Pwr Equip Use In The Approx Location Of Member Facilities Requested: N
Excavation Enters Into Street Or Sidewalk Area: Y

Location: 
Street Address:         36 E BELLAIRE WAY
  Cross Street:         N THORNE AVE

    WRK FRT/O ADDR 

Place: FRESNO, CO AREA              County: FRESNO               State: CA

Long/Lat Long: -119.812664 Lat:  36.791156 Long: -119.811932 Lat:  36.791818 


Sent to:
CTYFNO = CITY FRESNO                  COMFNO = COMCAST-FRESNO               
PBTHAN = PACIFIC BELL HANFORD         PGEFNO = PGE DISTR FRESNO             




At&t Ticket Id: 25146136   clli code: FRSNCA11