
FROM DSNY      06/04/2013 AT 00:19
Dest: UTILIQUEST / PRIMARY
Service Area:                                ID: UTILIQUEST / PRIMARY
*******************************************************************************
*                 TICKET AUDIT FOR TRANSMISSIONS ON: 06/03/2013               *
*******************************************************************************

06033-145-016-00  E 0016   06033-152-034-00  R 0017   06033-139-060-00  R 0028   
06033-152-056-00  R 0030   06033-500-102-00  R 0042   06033-500-157-00  R 0047   
06033-500-173-00  R 0052   06033-012-003-00  E 0001   06033-120-002-00  R 0002   
06033-120-003-00  R 0003   06033-040-005-00  E 0004   06033-120-012-00  I 0005   
06033-120-015-00  E 0006   06033-179-002-00  R 0007   05293-044-019-01 +P 0008   
06033-161-004-00  R 0009   06033-152-024-00  R 0010   06033-152-025-00  R 0011   
06033-152-028-00  R 0012   06033-152-029-00  R 0013   06033-181-004-00  R 0014   
06033-011-001-00  R 0015   05293-044-019-02 +P 0018   06033-074-023-00  E 0019   
06033-074-024-00  R 0020   06033-139-043-00  R 0021   06033-161-026-00  I 0022   
06033-154-039-00  E 0023   06033-167-042-00  R 0024   06033-145-027-00  R 0025   
06033-520-046-00  R 0026   06033-167-049-00  R 0027   06033-012-058-00  E 0029   
06033-154-047-00  R 0031   06033-500-079-00  R 0032   06033-161-039-00  R 0033   
06033-167-057-00  R 0034   06033-500-099-00  R 0035   06033-161-047-00  R 0036   
06033-170-027-00  I 0037   06033-500-100-00  R 0038   06033-500-101-00  R 0039   
06033-166-033-00  R 0040   06033-179-043-00  R 0041   06033-167-064-00  R 0043   
06033-167-065-00  R 0044   06033-500-156-00  R 0045   06033-170-053-00  E 0046   
06033-500-166-00  R 0048   06033-500-168-00  R 0049   06033-167-074-00  R 0050   
05303-152-053-01 +R 0051   06033-074-066-00  R 0053   06033-500-174-00  R 0054   
06033-500-175-00  R 0055   06033-152-083-00  R 0056   06033-040-077-00  E 0057   
06033-520-133-00  R 0058   06033-179-057-00  R 0059   06033-500-177-00  R 0060   
05293-044-019-03 +P 0061   06033-500-179-00  R 0062   06033-139-107-00  R 0063   
06033-040-091-00  R 0064   06033-040-092-00  R 0065   06033-500-181-00  R 0066   
06033-139-109-00  R 0067   06033-500-184-00  R 0068   05163-150-080-01 +P 0069   
06033-154-076-00  E 0070   06033-146-107-00  R 0071   06033-179-073-00  R 0072   
06033-177-034-00  R 0073   06033-222-066-00  E 0074   06033-179-086-00  R 0075   
06033-154-089-00  R 0076   06033-177-041-00  R 0077   06033-177-042-00  R 0078   
06033-044-022-00  R 0079   06033-177-055-00  E 0080   06033-044-040-00  R 0081   
06033-044-045-00  R 0082   

 (+) RETRANSMIT - 0005         (E) EMERGENCY    - 0012
 (-) RESENT     - 0000         (P) PRIORITY     - 0004
 (!) CANCEL     - 0000         (I) INSUFFICIENT - 0003
 ( ) NORMAL     - 0077         (R) REGULAR      - 0063
                               (G) GAS EMERG    - 0000
                               (D) DESIGN       - 0000

                                   TOTAL        - 0082


There are no responses due today


