
FROM DSNY      06/03/2013 AT 00:22
Dest: UTILIQUEST / PRIMARY
Service Area:                                ID: UTILIQUEST / PRIMARY
*******************************************************************************
*                 TICKET AUDIT FOR TRANSMISSIONS ON: 06/02/2013               *
*******************************************************************************

06023-501-001-00  R 0001   

 (+) RETRANSMIT - 0000         (E) EMERGENCY    - 0000
 (-) RESENT     - 0000         (P) PRIORITY     - 0000
 (!) CANCEL     - 0000         (I) INSUFFICIENT - 0000
 ( ) NORMAL     - 0001         (R) REGULAR      - 0001
                               (G) GAS EMERG    - 0000
                               (D) DESIGN       - 0000

                                   TOTAL        - 0001


There are no responses due today


