

From: IRTHNet  At: 03/13/13 04:03 PM  Seq No: 315

UULC 
Ticket No: 13056101               2 FULL BUSINESS   CANCELLATION 
Send To: QLNWA30    Seq No:    5  Map Ref:  

Transmit      Date:  3/13/13   Time:  1:09 pm    Op: orruth 
Original Call Date:  3/13/13   Time: 10:25 am    Op: webusr 
Work to Begin Date:  3/16/13   Time: 12:00 am 

State: WA            County: WHATCOM                 Place: LYNDEN 
Address:             Street: HAWTHORNE LANE 
Nearest Intersecting Street: HAWTHORNE ST 

Twp: 39N   Rng: 2E    Sect-Qtr: 19 
Twp: 39N   Rng: 2E    Sect-Qtr: 19 
Legal Given:  
Nad: 27    Lat: 48.854128  Lon:-122.600558    Zone:  
ExCoord NW Lat: 48.8627480 Lon:-122.6166400 SE Lat: 48.8482500 Lon:-122.5955670 

Type of Work: NEW CONSTRUCTION 
Location of Work: LOCATE FROM THE INTERSECTION OF HAWTHORNE ST AND HAWTHORNE
: LANE APPROX. 200 LINEAR FEET NORTH ON HAWTHORNE LANE TO THE END OF THE
: STREET.  LOCATE THE ENTIRE ROAD INCLUDING ALL EASEMENTS AND RIGHT OF WAYS.
: LOCATE IN-BETWEEN ADDRESS 5860 AND 5869 HAWTHORNE LANE APPROX. 150 LINEAR
: FEET NORTH INTO THE PROPERTY LOCATING ALL EASEMENTS AND RIGHT OF WAYS. 

Remarks: TYLER BOSMAN CANCELED-WRONG CITY/A NEW TICKET HAS CREATED 
: MAPPED PER TRSQ PROVIDED++CALLER LAT/LON IS ON AZALEA 

Company     : LEN HONCOOP GRAVEL INC 
Contact Name: TYLER BOSMAN                     Phone: (360)354-4763 
Cont. Email : TYLER@HONCOOP.COM 
Alt. Contact: TYLER BOSMAN- CELL -             Phone: (360)815-6318 
Contact Fax : (360)354-0611 
Work Being Done For: C & Y DEVELOPMENT 
Additional Members:  
BLKRC01    CC7770     CCWTA01    CNG16      FERN01     GTE01      MTVWTR01 
 PUGE11
