
This is a multi-part message in MIME format.

--WC_MAIL_PaRt_BoUnDaRy_05151998
Content-Type: text/plain
Content-Transfer-Encoding: 7Bit

New Mexico One Call
NOTICE OF INTENT TO EXCAVATE                   Header Code: STANDARD LOCATE
Ticket No:    2003262867 Seq. No: 2
Update of:              
Original Call Date:     06/26/2003     Time:      01:37:15 PM  OP: 97
Transmit Date:          06/26/2003     Time:      01:38:14 PM
Work to Begin Date:     06/30/2003     Time:      01:37:00 PM

Company:           HOME OWNER (HOMEO)                      
Contact Name:      JOHN                       Contact Phone:   (505)222-2222 
Alternate Contact:                            Alternate Phone:                  
Best Time to Call:                            Fax No:                           
Cell Phone:                                   Pager No:                         

State: NM       County: UNION           City: TEST CITY
Address:          , SEE REMARKS                             
To Address:       
Nearest Intersecting Street:                                         
2nd Intersecting Street:                                             
Subdivision:                               

Location of Work: THIS IS A TEST ONLY OF THE EMAIL FOR UTILIQUEST   




Remarks:                                                   


Type of Work: SEE ADDITIONAL INFO                          
Private Property:      Street:                Overhead Lines:     Blasting:  
Easement:              Mechanical Boring:     Premarked:       
Work Being Done For: HOME OWNER (HOMEO)                                
Sending to: (listing of utilities tkt sent to)
*TELD           NMOC            


                                 FOR MEMBER USE ONLY
Located by____________________________________Date of Location_________________
Remarks:_______________________________________________________________________
_______________________________________________________________________________
_______________________________________________________________________________
Excavator Notified (Not located)__________________ Who Notified________________
Notified by:__________________________________Date:______________Time:_________
--WC_MAIL_PaRt_BoUnDaRy_05151998--



This is a multi-part message in MIME format.

--WC_MAIL_PaRt_BoUnDaRy_05151998
Content-Type: text/plain
Content-Transfer-Encoding: 7Bit

New Mexico One Call
NOTICE OF INTENT TO EXCAVATE                   Header Code: EMERGENCY
Ticket No:    2003262870 Seq. No: 3
Update of:              
Original Call Date:     06/26/2003     Time:      01:38:18 PM  OP: 97
Transmit Date:          06/26/2003     Time:      01:38:44 PM
Work to Begin Date:     06/26/2003     Time:      01:38:00 PM

Company:           HOME OWNER (HOMEO)                      
Contact Name:      JOHN                       Contact Phone:   (505)222-2222 
Alternate Contact:                            Alternate Phone:                  
Best Time to Call:                            Fax No:                           
Cell Phone:                                   Pager No:                         

State: NM       County: UNION           City: TEST CITY
Address:          , SEE REMARKS                             
To Address:       
Nearest Intersecting Street:                                         
2nd Intersecting Street:                                             
Subdivision:                               

Location of Work: THIS IS A TEST ONLY OF THE EMAIL FOR UTILIQUEST   




Remarks:                                                   


Type of Work: SEE ADDITIONAL INFO                          
Private Property:      Street:                Overhead Lines:     Blasting:  
Easement:              Mechanical Boring:     Premarked:       
Work Being Done For: HOME OWNER (HOMEO)                                
Sending to: (listing of utilities tkt sent to)
*TELD           NMOC            


                                 FOR MEMBER USE ONLY
Located by____________________________________Date of Location_________________
Remarks:_______________________________________________________________________
_______________________________________________________________________________
_______________________________________________________________________________
Excavator Notified (Not located)__________________ Who Notified________________
Notified by:__________________________________Date:______________Time:_________
--WC_MAIL_PaRt_BoUnDaRy_05151998--


