
					NOTICE OF INTENT TO EXCAVATE 
EMER-EMERGENCY                          CORRECTION 
Ticket No: 70192639 
Update Of:        0                     Updated By:         0 
Transmit      Date:  5/10/07            Time:  8:44     Op: charlene.1059 
Original Call Date:  5/10/07            Time:  8:41     Op: charlene.1059 

Company     : SHREVEPORT WATER DEPARTMENT 
Contact Name: TERRY                           Contact Phone: (318)673-7600 
Alt. Contact:                                 Alt. Phone   : (318)673-7602 

Type of Work : REPAIRING WATER MAIN 
Work Done For: SHREVEPORT WATER DEPARTMENT 

State: LA       Parish: CADDO 
Place: SHREVEPORT CITY 
Address: 3908        Street: DILGLEAGUE 
Nearest Intersecting Street: LAKE SHORE 

Location:       QUEENSBURY SUBD --- MARK IN FRONT OF PROPERTY ON BOTH SIDES
: OF STREET --CUST STATES ADDRESS IS CLOSE TO INTERSECTION 

Remarks: EMERGENCY!!!!RUSH!!!!!ASAP!!!!!!!CREW ENROUTE TO THE SITE NOW!!! 
DANGER TO PROPERTY 

Work to Begin Date:  5/10/07            Time:  8:45 AM 
Mark By       Date:                     Time:          

Ex. Coord: NW Lat: 32.4902528Lon: -93.8042554SE Lat: 32.4890527Lon:  -93.8020070 

Additional Members:  ATT01, CSHREV01, SWE01 

Send To:  ARK05     Seq No:   7 
Send To:  SH01      Seq No:  16 


				