

Consolidated Tickets: 2

 NCOC DPC16* 2004/06/01  #00028 A0362816-01A NORM RXMT
 NCOC DPC16* 2004/06/01  #00027 A0362816-00A NORM NEW

CONSOLIDATED TICKET 1 OF 2:

DPC16* 00028 NCOCa 06/01/04 17:29:14 A0362816-01A NORM RXMT GRID

North Carolina One Call

Ticket : A0362816 Date: 06/01/04 Time: 17:28 Oper: PLH Chan:
Old Tkt: A0362816 Date: 06/01/04 Time: 17:27 Oper: PLH Rev :01A

State: NC Cnty: CLEVELAND Place: GROVER In/Out: B
Subdivision: BUFFALO ACRES

Address : 108
Street  : VILLA DR   Intersection: N
Cross 1 : WATERSON DR
Location: HOW FAR IS THE JOB SITE FROM THE CLOSEST CROSS STREET?      XST WITHIN
1/4MI             LOCATE RIGHT SIDE AS FACING FROM HOUSE TO EXISTING FENCE,
ENTIRE REAR TO OTHER SIDE OF HOUSE
:
Grids   : 3510C8128D   3510D8128D

Work type:FENCING
Work date:06/03/04  Time: 17:22  Hours notice: 48/48  Priority: NORM
Ug/Oh/Both: U  Blasting: N  Boring: N  Railroad: Y     Emergency: N
Duration: UNK  Done for: SAME

Company : CARIE POPE  Type: HOME
Co addr : 108 VILLA DR
City    : GROVER State: NC Zip: 28073
Caller  : SAME Phone: 704-937-9632
BestTime:

Remarks : AFTER 48HR
NEEDS THIS MARKED W/FLAGS. THANKS--PLH 06/01/2004 05:27PM
:
Submitted date: 06/01/04 Time: 17:29
Members: BEC01  BEC02  CCS01  COS01  CSR01  CSR02  DPC16* SBT31* VCS01*



CONSOLIDATED TICKET 2 OF 2:

DPC16* 00027 NCOCa 06/01/04 17:27:53 A0362816-00A NORM NEW GRID

North Carolina One Call

Ticket : A0362816 Date: 06/01/04 Time: 17:23 Oper: PLH Chan:999
Old Tkt: A0362816 Date: 06/01/04 Time: 17:27 Oper: PLH Rev :00A

State: NC Cnty: CLEVELAND Place: GROVER In/Out: B
Subdivision: BUFFALO ACRES

Address : 108
Street  : VILLA DR   Intersection: N
Cross 1 : WATERSON DR
Location: HOW FAR IS THE JOB SITE FROM THE CLOSEST CROSS STREET?      XST WITHIN
1/4MI             LOCATE RIGHT SIDE AS FACING FROM HOUSE TO EXISTING FENCE,
ENTIRE REAR TO OTHER SIDE OF HOUSE
:
Grids   : 3510C8128D   3510D8128D

Work type:FENCING
Work date:06/03/04  Time: 17:22  Hours notice: 48/48  Priority: NORM
Ug/Oh/Both: U  Blasting: N  Boring: N  Railroad: Y     Emergency: N
Duration: UNK  Done for: SAME

Company : CARIE POPE  Type: HOME
Co addr : 108 VILLA DR
City    : GROVER State: NC Zip: 28073
Caller  : SAME Phone: 704-937-9632
BestTime:

Remarks : AFTER 48HR
:
Submitted date: 06/01/04 Time: 17:27
Members: BEC01  BEC02  CCS01  COS01  CSR01  CSR02  DPC16* SBT31* VCS01*



BEC01  00664 NCOCa 02/06/02 17:48:34 A0062728-00A NORM NEW PLCE

North Carolina One Call

Ticket : A0062728 Date: 02/06/02 Time: 17:47 Oper: PLH Chan:999
Old Tkt: A0062728 Date: 02/06/02 Time: 17:47 Oper: PLH Rev :00A

State: NC Cnty: MECKLENBURG Place: CHARLOTTE OUT In/Out: B
Subdivision: CHURCHFIELD

Address :
Street  : CHURCHFIELD LN   Intersection: N
Cross 1 : CAROLINA ACADEMY RD
Location: LOCATE BOTH SIDES OF THE RD FROM XST FOR ENTIRE LENGTH OF THE RD FOR
APPROX 1/4 MILE
ALL INFO CALLER COULD GIVE, CALL IF QUESTIONS FOR RANDY
WORK WILL BEGIN AT DAY AND TIME ON TICKET
:
Grids   :

Work type:POWER INSTALLATION
Work date:02/08/02  Time: 17:47  Hours notice: 48/48  Priority: NORM
Ug/Oh/Both: U  Blasting: N  Boring: N  Railroad: N     Emergency: N
Duration: 3 MONTHS  Done for: DUKE POWER

Company : MASTEC  Type: CONT
Co addr : 5550-A WILKINSON BLVD
City    : CHARLOTTE State: NC Zip: 28208
Caller  : RANDY NORTON Phone: 704-393-2250
BestTime:

Remarks : --SEE ORIGINAL TICKET#: A0025484-00A
:
Submitted date: 02/06/02 Time: 17:47
Members: ABS01* ATT01  BEC01  CHA01  CSR01  CSR02  DPC1L* ETS01  MCI01  MCT02*
Members: NOC30P PLP01  PNG02* QST01  SBT31* VCN01*

