
ZZQ35 9 PUPS Voice 04/21/2004 1:44:35 PM 0004200007 Resend

Ticket Number: 0004200007
Old Ticket Number: 
Created By: Administrator
Seq Number: 9

Created Date: 04/20/2004 1:33:45 PM
Work Date/Time: 04/20/2004 1:45:41 PM
Update:           Good Through:         

Excavation Information:
State: SC     County: ABBEVILLE
Place: ABBEVILLE
Address Number: 123
Street: TEST ST
Inters St: S TEST ST
Subd: NONE

Type of Work: OTHER
Duration: NO VALUE

Boring/Drilling: N Blasting: N White Lined: Y Near Railroad: N 

Work Done By: TEST

Remarks/Instructions: TEST TICKET - DO NOT LOCATE                             
TEST TICKET - DO NOT LOCATE                                                   
TEST TICKET - DO NOT LOCATE                                                   
                                                                              
ON SUCCESSFUL RECEPTION PLEASE NOTIFY RHONDA AT PUPS  1-800-290-2783 OR       
RDOTMAN@SC1PUPS.ORG                                                           

Caller Information: 
Name: RHONDA                                PUPS                                  
Address: 123 MAIN
City: COLUMBIA State: SC Zip: 00000
Phone: (555) 555-1212 Ext:  Type: Business
Fax:  Caller Email: NONE

Contact Information:
Contact:RHONDA Email: RDOTMAN@SC1PUPS.ORG
Call Back:1-800-290-2783 Fax: 

Grids: 
Lat/Long: 0, 0
Secondary: 0, 0
Lat/Long Caller Supplied: N 

Members Involved: ADDZ11 ATT09 BJW49 BRD11 BRRW22 CCRZ62 CHG31 CHT11 CMB20    
COC82 COL23 CPC44 CPLZ05 ECUS85 FAE07 FMT20 FTH63 FTHS64 FTHW65 GWC38 HOT21   
HTC47 KIU06 KNO45 LBC17 LC393 LRE34 LTC28 MCI18 QWC42 SCG05 SCG75 SCWS44      
SJW43 SPR80 SWS58 TDS10 TOP62 TWCZ40 TWTZ26 VER06 WCC72 WOC22 WTGN02 YOR56    


Map Link: (NEEDS DEVELOPEMNT)





ZZQ35 10 PUPS Voice 04/21/2004 1:44:36 PM 0004200003 Emergency

Ticket Number: 0004200003
Old Ticket Number: 
Created By: Administrator
Seq Number: 10

Created Date: 04/20/2004 1:31:02 PM
Work Date/Time: 04/20/2004 1:30:00 PM
Update: 04/29/2004 Good Through: 05/04/2004

Excavation Information:
State: SC     County: ABBEVILLE
Place: ABBEVILLE
Address Number: 123
Street: TEST ST
Inters St: S TEST ST
Subd: NONE

Type of Work: OTHER
Duration: NO VALUE

Boring/Drilling: N Blasting: N White Lined: Y Near Railroad: N 

Work Done By: TEST

Remarks/Instructions: TEST TICKET - DO NOT LOCATE                             
TEST TICKET - DO NOT LOCATE                                                   
TEST TICKET - DO NOT LOCATE                                                   
                                                                              
ON SUCCESSFUL RECEPTION PLEASE NOTIFY RHONDA AT PUPS  1-800-290-2783 OR       
RDOTMAN@SC1PUPS.ORG                                                           

Caller Information: 
Name: RHONDA                                PUPS                                  
Address: 123 MAIN
City: COLUMBIA State: SC Zip: 00000
Phone: (555) 555-1212 Ext:  Type: Business
Fax:  Caller Email: NONE

Contact Information:
Contact:RHONDA Email: RDOTMAN@SC1PUPS.ORG
Call Back:1-800-290-2783 Fax: 

Grids: 
Lat/Long: 0, 0
Secondary: 0, 0
Lat/Long Caller Supplied: N 

Members Involved: ADDZ11 ATT09 BJW49 BRD11 BRRW22 CCRZ62 CHG31 CHT11 CMB20    
COC82 COL23 CPC44 CPLZ05 ECUS85 FAE07 FMT20 FTH63 FTHS64 FTHW65 GWC38 HOT21   
HTC47 KIU06 KNO45 LBC17 LC393 LRE34 LTC28 MCI18 QWC42 SCG05 SCG75 SCWS44      
SJW43 SPR80 SWS58 TDS10 TOP62 TWCZ40 TWTZ26 VER06 WCC72 WOC22 WTGN02 YOR56    


Map Link: (NEEDS DEVELOPEMNT)





ZZQ35 11 PUPS Voice 04/21/2004 1:44:37 PM 0004200009 Update

Ticket Number: 0004200009
Old Ticket Number: 
Created By: Administrator
Seq Number: 11

Created Date: 04/20/2004 1:35:15 PM
Work Date/Time: 04/22/2004 1:45:00 PM
Update: 05/03/2004 Good Through: 05/06/2004

Excavation Information:
State: SC     County: ABBEVILLE
Place: ABBEVILLE
Address Number: 123
Street: TEST ST
Inters St: S TEST ST
Subd: NONE

Type of Work: OTHER
Duration: NO VALUE

Boring/Drilling: N Blasting: N White Lined: Y Near Railroad: N 

Work Done By: TEST

Remarks/Instructions: TEST TICKET - DO NOT LOCATE                             
TEST TICKET - DO NOT LOCATE                                                   
TEST TICKET - DO NOT LOCATE                                                   
                                                                              
ON SUCCESSFUL RECEPTION PLEASE NOTIFY RHONDA AT PUPS  1-800-290-2783 OR       
RDOTMAN@SC1PUPS.ORG                                                           

Caller Information: 
Name: RHONDA                                PUPS                                  
Address: 123 MAIN
City: COLUMBIA State: SC Zip: 00000
Phone: (555) 555-1212 Ext:  Type: Business
Fax:  Caller Email: NONE

Contact Information:
Contact:RHONDA Email: RDOTMAN@SC1PUPS.ORG
Call Back:1-800-290-2783 Fax: 

Grids: 
Lat/Long: 0, 0
Secondary: 0, 0
Lat/Long Caller Supplied: N 

Members Involved: ADDZ11 ATT09 BJW49 BRD11 BRRW22 CCRZ62 CHG31 CHT11 CMB20    
COC82 COL23 CPC44 CPLZ05 ECUS85 FAE07 FMT20 FTH63 FTHS64 FTHW65 GWC38 HOT21   
HTC47 KIU06 KNO45 LBC17 LC393 LRE34 LTC28 MCI18 QWC42 SCG05 SCG75 SCWS44      
SJW43 SPR80 SWS58 TDS10 TOP62 TWCZ40 TWTZ26 VER06 WCC72 WOC22 WTGN02 YOR56    


Map Link: (NEEDS DEVELOPEMNT)





ZZQ35 12 PUPS Voice 04/21/2004 1:44:39 PM 0004200005 No Show

Ticket Number: 0004200005
Old Ticket Number: 
Created By: Administrator
Seq Number: 12

Created Date: 04/20/2004 1:32:27 PM
Work Date/Time: 04/20/2004 1:45:32 PM
Update:           Good Through:         

Excavation Information:
State: SC     County: ABBEVILLE
Place: ABBEVILLE
Address Number: 123
Street: TEST ST
Inters St: S TEST ST
Subd: NONE

Type of Work: OTHER
Duration: NO VALUE

Boring/Drilling: N Blasting: N White Lined: Y Near Railroad: N 

Work Done By: TEST

Remarks/Instructions: TEST TICKET - DO NOT LOCATE                             
TEST TICKET - DO NOT LOCATE                                                   
TEST TICKET - DO NOT LOCATE                                                   
                                                                              
ON SUCCESSFUL RECEPTION PLEASE NOTIFY RHONDA AT PUPS  1-800-290-2783 OR       
RDOTMAN@SC1PUPS.ORG                                                           

Caller Information: 
Name: RHONDA                                PUPS                                  
Address: 123 MAIN
City: COLUMBIA State: SC Zip: 00000
Phone: (555) 555-1212 Ext:  Type: Business
Fax:  Caller Email: NONE

Contact Information:
Contact:RHONDA Email: RDOTMAN@SC1PUPS.ORG
Call Back:1-800-290-2783 Fax: 

Grids: 
Lat/Long: 0, 0
Secondary: 0, 0
Lat/Long Caller Supplied: N 

Members Involved: ADDZ11 ATT09 BJW49 BRD11 BRRW22 CCRZ62 CHG31 CHT11 CMB20    
COC82 COL23 CPC44 CPLZ05 ECUS85 FAE07 FMT20 FTH63 FTHS64 FTHW65 GWC38 HOT21   
HTC47 KIU06 KNO45 LBC17 LC393 LRE34 LTC28 MCI18 QWC42 SCG05 SCG75 SCWS44      
SJW43 SPR80 SWS58 TDS10 TOP62 TWCZ40 TWTZ26 VER06 WCC72 WOC22 WTGN02 YOR56    


Map Link: (NEEDS DEVELOPEMNT)





ZZQ35 13 PUPS Voice 04/21/2004 1:44:40 PM 0004200008 Survey

Ticket Number: 0004200008
Old Ticket Number: 
Created By: Administrator
Seq Number: 13

Created Date: 04/20/2004 1:34:29 PM
Work Date/Time: 04/22/2004 1:45:00 PM
Update: 05/03/2004 Good Through: 05/06/2004

Excavation Information:
State: SC     County: ABBEVILLE
Place: ABBEVILLE
Address Number: 123
Street: TEST ST
Inters St: S TEST ST
Subd: NONE

Type of Work: OTHER
Duration: NO VALUE

Boring/Drilling: N Blasting: N White Lined: Y Near Railroad: N 

Work Done By: TEST

Remarks/Instructions: TEST TICKET - DO NOT LOCATE                             
TEST TICKET - DO NOT LOCATE                                                   
TEST TICKET - DO NOT LOCATE                                                   
                                                                              
ON SUCCESSFUL RECEPTION PLEASE NOTIFY RHONDA AT PUPS  1-800-290-2783 OR       
RDOTMAN@SC1PUPS.ORG                                                           

Caller Information: 
Name: RHONDA                                PUPS                                  
Address: 123 MAIN
City: COLUMBIA State: SC Zip: 00000
Phone: (555) 555-1212 Ext:  Type: Business
Fax:  Caller Email: NONE

Contact Information:
Contact:RHONDA Email: RDOTMAN@SC1PUPS.ORG
Call Back:1-800-290-2783 Fax: 

Grids: 
Lat/Long: 0, 0
Secondary: 0, 0
Lat/Long Caller Supplied: N 

Members Involved: ADDZ11 ATT09 BJW49 BRD11 BRRW22 CCRZ62 CHG31 CHT11 CMB20    
COC82 COL23 CPC44 CPLZ05 ECUS85 FAE07 FMT20 FTH63 FTHS64 FTHW65 GWC38 HOT21   
HTC47 KIU06 KNO45 LBC17 LC393 LRE34 LTC28 MCI18 QWC42 SCG05 SCG75 SCWS44      
SJW43 SPR80 SWS58 TDS10 TOP62 TWCZ40 TWTZ26 VER06 WCC72 WOC22 WTGN02 YOR56    


Map Link: (NEEDS DEVELOPEMNT)





ZZQ35 14 PUPS Voice 04/21/2004 1:44:41 PM 0004200004 Meet

Ticket Number: 0004200004
Old Ticket Number: 
Created By: Administrator
Seq Number: 14

Created Date: 04/20/2004 1:31:16 PM
Work Date/Time: 04/22/2004 1:45:11 PM
Update: 05/03/2004 Good Through: 05/06/2004

Excavation Information:
State: SC     County: ABBEVILLE
Place: ABBEVILLE
Address Number: 123
Street: TEST ST
Inters St: S TEST ST
Subd: NONE

Type of Work: OTHER
Duration: NO VALUE

Boring/Drilling: N Blasting: N White Lined: Y Near Railroad: N 

Work Done By: TEST

Remarks/Instructions: TEST TICKET - DO NOT LOCATE                             
TEST TICKET - DO NOT LOCATE                                                   
TEST TICKET - DO NOT LOCATE                                                   
                                                                              
ON SUCCESSFUL RECEPTION PLEASE NOTIFY RHONDA AT PUPS  1-800-290-2783 OR       
RDOTMAN@SC1PUPS.ORG                                                           

Caller Information: 
Name: RHONDA                                PUPS                                  
Address: 123 MAIN
City: COLUMBIA State: SC Zip: 00000
Phone: (555) 555-1212 Ext:  Type: Business
Fax:  Caller Email: NONE

Contact Information:
Contact:RHONDA Email: RDOTMAN@SC1PUPS.ORG
Call Back:1-800-290-2783 Fax: 

Grids: 
Lat/Long: 0, 0
Secondary: 0, 0
Lat/Long Caller Supplied: N 

Members Involved: ADDZ11 ATT09 BJW49 BRD11 BRRW22 CCRZ62 CHG31 CHT11 CMB20    
COC82 COL23 CPC44 CPLZ05 ECUS85 FAE07 FMT20 FTH63 FTHS64 FTHW65 GWC38 HOT21   
HTC47 KIU06 KNO45 LBC17 LC393 LRE34 LTC28 MCI18 QWC42 SCG05 SCG75 SCWS44      
SJW43 SPR80 SWS58 TDS10 TOP62 TWCZ40 TWTZ26 VER06 WCC72 WOC22 WTGN02 YOR56    


Map Link: (NEEDS DEVELOPEMNT)

Members are to contact caller to schedule day and time to meet and locate lines.





ZZQ35 15 PUPS Voice 04/21/2004 1:44:42 PM 0004200006 Normal

Ticket Number: 0004200006
Old Ticket Number: 
Created By: Administrator
Seq Number: 15

Created Date: 04/20/2004 1:33:07 PM
Work Date/Time: 04/22/2004 1:45:03 PM
Update: 05/03/2004 Good Through: 05/06/2004

Excavation Information:
State: SC     County: ABBEVILLE
Place: ABBEVILLE
Address Number: 123
Street: TEST ST
Inters St: S TEST ST
Subd: NONE

Type of Work: OTHER
Duration: NO VALUE

Boring/Drilling: N Blasting: N White Lined: Y Near Railroad: N 

Work Done By: TEST

Remarks/Instructions: TEST TICKET - DO NOT LOCATE                             
TEST TICKET - DO NOT LOCATE                                                   
TEST TICKET - DO NOT LOCATE                                                   
                                                                              
ON SUCCESSFUL RECEPTION PLEASE NOTIFY RHONDA AT PUPS  1-800-290-2783 OR       
RDOTMAN@SC1PUPS.ORG                                                           

Caller Information: 
Name: RHONDA                                PUPS                                  
Address: 123 MAIN
City: COLUMBIA State: SC Zip: 00000
Phone: (555) 555-1212 Ext:  Type: Business
Fax:  Caller Email: NONE

Contact Information:
Contact:RHONDA Email: RDOTMAN@SC1PUPS.ORG
Call Back:1-800-290-2783 Fax: 

Grids: 
Lat/Long: 0, 0
Secondary: 0, 0
Lat/Long Caller Supplied: N 

Members Involved: ADDZ11 ATT09 BJW49 BRD11 BRRW22 CCRZ62 CHG31 CHT11 CMB20    
COC82 COL23 CPC44 CPLZ05 ECUS85 FAE07 FMT20 FTH63 FTHS64 FTHW65 GWC38 HOT21   
HTC47 KIU06 KNO45 LBC17 LC393 LRE34 LTC28 MCI18 QWC42 SCG05 SCG75 SCWS44      
SJW43 SPR80 SWS58 TDS10 TOP62 TWCZ40 TWTZ26 VER06 WCC72 WOC22 WTGN02 YOR56    


Map Link: (NEEDS DEVELOPEMNT)





ZZQ35 16 PUPS Voice 04/21/2004 1:44:43 PM 0004200002 Cancel

Ticket Number: 0004200002
Old Ticket Number: 
Created By: Administrator
Seq Number: 16

Created Date: 04/20/2004 1:26:36 PM
Work Date/Time: 04/20/2004 1:30:39 PM
Update:           Good Through:         

Excavation Information:
State: SC     County: ABBEVILLE
Place: ABBEVILLE
Address Number: 123
Street: TEST ST
Inters St: S TEST ST
Subd: NONE

Type of Work: OTHER
Duration: NO VALUE

Boring/Drilling: N Blasting: N White Lined: Y Near Railroad: N 

Work Done By: TEST

Remarks/Instructions: TEST TICKET - DO NOT LOCATE                             
TEST TICKET - DO NOT LOCATE                                                   
TEST TICKET - DO NOT LOCATE                                                   
                                                                              
ON SUCCESSFUL RECEPTION PLEASE NOTIFY RHONDA AT PUPS  1-800-290-2783 OR       
RDOTMAN@SC1PUPS.ORG                                                           

Caller Information: 
Name: RHONDA                                PUPS                                  
Address: 123 MAIN
City: COLUMBIA State: SC Zip: 00000
Phone: (555) 555-1212 Ext:  Type: Business
Fax:  Caller Email: NONE

Contact Information:
Contact:RHONDA Email: RDOTMAN@SC1PUPS.ORG
Call Back:1-800-290-2783 Fax: 

Grids: 
Lat/Long: 0, 0
Secondary: 0, 0
Lat/Long Caller Supplied: N 

Members Involved: ADDZ11 ATT09 BJW49 BRD11 BRRW22 CCRZ62 CHG31 CHT11 CMB20    
COC82 COL23 CPC44 CPLZ05 ECUS85 FAE07 FMT20 FTH63 FTHS64 FTHW65 GWC38 HOT21   
HTC47 KIU06 KNO45 LBC17 LC393 LRE34 LTC28 MCI18 QWC42 SCG05 SCG75 SCWS44      
SJW43 SPR80 SWS58 TDS10 TOP62 TWCZ40 TWTZ26 VER06 WCC72 WOC22 WTGN02 YOR56    


Map Link: (NEEDS DEVELOPEMNT)





