
ST1259 00685 CALL SUNSHINE 01/21/05 11:24:30ET 02152648-000  STREET
Ticket : 02152648 Rev:000 Taken: 01/21/05 11:24ET

State: FL Cnty: COLLIER Place: NAPLES
Subdivision:

Address : 490
Street  : CENTRAL AVE
Cross 1 : 5TH ST S  Within 1/4 mile: N

Locat: ENTIRE PROPERTY
:
Remarks : *** GEOCODED PLACE IS NAPLES ***
*** LOOKUP BY ADDRESS ***
:
Grids   : 2608A8148D  

Work date: 01/25/05 Time: 23:59ET  Hrs notc: 060 Category: 3 Duration: 01 WK
Due Date : 01/25/05 Time: 23:59ET
Work type: HOUSE REMOVAL
Ug/Oh/Both: U  Machinery: Y  Depth: 2 FT  Permits: Y  ON-SITE
Done for : CHRISTOPHER STRUNK

Company : EMERALD LANDSCAPING  Type: CONT
Co addr : 188 PRICE ST
City    : NAPLES State: FL Zip: 34113
Caller  : RUSS HARLAN Phone: 239-793-2339
Contact : PAUL FINK Phone: 239-253-4417
BestTime: DAYTIME
Fax     : 239-793-4460

Submitted: 01/21/05 11:24ET Oper: EME Chan: WEB
Mbrs :  CON762 CTV413 FPLCLR FPLDBR LS1104 ST1259 UTI303


ST1259 00686 CALL SUNSHINE 01/21/05 11:24:36ET 02152649-000  GRID
Ticket : 02152649 Rev:000 Taken: 01/21/05 11:23ET
Old Tkt: 00356175 Taken: 01/06/05 00:24ET Oper: PAM

State: FL Cnty: POLK Place: KISSIMMEE
Subdivision: SOLA VITA EAST

Address : 
Street  : FAIRWAY
Cross 1 : MARIGOLD AVE  Within 1/4 mile: Y

Locat: FROM E SIDE OF FAIRWAY DR EAST 5' DEEP INTO THE LAWN GOING APPROX 3000'
EAST
:
Remarks : THIS TICKET REPLACES TICKET #00356175 BONNY M 53 2005/01/21 11:23:41
*** GEOCODED PLACE IS KISSIMMEE ***
*** LOOKUP BY MANUAL ***
:
Grids   : 2807A8127A   2808D8127A   2808D8128D   2808C8128D  

Work date: 01/25/05 Time: 23:59ET  Hrs notc: 060 Category: 3 Duration: UNKNOWN
Due Date : 01/25/05 Time: 23:59ET
Work type: PRECAST CONCRETE WALL
Ug/Oh/Both: U  Machinery: Y  Depth: 6'  Permits: Y  24121
Done for : AVATAR

Company : SOLAR MANUFACTURING  Type: OTHR
Co addr : 1858 NW 22ND CT
City    : POMPANO BEACH State: FL Zip: 33069
Caller  : NORMA PALMA Phone: 954-973-8488
Contact : TONY GUIJARO Phone: 407-709-3217
BestTime: 7:30AM-4PM
Fax     : 954-973-7772

Submitted: 01/21/05 11:23ET Oper: BON Chan: 53
Mbrs :  CVCFTV FPC313 GTE384 ID1388 PUI439 ST1259 USSP01 UTI297


ST1259 00687 CALL SUNSHINE 01/21/05 11:25:06ET 02152656-000  GRID
Ticket : 02152656 Rev:000 Taken: 01/21/05 11:22ET

State: FL Cnty: CHARLOTTE Place: PUNTA GORDA
Subdivision:

Address : 
Street  : US 17
Cross 1 : I 75 N  Within 1/4 mile: Y

Locat: LOCATE FROM INTERSECTION HEADING W FOR 1/2 MILE ON US 17 IN THE EAST
BOUND LN, RIGHT SIDE OF RD, LOCATE FROM EDGE OF PAVEMENT TO R/O/W FOR 100FT
HEADING WEST
:
Remarks : *** GEOCODED PLACE IS PUNTA GORDA ***
*** LOOKUP BY MANUAL ***
:
Grids   : 2656C8201D   2656C8201C   2656C8201B  

Work date: 01/25/05 Time: 23:59ET  Hrs notc: 060 Category: 3 Duration: 03 WKS
Due Date : 01/25/05 Time: 23:59ET
Work type: INSTALLING SIGNS STRUCTURE
Ug/Oh/Both: U  Machinery: Y  Depth: 30FT  Permits: N  N/A
Done for : DOT

Company : HWY SAFETY DEVICES, INC.  Type: CONT
Co addr : 5340 HWY 92 W
City    : PLANT CITY State: FL Zip: 33567
Caller  : TINA STEELE Phone: 813-759-1559 Ext: 225
Contact : JAMES WESTBROOK Phone: 813-478-9202
BestTime: 8AM-5PM
Fax     : 813-757-0924
Email   : TINAS@HIGHWAYSAFETYDEVICES.COM

Submitted: 01/21/05 11:22ET Oper: EPI Chan: 24
Mbrs :  CCL925 CPG521 FPLCHA FPLDBR LS1104 QST885 ST1259 STRPTC UTI300


ST1259 00688 CALL SUNSHINE 01/21/05 11:25:19ET 02152660-000  GRID
Ticket : 02152660 Rev:000 Taken: 01/21/05 11:23ET
Old Tkt: 00553919 Taken: 01/08/05 00:22ET Oper: DEE

State: FL Cnty: POLK Place: HAINES CITY
Subdivision:

Address : 
Street  : US 27
Cross 1 : B MOORE RD  Within 1/4 mile: Y
Cross 2 : BLUE HERON BAY BLVD

Locat: PROJECT STARTS 1000 FT SOUTH OF B MOORE RD ON US 27 -  AT THIS POINT
START LOCATE GOING NORTH FOR 4.4 MILES,  ENDING AT A POINT 300 FT NORTH OF BLUE
HERON BAY BLVD, FROM THE CENTER LINE  GOING 300 FT EAST AND WEST
:
Remarks : TICKET 1 OF 5 ** THIS COVERS STARTING 1000 FT SOUTH OF B MOORE RD
GOING NORTH FOR 1 MILE ON US 27
THIS TICKET REPLACES TICKET #00553919 ROBYN V 33 2005/01/21 11:23:45
* TWC372 WAS NOT ON THE ORIGINAL VERSION OF THIS TICKET

*** GEOCODED PLACE IS HAINES CITY ***
*** LOOKUP BY MANUAL ***
:
Grids   : 2804C8138A   2804B8138A   2804A8138A   2805D8138A   2805C8138A  
Grids   : 2804A8139D   2805D8139D  

Work date: 01/25/05 Time: 23:59ET  Hrs notc: 060 Category: 3 Duration: 02 YRS
Due Date : 01/25/05 Time: 23:59ET
Work type: LAYING DRAINAGE PIPE
Ug/Oh/Both: U  Machinery: Y  Depth: 10FT  Permits: N  N/A
Done for : CHERRY HILL CONSTRUCTION

Company : FREEDOM PIPELINE  Type: CONT
Co addr : 5380 SW 208TH LN
City    : FT LAUDERDALE State: FL Zip: 33332
Caller  : TODD DEMENT Phone: 954-434-8070
Contact : TODD DEMENT Phone: 954-931-3146
BestTime: 8AM-5PM
Mobile  : 954-931-3146
Fax     : 954-434-0507

Submitted: 01/21/05 11:23ET Oper: ROB Chan: 33
Mbrs :  CFLGAS FPC313 GTE384 ID1388 IXC887 LS1104 ST1259 TWC372 USSP01 UTI297
Mbrs :  WINHAV


ST1259 00689 CALL SUNSHINE 01/21/05 11:25:29ET 02152662-000  GRID
Ticket : 02152662 Rev:000 Taken: 01/21/05 11:24ET
Old Tkt: 00356192 Taken: 01/06/05 00:23ET Oper: PAM

State: FL Cnty: POLK Place: KISSIMMEE
Subdivision: SOLA VITA EAST

Address : 
Street  : FAIRWAY
Cross 1 : MARIGOLD AVE  Within 1/4 mile: Y

Locat: FROM E SIDE OF FAIRWAY DR EAST 5' DEEP INTO THE LAWN GOING APPROX 3000'
EAST
:
Remarks : THIS TICKET REPLACES TICKET #00356192 BONNY M 53 2005/01/21 11:24:52
*** GEOCODED PLACE IS KISSIMMEE ***
*** LOOKUP BY MANUAL ***
:
Grids   : 2807A8127A   2808D8127A   2808D8128D   2808C8128D  

Work date: 01/25/05 Time: 23:59ET  Hrs notc: 060 Category: 3 Duration: UNKNOWN
Due Date : 01/25/05 Time: 23:59ET
Work type: PRECAST CONCRETE WALL
Ug/Oh/Both: U  Machinery: Y  Depth: 6'  Permits: Y  24121
Done for : AVATAR

Company : SHENANDOAH  Type: CONT
Co addr : 1888 NW 22ND ST
City    : POMPANO BEACH State: FL Zip: 33069
Caller  : NORMA PALMA Phone: 954-975-0098
Contact : TONY GUIJARO Phone: 407-709-3217
BestTime: 7:30AM-4PM
Fax     : 954-973-7772

Submitted: 01/21/05 11:24ET Oper: BON Chan: 53
Mbrs :  CVCFTV FPC313 GTE384 ID1388 PUI439 ST1259 USSP01 UTI297


ST1259 00690 CALL SUNSHINE 01/21/05 11:25:44ET 02152665-000  STREET
Ticket : 02152665 Rev:000 Taken: 01/21/05 11:25ET

State: FL Cnty: COLLIER Place: MARCO ISLAND
Subdivision:

Address : 1282
Street  : BLUEBIRD AVE
Cross 1 : COLLIER BLVD  Within 1/4 mile: N

Locat: LOCATE FROM SERVING TERMINAL 1281 TO THE FRONT OF THE PROPERTY INCLUDING
THE FRONT THE REAR INCLUDING THE REAR TERM IS VISIBLE WITHIN 75 FT
:
Remarks : *** GEOCODED PLACE IS MARCO ISLAND ***
*** LOOKUP BY ADDRESS ***
:
Grids   : 2557C8142A   2557D8143D   2557C8143D  

Work date: 01/25/05 Time: 23:59ET  Hrs notc: 060 Category: 3 Duration: 04 HRS
Due Date : 01/25/05 Time: 23:59ET
Work type: BURYING TELEPHONE CABLE FOR SPRINT
Ug/Oh/Both: U  Machinery: Y  Depth: 24IN  Permits: N  N/A
Done for : MASTEC

Company : AERIAL AND UNDERGROUND  Type: CONT
Co addr : 3047 TERRACE AVE
City    : NAPLES State: FL Zip: 34104
Caller  : ANITA COLLINS Phone: 239-732-1700
BestTime: 8-5
Fax     : 239-732-7728

Submitted: 01/21/05 11:25ET Oper: AUN Chan: WEB
Mbrs :  CM1071 CTV413 FWS621 LCC295 LS1104 ST1259 UTI303


ST1259 00693 CALL SUNSHINE 01/21/05 11:27:20ET 02152690-000  STREET
Ticket : 02152690 Rev:000 Taken: 01/21/05 11:27ET

State: FL Cnty: COLLIER Place: MARCO ISLAND
Subdivision:

Address : 469
Street  : PEPPERWOOD CT
Cross 1 : WINDMILL AVE  Within 1/4 mile: N

Locat: LOCATE FROM SERVING TERMINAL 7054 TO THE FRONT OF THE PROPERTY INCLUDING
THE FRONT THE REAR INCLUDING THE REAR TERM IS VISIBLE WITHIN 75 FT
:
Remarks : *** GEOCODED PLACE IS MARCO ISLAND ***
*** LOOKUP BY ADDRESS ***
:
Grids   : 2557D8142C   2557C8142C   2557D8142B   2557C8142B  

Work date: 01/25/05 Time: 23:59ET  Hrs notc: 060 Category: 3 Duration: 04 HRS
Due Date : 01/25/05 Time: 23:59ET
Work type: BURYING TELEPHONE CABLE FOR SPRINT
Ug/Oh/Both: U  Machinery: Y  Depth: 24IN  Permits: N  N/A
Done for : MASTEC

Company : AERIAL AND UNDERGROUND  Type: CONT
Co addr : 3047 TERRACE AVE
City    : NAPLES State: FL Zip: 34104
Caller  : ANITA COLLINS Phone: 239-732-1700
BestTime: 8-5
Fax     : 239-732-7728

Submitted: 01/21/05 11:27ET Oper: AUN Chan: WEB
Mbrs :  CM1071 CTV413 FWS621 LCC295 LS1104 ST1259 UTI303


ST1259 00691 CALL SUNSHINE 01/21/05 11:26:58ET 02152681-000  GRID
Ticket : 02152681 Rev:000 Taken: 01/21/05 11:26ET

State: FL Cnty: MARION Place: OCALA
Subdivision: FLORIDA PROFESSIONAL PARK

Address : 
Street  : SW 32ND PL
Cross 1 : SW 27TH AVE  Within 1/4 mile: Y

Locat: LOCATE THE ABOVE INTERSECTION 75 FT IN ALL DIRECTIONS THEN EAST ON 32ND
PL ON BOTH SIDES OF ROAD TO THE INTERSECTION OF 32ND PL AND SW 34TH ST RD
APPROX 1075 FT
:
Remarks : GRIDDED PER CUSTOMER DIRECTIONS
*** GEOCODED PLACE IS OCALA ***
*** LOOKUP BY MANUAL ***
:
Grids   : 2909C8209A   2909C8210D  

Work date: 01/25/05 Time: 23:59ET  Hrs notc: 060 Category: 3 Duration: 02 WKS
Due Date : 01/25/05 Time: 23:59ET
Work type: BURYING TELEPHONE CABLE
Ug/Oh/Both: U  Machinery: Y  Depth: 4FT  Permits: U  N/A
Done for : SPRINT

Company : JWJ INC  Type: CONT
Co addr : 2300 SW 3RD AVE
City    : OCALA State: FL Zip: 34474
Caller  : MIKE CLAYTON Phone: 352-732-0550
Contact : MIKE CLAYTON Phone: 352-266-6850
BestTime: 7-5
Mobile  : 352-266-6874
Fax     : 352-732-2779

Submitted: 01/21/05 11:26ET Oper: MCL Chan: WEB
Mbrs :  COO593 COX02  FPC280 LS1104 OEU503 ST1259 UTI298 WFG361


ST1259 00692 CALL SUNSHINE 01/21/05 11:26:59ET 02152683-000  STREET
Ticket : 02152683 Rev:000 Taken: 01/21/05 11:22ET

State: FL Cnty: OSCEOLA Place: KISSIMMEE
Subdivision: PINEHURST

Address : 577
Street  : PINEHURST CV
Cross 1 : CYPRESS BRANCH RD  Within 1/4 mile: Y

Locat: THE ENTIRE PROPERTY
:
Remarks : *** GEOCODED PLACE IS KISSIMMEE ***
*** LOOKUP BY ADDRESS ***
:
Grids   : 2809D8127A   2808A8128D   2809D8128D  

Work date: 01/24/05 Time: 10:00ET  Hrs notc: 022 Category: 4 Duration: 72 HRS
Due Date : 01/25/05 Time: 23:59ET
Work type: FENCE INSTALLATION
Ug/Oh/Both: U  Machinery: N  Depth: 3FT  Permits: N  N/A
Done for : SWEENEY

Company : ST SEBASTIAN FENCE  Type: CONT
Co addr : 701 INDUSTRY RD
Co addr2: SUITE 4
City    : LONGWOOD State: FL Zip: 32750
Caller  : WAYNE KINNEY JR Phone: 407-886-0090
Contact : WAYNE KINNEY JR Phone: 407-383-9782
BestTime: 9-5
Mobile  : 407-383-9782
Fax     : 407-886-9099
Email   : FENCEX@HOTMAIL.COM

Submitted: 01/21/05 11:22ET Oper: ROB Chan: 39
Mbrs :  CVCFTV FPC313 PUI439 ST1259 UTI297


ST1259 00694 CALL SUNSHINE 01/21/05 11:27:38ET 02152692-000  STREET
Ticket : 02152692 Rev:000 Taken: 01/21/05 11:21ET

State: FL Cnty: ORANGE Place: ORLANDO
Subdivision:

Address : 8844
Street  : DARLENE DR
Cross 1 : APOPKA VINELAND RD  Within 1/4 mile: Y

Locat: FRONT YARD AND ALONG THE DRIVEWAY
:
Remarks : *** GEOCODED PLACE IS ORLANDO ***
*** LOOKUP BY ADDRESS ***
:
Grids   : 2825D8130D   2825C8130D   2825D8130C   2825C8130C  

Work date: 01/25/05 Time: 23:59ET  Hrs notc: 060 Category: 3 Duration: 02 DAYS
Due Date : 01/25/05 Time: 23:59ET
Work type: LANDSCAPE
Ug/Oh/Both: U  Machinery: Y  Depth: 2FT  Permits: N  N/A
Done for : MRS WISHINSKI

Company : WISE LANDSCAPING, INC.  Type: CONT
Co addr : 2832 MICHIGAN AVE
Co addr2: SUITE A
City    : KISSIMMEE State: FL Zip: 34744
Caller  : NANCY WISE Phone: 407-518-9473
Contact : COVEY WISE Phone: 407-466-2845
BestTime: 8-5
Mobile  : 407-466-2845
Fax     : 407-518-9801
Email   : WISELANDSCAPEINC@AOL.COM

Submitted: 01/21/05 11:21ET Oper: LIN Chan: 64
Mbrs :  CVCFTV FPC322 LS1104 OC1332 OCU596 OTC811 OUC553 SBF20  ST1259 TSC364
Mbrs :  UTI297


ST1259 00695 CALL SUNSHINE 01/21/05 11:27:48ET 02152693-000  GRID
Ticket : 02152693 Rev:000 Taken: 01/21/05 11:21ET

State: FL Cnty: SUMTER Place: WILDWOOD
Subdivision: THE VILLAGES  Lot: 36-0004

Address : 769
Street  : DOWDING WAY
Cross 1 : SOUTHERN TRACE  Within 1/4 mile: Y

Locat: LOCATE THE PROPERTY ON THE FRONT SIDE OF HOUSE, FACING DOWDING WAY
:
Remarks : GRID PER VILLAGES REF MAP, TRS 18S 23E 10SW
*** GEOCODED PLACE IS WILDWOOD ***
*** LOOKUP BY MANUAL ***
:
Grids   : 2856C8159B   2856C8159A   2855A8159B   2856D8159B   2855A8159A  
Grids   : 2856D8159A   2856C8200D   2855A8200D   2856D8200D  

Work date: 01/25/05 Time: 23:59ET  Hrs notc: 060 Category: 3 Duration: 01 HR
Due Date : 01/25/05 Time: 23:59ET
Work type: PLANTING A PALM TREE
Ug/Oh/Both: U  Machinery: Y  Depth: 3'  Permits: N  N/A
Done for : SELF

Company : WENDELL BALLARD  Type: HOME
Co addr : 769 DOWDING WAY
City    : THE VILLAGES State: FL Zip: 32162
Caller  : WENDELL BALLARD Phone: 352-259-4085
Contact : WENDELL BALLARD Phone: 352-259-4085
BestTime: 8AM-10PM

Submitted: 01/21/05 11:21ET Oper: ROB Chan: 22
Mbrs :  FPC280 LCA395 LS1104 LSU618 SEC545 ST1259 UTI298 UTI299 WFG361


ST1259 00696 CALL SUNSHINE 01/21/05 11:27:56ET 02152695-000  GRID
TO REPLACE TICKET #01953168 DUE TO INCORRECT STREET NAME 
Ticket : 02152695 Rev:000 Taken: 01/21/05 11:26ET
Old Tkt: 01953168 Taken: 01/19/05 11:52ET Oper: JAN

State: FL Cnty: LAKE Place: GROVELAND
Subdivision: WOODLANDS AT CHURCH LAKE PHASE 3

Address : 
Street  : PLUMERIA LANE
Cross 1 : HERITAGE DR  Within 1/4 mile: N

Locat: ENTIRE DETENTION POND ON THE W SIDE OF LOT 228 PLUMERIA LANE INCLUDING
ROADWAY BETWEEN LOTS 228 AND 237 PLUMERIA LANE LEADING TO DETENTION POND
:
Remarks : **LOTS ARE WITHIN 1/4 MILE OF PLUMERIA LANE.**GRIDDED PER CUSTOMER
TRS OF 21SR25E20***NEW STREET NOT ON MAP GRIDDED PER CUSTOMER TRS
THIS TICKET REPLACES TICKET# 01953168 CRKLEIST WEB 2005-01-21 11:26:54
*** GEOCODED PLACE IS GROVELAND ***
*** LOOKUP BY MANUAL ***
:
Grids   : 2838D8149C   2838C8149C   2838B8149C   2838A8149C   2839D8149C  
Grids   : 2838D8149B   2838C8149B   2838B8149B   2838A8149B   2839D8149B  
Grids   : 2838D8149A   2838C8149A   2838B8149A   2838A8149A   2839D8149A  
Grids   : 2838D8150D   2838C8150D   2838B8150D   2838A8150D   2839D8150D  
Grids   : 2838D8150C   2838C8150C   2838B8150C   2838A8150C   2839D8150C  

Work date: 01/25/05 Time: 23:59ET  Hrs notc: 060 Category: 3 Duration: 02 MONS
Due Date : 01/25/05 Time: 23:59ET
Work type: STORM DRAINS
Ug/Oh/Both: U  Machinery: Y  Depth: 12 FT  Permits: N  N/A
Done for : AMERICAN LAND LEASE

Company : ENVIRONMENTAL EQUIPMENT SALES, INC.  Type: CONT
Co addr : PO BOX 2459
City    : RIVERVIEW State: FL Zip: 33568
Caller  : DEBBIE KONACK Phone: 813-677-6877
Contact : BEN WEAVER Phone: 813-299-3565
BestTime: 9AM-3PM
Fax     : 813-677-2605

Submitted: 01/21/05 11:26ET Oper: CRK Chan: WEB
Mbrs :  COL759 CVITV4 FPC322 FWS665 IXC887 LCA395 LS1104 SEC545 ST1259 UTI297
Mbrs :  UTI298 UTI299


ST1259 00697 CALL SUNSHINE 01/21/05 11:27:59ET 02152696-000  GRID
Ticket : 02152696 Rev:000 Taken: 01/21/05 11:27ET

State: FL Cnty: LEE Place: LEHIGH ACRES
Subdivision: STONEYBROOK @ GATEWAY  Lot: 734

Address : 12822
Street  : IVRY STONE LOOP
Cross 1 : PEBBLE BROOK DR  Within 1/4 mile: Y

Locat: LOCATE ALL ALONG FRONT OF PROPERTY AND 10FT INTO EACH ADJACENT
:
Remarks : 6FT DEEP 12 IN WIDE TRENCH FROM CENTER FRONT OF HOUSE TO SEWER TAP**
GRID TO CUSTOMER REF TO TKT 34941785
*** GEOCODED PLACE IS LEHIGH ACRES ***
*** LOOKUP BY MANUAL ***
:
Grids   : 2636D8145C   2636C8145C   2636D8145B   2636C8145B  

Work date: 01/25/05 Time: 23:59ET  Hrs notc: 060 Category: 3 Duration: 02 DAYS
Due Date : 01/25/05 Time: 23:59ET
Work type: INSTALLATION OF SEWER & WATER LINES
Ug/Oh/Both: U  Machinery: Y  Depth: 6FT  Permits: Y  ON SITE
Done for : US HOME

Company : CUSTOM PLUMBING OF LEE COUNTY, INC.  Type: CONT
Co addr : PO BOX 50357
City    : FT MYERS State: FL Zip: 33905
Caller  : SUSIE HESSELING Phone: 239-332-5334
Contact : SUSIE ANN HESSELING OR TOBI CA Phone: 239-332-5334
BestTime: 8-3
Mobile  : 239-872-6318
Fax     : 239-334-0910
Email   : CUSTOMPLUMBING@MSN.COM

Submitted: 01/21/05 11:27ET Oper: SUS Chan: FX
Mbrs :  FPLDBR FPLLEE JIC394 LS1104 PGSSW  ST1259 UTI300 UTI302


ST1259 00698 CALL SUNSHINE 01/21/05 11:28:46ET 02152682-000  STREET
Ticket : 02152682 Rev:000 Taken: 01/21/05 11:27ET
Old Tkt: 02152682 Taken: 01/21/05 11:21ET Oper: ANA

State: FL Cnty: LAKE Place: FRUITLAND PARK
Subdivision:

Address : 05136
Street  : ALBERT RD
Cross 1 : PICCIOLA DR  Within 1/4 mile: Y

Locat: LOCATE THE ENTIRE PROPERTY
:
Remarks : *** GEOCODED PLACE IS FRUITLAND PARK ***
*** LOOKUP BY ADDRESS ***
:
Grids   : 2850B8151A   2850B8152D  

Work date: 01/25/05 Time: 23:59ET  Hrs notc: 060 Category: 3 Duration: 03 HRS
Due Date : 01/25/05 Time: 23:59ET
Work type: IRRI
Ug/Oh/Both: U  Machinery: Y  Depth: 8 IN  Permits: N  N/A
Done for : HOMEOWNER

Company : C.S. IRRIGATION INCORPORATED  Type: CONT
Co addr : PO BOX 405
City    : OXFORD State: FL Zip: 34484
Caller  : CHRIS SPARKMAN Phone: 352-748-0092
Contact : CHRIS SPARKMAN Phone:
BestTime: 8-5
Mobile  : 352-516-8493

Submitted: 01/21/05 11:27ET Oper: ANA Chan: 63
Mbrs :  COL759 FWS04  FWS675 LCA395 LS1104 ST1259 UTI298 UTI299


ST1259 00700 CALL SUNSHINE 01/21/05 11:29:17ET 02152711-000  GRID
Ticket : 02152711 Rev:000 Taken: 01/21/05 11:28ET
Old Tkt: 00556875 Taken: 01/08/05 00:25ET Oper: 941

State: FL Cnty: LEE Place: FT MYERS
Subdivision:

Address : 
Street  : SUMMERLIN RD
Cross 1 : ELDERBERRY LN  Within 1/4 mile: N

Locat: AT THE INTER. OF SUMMERLIN RD AND ELDERBERRY LN, LOCATE THE BOTTOM OF
THE DITCH THAT RUNS WEST FROM SUMMERLIN RD. TO JUST WEST OF LAKEWOOD BLVD. [BY
THE BLACK FENCE] APPOX. 2300FT
:
Remarks : THIS TICKET REPLACES TICKET# 00556875 9416943334 WEB 2005-01-21
11:28:53
*** GEOCODED PLACE IS FT MYERS ***
*** LOOKUP BY MANUAL ***
:
Grids   : 2631C8153C   2631C8153B  

Work date: 01/25/05 Time: 23:59ET  Hrs notc: 060 Category: 3 Duration: 03 WKS
Due Date : 01/25/05 Time: 23:59ET
Work type: DITCH CLEANING
Ug/Oh/Both: U  Machinery: Y  Depth: 1FT  Permits: N  N/A
Done for : SELF

Company : LEE COUNTY DOT  Type: CONT
Co addr : 5560 ZIP DR
City    : FT MYERS State: FL Zip: 33905
Caller  : DON MATHIS Phone: 941-694-3334
Contact : TIM KISER Phone: 239-707-6942
BestTime: 8:00 AM
Mobile  : 239-707-6942
Fax     : 239-694-3382
Email   : KISERTJ@LEEGOV.COM

Submitted: 01/21/05 11:28ET Oper: 941 Chan: WEB
Mbrs :  CTV413 FPLDBR FPLLEE JIC394 LC1245 LCU790 LS1104 PGSSW  ST1259 UTI302


ST1259 00699 CALL SUNSHINE 01/21/05 11:29:15ET 02152706-000  GRID
Ticket : 02152706 Rev:000 Taken: 01/21/05 11:23ET

State: FL Cnty: LEE Place: CAPE CORAL
Subdivision:

Address : 205
Street  : NE 23RD TER
Cross 1 : NE 3RD AVE  Within 1/4 mile: Y

Locat: LOCATE ENTIRE PROPERTY**
:
Remarks : *** GEOCODED PLACE IS CAPE CORAL ***
*** LOOKUP BY MANUAL ***
:
Grids   : 2641B8158D   2641B8158C  

Work date: 01/25/05 Time: 23:59ET  Hrs notc: 060 Category: 3 Duration: 02 DAYS
Due Date : 01/25/05 Time: 23:59ET
Work type: BUILDING FENCE
Ug/Oh/Both: U  Machinery: Y  Depth: 2FT  Permits: Y  PENDING
Done for : SIMPSON

Company : CAPE CORAL FENCE COMPANY  Type: CONT
Co addr : P.O. BOX 502 / UNIT D15
City    : CAPE CORAL State: FL Zip: 33991
Caller  : THERESA GOBERT Phone: 239-574-8399
Contact : THERESA GOBERT Phone: 239-574-8399
BestTime: 8-5
Mobile  : 239-872-4850

Submitted: 01/21/05 11:23ET Oper: MAR Chan: 19
Mbrs :  LCC295 ST1259 UTI302


ST1259 00703 CALL SUNSHINE 01/21/05 11:30:37ET 02152723-000  STREET
Ticket : 02152723 Rev:000 Taken: 01/21/05 11:30ET

State: FL Cnty: COLLIER Place: NAPLES
Subdivision:

Address : 595
Street  : 13TH ST NW
Cross 1 : GOLDEN GATE BLVD  Within 1/4 mile: N

Locat: LOCATE FROM SERVING TERMINAL 28007 TO THE FRONT OF THE PROPERTY
INCLUDING THE FRONT THE REAR INCLUDING THE REAR TERM IS VISIBLE WITHIN 60 FT
:
Remarks : *** CROSS STREET APPROXIMATELY 1MILE ***
*** GEOCODED PLACE IS NAPLES ***
*** LOOKUP BY ADDRESS ***
:
Grids   : 2614D8137A   2614C8137A   2614B8137A   2614D8138D   2614C8138D  
Grids   : 2614B8138D  

Work date: 01/25/05 Time: 23:59ET  Hrs notc: 060 Category: 3 Duration: 04 HRS
Due Date : 01/25/05 Time: 23:59ET
Work type: BURYING TELEPHONE CABLE FOR SPRINT
Ug/Oh/Both: U  Machinery: Y  Depth: 24IN  Permits: N  N/A
Done for : MASTEC

Company : AERIAL AND UNDERGROUND  Type: CONT
Co addr : 3047 TERRACE AVE
City    : NAPLES State: FL Zip: 34104
Caller  : ANITA COLLINS Phone: 239-732-1700
BestTime: 8-5
Fax     : 239-732-7728

Submitted: 01/21/05 11:30ET Oper: AUN Chan: WEB
Mbrs :  CON762 FPLCLR FPLDBR LS1104 ST1259 TWC423 UTI303


ST1259 00701 CALL SUNSHINE 01/21/05 11:30:29ET 02152715-000  GRID
Ticket : 02152715 Rev:000 Taken: 01/21/05 11:28ET

State: FL Cnty: LEE Place: LEHIGH ACRES
Subdivision: WESTMINSTER GOLF AND COUNTRY 1013  Lot: 1003

Address : 2064
Street  : BERKLEY WAY
Cross 1 : OXFORD RIDGE CIR  Within 1/4 mile: Y

Locat: LOCATE ALL ALONG FRONT OF PROPERTY AND 10 FT INTO EACH ADJACENT LOT **
:
Remarks : 6 FT DEEP  12 FT WIDE  TRENCH SEWER TAP TO CENTER FRONT OF HOUSE **
GRIDDED PER REF MAP TRS T44S26E32SE
*** GEOCODED PLACE IS LEHIGH ACRES ***
*** LOOKUP BY MANUAL ***
:
Grids   : 2635A8143B   2636D8143B   2636C8143B   2635A8143A   2636D8143A  
Grids   : 2636C8143A   2635A8144D   2636D8144D   2636C8144D  

Work date: 01/25/05 Time: 23:59ET  Hrs notc: 060 Category: 3 Duration: 02 DAYS
Due Date : 01/25/05 Time: 23:59ET
Work type: SEWER AND WATER INSTL
Ug/Oh/Both: U  Machinery: Y  Depth: 6 FT  Permits: Y  ON SITE
Done for : US HOMES

Company : CUSTOM PLUMBING  Type: CONT
Co addr : PO BOX 50357
City    : FT MYERS State: FL Zip: 33905
Caller  : SUSIE ANN HESSELING Phone: 239-332-5334
Contact : SUSIE ANN HESSELING OR TOBI CA Phone: 239-332-5334
BestTime: 8-3
Mobile  : 239-633-0559
Fax     : 239-334-0910

Submitted: 01/21/05 11:28ET Oper: SUS Chan: FX
Mbrs :  FPLDBR FPLLEE FWS619 JIC394 LS1104 ST1259 UTI300


ST1259 00704 CALL SUNSHINE 01/21/05 11:30:38ET 02152725-000  STREET
Ticket : 02152725 Rev:000 Taken: 01/21/05 11:29ET

State: FL Cnty: LEE Place: CAPE CORAL
Subdivision:

Address : 1814
Street  : NE 5TH AVE
Cross 1 : NE 18TH ST  Within 1/4 mile: Y

Locat: LOCATE ENTIRE PROPERTY**
:
Remarks : *** GEOCODED PLACE IS CAPE CORAL ***
*** LOOKUP BY ADDRESS ***
:
Grids   : 2641C8157B   2641C8157A   2641D8157B   2641D8157A  

Work date: 01/25/05 Time: 23:59ET  Hrs notc: 060 Category: 3 Duration: 02 DAYS
Due Date : 01/25/05 Time: 23:59ET
Work type: BUILDING FENCE
Ug/Oh/Both: U  Machinery: Y  Depth: 2FT  Permits: Y  PENDING
Done for : WILSON

Company : CAPE CORAL FENCE COMPANY  Type: CONT
Co addr : P.O. BOX 502 / UNIT D15
City    : CAPE CORAL State: FL Zip: 33991
Caller  : THERESA GOBERT Phone: 239-574-8399
Contact : THERESA GOBERT Phone: 239-574-8399
BestTime: 8-5
Mobile  : 239-872-4850

Submitted: 01/21/05 11:29ET Oper: MAR Chan: 19
Mbrs :  LCC295 ST1259 UTI302


ST1259 00702 CALL SUNSHINE 01/21/05 11:30:36ET 02152722-000  GRID
Ticket : 02152722 Rev:000 Taken: 01/21/05 11:30ET

State: FL Cnty: SEMINOLE Place: WINTER PARK
Subdivision: AUTUMN GLEN

Address : 1767 to 1791
Street  : MEADOW GOLD LN
Cross 1 : WATERVIEW LP  Within 1/4 mile: N

Locat: LOCATE ENTIRE PROPERTY 1791 1783 1775 1767 TO INCLUDE DROPS AND LATERALS
ON ADJACENT PROPERTIES
:
Remarks : *** GEOCODED PLACE IS WINTER PARK ***
*** LOOKUP BY MANUAL ***
:
Grids   : 2837B8116A   2837B8117D   2837B8117C   2837D8116A   2837C8116A  
Grids   : 2837D8117D   2837C8117D   2837D8117C   2837C8117C  

Work date: 01/25/05 Time: 23:59ET  Hrs notc: 060 Category: 3 Duration: 20 DAYS
Due Date : 01/25/05 Time: 23:59ET
Work type: UNDERGROUND POWER INSTALLATION
Ug/Oh/Both: U  Machinery: Y  Depth: UNK  Permits: N  N/A
Done for : PROGRESS ENERGY

Company : MASTEC ENERGY  Type: CONT
Co addr : 7112 OLD CHENEY HWY
City    : ORLANDO State: FL Zip: 32807
Caller  : ANNE  HATTAWAY Phone: 407-381-4233
Contact : ROBERT VANRYNN Phone: 321-377-4463
BestTime: 8AM-5PM
Fax     : 407-381-4035
Email   : ANNE.HATTAWAY@MASTEC.COM

Submitted: 01/21/05 11:30ET Oper: AMH Chan: WEB
Mbrs :  COC480 CVCFTV FPC322 FPLFES ID1421 LS1104 PGSORL PT1380 SBF20  SCT994
Mbrs :  SEM814 SSNOWW ST1259 UTI296


ST1259 00705 CALL SUNSHINE 01/21/05 11:31:23ET 02152734-000  STREET
Ticket : 02152734 Rev:000 Taken: 01/21/05 11:27ET

State: FL Cnty: ORANGE Place: ORLANDO
Subdivision: TURTLE CREEK

Address : 10550
Street  : EMERALD CHASE DR
Cross 1 : BOCA POINTE DR  Within 1/4 mile: Y

Locat: ENTIRE PROPERTY
:
Remarks : *** GEOCODED PLACE IS ORLANDO ***
*** LOOKUP BY ADDRESS ***
:
Grids   : 2824B8130C   2824A8130C  

Work date: 01/25/05 Time: 23:59ET  Hrs notc: 060 Category: 3 Duration: 07 DAYS
Due Date : 01/25/05 Time: 23:59ET
Work type: LANDSCAPE
Ug/Oh/Both: U  Machinery: Y  Depth: 3FT  Permits: N  N/A
Done for : YOUNGSTROM

Company : WISE LANDSCAPING, INC.  Type: CONT
Co addr : 2832 MICHIGAN AVE
Co addr2: SUITE A
City    : KISSIMMEE State: FL Zip: 34744
Caller  : NANCY WISE Phone: 407-518-9473
Contact : COVEY WISE Phone: 407-466-2845
BestTime: 8-5
Mobile  : 407-466-2845
Fax     : 407-518-9801
Email   : WISELANDSCAPEINC@AOL.COM

Submitted: 01/21/05 11:27ET Oper: LIN Chan: 64
Mbrs :  CVCFTV FPC322 LS1104 OC1332 OCU596 SBF20  ST1259 UTI297


ST1259 00706 CALL SUNSHINE 01/21/05 11:31:59ET 02152739-000  GRID
Ticket : 02152739 Rev:000 Taken: 01/21/05 11:28ET

State: FL Cnty: JEFFERSON Place: GREENVILLE
Subdivision: AUCILLA SHORES  Lot: 1

Address : 9616
Street  : CO RD 146
Cross 1 : DEERWOOD BLVD  Within 1/4 mile: Y

Locat: 10FT RADIUS AROUND FLAGGED STAKE BESIDE HWY 146 UNDER POWER LINE
:
Remarks : T02NR06E10 PER FAX**GRID TO WITHIN 1/4 MILE OF DEERWOOD BLVD PER FAX
*** GEOCODED PLACE IS GREENVILLE ***
*** LOOKUP BY MANUAL ***
:
Grids   : 3035B8342D   3035A8342D   3035B8342C   3035A8342C   3035B8342B  
Grids   : 3035A8342B   3035B8342A   3035A8342A  

Work date: 01/25/05 Time: 23:59ET  Hrs notc: 060 Category: 3 Duration: 00 DAY
Due Date : 01/25/05 Time: 23:59ET
Work type: SET POLES
Ug/Oh/Both: U  Machinery: Y  Depth: 6FT  Permits: N  N/A
Done for : DEAN BOWLING

Company : TRI-COUNTY ELECTRIC CO-OP. INC.  Type: MEMB
Co addr : 700 S JEFFERSON
City    : MONTICELLO State: FL Zip: 32344
Caller  : KENNETH BASS Phone: 850-973-2285 Ext: 226
Contact : KENNETH BASS Phone: 850-973-2285 Ext: 226
BestTime: 8-5
Fax     : 850-997-4227

Submitted: 01/21/05 11:28ET Oper: MAR Chan: FX
Mbrs :  CNTL01 ST1259 TC1125


ST1259 00707 CALL SUNSHINE 01/21/05 11:32:33ET 02152748-000  STREET
Ticket : 02152748 Rev:000 Taken: 01/21/05 11:32ET

State: FL Cnty: COLLIER Place: NAPLES
Subdivision:

Address : 831
Street  : 92ND AVE N
Cross 1 : 8TH ST  Within 1/4 mile: N

Locat: LOCATE FROM SERVING TERMINAL 11409 TO THE REAR OF THE PROPERTY INCLUDING
THE REAR TERM IS IN THE REAR
:
Remarks : *** CROSS STREET APPROXIMATELY 1MILE ***
*** GEOCODED PLACE IS NAPLES ***
*** LOOKUP BY ADDRESS ***
:
Grids   : 2615C8148D   2615C8148C  

Work date: 01/25/05 Time: 23:59ET  Hrs notc: 060 Category: 3 Duration: 04 HRS
Due Date : 01/25/05 Time: 23:59ET
Work type: BURYING TELEPHONE CABLE FOR SPRINT
Ug/Oh/Both: U  Machinery: Y  Depth: 24IN  Permits: N  N/A
Done for : MASTEC

Company : AERIAL AND UNDERGROUND  Type: CONT
Co addr : 3047 TERRACE AVE
City    : NAPLES State: FL Zip: 34104
Caller  : ANITA COLLINS Phone: 239-732-1700
BestTime: 8-5
Fax     : 239-732-7728

Submitted: 01/21/05 11:32ET Oper: AUN Chan: WEB
Mbrs :  CC1255 CPW592 CTV413 FPLCLR FPLDBR LS1104 PGSSW  ST1259 TWC423 UTI303


ST1259 00709 CALL SUNSHINE 01/21/05 11:33:15ET 02152755-000  GRID
TO REPLACE TICKET DUE TO INCORRECT STREET NAME 
Ticket : 02152755 Rev:000 Taken: 01/21/05 11:31ET
Old Tkt: 01953111 Taken: 01/19/05 11:50ET Oper: JAN

State: FL Cnty: LAKE Place: GROVELAND
Subdivision: WOODLANDS AT CHURCH LAKE PHASE 3

Address : 
Street  : FLOWERING TREE CIRCLE
Cross 1 : PLUMERIA LANE  Within 1/4 mile: N

Locat: ENTIRE LOTS 268, 269, 270 AND 271 FLOWERING TREE CIRCLE
:
Remarks : **LOTS ARE WITHIN 1/4 MILE OF PLUMERIA LANE.**GRIDDED PER CUSTOMER
TRS OF 21SR25E20***NEW STREETS NOT ON MAP GRIDDED PER CUSTOMER TRS
THIS TICKET REPLACES TICKET# 01953111 CRKLEIST WEB 2005-01-21 11:31:18
*** GEOCODED PLACE IS GROVELAND ***
*** LOOKUP BY MANUAL ***
:
Grids   : 2838D8149C   2838C8149C   2838B8149C   2838A8149C   2839D8149C  
Grids   : 2838D8149B   2838C8149B   2838B8149B   2838A8149B   2839D8149B  
Grids   : 2838D8149A   2838C8149A   2838B8149A   2838A8149A   2839D8149A  
Grids   : 2838D8150D   2838C8150D   2838B8150D   2838A8150D   2839D8150D  
Grids   : 2838D8150C   2838C8150C   2838B8150C   2838A8150C   2839D8150C  

Work date: 01/25/05 Time: 23:59ET  Hrs notc: 060 Category: 3 Duration: 02 MONS
Due Date : 01/25/05 Time: 23:59ET
Work type: STORM DRAINS
Ug/Oh/Both: U  Machinery: Y  Depth: 12 FT  Permits: N  N/A
Done for : AMERICAN LAND LEASE

Company : ENVIRONMENTAL EQUIPMENT SALES, INC.  Type: CONT
Co addr : PO BOX 2459
City    : RIVERVIEW State: FL Zip: 33568
Caller  : DEBBIE KONACK Phone: 813-677-6877
Contact : BEN WEAVER Phone: 813-299-3565
BestTime: 9AM-3PM
Fax     : 813-677-2605

Submitted: 01/21/05 11:31ET Oper: CRK Chan: WEB
Mbrs :  COL759 CVITV4 FPC322 FWS665 IXC887 LCA395 LS1104 SEC545 ST1259 UTI297
Mbrs :  UTI298 UTI299


ST1259 00708 CALL SUNSHINE 01/21/05 11:33:08ET 02152753-000  GRID
Ticket : 02152753 Rev:000 Taken: 01/21/05 11:32ET

State: FL Cnty: LAKE Place: CLERMONT
Subdivision:

Address : 
Street  : GREATER HILLS BLVD
Cross 1 : SR 50  Within 1/4 mile: N

Locat: LOCATE BOTH SIDE OF GREATER HILLS BLVD STARTING ON THE SOUTH SIDE OF THE
ENTRANCES TO THE GAS STATION ON THE EAST SIDE AND THE NEW BUILDING ON THE WEST
SIDE GOING NORTH FOR 300'
:
Remarks : *** GEOCODED PLACE IS CLERMONT ***
*** LOOKUP BY MANUAL ***
*** HORIZONTAL DRILLING ***
:
Grids   : 2832A8141C   2833D8141C   2832A8141B   2833D8141B   2832A8141A  
Grids   : 2833D8141A  

Work date: 01/25/05 Time: 23:59ET  Hrs notc: 060 Category: 3 Duration: 20 DAYS
Due Date : 01/25/05 Time: 23:59ET
Work type: DIRECTIONAL BORE
Ug/Oh/Both: U  Machinery: Y  Depth: 36IN  Permits: N  N/A
Done for : SPRINT

Company : M & D UNDERGROUND  Type: CONT
Co addr : 604 BIDWELL ST
City    : FRUITLAND PARK State: FL Zip: 34731
Caller  : TRACY MYER Phone: 352-323-1812
Contact : TRACY Phone: 352-636-4919
BestTime: 8-5
Mobile  : 352-636-4919
Fax     : 352-323-1804

Submitted: 01/21/05 11:32ET Oper: TMY Chan: WEB
Mbrs :  CLE848 CVITV4 FPC322 IXC887 LAN491 LS1104 MCIU01 SBF09  ST1259 UTI297
Mbrs :  UTI299


ST1259 00710 CALL SUNSHINE 01/21/05 11:33:28ET 02152758-000  GRID
Ticket : 02152758 Rev:000 Taken: 01/21/05 11:32ET

State: FL Cnty: MARION Place: OCALA
Subdivision: FLORIDA PROFESSIONAL PARK

Address : 
Street  : SW 34TH ST RD
Cross 1 : SW 32ND PL  Within 1/4 mile: Y

Locat: LOCATE THE ABOVE INTERSECTION 75 FT IN ALL DIRECTIONS THEN LOCATE NORTH
ON 34TH ST RD ON WEST SIDE TO NE LOT LINE OF LOT 4 APPROX 400 FT THEN FROM SAME
INTERSECTION LOCATE SOUTH ON 34TH ST RD ON THE WEST SIDE TO NE LOT LINE OF LOT
7 APPROX 500 FT
:
Remarks : GRIDDED PER CUSTOMER DIRECTIONS
*** GEOCODED PLACE IS OCALA ***
*** LOOKUP BY MANUAL ***
:
Grids   : 2909C8209A   2909C8210D  

Work date: 01/25/05 Time: 23:59ET  Hrs notc: 060 Category: 3 Duration: 02 WKS
Due Date : 01/25/05 Time: 23:59ET
Work type: BURYING TELEPHONE CABLE
Ug/Oh/Both: U  Machinery: Y  Depth: 4FT  Permits: U  N/A
Done for : SPRINT

Company : JWJ INC  Type: CONT
Co addr : 2300 SW 3RD AVE
City    : OCALA State: FL Zip: 34474
Caller  : MIKE CLAYTON Phone: 352-732-0550
Contact : MIKE CLAYTON Phone: 352-266-6850
BestTime: 7-5
Mobile  : 352-266-6874
Fax     : 352-732-2779

Submitted: 01/21/05 11:32ET Oper: MCL Chan: WEB
Mbrs :  COO593 COX02  FPC280 LS1104 OEU503 ST1259 UTI298 WFG361


ST1259 00711 CALL SUNSHINE 01/21/05 11:33:35ET 02152762-000  STREET
Ticket : 02152762 Rev:000 Taken: 01/21/05 11:30ET

State: FL Cnty: LEE Place: CAPE CORAL
Subdivision:

Address : 915
Street  : NICHOLAS PKWY W
Cross 1 : SW 11TH ST  Within 1/4 mile: Y

Locat: LOCATE ENTIRE PROPERTY**
:
Remarks : NEAR STREET APPROX 1/2 MILE FROM COMPUTER-SHOWN ADDRESS RANGE--PER
CUSTOMER GRIDDED FOR THAT ADDRESS RANGE**
*** GEOCODED PLACE IS CAPE CORAL ***
*** LOOKUP BY ADDRESS ***
:
Grids   : 2638C8159D   2638B8159D  

Work date: 01/25/05 Time: 23:59ET  Hrs notc: 060 Category: 3 Duration: 02 DAYS
Due Date : 01/25/05 Time: 23:59ET
Work type: BUILDING FENCE
Ug/Oh/Both: U  Machinery: Y  Depth: 2FT  Permits: Y  PENDING
Done for : COLON

Company : CAPE CORAL FENCE COMPANY  Type: CONT
Co addr : P.O. BOX 502 / UNIT D15
City    : CAPE CORAL State: FL Zip: 33991
Caller  : THERESA GOBERT Phone: 239-574-8399
Contact : THERESA GOBERT Phone: 239-574-8399
BestTime: 8-5
Mobile  : 239-872-4850

Submitted: 01/21/05 11:30ET Oper: MAR Chan: 19
Mbrs :  CCC579 LCC295 ST1259 TWC899 UTI302


ST1259 00712 CALL SUNSHINE 01/21/05 11:33:56ET 02152767-000  STREET
Ticket : 02152767 Rev:000 Taken: 01/21/05 11:33ET

State: FL Cnty: COLLIER Place: NAPLES
Subdivision:

Address : 841
Street  : 9TH AVE S
Cross 1 : 8TH ST S  Within 1/4 mile: N

Locat: LOCATE FROM SERVING TERMINAL 122615 TO THE REAR OF THE PROPERTY
INCLUDING THE REAR TERM IS IN THE REAR IN ALLEY
:
Remarks : *** CROSS STREET APPROXIMATELY 1MILE ***
*** GEOCODED PLACE IS NAPLES ***
*** LOOKUP BY ADDRESS ***
:
Grids   : 2608D8147B   2608C8147B   2608D8147A   2608C8147A  

Work date: 01/25/05 Time: 23:59ET  Hrs notc: 060 Category: 3 Duration: 04 HRS
Due Date : 01/25/05 Time: 23:59ET
Work type: BURYING TELEPHONE CABLE FOR SPRINT
Ug/Oh/Both: U  Machinery: Y  Depth: 24IN  Permits: N  N/A
Done for : MASTEC

Company : AERIAL AND UNDERGROUND  Type: CONT
Co addr : 3047 TERRACE AVE
City    : NAPLES State: FL Zip: 34104
Caller  : ANITA COLLINS Phone: 239-732-1700
BestTime: 8-5
Fax     : 239-732-7728

Submitted: 01/21/05 11:33ET Oper: AUN Chan: WEB
Mbrs :  CON762 CTV413 FPLCLR FPLDBR LS1104 PGSSW  ST1259 UTI303


ST1259 00713 CALL SUNSHINE 01/21/05 11:34:03ET 02152769-000  STREET
Ticket : 02152769 Rev:000 Taken: 01/21/05 11:25ET

State: FL Cnty: COLLIER Place: NAPLES
Subdivision:

Address : 4320
Street  : 15TH AVE SW
Cross 1 : CO RD 951  Within 1/4 mile: Y

Locat: LOCATE FRONT OF PROPERTY AND PROPERTY LINE TO PROPERTY LINE
:
Remarks : CUSTOMER STATES WILL STAKE AREA
*** GEOCODED PLACE IS NAPLES ***
*** LOOKUP BY ADDRESS ***
:
Grids   : 2612D8141C   2612D8141B   2612D8141A   2612D8142D  

Work date: 01/25/05 Time: 23:59ET  Hrs notc: 060 Category: 3 Duration: 01 HR
Due Date : 01/25/05 Time: 23:59ET
Work type: STUMP GRINDING
Ug/Oh/Both: U  Machinery: Y  Depth: UNK  Permits: N  N/A
Done for : SELF

Company : HOMEOWNER  Type: HOME
Co addr : 2292 PICCADILLY CIRCUS
City    : NAPLES State: FL Zip: 34112
Caller  : DEBBIE MCCARTHY Phone: 239-774-2675
Contact : DEBBIE MCCARTHY Phone: 239-774-2675
BestTime: 8-2

Submitted: 01/21/05 11:25ET Oper: GIA Chan: 36
Mbrs :  ATTF01 CPW592 FCW565 FPLCLR FPLDBR LS1104 ST1259 TWC423 UTI303


