

AUDIT	2005/12/28 00:01:19	00001

*********************************************************************
*  This is your End of Day Audit from AEP                           *
*  for the period 2005/12/27 00:00:04 thru 2005/12/28 00:00:09.     *
*********************************************************************

Service Area: Bluefield-WV
 00005 WVMISS3600003-00 07:43   00029 WVMISS3610064-00 10:41
 00031 WVMISS3610066-00 10:43   00036 WVMISS3610080-00 11:20


Service Area: Charleston-WV
 00002 WVMISS3570055-00 07:29   00004 WVMISS3570060-00 07:42
 00006 WVMISS3600008-00 07:44   00007 WVMISS3600009-00 07:44
 00008 WVMISS3600010-00 07:44   00009 WVMISS3600011-00 07:44
 00010 WVMISS3600012-00 07:44   00011 WVMISS3600013-00 07:45
 00012 WVMISS3600014-00 07:45   00013 WVMISS3600016-00 07:45
 00014 WVMISS3600017-00 07:45   00015 WVMISS3600018-00 07:46
 00016 WVMISS3600020-00 07:46   00017 WVMISS3570051-00 07:48
 00018 WVMISS3600024-00 07:48   00019 WVMISS3610014-00 08:29
 00020 WVMISS3610026-00 09:18   00021 WVMISS3610032-00 09:32
 00022 WVMISS3610034-00 09:41   00023 WVMISS3610038-00 09:50
 00024 WVMISS3610040-00 09:57   00025 WVMISS3610041-00 10:00
 00027 WVMISS3610060-00 10:37   00028 WVMISS3610062-00 10:41
 00033 WVMISS3610071-00 10:51   00034 WVMISS3610073-00 10:56
 00035 WVMISS3610076-00 11:10   00037 WVMISS3610084-00 11:31
 00038 WVMISS3610085-00 11:36   00039 WVMISS3610086-00 11:37
 00040 WVMISS3610087-00 11:51   00041 WVMISS3610088-00 11:51
 00042 WVMISS3610093-00 11:53   00043 WVMISS3610095-00 12:36
 00044 WVMISS3610098-00 12:38   00045 WVMISS3610099-00 12:38
 00046 WVMISS3610105-00 12:38   00047 WVMISS3610107-00 12:39
 00050 WVMISS3610115-00 12:53   00052 WVMISS3610124-00 13:16
 00055 WVMISS3610147-00 13:37   00056 WVMISS3610153-00 13:42
 00057 WVMISS3610157-00 14:04   00059 WVMISS3610171-00 14:19
 00060 WVMISS3610176-00 14:44   00061 WVMISS3610180-00 14:47
 00062 WVMISS3610183-00 15:06   00063 WVMISS3610186-00 15:20
 00064 WVMISS3610187-00 15:20   00065 WVMISS3610185-00 15:21
 00066 WVMISS3610189-00 15:21


Service Area: Promark-WV
 00067 WVMISS3610237-00 17:58


Service Area: Wheeling-WV
 00003 WVMISS3570057-00 07:31   00026 WVMISS3610050-00 10:20
 00030 WVMISS3610065-00 10:43   00032 WVMISS3610068-00 10:45
 00048 WVMISS3610111-00 12:43   00049 WVMISS3610113-00 12:48
 00051 WVMISS3610127-00 13:13   00053 WVMISS3610123-00 13:17
 00054 WVMISS3610131-00 13:23   00058 WVMISS3610168-00 14:17

Total number of notices sent during time period: 66


Please notify AEP immediately of any missing transmissions by calling
614-883-7832.  


