UQ1098 00464 CALL SUNSHINE 06/07/02 15:26:37ET 15823396-000  GRID
Ticket : 15823396 Rev:000 Taken: 06/07/02 15:10ET
Old Tkt: 14224365 Taken: 05/22/02 16:08ET Oper: JIM

State: FL Cnty: PALM BEACH Place: LAKE CLARKE SHORES
Subdivision:

Address : 461 to 461
Street  : WASECA DR

Locat: LOCATE ROW BEHIND 461 WASECA DR NORTH AND SOUTH 100&APOS;, LOCATES MUST
INCLUDE OFFSETS
:
Remarks : UPDATE
THIS TICKET REPLACES TICKET# 10020188 JIM CAUGHEY WEB 2002-05-02 11:14:47
THIS TICKET REPLACES TICKET# 12222495 JIM CAUGHEY WEB 2002-05-22 16:08:08
THIS TICKET REPLACES TICKET# 14224365 JIM CAUGHEY WEB 2002-06-07 15:10:51
*** GEOCODED PLACE IS LAKE WORTH ***
*** LOOKUP BY MANUAL ***
:
Grids   : 2635D8005A  

Work date: 06/11/02 Time: 15:15ET  Hrs notc: 048 Category: 3 Duration: 01 WK
Due Date : 06/11/02 Time: 15:13ET
Work type: SEWER
Ug/Oh/Both: U  Machinery: Y  Depth: 8 FT  Permits: N  N/A
Done for : LAKE CLARKE SHORE

Company : JOHNSON DAVIS  Type: CONT
Co addr : 604 HILLBRATH DR
City    : LANTANA State: FL Zip: 33462
Caller  : JIM CAUGHEY Phone: 561-588-1170
Contact : TONY GLENN Phone:
BestTime: DAYS
Fax     : 561-585-5252

Submitted: 06/07/02 15:10ET Oper: JIM Chan: WEB
Mbrs :  AC1105 CLW792 FPLDBR FPLPAL FPUC01 LCS495 LS1104 SBF19  UQ1098




UQ1098 00465 CALL SUNSHINE 06/07/02 15:26:37ET 15823408-000  STREET
Ticket : 15823408 Rev:000 Taken: 06/07/02 15:03ET

State: FL Cnty: PALM BEACH Place: BOCA RATON
Subdivision:

Address : 7070
Street  : W PALMETTO PARK RD
Cross 1 : POWERLINE RD  Within 1/4 mile: Y

Locat: LOCATE AREA DIRECTLY BEHIND OLD ECKERTS, STRAIGHT SHOT FROM BUILDING TO
MANHOLE IN MIDDLE OF BACK ALLEY ( GOING E TO W )
:
Remarks : *** GEOCODED PLACE IS BOCA RATON ***
*** LOOKUP BY ADDRESS ***
:
Grids   : 2620A8009D   2621D8009D   2620A8009C   2621D8009C  

Work date: 06/10/02 Time: 07:00ET  Hrs notc: 015 Category: 4 Duration: 03 DAYS
Due Date : 06/11/02 Time: 15:03ET
Work type: UNDERGROUND SEWER LINE
Ug/Oh/Both: U  Machinery: N  Depth: 5 FT  Permits: Y  UNK
Done for : TENET HEALTH CARE

Company : WILL R NASH INC.  Type: CONT
Co addr : 12981 113TH CT
City    : MIAMI State: FL Zip: 33178
Caller  : TIM UZAR Phone: 305-885-8155
Contact : SAME Phone:
BestTime: 8-4
Mobile  : 305-796-9307
Fax     : 561-391-6245
Email   : RUZAR@WRNASH.COM

Submitted: 06/07/02 15:03ET Oper: MAR Chan: 16
Mbrs :  AC1105 CBR806 ECI870 FPLDBR FPLPAL FPUC01 HT1010 LS1104 PBC750 PBT865
Mbrs :  SBF19  UQ1098




UQ1098 00466 CALL SUNSHINE 06/07/02 15:26:38ET 15823449-000  STREET
Ticket : 15823449 Rev:000 Taken: 06/07/02 15:19ET
Old Tkt: 14820757 Taken: 05/28/02 08:42ET Oper: 904

State: FL Cnty: DUVAL Place: JACKSONVILLE
Subdivision:

Address : 7400
Street  : SAN JOSE BLVD
Cross 1 : SAN CARLOS RD  Within 1/4 mile: Y

Locat: LOCATION IS AT BOLLES SCHOOL (7400 SAN JOSE BLVD) LOCATE FROM 7502 GOING
SW TO POLE 7410, CONTINUE SW TO TRANS 7412. CALL HANK WILLIAMSON 759-7720
:
Remarks : JOB #2D174
THIS TICKET REPLACES TICKET# 07121719 9047516020 WEB 2002-04-02 08:18:00
THIS TICKET REPLACES TICKET# 09220424 9047516020 WEB 2002-04-15 08:02:01
THIS TICKET REPLACES TICKET# 10520369 9047516020 WEB 2002-05-10 14:58:42THIS
TICKET REPLACES TICKET# 13023422 9047516020 WEB 2002-05-28 08:42:02
THIS TICKET REPLACES TICKET# 14820757 9047516020 WEB 2002-06-07 15:19:42
*** GEOCODED PLACE IS JACKSONVILLE ***
*** LOOKUP BY ADDRESS ***
*** HORIZONTAL DRILLING ***
:
Grids   : 3014B8137B  

Work date: 06/11/02 Time: 15:30ET  Hrs notc: 048 Category: 3 Duration: 01 MON
Due Date : 06/11/02 Time: 15:22ET
Work type: UG DIRECTIONAL BORE
Ug/Oh/Both: U  Machinery: Y  Depth: U  Permits: N  N/A
Done for : JEA

Company : C AND C POWERLINE INC.  Type: CONT
Co addr : P.O. BOX 26100
City    : JACKSONVILLE State: FL Zip: 32226
Caller  : SUSAN HIGGINBOTHAM Phone: 904-751-6020
Contact : HANK WILLIAMSON Phone: 904-759-7720
BestTime: 8 TO 5
Fax     : 904-757-0964
Email   : SUSAN@CCPOWERLINE.COM  ----- LOWER CASE

Submitted: 06/07/02 15:19ET Oper: 904 Chan: WEB
Mbrs :  CCTV03 CJT787 FPLDBR FPLFAD JEA    JEA773 LS1104 PGSJAX SBF17  UQ1098




UQ1098 00467 CALL SUNSHINE 06/07/02 15:26:38ET 15823451-000  STREET
Ticket : 15823451 Rev:000 Taken: 06/07/02 15:19ET

State: FL Cnty: DUVAL Place: JACKSONVILLE
Subdivision:

Address : 4434 to 4434
Street  : KEN KNIGHT DR N
Cross 1 : RUTLEDGE PEARSON DR  Within 1/4 mile: Y

Locat: ENTIRE FRONT OF THE PROPERTY , LOCATION PEGGED AND ADDRESS PAINTED ON
STREET. LOCATION IS WEST OF RUTLEDGE PEARSON DR.
:
Remarks : *** CROSS STREET APPROXIMATELY 200FT ***
*** GEOCODED PLACE IS JACKSONVILLE ***
*** LOOKUP BY ADDRESS ***
:
Grids   : 3023C8142A   3023B8142A   3023C8143D   3023B8143D  

Work date: 06/11/02 Time: 15:30ET  Hrs notc: 048 Category: 3 Duration: 01 DAY
Due Date : 06/11/02 Time: 15:21ET
Work type: INSTALLING A POLE & ANCHOR
Ug/Oh/Both: U  Machinery: Y  Depth: 10FT  Permits: N  N/A
Done for : JEA

Company : JEA  Type: CONT
Co addr : 6727 BROADWAY AVE
City    : JACKSONVILLE State: FL Zip: 32254
Caller  : MICHAEL CORBITT Phone: 904-665-7991
Contact : SAME Phone:
BestTime: 7:30AM - 4:30PM
Mobile  : 904-662-0635
Fax     : 904-665-6955

Submitted: 06/07/02 15:19ET Oper: 904 Chan: WEB
Mbrs :  CCTV03 CJT787 JEA    JEA773 LS1104 PGSJAX SBF17  UQ1098




UQ1098 00468 CALL SUNSHINE 06/07/02 15:26:39ET 15823457-000  GRID
Ticket : 15823457 Rev:000 Taken: 06/07/02 15:17ET

State: FL Cnty: PALM BEACH Place: BOYNTON BEACH
Subdivision: MIZNER FALLS  Lot: 227

Address : 7078
Street  : VESUVIO PL

Locat: LOCATE THE BOTH SIDES AND REAR OF THE PROPERTY**
:
Remarks : CUST STATED SHE DID NOT NEED A CROSS STREET PER SUPERVISOR IF SHE HAD
THE TRS BECAUSE THIS IS A NEW S/D GRIDDED PER CUST TRS T45SR42ES28***
*** GEOCODED PLACE IS BOYNTON BEACH ***
*** LOOKUP BY MANUAL ***
:
Grids   : 2630A8009C   2631D8009C   2631C8009C   2631B8009C   2630A8009B  
Grids   : 2631D8009B   2631C8009B   2631B8009B   2630A8009A   2631D8009A  
Grids   : 2631C8009A   2631B8009A   2630A8010D   2631D8010D   2631C8010D  
Grids   : 2631B8010D   2630A8010C   2631D8010C   2631C8010C   2631B8010C  

Work date: 06/11/02 Time: 15:17ET  Hrs notc: 048 Category: 3 Duration: 08 WKS
Due Date : 06/11/02 Time: 15:17ET
Work type: INSTALLING A POOL
Ug/Oh/Both: U  Machinery: Y  Depth: 6FT  Permits: Y  PENDING
Done for : RAMUNNI-PUDER SIEGEL

Company : ANTHONY AND SYLVAN POOLS  Type: CONT
Co addr : 925 UNIVERSITY DR
City    : CORAL SPRINGS State: FL Zip: 33071
Caller  : ANITA OSBORN Phone: 954-575-7946
Contact : SAME Phone:
BestTime: 8:30-5:30
Fax     : 954-575-8812

Submitted: 06/07/02 15:17ET Oper: PAU Chan: 25
Mbrs :  AC1105 ATTF01 FGT13  FPLDBR FPLPAL FPUC01 HT1010 LS1104 PBC750 PBT865
Mbrs :  PSI427 SBF19  UQ1098




UQ1098 00469 CALL SUNSHINE 06/07/02 15:26:39ET 15823458-000  GRID
Ticket : 15823458 Rev:000 Taken: 06/07/02 15:21ET
Old Tkt: 14224371 Taken: 05/22/02 16:08ET Oper: JIM

State: FL Cnty: PALM BEACH Place: BOYNTON BEACH
Subdivision:

Address : 
Street  : HYPOLUXO RD
Cross 1 : WINSTON TRAILS BLVD  Within 1/4 mile: Y

Locat: LOCATE HAVERHILL RD AND WINSTON TRAILS BLVD AND GO SOUTH TO HYPOLUXO RD
LOCATING FROM 20&APOS; WEST OF WEST ROW TO 20&APOS; EAST OF EAST ROW ON
PROPOSED HAVERHILL RD
:
Remarks : THIS TICKET REPLACES TICKET# 07021280 JIM CAUGHEY WEB 2002-04-05
13:56:46
THIS TICKET REPLACES TICKET# 09522905 JIM CAUGHEY WEB 2002-05-02 12:18:13
THIS TICKET REPLACES TICKET# 12223018 JIM CAUGHEY WEB 2002-05-22 16:08:50
THIS TICKET REPLACES TICKET# 14224371 JIM CAUGHEY WEB 2002-06-07 15:21:08
*** GEOCODED PLACE IS BOYNTON BEACH ***
*** LOOKUP BY MANUAL ***
:
Grids   : 2634C8007D   2634B8007D   2634A8007D   2634C8007C   2634B8007C  
Grids   : 2634A8007C  

Work date: 06/11/02 Time: 15:30ET  Hrs notc: 048 Category: 3 Duration: 01 YR
Due Date : 06/11/02 Time: 15:24ET
Work type: DRAINAGE
Ug/Oh/Both: U  Machinery: Y  Depth: 12 FT  Permits: N  N/A
Done for : JW CHEATUM

Company : JOHNSON DAVIS  Type: CONT
Co addr : 604 HILLBRATH DR
City    : LANTANA State: FL Zip: 33462
Caller  : JIM CAUGHEY Phone: 561-588-1170
Contact : TONY KERRY Phone:
BestTime: DAYS
Fax     : 561-585-5252

Submitted: 06/07/02 15:21ET Oper: JIM Chan: WEB
Mbrs :  AC1105 BOY796 FPLDBR FPLPAL FPUC01 HT1010 LS1104 PBC750 PBT865 SBF19 
Mbrs :  UQ1098




UQ1098 00470 CALL SUNSHINE 06/07/02 15:26:40ET 15823462-000  STREET
Ticket : 15823462 Rev:000 Taken: 06/07/02 15:21ET
Old Tkt: 14820776 Taken: 05/28/02 08:43ET Oper: 904

State: FL Cnty: DUVAL Place: JACKSONVILLE
Subdivision:

Address : 7400
Street  : SAN JOSE BLVD
Cross 1 : SAN CARLOS RD  Within 1/4 mile: Y

Locat: LOCATION IS AT BOLLES SCHOOL (7400 SAN JOSE BLVD) LOCATE FROM TRANS 7412
GOING SW TO 7414, CONTINUE NW TO TRANS 7416. CALL HANK WILLIAMSON 759-7720
:
Remarks : JOB #2D174
THIS TICKET REPLACES TICKET# 07121759 9047516020 WEB 2002-04-02 08:20:36
THIS TICKET REPLACES TICKET# 09220447 9047516020 WEB 2002-04-15 08:03:14
THIS TICKET REPLACES TICKET# 10520383 9047516020 WEB 2002-05-10 15:00:25THIS
TICKET REPLACES TICKET# 13023433 9047516020 WEB 2002-05-28 08:43:25
THIS TICKET REPLACES TICKET# 14820776 9047516020 WEB 2002-06-07 15:21:32
*** GEOCODED PLACE IS JACKSONVILLE ***
*** LOOKUP BY ADDRESS ***
*** HORIZONTAL DRILLING ***
:
Grids   : 3014B8137B  

Work date: 06/11/02 Time: 15:30ET  Hrs notc: 048 Category: 3 Duration: 01 MON
Due Date : 06/11/02 Time: 15:24ET
Work type: UG DIRECTIONAL BORE
Ug/Oh/Both: U  Machinery: Y  Depth: U  Permits: N  N/A
Done for : JEA

Company : C AND C POWERLINE INC.  Type: CONT
Co addr : P.O. BOX 26100
City    : JACKSONVILLE State: FL Zip: 32226
Caller  : SUSAN HIGGINBOTHAM Phone: 904-751-6020
Contact : HANK WILLIAMSON Phone: 904-759-7720
BestTime: 8 TO 5
Fax     : 904-757-0964
Email   : SUSAN@CCPOWERLINE.COM  ----- LOWER CASE

Submitted: 06/07/02 15:21ET Oper: 904 Chan: WEB
Mbrs :  CCTV03 CJT787 FPLDBR FPLFAD JEA    JEA773 LS1104 PGSJAX SBF17  UQ1098




UQ1098 00471 CALL SUNSHINE 06/07/02 15:26:41ET 15823466-000  GRID
Ticket : 15823466 Rev:000 Taken: 06/07/02 15:22ET
Old Tkt: 14223925 Taken: 05/22/02 15:10ET Oper: JIM

State: FL Cnty: PALM BEACH Place: WEST PALM BEACH
Subdivision:

Address : 
Street  : SANDHILL WAY S
Cross 1 : SANDHILL WY E  Within 1/4 mile: Y

Locat: LOCATE END OF SANDHILL WAY SOUTH WEST SIDE OF CIRCLE THEN 2000&APOS;
WEST ROW TO ROW
:
Remarks : TICKET REPLACES TICKET# 12320290 JIM CAUGHEY WEB 2002-05-21
14:13:24THIS TICKET REPLACES TICKET# 14123579 JIM CAUGHEY WEB 2002-05-22
15:10:34
THIS TICKET REPLACES TICKET# 14223925 JIM CAUGHEY WEB 2002-06-07 15:22:00
*** GEOCODED PLACE IS WEST PALM BEACH ***
*** LOOKUP BY MANUAL ***
:
Grids   : 2647D8012D   2647C8012D   2647D8012C   2647C8012C  

Work date: 06/11/02 Time: 15:30ET  Hrs notc: 048 Category: 3 Duration: 08 MONS
Due Date : 06/11/02 Time: 15:24ET
Work type: WATER SEWER DRAINAGE
Ug/Oh/Both: U  Machinery: Y  Depth: 12 FT  Permits: N  N/A
Done for : JW CHEATUM

Company : JOHNSON DAVIS  Type: CONT
Co addr : 604 HILLBRATH DR
City    : LANTANA State: FL Zip: 33462
Caller  : JIM CAUGHEY Phone: 561-588-1170
Contact : GLENN JJ Phone:
BestTime: DAYS
Fax     : 561-585-5252

Submitted: 06/07/02 15:22ET Oper: JIM Chan: WEB
Mbrs :  AC1105 FPLDBR FPLPAL FPUC01 LS1104 SBF19  UQ1098 WPB764




UQ1098 00472 CALL SUNSHINE 06/07/02 15:26:41ET 15823470-000  GRID
Ticket : 15823470 Rev:000 Taken: 06/07/02 15:24ET

State: FL Cnty: PALM BEACH Place: BOYNTON BEACH
Subdivision: MIZNER FALLS  Lot: 226

Address : 7072
Street  : VESUVIO PL

Locat: LOCATE THE BOTH SIDES AND REAR OF THE PROPERTY**
:
Remarks : CUST STATED SHE DID NOT NEED A CROSS STREET PER SUPERVISOR IF SHE HAD
THE TRS BECAUSE THIS IS A NEW S/D GRIDDED PER CUST TRS T45SR42ES28***
*** GEOCODED PLACE IS BOYNTON BEACH ***
*** LOOKUP BY MANUAL ***
:
Grids   : 2630A8009C   2631D8009C   2631C8009C   2631B8009C   2630A8009B  
Grids   : 2631D8009B   2631C8009B   2631B8009B   2630A8009A   2631D8009A  
Grids   : 2631C8009A   2631B8009A   2630A8010D   2631D8010D   2631C8010D  
Grids   : 2631B8010D   2630A8010C   2631D8010C   2631C8010C   2631B8010C  

Work date: 06/11/02 Time: 15:24ET  Hrs notc: 048 Category: 3 Duration: 08 WKS
Due Date : 06/11/02 Time: 15:17ET
Work type: INSTALLING A POOL
Ug/Oh/Both: U  Machinery: Y  Depth: 6FT  Permits: Y  PENDING
Done for : YALE

Company : ANTHONY AND SYLVAN POOLS  Type: CONT
Co addr : 925 UNIVERSITY DR
City    : CORAL SPRINGS State: FL Zip: 33071
Caller  : ANITA OSBORN Phone: 954-575-7946
Contact : SAME Phone:
BestTime: 8:30-5:30
Fax     : 954-575-8812

Submitted: 06/07/02 15:24ET Oper: PAU Chan: 25
Mbrs :  AC1105 ATTF01 FGT13  FPLDBR FPLPAL FPUC01 HT1010 LS1104 PBC750 PBT865
Mbrs :  PSI427 SBF19  UQ1098




UQ1098 00473 CALL SUNSHINE 06/07/02 15:26:42ET 15823472-000  STREET
Ticket : 15823472 Rev:000 Taken: 06/07/02 15:22ET
Old Tkt: 14820797 Taken: 05/28/02 08:45ET Oper: 904

State: FL Cnty: DUVAL Place: JACKSONVILLE
Subdivision:

Address : 7400
Street  : SAN JOSE BLVD
Cross 1 : SAN CARLOS RD  Within 1/4 mile: Y

Locat: LOCATION IS AT BOLLES SCHOOL (7400 SAN JOSE BLVD) LOCATE FROM TRANS 7416
GOING SW TO TRANS 7418, CONTINUE NW TO TRANS 7420.CALL HANK WILLIAMSON 759-7720
:
Remarks : JOB #2D174
THIS TICKET REPLACES TICKET# 07121785 9047516020 WEB 2002-04-02 08:28:16
THIS TICKET REPLACES TICKET# 09220501 9047516020 WEB 2002-04-15 08:04:15
THIS TICKET REPLACES TICKET# 10520393 9047516020 WEB 2002-05-10 15:01:47THIS
TICKET REPLACES TICKET# 13023443 9047516020 WEB 2002-05-28 08:45:11
THIS TICKET REPLACES TICKET# 14820797 9047516020 WEB 2002-06-07 15:22:49
*** GEOCODED PLACE IS JACKSONVILLE ***
*** LOOKUP BY ADDRESS ***
*** HORIZONTAL DRILLING ***
:
Grids   : 3014B8137B  

Work date: 06/11/02 Time: 15:30ET  Hrs notc: 048 Category: 3 Duration: 01 MON
Due Date : 06/11/02 Time: 15:25ET
Work type: UG DIRECTIONAL BORE
Ug/Oh/Both: U  Machinery: Y  Depth: U  Permits: N  N/A
Done for : JEA

Company : C AND C POWERLINE INC.  Type: CONT
Co addr : P.O. BOX 26100
City    : JACKSONVILLE State: FL Zip: 32226
Caller  : SUSAN HIGGINBOTHAM Phone: 904-751-6020
Contact : HANK WILLIAMSON Phone: 904-759-7720
BestTime: 8 TO 5
Fax     : 904-757-0964
Email   : SUSAN@CCPOWERLINE.COM  ----- LOWER CASE

Submitted: 06/07/02 15:22ET Oper: 904 Chan: WEB
Mbrs :  CCTV03 CJT787 FPLDBR FPLFAD JEA    JEA773 LS1104 PGSJAX SBF17  UQ1098





