

New Jersey One Call System        SEQUENCE NUMBER 1335   CDC = XXX

Transmit:  Date: 04/05/02   At: 1711

*** R O U T I N E         *** Request No.: 020940315

Operators Notified:
    UNI=/SPRINT/UNTD|CLS/ EG2=/ELIZABTHTWN GAS/ PS5=/PSE&G GAS DIV  / 
    GP3=/GPU ENERGY     / P28=/PSE&G ELEC&GAS / EW2=/ELIZABETHTN WTR/ 

Location Information:
   County: HUNTERDON     Municipality: READINGTON
   Subdivision/Community: SHADOWBROOK
   Street:               18 SHURTS RD
   Nearest Intersection: HILLCREST RD 
   Other Intersection:   
   Type of Work :        PLANTING BUSHES
   Extent of Work: FRONT OF PROP                            DEPTH: 1-2 FT

   Start Date/Time:    04/10/02   At 0900   Expiration Date: 05/16/02
   Remarks:
     EXPIRATION DATE 05/16/02

   Working For:  VIRGINIA MIKOLAJEK
   Address:      18 SHURTS RD
   City:         READINGTON, NJ  08822
   Phone:        908-788-9614
   Contact:      VIRGINIA MIKOLAJEK      Title: 

Excavator Information:
   Caller:       VIRGINIA MIKOLAJEK      Title: HOMEOWNER
   Phone:        908-788-9614            

   Excavator:    VIRGINIA MIKOLAJEK
   Address:      18 SHURTS RD
   City:         READINGTON, NJ  08822
   Phone:        908-788-9614            Fax:  
   Contact:      VIRGINIA MIKOLAJEK      Title: HOMEOWNER
   Phone:        908-788-9614            Best Time: 0800-2200
   Cellular:     

   Alternate Field Contact:
   Name:                                 Title: 
   Phone:                                Fax: 
   Cellular:                             Best Time: 
End Request






New Jersey One Call System        SEQUENCE NUMBER 1336   CDC = XXX

Transmit:  Date: 04/05/02   At: 1711

*** R O U T I N E         *** Request No.: 020940315

Operators Notified:
    UNI=/SPRINT/UNTD|CLS/ EG2=/ELIZABTHTWN GAS/ PS5=/PSE&G GAS DIV  / 
    GP3=/GPU ENERGY     / P28=/PSE&G ELEC&GAS / EW2=/ELIZABETHTN WTR/ 

Location Information:
   County: HUNTERDON     Municipality: READINGTON
   Subdivision/Community: SHADOWBROOK
   Street:               18 SHURTS RD
   Nearest Intersection: HILLCREST RD 
   Other Intersection:   
   Type of Work :        PLANTING BUSHES
   Extent of Work: FRONT OF PROP                            DEPTH: 1-2 FT

   Start Date/Time:    04/10/02   At 0900   Expiration Date: 05/16/02
   Remarks:
     EXPIRATION DATE 05/16/02

   Working For:  VIRGINIA MIKOLAJEK
   Address:      18 SHURTS RD
   City:         READINGTON, NJ  08822
   Phone:        908-788-9614
   Contact:      VIRGINIA MIKOLAJEK      Title: 

Excavator Information:
   Caller:       VIRGINIA MIKOLAJEK      Title: HOMEOWNER
   Phone:        908-788-9614            

   Excavator:    VIRGINIA MIKOLAJEK
   Address:      18 SHURTS RD
   City:         READINGTON, NJ  08822
   Phone:        908-788-9614            Fax:  
   Contact:      VIRGINIA MIKOLAJEK      Title: HOMEOWNER
   Phone:        908-788-9614            Best Time: 0800-2200
   Cellular:     

   Alternate Field Contact:
   Name:                                 Title: 
   Phone:                                Fax: 
   Cellular:                             Best Time: 
End Request






New Jersey One Call System        SEQUENCE NUMBER 1337   CDC = XXX

Transmit:  Date: 04/05/02   At: 1711

*** R O U T I N E         *** Request No.: 020940320

Operators Notified:
    PVW=/PASSAIC VLY WTR/ PAT=/PATERSON CITY  / WPB=/W PATERSON BORO/ 
    USC=/CABLVISN-PATRSN/ PS2=/PSE&G ELEC&GAS / P30=/PSE&G GAS DIV  / 
    EW2=/ELIZABETHTN WTR/ BAN=/VERIZON    |CLS/ 

Location Information:
   County: PASSAIC     Municipality: PATERSON
   Subdivision/Community: 
   Street:               9 MILL ST
   Nearest Intersection: MARKET ST 
   Other Intersection:   
   Type of Work :        TEST HOLES
   Extent of Work: ENTIRE PROP                              DEPTH: 12FT

   Start Date/Time:    04/10/02   At 0800   Expiration Date: 05/16/02
   Remarks:
     EXPIRATION DATE 05/16/02

   Working For:  JOHN SOILS ENGINEERING
   Address:      752 GRAND AVE
   City:         RIDGEFIELD, NJ  07657
   Phone:        201-943-1793
   Contact:      JOHN MAHLE              Title: 

Excavator Information:
   Caller:       KELLY DONAHUE           Title: OWNER
   Phone:        201-666-6582            

   Excavator:    KELLY DONAHUE CONTRACTOR
   Address:      45 BOOKER ST
   City:         WESTWOOD, NJ  07675
   Phone:        201-666-6582            Fax:  201-666-7534
   Contact:      KELLY DONAHUE           Title: OWNER
   Phone:        201-666-6582            Best Time: 0700-1700
   Cellular:     

   Alternate Field Contact:
   Name:                                 Title: 
   Phone:                                Fax: 
   Cellular:                             Best Time: 
End Request






New Jersey One Call System        SEQUENCE NUMBER 1338   CDC = XXX

Transmit:  Date: 04/05/02   At: 1711

*** R O U T I N E         *** Request No.: 020940321

Operators Notified:
    BUR=/BURLINGTON CNTY/ MLT=/MT LAUREL MUA  / GSC=/COMCAST GS CATV/ 
    PS4=/PSE&G ELEC&GAS / P34=/PSE&G GAS DIV  / BAN=/VERIZON    |CLS/ 

Location Information:
   County: BURLINGTON     Municipality: MOUNT LAUREL
   Subdivision/Community: HOLIDAY VILLAGE EAST
   Street:               116 PEPPERGRASS DR S
   Nearest Intersection: AMARYLLIS BLVD 
   Other Intersection:   ELBOW LN
   Type of Work :        LANDSCAPING
   Extent of Work: ENTIRE PROP                              DEPTH: 1 1/2FT

   Start Date/Time:    04/10/02   At 0800   Expiration Date: 05/16/02
   Remarks:
     EXPIRATION DATE 05/16/02

   Working For:  WILLIAM THOMPSON
   Address:      116 PEPPERGRASS DR S
   City:         MOUNT LAUREL, NJ  08054
   Phone:        856-866-0260
   Contact:      WILLIAM THOMPSON        Title: 

Excavator Information:
   Caller:       EILEEN LITTMAN          Title: SEC
   Phone:        856-985-2882            

   Excavator:    ARTISTIC LANDSCAPING & TREE SVC
   Address:      PO BOX 1251
   City:         MEDFORD, NJ  08055
   Phone:        856-985-2882            Fax:  856-985-8447
   Contact:      WILLIAM LIPPMAN         Title: OWNER
   Phone:        856-985-2882            Best Time: 0800-1700
   Cellular:     

   Alternate Field Contact:
   Name:                                 Title: 
   Phone:                                Fax: 
   Cellular:                             Best Time: 
End Request






New Jersey One Call System        SEQUENCE NUMBER 1339   CDC = XXX

Transmit:  Date: 04/05/02   At: 1711

*** R O U T I N E         *** Request No.: 020940331

Operators Notified:
    SE1=/SVC EL CATV|CLS/ NEW=/NEWTON TOWN    / SPW=/SPARTA TWP W&S / 
    UNI=/SPRINT/UNTD|CLS/ EG2=/ELIZABTHTWN GAS/ GP4=/GPU ENERGY     / 
    SP9=/SBRBN PRPN-OCSC/ 

Location Information:
   County: SUSSEX     Municipality: SPARTA
   Subdivision/Community: 
   Street:               55 PINKNEYVILLE RD
   Nearest Intersection: SPARTA AVE 
   Other Intersection:   RICHMOND HILL DR
   Type of Work :        INSTL ELEC LINES FOR POOL
   Extent of Work: ENTIRE PROP                              DEPTH: 18IN

   Start Date/Time:    04/10/02   At 0900   Expiration Date: 05/16/02
   Remarks:
     EXPIRATION DATE 05/16/02

   Working For:  ANDREW ROMANO
   Address:      55 PINKNEYVILLE RD
   City:         SPARTA, NJ  07871
   Phone:        973-383-9540
   Contact:      ROMANO                  Title: 

Excavator Information:
   Caller:       RICHARD PETER           Title: SUPV
   Phone:        908-813-2534            

   Excavator:    RHP CONSTRUCTION INC
   Address:      40 BARN OWL DR
   City:         HACKETTSTOWN, NJ  07840
   Phone:        908-813-2534            Fax:  
   Contact:      RICH PETER              Title: SUPV
   Phone:        908-813-2534            Best Time: 0800-1700
   Cellular:     973-203-3648 BPR

   Alternate Field Contact:
   Name:                                 Title: 
   Phone:                                Fax: 
   Cellular:                             Best Time: 
End Request






New Jersey One Call System        SEQUENCE NUMBER 1340   CDC = XXX

Transmit:  Date: 04/05/02   At: 1711

*** R O U T I N E         *** Request No.: 020940331

Operators Notified:
    SE1=/SVC EL CATV|CLS/ NEW=/NEWTON TOWN    / SPW=/SPARTA TWP W&S / 
    UNI=/SPRINT/UNTD|CLS/ EG2=/ELIZABTHTWN GAS/ GP4=/GPU ENERGY     / 
    SP9=/SBRBN PRPN-OCSC/ 

Location Information:
   County: SUSSEX     Municipality: SPARTA
   Subdivision/Community: 
   Street:               55 PINKNEYVILLE RD
   Nearest Intersection: SPARTA AVE 
   Other Intersection:   RICHMOND HILL DR
   Type of Work :        INSTL ELEC LINES FOR POOL
   Extent of Work: ENTIRE PROP                              DEPTH: 18IN

   Start Date/Time:    04/10/02   At 0900   Expiration Date: 05/16/02
   Remarks:
     EXPIRATION DATE 05/16/02

   Working For:  ANDREW ROMANO
   Address:      55 PINKNEYVILLE RD
   City:         SPARTA, NJ  07871
   Phone:        973-383-9540
   Contact:      ROMANO                  Title: 

Excavator Information:
   Caller:       RICHARD PETER           Title: SUPV
   Phone:        908-813-2534            

   Excavator:    RHP CONSTRUCTION INC
   Address:      40 BARN OWL DR
   City:         HACKETTSTOWN, NJ  07840
   Phone:        908-813-2534            Fax:  
   Contact:      RICH PETER              Title: SUPV
   Phone:        908-813-2534            Best Time: 0800-1700
   Cellular:     973-203-3648 BPR

   Alternate Field Contact:
   Name:                                 Title: 
   Phone:                                Fax: 
   Cellular:                             Best Time: 
End Request






New Jersey One Call System        SEQUENCE NUMBER 1341   CDC = EG1

Transmit:  Date: 04/05/02   At: 1711

*** R O U T I N E         *** Request No.: 020951571

Operators Notified:
    EW1=/ELIZABETHTN WTR/ EG1=/ELZBTWN GAS|UTQ/ P35=/PSE&G ELEC&GAS / 
    PS2=/PSE&G ELEC&GAS / CC7=/COMCAST-NJ     / BAN=/VERIZON    |CLS/ 

Location Information:
   County: UNION     Municipality: UNION
   Subdivision/Community: 
   Street:               2425 US HIGHWAY 22 W
   Nearest Intersection: SPRINGFIELD RD 
   Other Intersection:   
   Type of Work :        SOIL BORINGS
   Extent of Work: ENTIRE PROP                              DEPTH: 20'

   Start Date/Time:    04/11/02   At 0700   Expiration Date: 05/17/02
   Remarks:
     EXPIRATION DATE 05/17/02

   Working For:  ENVIRONMENTAL WASTE MGNT
   Address:      100 MISTY LN
   City:         PARSIPPANY, NJ  07054
   Phone:        973-560-1400
   Contact:      KEVIN ZIGLER            Title: 

Excavator Information:
   Caller:       TOM WIDMEIER            Title: VP
   Phone:        609-758-9000            

   Excavator:    EPI
   Address:      18 HORNERSTOWN RD
   City:         CREAM RIDGE, NJ  08514
   Phone:        609-758-9000            Fax:  609-758-9200
   Contact:      BRIAN KOKOT             Title: OPER MGR
   Phone:        609-758-9000            Best Time: 0800-1700
   Cellular:     

   Alternate Field Contact:
   Name:         TOM WIDMEIER            Title: VP
   Phone:        609-758-9000            Fax: 
   Cellular:                             Best Time: 0800-1700
End Request






New Jersey One Call System        SEQUENCE NUMBER 1342   CDC = SJG

Transmit:  Date: 04/05/02   At: 1711

*** R O U T I N E         *** Request No.: 020951573

Operators Notified:
    CAC=/CAMDEN CNTY MUA/ BAR=/BARRINGTON BORO/ TGP=/WILLIAMS TRNSCO/ 
    USS=/SPRINT LDD     / GSC=/COMCAST GS CATV/ PS4=/PSE&G ELEC&GAS / 
    NJA=/NJ AMER WTR    / SJG=/S JERSY GAS|UTQ/ P32=/PSE&G GAS DIV  / 
    CPC=/COLONIAL PL    / BAN=/VERIZON    |CLS/ 

Location Information:
   County: CAMDEN     Municipality: BARRINGTON
   Subdivision/Community: 
   Street:               108 ERIE AVE
   Nearest Intersection: 2ND AVE 
   Other Intersection:   W ATLANTIC AVE
   Type of Work :        INSTL FENCE
   Extent of Work: ENTIRE PROP                              DEPTH: 3FT

   Start Date/Time:    04/11/02   At 0800   Expiration Date: 05/17/02
   Remarks:
     EXPIRATION DATE 05/17/02

   Working For:  NICOLE BROCHARD
   Address:      108 ERIE AVE
   City:         BARRINGTON, NJ  08007
   Phone:        856-547-2823
   Contact:      NICOLE BROCHARD         Title: 

Excavator Information:
   Caller:       NICOLE AMADIO           Title: RECEPTION
   Phone:        856-939-3022            

   Excavator:    AMERICAN DISCOUNT FENCE
   Address:      777 CLEMENTS BRIDGE RD
   City:         RUNNEMEDE, NJ  08078
   Phone:        856-939-3022            Fax:  856-939-8388
   Contact:      JIMMY LIQUORI           Title: VP
   Phone:        856-939-3022            Best Time: 0800-1700
   Cellular:     

   Alternate Field Contact:
   Name:         NICOLE AMADIO           Title: RECEPTION
   Phone:        856-939-3022            Fax: 
   Cellular:                             Best Time: 0800-1700
End Request






New Jersey One Call System        SEQUENCE NUMBER 1343   CDC = AE1

Transmit:  Date: 04/05/02   At: 1712

*** R O U T I N E         *** Request No.: 020951574

Operators Notified:
    ATC=/ATLNTC CITY MUA/ SCA=/COMCST CATV-ABS/ ACS=/ATLNTC CITY SWR/ 
    AE1=/CONECTV PWR|UTQ/ SJG=/S JERSY GAS|UTQ/ BAN=/VERIZON    |CLS/ 

Location Information:
   County: ATLANTIC     Municipality: ATLANTIC CITY
   Subdivision/Community: 
   Street:               0 FAIRMOUNT AVE
   Nearest Intersection: MISSISSIPPI 
   Other Intersection:   
   Type of Work :        INSTL SIGNS
   Extent of Work: IN SHOULDER & BEHIND CURB 0-25FT OFFSET  DEPTH: 8FT

   Start Date/Time:    04/11/02   At 0700   Expiration Date: 05/17/02
   Remarks:
     EXPIRATION DATE 05/17/02
     M/O THE ENTIRE INTER EXTENDING FOR 50FT IN ALL DIRECTIONS ON
     FAIRMOUNT AVE AND MISSISSIPPI (50FT RADIUS OF THE INTER)

   Working For:  SOUTH JERSEY TRANS. AUTHORITY
   Address:      PO BOX 351
   City:         HAMMONTON, NJ  08037
   Phone:        856-795-9596
   Contact:      BILL TOMASELLO          Title: 

Excavator Information:
   Caller:       BRANDY FRENCH           Title: ENGIN SEC
   Phone:        609-561-2403            

   Excavator:    J. FLETCHER CREAMER & SON, INC.
   Address:      P.O. BOX 617
   City:         HAMMONTON, NJ  08037
   Phone:        609-561-2403            Fax:  609-561-6507
   Contact:      FRANK TEMPLETON         Title: COORD
   Phone:        609-561-2403            Best Time: 0800-1700
   Cellular:     

   Alternate Field Contact:
   Name:         JOHN FLEMING            Title: SUPT
   Phone:        609-561-2403            Fax: 609-561-6507
   Cellular:                             Best Time: 0800-1700
End Request






New Jersey One Call System        SEQUENCE NUMBER 1344   CDC = SJG

Transmit:  Date: 04/05/02   At: 1712

*** R O U T I N E         *** Request No.: 020951574

Operators Notified:
    ATC=/ATLNTC CITY MUA/ SCA=/COMCST CATV-ABS/ ACS=/ATLNTC CITY SWR/ 
    AE1=/CONECTV PWR|UTQ/ SJG=/S JERSY GAS|UTQ/ BAN=/VERIZON    |CLS/ 

Location Information:
   County: ATLANTIC     Municipality: ATLANTIC CITY
   Subdivision/Community: 
   Street:               0 FAIRMOUNT AVE
   Nearest Intersection: MISSISSIPPI 
   Other Intersection:   
   Type of Work :        INSTL SIGNS
   Extent of Work: IN SHOULDER & BEHIND CURB 0-25FT OFFSET  DEPTH: 8FT

   Start Date/Time:    04/11/02   At 0700   Expiration Date: 05/17/02
   Remarks:
     EXPIRATION DATE 05/17/02
     M/O THE ENTIRE INTER EXTENDING FOR 50FT IN ALL DIRECTIONS ON
     FAIRMOUNT AVE AND MISSISSIPPI (50FT RADIUS OF THE INTER)

   Working For:  SOUTH JERSEY TRANS. AUTHORITY
   Address:      PO BOX 351
   City:         HAMMONTON, NJ  08037
   Phone:        856-795-9596
   Contact:      BILL TOMASELLO          Title: 

Excavator Information:
   Caller:       BRANDY FRENCH           Title: ENGIN SEC
   Phone:        609-561-2403            

   Excavator:    J. FLETCHER CREAMER & SON, INC.
   Address:      P.O. BOX 617
   City:         HAMMONTON, NJ  08037
   Phone:        609-561-2403            Fax:  609-561-6507
   Contact:      FRANK TEMPLETON         Title: COORD
   Phone:        609-561-2403            Best Time: 0800-1700
   Cellular:     

   Alternate Field Contact:
   Name:         JOHN FLEMING            Title: SUPT
   Phone:        609-561-2403            Fax: 609-561-6507
   Cellular:                             Best Time: 0800-1700
End Request






New Jersey One Call System        SEQUENCE NUMBER 1345   CDC = AE1

Transmit:  Date: 04/05/02   At: 1712

*** R O U T I N E         *** Request No.: 020951576

Operators Notified:
    SCV=/COMCST CATV-VNL/ AE1=/CONECTV PWR|UTQ/ SJG=/S JERSY GAS|UTQ/ 
    BAN=/VERIZON    |CLS/ SWB=/SWEDESBORO BORO/ 

Location Information:
   County: GLOUCESTER     Municipality: SWEDESBORO
   Subdivision/Community: 
   Street:               0 LOCKE AVE
   Nearest Intersection: BROAD ST 
   Other Intersection:   
   Type of Work :        REPLACEMENT OF BRIDGE/STEEL PI
   Extent of Work: IN ST & 15FT BEHIND CURBS                DEPTH: 50FT

   Start Date/Time:    04/11/02   At 0730   Expiration Date: 05/17/02
   Remarks:
     EXPIRATION DATE 05/17/02
     M/O LOCKE AVE FROM 1000FT NORTH AND SOUTH OF INTER

   Working For:  NEW JERSEY DEPT OF TRANSPORTAT
   Address:      1 EXECUTIVE CAMPUS DR, ROUTE 70 WES
   City:         CHERRY HILL, NJ  08002
   Phone:        856-468-5070
   Contact:      WAYNE BERNARD           Title: 

Excavator Information:
   Caller:       DIANE UNDERWOOD         Title: PROJ COOR
   Phone:        609-267-8600 X31        

   Excavator:    ROBERT T. WINZINGER, INCORPORATED
   Address:      1704 MARNE HIGHWAY
   City:         HAINESPORT, NJ  08036
   Phone:        609-267-8600            Fax:  609-267-5195
   Contact:      WILLIAM CHALLENDER      Title: PROJ MGR
   Phone:        609-267-8600 X31        Best Time: 0700-18000
   Cellular:     

   Alternate Field Contact:
   Name:                                 Title: 
   Phone:                                Fax: 
   Cellular:                             Best Time: 
End Request






New Jersey One Call System        SEQUENCE NUMBER 1346   CDC = SJG

Transmit:  Date: 04/05/02   At: 1712

*** R O U T I N E         *** Request No.: 020951576

Operators Notified:
    SCV=/COMCST CATV-VNL/ AE1=/CONECTV PWR|UTQ/ SJG=/S JERSY GAS|UTQ/ 
    BAN=/VERIZON    |CLS/ SWB=/SWEDESBORO BORO/ 

Location Information:
   County: GLOUCESTER     Municipality: SWEDESBORO
   Subdivision/Community: 
   Street:               0 LOCKE AVE
   Nearest Intersection: BROAD ST 
   Other Intersection:   
   Type of Work :        REPLACEMENT OF BRIDGE/STEEL PI
   Extent of Work: IN ST & 15FT BEHIND CURBS                DEPTH: 50FT

   Start Date/Time:    04/11/02   At 0730   Expiration Date: 05/17/02
   Remarks:
     EXPIRATION DATE 05/17/02
     M/O LOCKE AVE FROM 1000FT NORTH AND SOUTH OF INTER

   Working For:  NEW JERSEY DEPT OF TRANSPORTAT
   Address:      1 EXECUTIVE CAMPUS DR, ROUTE 70 WES
   City:         CHERRY HILL, NJ  08002
   Phone:        856-468-5070
   Contact:      WAYNE BERNARD           Title: 

Excavator Information:
   Caller:       DIANE UNDERWOOD         Title: PROJ COOR
   Phone:        609-267-8600 X31        

   Excavator:    ROBERT T. WINZINGER, INCORPORATED
   Address:      1704 MARNE HIGHWAY
   City:         HAINESPORT, NJ  08036
   Phone:        609-267-8600            Fax:  609-267-5195
   Contact:      WILLIAM CHALLENDER      Title: PROJ MGR
   Phone:        609-267-8600 X31        Best Time: 0700-18000
   Cellular:     

   Alternate Field Contact:
   Name:                                 Title: 
   Phone:                                Fax: 
   Cellular:                             Best Time: 
End Request






New Jersey One Call System        SEQUENCE NUMBER 1347   CDC = NJN

Transmit:  Date: 04/05/02   At: 1712

*** R O U T I N E         *** Request No.: 020951577

Operators Notified:
    NJR=/NJ TRANSIT     / CC4=/COMCAST-MNMOUTH/ NJN=/NJ NATL GAS|UTQ/ 
    NJA=/NJ AMER WTR    / GP9=/GPU ENERGY |CLS/ BAN=/VERIZON    |CLS/ 

Location Information:
   County: MONMOUTH     Municipality: MIDDLETOWN
   Subdivision/Community: 
   Street:               161 TWIN BROOKS AVE
   Nearest Intersection: RT 35 S
   Other Intersection:   
   Type of Work :        INSTL SPRINKLER SYSTEM
   Extent of Work: ENTIRE PROP                              DEPTH: 1'

   Start Date/Time:    04/11/02   At 0800   Expiration Date: 05/17/02
   Remarks:
     EXPIRATION DATE 05/17/02

   Working For:  PAM REICHERT
   Address:      161 TWIN BROOKS
   City:         MIDDLETOWN, NJ  07748
   Phone:        732-706-8009
   Contact:      PAM REICHERT            Title: 

Excavator Information:
   Caller:       MARYJANE HUNT           Title: OFF WORKER
   Phone:        732-972-9100            

   Excavator:    GARDEN IRRIGATION
   Address:      14 ROUTE 9
   City:         MORGANVILLE, NJ  07751
   Phone:        732-972-9100            Fax:  732-972-2999
   Contact:      MARYJEAN HUNT           Title: OFF WORKER
   Phone:        732-972-9100            Best Time: 0900-1700
   Cellular:     

   Alternate Field Contact:
   Name:         NORMA JEAN WILLIE       Title: ADMIN ASST
   Phone:        732-972-9100            Fax: 
   Cellular:                             Best Time: 0900-1700
End Request






New Jersey One Call System        SEQUENCE NUMBER 1348   CDC = AE1

Transmit:  Date: 04/05/02   At: 1712

*** R O U T I N E         *** Request No.: 020951578

Operators Notified:
    SCV=/COMCST CATV-VNL/ WA1=/WASHINGTON TWP / GCU=/GLCSTR CNTY UTL/ 
    AE1=/CONECTV PWR|UTQ/ PS4=/PSE&G ELEC&GAS / AM2=/AT&T           / 
    SJG=/S JERSY GAS|UTQ/ BAN=/VERIZON    |CLS/ ACE=/ADESTA COMM    / 

Location Information:
   County: GLOUCESTER     Municipality: WASHINGTON
   Subdivision/Community: 
   Street:               653 IRVIN AVE
   Nearest Intersection: BLACK HORSE PIKE 
   Other Intersection:   
   Type of Work :        INSTL FENCE
   Extent of Work: ENTIRE PROP                              DEPTH: 3FT

   Start Date/Time:    04/11/02   At 0800   Expiration Date: 05/17/02
   Remarks:
     EXPIRATION DATE 05/17/02

   Working For:  SOUTH JERSEY WATERPROOFING
   Address:      653 IRVIN AVE
   City:         WASHINGTON, NJ  08012
   Phone:        856-274-2038
   Contact:      PHIL FALZERANO          Title: 

Excavator Information:
   Caller:       NICOLE AMADIO           Title: RECEPTION
   Phone:        856-939-3022            

   Excavator:    AMERICAN DISCOUNT FENCE
   Address:      777 CLEMENTS BRIDGE RD
   City:         RUNNEMEDE, NJ  08078
   Phone:        856-939-3022            Fax:  856-939-8388
   Contact:      JIMMY LIQUORI           Title: VP
   Phone:        856-939-3022            Best Time: 0800-1700
   Cellular:     

   Alternate Field Contact:
   Name:         NICOLE AMADIO           Title: RECEPTION
   Phone:        856-939-3022            Fax: 
   Cellular:                             Best Time: 0800-1700
End Request






New Jersey One Call System        SEQUENCE NUMBER 1349   CDC = SJG

Transmit:  Date: 04/05/02   At: 1712

*** R O U T I N E         *** Request No.: 020951578

Operators Notified:
    SCV=/COMCST CATV-VNL/ WA1=/WASHINGTON TWP / GCU=/GLCSTR CNTY UTL/ 
    AE1=/CONECTV PWR|UTQ/ PS4=/PSE&G ELEC&GAS / AM2=/AT&T           / 
    SJG=/S JERSY GAS|UTQ/ BAN=/VERIZON    |CLS/ ACE=/ADESTA COMM    / 

Location Information:
   County: GLOUCESTER     Municipality: WASHINGTON
   Subdivision/Community: 
   Street:               653 IRVIN AVE
   Nearest Intersection: BLACK HORSE PIKE 
   Other Intersection:   
   Type of Work :        INSTL FENCE
   Extent of Work: ENTIRE PROP                              DEPTH: 3FT

   Start Date/Time:    04/11/02   At 0800   Expiration Date: 05/17/02
   Remarks:
     EXPIRATION DATE 05/17/02

   Working For:  SOUTH JERSEY WATERPROOFING
   Address:      653 IRVIN AVE
   City:         WASHINGTON, NJ  08012
   Phone:        856-274-2038
   Contact:      PHIL FALZERANO          Title: 

Excavator Information:
   Caller:       NICOLE AMADIO           Title: RECEPTION
   Phone:        856-939-3022            

   Excavator:    AMERICAN DISCOUNT FENCE
   Address:      777 CLEMENTS BRIDGE RD
   City:         RUNNEMEDE, NJ  08078
   Phone:        856-939-3022            Fax:  856-939-8388
   Contact:      JIMMY LIQUORI           Title: VP
   Phone:        856-939-3022            Best Time: 0800-1700
   Cellular:     

   Alternate Field Contact:
   Name:         NICOLE AMADIO           Title: RECEPTION
   Phone:        856-939-3022            Fax: 
   Cellular:                             Best Time: 0800-1700
End Request






New Jersey One Call System        SEQUENCE NUMBER 1350   CDC = AE1

Transmit:  Date: 04/05/02   At: 1712

*** R O U T I N E         *** Request No.: 020951579

Operators Notified:
    WCC=/TIME WARNR CATV/ STH=/STONEHARBR BORO/ AE1=/CONECTV PWR|UTQ/ 
    SJG=/S JERSY GAS|UTQ/ BAN=/VERIZON    |CLS/ 

Location Information:
   County: CAPE MAY     Municipality: STONE HARBOR
   Subdivision/Community: 
   Street:               9401 SECOND AVE
   Nearest Intersection: 94TH ST 
   Other Intersection:   
   Type of Work :        WTR AND SWR DISCONNECT
   Extent of Work: ENTIRE PROP                              DEPTH: 30"

   Start Date/Time:    04/11/02   At 0800   Expiration Date: 05/17/02
   Remarks:
     EXPIRATION DATE 05/17/02
     M/O LOC IS CORNER PROP

   Working For:  TRIBULSKI BUILDERS
   Address:      114 109TH ST
   City:         STONE HARBOR, NJ  08247
   Phone:        609-368-8028
   Contact:      PETER TRIBULSKI         Title: 

Excavator Information:
   Caller:       JEFF CONLIN             Title: OWNER
   Phone:        609-465-6177            

   Excavator:    RELIABLE PLUMBING AND HEATING
   Address:      1347 RT 9 N
   City:         SWAINTON, NJ  08210
   Phone:        609-465-6177            Fax:  609-465-6177
   Contact:      JEFF CONLIN             Title: OWNER
   Phone:        609-465-6177            Best Time: 0700-0800
   Cellular:     609-390-6692 PGR

   Alternate Field Contact:
   Name:                                 Title: 
   Phone:                                Fax: 
   Cellular:                             Best Time: 
End Request






New Jersey One Call System        SEQUENCE NUMBER 1351   CDC = SJG

Transmit:  Date: 04/05/02   At: 1713

*** R O U T I N E         *** Request No.: 020951579

Operators Notified:
    WCC=/TIME WARNR CATV/ STH=/STONEHARBR BORO/ AE1=/CONECTV PWR|UTQ/ 
    SJG=/S JERSY GAS|UTQ/ BAN=/VERIZON    |CLS/ 

Location Information:
   County: CAPE MAY     Municipality: STONE HARBOR
   Subdivision/Community: 
   Street:               9401 SECOND AVE
   Nearest Intersection: 94TH ST 
   Other Intersection:   
   Type of Work :        WTR AND SWR DISCONNECT
   Extent of Work: ENTIRE PROP                              DEPTH: 30"

   Start Date/Time:    04/11/02   At 0800   Expiration Date: 05/17/02
   Remarks:
     EXPIRATION DATE 05/17/02
     M/O LOC IS CORNER PROP

   Working For:  TRIBULSKI BUILDERS
   Address:      114 109TH ST
   City:         STONE HARBOR, NJ  08247
   Phone:        609-368-8028
   Contact:      PETER TRIBULSKI         Title: 

Excavator Information:
   Caller:       JEFF CONLIN             Title: OWNER
   Phone:        609-465-6177            

   Excavator:    RELIABLE PLUMBING AND HEATING
   Address:      1347 RT 9 N
   City:         SWAINTON, NJ  08210
   Phone:        609-465-6177            Fax:  609-465-6177
   Contact:      JEFF CONLIN             Title: OWNER
   Phone:        609-465-6177            Best Time: 0700-0800
   Cellular:     609-390-6692 PGR

   Alternate Field Contact:
   Name:                                 Title: 
   Phone:                                Fax: 
   Cellular:                             Best Time: 
End Request






New Jersey One Call System        SEQUENCE NUMBER 1352   CDC = NJN

Transmit:  Date: 04/05/02   At: 1713

*** R O U T I N E         *** Request No.: 020951580

Operators Notified:
    CC4=/COMCAST-MNMOUTH/ NJN=/NJ NATL GAS|UTQ/ NJA=/NJ AMER WTR    / 
    GP9=/GPU ENERGY |CLS/ BAN=/VERIZON    |CLS/ 

Location Information:
   County: MONMOUTH     Municipality: MONMOUTH BEACH
   Subdivision/Community: 
   Street:               13 SHREWSBURY DR
   Nearest Intersection: CENTER RD 
   Other Intersection:   
   Type of Work :        RELOCATE GAS SVC
   Extent of Work: CURB TO CURB/CURB TO ENTIRE PROP         DEPTH: 6FT

   Start Date/Time:    04/12/02   At 0800   Expiration Date: 05/17/02
   Remarks:
     EXPIRATION DATE 05/17/02

   Working For:  NEW JERSEY NATURAL GAS
   Address:      1420 WYCKOFF RD
   City:         WALL, NJ  07719
   Phone:        732-938-1287
   Contact:      KAREN WEAVER            Title: 

Excavator Information:
   Caller:       KAREN WEAVER            Title: CLERK
   Phone:        732-938-1287            

   Excavator:    NEW JERSEY NATURAL GAS
   Address:      1420 WYCKOFF RD
   City:         WALL, NJ  07719
   Phone:        732-938-1287            Fax:  732-919-0735
   Contact:      KAREN WEAVER            Title: CLERK
   Phone:        732-938-1287            Best Time: 0800-1700
   Cellular:     

   Alternate Field Contact:
   Name:         PAUL RUZZO              Title: SUPV
   Phone:        732-919-8156            Fax: 
   Cellular:                             Best Time: 0800-1700
End Request






New Jersey One Call System        SEQUENCE NUMBER 1353   CDC = NJN

Transmit:  Date: 04/05/02   At: 1713

*** R O U T I N E         *** Request No.: 020951583

Operators Notified:
    USS=/SPRINT LDD     / NJR=/NJ TRANSIT     / NJN=/NJ NATL GAS|UTQ/ 
    AM2=/AT&T           / GP8=/GPU ENERGY     / NJA=/NJ AMER WTR    / 
    BAN=/VERIZON    |CLS/ LKW=/LAKEWOOD MUA   / 

Location Information:
   County: OCEAN     Municipality: LAKEWOOD
   Subdivision/Community: 
   Street:               55 RIVER AVE
   Nearest Intersection: ROUTE 88 
   Other Intersection:   HURLEY AVE
   Type of Work :        IRRIGATION/WELL
   Extent of Work: ENTIRE PROPERTY                          DEPTH: 100FT

   Start Date/Time:    04/12/02   At 0730   Expiration Date: 05/17/02
   Remarks:
     EXPIRATION DATE 05/17/02

   Working For:  GPU ENERGY
   Address:      55 RIVER AVE
   City:         LAKEWOOD, NJ  08701
   Phone:        732-695-9454
   Contact:      JAMES ROSSI             Title: 

Excavator Information:
   Caller:       CHRIS ENDRESON          Title: PRES
   Phone:        732-270-0072            

   Excavator:    K&G WELL DRILLING
   Address:      PO BOX 338
   City:         BAYVILLE, NJ  08721
   Phone:        732-269-3344            Fax:  732-269-3003
   Contact:      KRIS ENDRESON           Title: PRES
   Phone:        732-270-0072            Best Time: 0800-1700
   Cellular:     732-684-0677

   Alternate Field Contact:
   Name:         DONATO SIERCHIO         Title: VICE PRES
   Phone:        732-270-0072            Fax: 
   Cellular:     732-684-0681            Best Time: 0800-1700
End Request






New Jersey One Call System        SEQUENCE NUMBER 1354   CDC = NJN

Transmit:  Date: 04/05/02   At: 1713

*** R O U T I N E         *** Request No.: 020951584

Operators Notified:
    CAM=/CABLEVISION-MON/ NJN=/NJ NATL GAS|UTQ/ FPU=/GPU ENERGY     / 
    BAN=/VERIZON    |CLS/ HNH=/H&H PGA-OCSCRNG/ 

Location Information:
   County: MONMOUTH     Municipality: COLTS NECK
   Subdivision/Community: 
   Street:               1 EVERGREEN LN
   Nearest Intersection: WILLOWBROOK RD 
   Other Intersection:   RT 34
   Type of Work :        DIGGING FOOTING
   Extent of Work: ENTIRE PROPERTY                          DEPTH: 36 IN

   Start Date/Time:    04/11/02   At 0800   Expiration Date: 05/17/02
   Remarks:
     EXPIRATION DATE 05/17/02

   Working For:  NAVROSKI BUILDERS
   Address:      118 HERITAGE DR
   City:         FREEHOLD, NJ  07728
   Phone:        732-462-3663
   Contact:      JOS'E NAVROSKI          Title: 

Excavator Information:
   Caller:       RON CARRDINE            Title: OWNER
   Phone:        732-747-7197            

   Excavator:    R CARRDINE EXCAVATING & BACKHOE SVC
   Address:      760 NEWMAN SPRINGS RD
   City:         LINCROFT, NJ  07738
   Phone:        732-747-7197            Fax:  732-747-7197
   Contact:      RONALD CARRDINE         Title: OWNER
   Phone:        732-747-7197            Best Time: 0900-1700
   Cellular:     

   Alternate Field Contact:
   Name:         DIANE CARRDINE          Title: OWNER
   Phone:        732-747-7197            Fax: 
   Cellular:                             Best Time: 0900-1700
End Request






New Jersey One Call System        SEQUENCE NUMBER 1355   CDC = AE1

Transmit:  Date: 04/05/02   At: 1713

*** R O U T I N E         *** Request No.: 020951585

Operators Notified:
    GAL=/GALLOWAY TWP   / SCA=/COMCST CATV-ABS/ AE1=/CONECTV PWR|UTQ/ 
    NJA=/NJ AMER WTR    / SJG=/S JERSY GAS|UTQ/ BAN=/VERIZON    |CLS/ 

Location Information:
   County: ATLANTIC     Municipality: GALLOWAY
   Subdivision/Community: 
   Street:               532 E BROWN AVE
   Nearest Intersection: MARSHALL AVE 
   Other Intersection:   
   Type of Work :        INSTL SWR LINE
   Extent of Work: ST TO HOUSE                              DEPTH: 4FT

   Start Date/Time:    04/12/02   At 1030   Expiration Date: 05/17/02
   Remarks:
     EXPIRATION DATE 05/17/02

   Working For:  FINTAN COOKE CONSTRUCTION
   Address:      12 E GROVELAND AVE
   City:         SOMERS POINT, NJ  08244
   Phone:        609-926-8312
   Contact:      FINTAN COOKE            Title: 

Excavator Information:
   Caller:       FINTAN COOKE            Title: OWNER
   Phone:        609-926-8312            

   Excavator:    FINTAN COOKE CONSTRUCTION
   Address:      12 E GROVELAND AVE
   City:         SOMERS POINT, NJ  08244
   Phone:        609-926-8312            Fax:  609-926-8312
   Contact:      FINTAN COOKE            Title: OWNER
   Phone:        609-926-8312            Best Time: 0000-2400
   Cellular:     609-335-4327

   Alternate Field Contact:
   Name:                                 Title: 
   Phone:                                Fax: 
   Cellular:                             Best Time: 
End Request






New Jersey One Call System        SEQUENCE NUMBER 1356   CDC = SJG

Transmit:  Date: 04/05/02   At: 1713

*** R O U T I N E         *** Request No.: 020951585

Operators Notified:
    GAL=/GALLOWAY TWP   / SCA=/COMCST CATV-ABS/ AE1=/CONECTV PWR|UTQ/ 
    NJA=/NJ AMER WTR    / SJG=/S JERSY GAS|UTQ/ BAN=/VERIZON    |CLS/ 

Location Information:
   County: ATLANTIC     Municipality: GALLOWAY
   Subdivision/Community: 
   Street:               532 E BROWN AVE
   Nearest Intersection: MARSHALL AVE 
   Other Intersection:   
   Type of Work :        INSTL SWR LINE
   Extent of Work: ST TO HOUSE                              DEPTH: 4FT

   Start Date/Time:    04/12/02   At 1030   Expiration Date: 05/17/02
   Remarks:
     EXPIRATION DATE 05/17/02

   Working For:  FINTAN COOKE CONSTRUCTION
   Address:      12 E GROVELAND AVE
   City:         SOMERS POINT, NJ  08244
   Phone:        609-926-8312
   Contact:      FINTAN COOKE            Title: 

Excavator Information:
   Caller:       FINTAN COOKE            Title: OWNER
   Phone:        609-926-8312            

   Excavator:    FINTAN COOKE CONSTRUCTION
   Address:      12 E GROVELAND AVE
   City:         SOMERS POINT, NJ  08244
   Phone:        609-926-8312            Fax:  609-926-8312
   Contact:      FINTAN COOKE            Title: OWNER
   Phone:        609-926-8312            Best Time: 0000-2400
   Cellular:     609-335-4327

   Alternate Field Contact:
   Name:                                 Title: 
   Phone:                                Fax: 
   Cellular:                             Best Time: 
End Request






New Jersey One Call System        SEQUENCE NUMBER 1357   CDC = AE1

Transmit:  Date: 04/05/02   At: 1713

*** R O U T I N E         *** Request No.: 020951587

Operators Notified:
    HAM=/HAMILTN TWP MUA/ MCI=/MCIWORLDCOM    / NJR=/NJ TRANSIT     / 
    AM2=/AT&T           / ACV=/ATLANTC CNTY UA/ ACE=/ADESTA COMM    / 
    SP3=/SBRBN PRPN-OCSC/ SCA=/COMCST CATV-ABS/ AE1=/CONECTV PWR|UTQ/ 
    SJG=/S JERSY GAS|UTQ/ BAN=/VERIZON    |CLS/ 

Location Information:
   County: ATLANTIC     Municipality: HAMILTON
   Subdivision/Community: THE FAIRWAYS
   Street:               115 ROYAL ST GEORGE CT
   Nearest Intersection: ST ANDREWS 
   Other Intersection:   
   Type of Work :        STRM DRAIN
   Extent of Work: LEFT OF PROP                             DEPTH: 16IN

   Start Date/Time:    04/12/02   At 0800   Expiration Date: 05/17/02
   Remarks:
     EXPIRATION DATE 05/17/02

   Working For:  ALAN CARIGNAN
   Address:      115 ROYAL ST GEORGE CT
   City:         MAYS LANDING, NJ  08215
   Phone:        609-641-2165
   Contact:      ALAN CARIGNAN           Title: 

Excavator Information:
   Caller:       ALAN CARIGNAN           Title: HOMEOWNER
   Phone:        609-641-2165            

   Excavator:    ALAN CARIGNAN
   Address:      115 ROYAL ST GEORGE CT
   City:         MAYS LANDING, NJ  08215
   Phone:        609-641-2165            Fax:  
   Contact:      ALAN CARIGNAN           Title: HOMEOWNER
   Phone:        609-641-2165            Best Time: 1200-1700
   Cellular:     

   Alternate Field Contact:
   Name:         VICKY CARIGNAN          Title: HOMEOWNER
   Phone:                                Fax: 
   Cellular:                             Best Time: 
End Request






New Jersey One Call System        SEQUENCE NUMBER 1358   CDC = SJG

Transmit:  Date: 04/05/02   At: 1713

*** R O U T I N E         *** Request No.: 020951587

Operators Notified:
    HAM=/HAMILTN TWP MUA/ MCI=/MCIWORLDCOM    / NJR=/NJ TRANSIT     / 
    AM2=/AT&T           / ACV=/ATLANTC CNTY UA/ ACE=/ADESTA COMM    / 
    SP3=/SBRBN PRPN-OCSC/ SCA=/COMCST CATV-ABS/ AE1=/CONECTV PWR|UTQ/ 
    SJG=/S JERSY GAS|UTQ/ BAN=/VERIZON    |CLS/ 

Location Information:
   County: ATLANTIC     Municipality: HAMILTON
   Subdivision/Community: THE FAIRWAYS
   Street:               115 ROYAL ST GEORGE CT
   Nearest Intersection: ST ANDREWS 
   Other Intersection:   
   Type of Work :        STRM DRAIN
   Extent of Work: LEFT OF PROP                             DEPTH: 16IN

   Start Date/Time:    04/12/02   At 0800   Expiration Date: 05/17/02
   Remarks:
     EXPIRATION DATE 05/17/02

   Working For:  ALAN CARIGNAN
   Address:      115 ROYAL ST GEORGE CT
   City:         MAYS LANDING, NJ  08215
   Phone:        609-641-2165
   Contact:      ALAN CARIGNAN           Title: 

Excavator Information:
   Caller:       ALAN CARIGNAN           Title: HOMEOWNER
   Phone:        609-641-2165            

   Excavator:    ALAN CARIGNAN
   Address:      115 ROYAL ST GEORGE CT
   City:         MAYS LANDING, NJ  08215
   Phone:        609-641-2165            Fax:  
   Contact:      ALAN CARIGNAN           Title: HOMEOWNER
   Phone:        609-641-2165            Best Time: 1200-1700
   Cellular:     

   Alternate Field Contact:
   Name:         VICKY CARIGNAN          Title: HOMEOWNER
   Phone:                                Fax: 
   Cellular:                             Best Time: 
End Request






New Jersey One Call System        SEQUENCE NUMBER 1359   CDC = NJN

Transmit:  Date: 04/05/02   At: 1714

*** R O U T I N E         *** Request No.: 020951589

Operators Notified:
    SOM=/S MONMOUTH SWR / FOM=/FORT MONMOUTH  / CAM=/CABLEVISION-MON/ 
    USS=/SPRINT LDD     / MCI=/MCIWORLDCOM    / NWS=/NJ WTR-MANSQUAN/ 
    NJR=/NJ TRANSIT     / NJN=/NJ NATL GAS|UTQ/ AM2=/AT&T           / 
    NJA=/NJ AMER WTR    / PMF=/ADESTA COMM    / SP7=/SBRBN PRPN-OCSC/ 
    HNH=/H&H PGA-OCSCRNG/ MMF=/ADESTA/MFS FOC / TYC=/TYCOM (US) INC / 
    MFR=/METROMEDIA FIBR/ WAT=/WALL TWP WTR&SW/ GP8=/GPU ENERGY     / 
    BAN=/VERIZON    |CLS/ 

Location Information:
   County: MONMOUTH     Municipality: WALL
   Subdivision/Community: 
   Street:               1611 SHERIDAN DR
   Nearest Intersection: BELMAR BLVD 
   Other Intersection:   RT 34
   Type of Work :        IRRIGATION/WELL
   Extent of Work: ENTIRE PROPERTY                          DEPTH: 100FT

   Start Date/Time:    04/12/02   At 0730   Expiration Date: 05/17/02
   Remarks:
     EXPIRATION DATE 05/17/02

   Working For:  FRANK BILOTTA
   Address:      1611 SHERIDAN DR
   City:         WALL, NJ  07753
   Phone:        732-280-7445
   Contact:      FRANK BILOTTA           Title: 

Excavator Information:
   Caller:       KRIS ENDRESON           Title: PRES
   Phone:        732-270-0072            

   Excavator:    K&G WELL DRILLING
   Address:      PO BOX 338
   City:         BAYVILLE, NJ  08721
   Phone:        732-269-3344            Fax:  732-269-3003
   Contact:      KRIS ENDRESON           Title: PRES
   Phone:        732-270-0072            Best Time: 0800-1700
   Cellular:     732-684-0677

   Alternate Field Contact:
   Name:         DONATO SIERCHIO         Title: VICE PRES
   Phone:        732-270-0072            Fax: 
   Cellular:     732-684-0681            Best Time: 0800-1700
End Request








