UULC4078901-00  406245  2004/03/31 00:24:10  00118

/

UULC
Ticket No:  4078901               2 FULL BUSINESS
Send To: USWEST66   Seq No:    3  Map Ref:

Transmit      Date:  3/28/04   Time:  9:27 pm    Op: kscari
Original Call Date:  3/28/04   Time:  9:16 pm    Op: kscari
Work to Begin Date:  4/01/04   Time: 12:00 am

State: MT            County: YELLOWSTONE             Place: BILLINGS
Address: 3305        Street: HARLOU
Nearest Intersecting Street: DURLAND

Twp: 1N    Rng: 25E   Sect-Qtr: 26-SW,27-SE
Twp:       Rng:       Sect-Qtr:
Legal Given:

Type of Work: INSTALLING SPRINKLER SYSTEM
Location of Work: FROM THE ABOVE INTERSECTION, GO APPROX 1/2 BLOCK N ON
: HARLOU TO THE LOCATION ON THE E SIDE OF THE RD, AT THIS POINT, MARK THE
: ENTIRE PROPERTY.

Remarks:
:                                                                    OH: N

Company     : MOUNTAIN SPRINGS
Contact Name: DAVID DOSS                       Phone: (406)248-8285
Alt. Contact:                                  Phone:
Contact Fax :
Work Being Done For: JOE GERBASE
Additional Members:
ATTCBL10   BILPUD01   MDU01      MPC16      XTT03UULC4076831-00  406586  2004/03/31 00:24:10  00119

/

UULC
Ticket No:  4076831               2 FULL BUSINESS   CANCELLATION
Send To: USWEST64   Seq No:    1  Map Ref:

Transmit      Date:  3/27/04   Time:  8:12 am    Op: mneric
Original Call Date:  3/25/04   Time:  1:33 pm    Op: mnkell
Work to Begin Date:  3/30/04   Time: 12:00 am

State: MT            County: GALLATIN                Place: BOZEMAN
Address: 155         Street: GOLDEN TROUT WAY
Nearest Intersecting Street: FORT ELLIS RD

Twp: 2S    Rng: 6E    Sect-Qtr: 16-SE-NE,15-SW-NW
Twp:       Rng:       Sect-Qtr:
Legal Given:

Type of Work: INSTALLATION OF ELECTRIC LINE
Location of Work: ADDRESS IS APPROX 150YDS W OF INTERSECTION. MARK ENTIRE
: NE SIDE OF PROPERTY.

Remarks: CALLER STATES WIFE ALREADY CALLED IN LOCATED
:                                                                    OH: N

Company     :
Contact Name: GLEN NYGREN                      Phone: (406)556-8270
Alt. Contact: CELL                             Phone: (406)581-9552
Contact Fax :
Work Being Done For: GLEN NYGREN
Additional Members:
ATTCBL09   MPC02      SPRINT01
UULC4078793-00  406586  2004/03/31 00:24:10  00120

/

UULC
Ticket No:  4078793               2 FULL BUSINESS   CORRECTION
Send To: USWEST64   Seq No:    6  Map Ref:

Transmit      Date:  3/27/04   Time:  9:24 am    Op: mneric
Original Call Date:  3/27/04   Time:  9:15 am    Op: mneric
Work to Begin Date:  4/01/04   Time: 12:00 am

State: MT            County: GALLATIN                Place: BOZEMAN
Address: 3175        Street: OLIVER
Nearest Intersecting Street: NEW HOLLAND

Twp: 2S    Rng: 5E    Sect-Qtr: 2-SW,11-NW
Twp:       Rng:       Sect-Qtr:
Legal Given:

Type of Work: INSTALL FENCE
Location of Work: ADDRESS IS APPROX 2 HOUSES E OF INTER. MARK ALONG
: STAKED/MARKED ROUTE IN REAR OF PROP.

Remarks: CORR LOW
:                                                                    OH: N

Company     :
Contact Name: BRYAN FOREMAN                    Phone: (406)587-4372
Alt. Contact: CELL                             Phone: (406)580-0529
Contact Fax :
Work Being Done For: BRYAN FOREMAN/NEIGHBORS
Additional Members:
ATTCBL09   BOZEMN01   MPC02
UULC4077107-00  253841  2004/03/31 00:24:10  00121

/

UULC
Ticket No:  4077107               2 FULL BUSINESS   DUPLICATION
Send To: USWEST39   Seq No:   50  Map Ref:

Transmit      Date:  3/25/04   Time:  3:50 pm    Op: tonily
Original Call Date:  3/25/04   Time:  3:01 pm    Op: tonily
Work to Begin Date:  3/30/04   Time: 12:00 am

State: WA            County: PIERCE                  Place: PUYALLUP
Address: 9021        Street: 128TH ST E
Nearest Intersecting Street: 94TH AVE E

Twp: 19N   Rng: 4E    Sect-Qtr: 9-SW,8-SE,17-NE,16-NW
Twp:       Rng:       Sect-Qtr:
Legal Given:

Type of Work: IDENTIFY UG LINES
Location of Work: SITE IS A DUPLEX APX 1/4MI W OF INTER AT A DEAD
: END.CALLER STATES A NEIGHBOR PLANS TO DIG THRU HER YARD AND REPAIR WATER
: LEAK AND SHE FEARS HE MAY DAMAGE LINES IN HER YARD.PLEASE MARK FROM FRONT
: OF DUPLEX TO HILL IN BACK YARD ON SAME SIDE OF YARD AS DRIVEWAY.CALLER

Remarks: STATES NEIGHBOR MARKED IN YARD .INCL BACKYARD AT DUPLEX.
: SITE IS MID DUPLEX. CALLER IS NOT DOING ANY DIGGING  ADDED AT&T TO OH: N

Company     :
Contact Name: MARY MERRILL                     Phone: (253)848-7616
Alt. Contact: STACY UDDERBACK                  Phone: (800)456-8020
Contact Fax :
Work Being Done For: MARY MERRILL
Additional Members:
ATTPSN07   FIRH2001   FRUTLD01   MASTEL01   PIERCE01   PSEELC45   PSEGAS41
 TACH2O01   TACPWR01
UULC4078905-00  406586  2004/03/31 00:24:10  00122

/

UULC
Ticket No:  4078905               2 FULL BUSINESS
Send To: USWEST64   Seq No:    4  Map Ref:
Update Of:  4078904
Transmit      Date:  3/28/04   Time: 10:12 pm    Op: ksbens
Original Call Date:  3/28/04   Time: 10:09 pm    Op: ksbens
Work to Begin Date:  4/01/04   Time: 12:00 am

State: MT            County: GALLATIN                Place: BELGRADE
Address:             Street: ROTTWEILER LANE
Nearest Intersecting Street: THORPE ROAD

Twp: 1N    Rng: 4E    Sect-Qtr: 32-SE-NE
Twp:       Rng:       Sect-Qtr:
Legal Given:

Type of Work: INSTALLING SPRINKLER SYSTEM
Location of Work: FROM ABOVE INTERSECTION, GO 7/10 MILE W ON THORPE RD TO
: POWER POLE, AT THIS POINT MARK GOING NW ALONG PINK FLAGGED ROUTE APPROX
: 1800FT TO PIVOT PAD.

Remarks: UPDATED TO ADDED REMARKS
: CALLER PROVIDED GPS                                                OH: N

Company     : B.S.E
Contact Name: BRANDON BAKKEN                   Phone: (406)547-2149
Alt. Contact: BRANDON`S CELL                   Phone: (406)949-6744
Contact Fax :
Work Being Done For: WATSON IRRIGATION
Additional Members:
MPC02      MPCGAS01
UULC4076294-00  253582  2004/03/31 00:24:10  00086

/

                  UULC
Ticket No:  4076294               =CREW ON SITE=
Send To: USWEST35   Seq No:   14  Map Ref:

Transmit      Date:  3/25/04   Time:  9:43 am    Op: judy
Original Call Date:  3/25/04   Time:  9:36 am    Op: judy
Work to Begin Date:  3/25/04   Time:  9:45 am

State: WA            County: PIERCE                  Place: TACOMA
Address: 8337        Street: N 9TH ST
Nearest Intersecting Street: LAUREL LANE

Twp: 21N   Rng: 2E    Sect-Qtr: 34-SW
Twp: 20N   Rng: 2E    Sect-Qtr: 3-NW
Legal Given:

Type of Work: INSTALL CATV SERVICE
Location of Work: ADD IS APX 1/2 MI E OF ABV INTER.  MARK ENTIRE FRONT OF
: PROP AT ABV ADD.

Remarks: ==CALLER REQUESTS AREA MARKED A.S.A.P== - NO GUARANTEE
: CREW IS ON SITE NOW                                                OH: N

Company     :
Contact Name: TERESA KIST                      Phone: (253)896-0355
Alt. Contact: SAME                             Phone:
Contact Fax :
Work Being Done For: TERESA KIST
Additional Members:
ATTCBL03   PSEGAS40   TACDPW01   TACH2O01   TACPWR01   TACSEW01
UULC4053738-00  206223  2004/03/31 00:24:10  00087

/

                  UULC
Ticket No:  4053738               =CREW ON SITE=    CANCELLATION
Send To: USWEST37   Seq No:   61  Map Ref:
Update Of:  4043997
Transmit      Date:  3/08/04   Time: 10:31 am    Op: donald
Original Call Date:  3/08/04   Time: 10:06 am    Op: brando
Work to Begin Date:  3/08/04   Time: 10:15 am

State: WA            County: KING                    Place: SEATTLE
Address: 1422        Street: 25TH AVE
Nearest Intersecting Street: E UNION ST

Twp: 25N   Rng: 4E    Sect-Qtr: 33
Twp: 25N   Rng: 4E    Sect-Qtr: 33-NE
Legal Given:

Type of Work: INSTALL STORM/SEWER SERVICES
Location of Work: ADD IS APX 1/2BLK N OF INTER. MARK ENTIRE PROP AT ABV
: ADD, ALL R.O.W. AND EASEMENTS. ==UPDATED, ELEC MARKS INCOMPLETE. CALLER
: STATES THERE IS ELEC UNDER SIDEWALK THAT WAS NEVER MARKED, NEED IT MARKED
: ASAP. CREW ON SITE. NO GUAR. ALL OTHER MARKS OK==

Remarks: CANCEL TO CHANGE MARKING INSTRUCTIONS
: CALLER GAVE TOWNSHIP, RANGE, SECTION INFO                          OH: N

Company     : LYNNWOOD SEPTIC TANK COMPANY
Contact Name: DONNA ALLEN                      Phone: (425)487-6806
Alt. Contact: LADON TORSET CELL                Phone: (206)786-8021
Contact Fax :
Work Being Done For: C AND H DESIGN
Additional Members:
ATT08      PSEELC50   PSEGAS50   SEACL01    SEAH2001   SEASIG01
UULC4027235-00  253630  2004/03/31 00:24:10  00088

                  UULC
Ticket No:  4027235               =CREW ON SITE=    CORRECTION
Send To: USWEST38   Seq No:   52  Map Ref:
Update Of:  4024687
Transmit      Date:  2/09/04   Time: 10:46 am    Op: bertha
Original Call Date:  2/09/04   Time: 10:41 am    Op: bertha
Work to Begin Date:  2/09/04   Time: 10:45 am

State: WA            County: KING                    Place: RENTON
Address: 16410       Street: SE 128TH ST
Nearest Intersecting Street: 164TH

Twp: 23N   Rng: 5E    Sect-Qtr: 12-SW,11-SE,14-NE,13-NW
Twp:       Rng:       Sect-Qtr:
Legal Given:

Type of Work: INSTALL SEPTIC AND SERV UTILS
Location of Work: ABV ADD IS SHOPPING CENTER AT ABV INTER. MARK AT
: BRIARWOOD ATHLETHIC FACIILY AT ABV ADD CALLER REQS MEET FOR SPECS. ==
: CORR TO ADD  MADE AWARE OF NOTIFICATION LAW ==

Remarks: UPDATE  INCOMPLETE MARKS   NO SHOW TO MEET TIME
: ==CALLER REQUESTS AREA MARKED A.S.A.P==   CREW ON SITE  NO GUAR    OH: N

Company     : STUTH COMPANY
Contact Name: EILEEN                           Phone: (425)255-3546
Alt. Contact: DEBBIE                           Phone:
Contact Fax :
Work Being Done For: COMMERCIAL STRUCTURES
Additional Members:
KCDPW02    KCW9001    PSEELC33   PSEGAS34
UULC4078272-00  253833  2004/03/31 00:24:10  00090

/

                  UULC
Ticket No:  4078272               =CREW ON SITE=
Send To: USWEST45   Seq No:   38  Map Ref:
Update Of:  4072476
Transmit      Date:  3/26/04   Time: 12:33 pm    Op: judy
Original Call Date:  3/26/04   Time: 12:31 pm    Op: judy
Work to Begin Date:  3/26/04   Time: 12:45 pm

State: WA            County: KING                    Place: DES MOINES
Address: 26622       Street: 19TH AVE S
Nearest Intersecting Street: 268TH ST

Twp: 22N   Rng: 4E    Sect-Qtr: 28-SW
Twp: 22N   Rng: 4E    Sect-Qtr: 29-SE-NE,28-SW-NW
Legal Given:

Type of Work: INSTALLING UTILITY SERVICES
Location of Work: ADD IS N OF ABV INTER.. LOCATE ENTIRE LOT AT ABV ADD.
: CALLER GAVE T.G. PAGE 715 B-5

Remarks: UPDATE TICKET: CLR STATES NO MARKS FOUND - REQ MARKS ASAP -NO GUAR
: CREW IS ON SITE NOW                                                OH: N

Company     : MILTON CONSTRUCTION
Contact Name: LISA MILTON                      Phone: (360)893-3384
Alt. Contact: BRIAN CELL                       Phone: (253)377-8296
Contact Fax : (360)893-3385
Work Being Done For: AFFORD-A-HOME
Additional Members:
ATT08      ATTPSN07   DESMOI01   HILINE01   LKHAVN01   MIDWAY01   PSEELC34
 PSEGAS32   WSDOT12
UULC4078872-00  360352  2004/03/31 00:24:10  00091

/

                  UULC
Ticket No:  4078872               ==EMERGENCY==
Send To: USWEST43   Seq No:    1  Map Ref:

Transmit      Date:  3/28/04   Time:  3:56 pm    Op: ksjess
Original Call Date:  3/28/04   Time:  3:38 pm    Op: ksjess
Work to Begin Date:  3/28/04   Time:  3:45 pm

State: WA            County: THURSTON                Place: OLYMPIA
Address: 2145        Street: 57TH WAY NW
Nearest Intersecting Street: COOPER POINT RD NW

Twp: 19N   Rng: 2W    Sect-Qtr: 43-NW-NE,42-SW-SE
Twp:       Rng:       Sect-Qtr:
Legal Given:

Type of Work: EMERGENCY REPAIR OF WATER SERVICE OR MAIN/UNKNOW
Location of Work: FROM THE ABOVE INTERSECTION, GO E ON 57TH WAY NW TO THE
: 5TH HOUSE ON THE S SIDE OF THE ROAD.  AT THIS POINT, MARK THE ENTIRE
: FRONT OF THE PROPERTY.

Remarks: CALLER STATES WATER IS LEAKING.  CALLER IS UNSURE IF HE WILL DO
: THE WORK HIMSELF OR HIRE SOMEONE.  WORK WILL BEGIN ASAP.           OH: N

Company     :
Contact Name: PETER RILEY                      Phone: (360)867-0999
Alt. Contact: SAME                             Phone:
Contact Fax :
Work Being Done For: PETER RILEY
Additional Members:
ATTCBL05   PSEELC47   PSEGAS42
UULC4076033-00  425453  2004/03/31 00:24:10  00092

                  UULC
Ticket No:  4076033               ==EMERGENCY==     CANCELLATION
Send To: USWEST42   Seq No:    3  Map Ref:

Transmit      Date:  3/25/04   Time:  9:06 am    Op: tesa
Original Call Date:  3/25/04   Time:  8:13 am    Op: michae
Work to Begin Date:  3/25/04   Time:  8:15 am

State: WA            County: KING                    Place: BELLEVUE
Address: 111         Street: 112TH AVE NE
Nearest Intersecting Street: MAIN

Twp: 25N   Rng: 5E    Sect-Qtr: 32-SE-NE
Twp:       Rng:       Sect-Qtr:
Legal Given:

Type of Work: REPAIR WATER MAIN
Location of Work: AREA MARKED IN WHITE IN FRONT OF ADD.

Remarks: CALLER UNABLE TO PROVIDE DISTANCE AND DIRECTION FROM CROSS ST
: ==CALLER REQUESTS AREA MARKED A.S.A.P====NEC== CANCEL-WRONG ADD    OH: N

Company     : CITY OF BELLEVUE
Contact Name: CHRISTY HOOVER                   Phone: (425)452-7840
Alt. Contact: JANELLE HARRISON                 Phone:
Contact Fax :
Work Being Done For: CITY OF BELLEVUE
Additional Members:
360NET01   ATTTCI01   BELLVE01   ELCLT07    KCMTRO01   LEVL301    MCI01
 PSEELC50   PSEGAS50   XO03
UULC4073949-00  406542  2004/03/31 00:24:10  00093

/

                  UULC
Ticket No:  4073949               ==EMERGENCY==     CORRECTION
Send To: USWEST71   Seq No:    9  Map Ref:
Update Of:  4042183
Transmit      Date:  3/24/04   Time:  7:01 am    Op: tonily
Original Call Date:  3/24/04   Time:  6:58 am    Op: tonily
Work to Begin Date:  3/24/04   Time:  7:00 am

State: MT            County: MISSOULA                Place: MISSOULA
Address: 6485        Street: HIGHWAY 10W
Nearest Intersecting Street: WIMETT LANE

Twp: 14N   Rng: 20W   Sect-Qtr: 34
Twp: 14N   Rng: 20W   Sect-Qtr: 27-SW-SE,34-NW-NE,35-NW
Legal Given:

Type of Work: REPAIR WATER MAIN
Location of Work: ADD IS LOT A AT FUTURA TRAILER PARK LOC AT INTER.MARK
: ENTIRE LOT AT ABV ADD.CREW ON SITE NOW.ENTIRE TRAILER PARK IS OUT OF
: SERVICE.==CORR TKT==UPD TKT TO CHANGE FROM SPACE 11 TO LOT A-SAME
: SCENARIO OF WORK.

Remarks: CALLER GAVE TOWNSHIP, RANGE, SECTION INFO
: ==CALLER REQUESTS AREA MARKED A.S.A.P== TRAILER PARK OUT OF SERVICEOH: N

Company     : JOHNSON BROTHERS CONTRACTING
Contact Name: LEASHA RIGGS                     Phone: (406)543-5355
Alt. Contact: BOB JOHNSON                      Phone:
Contact Fax :
Work Being Done For: DALLY STEWART
Additional Members:
BLKCKF01   MISELC01   MISULA01   MPC08      MPCGAS01   MTNH2001   SPRINT01
 TOCHAM01
UULC4078047-00  425453  2004/03/31 00:24:10  00094

                  UULC
Ticket No:  4078047               ==EMERGENCY==     DUPLICATION
Send To: USWEST42   Seq No:   20  Map Ref:
Update Of:  4028664
Transmit      Date:  3/26/04   Time: 11:31 am    Op: tonily
Original Call Date:  3/26/04   Time: 10:51 am    Op: tonily
Work to Begin Date:  3/26/04   Time: 11:00 am

State: WA            County: KING                    Place: BELLEVUE
Address: 12304       Street: SE 23RD PL
Nearest Intersecting Street: 123RD PL SE

Twp: 24N   Rng: 5E    Sect-Qtr: 4
Twp: 24N   Rng: 5E    Sect-Qtr: 9-NW-NE,4-SW-SE
Legal Given:

Type of Work: INSTALL TELE SERV
Location of Work: ADD IS E OF INTER. MARK ENTIRE PROPERTY AT ABV ADD, ALL
: ROWS AND EASEMENTS. AREA MARKD IN WHITE==UPD TKT == MARK ENTIRE LOT AT
: ABV ADD ALL R.O.W.S AND EASMENTS THEN FROM QWEST PED 2301 APX 100FT S OF
: ABV ADD ON 123RD PL SE.CREW ON SITE SOON AND CUSTOMER OUT OF SERVICE==

Remarks: CALLER GAVE LEGALS. THOMAS 596 F-1.      AREA IS MARKED IN WHITE!
: UPD TKT==CHANGE MARKING INSTRUCT AND NEED EMER RESPONSE PLEASE!!!! OH: N

Company     : ORIUS
Contact Name: RICHARD ELLIOTT                  Phone: (206)510-0573
Alt. Contact: KEN LANE CELL                    Phone: (206)510-1270
Contact Fax :
Work Being Done For: QWEST
Additional Members:
ATTTCI01   BELLVE01   PSEELC50   PSEGAS50
UULC4078199-00  352841  2004/03/31 00:24:10  00095

/

                  UULC
Ticket No:  4078199               ==EMERGENCY==
Send To: USWEST39   Seq No:   25  Map Ref:
Update Of:  4063718
Transmit      Date:  3/26/04   Time: 11:58 am    Op: bryan
Original Call Date:  3/26/04   Time: 11:56 am    Op: bryan
Work to Begin Date:  3/26/04   Time: 12:00 pm

State: WA            County: PIERCE                  Place: TACOMA
Address: 5701        Street: E SWAN CREEK DR
Nearest Intersecting Street: 56TH

Twp: 20N   Rng: 3E    Sect-Qtr: 23-SW,22-SE-NE
Twp:       Rng:       Sect-Qtr:
Legal Given:

Type of Work: REPAIR WATER LINE
Location of Work: ADD IS APX 1BLK FROM ABV INTER, MARK ENTIRE FRONT YARD AT
: ABV ADD

Remarks: ==CALLER REQUESTS AREA MARKED A.S.A.P== CUST OUT OF SERV
: UPDT TCKT - CLR STATES MARKS LOST DUE TO RAIN, EXCAVATION          OH: N

Company     :
Contact Name: DONATTA LOVERSON                 Phone: (253)472-8222
Alt. Contact:                                  Phone:
Contact Fax :
Work Being Done For: DONATTA LOVERSON
Additional Members:
PSEELC46   PSEGAS40   TACDPW01   TACH2O01   TACPWR01   TACSEW01UULC4077905-00  406586  2004/03/31 00:24:10  00097

UULC
Ticket No:  4077905               =MEET TIME=
Send To: USWEST64   Seq No:   19  Map Ref:

Transmit      Date:  3/26/04   Time: 10:10 am    Op: bertha
Original Call Date:  3/26/04   Time: 10:01 am    Op: bertha
Work to Begin Date:  3/31/04   Time: 10:00 am

State: MT            County: GALLATIN                Place: BOZEMAN
Address: 3600        Street: SPRINGHILL ROAD
Nearest Intersecting Street: SYPES CANYON ROAD

Twp: 1S    Rng: 5E    Sect-Qtr: 14-SE,23-SE-NE
Twp:       Rng:       Sect-Qtr:
Legal Given:

Type of Work: PLANTING TREE
Location of Work: ADD IS APX 1/4 MI N OF INTER, ON SPRINGHILL ROAD. MARK
: AREA MARKED WITH FLAGGING, NEAR AMPHITHEATRE AT THE ABV ADD. MEET RADELL
: KEY AT ABV ADD, AT APPOINTED TIME, FOR SPECIFICS.

Remarks: PLEASE CONTACT CALLER IF UNABLE TO ATTEND MEETING
: CALLER REQUESTS A MEETING ON 03/31/2004 AT 10:00 AM  NO GUAR       OH: N

Company     : MONTANA RAPTOR CONSERVATION CT
Contact Name: MARY BOUCEUK                     Phone: (406)585-1211
Alt. Contact:                                  Phone:
Contact Fax :
Work Being Done For: MONTANA RAPTOR CONSERVATION CT
Additional Members:
MPC02
UULC4074046-00  253630  2004/03/31 00:24:10  00099

/

UULC
Ticket No:  4074046               =MEET TIME=       CANCELLATION
Send To: USWEST38   Seq No:   14  Map Ref:

Transmit      Date:  3/24/04   Time:  9:08 am    Op: adrian
Original Call Date:  3/24/04   Time:  7:46 am    Op: kelly
Work to Begin Date:  3/26/04   Time:  8:00 am

State: WA            County: KING                    Place: NEWCASTLE
Address:             Street: 114TH AVE SE
Nearest Intersecting Street: SE 68TH ST

Twp: 24N   Rng: 5E    Sect-Qtr: 29
Twp: 24N   Rng: 5E    Sect-Qtr: 28-NW,29-NE
Legal Given:

Type of Work: INSTALL WATER SERV
Location of Work: MARK FROM ABV INTER APX 500FT N ALONG BOTH SIDES OF 114TH
: AVE SE.

Remarks: INCORRECT ADDRESS/ST
: IF UNABLE TO MAKE MEET PLEASE CALL PAUL TO SET A MEET AT 754-3343  OH: N

Company     : UNIVERSAL LAND CONSTRUCTION
Contact Name: MARILYN                          Phone: (425)483-6200
Alt. Contact: PAUL TOWLE                       Phone: (425)754-3343
Contact Fax : (425)485-3186
Work Being Done For: MADISON LANE
Additional Members:
ATTTCI01   BELLVE01   COALCR01   KCMTRO01   PSEELC33   PSEGAS34   PSEGAS36
 RENTON01
UULC4067596-00  360671  2004/03/31 00:24:10  00098

/

UULC
Ticket No:  4067596               =MEET TIME=       CORRECTION
Send To: USWEST47   Seq No:    8  Map Ref:

Transmit      Date:  3/19/04   Time: 12:29 pm    Op: donald
Original Call Date:  3/18/04   Time: 12:32 pm    Op: jimmy
Work to Begin Date:  3/23/04   Time:  8:00 am

State: WA            County: WHATCOM                 Place: BELLINGHAM
Address: 933         Street: CHUCKANUT SHORE ROAD
Nearest Intersecting Street: YACHT CLUB DR

Twp: 37N   Rng: 2E    Sect-Qtr: 24-SW-SE,25-NE
Twp:       Rng:       Sect-Qtr:
Legal Given:

Type of Work: LANDSCAPING
Location of Work: MARK ENTIRE PROP AT ABV ADD. CLR REQ SEE ELROY ON SITE
: FOR SPECIFIC INSTRUCTIONS. BEST INFO AVAILABLE.CORRECTION TO ADD COMMENT.
: CALLER UNABLE TO PROVIDE DISTANCE AND DIRECTION FROM CROSS ST.

Remarks: CLR REQ MEET ELROY ON SITE 3/23/04 AT 8AM =NO GUARANTEE=
: DO NOT MARK ON ANY PAVED OR PERMANENT SURFACES                     OH: ?

Company     : PACIFIC EARTHWORKS, INC.
Contact Name: TRISHA AVERY                     Phone: (206)625-1749
Alt. Contact:                                  Phone:
Contact Fax :
Work Being Done For: DON AND CATHY HAGEN
Additional Members:
BELLNH01   PSEELC42
UULC4078389-00  253630  2004/03/31 00:24:10  00101

/

UULC
Ticket No:  4078389               =MEET TIME=
Send To: USWEST38   Seq No:   35  Map Ref:
Update Of:  4075272
Transmit      Date:  3/26/04   Time:  1:45 pm    Op: judy
Original Call Date:  3/26/04   Time:  1:41 pm    Op: judy
Work to Begin Date:  3/30/04   Time:  8:00 am

State: WA            County: KING                    Place: NEWCASTLE
Address: 8299        Street: COAL CREEK PKWY SE
Nearest Intersecting Street: SE 84TH WAY

Twp: 24N   Rng: 5E    Sect-Qtr: 33-NE,34-NW
Twp:       Rng:       Sect-Qtr:
Legal Given:

Type of Work: INSTALL FENCE
Location of Work: ADD IS THE WATER LIFT STATION AT ABV INTER.  MARK ENTIRE
: PERIMETER OF THE PROP AT ABV ADD.  CALLER REQUESTS A MEET AT ABV ADD IF
: UNABLE TO MAKE MEET PLEASE CALL SUE AT 253 833 9367 OR 253 709 0274 TO
: SET A MEET.

Remarks: BEST INFORMATION AVAILABLE
: ==UPDT TKT TO RESCHEDULE MTG, CLR REQ A MEET ON 3/30/04 AT 8AM - NOOH: N

Company     : OLYMPIC FENCE CO INC
Contact Name: SUSAN BAKER                      Phone: (253)833-9367
Alt. Contact: ROGER BAKER /CELL                Phone: (206)399-5069
Contact Fax :
Work Being Done For: SEABOARD CONSTRUCTION INC.
Additional Members:
ATTCBL01   COALCR01   ELCLT07    KCDPW02    MCI01      OLYPE01    PSEELC33
 PSEGAS34   SEAH2002
UULC4078817-00  253833  2004/03/31 00:24:10  00103

/

                  UULC
Ticket No:  4078817               =NON-EMERGENCY=
Send To: USWEST45   Seq No:    1  Map Ref:

Transmit      Date:  3/27/04   Time: 11:39 am    Op: mnniki
Original Call Date:  3/27/04   Time: 11:28 am    Op: mnniki
Work to Begin Date:  3/27/04   Time: 11:30 am

State: WA            County: KING                    Place: AUBURN
Address: 3926        Street: S 352ND ST
Nearest Intersecting Street: MILITARY ROAD

Twp: 21N   Rng: 4E    Sect-Qtr: 22-SW-SE,27-NW-NE
Twp:       Rng:       Sect-Qtr:
Legal Given:

Type of Work: INSTALLATION OF FENCE
Location of Work: FROM MILITARY ROAD GO W ON S 352ND ST APPROX 1 1/2 MILE
: THEN GO N ON DIRT ROAD APPROX 150FT TO ADDRESS ON W SIDE OF RD. MARK
: ENTIRE FRONT HALF OF LOT.

Remarks: CALLER REQUESTS MARKS BY 03/27/2004 BY 11:30 AM
: MADE CALLER AWARE OF NOTIFICATION LAW -NO GUARANTEES               OH: Y

Company     :
Contact Name: SCOTT ROBERTSON                  Phone: (253)661-1857
Alt. Contact: SAME                             Phone:
Contact Fax :
Work Being Done For: SCOTT ROBERTSON
Additional Members:
ATTPSN07   LKHAVN01   PSEELC34   PSEGAS32
UULC4077434-00  360671  2004/03/31 00:24:10  00104

/

                  UULC
Ticket No:  4077434               =NON-EMERGENCY=   CANCELLATION
Send To: USWEST47   Seq No:   27  Map Ref:

Transmit      Date:  3/26/04   Time:  2:13 pm    Op: zach
Original Call Date:  3/26/04   Time:  7:02 am    Op: donald
Work to Begin Date:  3/26/04   Time:  7:15 am

State: WA            County: WHATCOM                 Place: BELLINGHAM
Address: 2914        Street: ORLEANS ST
Nearest Intersecting Street: ILLINOIS

Twp: 38N   Rng: 3E    Sect-Qtr: 20-SW-NW
Twp:       Rng:       Sect-Qtr:
Legal Given:

Type of Work: REPLACE WATER DRAIN
Location of Work: ADD IS APX 1 BLK N OF ABV INTER. MARK S SIDE OF HOUSE AT
: ABV ADD. CALLER STATES HER HUSBAND CALLED IN LOCATE EARLIER AND DIDNT
: HAVE TICKET NUMBER STATES MARKS WERE ERASED DUE TO LAWN MOWER.

Remarks: ==CALLER REQUESTS AREA MARKED A.S.A.P== NO GUARANTEE
: CANCELLED: LOCATE IS NOT NEEDED                                    OH: N

Company     :
Contact Name: PAM PORTER                       Phone: (360)961-6958
Alt. Contact: JERRY PORTER                     Phone: (360)398-1005
Contact Fax :
Work Being Done For: PAM PORTER
Additional Members:
ATTTCI01   BELLNH01   CNG16      PSEELC42
UULC4029066-00  253630  2004/03/31 00:24:10  00105

                  UULC
Ticket No:  4029066               =NON-EMERGENCY=   CORRECTION
Send To: USWEST38   Seq No:   55  Map Ref:

Transmit      Date:  2/10/04   Time:  2:37 pm    Op: bertha
Original Call Date:  2/10/04   Time:  2:08 pm    Op: bertha
Work to Begin Date:  2/10/04   Time:  2:15 pm

State: WA            County: KING                    Place: KENT
Address: 7622        Street: S 188TH ST
Nearest Intersecting Street: OAKSDALE

Twp: 23N   Rng: 4E    Sect-Qtr: 43-SE,36-SW-SE
Twp:       Rng:       Sect-Qtr:
Legal Given:

Type of Work: DIGGING FOR INSTALL WATER MAIN
Location of Work: ADD IS APX 1/4 MI W OF INTER, ON S 188TH ST. MARK APX
: 100YDS IN CENTER OF PROP, AT THE ABV ADD, LOC E OF GATED AREA., CALLER
: STATES OAKSDALE IS A.K.A. 80TH AVE.  SEE AARON OR GARY JOHNSON, AT THE
: OFFICE FOR SPECIFICS.

Remarks: MADE CALLER AWARE OF NOTIFICATION LAW -NO GUARANTEES CORR TO ADD
: ==CALLER REQUESTS AREA MARKED A.S.A.P==    NO GUAR                 OH: N

Company     : KINGS COMMAND FOODS
Contact Name: DOUG MANCE                       Phone: (425)251-6788
Alt. Contact:                                  Phone:
Contact Fax :
Work Being Done For: KINGS COMMAND FOODS
Additional Members:
ATT08      KCMTRO01   KENT01     OLYPE01    PSEELC33   PSEGAS34   SPRINT01
UULC4001448-00  253582  2004/03/31 00:24:10  00106

/

                  UULC
Ticket No:  4001448               =NON-EMERGENCY=   DUPLICATION
Send To: USWEST35   Seq No:    4  Map Ref:

Transmit      Date:  2/06/04   Time:  2:34 pm    Op: jdasho
Original Call Date:  2/04/04   Time: 11:50 am    Op: jdasho
Work to Begin Date:  2/04/04   Time: 12:00 pm

State: WA            County: YOUR COUNTY             Place: YOUR CITY
Address:             Street: PLEASE READ INSTRUCTIONS BELOW
Nearest Intersecting Street: PLEASE READ INSTRUCTIONS BELOW

Twp: 1N    Rng: 2W    Sect-Qtr: 3-NW
Twp:       Rng:       Sect-Qtr:
Legal Given:

Type of Work: THIS IS A TEST OF NEW CALL CENTER COMMUNICATIONS
Location of Work: THIS IS A TEST OF THE NEW CALL CENTER COMMUNICATIONS
: SOFTWARE/HARDWARE.  IN ORDER TO VERIFY THAT YOUR COMPANY IS ABLE TO
: RECEIVE FROM THE CENTER, PLEASE FAX ANY COPIES OF THIS TICKET BACK TO US
: AT 503-234-7254, INCLUDING ANY DUPLICATES. IF YOU WANT LARGER PRINT

Remarks: DARKER PRINT, ETC. PLEASE INDICATE THAT ON YOUR FAX BACK, PLEASE
: RESPOND, EVEN IF YOU HAVE RESPONDED TO 1ST TEST-THANKS.  ATTN JENN OH: N

Company     : ONE CALL CONCEPTS
Contact Name: JENN DASHO                       Phone: (503)232-1987  Ext.: 4001
Alt. Contact: SAME                             Phone: (877)668-4001
Contact Fax : (503)234-7254
Work Being Done For: UTILITY NOTIFICATION CENTER
Additional Members:
ARCO01     NSHORE01   ONFIBR01   PUYLUP01   RANTEL01   REDBUT01   RENTON01
 SEACL01    SEAH2001   SKGPUD01   SMPLWS01   SOOSCK01   SPOKAN02   SUMH2001
 TACDPW10   TACSEW10   TRNMTN01   TUMH2O01   WILBAS01   XEST01
UULC4077974-00  406245  2004/03/31 00:24:10  00107

/

                  UULC
Ticket No:  4077974               =NON-EMERGENCY=
Send To: USWEST66   Seq No:   47  Map Ref:
Update Of:  4059816
Transmit      Date:  3/26/04   Time: 10:32 am    Op: donald
Original Call Date:  3/26/04   Time: 10:27 am    Op: donald
Work to Begin Date:  3/26/04   Time: 10:30 am

State: MT            County: YELLOWSTONE             Place: BILLINGS
Address: 22          Street: BIG SKY COUNTRY DR
Nearest Intersecting Street: MAIN ST

Twp: 1S    Rng: 25E   Sect-Qtr: 12-SE-NE
Twp:       Rng:       Sect-Qtr:
Legal Given:

Type of Work: INSTALL EDGING
Location of Work: SITE IS IN CASA VILLAGE AT ABV INTER. MARK REAR YARD AT
: ABV ADD. CALLER STATES HOUSE IS CREAM COLORED HOUSE.CALLER REQUESTS
: REMARKS ASAP NO GUARANTEE

Remarks: UPDATE CALLER STATES SHE HIT A LINE POSS CATV OR PHONE
: DO NOT KNOW IF DAMAGED. SITE IS NEAR WINDMILL BIG SQUARE HOLE COVEROH: N

Company     :
Contact Name: LAVINA KANUIT                    Phone: (406)656-6026
Alt. Contact:                                  Phone:
Contact Fax :
Work Being Done For: LAVINA KANUIT
Additional Members:
ATTCBL10   BILPUD01   MDU01      MPC16
UULC4077865-00  406245  2004/03/31 00:24:10  00108

UULC
Ticket No:  4077865               PRE-SURVEY
Send To: USWEST66   Seq No:   40  Map Ref:

Transmit      Date:  3/26/04   Time: 10:09 am    Op: tesa
Original Call Date:  3/26/04   Time:  9:44 am    Op: webusr
Work to Begin Date:  3/31/04   Time: 12:00 am

State: MT            County: STILLWATER              Place: COLUMBUS
Address:             Street: 3RD ST
Nearest Intersecting Street: ALLEY BETWEEN 1 AVE AND PIKE AV

Twp: 2S    Rng: 20E   Sect-Qtr: 27,28
Twp: 2S    Rng: 20E   Sect-Qtr: 21-SE,28-NE
Legal Given:

Type of Work: PRE SURVEY FOR STROM DRAIN MAIN
Location of Work: MARK ENTIRE ALLEY AND 30 FT SOUTH OF ALLEY FROM 3RD ST
: TO 2ND ST. MARK  MAIN LINES AND SERVICES TO BUILDINGS.

Remarks: MARK WITH PIN FLAGS IF POSSIBLE
: CALL WHEN COMPLETED                                                OH: ?

Company     : MORRISON & MAIERLE INC.
Contact Name: JD INGRAHAM                      Phone: (406)656-6000
Alt. Contact: KENT SIELBACH                    Phone: (406)670-5415
Contact Fax :
Work Being Done For: CITY OF COLUMBUS
Additional Members:
BTOOTH01   COLMBS01   FBRVSN01   MPC16      SPRINT01UULC4057684-00  360352  2004/03/31 00:24:10  00109

UULC
Ticket No:  4057684               PRE-SURVEY        CANCELLATION
Send To: USWEST43   Seq No:   35  Map Ref:

Transmit      Date:  3/10/04   Time:  2:38 pm    Op: gayle
Original Call Date:  3/10/04   Time:  2:15 pm    Op: julia
Work to Begin Date:  3/13/04   Time: 12:00 am

State: WA            County: MASON                   Place: SHELTON
Address:             Street: NORTHCLIFF ROAD
Nearest Intersecting Street: N 13TH

Twp: 20N   Rng: 3E    Sect-Qtr: 18
Twp: 20N   Rng: 3W    Sect-Qtr: 7-SW,18,37-NW-SE
Legal Given:

Type of Work: PRE-SURVEY FOR DESIGN OF ROADWAY
Location of Work: MARK ENTIRE WIDTH OF NORTHCLIFF ROAD, FROM ABV INTER TO
: APX 100FT PAST POPLAR ST AND APX 100FT UP EACH SIDE STREET. CLR REQ MAPS
: AS WELL AS FIELD MARKS, PLS SEND MAPS TO: PARAMETRIX 8830 TALLON LANE
: LACEY WA 98516 ATTN: SCEAN RIPLEY

Remarks: CALLER STATES CALLED IN ERROR, JOB FINISHED
: CALLER GAVE TOWNSHIP, RANGE, SECTION INFO                          OH: N

Company     : PARAMETRIX
Contact Name: NANCY WILLIAMS                   Phone: (253)863-5128
Alt. Contact: SCEAN RIPLEY                     Phone: (360)459-3609
Contact Fax :
Work Being Done For: CITY OF SHELTON
Additional Members:
ATTCBL05   CNG05      HOODTL01   MPUD301    SHELT01
UULC4050717-00  253833  2004/03/31 00:24:10  00110

/

UULC
Ticket No:  4050717               PRE-SURVEY        CORRECTION
Send To: USWEST45   Seq No:   18  Map Ref:

Transmit      Date:  3/04/04   Time: 12:07 pm    Op: jeffre
Original Call Date:  3/04/04   Time:  9:08 am    Op: elane
Work to Begin Date:  3/09/04   Time: 12:00 am

State: WA            County: PIERCE                  Place: TACOMA
Address: 5620        Street: MARINE VIEW DR
Nearest Intersecting Street: E 11TH

Twp: 21N   Rng: 3E    Sect-Qtr: 22-NW-SW
Twp: 21N   Rng: 3E    Sect-Qtr: 27-NE,21-SE-NE,22-SW-NW-SE
Legal Given:

Type of Work: PRE-SURVEY TO DESIGN MAPPING
Location of Work: ADD SE OF ABV INTER. MARK FROM SE PROP LINE AT ABV ADD SE
: APX 3000FT - ROW TO ROW ON MARINE VIEW DR

Remarks: CALLER REQUESTS DEPTH OF LINES MARKED IF POSSIBLE
: CALLER REQUESTS FIELD MARKS.  ==CORRECTED TKT TO ADD---CLR GAVE TRSOH: N

Company     : PARAMETRICS
Contact Name: MATT CASTBERG                    Phone: (253)501-5181
Alt. Contact: DAVE PEEPLER                     Phone: (253)501-1041
Contact Fax :
Work Being Done For: PORT OF TACOMA
Additional Members:
PSEGAS32   PSEGAS40   TACDPW01   TACH2O01   TACPWR01   TACSEW01
UULC4078027-00  253630  2004/03/31 00:24:10  00112

UULC
Ticket No:  4078027               PRE-SURVEY
Send To: USWEST38   Seq No:   12  Map Ref:
Update Of:  4075374
Transmit      Date:  3/26/04   Time: 10:42 am    Op: zach
Original Call Date:  3/26/04   Time: 10:41 am    Op: zach
Work to Begin Date:  3/31/04   Time: 12:00 am

State: WA            County: KING                    Place: RENTON
Address: 1132        Street: EDMONDS ST NE
Nearest Intersecting Street: NE 12TH ST

Twp: 23N   Rng: 5E    Sect-Qtr: 9
Twp: 23N   Rng: 5E    Sect-Qtr: 4-SW,5-SE,8-NE,9-NW
Legal Given:

Type of Work: PRE-SURVEY TO DESIGN HOUSING DEVELOPMENT
Location of Work: ADD APX 300FT S OF ABV INTER. MARK EDMOND ST S ROW TO ROW
: FROM ABV ADD APX 260FT S --UPDATED TO CORRECT WRONG ADDRESS--

Remarks: CALLER GAVE TOWNSHIP, RANGE, SECTION INFO
: CALLER REQUESTS FIELD MARKINGS                                     OH: Y

Company     : E S M CONSULTING ENGINEERS
Contact Name: DAN ACKERMAN                     Phone: (253)838-6113
Alt. Contact: JOHN KARLEN                      Phone:
Contact Fax :
Work Being Done For: RENTON HOUSING AUTHORITY
Additional Members:
ATTCBL01   PSEELC33   PSEGAS34   RENTON01   WSDOT12
UULC4078298-00  360671  2004/03/31 00:24:10  00113

/

UULC
Ticket No:  4078298               PRIORITY
Send To: USWEST47   Seq No:   17  Map Ref:

Transmit      Date:  3/26/04   Time: 12:56 pm    Op: jimmy
Original Call Date:  3/26/04   Time: 12:50 pm    Op: jimmy
Work to Begin Date:  3/29/04   Time:  8:00 am

State: WA            County: WHATCOM                 Place: BELLINGHAM
Address:             Street: MCKENZIE AVE
Nearest Intersecting Street: 12TH

Twp: 37N   Rng: 2E    Sect-Qtr: 2
Twp: 37N   Rng: 2E    Sect-Qtr: 1-SW
Legal Given:

Type of Work: SOIL BORINGS
Location of Work: MARK ENTIRE LOT LOC WITHIN APX 125FT N OF MCKENZIE AVE,
: BTWN 11TH AND 12TH.

Remarks: CALLER REQUESTS MARKS BY 3/29/04 BY 8AM =NO GUARANTEE=
: CALLER GAVE TOWNSHIP, RANGE, SECTION INFO                          OH: N

Company     : GEO ENGINEERS
Contact Name: ANDREA ERNST                     Phone: (360)647-1510
Alt. Contact:                                  Phone:
Contact Fax :
Work Being Done For: EBENAL CONSTRUCTION
Additional Members:
ATTTCI01   BELLNH01   CNG16      PSEELC42
UULC4072775-00  253582  2004/03/31 00:24:10  00114

/

UULC
Ticket No:  4072775               PRIORITY          CANCELLATION
Send To: USWEST35   Seq No:   40  Map Ref:
Update Of:  4072739
Transmit      Date:  3/23/04   Time: 12:00 pm    Op: donald
Original Call Date:  3/23/04   Time: 10:59 am    Op: gabrie
Work to Begin Date:  3/24/04   Time:  8:00 am

State: WA            County: PIERCE                  Place: TACOMA
Address: 1460        Street: S 16TH ST

Twp: 20N   Rng: 3E    Sect-Qtr: 5-SW-SE
Twp:       Rng:       Sect-Qtr:
Legal Given:

Type of Work: INSTALL SIDE SEWER
Location of Work: MARK ENTIRE LOT, INCL ALL EASEMENTS.
: ==UPDT TKT TO REMOVE EMER STATUS/CHG HEADER CODE==

Remarks: CALLER REQUESTS MARKS BY 03/24/2004 BY 08:00 AM/NO GUAR
: CANCEL TO CHANGE ADDRESS                                           OH: ?

Company     : PRO VAC
Contact Name: SARA FORD                        Phone: (253)435-4328
Alt. Contact: ANDY                             Phone: (253)606-0579
Contact Fax :
Work Being Done For: SABIN CONSTR
Additional Members:
PSEGAS40   TACDPW01   TACH2O01   TACPWR01   TACSEW01
UULC4034311-00  206223  2004/03/31 00:24:10  00115

/

UULC
Ticket No:  4034311               PRIORITY          CORRECTION
Send To: USWEST37   Seq No:    2  Map Ref:

Transmit      Date:  2/17/04   Time:  3:32 am    Op: ksverl
Original Call Date:  2/17/04   Time:  1:10 am    Op: ksverl
Work to Begin Date:  2/17/04   Time:  8:00 am

State: WA            County: KING                    Place: SEATTLE
Address: 5741        Street: 59TH AVE
Nearest Intersecting Street: NE 59TH

Twp: 25N   Rng: 4E    Sect-Qtr: 11-SW-NW
Twp:       Rng:       Sect-Qtr:
Legal Given:

Type of Work: EXPOSING WATER LINE
Location of Work: MARK 50FT S OF NE 59TH ON BOTH SIDES OF RD IN WHITE
: PAINTED AREA.

Remarks: C/S WORK TO BEGIN AT 8AM ON 2/17/04.
: CORRECTION TO CORRECT HEADER/START DATE/TIME.AND TYPE OF WORK      OH: N

Company     : SEATTLE PUBLIC UTILITIES/H20
Contact Name: SIG DIXON                        Phone: (206)386-1849
Alt. Contact:                                  Phone:
Contact Fax :
Work Being Done For: SEATTLE PUBLIC UTILITIES/H20
Additional Members:
ATTTCI01   PSEELC50   PSEGAS50   SEACL01    SEAH2001   SEASIG01   SPRINT01
UULC4078466-00  406245  2004/03/31 00:24:10  00117

UULC
Ticket No:  4078466               PRIORITY
Send To: USWEST66   Seq No:   61  Map Ref:
Update Of:  4055304
Transmit      Date:  3/26/04   Time:  2:25 pm    Op: seth
Original Call Date:  3/26/04   Time:  2:21 pm    Op: seth
Work to Begin Date:  3/29/04   Time:  9:00 am

State: MT            County: YELLOWSTONE             Place: BILLINGS
Address: 3533        Street: DUCK CREEK ROAD

Twp: 1S    Rng: 25E   Sect-Qtr: 33
Twp:  *MORERng: 25E   Sect-Qtr: 27-SW,28-SE,34-SW-NW,33
Legal Given:

Type of Work: INSTALLING UNDERGROUND SERV TO CABLE SUPPLY
Location of Work: MARK FROM EXISTING POLE LOCATED IN CORNER ON PROP ON W
: SIDE OF DUCK CREEK ROAD ACROSS ROADWAY TO CABLE SUPPLY SETTING NEXT TO
: EXISTING POLE MARKED WITH ORANGE X  ===

Remarks: CALLER REQUESTS = GAS = MARKS BY 03/29/2004 BY 09:00 AM  = NO GAUR
: UPDT TICKET -- LOCATES HAVE EXPIRED -- NEEDS REMARKS               OH: Y

Company     : NORTHWESTERN ENERGY
Contact Name: DIANE DELL                       Phone: (406)655-2562
Alt. Contact: CALL 1ST                         Phone: (406)655-2569
Contact Fax : (406)655-2511
Work Being Done For: NORTHWESTERN ENERGY
Additional Members:
CENEX01    CONOCO02   EXXON01    FBRVSN01   MALCBL02   MDU01      MPC16
 MPCFAX10   MTDOT05    SPRINT01   SPRNTA01   TOCHAM01   WILBAS02   YEVAEL01
UULC4078899-00  253841  2004/03/31 00:24:10  00123

/

UULC
Ticket No:  4078899               SHORT NOTICE
Send To: USWEST39   Seq No:    1  Map Ref:

Transmit      Date:  3/28/04   Time:  9:23 pm    Op: ksmike
Original Call Date:  3/28/04   Time:  9:00 pm    Op: ksmike
Work to Begin Date:  3/31/04   Time:  9:00 am

State: WA            County: PIERCE                  Place: EATONVILLE
Address: 33116       Street: 84TH AVE E
Nearest Intersecting Street: 330TH ST E

Twp: 17N   Rng: 4E    Sect-Qtr: 17-SE,16-SE
Twp:       Rng:       Sect-Qtr:
Legal Given:

Type of Work: INSTALLING POWER,SEPTIC LINES
Location of Work: MARK THE ENTIRE FRONT OF THE PROPERTY AT THE ABOVE
: ADDRESS.

Remarks: CALLER STATES HE IS 330FT S OF THE INTERSECTION
: CALLER UNABLE TO GIVE TRSQ                                         OH: N

Company     : DALE LARSON EXCAVATING
Contact Name: DALE LARSON                      Phone: (253)843-1930
Alt. Contact: CELL                             Phone: (253)381-4493
Contact Fax :
Work Being Done For: LAND CORE DEVELOPMENT
Additional Members:
OHOP01     PSEELC45
UULC4064223-00  360352  2004/03/31 00:24:10  00124

UULC
Ticket No:  4064223               SHORT NOTICE      CANCELLATION
Send To: USWEST43   Seq No:   63  Map Ref:

Transmit      Date:  3/18/04   Time:  3:51 pm    Op: tonily
Original Call Date:  3/16/04   Time: 11:59 am    Op: rose
Work to Begin Date:  3/17/04   Time: 12:00 pm

State: WA            County: THURSTON                Place: OLYMPIA
Address: 5011        Street: 82ND AVE SE

Twp: 17N   Rng: 1W    Sect-Qtr: 9-SW-SE,8-SE,17-NE,16-NW-NE
Twp:       Rng:       Sect-Qtr:
Legal Given:

Type of Work: INSTALL SPRINKLER SYSTEM
Location of Work: ADD IS IN COUNTRY WOOD ESTATES OFF FIR TREE ROAD. MARK
: ENTIRE PROP AT ABV ADD.    N OF FIR TREE RD OFF COUNTRY VIEW DR SE TO
: 82ND AVE W OF TRAIL.

Remarks: CANCEL PER CALLER ===WORK IS ALREADY COMPLETE!!!!!!!!! 3:52PM
: 3-18-04                                                            OH: N

Company     : TIMS IRRIGATION
Contact Name: TIM CANFIELD                     Phone: (360)786-1319
Alt. Contact: CELL                             Phone: (360)791-4136
Contact Fax :
Work Being Done For: MR JOE QUINN
Additional Members:
ADTEL01    ATTCBL05   PSEELC47   PSEGAS42
UULC4074297-00  406723  2004/03/31 00:24:10  00125

/

UULC
Ticket No:  4074297               SHORT NOTICE      CORRECTION
Send To: USWEST65   Seq No:   15  Map Ref:

Transmit      Date:  3/24/04   Time:  9:00 am    Op: mnrand
Original Call Date:  3/24/04   Time:  8:49 am    Op: mnrand
Work to Begin Date:  3/26/04   Time: 12:00 pm

State: MT            County: SILVER BOW              Place: BUTTE
Address:             Street: MEADOW LARK
Nearest Intersecting Street: MILKY WAY

Twp: 3N    Rng: 7W    Sect-Qtr: 32-SE-NE
Twp:       Rng:       Sect-Qtr:
Legal Given:

Type of Work: INSTALLATION OF WATER WELL
Location of Work: MARK 50FT RADIUS OF ORANGE FLAG LOCATED ON N SIDE OF
: ABOVE T INTERSECTION.

Remarks: MADE CALLER AWARE OF NOTIFICATION LAW -NO GUARANTEES
: CORR PER CALLER REQ FOR SHORT NOTICE                               OH: N

Company     : PARSONS DRILLING
Contact Name: CLAY PARSONS                     Phone: (406)723-3512
Alt. Contact: CLAY`S CELL                      Phone: (406)490-0513
Contact Fax :
Work Being Done For: FLOYD BOSSARD
Additional Members:
ATTCBL17   MPC01
UULC4078573-00  206223  2004/03/31 00:24:10  00127

UULC
Ticket No:  4078573               SHORT NOTICE
Send To: USWEST45   Seq No:   46  Map Ref:
Update Of:  4071529
Transmit      Date:  3/26/04   Time:  3:09 pm    Op: bertha
Original Call Date:  3/26/04   Time:  3:03 pm    Op: bertha
Work to Begin Date:  3/29/04   Time:  5:00 pm

State: WA            County: KING                    Place: NORMANDY PARK
Address: 450         Street: SW 191ST ST
Nearest Intersecting Street: 4TH AVE S

Twp: 22N   Rng: 4E    Sect-Qtr: 6-NW-NE
Twp: 23N   Rng: 4E    Sect-Qtr: 31-SW-SE
Legal Given:

Type of Work: INSTALL SEWER SERVICE
Location of Work: ADD IS APX 200YDS W OF ABV INTER.  MARK FROM REAR OF MAIN
: DWELLING N APX 50FT TO SHED AT ABV ADD.  GATE IS NOT LOCKED. CALLER
: STATES ABV SITE CONTAINS A SEWER MAINLINE.

Remarks: UPDATE FOR INCOMPLETE MARKS   NEED MARKS   1ST UPDATE
: 0ALLER REQUESTS MARKS BY 03/29/2004 BY 05:00    NO GUAR            OH: N

Company     :
Contact Name: MICHAEL MARTIN                   Phone: (206)264-1104  Ext.: 104
Alt. Contact: JILL                             Phone: (206)246-6208
Contact Fax :
Work Being Done For: MICHAEL MARTIN
Additional Members:
HILINE01   NORMPK01   PSEELC31   PSEGAS39   SWSBRN01   USWEST37
