
ZZAP12 02598 VUPSa 06/19/02 16:42:29 A216500339-00A NORM NEW GRID RSND

Ticket : A216500339 Rev: 00A Taken: 06/14/02 10:16AM Oper: 1BSS

State: VA Cnty: BEDFORD Place:

Address :  2820  Street: DICKERSON MILL RD
Cross 1 : DICKERSON MILL RD  Intersection: N
Lot side: ENTIRE  Whitelined: N  Blasting: N  Boring: N
Location:
Instruct: ***TEST***DO NOT LOCATE
WorkType: LANDSCAPING
Done for: HO/DANBY/540-587-3713

Grids: 3717A7934D-02 3717A7934D-03 3718D7933A-00 3718D7933A-01 3718D7933A-10
Grids: 3718D7933A-11 3718D7933A-20 3718D7934D-14 3718D7934D-23 3718D7934D-24
Grids: 3718D7934D-33 3718D7934D-34 3718D7934D-42 3718D7934D-43

Work date: 06/19/02 07:00AM  Due by   : 06/19/02 07:00AM
Expires  : 07/09/02 07:00AM  Update by: 07/05/02 12:00AM  Sent: 06/14/02 10:36AM

Company : RSG LANDSCAPING & DESIGN  Type: OWNR
Co addr : 424 LUCK AVE SW Phone: 540-857-4170
City    : ROANOKE State: VA Zip: 24012
Caller  : HANDY MANDY Phone: 540-857-4171
Call Back Time: 8:00AM-3:00P  Email: hanman@aol.com
Field contact : MARK SPOT Phone: 540-857-2323

Members:
INTCP0 = INTCP0                       ZZAP12 = WE DIG IT ALL

[Originally sent as sequence number 02168 at 06/19/02 09:38]


ZZAP12 02599 VUPSa 06/19/02 16:42:30 A216500340-00A NORM NEW GRID RSND

Ticket : A216500340 Rev: 00A Taken: 06/14/02 10:34AM Oper: 1BMF

State: VA Cnty: BRISTOL CITY Place:

Address :   Street: TEXAS AVE
Cross 1 : MASSACHUSETTS AVE  Intersection: Y
Lot side:    Whitelined: Y  Blasting: Y  Boring: N
Location: 200 FT RADIUS OF THE ABOVE INTERSECTION.
Instruct: ***TESTING*** DO NOT LOCATE
WorkType: INSTL CURBS
Done for: CITY OF BRISTOL

Grids: 3636C8209A-22 3636C8209A-23 3636C8209A-32 3636C8209A-33 3636C8209A-34
Grids: 3636C8209A-42 3636C8209A-43 3636C8209A-44

Work date: 06/19/02 07:00AM  Due by   : 06/19/02 07:00AM
Expires  : 07/09/02 07:00AM  Update by: 07/05/02 12:00AM  Sent: 06/14/02 10:37AM

Company : S & ME INC  Type: CONT
Co addr : 2153 HIGHWAY 75 Phone: 423-323-2101
City    : BLOUNTVILLE State: TN Zip: 27617
Caller  : TONY CHRISTIAN Phone: 423-323-2101
Call Back Time: 2:00 PM - 5:
Fax     : 423-323-9809

Members:
INTCP0 = INTCP0                       ZZAP12 = WE DIG IT ALL

[Originally sent as sequence number 02169 at 06/19/02 09:38]


ZZAP12 02600 VUPSa 06/19/02 16:42:32 A216500341-00A NORM NEW GRID RSND

Ticket : A216500341 Rev: 00A Taken: 06/14/02 10:31AM Oper: 1BCB

State: VA Cnty: ISLE OF WIGHT Place: ISLE OF WIGHT

Address :  240  Street: QUILLENS POINT LN
Cross 1 : WRENNS MILL RD  Intersection: N
Lot side:    Whitelined: Y  Blasting: N  Boring: N
Location: LOCATE THE ENTIRE YARD OF 240 QUILLENS POINT LN
Instruct: HOUSE #240 IS LOCATED ON THE NORTH SIDE OF QUILLENS POINT LN, ARE IS
        : MARKED WITH WHITE FLAGS, PLEASE DO NOT USE PAINT ON PAVED AREAS.
        : ***TESTING***DO NOT LOCATE
WorkType: INSTL METAL BUILDING
Done for: TAMMY STEED

Grids: 3700B7640B-33 3700B7640B-34 3700B7640B-42 3700B7640B-43 3700B7640B-44
Grids: 3700B7640C-30 3700B7640C-40

Work date: 06/19/02 07:00AM  Due by   : 06/19/02 07:00AM
Expires  : 07/09/02 07:00AM  Update by: 07/05/02 12:00AM  Sent: 06/14/02 10:37AM

Company : M K TAYLOR CONTRACTORS  Type: CONT
Co addr : 776 NORWOOD CIRCLE Phone: 757-723-1131
City    : HAMPTON State: VA Zip: 23669
Caller  : BRUCE WOOD Phone: 757-723-1131
Call Back Time: 3:00 PM - 8:  Email: MkToylor@msn.com
Field contact : YOUNG SMITH Phone: 540-895-6455
Fax     : 757-723-1399

Members:
ZZAP12 = WE DIG IT ALL

[Originally sent as sequence number 02170 at 06/19/02 09:38]


ZZAP12 02601 VUPSa 06/19/02 16:42:33 A216500342-00A NORM NEW GRID RSND

Ticket : A216500342 Rev: 00A Taken: 06/14/02 10:31AM Oper: 1DIA

State: VA Cnty: ROANOKE CITY Place:

Address :  4343  Street: GARST MILL RD
Lot side: F AND W  Whitelined: Y  Blasting: N  Boring: N
Location:
Instruct: *** TEST TICKET*** DO NOT LOCATE
WorkType: INSTL FENCE
Done for: HO/GARY/5403263265

Grids: 3714A8000C-32 3714A8000C-33 3714A8000C-34 3714A8000C-42 3714A8000C-43
Grids: 3714A8000C-44 3714A8000D-30 3714A8000D-40

Work date: 06/19/02 07:00AM  Due by   : 06/19/02 07:00AM
Expires  : 07/09/02 07:00AM  Update by: 07/05/02 12:00AM  Sent: 06/14/02 10:37AM

Company : BRANCH & ASSOCIATES  Type: OWNR
Co addr : 3902 FRANKLIN RD Phone: 540-989-5215
City    : ROANOKE State: VA Zip: 24014
Caller  : JAMES BRANCH Phone: 540-989-5215 Ext: 115
Call Back Time: 8:00 AM - 5:  Email: branchcompany@home.net
Field contact : BOB BRANCH Phone: 540-362-9898
Fax     : 540-989-5255

Members:
INTCP0 = INTCP0                       ZZAP12 = WE DIG IT ALL

[Originally sent as sequence number 02171 at 06/19/02 09:38]


ZZAP12 02602 VUPSa 06/19/02 16:42:34 A216500343-00A NORM NEW GRID RSND

Ticket : A216500343 Rev: 00A Taken: 06/14/02 10:29AM Oper: 1CAM

State: VA Cnty: APPOMATTOX Place:

Address :   Street: LEE ST
Cross 1 : ATWOOD ST  Intersection: N
Lot side:    Whitelined: Y  Blasting: N  Boring: Y
Location: LOCATE 300 FT GOING SOUTHWEST STARTING FROM ABOVE INTERSECTION.
Instruct: *** TEST DO NOT LOCATE ***
WorkType: BURY MAIN CABLE
Done for: COX COMMUNICATIONS

Grids: 3721C7849B-31 3721C7849B-41

Work date: 06/19/02 07:00AM  Due by   : 06/19/02 07:00AM
Expires  : 07/09/02 07:00AM  Update by: 07/05/02 12:00AM  Sent: 06/14/02 10:38AM

Company : R & B PAINTING AND HOME IMPROV  Type: OWNR
Co addr : 214 WYTHE CREEK ROAD LOT 25 Phone: 757-868-6675
City    : POCOQUOSON State: VA Zip: 23662
Caller  : PAULINE Phone: 757-868-6675
Call Back Time: 757-873-2323
Field contact : TIM JONES Phone: 757-868-6600

Members:
INTCP0 = INTCP0                       ZZAP12 = WE DIG IT ALL

[Originally sent as sequence number 02172 at 06/19/02 09:38]


ZZAP12 02603 VUPSa 06/19/02 16:42:35 A216500344-00A NORM NEW GRID RSND

Ticket : A216500344 Rev: 00A Taken: 06/14/02 10:29AM Oper: 1KGS

State: VA Cnty: ROANOKE Place:

Address :  6610-6617  Street: THIRLANE RD NW
Cross 1 : BRANCHMAC LN  Intersection: Y
Lot side:    Whitelined: N  Blasting: N  Boring: N
Location: LOCATE EAST SIDE OF ROAD FROM 6610-6617 THIRLANE RD LOCATE FROM
        : EASEMENT 25 FT INTO PROPERTIES.  FIRST PROPERTY IS LOCATED AT
        : INTERSECTION OF THIRLANE AND BRANCHMAC
Instruct: ***TESTING DO NOT LOCATE***  CALLER STATES THE REST OF THE PROPERTIES
        : ARE LOCATED IN ROANOKE CITY PLEASE LOOK FOR ANOTHER TICKET!!!
WorkType: INSTALL STREET LIGHTS
Done for: ROANOKE COUNTY

Grids: 3719B7959B-14 3719B7959B-23 3719B7959B-24 3719B7959B-34 3719B7959B-44
Grids: 3719B7959C-20 3719B7959C-30 3719B7959C-31 3719B7959C-40

Work date: 06/19/02 07:00AM  Due by   : 06/19/02 07:00AM
Expires  : 07/09/02 07:00AM  Update by: 07/05/02 12:00AM  Sent: 06/14/02 10:39AM

Company : VARNEY ELECTRIC  Type: CONT
Co addr : P O BOX 3187 Phone: 540-343-0155
City    : ROANOKE State: VA Zip: 24015
Caller  : ETHEL FREEMAN Phone: 540-343-0155
Call Back Time: 7:00 AM - 4:
Field contact : HAROLD BEESMAN Phone: 540-985-6458 Ext: 2258
Fax     : 540-343-3118

Members:
ZZAP12 = WE DIG IT ALL

[Originally sent as sequence number 02173 at 06/19/02 09:38]



UTIL11 00165 VUPSa 07/01/02 09:37:45 A218200334-00A NORM NEW GRID

Ticket : A218200334 Rev: 00A Taken: 07/01/02 09:33AM Oper: 1HDM

State: VA Cnty: PORTSMOUTH CITY Place:

Address :  1120  Street: LAKEVIEW DR
Cross 1 : LAKEVIEW CIR  Intersection: N
Lot side:    Whitelined: N  Blasting: N  Boring: Y
Location: LOCATE 10FT IN ALL DIRECTIONS FROM STUMP BETWEEN CURB AND SIDEWALK AT
        : FRONT OF PROPERTY
WorkType: GRINDING TREE STUMPS
Done for: CITY OF PORTSMOUTH

Map book: 245A4
Grids: 3647C7622B-03 3647C7622B-04 3647C7622B-13 3647C7622B-14 3647C7622B-21
Grids: 3647C7622B-22 3647C7622B-23 3647C7622B-24 3647C7622B-31 3647C7622B-32
Grids: 3647C7622B-33 3647C7622C-00 3647C7622C-01 3647C7622C-10 3647C7622C-11
Grids: 3647C7622C-20 3647C7622C-21

Work date: 07/08/02 07:00AM  Due by   : 07/08/02 07:00AM
Expires  : 07/25/02 07:00AM  Update by: 07/22/02 12:00AM  Sent: 07/01/02 09:37AM

Company : CITY OF PORTSMOUTH  Type: CONT
Co addr : 2023A FREDERICK BLVD Phone: 757-393-8085
City    : PORTSMOUTH State: VA Zip: 23702
Caller  : TOMMY GARRIS Phone: 757-393-8085
Call Back Time: 7AM - 3PM
Fax     : 757-393-2080

Members:
CGPO40 = COLUMBIA GAS/UTILIQUEST      CIPO41 = CITY OF PORTS-PUB UTIL
COLP43 = COLONIAL PIPELINE            CPPS36 = VERIZON-PORTSMOUTH/SUFFOLK
CXCA38 = COX COMMUNICATIONS-HAMPTON R DME260 = DOMINION VIRGINIA POWER
UTIL11 = DO NOT READ TO CALLER




