BEC06  *EOD* NCOCc 02/03/07 00:08:02

***************************************************************************
* Summary for 02/02/07 - BEC06                                            *
***************************************************************************

00001 C070330069-00C 07:47   00002 C070330096-00C 08:01
00003 C070330099-00C 08:01   00004 C070330209-00C 08:34
00005 C070330212-00C 08:36   00006 C070330232-00C 08:41
00007 C070330271-00C 08:51   00008 C070330671-00C 10:29
00009 A070311498-01C 10:33   00010 C070330681-00C 10:34
00011 C070330687-00C 10:35   00012 C070330698-00C 10:40
00013 C070330749-00C 10:58   00014 C070330753-00C 10:59
00015 C070330754-00C 11:01   00016 C070330760-00C 11:03
00017 C070330764-00C 11:03   00018 C070330771-00C 11:07
00019 C070330865-00C 11:23   00020 C070331005-00C 11:50
00021 C070331044-00C 12:08   00022 C070331142-00C 12:42
00023 C070331264-00C 13:18   00024 C070331270-00C 13:19
00025 C070331273-00C 13:20   00026 C070331376-00C 13:45
00027 C070331427-00C 13:57   00028 C070331431-00C 13:57
00029 C070331441-00C 13:59   00030 C070331926-00C 23:49

Total: 30


