


SEQUENCE NUMBER 0001   CDC = AC 

Audit for CDC of AC  Last Audit was on 021231 at 001103
Serial# & Seq#  Serial# & Seq#  Serial# & Seq#  Serial# & Seq#
3650308ds 0001  3650001wv 0001  3650002wv 0003  3650004wv 0007  
3650007wv 0009  3650008wv 0011  3650022wv 0018  3650030wv 0029  
3650033wv 0032  3650035wv 0036  3650037wv 0038  3650040wv 0041  
3650039wv 0043  3650041wv 0044  3650052wv 0050  3650060wv 0053  
3650056wv 0055  3650075wv 0073  3650076wv 0079  3650093wv 0093  
3650124wv 0116  3650126wv 0118  3650133wv 0121  3650134wv 0123  
3650135wv 0125  3650136wv 0127  3650141wv 0129  3650140wv 0130  
3650145wv 0134  
Total number of Dig-ups or Emergency 0004
Total number of Short Notices        0002
Total number of Priority Notices     0000
Total number of Routine Notices      0022
Total number of Messages for AC      0028
If this audit does not match your manual tracking 
then call the Call Center and request a retransmission.





SEQUENCE NUMBER 0001   CDC = AK 

Audit for CDC of AK  Last Audit was on 021231 at 001103
Serial# & Seq#  Serial# & Seq#  Serial# & Seq#  Serial# & Seq#
3650309ds 0001  3650104wv 0100  3650105wv 0102  3650107wv 0105  
Total number of Dig-ups or Emergency 0000
Total number of Short Notices        0000
Total number of Priority Notices     0000
Total number of Routine Notices      0003
Total number of Messages for AK      0003
If this audit does not match your manual tracking 
then call the Call Center and request a retransmission.





SEQUENCE NUMBER 0001   CDC = AW 

Audit for CDC of AW  Last Audit was on 021231 at 001103
Serial# & Seq#  Serial# & Seq#  Serial# & Seq#  Serial# & Seq#
3650310ds 0001  3650003wv 0005  3650011wv 0013  3650012wv 0015  
3650019wv 0021  3650021wv 0024  3650029wv 0027  3650031wv 0031  
3650055wv 0046  3650049wv 0048  3650058wv 0059  3650061wv 0061  
3650063wv 0063  3650069wv 0069  3650073wv 0071  3650091wv 0074  
3650080wv 0081  3650088wv 0085  3650089wv 0087  3650090wv 0089  
3650092wv 0091  3650100wv 0096  3650111wv 0113  
Total number of Dig-ups or Emergency 0001
Total number of Short Notices        0002
Total number of Priority Notices     0000
Total number of Routine Notices      0019
Total number of Messages for AW      0022
If this audit does not match your manual tracking 
then call the Call Center and request a retransmission.





SEQUENCE NUMBER 0001   CDC = AX 

Audit for CDC of AX  Last Audit was on 021231 at 001103
Serial# & Seq#  Serial# & Seq#  Serial# & Seq#  Serial# & Seq#
3650311ds 0001  3650036wv 0034  3650038wv 0039  3650068wv 0067  
3650081wv 0083  3650132wv 0119  3650142wv 0132  
Total number of Dig-ups or Emergency 0001
Total number of Short Notices        0000
Total number of Priority Notices     0000
Total number of Routine Notices      0005
Total number of Messages for AX      0006
If this audit does not match your manual tracking 
then call the Call Center and request a retransmission.





SEQUENCE NUMBER 0001   CDC = GAN

Audit for CDC of GAN 
Serial# & Seq#  Serial# & Seq#  Serial# & Seq#  Serial# & Seq#
3650312ds 0001  3650014wv 0017  3650020wv 0022  3650064wv 0065  
3650075wv 0076  3650098wv 0095  3650101wv 0099  3650106wv 0103  
3650110wv 0111  
Total number of Dig-ups or Emergency 0000
Total number of Short Notices        0000
Total number of Priority Notices     0000
Total number of Routine Notices      0008
Total number of Messages for GAN     0008
If this audit does not match your manual tracking 
then call the Call Center and request a retransmission.





SEQUENCE NUMBER 0001   CDC = IN 

Audit for CDC of IN  Last Audit was on 021231 at 001103
Serial# & Seq#  Serial# & Seq#  Serial# & Seq#  Serial# & Seq#
3650313ds 0001  3650025wv 0026  3650054wv 0051  3650057wv 0058  
3650075wv 0077  
Total number of Dig-ups or Emergency 0000
Total number of Short Notices        0000
Total number of Priority Notices     0000
Total number of Routine Notices      0004
Total number of Messages for IN      0004
If this audit does not match your manual tracking 
then call the Call Center and request a retransmission.





SEQUENCE NUMBER 0001   CDC = MPC

Audit for CDC of MPC Last Audit was on 021231 at 001103
Serial# & Seq#  Serial# & Seq#  Serial# & Seq#  Serial# & Seq#
3650314ds 0001  3650002wv 0004  3650004wv 0008  3650007wv 0010  
3650022wv 0019  3650033wv 0033  3650035wv 0037  3650040wv 0042  
3650041wv 0045  3650056wv 0056  3650104wv 0101  3650112wv 0106  
3650113wv 0107  3650114wv 0108  3650116wv 0109  3650107wv 0110  
3650117wv 0115  3650124wv 0117  
Total number of Dig-ups or Emergency 0002
Total number of Short Notices        0006
Total number of Priority Notices     0000
Total number of Routine Notices      0009
Total number of Messages for MPC     0017
If this audit does not match your manual tracking 
then call the Call Center and request a retransmission.





SEQUENCE NUMBER 0001   CDC = MPF

Audit for CDC of MPF Last Audit was on 021231 at 001103
Serial# & Seq#  Serial# & Seq#  Serial# & Seq#  Serial# & Seq#
3650315ds 0001  3650001wv 0002  3650060wv 0054  3650075wv 0078  
3650076wv 0080  3650098wv 0094  3650101wv 0098  3650140wv 0131  
3650145wv 0135  
Total number of Dig-ups or Emergency 0002
Total number of Short Notices        0000
Total number of Priority Notices     0000
Total number of Routine Notices      0006
Total number of Messages for MPF     0008
If this audit does not match your manual tracking 
then call the Call Center and request a retransmission.





SEQUENCE NUMBER 0001   CDC = MPM

Audit for CDC of MPM Last Audit was on 021231 at 001104
Serial# & Seq#  Serial# & Seq#  Serial# & Seq#  Serial# & Seq#
3650316ds 0001  3650011wv 0014  3650055wv 0047  3650049wv 0049  
3650058wv 0060  3650069wv 0070  3650091wv 0075  3650080wv 0082  
3650089wv 0088  
Total number of Dig-ups or Emergency 0001
Total number of Short Notices        0001
Total number of Priority Notices     0000
Total number of Routine Notices      0006
Total number of Messages for MPM     0008
If this audit does not match your manual tracking 
then call the Call Center and request a retransmission.





SEQUENCE NUMBER 0001   CDC = MPP

Audit for CDC of MPP Last Audit was on 021231 at 001104
Serial# & Seq#  Serial# & Seq#  Serial# & Seq#  Serial# & Seq#
3650317ds 0001  3650003wv 0006  3650008wv 0012  3650025wv 0025  
3650030wv 0030  3650054wv 0052  3650057wv 0057  3650061wv 0062  
3650100wv 0097  3650133wv 0122  3650134wv 0124  3650135wv 0126  
3650136wv 0128  
Total number of Dig-ups or Emergency 0000
Total number of Short Notices        0000
Total number of Priority Notices     0000
Total number of Routine Notices      0012
Total number of Messages for MPP     0012
If this audit does not match your manual tracking 
then call the Call Center and request a retransmission.





SEQUENCE NUMBER 0001   CDC = MPW

Audit for CDC of MPW Last Audit was on 021231 at 001104
Serial# & Seq#  Serial# & Seq#  Serial# & Seq#  Serial# & Seq#
3650318ds 0001  3650012wv 0016  3650029wv 0028  3650063wv 0064  
3650073wv 0072  3650088wv 0086  3650090wv 0090  3650092wv 0092  
3650111wv 0114  
Total number of Dig-ups or Emergency 0000
Total number of Short Notices        0001
Total number of Priority Notices     0000
Total number of Routine Notices      0007
Total number of Messages for MPW     0008
If this audit does not match your manual tracking 
then call the Call Center and request a retransmission.





SEQUENCE NUMBER 0001   CDC = PE 

Audit for CDC of PE  Last Audit was on 021231 at 001104
Serial# & Seq#  Serial# & Seq#  Serial# & Seq#  Serial# & Seq#
3650319ds 0001  3650014wv 0020  3650064wv 0066  3650110wv 0112  
Total number of Dig-ups or Emergency 0000
Total number of Short Notices        0000
Total number of Priority Notices     0000
Total number of Routine Notices      0003
Total number of Messages for PE      0003
If this audit does not match your manual tracking 
then call the Call Center and request a retransmission.





SEQUENCE NUMBER 0001   CDC = PEB

Audit for CDC of PEB Last Audit was on 021231 at 001104
Serial# & Seq#  Serial# & Seq#  Serial# & Seq#  Serial# & Seq#
3650320ds 0001  3650020wv 0023  3650036wv 0035  3650038wv 0040  
3650068wv 0068  3650081wv 0084  3650106wv 0104  3650132wv 0120  
3650142wv 0133  
Total number of Dig-ups or Emergency 0001
Total number of Short Notices        0000
Total number of Priority Notices     0000
Total number of Routine Notices      0007
Total number of Messages for PEB     0008
If this audit does not match your manual tracking 
then call the Call Center and request a retransmission.







