
FROM OKOCS
UTILIQUEST/ VALOR TELECOMMUNICATIONS
R09912
AUDIT FOR 10/21/2002

FOR CODE R09912

TYPE  SEQ#  TICKET                    STATUS                                
----  ----  ------------------------  ------------------------------------- 
!     0001  02102107480140            DELIVERED
!     0002  02102108190259            DELIVERED
!     0003  02102110270832            DELIVERED
!     0004  02102113051241            DELIVERED
!     0005  02102115261581            DELIVERED
!     0006  02102117021762            DELIVERED

NORMAL    : 0
RESEND    : 0
EMERGENCY : 6
FAILED    : 0
TOTAL FOR R09912: 6




LEGEND
-----------------------
  - NORMAL
* - RESEND
! - EMERGENCY
+++p
