(TELDIG SYSTEMS ONECALL <GOOD NIGHT> - IDAHO)
THE FOLLOWING MESSAGE NUMBERS WERE TRANSMITTED TO YOU TODAY  04/03/2006
04/12/06     14:46:22  STATION: IDPOCL00

0002-2004051121 EM       0003-2004051128 EM CO    0004-2004051122 2R     
0005-2004051124 2R       0006-2004051143 2R RE    0007-2004051129 2R CO  
0008-2004051125 PL       0009-2004051130 PL CO    0010-2004051144 PL RE  
0011-2004051123 SL       0012-2004051137 SL       0013-2004051133 SL     
0014-2004051138 SL       0015-2004051142 SL UP    0016-2004051139 SL RE  
0017-2004051127 PR       0018-2004051132 PR       0019-2004051141 PR RE  
0020-2004051120 SL CO   
TOTAL = 19

TOTAL BY PRIORITY
EMERGENCY                = 2
2ND REQUEST              = 4
PRIORITY LOCATE          = 3
STANDARD LOCATE          = 7
PRE-DESIGN RQST          = 3

TOTAL BY REQUEST TYPE
REGULAR                  = 10
UPDATE                   = 1
CORRECTION               = 4
RELOCATE                 = 4

EVERYONE HAVE A GOOD DAY

PRIORITY LEGEND                    REQUEST TYPE LEGEND

PRE-DESIGN RQST          PR        RELOCATE                 RE
EMERGENCY                EM        REGULAR                   
UPDATE                   UP        UPDATE                   UP
2ND REQUEST              2R        CORRECTION               CO
PRIORITY LOCATE          PL        CANCEL                   CA
STANDARD LOCATE          SL       
MEET REQUEST             MR

