UTLQST *EOD*A USAS 07/30/02 19:29:54

*****************************************************************************
THIS IS YOUR DAILY AUDIT FOR 07/30/02. IF THERE ARE ANY DISCREPANCIES PLEASE
CALL POLLY, AMBER, SUE, OR ANN AFTER 7AM AT 909-808-8100 ENTER 23 ONCE THE
MESSAGE STARTS.  THANK YOU AND GOOD NIGHT.
*****************************************************************************

00001 A0010229-00A 07:37   00002 A0884580-04A 07:54 R 00003 A0010332-00A 08:22
00004 A0895493-02A 08:28 R 00005 A0707544-15A 08:29 R 00006 A0704045-15A 08:30 R
00007 A0010384-00A 08:38   00008 A0010405-00A 08:45   00009 A0007188-02A 08:46 R
00010 A0892464-03A 08:58 R 00011 A0912210-02A 09:04 R 00012 A0909022-01A 09:21 R
00013 A0010511-00A 09:22   00014 A0010516-00A 09:24   00015 A0010522-00A 09:26
00016 A0010516-01A 09:27 R 00017 A0909381-01A 09:31 R 00018 A0855582-05A 09:31 R
00019 A0786375-10A 09:35 R 00020 A0794118-09A 09:35 R 00021 A0794106-09A 09:35 R
00022 A0716311-16A 09:35 R 00023 A0790707-11A 09:35 R 00024 A0881305-03A 09:35 R
00025 A0881317-03A 09:35 R 00026 A0881332-03A 09:35 R 00027 A0010565-00A 09:38
00028 A0881232-03A 09:38 R 00029 A0866344-05A 09:38 R 00030 A0836382-06A 09:38 R
00031 A0805460-08A 09:38 R 00032 A0010572-00A 09:39   00033 A0807191-08A 09:39 R
00034 A0852618-05A 09:39 R 00035 A0895609-02A 09:39 R 00036 A0780392-10A 09:41 R
00037 A0820853-07A 09:42 R 00038 A0705717-15A 09:50 R 00039 A0010516-03A 09:50 R
00040 A0010605-00A 09:53   00041 A0705662-15A 09:55 R 00042 A0705655-15A 10:00 R
00043 A0010630-00A 10:05   00044 A0748809-14A 10:08 R 00045 A0881332-04A 10:14 R
00046 A0010653-00A 10:15   00047 A0010659-00A 10:18   00048 A0748806-13A 10:28 R
00049 A0813679-08A 10:29 R 00050 A0010692-00A 10:31   00051 A0010692-01A 10:33 C
00052 A0772264-14A 10:47 R 00053 A0772278-16A 10:47 R 00054 A0854170-06A 10:47 R
00055 A0912269-01A 10:48 R 00056 A0912266-02A 10:48 R 00057 A0881023-04A 10:48 R
00058 A0881037-07A 10:49 R 00059 A0840310-09A 10:49 R 00060 A0847498-07A 10:49 R
00061 A0010757-00A 10:58   00062 A0010771-00A 11:05   00063 A0010771-01A 11:07 R
00064 A0911716-02A 11:45 R 00065 A0010904-00A 11:57   00066 A0010981-00A 12:51 R
00067 A0909700-01A 13:42 R 00068 A0909704-01A 13:42 R 00069 A0909708-01A 13:43 R
00070 A0909709-01A 13:43 R 00071 A0011227-00A 13:59 R 00072 A0011302-00A 14:24
00073 A0001735-01A 14:32 R 00074 A0002335-01A 14:32 R 00075 A0006316-04A 14:54 R
00076 A0011376-00A 14:58   00077 A0006316-05A 14:59 R 00078 A0854170-07A 14:59 R
00079 A0002036-01A 16:15 R 00080 A0854170-08A 16:25 R 00081 A0011559-00A 16:35
00082 A0854170-09A 16:39 R 00083 A0731472-15A 16:43 R 00084 A0747185-12A 16:43 R
00085 A0742833-13A 16:44 R 00086 A0795647-11A 16:44 R 00087 A0812808-13A 16:45 R
00088 A0854715-06A 16:57 R 00089 A0852361-05A 16:57 R 00090 A0011582-00A 17:02
00091 A0011588-00A 17:11   00092 A0895519-02A 17:20 R

(R) REVISED    - 00069
(C) CANCEL     - 00001
(S) RESENT     - 00000
(Y) RENOTIFY   - 00000
(U) UNGRIDDED  - 00000
( ) NORMAL     - 00022
    TOTAL      - 00092

