
0
Date/Time :  5-10-06 at 16:17

Oregon One Call
SUMM
DAILY AUDIT OF TICKETS SENT ON 05/10/06

Date/Time: 05/10/2006 04:17:52 PM
Receiving Terminal: TEST03

Seq #   Ticket #    Seq #   Ticket #    Seq #   Ticket #    Seq #   Ticket #    
----- ------------  ----- ------------  ----- ------------  ----- ------------  
   1* 6093150-48HR |   3* 6093152-48HR |   5  6093150-48HR |   7  6093152-48HR |
   2* 6093151-48HR |   4* 6093153-48HR |   6  6093151-48HR |   8  6093153-48HR |

* indicates ticket # is repeated

Total Tickets: 8

48HR - 48 HOUR NOTICE                 |    8


Please call (503) 232-1987 if this data does
not match the tickets you received on 05/10/06


0
Date/Time :  5-11-06 at  0:21

Oregon One Call
SUMM
DAILY AUDIT OF TICKETS SENT ON 05/10/06

Date/Time: 05/11/2006 12:15:03 AM
Receiving Terminal: TEST03

Seq #   Ticket #    Seq #   Ticket #    Seq #   Ticket #    Seq #   Ticket #    
----- ------------  ----- ------------  ----- ------------  ----- ------------  
   1* 6093150-48HR |   3* 6093152-48HR |   5  6093150-48HR |   7  6093152-48HR |
   2* 6093151-48HR |   4* 6093153-48HR |   6  6093151-48HR |   8  6093153-48HR |

* indicates ticket # is repeated

Total Tickets: 8

48HR - 48 HOUR NOTICE                 |    8


Please call (503) 232-1987 if this data does
not match the tickets you received on 05/10/06

