UQ1098 CALL SUNSHINE 05/08/02 23:51:56ET

***************************************************************************
* NOW ENDING TRANSMISSION FOR TODAY - THIS IS YOUR END OF DAY AUDIT       *
* PLEASE VERIFY YOU RECEIVED ALL TKTS - IF ERRORS, PLEASE CALL THE CENTER *
***************************************************************************

00001 12820024-000 07:23   00002 12820030-000 07:23   00003 12820036-000 07:23   
00004 12820040-000 07:23   00005 12820048-000 07:23   00006 12820054-000 07:23   
00007 12820062-000 07:23   00008 12820069-000 07:23   00009 12820076-000 07:40   
00010 12820083-000 07:40   00011 12820092-000 07:40   00012 12820093-000 07:40   
00013 12820100-000 07:40   00014 12820107-000 07:40   00015 12820112-000 07:40   
00016 12820119-000 07:40   00017 12820145-000 07:40   00018 12820116-000 07:56   
00019 12820154-000 07:56   00020 12820344-000 08:12   00021 12820238-000 08:12   
00022 12820280-000 08:12   00023 12820285-000 08:12   00024 12820292-000 08:12   
00025 12820322-000 08:12   00026 12820357-000 08:27   00027 12820360-000 08:27   
00028 12820385-000 08:27   00029 12820395-000 08:27   00030 12820427-000 08:27   
00031 12820453-000 08:27   00032 12820483-000 08:27   00033 12820486-000 08:27   
00034 12820490-000 08:27   00035 12820496-000 08:27   00036 12820503-000 08:35   
00037 12820511-000 08:35   00038 12820513-000 08:35   00039 12820537-000 08:35   
00040 12820545-000 08:35   00041 12820556-000 08:35   00042 12820564-000 08:35   
00043 12820572-000 08:35   00044 12820573-000 08:35   00045 12820578-000 08:35   
00046 12820594-000 08:35   00047 12820668-000 08:42   00048 12820622-000 08:42   
00049 12820624-000 08:42   00050 12820654-000 08:42   00051 12820655-000 08:42   
00052 12820656-000 08:42   00053 12820717-000 08:47   00054 12820677-000 08:47   
00055 12820678-000 08:47   00056 12820686-000 08:47   00057 12820690-000 08:47   
00058 12820695-000 08:47   00059 12820697-000 08:47   00060 12820698-000 08:47   
00061 12620650-001 09:01   00062 12820731-000 09:01   00063 12820746-000 09:01   
00064 12820751-000 09:01   00065 12820781-000 09:01   00066 12820812-000 09:01   
00067 12820834-000 09:01   00068 12820880-000 09:01   00069 12820889-000 09:01   
00070 12820892-000 09:01   00071 12820780-000 09:17   00072 12820912-000 09:17   
00073 12820918-000 09:17   00074 12820919-000 09:17   00075 12821055-000 09:25   
00076 12821063-000 09:25   00077 12821086-000 09:25   00078 12821091-000 09:25   
00079 12821093-000 09:25   00080 12821100-000 09:25   00081 12821101-000 09:25   
00082 12821109-000 09:25   00083 12821112-000 09:26   00084 12821114-000 09:26   
00085 12821119-000 09:26   00086 12321643-001 09:36   00087 12821126-000 09:36   
00088 12821129-000 09:36   00089 12821133-000 09:36   00090 12821146-000 09:36   
00091 12821158-000 09:36   00092 12821168-000 09:36   00093 12821179-000 09:36   
00094 12821182-000 09:36   00095 12821190-000 09:36   00096 12821192-000 09:36   
00097 12821194-000 09:36   00098 12821130-000 09:42   00099 12821201-000 09:42   
00100 12821203-000 09:42   00101 12821208-000 09:42   00102 12821209-000 09:42   
00103 12821215-000 09:42   00104 12821216-000 09:43   00105 12821235-000 09:43   
00106 12821240-000 09:43   00107 12821245-000 09:43   00108 12821256-000 09:59   
00109 12821269-000 09:59   00110 12821271-000 09:59   00111 12821275-000 09:59   
00112 12821323-000 09:59   00113 12821330-000 09:59   00114 12821351-000 09:59   
00115 12821373-000 09:59   00116 12821383-000 09:59   00117 12821405-000 10:13   
00118 12821431-000 10:13   00119 12821436-000 10:13   00120 12821459-000 10:13   
00121 12821461-000 10:13   00122 12821463-000 10:13   00123 12821475-000 10:13   
00124 12821476-000 10:13   00125 12821497-000 10:13   00126 12821509-000 10:13   
00127 11224121-001 10:20   00128 12621281-001 10:20   00129 12821532-000 10:20   
00130 12821537-000 10:20   00131 12821550-000 10:20   00132 12821558-000 10:20   
00133 12821562-000 10:20   00134 12821569-000 10:20   00135 12821574-000 10:20   
00136 12821575-000 10:20   00137 12820224-000 10:25   00138 12821592-000 10:25   
00139 12821599-000 10:25   00140 12821600-000 10:25   00141 12821607-000 10:25   
00142 12821608-000 10:25   00143 12821614-000 10:25   00144 12821619-000 10:25   
00145 12821621-000 10:25   00146 12821628-000 10:25   00147 12821629-000 10:25   
00148 12821724-000 10:36   00149 12820734-000 10:36   00150 12821636-000 10:36   
00151 12821638-000 10:36   00152 12821644-000 10:36   00153 12821657-000 10:36   
00154 12821698-000 10:36   00155 12821725-000 10:36   00156 12821729-000 10:46   
00157 12821732-000 10:46   00158 12821740-000 10:46   00159 12821752-000 10:46   
00160 12821755-000 10:46   00161 12821759-000 10:46   00162 12821775-000 10:46   
00163 12821815-000 10:46   00164 12821824-000 10:46   00165 12821831-000 10:46   
00166 12821834-000 10:46   00167 12821839-000 10:46   00168 12324118-001 10:55   
00169 12821840-000 10:55   00170 12821847-000 10:55   00171 12821860-000 10:55   
00172 12821882-000 10:55   00173 12821896-000 10:55   00174 12821914-000 10:55   




UQ1098 CALL SUNSHINE 05/08/02 23:51:56ET

***************************************************************************
* NOW ENDING TRANSMISSION FOR TODAY - THIS IS YOUR END OF DAY AUDIT       *
* PLEASE VERIFY YOU RECEIVED ALL TKTS - IF ERRORS, PLEASE CALL THE CENTER *
***************************************************************************

00175 12821917-000 10:55   00176 12821929-000 10:55   00177 12821933-000 10:55   
00178 12821947-000 11:06   00179 12821947-001 11:06   00180 12821952-000 11:06   
00181 12821974-000 11:06   00182 12821976-000 11:06   00183 12821979-000 11:06   
00184 12821996-000 11:06   00185 12822006-000 11:06   00186 12822050-000 11:06   
00187 12822064-000 11:06   00188 12822101-000 11:24   00189 12822108-000 11:24   
00190 12822143-000 11:24   00191 12822150-000 11:24   00192 12822161-000 11:24   
00193 12822173-000 11:24   00194 12822213-000 11:24   00195 12822217-000 11:24   
00196 12822229-000 11:24   00197 11524159-002 11:36   00198 12822313-000 11:36   
00199 12822319-000 11:36   00200 12822331-000 11:36   00201 12822334-000 11:36   
00202 12822358-000 11:36   00203 12822366-000 11:36   00204 12822373-000 11:36   
00205 12822377-000 11:36   00206 12822383-000 11:36   00207 12822387-000 11:36   
00208 12822394-000 11:48   00209 12822406-000 11:48   00210 12822407-000 11:48   
00211 12822412-000 11:48   00212 12822413-000 11:48   00213 12822425-000 11:48   
00214 12822437-000 11:48   00215 12822478-000 11:48   00216 12822486-000 11:48   
00217 12822495-000 11:48   00218 12822496-000 11:48   00219 12822497-000 11:48   
00220 12822503-000 11:53   00221 12822504-000 11:53   00222 12822508-000 11:53   
00223 12822518-000 11:53   00224 12822521-000 11:53   00225 12822522-000 11:53   
00226 12822522-001 11:53   00227 12822527-000 11:53   00228 12822539-000 11:53   
00229 12822540-000 11:53   00230 12822545-000 12:02   00231 12822546-000 12:02   
00232 12822547-000 12:02   00233 12822558-000 12:02   00234 12822560-000 12:02   
00235 12822561-000 12:02   00236 12822565-000 12:02   00237 12822574-000 12:02   
00238 12822593-000 12:02   00239 12822603-000 12:02   00240 12822623-000 12:16   
00241 12822639-000 12:16   00242 12822647-000 12:16   00243 12822657-000 12:16   
00244 12822679-000 12:16   00245 12822701-000 12:16   00246 12822703-000 12:16   
00247 12822710-000 12:16   00248 12822711-000 12:16   00249 12822719-000 12:16   
00250 12822721-000 12:16   00251 12822724-000 12:27   00252 12822728-000 12:27   
00253 12822731-000 12:27   00254 12822734-000 12:27   00255 12822737-000 12:27   
00256 12822748-000 12:27   00257 12822754-000 12:27   00258 12822758-000 12:27   
00259 12822773-000 12:28   00260 12822786-000 12:28   00261 12620374-001 12:49   
00262 12620374-002 12:49   00263 12822841-000 12:49   00264 12822857-000 12:49   
00265 12822877-000 12:49   00266 12822899-000 12:49   00267 12822143-001 13:00   
00268 12822229-001 13:00   00269 12822923-000 13:00   00270 12822938-000 13:00   
00271 12822946-000 13:00   00272 12822948-000 13:00   00273 12822959-000 13:00   
00274 12822965-000 13:00   00275 12822968-000 13:00   00276 12822981-000 13:00   
00277 12822173-001 13:09   00278 12822989-000 13:09   00279 12823004-000 13:09   
00280 12823006-000 13:09   00281 12823010-000 13:09   00282 12823012-000 13:09   
00283 12823018-000 13:09   00284 12823020-000 13:09   00285 12823026-000 13:09   
00286 12823031-000 13:09   00287 12823036-000 13:09   00288 12823039-000 13:21   
00289 12823055-000 13:21   00290 12823070-000 13:21   00291 12823071-000 13:21   
00292 12823075-000 13:21   00293 12823083-000 13:21   00294 12823086-000 13:21   
00295 12823095-000 13:21   00296 12823110-000 13:21   00297 12823111-000 13:21   
00298 12823118-000 13:37   00299 12823140-000 13:37   00300 12823157-000 13:37   
00301 12823192-000 13:37   00302 12823221-000 13:37   00303 12823235-000 13:54   
00304 12823278-000 13:54   00305 12823288-000 13:54   00306 12823296-000 13:54   
00307 12823305-000 13:54   00308 12823309-000 13:54   00309 12823347-000 13:54   
00310 12823379-000 14:05   00311 12823414-000 14:05   00312 12823417-000 14:05   
00313 12823418-000 14:05   00314 12823421-000 14:05   00315 12823427-000 14:05   
00316 12823433-000 14:05   00317 12823437-000 14:05   00318 12823447-000 14:05   
00319 12823451-000 14:05   00320 12823453-000 14:06   00321 12823455-000 14:06   
00322 12823458-000 14:06   00323 12823462-000 14:10   00324 12823465-000 14:10   
00325 12823466-000 14:10   00326 12823469-000 14:10   00327 12823471-000 14:10   
00328 12823475-000 14:10   00329 12823480-000 14:10   00330 12823483-000 14:10   
00331 12823485-000 14:10   00332 12823489-000 14:10   00333 12823497-000 14:10   
00334 12823501-000 14:15   00335 12823505-000 14:15   00336 12823508-001 14:15   
00337 12823508-000 14:15   00338 12823510-000 14:15   00339 12823517-000 14:16   
00340 12823521-000 14:16   00341 12823522-000 14:16   00342 12823527-000 14:16   
00343 12823528-000 14:16   00344 12823536-000 14:16   00345 12823543-000 14:27   
00346 12823551-000 14:27   00347 12823554-000 14:27   00348 12823560-000 14:27   




UQ1098 CALL SUNSHINE 05/08/02 23:51:56ET

***************************************************************************
* NOW ENDING TRANSMISSION FOR TODAY - THIS IS YOUR END OF DAY AUDIT       *
* PLEASE VERIFY YOU RECEIVED ALL TKTS - IF ERRORS, PLEASE CALL THE CENTER *
***************************************************************************

00349 12823562-000 14:27   00350 12823566-000 14:27   00351 12823572-000 14:27   
00352 12823574-000 14:27   00353 12823611-000 14:27   00354 12823619-000 14:27   
00355 12823621-000 14:27   00356 12823627-000 14:35   00357 12823633-000 14:35   
00358 12823634-000 14:35   00359 12823638-000 14:35   00360 12823643-000 14:35   
00361 12823645-000 14:35   00362 12823656-000 14:35   00363 12823662-000 14:35   
00364 12823673-000 14:35   00365 12823685-000 14:35   00366 12823617-000 14:39   
00367 12823700-000 14:39   00368 12823704-000 14:40   00369 12823713-000 14:40   
00370 12823718-000 14:40   00371 12823720-000 14:40   00372 12823730-000 14:40   
00373 12823733-000 14:40   00374 12823734-000 14:40   00375 12823737-000 14:40   
00376 12823373-000 14:53   00377 12823745-000 14:53   00378 12823758-000 14:53   
00379 12823766-000 14:53   00380 12823781-000 14:53   00381 12823783-000 14:53   
00382 12823785-000 14:53   00383 12823811-000 14:53   00384 12823850-001 14:53   
00385 12823850-000 14:53   00386 12823891-000 15:05   00387 12823893-000 15:05   
00388 12823897-000 15:05   00389 12823902-000 15:05   00390 12823904-000 15:05   
00391 12823913-000 15:05   00392 12823937-000 15:05   00393 12823940-000 15:05   
00394 12823948-000 15:05   00395 12823961-000 15:05   00396 12823948-001 15:17   
00397 12823972-000 15:17   00398 12823974-000 15:17   00399 12823987-000 15:17   
00400 12823993-000 15:17   00401 12824018-000 15:17   00402 12824023-000 15:17   
00403 12824025-000 15:17   00404 12824033-000 15:17   00405 12824043-000 15:17   
00406 12824051-000 15:17   00407 12824055-000 15:31   00408 12824062-000 15:31   
00409 12824065-000 15:31   00410 12824078-000 15:31   00411 12824085-000 15:31   
00412 12824106-000 15:31   00413 12824117-000 15:31   00414 12824124-000 15:31   
00415 12824132-000 15:31   00416 12824145-000 15:31   00417 12824153-000 15:40   
00418 12824174-000 15:40   00419 12824180-000 15:40   00420 12824181-000 15:40   
00421 12824181-001 15:40   00422 12824188-000 15:40   00423 12824195-000 15:40   
00424 12824201-000 15:40   00425 12824209-000 15:40   00426 12824216-000 15:40   
00427 12824221-000 15:40   00428 12824224-000 15:40   00429 12824246-000 15:59   
00430 12824249-000 15:59   00431 12824250-000 15:59   00432 12824251-000 15:59   
00433 12824265-000 15:59   00434 12824268-000 15:59   00435 12824276-000 15:59   
00436 12824295-000 15:59   00437 12824343-000 15:59   00438 12824351-000 15:59   
00439 12824360-000 16:15   00440 12824360-001 16:15   00441 12824379-000 16:15   
00442 12824389-000 16:15   00443 12824396-000 16:15   00444 12824417-000 16:15   
00445 12824430-000 16:15   00446 12824455-000 16:15   00447 12824473-000 16:15   
00448 12824483-000 16:25   00449 12824489-000 16:25   00450 12824500-000 16:25   
00451 12824506-000 16:26   00452 12824512-000 16:26   00453 12824523-000 16:26   
00454 12824528-000 16:26   00455 12824531-000 16:26   00456 12824538-000 16:26   
00457 12824539-000 16:26   00458 12824338-000 16:40   00459 12824548-000 16:40   
00460 12824550-000 16:40   00461 12824554-000 16:40   00462 12824568-000 16:40   
00463 12824575-000 16:40   00464 12824588-000 16:40   00465 12824598-000 16:40   
00466 12824601-000 16:40   00467 12824624-000 16:40   00468 11622294-001 16:56   
00469 12823477-000 16:56   00470 12824574-000 16:56   00471 12824630-000 16:56   
00472 12824653-000 16:56   00473 12824658-000 16:56   00474 12824667-000 16:56   
00475 12824702-000 16:56   00476 12824724-000 17:13   00477 12824727-000 17:13   
00478 12824730-000 17:13   00479 12824732-000 17:13   00480 12824736-000 17:13   
00481 12824737-000 17:13   00482 12824739-000 17:13   00483 12824740-000 17:13   
00484 12824741-000 17:13   00485 12824744-000 17:13   00486 12824745-000 17:13   
00487 12824747-000 17:18   00488 12824748-000 17:18   00489 12824749-000 17:18   
00490 12824750-000 17:18   00491 12824751-000 17:18   00492 12824752-000 17:18   
00493 12824753-000 17:18   00494 12824755-000 17:18   00495 12824757-000 17:18   
00496 12824758-000 17:18   00497 12824761-000 17:31   00498 12824762-000 17:31   
00499 12824764-000 17:31   00500 12824767-000 17:31   00501 12824772-000 17:31   
00502 12824774-000 17:31   00503 12824777-000 17:31   00504 12824779-000 17:31   
00505 12824780-000 17:31   00506 12824781-000 17:31   00507 12824782-000 17:47   
00508 12824786-000 17:47   00509 12824788-000 17:47   00510 12824789-000 17:47   
00511 12824790-000 17:47   00512 12824792-000 17:47   

Total: 512




AC1105 CALL SUNSHINE 05/08/02 23:52:00ET

***************************************************************************
* NOW ENDING TRANSMISSION FOR TODAY - THIS IS YOUR END OF DAY AUDIT       *
* PLEASE VERIFY YOU RECEIVED ALL TKTS - IF ERRORS, PLEASE CALL THE CENTER *
***************************************************************************

00001 12820024-000 07:23   00002 12820030-000 07:23   00003 12820036-000 07:23   
00004 12820040-000 07:23   00005 12820048-000 07:23   00006 12820054-000 07:23   
00007 12820062-000 07:23   00008 12820069-000 07:23   00009 12820076-000 07:40   
00010 12820083-000 07:40   00011 12820092-000 07:40   00012 12820093-000 07:40   
00013 12820100-000 07:40   00014 12820107-000 07:40   00015 12820112-000 07:40   
00016 12820119-000 07:40   00017 12820145-000 07:40   00019 12820154-000 07:56   
00020 12820344-000 08:12   00021 12820238-000 08:12   00022 12820280-000 08:12   
00023 12820285-000 08:12   00025 12820322-000 08:12   00026 12820357-000 08:27   
00027 12820360-000 08:27   00028 12820385-000 08:27   00029 12820395-000 08:27   
00030 12820427-000 08:27   00031 12820453-000 08:27   00032 12820483-000 08:27   
00033 12820486-000 08:27   00034 12820490-000 08:27   00035 12820496-000 08:27   
00036 12820503-000 08:35   00038 12820513-000 08:35   00039 12820537-000 08:35   
00040 12820545-000 08:35   00041 12820556-000 08:35   00042 12820564-000 08:35   
00043 12820572-000 08:35   00044 12820573-000 08:35   00045 12820578-000 08:35   
00046 12820594-000 08:35   00047 12820668-000 08:42   00048 12820622-000 08:42   
00050 12820654-000 08:42   00052 12820656-000 08:42   00053 12820717-000 08:47   
00055 12820678-000 08:47   00056 12820686-000 08:47   00057 12820690-000 08:47   
00058 12820695-000 08:47   00061 12620650-001 09:01   00062 12820731-000 09:01   
00063 12820746-000 09:01   00066 12820812-000 09:01   00069 12820889-000 09:01   
00070 12820892-000 09:01   00072 12820912-000 09:17   00073 12820918-000 09:17   
00074 12820919-000 09:17   00075 12821055-000 09:25   00076 12821063-000 09:25   
00077 12821086-000 09:25   00079 12821093-000 09:25   00080 12821100-000 09:25   
00081 12821101-000 09:25   00082 12821109-000 09:25   00083 12821112-000 09:26   
00084 12821114-000 09:26   00085 12821119-000 09:26   00086 12321643-001 09:36   
00087 12821126-000 09:36   00088 12821129-000 09:36   00089 12821133-000 09:36   
00090 12821146-000 09:36   00091 12821158-000 09:36   00092 12821168-000 09:36   
00093 12821179-000 09:36   00094 12821182-000 09:36   00095 12821190-000 09:36   
00096 12821192-000 09:36   00098 12821130-000 09:42   00099 12821201-000 09:42   
00100 12821203-000 09:42   00101 12821208-000 09:42   00103 12821215-000 09:42   
00104 12821216-000 09:43   00105 12821235-000 09:43   00107 12821245-000 09:43   
00108 12821256-000 09:59   00109 12821269-000 09:59   00110 12821271-000 09:59   
00111 12821275-000 09:59   00112 12821323-000 09:59   00113 12821330-000 09:59   
00114 12821351-000 09:59   00115 12821373-000 09:59   00116 12821383-000 09:59   
00117 12821405-000 10:13   00119 12821436-000 10:13   00120 12821459-000 10:13   
00122 12821463-000 10:13   00123 12821475-000 10:13   00124 12821476-000 10:13   
00126 12821509-000 10:13   00127 11224121-001 10:20   00128 12621281-001 10:20   
00130 12821537-000 10:20   00131 12821550-000 10:20   00133 12821562-000 10:20   
00134 12821569-000 10:20   00136 12821575-000 10:20   00137 12820224-000 10:25   
00138 12821592-000 10:25   00141 12821607-000 10:25   00142 12821608-000 10:25   
00143 12821614-000 10:25   00145 12821621-000 10:25   00146 12821628-000 10:25   
00147 12821629-000 10:25   00148 12821724-000 10:36   00150 12821636-000 10:36   
00151 12821638-000 10:36   00152 12821644-000 10:36   00153 12821657-000 10:36   
00154 12821698-000 10:36   00155 12821725-000 10:36   00156 12821729-000 10:46   
00157 12821732-000 10:46   00159 12821752-000 10:46   00160 12821755-000 10:46   
00161 12821759-000 10:46   00162 12821775-000 10:46   00163 12821815-000 10:46   
00164 12821824-000 10:46   00165 12821831-000 10:46   00166 12821834-000 10:46   
00167 12821839-000 10:46   00168 12324118-001 10:55   00169 12821840-000 10:55   
00170 12821847-000 10:55   00171 12821860-000 10:55   00172 12821882-000 10:55   
00173 12821896-000 10:55   00174 12821914-000 10:55   00175 12821917-000 10:55   
00176 12821929-000 10:55   00177 12821933-000 10:55   00178 12821947-000 11:06   
00179 12821947-001 11:06   00182 12821976-000 11:06   00183 12821979-000 11:06   
00184 12821996-000 11:06   00186 12822050-000 11:06   00187 12822064-000 11:06   
00188 12822101-000 11:24   00190 12822143-000 11:24   00191 12822150-000 11:24   
00192 12822161-000 11:24   00193 12822173-000 11:24   00194 12822213-000 11:24   
00196 12822229-000 11:24   00197 11524159-002 11:36   00198 12822313-000 11:36   
00199 12822319-000 11:36   00200 12822331-000 11:36   00202 12822358-000 11:36   
00204 12822373-000 11:36   00205 12822377-000 11:36   00206 12822383-000 11:36   
00207 12822387-000 11:36   00208 12822394-000 11:48   00209 12822406-000 11:48   




AC1105 CALL SUNSHINE 05/08/02 23:52:00ET

***************************************************************************
* NOW ENDING TRANSMISSION FOR TODAY - THIS IS YOUR END OF DAY AUDIT       *
* PLEASE VERIFY YOU RECEIVED ALL TKTS - IF ERRORS, PLEASE CALL THE CENTER *
***************************************************************************

00210 12822407-000 11:48   00211 12822412-000 11:48   00212 12822413-000 11:48   
00213 12822425-000 11:48   00214 12822437-000 11:48   00218 12822496-000 11:48   
00220 12822503-000 11:53   00224 12822521-000 11:53   00229 12822540-000 11:53   
00231 12822546-000 12:02   00233 12822558-000 12:02   00234 12822560-000 12:02   
00238 12822593-000 12:02   00242 12822647-000 12:16   00244 12822679-000 12:16   
00245 12822701-000 12:16   00246 12822703-000 12:16   00248 12822711-000 12:16   
00249 12822719-000 12:16   00250 12822721-000 12:16   00251 12822724-000 12:27   
00252 12822728-000 12:27   00254 12822734-000 12:27   00255 12822737-000 12:27   
00256 12822748-000 12:27   00257 12822754-000 12:27   00263 12822841-000 12:49   
00264 12822857-000 12:49   00266 12822899-000 12:49   00267 12822143-001 13:00   
00268 12822229-001 13:00   00270 12822938-000 13:00   00272 12822948-000 13:00   
00274 12822965-000 13:00   00275 12822968-000 13:00   00277 12822173-001 13:09   
00278 12822989-000 13:09   00279 12823004-000 13:09   00280 12823006-000 13:09   
00281 12823010-000 13:09   00282 12823012-000 13:09   00283 12823018-000 13:09   
00284 12823020-000 13:09   00285 12823026-000 13:09   00286 12823031-000 13:09   
00287 12823036-000 13:09   00288 12823039-000 13:21   00290 12823070-000 13:21   
00292 12823075-000 13:21   00294 12823086-000 13:21   00296 12823110-000 13:21   
00300 12823157-000 13:37   00301 12823192-000 13:37   00302 12823221-000 13:37   
00304 12823278-000 13:54   00305 12823288-000 13:54   00306 12823296-000 13:54   
00307 12823305-000 13:54   00308 12823309-000 13:54   00309 12823347-000 13:54   
00310 12823379-000 14:05   00312 12823417-000 14:05   00313 12823418-000 14:05   
00314 12823421-000 14:05   00315 12823427-000 14:05   00316 12823433-000 14:05   
00317 12823437-000 14:05   00318 12823447-000 14:05   00320 12823453-000 14:06   
00321 12823455-000 14:06   00322 12823458-000 14:06   00324 12823465-000 14:10   
00325 12823466-000 14:10   00326 12823469-000 14:10   00327 12823471-000 14:10   
00328 12823475-000 14:10   00329 12823480-000 14:10   00331 12823485-000 14:10   
00332 12823489-000 14:10   00333 12823497-000 14:10   00334 12823501-000 14:15   
00335 12823505-000 14:15   00336 12823508-001 14:15   00337 12823508-000 14:15   
00338 12823510-000 14:15   00340 12823521-000 14:16   00341 12823522-000 14:16   
00342 12823527-000 14:16   00343 12823528-000 14:16   00344 12823536-000 14:16   
00345 12823543-000 14:27   00347 12823554-000 14:27   00348 12823560-000 14:27   
00349 12823562-000 14:27   00350 12823566-000 14:27   00351 12823572-000 14:27   
00352 12823574-000 14:27   00353 12823611-000 14:27   00354 12823619-000 14:27   
00355 12823621-000 14:27   00356 12823627-000 14:35   00357 12823633-000 14:35   
00358 12823634-000 14:35   00359 12823638-000 14:35   00360 12823643-000 14:35   
00361 12823645-000 14:35   00362 12823656-000 14:35   00363 12823662-000 14:35   
00364 12823673-000 14:35   00365 12823685-000 14:35   00367 12823700-000 14:39   
00368 12823704-000 14:40   00369 12823713-000 14:40   00370 12823718-000 14:40   
00371 12823720-000 14:40   00372 12823730-000 14:40   00373 12823733-000 14:40   
00374 12823734-000 14:40   00375 12823737-000 14:40   00377 12823745-000 14:53   
00378 12823758-000 14:53   00379 12823766-000 14:53   00380 12823781-000 14:53   
00381 12823783-000 14:53   00383 12823811-000 14:53   00384 12823850-001 14:53   
00385 12823850-000 14:53   00386 12823891-000 15:05   00387 12823893-000 15:05   
00388 12823897-000 15:05   00389 12823902-000 15:05   00390 12823904-000 15:05   
00391 12823913-000 15:05   00392 12823937-000 15:05   00393 12823940-000 15:05   
00397 12823972-000 15:17   00398 12823974-000 15:17   00399 12823987-000 15:17   
00400 12823993-000 15:17   00401 12824018-000 15:17   00402 12824023-000 15:17   
00403 12824025-000 15:17   00404 12824033-000 15:17   00405 12824043-000 15:17   
00406 12824051-000 15:17   00407 12824055-000 15:31   00408 12824062-000 15:31   
00409 12824065-000 15:31   00410 12824078-000 15:31   00411 12824085-000 15:31   
00412 12824106-000 15:31   00413 12824117-000 15:31   00414 12824124-000 15:31   
00416 12824145-000 15:31   00418 12824174-000 15:40   00419 12824180-000 15:40   
00420 12824181-000 15:40   00421 12824181-001 15:40   00422 12824188-000 15:40   
00423 12824195-000 15:40   00425 12824209-000 15:40   00427 12824221-000 15:40   
00428 12824224-000 15:40   00430 12824249-000 15:59   00431 12824250-000 15:59   
00433 12824265-000 15:59   00435 12824276-000 15:59   00436 12824295-000 15:59   
00437 12824343-000 15:59   00438 12824351-000 15:59   00439 12824360-000 16:15   
00440 12824360-001 16:15   00442 12824389-000 16:15   00443 12824396-000 16:15   




AC1105 CALL SUNSHINE 05/08/02 23:52:00ET

***************************************************************************
* NOW ENDING TRANSMISSION FOR TODAY - THIS IS YOUR END OF DAY AUDIT       *
* PLEASE VERIFY YOU RECEIVED ALL TKTS - IF ERRORS, PLEASE CALL THE CENTER *
***************************************************************************

00444 12824417-000 16:15   00445 12824430-000 16:15   00446 12824455-000 16:15   
00447 12824473-000 16:15   00448 12824483-000 16:25   00450 12824500-000 16:25   
00456 12824538-000 16:26   00459 12824548-000 16:40   00461 12824554-000 16:40   
00462 12824568-000 16:40   00466 12824601-000 16:40   00467 12824624-000 16:40   
00468 11622294-001 16:56   00469 12823477-000 16:56   00472 12824653-000 16:56   
00474 12824667-000 16:56   00476 12824724-000 17:13   00477 12824727-000 17:13   
00478 12824730-000 17:13   00479 12824732-000 17:13   00480 12824736-000 17:13   
00481 12824737-000 17:13   00482 12824739-000 17:13   00483 12824740-000 17:13   
00484 12824741-000 17:13   00485 12824744-000 17:13   00486 12824745-000 17:13   
00487 12824747-000 17:18   00488 12824748-000 17:18   00489 12824749-000 17:18   
00490 12824750-000 17:18   00491 12824751-000 17:18   00492 12824752-000 17:18   
00493 12824753-000 17:18   00494 12824755-000 17:18   00495 12824757-000 17:18   
00496 12824758-000 17:18   00497 12824761-000 17:31   00498 12824762-000 17:31   
00499 12824764-000 17:31   00500 12824767-000 17:31   00501 12824772-000 17:31   
00502 12824774-000 17:31   00503 12824777-000 17:31   00504 12824779-000 17:31   
00505 12824780-000 17:31   00506 12824781-000 17:31   00507 12824782-000 17:47   
00508 12824786-000 17:47   00509 12824788-000 17:47   00510 12824789-000 17:47   
00511 12824790-000 17:47   00512 12824792-000 17:47   

Total: 401




AC1107 CALL SUNSHINE 05/08/02 23:52:03ET

***************************************************************************
* NOW ENDING TRANSMISSION FOR TODAY - THIS IS YOUR END OF DAY AUDIT       *
* PLEASE VERIFY YOU RECEIVED ALL TKTS - IF ERRORS, PLEASE CALL THE CENTER *
***************************************************************************

00018 12820116-000 07:56   00051 12820655-000 08:42   00071 12820780-000 09:17   
00097 12821194-000 09:36   00102 12821209-000 09:42   00121 12821461-000 10:13   
00125 12821497-000 10:13   00129 12821532-000 10:20   00132 12821558-000 10:20   
00149 12820734-000 10:36   00158 12821740-000 10:46   00180 12821952-000 11:06   
00181 12821974-000 11:06   00189 12822108-000 11:24   00232 12822547-000 12:02   
00235 12822561-000 12:02   00239 12822603-000 12:02   00240 12822623-000 12:16   
00241 12822639-000 12:16   00243 12822657-000 12:16   00258 12822758-000 12:27   
00259 12822773-000 12:28   00260 12822786-000 12:28   00271 12822946-000 13:00   
00273 12822959-000 13:00   00289 12823055-000 13:21   00291 12823071-000 13:21   
00293 12823083-000 13:21   00295 12823095-000 13:21   00297 12823111-000 13:21   
00299 12823140-000 13:37   00330 12823483-000 14:10   00339 12823517-000 14:16   
00376 12823373-000 14:53   00382 12823785-000 14:53   00449 12824489-000 16:25   
00451 12824506-000 16:26   00452 12824512-000 16:26   00453 12824523-000 16:26   
00454 12824528-000 16:26   00457 12824539-000 16:26   00460 12824550-000 16:40   
00463 12824575-000 16:40   00464 12824588-000 16:40   00465 12824598-000 16:40   
00471 12824630-000 16:56   

Total: 46




AC1110 CALL SUNSHINE 05/08/02 23:52:04ET

***************************************************************************
* NOW ENDING TRANSMISSION FOR TODAY - THIS IS YOUR END OF DAY AUDIT       *
* PLEASE VERIFY YOU RECEIVED ALL TKTS - IF ERRORS, PLEASE CALL THE CENTER *
***************************************************************************

00024 12820292-000 08:12   00037 12820511-000 08:35   00049 12820624-000 08:42   
00054 12820677-000 08:47   00060 12820698-000 08:47   00068 12820880-000 09:01   
00078 12821091-000 09:25   00106 12821240-000 09:43   00118 12821431-000 10:13   
00139 12821599-000 10:25   00140 12821600-000 10:25   00144 12821619-000 10:25   
00185 12822006-000 11:06   00195 12822217-000 11:24   00215 12822478-000 11:48   
00216 12822486-000 11:48   00217 12822495-000 11:48   00221 12822504-000 11:53   
00223 12822518-000 11:53   00225 12822522-000 11:53   00226 12822522-001 11:53   
00227 12822527-000 11:53   00228 12822539-000 11:53   00230 12822545-000 12:02   
00236 12822565-000 12:02   00237 12822574-000 12:02   00247 12822710-000 12:16   
00253 12822731-000 12:27   00261 12620374-001 12:49   00262 12620374-002 12:49   
00265 12822877-000 12:49   00269 12822923-000 13:00   00276 12822981-000 13:00   
00311 12823414-000 14:05   00319 12823451-000 14:05   00323 12823462-000 14:10   
00346 12823551-000 14:27   00394 12823948-000 15:05   00395 12823961-000 15:05   
00396 12823948-001 15:17   00415 12824132-000 15:31   00417 12824153-000 15:40   
00424 12824201-000 15:40   00426 12824216-000 15:40   00429 12824246-000 15:59   
00432 12824251-000 15:59   00434 12824268-000 15:59   00441 12824379-000 16:15   
00455 12824531-000 16:26   00473 12824658-000 16:56   00475 12824702-000 16:56   

Total: 51




WBTV01 CALL SUNSHINE 05/08/02 23:52:04ET

***************************************************************************
* NOW ENDING TRANSMISSION FOR TODAY - THIS IS YOUR END OF DAY AUDIT       *
* PLEASE VERIFY YOU RECEIVED ALL TKTS - IF ERRORS, PLEASE CALL THE CENTER *
***************************************************************************

00059 12820697-000 08:47   00064 12820751-000 09:01   00065 12820781-000 09:01   
00067 12820834-000 09:01   00135 12821574-000 10:20   00201 12822334-000 11:36   
00203 12822366-000 11:36   00219 12822497-000 11:48   00222 12822508-000 11:53   
00298 12823118-000 13:37   00303 12823235-000 13:54   00366 12823617-000 14:39   
00458 12824338-000 16:40   00470 12824574-000 16:56   

Total: 14




AC1105 CALL SUNSHINE 07/02/02 00:17:53ET

***************************************************************************
* NOW ENDING TRANSMISSION FOR TODAY - THIS IS YOUR END OF DAY AUDIT       *
* PLEASE VERIFY YOU RECEIVED ALL TKTS - IF ERRORS, PLEASE CALL THE CENTER *
***************************************************************************

00001 18220045-000 07:12   00008 18220068-000 07:22   00011 18220078-000 07:22   
00013 18220080-000 07:22   00015 18220114-000 07:31   00016 18220087-000 07:31   
00017 18220098-000 07:31   00018 18220106-000 07:31   00019 18220116-000 07:31   
00021 18220122-000 07:37   00022 18220124-000 07:37   00024 18220133-000 07:37   
00026 18220138-000 07:37   00028 18220231-000 07:48   00031 18220189-000 07:48   
00035 18220215-000 07:48   00037 18220224-000 07:49   00039 18220237-000 07:49   
00046 18220274-000 07:58   00051 18220312-000 07:58   00055 18220369-000 08:11   
00056 18220382-000 08:11   00057 18220385-000 08:11   00059 18220408-000 08:11   
00060 18220412-000 08:11   00061 18220419-000 08:11   00062 18220335-000 08:18   
00063 18220426-000 08:18   00064 18220432-000 08:18   00065 18220443-000 08:18   
00067 18220457-000 08:18   00069 18220479-000 08:18   00074 18220514-000 08:25   
00075 18220523-000 08:25   00076 18220526-000 08:25   00079 18220544-000 08:25   
00081 18220561-000 08:25   00083 18220569-000 08:32   00085 18220580-000 08:32   
00087 18220592-000 08:32   00089 18220613-000 08:32   00090 18220617-000 08:32   
00091 18220629-000 08:32   00093 18220586-000 08:36   00094 18220641-000 08:36   
00097 18220656-000 08:36   00098 18220665-000 08:36   00100 18220672-000 08:36   
00101 18220676-000 08:36   00102 18220680-000 08:36   00105 18220685-000 08:36   
00106 18220689-000 08:36   00107 18220696-000 08:39   00108 18220702-000 08:39   
00109 18220703-000 08:39   00110 18220705-000 08:39   00111 18220709-000 08:39   
00113 18220715-000 08:39   00114 18220721-000 08:39   00115 18220722-000 08:42   
00117 18220732-000 08:42   00118 17020547-001 08:42   00119 18220738-000 08:42   
00121 18220743-000 08:42   00122 18220744-000 08:42   00124 18220753-000 08:42   
00126 18220757-000 08:42   00127 18220763-000 08:42   00128 18220774-000 08:46   
00130 18220781-000 08:46   00131 18220784-000 08:46   00133 18220792-000 08:46   
00134 18220807-000 08:46   00136 18220815-000 08:46   00137 18220822-000 08:46   
00140 18220836-000 08:46   00141 18220839-000 08:52   00144 18220846-000 08:52   
00146 18220862-000 08:52   00147 18220875-000 08:52   00148 18220885-000 08:52   
00149 18220890-000 08:52   00152 18220902-000 08:55   00155 18220915-000 08:55   
00156 18220920-000 08:55   00157 18220922-000 08:55   00158 18220928-000 08:55   
00159 18220929-000 09:00   00162 18220943-000 09:00   00164 18220959-000 09:00   
00165 18220962-000 09:00   00168 18220975-000 09:00   00171 18221004-000 09:02   
00172 17122837-002 09:02   00173 18220987-000 09:02   00174 18220992-000 09:02   
00176 18220996-000 09:02   00177 18221008-000 09:02   00181 18221030-000 09:08   
00184 18221037-000 09:08   00185 18221037-001 09:08   00186 18221049-000 09:08   
00187 18221061-000 09:08   00188 18221066-000 09:08   00191 18221084-000 09:14   
00194 18221101-000 09:16   00195 18221109-000 09:16   00197 18221127-000 09:16   
00198 18221130-000 09:16   00201 18221149-000 09:16   00204 18220833-000 09:21   
00205 18221049-001 09:21   00208 18221174-000 09:21   00214 18221101-001 09:26   
00220 18221229-000 09:26   00224 18220715-000 09:36   00225 18220722-000 09:36   
00227 18221250-000 09:36   00230 18221279-000 09:36   00235 18221334-000 09:36   
00237 17723988-001 09:42   00238 17723988-002 09:42   00239 18221343-000 09:42   
00241 18221359-000 09:42   00242 18221361-000 09:42   00243 18221368-000 09:42   
00247 18221390-000 09:47   00249 18221400-000 09:47   00251 18221410-000 09:47   
00252 18221412-000 09:47   00253 18221415-000 09:47   00254 18221428-000 09:47   
00255 18221429-000 09:47   00256 18221430-000 09:47   00257 18221439-000 09:54   
00258 18221447-000 09:54   00259 18221448-000 09:54   00261 18221454-000 09:54   
00262 18221457-000 09:54   00263 18221461-000 09:54   00264 18221475-000 09:54   
00265 18221482-000 09:54   00267 18221491-000 09:54   00269 18221461-001 10:01   
00271 18221505-000 10:01   00272 18221510-000 10:01   00273 18221533-000 10:01   
00274 18221535-000 10:01   00275 18221548-000 10:01   00277 18221556-000 10:01   
00278 18221561-000 10:01   00280 18221569-000 10:07   00282 18221586-000 10:07   
00284 18221604-000 10:07   00287 18221619-000 10:07   00291 18221682-000 10:12   
00297 18221642-000 10:12   00298 18221663-000 10:12   00302 18221679-000 10:12   
00303 18221680-000 10:12   00305 18221695-000 10:20   00306 18221697-000 10:20   
00309 18221712-000 10:20   00311 18221730-000 10:20   00313 18221738-000 10:20   
00314 18221739-000 10:20   00315 18221748-000 10:20   00316 18221758-000 10:20   
00317 18221778-000 10:30   00321 18221824-000 10:30   00324 18221855-000 10:30   
00325 18221856-000 10:30   00327 18221870-000 10:36   00328 18221879-000 10:36   




AC1105 CALL SUNSHINE 07/02/02 00:17:53ET

***************************************************************************
* NOW ENDING TRANSMISSION FOR TODAY - THIS IS YOUR END OF DAY AUDIT       *
* PLEASE VERIFY YOU RECEIVED ALL TKTS - IF ERRORS, PLEASE CALL THE CENTER *
***************************************************************************

00333 18221911-000 10:36   00335 18221930-000 10:36   00349 18222024-000 10:50   
00356 18222080-000 10:50   00368 18222135-000 10:55   00379 18222215-000 11:02   
00382 18222240-000 11:09   00383 18222243-000 11:09   00384 18222258-000 11:09   
00386 18222267-000 11:09   00388 18222279-000 11:09   00389 18222291-000 11:09   
00391 18222297-000 11:09   00392 18222300-000 11:09   00394 18222404-000 11:20   
00398 18222332-000 11:20   00402 18222396-000 11:20   00403 18222407-000 11:20   
00404 18222429-000 11:23   00405 18222168-000 11:23   00406 18222419-000 11:23   
00407 18222495-000 11:32   00409 18222444-000 11:32   00410 18222445-000 11:32   
00411 18222445-001 11:32   00412 18222450-000 11:32   00413 18222460-000 11:32   
00415 18222477-000 11:32   00416 18222477-001 11:32   00417 18222444-001 11:42   
00418 18222510-000 11:42   00420 18222532-000 11:42   00421 18222538-000 11:42   
00423 18222552-000 11:42   00424 18222557-000 11:42   00425 18222562-000 11:42   
00426 18222566-000 11:42   00428 18222573-000 11:45   00429 18222582-000 11:45   
00430 18222583-000 11:45   00431 18222584-000 11:45   00432 18222586-000 11:45   
00433 18222587-000 11:45   00434 18222590-000 11:45   00436 18222592-000 11:45   
00437 18222596-000 11:53   00438 18222596-001 11:53   00440 18222606-000 11:53   
00441 18222609-000 11:53   00442 18222611-000 11:53   00443 18222618-000 11:53   
00448 18222660-000 12:02   00449 18222667-000 12:02   00451 18222669-000 12:02   
00454 18222680-000 12:02   00457 18222690-000 12:03   00459 18222693-000 12:03   
00461 18222700-000 12:03   00463 18222703-000 12:03   00465 18222709-000 12:03   
00466 18222711-000 12:03   00467 18222716-000 12:03   00469 18222723-000 12:16   
00473 18222742-000 12:16   00474 18222759-000 12:16   00475 18222768-000 12:16   
00478 18222784-000 12:16   00481 18222796-000 12:22   00482 18222797-000 12:22   
00483 18222799-000 12:22   00487 18222818-000 12:22   00488 18222822-000 12:22   
00489 18222510-001 12:40   00490 18222838-000 12:40   00491 18222858-000 12:40   
00492 18222870-000 12:40   00493 18222891-000 12:40   00494 18222893-000 12:40   
00496 18222927-000 12:40   00498 18222563-000 12:46   00499 18222939-000 12:46   
00500 18222943-000 12:46   00501 18222949-000 12:46   00503 18222953-000 12:46   
00504 18222954-000 12:46   00505 18222958-000 12:46   00506 18222966-000 12:46   
00507 17723096-001 12:55   00508 18222974-000 12:55   00509 18222979-000 12:55   
00510 18222980-000 12:55   00511 18222987-000 12:55   00512 18222990-000 12:55   
00513 18222997-000 12:55   00514 18222998-000 12:55   00515 18222999-000 12:55   
00517 18223005-000 12:55   00518 18223006-000 12:55   00519 18223011-000 12:55   
00520 18223013-000 12:55   00521 18223014-000 12:55   00523 18223019-000 13:03   
00524 18223020-000 13:03   00527 18223029-000 13:03   00532 18223059-000 13:14   
00533 18223060-000 13:14   00534 18223065-000 13:14   00537 18223073-000 13:14   
00543 18221885-000 13:26   00544 18222406-000 13:26   00545 18222968-000 13:26   
00550 18223127-000 13:26   00553 18223169-000 13:37   00556 18223209-000 13:37   
00558 18223223-000 13:37   00559 18223229-000 13:49   00561 18223243-000 13:49   
00563 18223253-000 13:49   00564 18223269-000 13:49   00565 18223277-000 13:49   
00566 18223286-000 13:49   00567 18223289-000 13:49   00568 18223292-000 13:49   
00570 18223302-000 13:56   00571 18223303-000 13:56   00572 18223310-000 13:56   
00573 18223311-000 13:56   00574 18223316-000 13:56   00575 18223324-000 13:56   
00577 18223333-000 13:56   00578 18223336-000 13:56   00579 18223345-000 13:56   
00581 18223353-000 14:09   00582 18223359-000 14:09   00584 18223364-000 14:09   
00586 18223409-000 14:09   00587 18223415-000 14:09   00592 18223449-000 14:17   
00594 18223465-000 14:17   00595 18223468-000 14:17   00612 18223583-000 14:39   
00617 18223630-000 14:39   00618 18223635-000 14:39   00619 18223644-000 14:39   
00624 18223707-000 14:52   00628 18223727-000 14:52   00630 18223739-000 14:52   
00633 18222495-001 14:58   00634 18223763-000 14:58   00636 18223771-000 14:58   
00637 18223775-000 14:58   00645 18223818-000 15:08   00653 18223892-000 15:08   
00654 18223893-000 15:08   00661 18223945-000 15:26   00664 18223982-000 15:26   
00665 18223986-000 15:26   00666 18223994-000 15:26   00671 18224023-000 15:37   
00674 18224034-000 15:37   00676 18224046-000 15:37   00677 18224071-000 15:37   
00678 18224075-000 15:37   00679 18224078-000 15:50   00684 18224108-000 15:50   
00687 18224136-000 15:50   00690 18224159-000 15:50   00694 18224173-000 15:55   
00698 18224181-000 15:55   00702 18224203-000 16:02   00714 18221101-001 16:06   
00717 16824381-001 16:06   00721 18224279-000 16:06   00724 18224285-000 16:06   




AC1105 CALL SUNSHINE 07/02/02 00:17:53ET

***************************************************************************
* NOW ENDING TRANSMISSION FOR TODAY - THIS IS YOUR END OF DAY AUDIT       *
* PLEASE VERIFY YOU RECEIVED ALL TKTS - IF ERRORS, PLEASE CALL THE CENTER *
***************************************************************************

00725 18224290-000 16:12   00726 18224302-000 16:12   00727 18224303-000 16:12   
00729 18224314-000 16:12   00730 18224315-000 16:12   00731 18224318-000 16:12   
00736 18224338-000 16:17   00737 18224343-000 16:17   00738 18224344-000 16:17   
00741 18224351-000 16:17   00744 18224358-000 16:17   00745 18224359-000 16:17   
00746 18224343-001 16:22   00747 18224351-001 16:22   00748 18224358-001 16:22   
00750 18224369-000 16:22   00758 18224403-000 16:29   00760 18224410-000 16:29   
00761 18224419-000 16:29   00763 18224424-000 16:29   00764 18224434-000 16:29   
00765 18224438-000 16:29   00768 18224442-000 16:36   00769 18224446-000 16:36   
00771 18224453-000 16:36   00772 18224458-000 16:36   00774 18224466-000 16:36   
00775 18224473-000 16:36   00777 18224476-000 16:42   00778 18224480-000 16:42   
00779 18224482-000 16:42   00782 18224527-000 16:47   00785 18224525-000 16:47   
00790 18224558-000 17:04   00792 18224573-000 17:20   00793 18224581-000 17:20   
00794 18224586-000 17:20   00796 18224451-000 17:47   

Total: 386


