Summary of tickets sent to CO - UTILIQUEST - DENVER, CO at 2004/06/21 10:24AM

Ticket ID        Seq.  Notice ID            Priority         Work Start
---------------  ----  -------------------  ---------------  ------------------
0353254          0000  UNCC2004062100457    Regular Notice   2004/06/23 11:59PM
0353274          0000  UNCC2004062100506    Regular Notice   2004/06/23 11:59PM
0353314          0000  UNCC2004062100512    Regular Notice   2004/06/23 11:59PM
0353458          0000  UNCC2004062100650    Regular Notice   2004/06/23 11:59PM

Summary of tickets sent to UTILIQUEST - DENVER, CO at 2004/06/21 11:26AM

Ticket ID        Seq.  Notice ID            Priority         Work Start
---------------  ----  -------------------  ---------------  ------------------
0353336          0000  UNCC2004062100534    Regular Notice   2004/06/23 11:59PM
0353797          0000  UNCC2004062101061    Regular Notice   2004/06/23 11:59PM
0353806          0000  UNCC2004062101072    Regular Notice   2004/06/23 11:59PM
0353829          0000  UNCC2004062101099    Regular Notice   2004/06/23 11:59PM
0353920          0000  UNCC2004062101180    Past Due         2004/06/21 11:16AM

Summary of tickets sent to CO - UTILIQUEST - DENVER, CO at 2004/06/21 03:07PM

Ticket ID        Seq.  Notice ID            Priority         Work Start
---------------  ----  -------------------  ---------------  ------------------
0354767          0000  UNCC2004062102297    Regular Notice   2004/06/23 09:00AM
0354988          0000  UNCC2004062102258    Regular Notice   2004/06/23 11:59PM
0355011          0000  UNCC2004062102317    Past Due         2004/06/23 11:59PM
0355035          0000  UNCC2004062102311    Past Due         2004/06/23 11:59PM
0354791          0000  UNCC2004062102314    Regular Notice   2004/06/23 11:59PM
0354985          0000  UNCC2004062102257    Regular Notice   2004/06/23 11:59PM

NO CARRIER

Summary of tickets sent to CO - UTILIQUEST - DENVER, CO at 2004/06/21 03:04PM

Ticket ID        Seq.  Notice ID            Priority         Work Start
---------------  ----  -------------------  ---------------  ------------------
0354574          0000  UNCC2004062102283    Regular Notice   2004/06/23 11:59PM
0354938          0000  UNCC2004062102210    Regular Notice   2004/06/23 11:59PM
0354941          0000  UNCC2004062102213    Regular Notice   2004/06/23 11:59PM
0354945          0000  UNCC2004062102215    Regular Notice   2004/06/23 11:59PM
0354956          0000  UNCC2004062102231    Regular Notice   2004/06/23 11:59PM
0354965          0000  UNCC2004062102239    Regular Notice   2004/06/23 01:00PM
0354979          0000  UNCC2004062102253    Regular Notice   2004/06/23 11:59PM
0354980          0000  UNCC2004062102255    Regular Notice   2004/06/23 11:59PM
0354981          0000  UNCC2004062102249    Regular Notice   2004/06/23 11:59PM
0354984          0000  UNCC2004062102254    Regular Notice   2004/06/23 11:59PM
0354991          0000  UNCC2004062102259    Regular Notice   2004/06/23 11:59PM
0354996          0000  UNCC2004062102265    Regular Notice   2004/06/23 11:59PM
0354999          0000  UNCC2004062102272    Regular Notice   2004/06/23 11:59PM
0355001          0000  UNCC2004062102267    Regular Notice   2004/06/23 11:59PM
0355007          0000  UNCC2004062102280    Regular Notice   2004/06/23 11:59PM
0355009          0000  UNCC2004062102281    Regular Notice   2004/06/23 11:59PM
0355012          0000  UNCC2004062102289    Regular Notice   2004/06/23 11:59PM
0355023          0000  UNCC2004062102300    Regular Notice   2004/06/23 11:59PM
0355029          0000  UNCC2004062102306    Regular Notice   2004/06/23 11:59PM
0355032          0000  UNCC2004062102312    Regular Notice   2004/06/23 11:59PM
0355037          0000  UNCC2004062102315    Regular Notice   2004/06/23 11:59PM

