AUDIT	2004/05/01 00:02:48	00001

*********************************************************************
*  This is your End of Day Audit from US West                       *
*  for the period 2002/02/27 00:01:59 thru 2004/05/01 00:01:14.     *
*********************************************************************

Service Area: 208743
 00055 IDL2004043000103  15:20   00056 IDL2004043000105  15:20
 00057 IDL2004043000114  15:20   00058 IDL2004043000138  15:20
 00059 IDL2004043000281  15:20


Service Area: 503275
 00068 OOC2004042900703  15:20   00069 OOC2004042900704  15:20
 00070 OOC2004042900705  15:20   00071 OOC2004042900707  15:20
 00075 OOC2004043000037  15:20   00079 OOC2004043000041  15:21
 00080 OOC2004043000045  15:21   00084 OOC2004043000046  15:21
 00086 OOC2004043000048  15:21   00087 OOC2004043000049  15:21


Service Area: 503362
 00060 OOC2004042900501  15:20   00061 OOC2004042900502  15:20
 00062 OOC2004042900536  15:20   00064 OOC2004042900595  15:20
 00074 OOC2004043000036  15:20   00081 OOC2004043000042  15:21


Service Area: 503390
 00063 OOC2004042900568  15:20   00066 OOC2004042900645  15:20
 00067 OOC2004042900670  15:20   00072 OOC2004042900709  15:20


Service Area: 503655
 00020 OOC2004043000364  15:07   00021 OOC2004043000360  15:07
 00024 OOC2004043000379  15:07


Service Area: 509222
 00025 UULC2004043000064 15:07   00026 UULC2004043000066 15:07
 00027 UULC2004043000075 15:07   00028 UULC2004043000079 15:07
 00030 UULC2004043000106 15:07   00034 UULC2004043000322 15:07
*00040 UULC2004043000271 15:07   00043 UULC2004043000428 15:07
 00050 UULC2004043000431 15:07


Service Area: 509248
 00029 WOC2004043000013  15:07   00033 WOC2004043000019  15:07
 00035 WOC2004043000023  15:07   00036 WOC2004043000027  15:07
 00037 WOC2004043000031  15:07   00041 WOC2004043000055  15:07
 00051 WOC2004043000072  15:07   00052 WOC2004043000086  15:07
 00053 WOC2004043000090  15:07   00054 WOC2004043000092  15:07


Service Area: 509349
*00042 UULC2004043000417 15:07  *00044 UULC2004043000418 15:07
*00045 UULC2004043000421 15:07  *00046 UULC2004043000424 15:07
*00047 UULC2004043000426 15:07  *00049 UULC2004043000427 15:07


Service Area: 509522
 00031 WOC2004043000015  15:07   00032 UULC2004043000119 15:07
 00038 WOC2004043000035  15:07   00039 WOC2004043000040  15:07
*00048 UULC2004043000430 15:07


Service Area: 541276
 00001 OOC2004043000050  15:06   00002 OOC2004043000120  15:06
 00007 OOC2004043000179  15:06   00014 OOC2004043000254  15:06
 00019 OOC2004043000293  15:06  *00022 OOC2004043000375  15:07
 00023 OOC2004043000377  15:07


Service Area: 541342
 00082 OOC2004043000044  15:21


Service Area: 541382
 00073 OOC2004043000035  15:20


Service Area: 541672
 00065 OOC2004043000090  15:20


Service Area: 541770
 00003 OOC2004043000168  15:06   00004 OOC2004043000169  15:06
 00005 OOC2004043000158  15:06   00006 OOC2004043000156  15:06
 00008 OOC2004043000185  15:06   00009 OOC2004043000193  15:06
 00010 OOC2004043000194  15:06   00011 OOC2004043000196  15:06
 00012 OOC2004043000202  15:06   00013 OOC2004043000208  15:06
 00015 OOC2004043000265  15:06   00016 OOC2004043000257  15:06
 00017 OOC2004043000264  15:06   00018 OOC2004043000267  15:06
 00076 OOC2004043000038  15:20   00077 OOC2004043000039  15:21
 00078 OOC2004043000040  15:21


Service Area: 541882
 00085 OOC2004043000055  15:21


Service Area: 541926
 00083 OOC2004043000047  15:21

Total number of notices sent during time period: 87


Please notify US West immediately of any missing transmissions.

AUDIT	2004/05/05 00:02:44	00001

*********************************************************************
*  This is your End of Day Audit from Qwest Local Network (QLN)     *
*  for the period 2004/05/04 00:01:12 thru 2004/05/05 00:01:12.     *
*********************************************************************

Service Area: 206223
 00060 UULC2004050400030  06:35  *00065 UULC2004050400090  08:42
*00067 UULC2004050400091  08:46   00101 UULC2004050400130  09:40
 00102 UULC2004050400132  09:40   00103 UULC2004050400122  09:53
 00104 UULC2004050400134  09:53   00118 UULC2004050400136  09:57
 00133 UULC2004050400172  10:07   00135 UULC2004050400175  10:07
 00150 UULC2004050400183  10:17   00151 UULC2004050400186  10:17
 00152 UULC2004050400192  10:17   00153 UULC2004050400193  10:17
 00154 UULC2004050400197  10:17   00158 UULC2004050400200  10:24
 00221 UULC2004050400230  10:54   00226 UULC2004050400235  10:55
 00234 UULC2004050400252  10:55   00276 UULC2004050400332  11:42
 00282 UULC2004050400277  11:42   00285 UULC2004050400281  11:42
 00286 UULC2004050400283  11:42   00287 UULC2004050400290  11:42
 00290 UULC2004050400284  11:42   00292 UULC2004050400352  11:42
 00308 UULC2004050400312  11:43   00318 UULC2004050400323  11:43
 00319 UULC2004050400324  11:43   00327 UULC2004050400325  11:43
 00343 UULC2004050400356  11:50   00420 UULC2004050400365  12:06
 00453 UULC2004050400405  12:11   00550 UULC2004050400419  12:42
 00589 UULC2004050400446  13:02  *00613 UULC2004050400516  13:16
 00661 UULC2004050400536  13:38   00662 UULC2004050400542  13:38
 00663 UULC2004050400543  13:38   00671 UULC2004050400551  13:48
 00672 UULC2004050400555  13:48   00674 UULC2004050400558  13:48
 00678 UULC2004050400567  13:52   00742 UULC2004050400581  14:26
 00743 UULC2004050400583  14:26   00859 UULC2004050400614  14:46
 00870 UULC2004050400650  15:00   00875 UULC2004050400661  15:12
 00876 UULC2004050400665  15:12   00964 UULC2004050400707  15:42
*00972 UULC2004050400722  15:53  *00974 UULC2004050400729  15:59
 00976 UULC2004050400743  16:12   00978 UULC2004050400745  16:12
 00979 UULC2004050400755  16:12   00983 UULC2004050400764  16:19
 00984 UULC2004050400757  16:19   00985 UULC2004050400760  16:19
 00986 UULC2004050400769  16:19   00988 UULC2004050400761  16:19
 00989 UULC2004050400773  16:19   00990 UULC2004050400777  16:19
 00995 UULC2004050400781  16:26   00996 UULC2004050400785  16:26
 00998 UULC2004050400786  16:27   00999 UULC2004050400787  16:27
 01000 UULC2004050400788  16:27   01001 UULC2004050400789  16:27
 01002 UULC2004050400790  16:27   01003 UULC2004050400791  16:27
 01004 UULC2004050400792  16:27   01006 UULC2004050400793  16:27
 01007 UULC2004050400797  16:27   01012 UULC2004050400798  16:30
 01013 UULC2004050400799  16:30   01014 UULC2004050400800  16:30
 01015 UULC2004050400801  16:30   01016 UULC2004050400802  16:30
 01017 UULC2004050400803  16:30   01018 UULC2004050400804  16:30
 01019 UULC2004050400805  16:30   01020 UULC2004050400806  16:30
 01021 UULC2004050400807  16:30   01022 UULC2004050400808  16:30
 01023 UULC2004050400809  16:30   01024 UULC2004050400810  16:30
 01025 UULC2004050400811  16:30   01026 UULC2004050400812  16:30
 01027 UULC2004050400813  16:30   01028 UULC2004050400814  16:30
 01029 UULC2004050400815  16:30   01030 UULC2004050400816  16:30
 01031 UULC2004050400817  16:30   01032 UULC2004050400818  16:30
 01033 UULC2004050400819  16:30   01034 UULC2004050400820  16:30
 01035 UULC2004050400821  16:30   01036 UULC2004050400822  16:30
 01037 UULC2004050400824  16:32   01038 UULC2004050400825  16:32
 01039 UULC2004050400826  16:32   01040 UULC2004050400827  16:32
 01041 UULC2004050400828  16:32   01042 UULC2004050400829  16:32
 01043 UULC2004050400830  16:32   01044 UULC2004050400831  16:32
 01045 UULC2004050400832  16:32   01046 UULC2004050400833  16:32
 01047 UULC2004050400834  16:33   01048 UULC2004050400835  16:33
 01049 UULC2004050400836  16:33   01050 UULC2004050400837  16:33
 01051 UULC2004050400841  16:33   01052 UULC2004050400842  16:33
 01053 UULC2004050400845  16:33   01055 UULC2004050400848  16:35
 01056 UULC2004050400849  16:35   01057 UULC2004050400854  16:35
 01058 UULC2004050400856  16:35   01059 UULC2004050400861  16:35
 01060 UULC2004050400862  16:35   01061 UULC2004050400863  16:35
 01062 UULC2004050400865  16:35   01068 UULC2004050400871  16:44
 01069 UULC2004050400873  16:44   01070 UULC2004050400883  16:44
 01071 UULC2004050400884  16:44   01072 UULC2004050400885  16:44
 01073 UULC2004050400886  16:44   01075 UULC2004050400878  16:44
 01093 UULC2004050400891  16:52   01111 UULC2004050400912  17:06
 01119 UULC2004050400676  17:19   01130 UULC2004050400795  17:19
 01137 UULC2004050400899  17:20   01144 UULC2004050400901  17:20
 01146 UULC2004050400930  17:20   01147 UULC2004050400935  17:20
 01148 UULC2004050400940  17:20   01201 UULC2004050400796  17:23
 01209 UULC2004050400520  17:23   01379 UULC2004050400986  17:56
 01380 UULC2004050400987  17:56   01381 UULC2004050400988  17:56
 01382 UULC2004050400989  17:56   01383 UULC2004050400990  17:56
 01384 UULC2004050400991  17:56   01385 UULC2004050401002  17:56
 01418 UULC2004050401013  18:09   01524 UULC2004050401055  18:36
 01526 UULC2004050401056  18:36   01527 UULC2004050401058  18:36
 01550 UULC2004050401071  18:52   01551 UULC2004050401075  18:52
 01561 UULC2004050401061  19:01   01564 UULC2004050401065  19:01
 01575 UULC2004050401085  19:12   01579 UULC2004050401099  19:23
*01580 UULC2004050401106  19:26   01591 UULC2004050401109  19:32
 01593 UULC2004050401111  19:32   01594 UULC2004050401114  19:32
 01595 UULC2004050401115  19:43   01596 UULC2004050401118  19:43
 01597 UULC2004050401121  19:43   01601 UULC2004050401091  19:55
 01603 UULC2004050401096  19:55   01604 UULC2004050401098  19:55


Service Area: 208743
 00072 IDL2004050400038   09:15   00092 IDL2004050400060   09:40
 00136 WOC2004050400024   10:07   00166 IDL2004050400094   10:30
 00175 WOC2004050400029   10:30  *00176 IDL2004050400106   10:53
 00177 IDL2004050400105   10:53   00564 IDL2004050400202   12:49
 00578 IDL2004050400208   13:02   00647 WOC2004050400088   13:30
*00681 IDL2004050400234   13:57  *00687 WOC2004050400107   13:57
 00697 IDL2004050400251   14:25   00965 IDL2004050400306   15:53
 00966 IDL2004050400314   15:53   00967 IDL2004050400316   15:53
 01301 IDL2004050400384   17:26


Service Area: 253225
 00120 UULC2004050400158  09:57   00142 UULC2004050400174  10:17
 00146 UULC2004050400179  10:17   00165 UULC2004050400207  10:24
 00173 UULC2004050400208  10:30  *00320 UULC2004050400331  11:43
 00709 UULC2004050400539  14:25   00711 UULC2004050400541  14:25
 01141 UULC2004050400498  17:20   01211 UULC2004050400448  17:23
 01215 UULC2004050400384  17:24   01315 UULC2004050400925  17:26
 01409 UULC2004050401003  18:08   01416 UULC2004050401009  18:09
 01428 UULC2004050401021  18:09   01472 UULC2004050401029  18:19
 01565 UULC2004050401070  19:01


Service Area: 253582
 00010 UULC2004050301189  06:18   00013 UULC2004050301191  06:19
 00057 UULC2004050400010  06:35  *00156 UULC2004050400110  10:24
 00212 UULC2004050400217  10:54   00242 UULC2004050400262  10:58
 00295 UULC2004050400291  11:42   00433 UULC2004050400381  12:06
 00439 UULC2004050400396  12:06   00441 UULC2004050400399  12:06
*00548 UULC2004050400416  12:42   00555 UULC2004050400438  12:42
 00588 UULC2004050400441  13:02   00590 UULC2004050400444  13:02
 00591 UULC2004050400450  13:02   00593 UULC2004050400454  13:02
 00598 UULC2004050400472  13:02   00602 UULC2004050400475  13:02
 00603 UULC2004050400480  13:02   00604 UULC2004050400483  13:02
 00606 UULC2004050400486  13:02   00641 UULC2004050400490  13:30
 00642 UULC2004050400497  13:30   00646 UULC2004050400527  13:30
*00673 UULC2004050400531  13:48  *00689 UULC2004050400578  14:02
 00716 UULC2004050400548  14:26   00747 UULC2004050400591  14:26
 00754 UULC2004050400593  14:27   00755 UULC2004050400595  14:27
 00758 UULC2004050400596  14:27   00760 UULC2004050400598  14:27
 00763 UULC2004050400600  14:27   00766 UULC2004050400601  14:27
*00863 UULC2004050400619  14:46   00884 UULC2004050400627  15:17
 00889 UULC2004050400631  15:17   00891 UULC2004050400634  15:17
 00894 UULC2004050400637  15:17   00897 UULC2004050400640  15:17
 00899 UULC2004050400648  15:17   00909 UULC2004050400668  15:17
 00912 UULC2004050400672  15:17   00913 UULC2004050400670  15:18
*01011 UULC2004050400763  16:27   01158 UULC2004050400688  17:22
 01196 UULC2004050400838  17:23   01206 UULC2004050400864  17:23
 01225 UULC2004050400855  17:24   01226 UULC2004050400859  17:24
 01324 UULC2004050400937  17:27   01326 UULC2004050400943  17:27
 01406 UULC2004050400993  18:08   01476 UULC2004050401035  18:19
 01478 UULC2004050401040  18:19   01568 UULC2004050401078  19:01
 01602 UULC2004050401093  19:55   01608 UULC2004050401104  19:55
 01615 UULC2004050401113  19:56   01617 UULC2004050401119  19:56
 01619 UULC2004050401120  19:56   01630 UULC2004050400518  20:07


Service Area: 253630
 00009 UULC2004050301187  06:18   00088 UULC2004050400118  09:25
 00105 UULC2004050400144  09:53   00106 UULC2004050400156  09:53
 00125 UULC2004050400153  09:57  *00134 UULC2004050400173  10:07
 00211 UULC2004050400145  10:54   00218 UULC2004050400227  10:54
 00237 UULC2004050400258  10:55   00288 UULC2004050400292  11:42
 00302 UULC2004050400302  11:43   00328 UULC2004050400330  11:43
 00345 UULC2004050400357  11:50   00428 UULC2004050400378  12:06
 00431 UULC2004050400379  12:06   00432 UULC2004050400392  12:06
 00514 UULC2004050400253  12:41   00515 UULC2004050400254  12:41
 00599 UULC2004050400478  13:02   00607 UULC2004050400493  13:02
 00643 UULC2004050400503  13:30   00686 UULC2004050400576  13:57
 00737 UULC2004050400575  14:26   00744 UULC2004050400583  14:26
 00769 UULC2004050400606  14:27   00771 UULC2004050400607  14:27
 00885 UULC2004050400628  15:17   00914 UULC2004050400671  15:18
*00952 UULC2004050400652  15:27   00963 UULC2004050400700  15:42
 00971 UULC2004050400714  15:53   01063 UULC2004050400846  16:36
 01138 UULC2004050400657  17:20   01159 UULC2004050400719  17:22
 01182 UULC2004050400724  17:23   01186 UULC2004050400736  17:23
 01190 UULC2004050400748  17:23   01194 UULC2004050400756  17:23
 01195 UULC2004050400768  17:23   01214 UULC2004050400346  17:24
 01218 UULC2004050400635  17:24   01222 UULC2004050400697  17:24
 01392 UULC2004050400949  18:08  *01529 UULC2004050401062  18:36
 01558 UULC2004050401053  19:01   01576 UULC2004050401095  19:12
 01621 UULC2004050401124  19:56   01638 UULC2004050401145  21:35


Service Area: 253833
 00016 UULC2004050301201  06:19   00063 UULC2004050400072  08:28
 00119 UULC2004050400143  09:57  *00277 UULC2004050400266  11:42
*00289 UULC2004050400287  11:42   00293 UULC2004050400304  11:42
 00313 UULC2004050400318  11:43   00330 UULC2004050400326  11:43
*00340 UULC2004050400350  11:50  *00342 UULC2004050400338  11:50
 00424 UULC2004050400367  12:06   00445 UULC2004050400337  12:11
 00563 UULC2004050400440  12:42  *00601 UULC2004050400476  13:02
 00732 UULC2004050400569  14:26   00734 UULC2004050400570  14:26
 00751 UULC2004050400586  14:27   00762 UULC2004050400604  14:27
*00867 UULC2004050400621  14:59   00872 UULC2004050400656  15:00
 00890 UULC2004050400633  15:17   01064 UULC2004050400847  16:36
 01074 UULC2004050400874  16:44   01167 UULC2004050400741  17:22
 01179 UULC2004050400704  17:23   01212 UULC2004050400466  17:23
 01219 UULC2004050400666  17:24   01224 UULC2004050400718  17:24
 01265 UULC2004050400894  17:25   01399 UULC2004050400968  18:08
 01422 UULC2004050400956  18:09   01424 UULC2004050400960  18:09
 01425 UULC2004050400963  18:09   01426 UULC2004050400964  18:09
 01614 UULC2004050401116  19:56


Service Area: 253841
 00011 UULC2004050301189  06:18   00012 UULC2004050301190  06:19
 00014 UULC2004050301191  06:19   00056 UULC2004050400002  06:35
 00068 UULC2004050400095  08:46   00069 UULC2004050400097  08:46
 00070 UULC2004050400101  09:03   00160 UULC2004050400199  10:24
 00163 UULC2004050400205  10:24   00164 UULC2004050400206  10:24
*00172 UULC2004050400212  10:30   00174 UULC2004050400209  10:30
 00214 UULC2004050400221  10:54   00335 UULC2004050400348  11:44
 00425 UULC2004050400358  12:06   00436 UULC2004050400383  12:06
 00442 UULC2004050400397  12:06   00448 UULC2004050400402  12:11
 00560 UULC2004050400435  12:42   00561 UULC2004050400436  12:42
 00638 UULC2004050400494  13:24   00768 UULC2004050400605  14:27
 00864 UULC2004050400620  14:46   00888 UULC2004050400638  15:17
 00892 UULC2004050400644  15:17   00898 UULC2004050400641  15:17
 00900 UULC2004050400646  15:17   00901 UULC2004050400649  15:17
 00903 UULC2004050400653  15:17   00904 UULC2004050400655  15:17
 00975 UULC2004050400735  16:12   01127 UULC2004050400747  17:19
 01153 UULC2004050400565  17:22   01164 UULC2004050400739  17:22
 01176 UULC2004050400684  17:22   01183 UULC2004050400708  17:23
 01223 UULC2004050400687  17:24   01228 UULC2004050400866  17:24
 01312 UULC2004050400914  17:26   01323 UULC2004050400938  17:27
 01538 UULC2004050401066  18:42   01559 UULC2004050401064  19:01
 01592 UULC2004050401110  19:32   01609 UULC2004050401105  19:55
 01611 UULC2004050401107  19:55   01616 UULC2004050401117  19:56


Service Area: 253847
 00596 UULC2004050400467  13:02


Service Area: 360352
 00008 UULC2004050301185  06:18   00015 UULC2004050301196  06:19
 00022 UULC2004050301224  06:19   00039 UULC2004050301231  06:19
 00042 UULC2004050301229  06:19   00058 UULC2004050400025  06:35
 00082 UULC2004050400083  09:25   00084 UULC2004050400094  09:25
 00117 UULC2004050400142  09:57   00121 UULC2004050400138  09:57
 00127 UULC2004050400163  09:57   00129 UULC2004050400168  09:57
 00141 UULC2004050400176  10:17   00159 UULC2004050400201  10:24
*00169 UULC2004050400187  10:30   00294 UULC2004050400298  11:42
 00300 UULC2004050400300  11:43   00304 UULC2004050400308  11:43
 00310 UULC2004050400307  11:43   00312 UULC2004050400317  11:43
 00322 UULC2004050400314  11:43   00511 UULC2004050400188  12:41
 00521 UULC2004050400265  12:41  *00544 UULC2004050400420  12:42
 00553 UULC2004050400421  12:42   00556 UULC2004050400424  12:42
 00559 UULC2004050400429  12:42   00587 UULC2004050400439  13:02
 00595 UULC2004050400468  13:02   00627 UULC2004050400499  13:24
*00634 UULC2004050400526  13:24   00699 UULC2004050400533  14:25
 00700 UULC2004050400535  14:25   00719 UULC2004050400559  14:26
 00722 UULC2004050400561  14:26   00723 UULC2004050400562  14:26
 00748 UULC2004050400584  14:26   00861 UULC2004050400617  14:46
 00883 UULC2004050400629  15:17   00895 UULC2004050400643  15:17
 01139 UULC2004050400919  17:20   01160 UULC2004050400723  17:22
 01162 UULC2004050400734  17:22   01177 UULC2004050400691  17:22
 01180 UULC2004050400713  17:23   01189 UULC2004050400749  17:23
 01204 UULC2004050400852  17:23   01213 UULC2004050400470  17:23
 01216 UULC2004050400572  17:24   01217 UULC2004050400624  17:24
 01221 UULC2004050400680  17:24   01264 UULC2004050400902  17:25
 01304 UULC2004050400907  17:26   01309 UULC2004050400908  17:26
 01311 UULC2004050400913  17:26   01317 UULC2004050400927  17:26
 01427 UULC2004050400995  18:09  *01520 UULC2004050401049  18:36
 01522 UULC2004050401047  18:36   01523 UULC2004050401048  18:36
 01525 UULC2004050401051  18:36   01535 UULC2004050400958  18:42
 01560 UULC2004050401068  19:01   01562 UULC2004050401069  19:01
 01563 UULC2004050401073  19:01   01566 UULC2004050401074  19:01
 01567 UULC2004050401077  19:01   01569 UULC2004050401080  19:01
 01607 UULC2004050401103  19:55


Service Area: 360423
 00201 OOC2004050400105   10:54   00466 OOC2004050400155   12:39
 00622 OOC2004050400357   13:24   00877 OOC2004050400476   15:16
 00949 OOC2004050400484   15:27   00960 OOC2004050400495   15:42
 01066 OOC2004050400575   16:44


Service Area: 360532
 00002 WOC2004050300238   00:03   00003 WOC2004050400001   02:22
 00091 WOC2004050400015   09:29   00099 WOC2004050400016   09:40
 00100 WOC2004050400017   09:40   00538 WOC2004050400074   12:42
 00562 WOC2004050400078   12:42   00977 WOC2004050400134   16:12
 01109 WOC2004050400159   17:06   01571 WOC2004050400187   19:01
 01640 WOC2004050400194   23:50   01641 WOC2004050400195   23:50


Service Area: 360671
*00071 UULC2004050400100  09:03   00083 UULC2004050400093  09:25
 00085 UULC2004050400104  09:25   00086 UULC2004050400106  09:25
 00087 UULC2004050400108  09:25   00124 UULC2004050400162  09:57
 00274 UULC2004050400327  11:42   00307 UULC2004050400306  11:43
 00323 UULC2004050400328  11:43   00412 UULC2004050400340  12:06
 00416 UULC2004050400363  12:06   00418 UULC2004050400364  12:06
 00539 UULC2004050400412  12:42   00600 UULC2004050400479  13:02
 00893 UULC2004050400654  15:17   00905 UULC2004050400658  15:17
 00906 UULC2004050400660  15:17   00907 UULC2004050400662  15:17
 01118 UULC2004050400613  17:19   01121 UULC2004050400840  17:19
 01123 UULC2004050400870  17:19   01124 UULC2004050400867  17:19
 01126 UULC2004050400887  17:19   01128 UULC2004050400889  17:19
 01129 UULC2004050400890  17:19   01142 UULC2004050400767  17:20
 01168 UULC2004050400880  17:22   01174 UULC2004050400860  17:22
 01199 UULC2004050400779  17:23   01371 UULC2004050400944  17:46
 01390 UULC2004050400982  18:08   01391 UULC2004050400948  18:08
 01394 UULC2004050400954  18:08   01423 UULC2004050400955  18:09
 01534 UULC2004050400957  18:42   01556 UULC2004050401030  19:01


Service Area: 360683
 00219 UULC2004050400229  10:54   00224 UULC2004050400232  10:54
 00451 UULC2004050400401  12:11   00536 UULC2004050400408  12:42
 00688 UULC2004050400585  14:02   00690 UULC2004050400582  14:02
 00750 UULC2004050400587  14:26   00910 UULC2004050400669  15:17
 00915 UULC2004050400673  15:18   01236 UULC2004050400888  17:24
 01266 UULC2004050400895  17:25   01268 UULC2004050400897  17:25
 01305 UULC2004050400903  17:26   01322 UULC2004050400936  17:27


Service Area: 360692
 00007 UULC2004050301184  06:18   00021 UULC2004050301219  06:19
 00162 UULC2004050400202  10:24   00228 UULC2004050400236  10:55
 00296 UULC2004050400294  11:43   00314 UULC2004050400319  11:43
*00321 UULC2004050400331  11:43   00413 UULC2004050400342  12:06
 00414 UULC2004050400345  12:06   00429 UULC2004050400372  12:06
 00547 UULC2004050400425  12:42  *00549 UULC2004050400417  12:42
 00552 UULC2004050400423  12:42  *00557 UULC2004050400427  12:42
 00597 UULC2004050400474  13:02   00706 UULC2004050400534  14:25
 00721 UULC2004050400560  14:26   00725 UULC2004050400564  14:26
 00761 UULC2004050400599  14:27   00767 UULC2004050400608  14:27
 01117 UULC2004050400610  17:19   01143 UULC2004050400924  17:20
 01145 UULC2004050400926  17:20   01202 UULC2004050400844  17:23
 01203 UULC2004050400850  17:23   01372 UULC2004050400972  17:46
 01374 UULC2004050400977  17:46   01376 UULC2004050400979  17:46
 01474 UULC2004050401034  18:19   01528 UULC2004050401059  18:36
 01539 UULC2004050401060  18:42   01590 UULC2004050401090  19:32


Service Area: 360693
 00024 WOC2004050300231   06:19   00025 WOC2004050300232   06:19
 00026 WOC2004050300237   06:19   00028 WOC2004050300234   06:19
 00031 WOC2004050300235   06:19   00051 WOC2004050300236   06:20
 00055 WOC2004050400002   06:20   00122 WOC2004050400018   09:57
 00132 WOC2004050400019   10:07   00144 WOC2004050400022   10:17
 00147 WOC2004050400023   10:17   00148 WOC2004050400026   10:17
 00149 WOC2004050400025   10:17   00215 WOC2004050400028   10:54
 00217 WOC2004050400030   10:54   00222 WOC2004050400031   10:54
 00241 WOC2004050400033   10:58   00268 WOC2004050400038   11:42
 00269 WOC2004050400039   11:42   00270 WOC2004050400040   11:42
 00271 WOC2004050400041   11:42   00272 WOC2004050400049   11:42
 00273 WOC2004050400051   11:42   00275 WOC2004050400055   11:42
*00298 WOC2004050400037   11:43   00299 WOC2004050400043   11:43
 00303 WOC2004050400044   11:43   00305 WOC2004050400045   11:43
 00325 WOC2004050400047   11:43  *00329 WOC2004050400048   11:43
 00332 WOC2004050400050   11:44   00333 WOC2004050400054   11:44
 00421 WOC2004050400058   12:06   00434 WOC2004050400064   12:06
 00450 WOC2004050400073   12:11   00518 WOC2004050400034   12:41
 00524 WOC2004050400042   12:41   00528 WOC2004050400070   12:41
*00531 WOC2004050400068   12:41  *00533 WOC2004050400071   12:41
*00534 WOC2004050400072   12:41   00546 WOC2004050400075   12:42
 00594 WOC2004050400080   13:02  *00611 WOC2004050400082   13:13
 00633 WOC2004050400086   13:24  *00684 WOC2004050400099   13:57
 00698 WOC2004050400103   14:25   00714 WOC2004050400100   14:25
 00724 WOC2004050400090   14:26   00726 WOC2004050400092   14:26
 00728 WOC2004050400093   14:26   00729 WOC2004050400094   14:26
 00731 WOC2004050400095   14:26   00733 WOC2004050400096   14:26
 00735 WOC2004050400097   14:26   00736 WOC2004050400098   14:26
 00738 WOC2004050400102   14:26   00740 WOC2004050400105   14:26
 00741 WOC2004050400106   14:26   00745 WOC2004050400108   14:26
 00749 WOC2004050400109   14:26   00752 WOC2004050400110   14:27
 00753 WOC2004050400111   14:27   00756 WOC2004050400112   14:27
 00759 WOC2004050400114   14:27   00764 WOC2004050400115   14:27
 00789 WOC2004050400085   14:31   00860 WOC2004050400118   14:46
 00878 WOC2004050400069   15:17   00881 WOC2004050400120   15:17
 00887 WOC2004050400119   15:17   00902 WOC2004050400124   15:17
 00911 WOC2004050400126   15:17   01092 WOC2004050400143   16:52
 01110 WOC2004050400156   17:06   01131 WOC2004050400144   17:19
 01132 WOC2004050400147   17:19   01133 WOC2004050400148   17:19
 01134 WOC2004050400158   17:20   01135 WOC2004050400155   17:20
 01152 WOC2004050400089   17:22   01154 WOC2004050400145   17:22
 01161 WOC2004050400150   17:22   01166 WOC2004050400133   17:22
 01175 WOC2004050400125   17:22   01187 WOC2004050400131   17:23
 01188 WOC2004050400132   17:23   01192 WOC2004050400136   17:23
 01193 WOC2004050400137   17:23   01198 WOC2004050400141   17:23
 01200 WOC2004050400142   17:23   01205 WOC2004050400146   17:23
 01207 WOC2004050400149   17:23   01208 WOC2004050400083   17:23
 01229 WOC2004050400151   17:24   01230 WOC2004050400157   17:24
 01231 WOC2004050400152   17:24   01233 WOC2004050400153   17:24
 01234 WOC2004050400154   17:24   01307 WOC2004050400160   17:26
 01313 WOC2004050400161   17:26   01321 WOC2004050400162   17:27
 01327 WOC2004050400165   17:27   01331 WOC2004050400166   17:27
 01333 WOC2004050400169   17:27   01395 WOC2004050400173   18:08
 01414 WOC2004050400176   18:08   01420 WOC2004050400177   18:09
 01468 WOC2004050400180   18:19   01470 WOC2004050400181   18:19
 01536 WOC2004050400184   18:42   01537 WOC2004050400185   18:42
 01548 WOC2004050400174   18:52   01557 WOC2004050400182   19:01
 01605 WOC2004050400188   19:55   01606 WOC2004050400189   19:55
 01612 WOC2004050400190   19:55   01629 WOC2004050400065   20:07


Service Area: 360864
 00089 WOC2004050400014   09:25   00423 WOC2004050400062   12:06
 00435 WOC2004050400066   12:06  *00440 WOC2004050400067   12:06
 00517 WOC2004050400035   12:41  *00577 WOC2004050400081   12:49
 00612 WOC2004050400084   13:13   00680 WOC2004050400091   13:52
 00868 WOC2004050400122   14:59   00874 WOC2004050400127   15:12
 01010 WOC2004050400140   16:27   01150 WOC2004050400167   17:20
 01413 WOC2004050400178   18:08


Service Area: 425453
 00059 UULC2004050400029  06:35   00116 UULC2004050400126  09:57
 00243 UULC2004050400260  10:58   00278 UULC2004050400288  11:42
*00301 UULC2004050400297  11:43   00317 UULC2004050400322  11:43
 00324 UULC2004050400329  11:43   00334 UULC2004050400336  11:44
 00535 UULC2004050400403  12:42   00541 UULC2004050400406  12:42
 00542 UULC2004050400413  12:42   00583 UULC2004050400321  13:02
 00644 UULC2004050400514  13:30  *00679 UULC2004050400566  13:52
 00707 UULC2004050400540  14:25   00770 UULC2004050400609  14:27
*01008 UULC2004050400703  16:27   01116 UULC2004050400554  17:19
 01120 UULC2004050400679  17:19   01122 UULC2004050400689  17:19
 01184 UULC2004050400710  17:23   01197 UULC2004050400778  17:23
 01210 UULC2004050400393  17:23   01303 UULC2004050400906  17:26
 01393 UULC2004050400983  18:08   01398 UULC2004050400984  18:08
 01400 UULC2004050400969  18:08   01402 UULC2004050400973  18:08
 01403 UULC2004050400976  18:08   01408 UULC2004050400992  18:08
 01431 UULC2004050401022  18:09  *01489 UULC2004050401044  18:25
 01518 UULC2004050400160  18:36   01570 UULC2004050401081  19:01


Service Area: 503275
 00048 OOC2004050300799   06:20   00049 OOC2004050300800   06:20
 00111 OOC2004050400057   09:57   00139 OOC2004050400068   10:17
 00168 OOC2004050400089   10:30  *00180 OOC2004050400053   10:53
 00183 OOC2004050400136   10:53   00187 OOC2004050400079   10:53
 00198 OOC2004050400099   10:54   00244 OOC2004050400158   11:41
*00337 OOC2004050400217   11:50   00357 OOC2004050400162   12:04
 00359 OOC2004050400164   12:04   00371 OOC2004050400166   12:04
 00381 OOC2004050400150   12:05   00383 OOC2004050400179   12:05
 00384 OOC2004050400171   12:05   00398 OOC2004050400195   12:05
 00401 OOC2004050400211   12:05   00403 OOC2004050400216   12:05
 00462 OOC2004050400123   12:39   00465 OOC2004050400147   12:39
 00478 OOC2004050400248   12:40   00581 OOC2004050400313   13:02
 00615 OOC2004050400331   13:24   00616 OOC2004050400335   13:24
 00617 OOC2004050400340   13:24  *00635 OOC2004050400306   13:24
 00792 OOC2004050400319   14:44   00793 OOC2004050400352   14:44
 00794 OOC2004050400353   14:44   00806 OOC2004050400370   14:45
 00819 OOC2004050400401   14:45   00833 OOC2004050400409   14:45
 00835 OOC2004050400407   14:45   00839 OOC2004050400414   14:46
 00840 OOC2004050400434   14:46  *00844 OOC2004050400425   14:46
*00849 OOC2004050400426   14:46  *00937 OOC2004050400474   15:26
 00940 OOC2004050400473   15:26   00958 OOC2004050400490   15:42
 00973 OOC2004050400509   15:59   01080 OOC2004050400516   16:52
 01081 OOC2004050400548   16:52   01237 OOC2004050400541   17:24
 01241 OOC2004050400547   17:24   01245 OOC2004050400609   17:24
 01250 OOC2004050400610   17:25   01251 OOC2004050400589   17:25
 01271 OOC2004050400500   17:25   01275 OOC2004050400542   17:25
 01282 OOC2004050400574   17:25   01283 OOC2004050400572   17:25
 01285 OOC2004050400577   17:26   01289 OOC2004050400608   17:26
 01290 OOC2004050400611   17:26   01291 OOC2004050400598   17:26
 01292 OOC2004050400614   17:26   01293 OOC2004050400612   17:26
 01294 OOC2004050400615   17:26   01295 OOC2004050400616   17:26
 01296 OOC2004050400617   17:26   01297 OOC2004050400603   17:26
 01298 OOC2004050400619   17:26   01302 OOC2004050400641   17:26
 01334 OOC2004050400527   17:33   01335 OOC2004050400529   17:33
 01337 OOC2004050400594   17:33   01360 OOC2004050400653   17:46
 01362 OOC2004050400638   17:46   01377 OOC2004050400669   17:56
 01388 OOC2004050400670   18:08   01456 OOC2004050400667   18:19
 01460 OOC2004050400677   18:19   01486 OOC2004050400687   18:25
 01488 OOC2004050400689   18:25   01490 OOC2004050400299   18:25
 01511 OOC2004050400656   18:36   01544 OOC2004050400699   18:52
 01545 OOC2004050400701   18:52   01554 OOC2004050400704   19:01
 01555 OOC2004050400705   19:01   01582 OOC2004050400707   19:32
 01585 OOC2004050400712   19:32   01599 OOC2004050400722   19:55
 01600 OOC2004050400721   19:55


Service Area: 503357
 00938 OOC2004050400472   15:26   00945 OOC2004050400480   15:27
 01349 OOC2004050400513   17:44   01354 OOC2004050400546   17:45
 01552 OOC2004050400702   19:01


Service Area: 503362
 00006 OOC2004050400001   06:18  *00090 OOC2004050400046   09:29
 00179 OOC2004050400050   10:53   00181 OOC2004050400056   10:53
 00189 OOC2004050400087   10:53  *00240 OOC2004050400086   10:58
 00361 OOC2004050400108   12:04   00367 OOC2004050400118   12:04
 00376 OOC2004050400126   12:05   00377 OOC2004050400133   12:05
 00382 OOC2004050400151   12:05   00385 OOC2004050400174   12:05
 00390 OOC2004050400187   12:05   00393 OOC2004050400189   12:05
 00395 OOC2004050400191   12:05   00397 OOC2004050400193   12:05
 00404 OOC2004050400214   12:05   00406 OOC2004050400234   12:05
 00409 OOC2004050400226   12:06   00477 OOC2004050400246   12:40
*00479 OOC2004050400263   12:40   00480 OOC2004050400250   12:40
 00485 OOC2004050400255   12:40   00486 OOC2004050400258   12:40
 00513 OOC2004050400275   12:41   00565 OOC2004050400293   12:49
 00572 OOC2004050400294   12:49   00787 OOC2004050400419   14:31
 00790 OOC2004050400339   14:44   00791 OOC2004050400344   14:44
 00795 OOC2004050400363   14:44   00802 OOC2004050400362   14:44
 00803 OOC2004050400358   14:44   00812 OOC2004050400380   14:45
 00853 OOC2004050400438   14:46   00919 OOC2004050400457   15:26
 00928 OOC2004050400460   15:26   00929 OOC2004050400463   15:26
 00931 OOC2004050400464   15:26   00933 OOC2004050400466   15:26
 00934 OOC2004050400470   15:26   00942 OOC2004050400478   15:27
 00946 OOC2004050400481   15:27   00948 OOC2004050400482   15:27
 00950 OOC2004050400487   15:27  *01112 OOC2004050400602   17:07
 01253 OOC2004050400601   17:25   01254 OOC2004050400605   17:25
 01256 OOC2004050400613   17:25   01257 OOC2004050400621   17:25
 01259 OOC2004050400624   17:25   01336 OOC2004050400566   17:33
 01347 OOC2004050400507   17:44   01350 OOC2004050400517   17:44
 01358 OOC2004050400632   17:46   01361 OOC2004050400636   17:46
 01432 OOC2004050400229   18:18   01444 OOC2004050400499   18:18
 01497 OOC2004050400325   18:36   01500 OOC2004050400456   18:36
 01508 OOC2004050400551   18:36   01517 OOC2004050400693   18:36
 01584 OOC2004050400713   19:32


Service Area: 503390
 00062 OOC2004050400038   08:28  *00167 OOC2004050400090   10:30
 00362 OOC2004050400112   12:04   00364 OOC2004050400109   12:04
 00365 OOC2004050400113   12:04   00368 OOC2004050400114   12:04
 00369 OOC2004050400119   12:04   00372 OOC2004050400124   12:04
 00378 OOC2004050400137   12:05   00387 OOC2004050400175   12:05
 00389 OOC2004050400186   12:05   00402 OOC2004050400208   12:05
 00469 OOC2004050400240   12:40   00470 OOC2004050400241   12:40
 00472 OOC2004050400242   12:40   00473 OOC2004050400247   12:40
 00475 OOC2004050400249   12:40   00509 OOC2004050400288   12:41
 00609 OOC2004050400309   13:13   00660 OOC2004050400355   13:38
 00776 OOC2004050400311   14:30   00777 OOC2004050400318   14:30
 00827 OOC2004050400398   14:45   00838 OOC2004050400417   14:45
 00920 OOC2004050400448   15:26   00924 OOC2004050400459   15:26
*01005 OOC2004050400554   16:27   01065 OOC2004050400102   16:44
 01101 OOC2004050400582   16:54   01103 OOC2004050400585   16:54
 01238 OOC2004050400510   17:24   01239 OOC2004050400532   17:24
 01240 OOC2004050400534   17:24   01247 OOC2004050400530   17:24
 01248 OOC2004050400535   17:24   01258 OOC2004050400622   17:25
 01261 OOC2004050400628   17:25   01276 OOC2004050400549   17:25
 01277 OOC2004050400553   17:25   01287 OOC2004050400578   17:26
 01348 OOC2004050400512   17:44   01437 OOC2004050400330   18:18
 01445 OOC2004050400505   18:19   01448 OOC2004050400644   18:19
 01479 OOC2004050400230   18:25   01491 OOC2004050400036   18:35
 01492 OOC2004050400231   18:35   01496 OOC2004050400271   18:36
 01507 OOC2004050400539   18:36   01509 OOC2004050400557   18:36


Service Area: 503647
 00073 OOC2004050400044   09:15   00191 OOC2004050400085   10:54
 00194 OOC2004050400093   10:54   00200 OOC2004050400101   10:54
 00254 OOC2004050400156   11:41   00339 OOC2004050400218   11:50
 00346 OOC2004050400127   12:04   00347 OOC2004050400128   12:04
 00348 OOC2004050400129   12:04   00373 OOC2004050400130   12:04
 00380 OOC2004050400139   12:05   00388 OOC2004050400177   12:05
 00468 OOC2004050400198   12:40   00487 OOC2004050400259   12:40
 00507 OOC2004050400212   12:41   00571 OOC2004050400304   12:49
 00575 OOC2004050400303   12:49   00579 OOC2004050400222   13:02
 00620 OOC2004050400349   13:24   00623 OOC2004050400360   13:24
 00624 OOC2004050400361   13:24   00654 OOC2004050400289   13:38
 00667 OOC2004050400081   13:48   00773 OOC2004050400312   14:30
 00774 OOC2004050400314   14:30   00775 OOC2004050400315   14:30
 00778 OOC2004050400321   14:31   00779 OOC2004050400322   14:31
 00780 OOC2004050400323   14:31   00782 OOC2004050400324   14:31
 00783 OOC2004050400327   14:31   00784 OOC2004050400329   14:31
 00786 OOC2004050400332   14:31   00796 OOC2004050400337   14:44
 00797 OOC2004050400341   14:44   00799 OOC2004050400342   14:44
 00800 OOC2004050400347   14:44   00801 OOC2004050400350   14:44
 00805 OOC2004050400364   14:45   00811 OOC2004050400379   14:45
 00832 OOC2004050400405   14:45   00921 OOC2004050400454   15:26
 00939 OOC2004050400472   15:26   00944 OOC2004050400480   15:27
*00956 OOC2004050400485   15:30  *00957 OOC2004050400489   15:30
*00980 OOC2004050400496   16:19   01107 OOC2004050400593   17:06
 01108 OOC2004050400596   17:06   01249 OOC2004050400540   17:24
 01299 OOC2004050400620   17:26   01355 OOC2004050400573   17:46
 01389 OOC2004050400671   18:08   01434 OOC2004050400267   18:18
 01438 OOC2004050400421   18:18   01441 OOC2004050400444   18:18
 01451 OOC2004050400664   18:19   01483 OOC2004050400560   18:25
 01501 OOC2004050400462   18:36   01542 OOC2004050400698   18:52
 01581 OOC2004050400706   19:32   01623 OOC2004050400152   20:06
 01624 OOC2004050400160   20:06


Service Area: 503655
 00004 OOC2004050300794   06:18   00005 OOC2004050300795   06:18
 00130 OOC2004050400045   10:07   00354 OOC2004050400153   12:04
 00363 OOC2004050400110   12:04   00366 OOC2004050400117   12:04
 00370 OOC2004050400122   12:04   00386 OOC2004050400180   12:05
 00391 OOC2004050400185   12:05   00392 OOC2004050400188   12:05
 00394 OOC2004050400190   12:05   00396 OOC2004050400192   12:05
 00474 OOC2004050400233   12:40   00570 OOC2004050400301   12:49
 00804 OOC2004050400359   14:45   00807 OOC2004050400369   14:45
 00808 OOC2004050400372   14:45   00809 OOC2004050400374   14:45
 00810 OOC2004050400378   14:45   00813 OOC2004050400381   14:45
 00814 OOC2004050400385   14:45   00816 OOC2004050400382   14:45
 00817 OOC2004050400383   14:45   00818 OOC2004050400387   14:45
 00822 OOC2004050400390   14:45   00826 OOC2004050400393   14:45
 00830 OOC2004050400403   14:45   00831 OOC2004050400402   14:45
 00841 OOC2004050400435   14:46   00847 OOC2004050400432   14:46
*00851 OOC2004050400441   14:46   00922 OOC2004050400461   15:26
 00941 OOC2004050400475   15:26   01351 OOC2004050400536   17:44
 01387 OOC2004050400663   18:08   01435 OOC2004050400308   18:18
 01436 OOC2004050400320   18:18   01454 OOC2004050400669   18:19
 01458 OOC2004050400672   18:19   01481 OOC2004050400450   18:25
 01482 OOC2004050400525   18:25   01502 OOC2004050400486   18:36
 01516 OOC2004050400692   18:36   01625 OOC2004050400221   20:06


Service Area: 509222
 00123 UULC2004050400150  09:57   00126 UULC2004050400161  09:57
 00236 UULC2004050400255  10:55   00279 UULC2004050400275  11:42
 00280 UULC2004050400276  11:42   00283 UULC2004050400278  11:42
 00284 UULC2004050400280  11:42   00415 UULC2004050400353  12:06
 00520 UULC2004050400271  12:41   00882 UULC2004050400626  15:17
 01269 UULC2004050400920  17:25   01477 UULC2004050401037  18:19
 01618 UULC2004050401123  19:56


Service Area: 509248
 00161 WOC2004050400027   10:24   00231 WOC2004050400032   10:55
 00311 WOC2004050400046   11:43   00316 WOC2004050400053   11:43
 00326 WOC2004050400057   11:43   00341 WOC2004050400059   11:50
 00417 WOC2004050400060   12:06   00422 WOC2004050400061   12:06
 00430 WOC2004050400063   12:06  *00554 WOC2004050400076   12:42
 00558 WOC2004050400077   12:42   00576 WOC2004050400079   12:49
 00683 WOC2004050400101   13:57   00685 WOC2004050400104   13:57
 00696 WOC2004050400113   14:09   00772 WOC2004050400117   14:27
 00866 WOC2004050400121   14:46   00871 WOC2004050400123   15:00
 00953 WOC2004050400128   15:27   00954 WOC2004050400129   15:27
 00955 WOC2004050400130   15:27   01009 WOC2004050400139   16:27
 01140 WOC2004050400163   17:20   01149 WOC2004050400164   17:20
*01329 WOC2004050400168   17:27   01332 WOC2004050400170   17:27
 01373 WOC2004050400171   17:46   01375 WOC2004050400172   17:46
 01386 WOC2004050400175   17:56   01430 WOC2004050400179   18:09
 01530 WOC2004050400183   18:36   01540 WOC2004050400186   18:42
*01637 WOC2004050400192   21:21


Service Area: 509349
 00076 UULC2004050300283  09:25   00077 UULC2004050300291  09:25
 00078 UULC2004050300297  09:25   00079 UULC2004050300299  09:25


Service Area: 509522
 00020 UULC2004050301211  06:19   00143 UULC2004050400178  10:17
 00216 UULC2004050400213  10:54  *00331 WOC2004050400056   11:44
*00522 UULC2004050400269  12:41  *00523 WOC2004050400036   12:41
 00637 UULC2004050400524  13:24   00645 WOC2004050400087   13:30
*00695 UULC2004050400577  14:09


Service Area: 509674
 00315 WOC2004050400052   11:43   00757 WOC2004050400116   14:27


Service Area: 509765
 00074 UULC2004050300531  09:15  *00075 UULC2004050300093  09:25
 00080 UULC2004050300586  09:25   00081 UULC2004050301168  09:25
 00171 UULC2004050400210  10:30   00220 UULC2004050400231  10:54
 00886 UULC2004050400636  15:17   00896 UULC2004050400639  15:17
 01471 UULC2004050401027  18:19   01475 UULC2004050401036  18:19
 01549 UULC2004050401033  18:52


Service Area: 509923
 00586 UULC2004050400460  13:02   00730 UULC2004050400579  14:26


Service Area: 509924
 00017 UULC2004050301203  06:19   00018 IEUCC2004050300134 06:19
 00019 IEUCC2004050300135 06:19   00023 IEUCC2004050300136 06:19
 00027 IEUCC2004050300137 06:19   00029 IEUCC2004050300138 06:19
 00030 IEUCC2004050300139 06:19   00032 IEUCC2004050300140 06:19
 00033 IEUCC2004050300141 06:19   00034 IEUCC2004050300142 06:19
 00035 IEUCC2004050300143 06:19   00036 IEUCC2004050300144 06:19
 00037 IEUCC2004050300145 06:19   00038 IEUCC2004050300146 06:19
 00040 IEUCC2004050300147 06:19   00041 IEUCC2004050300148 06:19
 00043 IEUCC2004050300149 06:19   00044 IEUCC2004050300150 06:19
 00045 IEUCC2004050300151 06:19   00050 IEUCC2004050300152 06:20
 00052 IEUCC2004050300153 06:20   00053 IEUCC2004050300154 06:20
 00054 IEUCC2004050400001 06:20   00095 UULC2004050300334  09:40
 00096 UULC2004050300482  09:40   00097 WOC2004050300087   09:40
 00098 WOC2004050300135   09:40   00107 IEUCC2004050400003 09:53
 00115 UULC2004050400125  09:57   00128 WOC2004050400020   09:57
 00145 IEUCC2004050400004 10:17   00157 UULC2004050400151  10:24
 00213 IEUCC2004050400006 10:54   00223 IEUCC2004050400008 10:54
 00225 IEUCC2004050400009 10:54   00227 IEUCC2004050400010 10:55
 00229 IEUCC2004050400011 10:55   00232 IEUCC2004050400012 10:55
 00233 IEUCC2004050400013 10:55   00235 IEUCC2004050400014 10:55
 00281 UULC2004050400286  11:42   00297 IEUCC2004050400021 11:43
 00306 IEUCC2004050400022 11:43   00309 IEUCC2004050400023 11:43
*00344 IEUCC2004050400027 11:50   00419 IEUCC2004050400025 12:06
 00437 UULC2004050400394  12:06   00438 IEUCC2004050400033 12:06
 00446 IEUCC2004050400028 12:11   00447 IEUCC2004050400026 12:11
 00449 IEUCC2004050400034 12:11   00452 IEUCC2004050400036 12:11
 00516 IEUCC2004050400016 12:41   00519 IEUCC2004050400018 12:41
 00525 UULC2004050400333  12:41  *00526 IEUCC2004050400030 12:41
 00527 IEUCC2004050400029 12:41  *00529 IEUCC2004050400031 12:41
*00530 IEUCC2004050400032 12:41   00532 IEUCC2004050400035 12:41
*00540 IEUCC2004050400040 12:42   00543 IEUCC2004050400037 12:42
 00545 IEUCC2004050400039 12:42   00551 IEUCC2004050400038 12:42
 00585 IEUCC2004050400024 13:02   00592 IEUCC2004050400041 13:02
 00605 IEUCC2004050400042 13:02   00626 IEUCC2004050400044 13:24
 00628 IEUCC2004050400047 13:24   00629 IEUCC2004050400046 13:24
 00630 IEUCC2004050400052 13:24   00631 IEUCC2004050400050 13:24
 00632 IEUCC2004050400051 13:24   00636 IEUCC2004050400054 13:24
 00648 IEUCC2004050400056 13:30   00649 IEUCC2004050400055 13:30
*00665 IEUCC2004050400057 13:38  *00682 IDL2004050400234   13:57
 00701 IEUCC2004050400043 14:25   00702 IEUCC2004050400049 14:25
 00703 IEUCC2004050400059 14:25   00704 IEUCC2004050400060 14:25
 00705 IEUCC2004050400061 14:25   00708 IEUCC2004050400062 14:25
 00710 IEUCC2004050400063 14:25   00712 IEUCC2004050400064 14:25
 00713 IEUCC2004050400065 14:25   00715 IEUCC2004050400066 14:25
 00717 IEUCC2004050400067 14:26   00718 IEUCC2004050400068 14:26
 00720 IEUCC2004050400069 14:26   00727 IEUCC2004050400070 14:26
 00739 IEUCC2004050400071 14:26   00765 UULC2004050400603  14:27
 00857 IEUCC2004050400074 14:46   00858 IEUCC2004050400073 14:46
 00862 IEUCC2004050400075 14:46   00879 IEUCC2004050400076 15:17
 00880 IEUCC2004050400077 15:17   00908 IEUCC2004050400080 15:17
*00987 IEUCC2004050400094 16:19   01091 IEUCC2004050400083 16:52
 01136 IEUCC2004050400097 17:20   01151 IEUCC2004050400048 17:22
 01155 IEUCC2004050400053 17:22   01156 IEUCC2004050400078 17:22
 01157 IEUCC2004050400079 17:22   01163 IEUCC2004050400090 17:22
 01165 IEUCC2004050400091 17:22   01169 IEUCC2004050400072 17:22
 01170 IEUCC2004050400084 17:22   01171 IEUCC2004050400085 17:22
 01172 IEUCC2004050400086 17:22   01173 IEUCC2004050400088 17:22
 01178 IEUCC2004050400093 17:23   01181 IEUCC2004050400087 17:23
 01185 IEUCC2004050400089 17:23   01191 IEUCC2004050400092 17:23
 01220 IEUCC2004050400081 17:24   01227 IEUCC2004050400095 17:24
 01232 IEUCC2004050400096 17:24   01267 IEUCC2004050400098 17:25
 01270 IEUCC2004050400099 17:25   01306 IEUCC2004050400101 17:26
 01308 IEUCC2004050400100 17:26   01310 IEUCC2004050400102 17:26
 01314 IEUCC2004050400103 17:26   01316 IEUCC2004050400104 17:26
 01318 IEUCC2004050400105 17:26   01319 IDL2004050400384   17:27
 01320 IEUCC2004050400106 17:27   01325 IEUCC2004050400107 17:27
 01328 IEUCC2004050400108 17:27   01330 IEUCC2004050400109 17:27
 01378 IEUCC2004050400112 17:56   01396 IEUCC2004050400111 18:08
 01397 IEUCC2004050400113 18:08   01401 IEUCC2004050400114 18:08
 01404 IEUCC2004050400115 18:08   01405 IEUCC2004050400116 18:08
 01407 IEUCC2004050400117 18:08   01410 IEUCC2004050400118 18:08
 01411 IEUCC2004050400121 18:08   01412 UULC2004050401000  18:08
 01415 IEUCC2004050400120 18:08   01417 IEUCC2004050400122 18:09
 01419 IEUCC2004050400123 18:09   01421 IEUCC2004050400124 18:09
*01429 IEUCC2004050400125 18:09   01466 IEUCC2004050400119 18:19
 01467 UULC2004050401024  18:19   01469 IEUCC2004050400126 18:19
 01473 IEUCC2004050400127 18:19   01519 IEUCC2004050400129 18:36
 01521 IEUCC2004050400128 18:36   01541 IEUCC2004050400130 18:42
 01547 IEUCC2004050400131 18:52   01610 IEUCC2004050400133 19:55
 01613 IEUCC2004050400132 19:56   01620 UULC2004050401125  19:56
 01622 IEUCC2004050400134 19:56


Service Area: 541265
 00502 OOC2004050400286   12:41   00798 OOC2004050400346   14:44
*00970 OOC2004050400511   15:53


Service Area: 541276
 00182 OOC2004050400064   10:53   00454 OOC2004050400051   12:39
 00455 OOC2004050400052   12:39   00467 OOC2004050400237   12:40
 00483 OOC2004050400245   12:40   00664 OOC2004050400368   13:38
 00993 OOC2004050400552   16:26   01242 OOC2004050400581   17:24
 01260 OOC2004050400629   17:25   01359 OOC2004050400635   17:46
 01586 OOC2004050400718   19:32


Service Area: 541342
 00140 OOC2004050400074   10:17  *00155 OOC2004050400063   10:24
 00170 OOC2004050400077   10:30   00178 OOC2004050400042   10:53
 00184 OOC2004050400070   10:53   00186 OOC2004050400083   10:53
 00188 OOC2004050400078   10:53   00190 OOC2004050400088   10:54
*00338 OOC2004050400219   11:50   00356 OOC2004050400161   12:04
 00358 OOC2004050400163   12:04   00360 OOC2004050400106   12:04
 00374 OOC2004050400134   12:05   00399 OOC2004050400203   12:05
 00400 OOC2004050400204   12:05   00411 OOC2004050400232   12:06
 00444 OOC2004050400253   12:11  *00460 OOC2004050400096   12:39
 00461 OOC2004050400104   12:39   00471 OOC2004050400227   12:40
 00484 OOC2004050400257   12:40   00501 OOC2004050400284   12:41
 00508 OOC2004050400262   12:41   00651 OOC2004050400205   13:38
 00652 OOC2004050400196   13:38   00653 OOC2004050400280   13:38
 00656 OOC2004050400316   13:38   00657 OOC2004050400345   13:38
 00785 OOC2004050400334   14:31   00820 OOC2004050400395   14:45
 00834 OOC2004050400400   14:45   00836 OOC2004050400406   14:45
 00837 OOC2004050400408   14:45   00842 OOC2004050400420   14:46
 00843 OOC2004050400431   14:46   00848 OOC2004050400424   14:46
 00855 OOC2004050400440   14:46  *00856 OOC2004050400442   14:46
 00925 OOC2004050400451   15:26   00926 OOC2004050400453   15:26
 00927 OOC2004050400455   15:26   00930 OOC2004050400416   15:26
 00961 OOC2004050400492   15:42   01076 OOC2004050400498   16:52
 01098 OOC2004050400544   16:54   01099 OOC2004050400556   16:54
 01100 OOC2004050400564   16:54   01255 OOC2004050400607   17:25
 01272 OOC2004050400501   17:25   01300 OOC2004050400626   17:26
 01338 OOC2004050400625   17:33   01339 OOC2004050400631   17:33
 01346 OOC2004050400494   17:43   01363 OOC2004050400649   17:46
 01366 OOC2004050400655   17:46   01367 OOC2004050400659   17:46
 01443 OOC2004050400477   18:18   01452 OOC2004050400666   18:19
 01457 OOC2004050400675   18:19  *01461 OOC2004050400678   18:19
*01462 OOC2004050400680   18:19   01465 OOC2004050400684   18:19
 01480 OOC2004050400268   18:25   01485 OOC2004050400685   18:25
 01494 OOC2004050400236   18:35   01495 OOC2004050400270   18:35
 01503 OOC2004050400504   18:36   01505 OOC2004050400523   18:36
 01510 OOC2004050400595   18:36   01583 OOC2004050400708   19:32


Service Area: 541382
 00192 OOC2004050400091   10:54   00375 OOC2004050400131   12:05
 00405 OOC2004050400215   12:05   00410 OOC2004050400235   12:06
 00456 OOC2004050400058   12:39  *00457 OOC2004050400073   12:39
 00476 OOC2004050400239   12:40   00504 OOC2004050400287   12:41
 00512 OOC2004050400254   12:41   00574 OOC2004050400302   12:49
*00614 OOC2004050400307   13:24   00666 OOC2004050400043   13:48
 00668 OOC2004050400343   13:48   00845 OOC2004050400427   14:46
 00916 OOC2004050400449   15:26   00918 OOC2004050400452   15:26
 00923 OOC2004050400468   15:26   00947 OOC2004050400483   15:27
 00951 OOC2004050400488   15:27   01243 OOC2004050400587   17:24
 01279 OOC2004050400561   17:25   01286 OOC2004050400579   17:26
 01353 OOC2004050400538   17:45   01364 OOC2004050400652   17:46
 01365 OOC2004050400654   17:46   01433 OOC2004050400283   18:18
 01439 OOC2004050400436   18:18   01440 OOC2004050400443   18:18
 01446 OOC2004050400520   18:19   01447 OOC2004050400526   18:19
 01453 OOC2004050400665   18:19   01455 OOC2004050400668   18:19
 01487 OOC2004050400688   18:25   01493 OOC2004050400404   18:35
 01499 OOC2004050400415   18:36   01504 OOC2004050400518   18:36
 01506 OOC2004050400519   18:36   01513 OOC2004050400681   18:36
 01514 OOC2004050400690   18:36   01553 OOC2004050400700   19:01
 01598 OOC2004050400720   19:55


Service Area: 541474
*00064 OOC2004050400040   08:30   00193 OOC2004050400097   10:54
 00195 OOC2004050400094   10:54   00199 OOC2004050400100   10:54
 00202 OOC2004050400103   10:54   00205 OOC2004050400107   10:54
 00207 OOC2004050400120   10:54   00208 OOC2004050400121   10:54
 00209 OOC2004050400125   10:54   00210 OOC2004050400132   10:54
 00230 OOC2004050400140   10:55   00245 OOC2004050400201   11:41
 00246 OOC2004050400206   11:41   00251 OOC2004050400168   11:41
 00252 OOC2004050400182   11:41   00256 OOC2004050400178   11:41
 00257 OOC2004050400181   11:41   00258 OOC2004050400183   11:41
 00259 OOC2004050400197   11:41   00261 OOC2004050400199   11:42
 00263 OOC2004050400200   11:42   00265 OOC2004050400202   11:42
 00267 OOC2004050400209   11:42   00291 OOC2004050400213   11:42
 00488 OOC2004050400269   12:40   00495 OOC2004050400272   12:40
 00582 OOC2004050400305   13:02   00584 OOC2004050400317   13:02
*00619 OOC2004050400348   13:24   00639 OOC2004050400366   13:30
 00659 OOC2004050400371   13:38  *00669 OOC2004050400384   13:48
 00850 OOC2004050400437   14:46   00869 OOC2004050400458   14:59
 00873 OOC2004050400467   15:12   00959 OOC2004050400493   15:42
 01067 OOC2004050400576   16:44   01090 OOC2004050400584   16:52
 01263 OOC2004050400643   17:25   01344 OOC2004050400646   17:33
 01627 OOC2004050400723   20:07   01636 OOC2004050400733   21:16


Service Area: 541523
 00094 OOC2004050400055   09:40   00266 OOC2004050400207   11:42
 00621 OOC2004050400356   13:24   01106 OOC2004050400599   17:06
 01546 OOC2004050400703   18:52   01573 OOC2004050400709   19:12
 01574 OOC2004050400711   19:12   01577 OOC2004050400714   19:23
 01578 OOC2004050400715   19:23


Service Area: 541672
 00113 OOC2004050400060   09:57   00137 OOC2004050400069   10:17
 00203 OOC2004050400111   10:54   00204 OOC2004050400115   10:54
 00427 OOC2004050400244   12:06   00490 OOC2004050400277   12:40
 00573 OOC2004050400298   12:49   00618 OOC2004050400354   13:24
 00640 OOC2004050400367   13:30   00670 OOC2004050400396   13:48
 00692 OOC2004050400411   14:09   00694 OOC2004050400413   14:09
 00788 OOC2004050400433   14:31   00962 OOC2004050400503   15:42
 00982 OOC2004050400545   16:19   01054 OOC2004050400570   16:35
 01114 OOC2004050400623   17:19   01115 OOC2004050400627   17:19
 01125 OOC2004050400630   17:19   01235 OOC2004050400642   17:24
 01369 OOC2004050400660   17:46   01515 OOC2004050400691   18:36
 01532 OOC2004050400695   18:42   01533 OOC2004050400696   18:42
 01543 OOC2004050400697   18:52


Service Area: 541770
 00061 OOC2004050400037   08:28   00066 OOC2004050400041   08:46
 00112 OOC2004050400059   09:57   00114 OOC2004050400061   09:57
*00131 OOC2004050400062   10:07   00138 OOC2004050400071   10:17
 00196 OOC2004050400098   10:54   00197 OOC2004050400095   10:54
 00206 OOC2004050400116   10:54   00238 OOC2004050400141   10:58
 00239 OOC2004050400142   10:58   00247 OOC2004050400165   11:41
 00248 OOC2004050400167   11:41   00249 OOC2004050400172   11:41
 00250 OOC2004050400176   11:41   00253 OOC2004050400159   11:41
 00255 OOC2004050400184   11:41   00262 OOC2004050400199   11:42
 00264 OOC2004050400200   11:42   00426 OOC2004050400243   12:06
 00443 OOC2004050400252   12:11   00464 OOC2004050400145   12:39
 00481 OOC2004050400256   12:40  *00489 OOC2004050400260   12:40
 00492 OOC2004050400265   12:40   00493 OOC2004050400266   12:40
 00497 OOC2004050400281   12:40   00499 OOC2004050400278   12:40
 00503 OOC2004050400285   12:41   00566 OOC2004050400295   12:49
 00567 OOC2004050400296   12:49   00568 OOC2004050400297   12:49
 00569 OOC2004050400300   12:49   00608 OOC2004050400333   13:13
 00610 OOC2004050400328   13:13   00658 OOC2004050400373   13:38
 00691 OOC2004050400410   14:09   00693 OOC2004050400412   14:09
 00746 OOC2004050400429   14:26   00968 OOC2004050400514   15:53
 00969 OOC2004050400515   15:53   00994 OOC2004050400555   16:26
 01113 OOC2004050400606   17:19   01341 OOC2004050400647   17:33
 01345 OOC2004050400651   17:33   01356 OOC2004050400658   17:46
 01368 OOC2004050400662   17:46   01459 OOC2004050400679   18:19
 01464 OOC2004050400683   18:19   01484 OOC2004050400686   18:25
 01531 OOC2004050400694   18:42   01572 OOC2004050400710   19:12
 01631 OOC2004050400727   20:47   01632 OOC2004050400729   20:47
 01633 OOC2004050400730   20:47   01634 OOC2004050400731   20:47
 01639 OOC2004050400736   22:11


Service Area: 541882
 00046 OOC2004050300797   06:20   00047 OOC2004050300798   06:20
 00093 OOC2004050300043   09:40   00185 OOC2004050400067   10:53
*00336 OOC2004050400210   11:50   00458 OOC2004050400076   12:39
 00459 OOC2004050400080   12:39  *00482 OOC2004050400251   12:40
*00494 OOC2004050400264   12:40   00675 OOC2004050400084   13:52
 00815 OOC2004050400386   14:45   00821 OOC2004050400388   14:45
 00823 OOC2004050400389   14:45   00824 OOC2004050400391   14:45
 00825 OOC2004050400392   14:45   00828 OOC2004050400394   14:45
 00846 OOC2004050400428   14:46   00852 OOC2004050400430   14:46
 00854 OOC2004050400439   14:46   00917 OOC2004050400447   15:26
*00936 OOC2004050400471   15:26   00943 OOC2004050400479   15:27
 01077 OOC2004050400497   16:52   01078 OOC2004050400502   16:52
 01079 OOC2004050400506   16:52   01102 OOC2004050400583   16:54
 01104 OOC2004050400586   16:54   01105 OOC2004050400588   16:54
 01252 OOC2004050400590   17:25   01273 OOC2004050400533   17:25
 01274 OOC2004050400543   17:25   01352 OOC2004050400537   17:45
 01442 OOC2004050400446   18:18   01450 OOC2004050400657   18:19
 01463 OOC2004050400682   18:19   01498 OOC2004050400336   18:36


Service Area: 541926
 00108 OOC2004050400047   09:57   00109 OOC2004050400048   09:57
 00110 OOC2004050400049   09:57   00349 OOC2004050400143   12:04
 00350 OOC2004050400144   12:04   00351 OOC2004050400146   12:04
 00352 OOC2004050400148   12:04   00353 OOC2004050400149   12:04
 00355 OOC2004050400157   12:04   00379 OOC2004050400138   12:05
 00407 OOC2004050400223   12:05   00408 OOC2004050400224   12:05
 00463 OOC2004050400135   12:39   00491 OOC2004050400261   12:40
 00496 OOC2004050400273   12:40   00498 OOC2004050400274   12:40
 00505 OOC2004050400290   12:41   00506 OOC2004050400291   12:41
 00510 OOC2004050400292   12:41   00537 OOC2004050400169   12:42
 00580 OOC2004050400238   13:02   00650 OOC2004050400376   13:38
 00655 OOC2004050400310   13:38   00676 OOC2004050400170   13:52
 00677 OOC2004050400377   13:52   00781 OOC2004050400326   14:31
 00829 OOC2004050400399   14:45  *00865 OOC2004050400445   14:46
 00932 OOC2004050400465   15:26   00935 OOC2004050400469   15:26
*00981 OOC2004050400508   16:19   00991 OOC2004050300055   16:26
 00992 OOC2004050300229   16:26  *00997 OOC2004050400550   16:27
 01082 OOC2004050400558   16:52   01083 OOC2004050400559   16:52
 01084 OOC2004050400562   16:52   01085 OOC2004050400563   16:52
 01086 OOC2004050400565   16:52   01087 OOC2004050400567   16:52
 01088 OOC2004050400568   16:52   01089 OOC2004050400569   16:52
 01094 OOC2004050400521   16:54   01095 OOC2004050400522   16:54
 01096 OOC2004050400524   16:54   01097 OOC2004050400531   16:54
 01244 OOC2004050400591   17:24   01246 OOC2004050400528   17:24
 01262 OOC2004050400634   17:25   01278 OOC2004050400592   17:25
 01280 OOC2004050400597   17:25   01281 OOC2004050400600   17:25
 01284 OOC2004050400604   17:25   01288 OOC2004050400580   17:26
 01340 OOC2004050400640   17:33   01342 OOC2004050400650   17:33
 01343 OOC2004050400645   17:33   01357 OOC2004050400618   17:46
*01370 OOC2004050400661   17:46   01449 OOC2004050400648   18:19
 01512 OOC2004050400676   18:36   01587 OOC2004050400716   19:32
 01588 OOC2004050400717   19:32   01589 OOC2004050400719   19:32
 01626 OOC2004050400228   20:07   01628 OOC2004050400724   20:07


Service Area: 541997
 00260 OOC2004050400194   11:41   00500 OOC2004050400282   12:40
 00625 OOC2004050400365   13:24   01635 OOC2004050400732   21:16

Total number of notices sent during time period: 1640


Please notify Qwest Local Network (QLN) immediately of any missing
transmissions.

AUDIT	2005/05/07 23:01:17	00001

*********************************************************************
*  This is your End of Day Audit from QWEST COMMUNICATIONS          *
*  for the period 2005/05/06 23:00:07 thru 2005/05/07 23:00:05.     *
*********************************************************************

Service Area: 206296
 00004 UULC2005050700059     05:22   00005 UULC2005050600948     06:14
 00006 UULC2005050700060     09:57  *00018 UULC2005050700071     11:29
 00021 UULC2005050700073     11:43  *00030 UULC2005050700081     12:59
 00046 UULC2005050700094     15:42  *00056 UULC2005050700105     18:46
*00057 UULC2005050700106     18:53  *00058 UULC2005050700107     19:04
*00059 UULC2005050700108     19:04  *00060 UULC2005050700109     19:04
*00061 UULC2005050700110     19:10


Service Area: 208743
 00010 IDL2005050700014      10:56   00011 IDL2005050700015      10:56
 00012 IDL2005050700016      10:56   00019 IDL2005050700017      11:43
*00064 IDL2005050700037      21:44


Service Area: 253798
 00008 UULC2005050700063     10:38  *00025 UULC2005050700077     12:38
 00026 UULC2005050700079     12:38   00031 UULC2005050700084     13:30
*00034 UULC2005050700087     14:09  *00044 UULC2005050700090     15:09
 00048 UULC2005050700096     15:52  *00050 UULC2005050700100     16:28
*00051 UULC2005050700101     16:33   00063 UULC2005050700111     19:47


Service Area: 360385
 00045 UULC2005050700092     15:20


Service Area: 360426
*00003 UULC2005050700058     03:44


Service Area: 360457
 00043 UULC2005050700091     15:09


Service Area: 360577
*00020 NUNC/WOC2005050700014 11:43


Service Area: 360676
*00033 UULC2005050700086     14:00


Service Area: 360754
 00014 UULC2005050700066     10:56   00017 UULC2005050700070     11:29
*00032 UULC2005050700085     13:49   00055 UULC2005050700103     18:26


Service Area: 503588
 00002 OOC2005050700002      01:31   00028 OOC2005050700038      12:59
 00037 OOC2005050700041      14:16   00039 OOC2005050700043      14:43
 00054 OOC2005050700049      18:07


Service Area: 503623
 00052 OOC2005050700047      17:06  *00066 OOC2005050700051      21:44


Service Area: 503722
 00013 OOC2005050700032      10:56   00047 OOC2005050700045      15:52


Service Area: 503988
*00015 OOC2005050700033      11:05   00023 OOC2005050700036      12:23
 00049 OOC2005050700046      16:19


Service Area: 509477
 00009 IEUCC2005050700004    10:45   00022 IEUCC2005050700005    12:08
 00029 IEUCC2005050700006    12:59   00040 IEUCC2005050700007    14:52


Service Area: 509525
 00041 NUNC/WOC2005050700016 15:03


Service Area: 509574
 00024 NUNC/WOC2005050700015 12:30


Service Area: 509924
*00065 IDL2005050700037      21:44


Service Area: 541388
 00007 OOC2005050700031      10:17   00038 OOC2005050700042      14:30


Service Area: 541475
 00042 OOC2005050700044      15:09


Service Area: 541679
 00001 OOC2005050700001      01:05   00035 OOC2005050700039      14:16


Service Area: 541682
 00016 OOC2005050700035      11:22   00036 OOC2005050700040      14:16


Service Area: 541766
 00062 OOC2005050700050      19:25


Service Area: 541883
 00027 OOC2005050700037      12:59   00053 OOC2005050700048      17:24

Total number of notices sent during time period: 66


Please notify QWEST COMMUNICATIONS immediately of any missing
transmissions by calling 1-800-283-4237.  

