
CHACOM USAN 01/16/06 09:03:49
**************************************************************************
* THIS IS YOUR DAILY TICKET RECAP FOR 01/13/06.  IF THERE ARE ANY        *
* DISCREPANCIES, PLEASE NOTIFY THE USAN CENTER AT (925) 798-9504 EXT 1.  *
**************************************************************************

0014832 00001

(+) RETRANSMIT - 00000
(!) CANCEL     - 00000
(-) RESENT     - 00000
(*) BROADCAST  - 00000
( ) NORMAL     - 00001

    TOTAL      - 00001


