
 sent     01/01/03  12:10 AM sequence 0001 to OUPS station # 2972 for AGP


                      OHIO UTILITIES PROTECTION SERVICE 


                          MESSAGE LIST BY STATION
                               FOR: 12/31/02

STATION: 2972   CDC: AGP   MEMBER:  ALLEGHENY POWER

 + DENOTES TICKETS WITH LESS THAN 4 HOURS NOTICE

0001  1231-062-023-00     0002  1231-062-024-00     0003  1231-008-024-00     
0004  1231-077-045-00     0005  1231-055-041-00     

                          AMOUNT OF ADVANCE NOTICE

                 LESS THAN 1 HR   1 TO 4 HRS   4 TO 48 HRS  MORE THAN 48 HRS

NEW MESSAGES            0             0             0             5
RETRANSMISSIONS         0             0             0             0
SPECIAL MESSAGES        0             0             0             0
                     ----          ----          ----          ----
TOTALS FOR CDC AGP      0             0             0             5

 eom 





 sent     01/02/03  12:05 AM sequence 0001 to OUPS station # 2972 for AGP


                      OHIO UTILITIES PROTECTION SERVICE 


                          MESSAGE LIST BY STATION
                               FOR: 01/01/03

STATION: 2972   CDC: AGP   MEMBER:  ALLEGHENY POWER

 + DENOTES TICKETS WITH LESS THAN 4 HOURS NOTICE

0001  0101-044-005-00     

                          AMOUNT OF ADVANCE NOTICE

                 LESS THAN 1 HR   1 TO 4 HRS   4 TO 48 HRS  MORE THAN 48 HRS

NEW MESSAGES            0             0             0             1
RETRANSMISSIONS         0             0             0             0
SPECIAL MESSAGES        0             0             0             0
                     ----          ----          ----          ----
TOTALS FOR CDC AGP      0             0             0             1

 eom 





