BYERS3 CALL SUNSHINE 04/26/02 23:45:46ET

***************************************************************************
* NOW ENDING TRANSMISSION FOR TODAY - THIS IS YOUR END OF DAY AUDIT       *
* PLEASE VERIFY YOU RECEIVED ALL TKTS - IF ERRORS, PLEASE CALL THE CENTER *
***************************************************************************

00001 11620011-000 07:20   00002 11620016-000 07:20   00003 11620023-000 07:20   
00004 11620033-000 07:20   00005 11620038-000 07:20   00006 11620053-000 07:38   
00007 11620066-000 07:38   00008 11620075-000 07:38   00009 11620080-000 07:38   
00010 11620101-000 07:38   00011 11620104-000 07:38   00012 11620306-000 08:26   
00013 11620325-000 08:26   00014 11620330-000 08:26   00015 11620349-000 08:26   
00016 11620453-000 08:38   00017 11620463-000 08:38   00018 11620466-000 08:38   
00019 11620470-000 08:38   00020 11620471-000 08:38   00021 11620487-000 08:38   
00022 11620492-000 08:38   00023 11620503-000 08:38   00024 11620505-000 08:38   
00025 11620514-000 08:38   00026 11620516-000 08:38   00027 11620525-000 08:43   
00028 11620526-000 08:43   00029 11620536-000 08:43   00030 11620538-000 08:43   
00031 11620548-000 08:43   00032 11620553-000 08:44   00033 11620556-000 08:44   
00034 11620562-000 08:44   00035 11620563-000 08:44   00036 11620567-000 08:44   
00037 11620585-000 08:46   00038 11620553-001 08:46   00039 11620576-000 08:46   
00040 11620588-000 08:46   00041 11620603-000 08:54   00042 11620614-000 08:54   
00043 11620616-000 08:54   00044 11620618-000 08:54   00045 11620621-000 08:54   
00046 11620636-000 08:54   00047 11620639-000 08:54   00048 11620643-000 08:54   
00049 11620657-000 08:54   00050 11620661-000 08:54   00051 11620285-000 09:13   
00052 11620694-000 09:13   00053 11620700-000 09:13   00054 11620705-000 09:13   
00055 11620726-000 09:13   00056 11620785-000 09:13   00057 11620792-000 09:13   
00058 11620960-000 09:30   00059 11620848-000 09:30   00060 11620891-000 09:30   
00061 11620916-000 09:30   00062 11620930-000 09:30   00063 11620935-000 09:30   
00064 11620938-000 09:30   00065 11620940-000 09:30   00066 11620947-000 09:30   
00067 11620958-000 09:30   00068 11620466-001 09:41   00069 11620958-001 09:41   
00070 11620970-000 09:41   00071 11620973-000 09:41   00072 11620975-000 09:41   
00073 11620984-000 09:41   00074 11620992-000 09:41   00075 11621002-000 09:41   
00076 11621003-000 09:41   00077 11621036-000 09:41   00078 11621043-000 09:41   
00079 11621046-000 09:41   00080 10622277-002 09:48   00081 10622283-002 09:48   
00082 10622291-002 09:48   00083 10622304-001 09:48   00084 11621057-000 09:48   
00085 11621063-000 09:48   00086 11621070-000 09:48   00087 11621073-000 09:49   
00088 11621085-000 09:49   00089 11621098-000 09:49   00090 11621115-000 09:56   
00091 11621129-000 09:56   00092 11621134-000 09:56   00093 11621136-000 09:56   
00094 11621144-000 09:56   00095 11621147-000 09:56   00096 11621154-000 09:56   
00097 11621155-000 09:56   00098 11621158-000 09:56   00099 11621160-000 09:56   
00100 11621288-000 10:12   00101 11621172-000 10:12   00102 11621180-000 10:12   
00103 11621199-000 10:12   00104 11621234-000 10:12   00105 11620518-000 10:25   
00106 11621298-000 10:25   00107 11621327-000 10:25   00108 11621366-000 10:25   
00109 11621367-000 10:25   00110 11621370-000 10:25   00111 11621382-000 10:25   
00112 11621394-000 10:25   00113 11621396-000 10:25   00114 11621398-000 10:25   
00115 11621410-000 10:25   00116 11621421-000 10:33   00117 11621432-000 10:33   
00118 11621434-000 10:33   00119 11621435-000 10:33   00120 11621446-000 10:33   
00121 11621454-000 10:33   00122 11621460-000 10:33   00123 11621463-000 10:33   
00124 11621465-000 10:33   00125 11621470-000 10:33   00126 11621480-000 10:42   
00127 11621491-000 10:42   00128 11621496-000 10:42   00129 11621506-000 10:42   
00130 11621506-001 10:42   00131 11621509-000 10:42   00132 11621518-000 10:42   
00133 11621522-000 10:42   00134 11621538-000 10:42   00135 11621551-000 10:42   
00136 11621646-000 10:53   00137 11621555-000 10:53   00138 11621567-000 10:53   
00139 11621577-000 10:53   00140 11621590-000 10:53   00141 11621602-000 10:53   
00142 11621608-000 10:53   00143 11621626-000 10:53   00144 11621636-000 10:53   
00145 11621645-000 10:53   00146 11621648-000 10:53   00147 11621664-000 10:53   
00148 11621791-000 11:07   00149 11621676-000 11:07   00150 11621691-000 11:07   
00151 11621697-000 11:07   00152 11621699-000 11:07   00153 11621717-000 11:07   
00154 11621737-000 11:07   00155 11621747-000 11:07   00156 11621761-000 11:07   
00157 11621788-000 11:07   00158 11621913-000 11:23   00159 11621815-000 11:23   
00160 11621825-000 11:23   00161 11621828-000 11:23   00162 11621844-000 11:23   
00163 11621846-000 11:23   00164 11621859-000 11:23   00165 11621890-000 11:23   
00166 11621904-000 11:23   00167 11621923-000 11:35   00168 11621936-000 11:35   
00169 11621944-000 11:35   00170 11621948-000 11:35   00171 11621952-000 11:35   
00172 11621955-000 11:35   00173 11621957-000 11:35   00174 11621972-000 11:35   




BYERS3 CALL SUNSHINE 04/26/02 23:45:46ET

***************************************************************************
* NOW ENDING TRANSMISSION FOR TODAY - THIS IS YOUR END OF DAY AUDIT       *
* PLEASE VERIFY YOU RECEIVED ALL TKTS - IF ERRORS, PLEASE CALL THE CENTER *
***************************************************************************

00175 11621974-000 11:35   00176 11621991-000 11:35   00177 11621992-000 11:35   
00178 11621994-000 11:35   00179 11622001-000 11:35   00180 11622005-000 11:52   
00181 11622007-000 11:52   00182 11622011-000 11:52   00183 11622014-000 11:52   
00184 11622020-000 11:52   00185 11622021-000 11:52   00186 11622028-000 11:52   
00187 11622036-000 11:52   00188 11622070-000 11:52   00189 11622093-000 11:52   
00190 11622102-000 11:52   00191 11622181-000 12:05   00192 11622115-000 12:05   
00193 11622116-000 12:05   00194 11622133-000 12:05   00195 11622134-000 12:05   
00196 11622141-000 12:05   00197 11622143-000 12:05   00198 11622151-000 12:05   
00199 11622161-000 12:05   00200 11622207-000 12:25   00201 11622266-000 12:25   
00202 11622278-000 12:25   00203 11622288-000 12:25   00204 11622308-000 12:44   
00205 11622315-000 12:44   00206 11622319-000 12:44   00207 11622328-000 12:44   
00208 11622330-000 12:44   00209 11622337-000 12:44   00210 11622348-000 12:44   
00211 11622353-000 12:44   00212 11622368-000 12:44   00213 11224970-001 13:04   
00214 11622390-000 13:04   00215 11622403-000 13:04   00216 11622431-000 13:04   
00217 11622448-000 13:04   00218 11622452-000 13:04   00219 11622454-000 13:04   
00220 11622459-000 13:04   00221 11622581-000 13:26   00222 11622529-000 13:26   
00223 11622536-000 13:26   00224 11622549-000 13:26   00225 11622552-000 13:26   
00226 11622559-000 13:27   00227 11622579-000 13:27   00228 11622630-000 13:36   
00229 11622634-000 13:36   00230 11622599-000 13:36   00231 11622618-000 13:36   
00232 11622774-000 13:58   00233 11622695-000 13:58   00234 11622708-000 13:58   
00235 11622709-000 13:58   00236 11622725-000 13:58   00237 11622726-000 13:58   
00238 11622752-000 13:58   00239 11622753-000 13:58   00240 11622778-000 14:18   
00241 11622791-000 14:18   00242 11622793-000 14:18   00243 11622801-000 14:18   
00244 11622804-000 14:18   00245 11622823-000 14:18   00246 11622836-000 14:18   
00247 11622842-000 14:18   00248 11622848-000 14:18   00249 11622864-000 14:18   
00250 11622887-000 14:18   00251 11622915-000 14:18   00252 11622924-000 14:28   
00253 11622927-000 14:28   00254 11622932-000 14:28   00255 11622950-000 14:28   
00256 11622954-000 14:28   00257 11622966-000 14:28   00258 11622969-000 14:28   
00259 11622976-000 14:28   00260 11622979-000 14:28   00261 11622988-000 14:28   
00262 11622992-000 14:28   00263 11623074-000 14:41   00264 11424881-001 14:41   
00265 11622910-000 14:41   00266 11622995-000 14:41   00267 11623023-000 14:41   
00268 11623041-000 14:41   00269 11623060-000 14:41   00270 11321274-002 14:58   
00271 11623087-000 14:58   00272 11623096-000 14:58   00273 11623115-000 14:58   
00274 11623125-000 14:58   00275 11623148-000 14:58   00276 11623182-000 14:58   
00277 11623206-000 15:15   00278 11623226-000 15:15   00279 11623226-001 15:15   
00280 11623228-000 15:15   00281 11623253-000 15:15   00282 11623275-000 15:15   
00283 11623286-000 15:15   00284 11224426-001 15:33   00285 11623348-000 15:33   
00286 11623378-000 15:33   00287 11623426-000 15:33   00288 11623593-000 15:55   
00289 11623521-000 15:55   00290 11623549-000 15:55   00291 11623665-000 16:24   
00292 11623678-000 16:24   00293 11623684-000 16:24   00294 11623696-000 16:24   
00295 11623705-000 16:24   00296 11623709-000 16:24   00297 11623717-000 16:24   
00298 11623727-000 16:24   00299 11623736-000 16:24   00300 11623740-000 16:24   
00301 11623758-000 16:35   00302 11623747-000 16:35   00303 11623755-000 16:35   
00304 11623759-000 16:35   00305 11623767-000 16:35   00306 11623768-000 16:35   
00307 11623772-000 16:35   00308 11623779-000 16:35   00309 11623781-000 16:35   
00310 11623785-000 16:35   00311 11623635-000 16:51   00312 11623792-000 16:51   
00313 11623797-000 16:51   00314 11623798-000 16:51   00315 11623851-000 16:51   
00316 11623856-000 16:51   00317 11623864-000 17:08   00318 11623865-000 17:08   
00319 11623869-000 17:08   00320 11623872-000 17:08   00321 11623875-000 17:08   
00322 11623881-000 17:08   00323 11623882-000 17:08   00324 11623910-000 17:08   
00325 11623944-000 18:08   00326 11623948-000 18:08   

Total: 326




OUC553 CALL SUNSHINE 04/26/02 23:45:47ET

***************************************************************************
* NOW ENDING TRANSMISSION FOR TODAY - THIS IS YOUR END OF DAY AUDIT       *
* PLEASE VERIFY YOU RECEIVED ALL TKTS - IF ERRORS, PLEASE CALL THE CENTER *
***************************************************************************

00008 11620075-000 07:38   00012 11620306-000 08:26   00014 11620330-000 08:26   
00015 11620349-000 08:26   00017 11620463-000 08:38   00018 11620466-000 08:38   
00032 11620553-000 08:44   00036 11620567-000 08:44   00037 11620585-000 08:46   
00038 11620553-001 08:46   00051 11620285-000 09:13   00056 11620785-000 09:13   
00058 11620960-000 09:30   00059 11620848-000 09:30   00060 11620891-000 09:30   
00068 11620466-001 09:41   00070 11620970-000 09:41   00074 11620992-000 09:41   
00075 11621002-000 09:41   00077 11621036-000 09:41   00079 11621046-000 09:41   
00080 10622277-002 09:48   00081 10622283-002 09:48   00082 10622291-002 09:48   
00083 10622304-001 09:48   00098 11621158-000 09:56   00100 11621288-000 10:12   
00108 11621366-000 10:25   00113 11621396-000 10:25   00114 11621398-000 10:25   
00117 11621432-000 10:33   00118 11621434-000 10:33   00121 11621454-000 10:33   
00129 11621506-000 10:42   00130 11621506-001 10:42   00132 11621518-000 10:42   
00136 11621646-000 10:53   00137 11621555-000 10:53   00141 11621602-000 10:53   
00144 11621636-000 10:53   00146 11621648-000 10:53   00148 11621791-000 11:07   
00155 11621747-000 11:07   00157 11621788-000 11:07   00161 11621828-000 11:23   
00162 11621844-000 11:23   00163 11621846-000 11:23   00164 11621859-000 11:23   
00169 11621944-000 11:35   00172 11621955-000 11:35   00174 11621972-000 11:35   
00175 11621974-000 11:35   00177 11621992-000 11:35   00180 11622005-000 11:52   
00183 11622014-000 11:52   00185 11622021-000 11:52   00187 11622036-000 11:52   
00191 11622181-000 12:05   00197 11622143-000 12:05   00202 11622278-000 12:25   
00205 11622315-000 12:44   00206 11622319-000 12:44   00208 11622330-000 12:44   
00211 11622353-000 12:44   00213 11224970-001 13:04   00215 11622403-000 13:04   
00216 11622431-000 13:04   00219 11622454-000 13:04   00220 11622459-000 13:04   
00222 11622529-000 13:26   00224 11622549-000 13:26   00226 11622559-000 13:27   
00229 11622634-000 13:36   00231 11622618-000 13:36   00234 11622708-000 13:58   
00238 11622752-000 13:58   00243 11622801-000 14:18   00253 11622927-000 14:28   
00256 11622954-000 14:28   00261 11622988-000 14:28   00262 11622992-000 14:28   
00269 11623060-000 14:41   00274 11623125-000 14:58   00289 11623521-000 15:55   
00295 11623705-000 16:24   00297 11623717-000 16:24   00299 11623736-000 16:24   
00300 11623740-000 16:24   00302 11623747-000 16:35   00303 11623755-000 16:35   
00304 11623759-000 16:35   00305 11623767-000 16:35   00307 11623772-000 16:35   
00308 11623779-000 16:35   00309 11623781-000 16:35   00310 11623785-000 16:35   
00311 11623635-000 16:51   00312 11623792-000 16:51   00313 11623797-000 16:51   
00320 11623872-000 17:08   00323 11623882-000 17:08   00326 11623948-000 18:08   

Total: 102




OUC582 CALL SUNSHINE 04/26/02 23:45:48ET

***************************************************************************
* NOW ENDING TRANSMISSION FOR TODAY - THIS IS YOUR END OF DAY AUDIT       *
* PLEASE VERIFY YOU RECEIVED ALL TKTS - IF ERRORS, PLEASE CALL THE CENTER *
***************************************************************************

00006 11620053-000 07:38   00007 11620066-000 07:38   00008 11620075-000 07:38   
00012 11620306-000 08:26   00014 11620330-000 08:26   00015 11620349-000 08:26   
00017 11620463-000 08:38   00018 11620466-000 08:38   00030 11620538-000 08:43   
00033 11620556-000 08:44   00036 11620567-000 08:44   00037 11620585-000 08:46   
00046 11620636-000 08:54   00050 11620661-000 08:54   00051 11620285-000 09:13   
00056 11620785-000 09:13   00058 11620960-000 09:30   00059 11620848-000 09:30   
00063 11620935-000 09:30   00065 11620940-000 09:30   00067 11620958-000 09:30   
00068 11620466-001 09:41   00069 11620958-001 09:41   00070 11620970-000 09:41   
00072 11620975-000 09:41   00074 11620992-000 09:41   00075 11621002-000 09:41   
00079 11621046-000 09:41   00080 10622277-002 09:48   00081 10622283-002 09:48   
00082 10622291-002 09:48   00083 10622304-001 09:48   00092 11621134-000 09:56   
00094 11621144-000 09:56   00098 11621158-000 09:56   00100 11621288-000 10:12   
00106 11621298-000 10:25   00113 11621396-000 10:25   00114 11621398-000 10:25   
00117 11621432-000 10:33   00118 11621434-000 10:33   00120 11621446-000 10:33   
00121 11621454-000 10:33   00124 11621465-000 10:33   00127 11621491-000 10:42   
00129 11621506-000 10:42   00130 11621506-001 10:42   00131 11621509-000 10:42   
00132 11621518-000 10:42   00141 11621602-000 10:53   00144 11621636-000 10:53   
00146 11621648-000 10:53   00148 11621791-000 11:07   00155 11621747-000 11:07   
00164 11621859-000 11:23   00169 11621944-000 11:35   00172 11621955-000 11:35   
00174 11621972-000 11:35   00175 11621974-000 11:35   00176 11621991-000 11:35   
00177 11621992-000 11:35   00179 11622001-000 11:35   00180 11622005-000 11:52   
00183 11622014-000 11:52   00185 11622021-000 11:52   00187 11622036-000 11:52   
00191 11622181-000 12:05   00193 11622116-000 12:05   00197 11622143-000 12:05   
00202 11622278-000 12:25   00205 11622315-000 12:44   00206 11622319-000 12:44   
00208 11622330-000 12:44   00211 11622353-000 12:44   00213 11224970-001 13:04   
00215 11622403-000 13:04   00216 11622431-000 13:04   00218 11622452-000 13:04   
00219 11622454-000 13:04   00222 11622529-000 13:26   00224 11622549-000 13:26   
00225 11622552-000 13:26   00226 11622559-000 13:27   00227 11622579-000 13:27   
00229 11622634-000 13:36   00231 11622618-000 13:36   00232 11622774-000 13:58   
00238 11622752-000 13:58   00239 11622753-000 13:58   00242 11622793-000 14:18   
00243 11622801-000 14:18   00253 11622927-000 14:28   00256 11622954-000 14:28   
00259 11622976-000 14:28   00261 11622988-000 14:28   00265 11622910-000 14:41   
00269 11623060-000 14:41   00270 11321274-002 14:58   00274 11623125-000 14:58   
00278 11623226-000 15:15   00279 11623226-001 15:15   00281 11623253-000 15:15   
00283 11623286-000 15:15   00285 11623348-000 15:33   00289 11623521-000 15:55   
00295 11623705-000 16:24   00299 11623736-000 16:24   00300 11623740-000 16:24   
00302 11623747-000 16:35   00303 11623755-000 16:35   00304 11623759-000 16:35   
00305 11623767-000 16:35   00307 11623772-000 16:35   00308 11623779-000 16:35   
00309 11623781-000 16:35   00310 11623785-000 16:35   00311 11623635-000 16:51   
00312 11623792-000 16:51   00313 11623797-000 16:51   00314 11623798-000 16:51   
00320 11623872-000 17:08   00323 11623882-000 17:08   00326 11623948-000 18:08   

Total: 123




OUC613 CALL SUNSHINE 04/26/02 23:45:50ET

***************************************************************************
* NOW ENDING TRANSMISSION FOR TODAY - THIS IS YOUR END OF DAY AUDIT       *
* PLEASE VERIFY YOU RECEIVED ALL TKTS - IF ERRORS, PLEASE CALL THE CENTER *
***************************************************************************

00012 11620306-000 08:26   00014 11620330-000 08:26   00015 11620349-000 08:26   
00074 11620992-000 09:41   00100 11621288-000 10:12   00114 11621398-000 10:25   
00117 11621432-000 10:33   00121 11621454-000 10:33   00169 11621944-000 11:35   
00172 11621955-000 11:35   00175 11621974-000 11:35   00176 11621991-000 11:35   
00179 11622001-000 11:35   00180 11622005-000 11:52   00185 11622021-000 11:52   
00187 11622036-000 11:52   00215 11622403-000 13:04   00222 11622529-000 13:26   
00224 11622549-000 13:26   00229 11622634-000 13:36   00256 11622954-000 14:28   
00295 11623705-000 16:24   00308 11623779-000 16:35   00314 11623798-000 16:51   

Total: 24




SBF20 CALL SUNSHINE 04/26/02 23:45:51ET

***************************************************************************
* NOW ENDING TRANSMISSION FOR TODAY - THIS IS YOUR END OF DAY AUDIT       *
* PLEASE VERIFY YOU RECEIVED ALL TKTS - IF ERRORS, PLEASE CALL THE CENTER *
***************************************************************************

00001 11620011-000 07:20   00002 11620016-000 07:20   00003 11620023-000 07:20   
00004 11620033-000 07:20   00005 11620038-000 07:20   00006 11620053-000 07:38   
00007 11620066-000 07:38   00008 11620075-000 07:38   00009 11620080-000 07:38   
00010 11620101-000 07:38   00012 11620306-000 08:26   00013 11620325-000 08:26   
00014 11620330-000 08:26   00015 11620349-000 08:26   00016 11620453-000 08:38   
00017 11620463-000 08:38   00018 11620466-000 08:38   00019 11620470-000 08:38   
00020 11620471-000 08:38   00021 11620487-000 08:38   00022 11620492-000 08:38   
00023 11620503-000 08:38   00024 11620505-000 08:38   00025 11620514-000 08:38   
00026 11620516-000 08:38   00027 11620525-000 08:43   00028 11620526-000 08:43   
00029 11620536-000 08:43   00030 11620538-000 08:43   00031 11620548-000 08:43   
00032 11620553-000 08:44   00033 11620556-000 08:44   00035 11620563-000 08:44   
00036 11620567-000 08:44   00037 11620585-000 08:46   00038 11620553-001 08:46   
00039 11620576-000 08:46   00040 11620588-000 08:46   00041 11620603-000 08:54   
00042 11620614-000 08:54   00043 11620616-000 08:54   00045 11620621-000 08:54   
00046 11620636-000 08:54   00047 11620639-000 08:54   00048 11620643-000 08:54   
00049 11620657-000 08:54   00050 11620661-000 08:54   00051 11620285-000 09:13   
00052 11620694-000 09:13   00054 11620705-000 09:13   00055 11620726-000 09:13   
00056 11620785-000 09:13   00057 11620792-000 09:13   00058 11620960-000 09:30   
00059 11620848-000 09:30   00060 11620891-000 09:30   00061 11620916-000 09:30   
00062 11620930-000 09:30   00064 11620938-000 09:30   00066 11620947-000 09:30   
00068 11620466-001 09:41   00070 11620970-000 09:41   00071 11620973-000 09:41   
00073 11620984-000 09:41   00074 11620992-000 09:41   00075 11621002-000 09:41   
00076 11621003-000 09:41   00077 11621036-000 09:41   00078 11621043-000 09:41   
00079 11621046-000 09:41   00080 10622277-002 09:48   00081 10622283-002 09:48   
00082 10622291-002 09:48   00083 10622304-001 09:48   00084 11621057-000 09:48   
00085 11621063-000 09:48   00086 11621070-000 09:48   00088 11621085-000 09:49   
00089 11621098-000 09:49   00090 11621115-000 09:56   00091 11621129-000 09:56   
00092 11621134-000 09:56   00093 11621136-000 09:56   00094 11621144-000 09:56   
00095 11621147-000 09:56   00096 11621154-000 09:56   00097 11621155-000 09:56   
00098 11621158-000 09:56   00099 11621160-000 09:56   00100 11621288-000 10:12   
00101 11621172-000 10:12   00102 11621180-000 10:12   00103 11621199-000 10:12   
00104 11621234-000 10:12   00105 11620518-000 10:25   00106 11621298-000 10:25   
00108 11621366-000 10:25   00109 11621367-000 10:25   00110 11621370-000 10:25   
00111 11621382-000 10:25   00112 11621394-000 10:25   00113 11621396-000 10:25   
00114 11621398-000 10:25   00115 11621410-000 10:25   00116 11621421-000 10:33   
00117 11621432-000 10:33   00118 11621434-000 10:33   00119 11621435-000 10:33   
00121 11621454-000 10:33   00122 11621460-000 10:33   00123 11621463-000 10:33   
00124 11621465-000 10:33   00125 11621470-000 10:33   00126 11621480-000 10:42   
00127 11621491-000 10:42   00128 11621496-000 10:42   00129 11621506-000 10:42   
00130 11621506-001 10:42   00131 11621509-000 10:42   00132 11621518-000 10:42   
00133 11621522-000 10:42   00134 11621538-000 10:42   00135 11621551-000 10:42   
00136 11621646-000 10:53   00137 11621555-000 10:53   00138 11621567-000 10:53   
00140 11621590-000 10:53   00141 11621602-000 10:53   00142 11621608-000 10:53   
00143 11621626-000 10:53   00144 11621636-000 10:53   00145 11621645-000 10:53   
00146 11621648-000 10:53   00147 11621664-000 10:53   00148 11621791-000 11:07   
00149 11621676-000 11:07   00151 11621697-000 11:07   00152 11621699-000 11:07   
00153 11621717-000 11:07   00154 11621737-000 11:07   00155 11621747-000 11:07   
00156 11621761-000 11:07   00157 11621788-000 11:07   00158 11621913-000 11:23   
00159 11621815-000 11:23   00161 11621828-000 11:23   00162 11621844-000 11:23   
00163 11621846-000 11:23   00164 11621859-000 11:23   00165 11621890-000 11:23   
00166 11621904-000 11:23   00167 11621923-000 11:35   00168 11621936-000 11:35   
00169 11621944-000 11:35   00170 11621948-000 11:35   00171 11621952-000 11:35   
00172 11621955-000 11:35   00173 11621957-000 11:35   00174 11621972-000 11:35   
00175 11621974-000 11:35   00176 11621991-000 11:35   00177 11621992-000 11:35   
00178 11621994-000 11:35   00179 11622001-000 11:35   00180 11622005-000 11:52   
00181 11622007-000 11:52   00182 11622011-000 11:52   00183 11622014-000 11:52   
00184 11622020-000 11:52   00185 11622021-000 11:52   00186 11622028-000 11:52   
00187 11622036-000 11:52   00188 11622070-000 11:52   00189 11622093-000 11:52   




SBF20 CALL SUNSHINE 04/26/02 23:45:51ET

***************************************************************************
* NOW ENDING TRANSMISSION FOR TODAY - THIS IS YOUR END OF DAY AUDIT       *
* PLEASE VERIFY YOU RECEIVED ALL TKTS - IF ERRORS, PLEASE CALL THE CENTER *
***************************************************************************

00190 11622102-000 11:52   00191 11622181-000 12:05   00192 11622115-000 12:05   
00194 11622133-000 12:05   00195 11622134-000 12:05   00196 11622141-000 12:05   
00197 11622143-000 12:05   00198 11622151-000 12:05   00199 11622161-000 12:05   
00200 11622207-000 12:25   00201 11622266-000 12:25   00202 11622278-000 12:25   
00203 11622288-000 12:25   00204 11622308-000 12:44   00205 11622315-000 12:44   
00206 11622319-000 12:44   00207 11622328-000 12:44   00208 11622330-000 12:44   
00209 11622337-000 12:44   00210 11622348-000 12:44   00211 11622353-000 12:44   
00213 11224970-001 13:04   00214 11622390-000 13:04   00215 11622403-000 13:04   
00216 11622431-000 13:04   00217 11622448-000 13:04   00218 11622452-000 13:04   
00219 11622454-000 13:04   00220 11622459-000 13:04   00221 11622581-000 13:26   
00222 11622529-000 13:26   00223 11622536-000 13:26   00224 11622549-000 13:26   
00225 11622552-000 13:26   00226 11622559-000 13:27   00228 11622630-000 13:36   
00229 11622634-000 13:36   00230 11622599-000 13:36   00231 11622618-000 13:36   
00232 11622774-000 13:58   00233 11622695-000 13:58   00234 11622708-000 13:58   
00236 11622725-000 13:58   00237 11622726-000 13:58   00238 11622752-000 13:58   
00240 11622778-000 14:18   00241 11622791-000 14:18   00242 11622793-000 14:18   
00243 11622801-000 14:18   00245 11622823-000 14:18   00246 11622836-000 14:18   
00247 11622842-000 14:18   00248 11622848-000 14:18   00249 11622864-000 14:18   
00250 11622887-000 14:18   00251 11622915-000 14:18   00252 11622924-000 14:28   
00253 11622927-000 14:28   00254 11622932-000 14:28   00255 11622950-000 14:28   
00256 11622954-000 14:28   00257 11622966-000 14:28   00258 11622969-000 14:28   
00260 11622979-000 14:28   00261 11622988-000 14:28   00263 11623074-000 14:41   
00264 11424881-001 14:41   00265 11622910-000 14:41   00266 11622995-000 14:41   
00267 11623023-000 14:41   00268 11623041-000 14:41   00269 11623060-000 14:41   
00270 11321274-002 14:58   00271 11623087-000 14:58   00272 11623096-000 14:58   
00273 11623115-000 14:58   00274 11623125-000 14:58   00275 11623148-000 14:58   
00276 11623182-000 14:58   00277 11623206-000 15:15   00278 11623226-000 15:15   
00279 11623226-001 15:15   00280 11623228-000 15:15   00281 11623253-000 15:15   
00282 11623275-000 15:15   00283 11623286-000 15:15   00284 11224426-001 15:33   
00286 11623378-000 15:33   00287 11623426-000 15:33   00288 11623593-000 15:55   
00290 11623549-000 15:55   00291 11623665-000 16:24   00292 11623678-000 16:24   
00293 11623684-000 16:24   00294 11623696-000 16:24   00295 11623705-000 16:24   
00296 11623709-000 16:24   00297 11623717-000 16:24   00298 11623727-000 16:24   
00299 11623736-000 16:24   00300 11623740-000 16:24   00302 11623747-000 16:35   
00303 11623755-000 16:35   00304 11623759-000 16:35   00305 11623767-000 16:35   
00307 11623772-000 16:35   00308 11623779-000 16:35   00309 11623781-000 16:35   
00310 11623785-000 16:35   00311 11623635-000 16:51   00312 11623792-000 16:51   
00313 11623797-000 16:51   00314 11623798-000 16:51   00315 11623851-000 16:51   
00316 11623856-000 16:51   00317 11623864-000 17:08   00318 11623865-000 17:08   
00319 11623869-000 17:08   00320 11623872-000 17:08   00321 11623875-000 17:08   
00322 11623881-000 17:08   00323 11623882-000 17:08   00324 11623910-000 17:08   
00325 11623944-000 18:08   00326 11623948-000 18:08   

Total: 299




TLMD03 CALL SUNSHINE 04/26/02 23:45:54ET

***************************************************************************
* NOW ENDING TRANSMISSION FOR TODAY - THIS IS YOUR END OF DAY AUDIT       *
* PLEASE VERIFY YOU RECEIVED ALL TKTS - IF ERRORS, PLEASE CALL THE CENTER *
***************************************************************************

00044 11620618-000 08:54   00063 11620935-000 09:30   00065 11620940-000 09:30   
00067 11620958-000 09:30   00069 11620958-001 09:41   00072 11620975-000 09:41   
00087 11621073-000 09:49   00120 11621446-000 10:33   00139 11621577-000 10:53   
00160 11621825-000 11:23   00235 11622709-000 13:58   00239 11622753-000 13:58   
00244 11622804-000 14:18   00259 11622976-000 14:28   00265 11622910-000 14:41   
00270 11321274-002 14:58   00301 11623758-000 16:35   

Total: 17




TSC364 CALL SUNSHINE 04/26/02 23:45:54ET

***************************************************************************
* NOW ENDING TRANSMISSION FOR TODAY - THIS IS YOUR END OF DAY AUDIT       *
* PLEASE VERIFY YOU RECEIVED ALL TKTS - IF ERRORS, PLEASE CALL THE CENTER *
***************************************************************************

00005 11620038-000 07:20   00007 11620066-000 07:38   00011 11620104-000 07:38   
00013 11620325-000 08:26   00026 11620516-000 08:38   00032 11620553-000 08:44   
00034 11620562-000 08:44   00038 11620553-001 08:46   00040 11620588-000 08:46   
00044 11620618-000 08:54   00052 11620694-000 09:13   00053 11620700-000 09:13   
00060 11620891-000 09:30   00061 11620916-000 09:30   00062 11620930-000 09:30   
00066 11620947-000 09:30   00071 11620973-000 09:41   00073 11620984-000 09:41   
00077 11621036-000 09:41   00078 11621043-000 09:41   00080 10622277-002 09:48   
00081 10622283-002 09:48   00082 10622291-002 09:48   00083 10622304-001 09:48   
00084 11621057-000 09:48   00085 11621063-000 09:48   00086 11621070-000 09:48   
00088 11621085-000 09:49   00089 11621098-000 09:49   00090 11621115-000 09:56   
00091 11621129-000 09:56   00092 11621134-000 09:56   00093 11621136-000 09:56   
00094 11621144-000 09:56   00095 11621147-000 09:56   00098 11621158-000 09:56   
00099 11621160-000 09:56   00101 11621172-000 10:12   00102 11621180-000 10:12   
00105 11620518-000 10:25   00107 11621327-000 10:25   00110 11621370-000 10:25   
00119 11621435-000 10:33   00122 11621460-000 10:33   00131 11621509-000 10:42   
00133 11621522-000 10:42   00136 11621646-000 10:53   00137 11621555-000 10:53   
00146 11621648-000 10:53   00147 11621664-000 10:53   00149 11621676-000 11:07   
00150 11621691-000 11:07   00153 11621717-000 11:07   00156 11621761-000 11:07   
00158 11621913-000 11:23   00164 11621859-000 11:23   00170 11621948-000 11:35   
00176 11621991-000 11:35   00177 11621992-000 11:35   00178 11621994-000 11:35   
00179 11622001-000 11:35   00182 11622011-000 11:52   00183 11622014-000 11:52   
00194 11622133-000 12:05   00196 11622141-000 12:05   00197 11622143-000 12:05   
00198 11622151-000 12:05   00199 11622161-000 12:05   00201 11622266-000 12:25   
00202 11622278-000 12:25   00204 11622308-000 12:44   00207 11622328-000 12:44   
00212 11622368-000 12:44   00218 11622452-000 13:04   00219 11622454-000 13:04   
00220 11622459-000 13:04   00225 11622552-000 13:26   00226 11622559-000 13:27   
00230 11622599-000 13:36   00232 11622774-000 13:58   00234 11622708-000 13:58   
00237 11622726-000 13:58   00242 11622793-000 14:18   00247 11622842-000 14:18   
00253 11622927-000 14:28   00263 11623074-000 14:41   00269 11623060-000 14:41   
00271 11623087-000 14:58   00272 11623096-000 14:58   00273 11623115-000 14:58   
00278 11623226-000 15:15   00279 11623226-001 15:15   00281 11623253-000 15:15   
00283 11623286-000 15:15   00286 11623378-000 15:33   00297 11623717-000 16:24   
00301 11623758-000 16:35   00306 11623768-000 16:35   00318 11623865-000 17:08   

Total: 99





