
0012 *EOD* KUPIa 07/11/2006 12:08:27


00001 0607110006-01A 11:28   00002 0607110010-04A 11:28   
00003 0607110009-01A 11:45   00004 0607110011-01A 11:45   
00005 0607110003-01A 11:46   00006 0607110002-02A 11:48   

Total: 6

