



SEQUENCE NUMBER 0002   CDC = CSD

Audit for CDC of CSD Last Audit was on 021018 at 002511
Serial# & Seq#  Serial# & Seq#  Serial# & Seq#  Serial# & Seq#
2910008ds 0001  2910738ET 0001  2910732ET 0002  2910733ET 0003  
2910734ET 0004  2910739ET 0005  2910774ET 0006  2910741ET 0007  
2910743ET 0008  2910744ET 0009  2910745ET 0010  2910747ET 0011  
2910748ET 0012  2910750ET 0013  2910751ET 0014  2910753ET 0015  
2910758ET 0016  2910791ET 0017  2910950ET 0018  2915140ET 0019  
2910898ET 0020  2915148ET 0021  2915158ET 0022  2910961ET 0023  
2915231ET 0024  2915177ET 0025  2915232ET 0026  2915190ET 0027  
2915204ET 0028  2911121ET 0029  2915307ET 0030  2911193ET 0031  
2911196ET 0032  2915293ET 0033  2911329ET 0034  2911386ET 0035  
2911387ET 0036  2915388ET 0037  2911424ET 0038  2911576ET 0039  
2911432ET 0041  2910038ET 0043  2910041ET 0044  2910046ET 0045  
2910062ET 0046  2915667ET 0047  2911603ET 0048  2911608ET 0049  
2911611ET 0050  2911614ET 0051  2911637ET 0052  2911650ET 0053  
2911664ET 0054  2911668ET 0055  2911674ET 0056  2910070ET 0057  
2911677ET 0058  2911678ET 0059  2911685ET 0060  2911688ET 0061  
2911689ET 0062  2911718ET 0063  2911818ET 0064  2911746ET 0065  
2911788ET 0066  2915841ET 0067  2911844ET 0068  2911864ET 0069  
2911875ET 0070  2911879ET 0071  2915932ET 0072  2910167ET 0073  
2912005ET 0074  2911955ET 0075  2912002ET 0076  2912007ET 0077  
2912036ET 0078  2912024ET 0079  2912054ET 0080  2912055ET 0081  
2912248ET 0082  2910215ET 0083  2912155ET 0084  2912205ET 0085  
2916160ET 0086  2912287ET 0087  2912344ET 0088  2912336ET 0089  
2912343ET 0090  2912349ET 0091  2910249ET 0092  2910275ET 0093  
2910255ET 0094  2912399ET 0095  2916249ET 0096  2912431ET 0097  
2916314ET 0098  2912490ET 0099  2912566ET 0100  2916346ET 0101  
2912551ET 0102  2912560ET 0103  2912563ET 0104  2912599ET 0105  
2912569ET 0106  2912572ET 0107  2912576ET 0108  2912580ET 0109  
2912601ET 0110  2912635ET 0111  2910384ET 0112  2910389ET 0113  
2916501ET 0114  2912673ET 0115  2912708ET 0116  2912792ET 0117  
2912750ET 0118  2912752ET 0119  2910460ET 0120  2916622ET 0121  
2912849ET 0122  2912897ET 0123  2912915ET 0124  2912937ET 0125  
2920519ET 0126  2920592ET 0127  2920594ET 0128  2920618ET 0129  
2920722ET 0130  2920751ET 0131  2925097ET 0132  2920817ET 0133  
2930509ET 0134  2930522ET 0135  2930533ET 0136  2935019ET 0137  
2935017ET 0138  2930552ET 0139  2930562ET 0140  2930563ET 0141  
2930663ET 0142  2930698ET 0143  
Total number of Dig-ups or Emergency 0040
Total number of Short Notices        0003
Total number of Priority Notices     0007
Total number of Routine Notices      0091
Total number of Messages for CSD     0141
If this audit does not match your manual tracking 
then call the Call Center and request a retransmission.





SEQUENCE NUMBER 0002   CDC = KMC

Audit for CDC of KMC Last Audit was on 021018 at 002521
Serial# & Seq#  Serial# & Seq#  Serial# & Seq#  Serial# & Seq#
2910009ds 0001  2915593ET 0040  2911470ET 0042  
Total number of Dig-ups or Emergency 0001
Total number of Short Notices        0000
Total number of Priority Notices     0000
Total number of Routine Notices      0001
Total number of Messages for KMC     0002
If this audit does not match your manual tracking 
then call the Call Center and request a retransmission.











SEQUENCE NUMBER 0002   CDC = SSC

TESS audit for CDC of SSC on 021020
Serial# & Seq#  Serial# & Seq#  Serial# & Seq#  Serial# & Seq#
022915017 0001  022915129 0023  022915213 0028  022915194 0031  
022915271 0036  022915335 0040  022911394 0044  022915401 0045  
022915593 0047  022915536 0048  022915582 0049  022915412 0052  
022911470 0053  022911479 0054  022911540 0057  022911553 0059  
022915710 0065  022915715 0066  022915670 0071  022911651 0072  
022915740 0081  022911721 0082  022910086 0084  022915762 0085  
022910094 0087  022915807 0090  022915836 0091  022915847 0093  
022915854 0096  022915861 0097  022915881 0098  022915891 0099  
022915910 0102  022915926 0103  022911951 0106  022911995 0109  
022912017 0113  022912035 0116  022912049 0117  022912061 0120  
022912074 0121  022912083 0122  022912186 0123  022912092 0124  
022916236 0137  022912389 0138  022912408 0140  022916288 0144  
022910290 0147  022910332 0150  022916373 0151  022916400 0157  
022916401 0158  022912640 0166  022916526 0171  022912747 0173  
022920520 0186  022925033 0187  022920574 0188  022920625 0192  
022925070 0193  022930610 0207  022935027 0209  022935028 0210  
022935029 0211  022935030 0212  022935031 0213  022935032 0214  
022935033 0215  022935034 0216  
Total number of Dig-ups or Emergency 0009
Total number of Short Notices        0002
Total number of Priority Notices     0017
Total number of Routine Notices      0042
Total number of Messages for SSC     0070
If this audit does not match your manual tracking 
then call the Call Center and request a retransmission.





SEQUENCE NUMBER 0002   CDC = SSG

TESS audit for CDC of SSG on 021020
Serial# & Seq#  Serial# & Seq#  Serial# & Seq#  Serial# & Seq#
Total number of Dig-ups or Emergency 0000
Total number of Short Notices        0000
Total number of Priority Notices     0000
Total number of Routine Notices      0000
Total number of Messages for SSG     0000
If this audit does not match your manual tracking 
then call the Call Center and request a retransmission.





SEQUENCE NUMBER 0002   CDC = SSR

TESS audit for CDC of SSR on 021020
Serial# & Seq#  Serial# & Seq#  Serial# & Seq#  Serial# & Seq#
022910732 0002  022910733 0003  022910734 0004  022910738 0005  
022910739 0006  022910741 0007  022910743 0008  022910744 0009  
022910774 0010  022910745 0011  022910747 0012  022910748 0013  
022910750 0014  022910751 0015  022910753 0016  022910758 0017  
022910791 0018  022910950 0019  022915140 0020  022915177 0021  
022910898 0022  022915148 0024  022915158 0025  022910961 0026  
022915231 0027  022915232 0029  022915190 0030  022915204 0032  
022911121 0033  022915388 0034  022915307 0035  022911193 0037  
022911196 0038  022915293 0039  022911329 0041  022911386 0042  
022911387 0043  022911576 0046  022911424 0050  022911432 0051  
022910038 0055  022910041 0056  022910046 0058  022911603 0060  
022911608 0061  022910062 0062  022911688 0063  022915667 0064  
022911611 0067  022911614 0068  022911637 0069  022911650 0070  
022911664 0073  022911668 0074  022911674 0075  022910070 0076  
022911677 0077  022911678 0078  022911685 0079  022911689 0080  
022911718 0083  022911746 0086  022911818 0088  022911788 0089  
022915841 0092  022911844 0094  022911864 0095  022911875 0100  
022911879 0101  022915932 0104  022910167 0105  022911955 0107  
022911970 0108  022912002 0110  022912005 0111  022912007 0112  
022912036 0114  022912024 0115  022912054 0118  022912055 0119  
022910215 0125  022912155 0126  022912248 0127  022912205 0128  
022912287 0129  022916160 0130  022912344 0131  022910249 0132  
022912336 0133  022912343 0134  022912349 0135  022910255 0136  
022912399 0139  022916249 0141  022912431 0142  022910275 0143  
022916314 0145  022912490 0146  022912566 0148  022916346 0149  
022912551 0152  022912560 0153  022912563 0154  022912569 0155  
022912572 0156  022912576 0159  022912599 0160  022912580 0161  
022912601 0162  022912635 0163  022910384 0164  022910389 0165  
022916501 0167  022912658 0168  022912673 0169  022912708 0170  
022912792 0172  022912750 0174  022912752 0175  022910460 0176  
022916622 0177  022912843 0178  022912849 0179  022912897 0180  
022912915 0181  022912937 0182  022913012 0183  022920517 0184  
022920519 0185  022920592 0189  022920594 0190  022920618 0191  
022920751 0194  022925095 0195  022925096 0196  022925097 0197  
022920817 0198  022920818 0199  022930522 0200  022930533 0201  
022935019 0202  022935017 0203  022930552 0204  022930562 0205  
022930563 0206  022930663 0208  022930698 0217  
Total number of Dig-ups or Emergency 0044
Total number of Short Notices        0003
Total number of Priority Notices     0007
Total number of Routine Notices      0093
Total number of Messages for SSR     0147
If this audit does not match your manual tracking 
then call the Call Center and request a retransmission.





SEQUENCE NUMBER 0002   CDC = SST

TESS audit for CDC of SST on 021020
Serial# & Seq#  Serial# & Seq#  Serial# & Seq#  Serial# & Seq#
Total number of Dig-ups or Emergency 0000
Total number of Short Notices        0000
Total number of Priority Notices     0000
Total number of Routine Notices      0000
Total number of Messages for SST     0000
If this audit does not match your manual tracking 
then call the Call Center and request a retransmission.








