BAJA   *EOD* UTAHa 04/14/08 17:21:52

***************************************************************************
*   THIS IS YOUR END OF OF DAY SUMMARY FOR 04/14/08.  THERE WILL BE NO    *
*          MORE REQUESTS TAKEN TODAY.  IF QUESTIONS, PLEASE CALL.         *
***************************************************************************

00001 A81050038-00A 07:29   00002 A81050039-00A 07:30
00003 A81050102-00A 08:14   00004 A81050109-00A 08:18
00005 A81050113-00A 08:21   00006 A81050166-00A 08:43 R
00007 A81050166-01A 08:44 R 00008 A81050173-00A 08:44 R
00009 A81050183-00A 08:46   00010 A81050226-00A 08:58
00011 A81050256-00A 09:10   00012 A81050300-00A 09:34
00013 A81050380-00A 10:08   00014 A81050450-00A 10:25
00015 A81050480-00A 10:47   00016 A81050531-00A 11:14
00017 A81050543-00A 11:18   00018 A81050547-00A 11:19
00019 A81050589-00A 11:36   00020 A81050638-00A 12:04
00021 A81050689-00A 12:47   00022 A81050758-00A 13:22
00023 A81050788-00A 13:47   00024 A81050836-00A 14:36
00025 A81050860-00A 14:53   00026 A81050877-00A 15:05

(R) REVISED    - 00003
(C) CANCEL     - 00000
(S) RESENT     - 00000
(Y) RENOTIFY   - 00000
(U) UNGRIDDED  - 00000
( ) NORMAL     - 00023
   TOTAL      - 00026

