SEQUENCE NUMBER 0001   CDC = T09912

WELLSCO audit for CDC of T09912 on 030314

Serial# & Seq#  Serial# & Seq#  Serial# & Seq#  Serial# & Seq#
03031215261613 0089  03031215291624 0090  03031215301626 0091  03031217571913 0106
03031219421934 0108  03031220251940 0109  03031221161947 0110  03031307130026 0001
03031307150027 0002  03031307160028 0003  03031307370050 0004  03031307390054 0006
03031307410059 0007  03031307420061 0008  03031307420063 0009  03031307430065 0010
03031307550101 0011  03031308010116 0012  03031308020118 0013  03031308080136 0014
03031308090143 0015  03031308090144 0016  03031308100145 0017  03031308190173 0018
03031308230196 0019  03031308280214 0020  03031308280216 0021  03031308290222 0022
03031308290223 0023  03031308290226 0024  03031308300230 0025  03031308330271 0027
03031308460320 0028  03031308550344 0029  03031308570351 0030  03031308580354 0032
03031309010366 0033  03031309040379 0034  03031309080384 0035  03031309140417 0037
03031309160412 0036  03031309180434 0039  03031309220430 0038  03031309340481 0041
03031309340493 0042  03031309370512 0043  03031309470549 0044  03031309470559 0045
03031309470566 0046  03031309530583 0047  03031310030620 0049  03031310120656 0050
03031310210682 0051  03031310340763 0053  03031310360766 0054  03031310360769 0055
03031310480802 0056  03031310500810 0057  03031311190908 0058  03031311310922 0059
03031311330927 0060  03031311350928 0061  03031311360930 0062  03031311360933 0063
03031311370937 0064  03031311380939 0065  03031311420951 0066  03031311450960 0068
03031311470958 0067  03031311510972 0070  03031311520977 0071  03031311530969 0069
03031312081016 0072  03031312091017 0073  03031312141020 0074  03031312151022 0075
03031312161027 0076  03031312171029 0077  03031312181032 0078  03031312251058 0079
03031312441123 0088  03031312501137 0096  03031312551144 0097  03031312561146 0098
03031313001157 0099  03031313061168 0100  03031313121190 0101  03031313251246 0102
03031313261257 0103  03031313441307 0104  03031313441313 0106  03031313461318 0108
03031313471317 0107  03031313551355 0112  03031313581391 0113  03031314021407 0114
03031314041420 0115  03031314081443 0116  03031314211533 0117  03031314211545 0118
03031314261555 0119  03031314371584 0120  03031314401605 0121  03031314421610 0122
03031315091667 0123  03031315091674 0124  03031315121675 0125  03031315131684 0126
03031315201693 0127  03031315341715 0128  03031315401737 0132  03031315411741 0133
03031315421736 0131  03031315421744 0134  03031315441753 0136  03031315451755 0137
03031315491748 0135  03031315511756 0138  03031315571788 0139  03031316071813 0140
03031316091821 0141  03031316211848 0142  03031316221850 0143  03031316231851 0144
03031316241854 0145  03031316241859 0146  03031316251860 0147  03031316251862 0148
03031316261864 0149  03031316261865 0150  03031316271867 0151  03031316271868 0152
03031316291872 0153  03031316331904 0154  03031316431923 0156  03031316471932 0157
03031316481935 0158  03031316481938 0159  03031316541941 0160  03031316561947 0161
03031316571950 0162  03031316581955 0163  03031317031989 0164  03031317041995 0165
03031317092006 0166  03031317102012 0167  03031317282058 0168  03031317302062 0169
03031317392076 0170  03031323062154 0172

Total number of Dig-ups or Emergency 0004
Total number of Short Notices        0006
Total number of Priority Notices     0006
Total number of Routine Notices      0134
Total number of Messages for T09912     0150

If this audit does not match your manual tracking
then call the Call Center and request a retransmission.

