"Ticket Number","Sequence Number"," Transmit Date","KeyMap Page","KeyMap Grid"," Type","House Number","Street Name","Company","Intersecting Street","Description","Type of Work","Extent of Work","Remarks","Contact Name","Contact Phone","Alternate Contact Name","Alternate Contact Phone","Retransmitted","Update of Ticket","Update By","Original Call Date","Begin Work Date","Place","State","County","Work Being Done For","Facility Code","Transaction Date","Transaction Remarks","Transaction Status Code"
"19705823","1587","7/16/2003 8:30:00 PM","447","A","NOTI","19002","APPLETREE RIDGE RD","M J SHERIDAN OF TEXAS","MAGNOLIA CREEK RD","ROUTINE","INSTALLING GAS SERVICE LINES","MARK THE ENTIRE PROPERTY INCLUDING ADJOINING EASEMENTS ON  BOTH SIDES OF ROAD AND ENTIRE ROAD RIGHT OF WAYS.","FAXED LOCATE REQUEST     SUBDIVISION GRAND OAK.","M TOLEDO","(281)469-5810","SAME","none","ORIGINAL","","","7/16/2003 8:26:00 PM","7/21/2003 7:00:00 AM","HOUSTON DIVISION","TX","HARRIS","ENTEX","GAS_MAIN","7/17/2003 4:57:06 PM","Good Signal","STAKED"
"19705823","1587","7/16/2003 8:30:00 PM","447","A","NOTI","19002","APPLETREE RIDGE RD","M J SHERIDAN OF TEXAS","MAGNOLIA CREEK RD","ROUTINE","INSTALLING GAS SERVICE LINES","MARK THE ENTIRE PROPERTY INCLUDING ADJOINING EASEMENTS ON  BOTH SIDES OF ROAD AND ENTIRE ROAD RIGHT OF WAYS.","FAXED LOCATE REQUEST     SUBDIVISION GRAND OAK.","M TOLEDO","(281)469-5810","SAME","none","ORIGINAL","","","7/16/2003 8:26:00 PM","7/21/2003 7:00:00 AM","HOUSTON DIVISION","TX","HARRIS","ENTEX","ELEC_URD","7/17/2003 4:58:15 PM","Good Signal","STAKED"
"19704749","1026","7/16/2003 4:31:00 PM","447","A","NOTI","4615","AUTUMN DAWN WAY","AQUA SERVICES","PLUM FOREST","ROUTINE","WATER TAP INSTALLATION","LOCATE ALL UTILITIES FRONT EASEMENT BOTH SIDES OF THE  STREET.","FAXED LOCATE REQUEST     PRE APPR AQUA SERVICES LP  328931","TOMMY MCGEE","(713)983-3604","SAME","none","ORIGINAL","","","7/16/2003 4:29:00 PM","7/18/2003 4:30:00 PM","HOUSTON DIVISION","TX","HARRIS","ROLLING CREEK","ELEC_S/L","7/17/2003 5:01:32 PM","No conflict.  ","NC"
"19704770","1053","7/16/2003 4:41:00 PM","447","N","NOTI","18514","BRIDGE FALLS WAY","ALEXANDER CABLE COMMUNICATIONS","MAGNOLIA TRAIL","ROUTINE","UGC","LOCATE ALL UTILITY EASEMENTS AT 18514 BRIDGE FALLS WAY.","FAXED LOCATE REQUEST","RANDY VANAUGH","(281)705-5007","SAME","(281)651-6007","ORIGINAL","","","7/16/2003 4:39:00 PM","7/18/2003 4:45:00 PM","HOUSTON DIVISION","TX","HARRIS","CHARTER CABLE COMM","GAS_SERV","7/17/2003 5:04:40 PM","Good Signal.  No problems locating.","STAKED"
"19704770","1053","7/16/2003 4:41:00 PM","447","N","NOTI","18514","BRIDGE FALLS WAY","ALEXANDER CABLE COMMUNICATIONS","MAGNOLIA TRAIL","ROUTINE","UGC","LOCATE ALL UTILITY EASEMENTS AT 18514 BRIDGE FALLS WAY.","FAXED LOCATE REQUEST","RANDY VANAUGH","(281)705-5007","SAME","(281)651-6007","ORIGINAL","","","7/16/2003 4:39:00 PM","7/18/2003 4:45:00 PM","HOUSTON DIVISION","TX","HARRIS","CHARTER CABLE COMM","GAS_MAIN","7/17/2003 5:05:54 PM","same as above","STAKED"
"19705042","1122","7/16/2003 5:18:00 PM","448","D","NOTI","5415","MORNING BREEZE","DRYMALA TREES","WINTER MIST","ROUTINE","TRANSPLANTING TREES","MARK ENTIRE LOT.","none","BRENDA DRYMALA","(281)342-8855","JAN R/SAME","none","ORIGINAL","","","7/16/2003 5:15:00 PM","7/21/2003 7:00:00 AM","HOUSTON CITY","TX","HARRIS","WEST PORT HOMES","GAS_SERV","7/17/2003 5:08:07 PM","signal good","STAKED"
"19705042","1122","7/16/2003 5:18:00 PM","448","D","NOTI","5415","MORNING BREEZE","DRYMALA TREES","WINTER MIST","ROUTINE","TRANSPLANTING TREES","MARK ENTIRE LOT.","none","BRENDA DRYMALA","(281)342-8855","JAN R/SAME","none","ORIGINAL","","","7/16/2003 5:15:00 PM","7/21/2003 7:00:00 AM","HOUSTON CITY","TX","HARRIS","WEST PORT HOMES","GAS_MAIN","7/17/2003 5:09:28 PM","","STAKED"
"19705042","1122","7/16/2003 5:18:00 PM","448","D","NOTI","5415","MORNING BREEZE","DRYMALA TREES","WINTER MIST","ROUTINE","TRANSPLANTING TREES","MARK ENTIRE LOT.","none","BRENDA DRYMALA","(281)342-8855","JAN R/SAME","none","ORIGINAL","","","7/16/2003 5:15:00 PM","7/21/2003 7:00:00 AM","HOUSTON CITY","TX","HARRIS","WEST PORT HOMES","ELEC_URD","7/17/2003 5:10:00 PM","","STAKED"
"19704992","1109","7/16/2003 5:07:00 PM","447","N","NOTI","18503","OWL FOREST DR","ALEXANDER CABLE COMMUNICATIONS","MAGNOLIA TRAIL","ROUTINE","UGC","LOCATE ALL UTILITY EASEMENTS AT 18503 OWL FOREST.","FAXED LOCATE REQUEST","RANDY VANAUGH","(281)705-5007","SAME","(281)651-6007","ORIGINAL","","","7/16/2003 5:05:00 PM","7/21/2003 7:00:00 AM","HOUSTON DIVISION","TX","HARRIS","CHARTER CABLE COMM","GAS_SERV","7/17/2003 5:12:35 PM","","STAKED"
"19704992","1109","7/16/2003 5:07:00 PM","447","N","NOTI","18503","OWL FOREST DR","ALEXANDER CABLE COMMUNICATIONS","MAGNOLIA TRAIL","ROUTINE","UGC","LOCATE ALL UTILITY EASEMENTS AT 18503 OWL FOREST.","FAXED LOCATE REQUEST","RANDY VANAUGH","(281)705-5007","SAME","(281)651-6007","ORIGINAL","","","7/16/2003 5:05:00 PM","7/21/2003 7:00:00 AM","HOUSTON DIVISION","TX","HARRIS","CHARTER CABLE COMM","GAS_MAIN","7/17/2003 5:13:11 PM","","STAKED"
"19704992","1109","7/16/2003 5:07:00 PM","447","N","NOTI","18503","OWL FOREST DR","ALEXANDER CABLE COMMUNICATIONS","MAGNOLIA TRAIL","ROUTINE","UGC","LOCATE ALL UTILITY EASEMENTS AT 18503 OWL FOREST.","FAXED LOCATE REQUEST","RANDY VANAUGH","(281)705-5007","SAME","(281)651-6007","ORIGINAL","","","7/16/2003 5:05:00 PM","7/21/2003 7:00:00 AM","HOUSTON DIVISION","TX","HARRIS","CHARTER CABLE COMM","ELEC_URD","7/17/2003 5:13:38 PM","","STAKED"
"19704586","985","7/16/2003 4:18:00 PM","447","G","NOTI","      ","PARTRIDGE GREEN","GEORGE M CONSTRUCTION","BEAR LODGE DR","ROUTINE","REPLACING UNDERGROUND ELECTRICAL STREET LIGHT CA","MARK ENTIRE FRONT EASEMENTS AND RD RIGHT OF WAY BOTH  SIDES OF SREET FROM ABOVE INTERSECTION GOING E TO AMBER LAKE.","PRINT 27","BOBBY D","(281)477-7008","BOBBY D/CELL MON-THU","(713)862-8260","ORIGINAL","","","7/16/2003 4:12:00 PM","7/18/2003 4:15:00 PM","HOUSTON CITY","TX","HARRIS","CPE-35501295MPK ANDREW","GAS_MAIN","7/17/2003 5:14:35 PM","","STAKED"
"19704586","985","7/16/2003 4:18:00 PM","447","G","NOTI","      ","PARTRIDGE GREEN","GEORGE M CONSTRUCTION","BEAR LODGE DR","ROUTINE","REPLACING UNDERGROUND ELECTRICAL STREET LIGHT CA","MARK ENTIRE FRONT EASEMENTS AND RD RIGHT OF WAY BOTH  SIDES OF SREET FROM ABOVE INTERSECTION GOING E TO AMBER LAKE.","PRINT 27","BOBBY D","(281)477-7008","BOBBY D/CELL MON-THU","(713)862-8260","ORIGINAL","","","7/16/2003 4:12:00 PM","7/18/2003 4:15:00 PM","HOUSTON CITY","TX","HARRIS","CPE-35501295MPK ANDREW","GAS_SERV","7/17/2003 5:15:26 PM","no service in conflict","NC"
"19705821","1586","7/16/2003 8:27:00 PM","447","A","NOTI","4803","PLUM FOREST RD","M J SHERIDAN OF TEXAS","COBLE GROVE LN","ROUTINE","INSTALLING GAS SERVICE LINES","MARK THE ENTIRE PROPERTY INCLUDING ADJOINING EASEMENTS ON  BOTH SIDES OF ROAD AND ENTIRE ROAD RIGHT OF WAYS.","FAXED LOCATE REQUEST     SUBDIVISION GRAND OAK.","M TOLEDO","(281)469-5810","SAME","none","ORIGINAL","","","7/16/2003 8:25:00 PM","7/21/2003 7:00:00 AM","HOUSTON DIVISION","TX","HARRIS","ENTEX","GAS_MAIN","7/17/2003 5:16:36 PM","","STAKED"
"19705821","1586","7/16/2003 8:27:00 PM","447","A","NOTI","4803","PLUM FOREST RD","M J SHERIDAN OF TEXAS","COBLE GROVE LN","ROUTINE","INSTALLING GAS SERVICE LINES","MARK THE ENTIRE PROPERTY INCLUDING ADJOINING EASEMENTS ON  BOTH SIDES OF ROAD AND ENTIRE ROAD RIGHT OF WAYS.","FAXED LOCATE REQUEST     SUBDIVISION GRAND OAK.","M TOLEDO","(281)469-5810","SAME","none","ORIGINAL","","","7/16/2003 8:25:00 PM","7/21/2003 7:00:00 AM","HOUSTON DIVISION","TX","HARRIS","ENTEX","ELEC_URD","7/17/2003 5:17:08 PM","","STAKED"
"19705821","1586","7/16/2003 8:27:00 PM","447","A","NOTI","4803","PLUM FOREST RD","M J SHERIDAN OF TEXAS","COBLE GROVE LN","ROUTINE","INSTALLING GAS SERVICE LINES","MARK THE ENTIRE PROPERTY INCLUDING ADJOINING EASEMENTS ON  BOTH SIDES OF ROAD AND ENTIRE ROAD RIGHT OF WAYS.","FAXED LOCATE REQUEST     SUBDIVISION GRAND OAK.","M TOLEDO","(281)469-5810","SAME","none","ORIGINAL","","","7/16/2003 8:25:00 PM","7/21/2003 7:00:00 AM","HOUSTON DIVISION","TX","HARRIS","ENTEX","ELEC_S/L","7/17/2003 5:17:34 PM","no s/l in conflict","NC"
"19705416","1355","7/16/2003 6:53:00 PM","449","X","NOTI","1446","SHERWOOD FOREST","NORTH HOUSTON POLE LINE","TIMBERLINE","UPDATE","SETTING AND REPLACING POLES","MARK A 35 FOOT RADIUS AROUND POLES AND ANCHORS AND POLE  STAKES ON THE ENTIRE PROPERTY, SIDE AND REAR EASEMENTS AND THE ROAD RIGHT  OF WAY.","FAXED LOCATE REQUEST   JOB 35145784  UPDATE PER CALLER-MARKINGS HAVE BEEN WASHED AWAY","PHILLIP TAMBORELLO","(713)691-3616","CALL 1ST","(713)333-2134","ORIGINAL","18805082","","7/16/2003 6:51:00 PM","7/21/2003 7:00:00 AM","HOUSTON DIVISION","TX","HARRIS","CENTERPOINT ENERGY","GAS_MAIN","7/17/2003 5:18:52 PM","work complete","NC"
"19705416","1355","7/16/2003 6:53:00 PM","449","X","NOTI","1446","SHERWOOD FOREST","NORTH HOUSTON POLE LINE","TIMBERLINE","UPDATE","SETTING AND REPLACING POLES","MARK A 35 FOOT RADIUS AROUND POLES AND ANCHORS AND POLE  STAKES ON THE ENTIRE PROPERTY, SIDE AND REAR EASEMENTS AND THE ROAD RIGHT  OF WAY.","FAXED LOCATE REQUEST   JOB 35145784  UPDATE PER CALLER-MARKINGS HAVE BEEN WASHED AWAY","PHILLIP TAMBORELLO","(713)691-3616","CALL 1ST","(713)333-2134","ORIGINAL","18805082","","7/16/2003 6:51:00 PM","7/21/2003 7:00:00 AM","HOUSTON DIVISION","TX","HARRIS","CENTERPOINT ENERGY","GAS_SERV","7/17/2003 5:19:14 PM","work complete","NC"
"19705437","1410","7/16/2003 7:03:00 PM","449","A","INSU","5306","WINDHAM SPRINGS CT","unknown","MILLSTREAM WAY","SHORT NOT","INSTALLATION OF DRAIN LINES","MARK ENTIRE FRONT AND REAR HALVES OF LOT.","CALLER STATES THIS IS A GATED COMMUNITY","GRADYN COMFORT","(832)243-0753","GRADYN/CELL","(281)380-0317","ORIGINAL","","","7/16/2003 6:54:00 PM","7/18/2003 12:00:00 PM","HOUSTON CITY","TX","HARRIS","GRADYN COMFORT","GAS_MAIN","7/17/2003 5:20:41 PM","","STAKED"
"19705437","1410","7/16/2003 7:03:00 PM","449","A","INSU","5306","WINDHAM SPRINGS CT","unknown","MILLSTREAM WAY","SHORT NOT","INSTALLATION OF DRAIN LINES","MARK ENTIRE FRONT AND REAR HALVES OF LOT.","CALLER STATES THIS IS A GATED COMMUNITY","GRADYN COMFORT","(832)243-0753","GRADYN/CELL","(281)380-0317","ORIGINAL","","","7/16/2003 6:54:00 PM","7/18/2003 12:00:00 PM","HOUSTON CITY","TX","HARRIS","GRADYN COMFORT","GAS_SERV","7/17/2003 5:21:10 PM","","STAKED"
"19705437","1410","7/16/2003 7:03:00 PM","449","A","INSU","5306","WINDHAM SPRINGS CT","unknown","MILLSTREAM WAY","SHORT NOT","INSTALLATION OF DRAIN LINES","MARK ENTIRE FRONT AND REAR HALVES OF LOT.","CALLER STATES THIS IS A GATED COMMUNITY","GRADYN COMFORT","(832)243-0753","GRADYN/CELL","(281)380-0317","ORIGINAL","","","7/16/2003 6:54:00 PM","7/18/2003 12:00:00 PM","HOUSTON CITY","TX","HARRIS","GRADYN COMFORT","ELEC_URD","7/17/2003 5:21:28 PM","","STAKED"
"19704766","1049","7/16/2003 4:39:00 PM","447","N","NOTI","0","DEEDS RD","ALEXANDER CABLE COMMUNICATIONS","GROESCHKE RD","ROUTINE","UGC","3103 DEEDS RD. LOCATE ALL UTILITY EASEMENTS FROM 3103  THRU 3111 DEEDS RD.","FAXED LOCATE REQUEST","RANDY VANAUGH","(281)705-5007","SAME","(281)651-6007","ORIGINAL","","","7/16/2003 4:38:00 PM","7/18/2003 4:45:00 PM","HOUSTON DIVISION","TX","HARRIS","CHARTER CABLE COMM","GAS_MAIN","7/17/2003 5:22:28 PM","","STAKED"
"19704766","1049","7/16/2003 4:39:00 PM","447","N","NOTI","0","DEEDS RD","ALEXANDER CABLE COMMUNICATIONS","GROESCHKE RD","ROUTINE","UGC","3103 DEEDS RD. LOCATE ALL UTILITY EASEMENTS FROM 3103  THRU 3111 DEEDS RD.","FAXED LOCATE REQUEST","RANDY VANAUGH","(281)705-5007","SAME","(281)651-6007","ORIGINAL","","","7/16/2003 4:38:00 PM","7/18/2003 4:45:00 PM","HOUSTON DIVISION","TX","HARRIS","CHARTER CABLE COMM","GAS_SERV","7/17/2003 5:22:51 PM","","STAKED"
"19704766","1049","7/16/2003 4:39:00 PM","447","N","NOTI","0","DEEDS RD","ALEXANDER CABLE COMMUNICATIONS","GROESCHKE RD","ROUTINE","UGC","3103 DEEDS RD. LOCATE ALL UTILITY EASEMENTS FROM 3103  THRU 3111 DEEDS RD.","FAXED LOCATE REQUEST","RANDY VANAUGH","(281)705-5007","SAME","(281)651-6007","ORIGINAL","","","7/16/2003 4:38:00 PM","7/18/2003 4:45:00 PM","HOUSTON DIVISION","TX","HARRIS","CHARTER CABLE COMM","ELEC_URD","7/17/2003 5:23:17 PM","","STAKED"
"19705417","1356","7/16/2003 6:53:00 PM","449","X","NOTI","      ","TIMBERLINE","NORTH HOUSTON POLE LINE","SHERWOOD FOREST","UPDATE","SETTING AND REPLACING POLES","START MARKING FROM THE INTERSECTION GOING EAST MARK A 35  FOOT RADIUS AROUND POLES AND ANCHORS AND POLE STAKES IN THE FRONT OF  PROPERTY AND THE ROAD RIGHT OF WAY ON BOTH SIDES OF THE ROAD FOR 500  FEET.","FAXED LOCATE REQUEST   JOB 35145784  UPDATE PER CALLER-MARKINGS HAVE BEEN WASHED AWAY","PHILLIP TAMBORELLO","(713)691-3616","CALL 1ST","(713)333-2134","ORIGINAL","18805084","","7/16/2003 6:52:00 PM","7/21/2003 7:00:00 AM","HOUSTON DIVISION","TX","HARRIS","CENTERPOINT ENERGY","GAS_MAIN","7/17/2003 5:24:17 PM","no conflict","NC"
"19705417","1356","7/16/2003 6:53:00 PM","449","X","NOTI","      ","TIMBERLINE","NORTH HOUSTON POLE LINE","SHERWOOD FOREST","UPDATE","SETTING AND REPLACING POLES","START MARKING FROM THE INTERSECTION GOING EAST MARK A 35  FOOT RADIUS AROUND POLES AND ANCHORS AND POLE STAKES IN THE FRONT OF  PROPERTY AND THE ROAD RIGHT OF WAY ON BOTH SIDES OF THE ROAD FOR 500  FEET.","FAXED LOCATE REQUEST   JOB 35145784  UPDATE PER CALLER-MARKINGS HAVE BEEN WASHED AWAY","PHILLIP TAMBORELLO","(713)691-3616","CALL 1ST","(713)333-2134","ORIGINAL","18805084","","7/16/2003 6:52:00 PM","7/21/2003 7:00:00 AM","HOUSTON DIVISION","TX","HARRIS","CENTERPOINT ENERGY","GAS_SERV","7/17/2003 5:24:58 PM","no conflict","NC"
"19700866","350","7/16/2003 10:35:00 AM","449","Z","NOTI","0","WESTVIEW","TRAFFIC MAINTENANCE AND CONSTR","SHADOWDALE","UPDATE","UG ELEC-ELECTRIC","--031880397----UPDT/REMK:031760386-- UPDT/REMK:031680641  START LOCA TING AT INTER & GOING E ON WESTVIEW ON BOTH SIDES OF RD TO  GESSNER. PL EASE MARK ST., SIDEWALK, ROAD R/W, & PRIVATE PROP WITH PAINT  & FLAGS O N GROUND. KEYMAP 449,Z        CALLER DID NOT PROVIDE EMAIL","WK TO BEGIN DT 07/18/03 09:00:00  TESSTOC: 031970610 SEQ: 0710 ON 16-JUL-03 AT 0857 RCD: 07/16/03 09:10:47","MARY VODA","(713)991-1157","MARY VODA","(000)000-0000","ORIGINAL","","","7/16/2003 9:10:00 AM","7/18/2003 9:15:00 AM","HOUSTON","TX","HARRIS","CITY OF HOUSTON","GAS_MAIN","7/17/2003 5:26:43 PM","work complete","NC"
"19700866","350","7/16/2003 10:35:00 AM","449","Z","NOTI","0","WESTVIEW","TRAFFIC MAINTENANCE AND CONSTR","SHADOWDALE","UPDATE","UG ELEC-ELECTRIC","--031880397----UPDT/REMK:031760386-- UPDT/REMK:031680641  START LOCA TING AT INTER & GOING E ON WESTVIEW ON BOTH SIDES OF RD TO  GESSNER. PL EASE MARK ST., SIDEWALK, ROAD R/W, & PRIVATE PROP WITH PAINT  & FLAGS O N GROUND. KEYMAP 449,Z        CALLER DID NOT PROVIDE EMAIL","WK TO BEGIN DT 07/18/03 09:00:00  TESSTOC: 031970610 SEQ: 0710 ON 16-JUL-03 AT 0857 RCD: 07/16/03 09:10:47","MARY VODA","(713)991-1157","MARY VODA","(000)000-0000","ORIGINAL","","","7/16/2003 9:10:00 AM","7/18/2003 9:15:00 AM","HOUSTON","TX","HARRIS","CITY OF HOUSTON","GAS_SERV","7/17/2003 5:27:06 PM","work complete","NC"
"17803813","126","7/16/2003 9:01:00 AM","449","H","NOTI","      ","BROOKSHIRE LANE","COMM TEX CORPORATION","MISTY SHADOW DR","2D REQUEST","UGC","ON BROOKSHIRE LANE LOCATE THE ENTIRE LOTS OF 10726,  10730, 10731, 10727 AND 10723.","2ND REQUEST. PLEASE MARK ASAP. NO RESPONSE AT ALL CREW IS ON SITE  CHRIS CLEMMONS ON SITE SUPERVISER 281-330-4115","RUTH LOPEZ","(713)849-6880","SCOTT A","none","CORRECTION","","","6/27/2003 3:08:00 PM","6/27/2003 3:15:00 PM","HOUSTON","TX","HARRIS","TIME WARNER","GAS_SERV","7/17/2003 5:28:31 PM","contractor to call in updates","SEE REM"
"17803813","126","7/16/2003 9:01:00 AM","449","H","NOTI","      ","BROOKSHIRE LANE","COMM TEX CORPORATION","MISTY SHADOW DR","2D REQUEST","UGC","ON BROOKSHIRE LANE LOCATE THE ENTIRE LOTS OF 10726,  10730, 10731, 10727 AND 10723.","2ND REQUEST. PLEASE MARK ASAP. NO RESPONSE AT ALL CREW IS ON SITE  CHRIS CLEMMONS ON SITE SUPERVISER 281-330-4115","RUTH LOPEZ","(713)849-6880","SCOTT A","none","CORRECTION","","","6/27/2003 3:08:00 PM","6/27/2003 3:15:00 PM","HOUSTON","TX","HARRIS","TIME WARNER","GAS_MAIN","7/17/2003 5:32:50 PM","contractor to call in updates","SEE REM"
"17803813","126","7/16/2003 9:01:00 AM","449","H","NOTI","      ","BROOKSHIRE LANE","COMM TEX CORPORATION","MISTY SHADOW DR","2D REQUEST","UGC","ON BROOKSHIRE LANE LOCATE THE ENTIRE LOTS OF 10726,  10730, 10731, 10727 AND 10723.","2ND REQUEST. PLEASE MARK ASAP. NO RESPONSE AT ALL CREW IS ON SITE  CHRIS CLEMMONS ON SITE SUPERVISER 281-330-4115","RUTH LOPEZ","(713)849-6880","SCOTT A","none","CORRECTION","","","6/27/2003 3:08:00 PM","6/27/2003 3:15:00 PM","HOUSTON","TX","HARRIS","TIME WARNER","ELEC_URD","7/17/2003 5:33:41 PM","contractor to call in updates","SEE REM"
"17803813","126","7/16/2003 9:01:00 AM","449","H","NOTI","      ","BROOKSHIRE LANE","COMM TEX CORPORATION","MISTY SHADOW DR","2D REQUEST","UGC","ON BROOKSHIRE LANE LOCATE THE ENTIRE LOTS OF 10726,  10730, 10731, 10727 AND 10723.","2ND REQUEST. PLEASE MARK ASAP. NO RESPONSE AT ALL CREW IS ON SITE  CHRIS CLEMMONS ON SITE SUPERVISER 281-330-4115","RUTH LOPEZ","(713)849-6880","SCOTT A","none","CORRECTION","","","6/27/2003 3:08:00 PM","6/27/2003 3:15:00 PM","HOUSTON","TX","HARRIS","TIME WARNER","ELEC_S/L","7/17/2003 5:34:29 PM","contractor to call in updates","SEE REM"
"17803728","141","7/16/2003 9:06:00 AM","449","H","NOTI","      ","CLAY ROAD","COMM TEX CORPORATION","DURBAN DRIVE","2D REQUEST","U.G.C.","LOCATE CLAY ROAD FROM DURBAN DRIVE 2,500 FT TO THE WEST  ROAD RIGHT OF WAY AND BOTH SIDES OF THE ROAD.","2ND REQUEST. PLEASE MARK ASAP.NO RESPONSE AT ALL CREW IS ON SITE  CHRIS CLEMMONS IS ON SITE SUPERVISOR 2813304115","RUTH LOPEZ","(713)849-6880","SCOTT A","none","CORRECTION","","","6/27/2003 2:55:00 PM","6/27/2003 3:00:00 PM","HOUSTON CITY","TX","HARRIS","TIME WARNER","GAS_SERV","7/17/2003 5:36:50 PM","contractor to call in updates","SEE REM"
"17803728","141","7/16/2003 9:06:00 AM","449","H","NOTI","      ","CLAY ROAD","COMM TEX CORPORATION","DURBAN DRIVE","2D REQUEST","U.G.C.","LOCATE CLAY ROAD FROM DURBAN DRIVE 2,500 FT TO THE WEST  ROAD RIGHT OF WAY AND BOTH SIDES OF THE ROAD.","2ND REQUEST. PLEASE MARK ASAP.NO RESPONSE AT ALL CREW IS ON SITE  CHRIS CLEMMONS IS ON SITE SUPERVISOR 2813304115","RUTH LOPEZ","(713)849-6880","SCOTT A","none","CORRECTION","","","6/27/2003 2:55:00 PM","6/27/2003 3:00:00 PM","HOUSTON CITY","TX","HARRIS","TIME WARNER","GAS_MAIN","7/17/2003 5:38:06 PM","contractor to call in updates","SEE REM"
"17803728","141","7/16/2003 9:06:00 AM","449","H","NOTI","      ","CLAY ROAD","COMM TEX CORPORATION","DURBAN DRIVE","2D REQUEST","U.G.C.","LOCATE CLAY ROAD FROM DURBAN DRIVE 2,500 FT TO THE WEST  ROAD RIGHT OF WAY AND BOTH SIDES OF THE ROAD.","2ND REQUEST. PLEASE MARK ASAP.NO RESPONSE AT ALL CREW IS ON SITE  CHRIS CLEMMONS IS ON SITE SUPERVISOR 2813304115","RUTH LOPEZ","(713)849-6880","SCOTT A","none","CORRECTION","","","6/27/2003 2:55:00 PM","6/27/2003 3:00:00 PM","HOUSTON CITY","TX","HARRIS","TIME WARNER","ELEC_URD","7/17/2003 5:38:43 PM","contractor to call in updates","SEE REM"
"17803728","141","7/16/2003 9:06:00 AM","449","H","NOTI","      ","CLAY ROAD","COMM TEX CORPORATION","DURBAN DRIVE","2D REQUEST","U.G.C.","LOCATE CLAY ROAD FROM DURBAN DRIVE 2,500 FT TO THE WEST  ROAD RIGHT OF WAY AND BOTH SIDES OF THE ROAD.","2ND REQUEST. PLEASE MARK ASAP.NO RESPONSE AT ALL CREW IS ON SITE  CHRIS CLEMMONS IS ON SITE SUPERVISOR 2813304115","RUTH LOPEZ","(713)849-6880","SCOTT A","none","CORRECTION","","","6/27/2003 2:55:00 PM","6/27/2003 3:00:00 PM","HOUSTON CITY","TX","HARRIS","TIME WARNER","ELEC_S/L","7/17/2003 5:39:18 PM","contractor to call in updates","SEE REM"
"17803800","116","7/16/2003 8:58:00 AM","449","H","NOTI","      ","CLEAR COVE LN","COMM TEX CORPORATION","DURBAN DRIVE","2D REQUEST","UGC","ON CLEAR COVE LOCATE THE ENTIRE LOTS OF 10722, 10726,  10730, 10727 AND 10723.","2ND REQUEST. PLEASE MARK ASAP. NO RESPONE AT ALL CREW IS ON SITE  CHRIS CLEMMONS ON SITE SUPERVISER 281-330-4115","RUTH LOPEZ","(713)849-6880","SCOTT A","none","CORRECTION","","","6/27/2003 3:05:00 PM","6/27/2003 3:15:00 PM","HOUSTON","TX","HARRIS","TIME WARNER","GAS_SERV","7/17/2003 5:40:41 PM","contractor to call in updates","SEE REM"
"17803800","116","7/16/2003 8:58:00 AM","449","H","NOTI","      ","CLEAR COVE LN","COMM TEX CORPORATION","DURBAN DRIVE","2D REQUEST","UGC","ON CLEAR COVE LOCATE THE ENTIRE LOTS OF 10722, 10726,  10730, 10727 AND 10723.","2ND REQUEST. PLEASE MARK ASAP. NO RESPONE AT ALL CREW IS ON SITE  CHRIS CLEMMONS ON SITE SUPERVISER 281-330-4115","RUTH LOPEZ","(713)849-6880","SCOTT A","none","CORRECTION","","","6/27/2003 3:05:00 PM","6/27/2003 3:15:00 PM","HOUSTON","TX","HARRIS","TIME WARNER","GAS_MAIN","7/17/2003 5:41:20 PM","contractor to call in updates","SEE REM"
"17803800","116","7/16/2003 8:58:00 AM","449","H","NOTI","      ","CLEAR COVE LN","COMM TEX CORPORATION","DURBAN DRIVE","2D REQUEST","UGC","ON CLEAR COVE LOCATE THE ENTIRE LOTS OF 10722, 10726,  10730, 10727 AND 10723.","2ND REQUEST. PLEASE MARK ASAP. NO RESPONE AT ALL CREW IS ON SITE  CHRIS CLEMMONS ON SITE SUPERVISER 281-330-4115","RUTH LOPEZ","(713)849-6880","SCOTT A","none","CORRECTION","","","6/27/2003 3:05:00 PM","6/27/2003 3:15:00 PM","HOUSTON","TX","HARRIS","TIME WARNER","ELEC_URD","7/17/2003 5:42:22 PM","contractor to call in updates","SEE REM"
"17803800","116","7/16/2003 8:58:00 AM","449","H","NOTI","      ","CLEAR COVE LN","COMM TEX CORPORATION","DURBAN DRIVE","2D REQUEST","UGC","ON CLEAR COVE LOCATE THE ENTIRE LOTS OF 10722, 10726,  10730, 10727 AND 10723.","2ND REQUEST. PLEASE MARK ASAP. NO RESPONE AT ALL CREW IS ON SITE  CHRIS CLEMMONS ON SITE SUPERVISER 281-330-4115","RUTH LOPEZ","(713)849-6880","SCOTT A","none","CORRECTION","","","6/27/2003 3:05:00 PM","6/27/2003 3:15:00 PM","HOUSTON","TX","HARRIS","TIME WARNER","ELEC_S/L","7/17/2003 5:42:58 PM","contractor to call in updates","SEE REM"
"17803701","53","7/16/2003 8:27:00 AM","449","H","NOTI","      ","LAURELDALE COURT","COMM TEX CORPORATION","LAURELDALE ROAD","2D REQUEST","UG CABLE","ON LAURELDALE COURT LOCATE ENTIRE LOTS OF 10803, 10811,  10815, 10819, 10823, 10827, 10831, AND 10830, 10807.","2ND REQUEST. PLEASE MARK ASAP. NO RESPONSE CREWS ARE ON SITE  CHRIS CLEMMONS  218-330-4115 IS THE ON SITE SUPERVISOR","RUTH LOPEZ","(713)849-6880","SCOTT A","none","CORRECTION","","","6/27/2003 2:53:00 PM","6/27/2003 3:00:00 PM","HOUSTON","TX","HARRIS","TIME WARNER","GAS_SERV","7/17/2003 5:45:10 PM","contractor to call in updates","SEE REM"
"17803701","53","7/16/2003 8:27:00 AM","449","H","NOTI","      ","LAURELDALE COURT","COMM TEX CORPORATION","LAURELDALE ROAD","2D REQUEST","UG CABLE","ON LAURELDALE COURT LOCATE ENTIRE LOTS OF 10803, 10811,  10815, 10819, 10823, 10827, 10831, AND 10830, 10807.","2ND REQUEST. PLEASE MARK ASAP. NO RESPONSE CREWS ARE ON SITE  CHRIS CLEMMONS  218-330-4115 IS THE ON SITE SUPERVISOR","RUTH LOPEZ","(713)849-6880","SCOTT A","none","CORRECTION","","","6/27/2003 2:53:00 PM","6/27/2003 3:00:00 PM","HOUSTON","TX","HARRIS","TIME WARNER","GAS_MAIN","7/17/2003 5:46:09 PM","contractor to call in updates","SEE REM"
"17803701","53","7/16/2003 8:27:00 AM","449","H","NOTI","      ","LAURELDALE COURT","COMM TEX CORPORATION","LAURELDALE ROAD","2D REQUEST","UG CABLE","ON LAURELDALE COURT LOCATE ENTIRE LOTS OF 10803, 10811,  10815, 10819, 10823, 10827, 10831, AND 10830, 10807.","2ND REQUEST. PLEASE MARK ASAP. NO RESPONSE CREWS ARE ON SITE  CHRIS CLEMMONS  218-330-4115 IS THE ON SITE SUPERVISOR","RUTH LOPEZ","(713)849-6880","SCOTT A","none","CORRECTION","","","6/27/2003 2:53:00 PM","6/27/2003 3:00:00 PM","HOUSTON","TX","HARRIS","TIME WARNER","ELEC_URD","7/17/2003 5:46:45 PM","contractor to call in updates","SEE REM"
"17803701","53","7/16/2003 8:27:00 AM","449","H","NOTI","      ","LAURELDALE COURT","COMM TEX CORPORATION","LAURELDALE ROAD","2D REQUEST","UG CABLE","ON LAURELDALE COURT LOCATE ENTIRE LOTS OF 10803, 10811,  10815, 10819, 10823, 10827, 10831, AND 10830, 10807.","2ND REQUEST. PLEASE MARK ASAP. NO RESPONSE CREWS ARE ON SITE  CHRIS CLEMMONS  218-330-4115 IS THE ON SITE SUPERVISOR","RUTH LOPEZ","(713)849-6880","SCOTT A","none","CORRECTION","","","6/27/2003 2:53:00 PM","6/27/2003 3:00:00 PM","HOUSTON","TX","HARRIS","TIME WARNER","ELEC_S/L","7/17/2003 5:47:22 PM","contractor to call in updates","SEE REM"
"17803782","84","7/16/2003 8:47:00 AM","449","H","NOTI","      ","ROCKCREST ROAD","COMM TEX CORPORATION","LAURELDALE ROAD","2D REQUEST","UGC","LOCATE THE ENTIRE LOT OF 10723 ROCKCREST ROAD.","FAXED LOCATE REQUEST  2ND REQUEST. PLEASE MARK ASAP.","RUTH LOPEZ","(713)849-6880","SCOTT A","none","CORRECTION","","","6/27/2003 3:04:00 PM","6/27/2003 3:15:00 PM","HOUSTON","TX","HARRIS","TIME WARNER","GAS_SERV","7/17/2003 5:48:22 PM","contractor to call in updates","SEE REM"
"17803782","84","7/16/2003 8:47:00 AM","449","H","NOTI","      ","ROCKCREST ROAD","COMM TEX CORPORATION","LAURELDALE ROAD","2D REQUEST","UGC","LOCATE THE ENTIRE LOT OF 10723 ROCKCREST ROAD.","FAXED LOCATE REQUEST  2ND REQUEST. PLEASE MARK ASAP.","RUTH LOPEZ","(713)849-6880","SCOTT A","none","CORRECTION","","","6/27/2003 3:04:00 PM","6/27/2003 3:15:00 PM","HOUSTON","TX","HARRIS","TIME WARNER","ELEC_URD","7/17/2003 5:49:00 PM","contractor to call in updates","SEE REM"
"17803827","132","7/16/2003 9:04:00 AM","449","H","NOTI","      ","SPRINGBROOK DR","COMM TEX CORPORATION","MISTY SHADOW DR","2D REQUEST","UGC","ON SPRINGBROOK DR LOCATE THE ENTIRE LOTS OF 10718 AND  10722","2ND REQUEST. PLEASE MARK ASAP. NO RESPONSE AT ALL CREW IS ON SITE  CHRIS CLEMMONS IS ON SITE SUPERVISOR 281-330-4115","RUTH LOPEZ","(713)849-6880","SCOTT A","none","CORRECTION","","","6/27/2003 3:10:00 PM","6/27/2003 3:15:00 PM","HOUSTON","TX","HARRIS","TIME WARNER","GAS_SERV","7/17/2003 5:50:20 PM","contractor to call in updates","SEE REM"
"17803827","132","7/16/2003 9:04:00 AM","449","H","NOTI","      ","SPRINGBROOK DR","COMM TEX CORPORATION","MISTY SHADOW DR","2D REQUEST","UGC","ON SPRINGBROOK DR LOCATE THE ENTIRE LOTS OF 10718 AND  10722","2ND REQUEST. PLEASE MARK ASAP. NO RESPONSE AT ALL CREW IS ON SITE  CHRIS CLEMMONS IS ON SITE SUPERVISOR 281-330-4115","RUTH LOPEZ","(713)849-6880","SCOTT A","none","CORRECTION","","","6/27/2003 3:10:00 PM","6/27/2003 3:15:00 PM","HOUSTON","TX","HARRIS","TIME WARNER","GAS_MAIN","7/17/2003 5:50:58 PM","contractor to call in updates","SEE REM"
"17803827","132","7/16/2003 9:04:00 AM","449","H","NOTI","      ","SPRINGBROOK DR","COMM TEX CORPORATION","MISTY SHADOW DR","2D REQUEST","UGC","ON SPRINGBROOK DR LOCATE THE ENTIRE LOTS OF 10718 AND  10722","2ND REQUEST. PLEASE MARK ASAP. NO RESPONSE AT ALL CREW IS ON SITE  CHRIS CLEMMONS IS ON SITE SUPERVISOR 281-330-4115","RUTH LOPEZ","(713)849-6880","SCOTT A","none","CORRECTION","","","6/27/2003 3:10:00 PM","6/27/2003 3:15:00 PM","HOUSTON","TX","HARRIS","TIME WARNER","ELEC_URD","7/17/2003 5:51:29 PM","contractor to call in updates","SEE REM"
"19705545","1425","7/16/2003 7:08:00 PM","447","X","NOTI","      ","PARK ROW","DIGCO","HOUSTON CHRONICLE","UPDATE","INSTALLING UNDERGROUND GAS LINES","START MARKING FROM THE INTERSECTION GOING WEST MARK THE  FRONT OF PROPERTY AND THE ROAD RIGHT OF WAY ON BOTH SIDES OF THE ROAD FOR  200 FEET.","FAXED LOCATE REQUEST  UPDATE PER CALLER-MARKINGS HAVE BEEN WASHED AWAY","PHILLIP TAMBORELLO","(713)691-3616","CALL FIRST","(713)333-2134","ORIGINAL","18904026","","7/16/2003 7:06:00 PM","7/21/2003 7:00:00 AM","HOUSTON CITY","TX","HARRIS","CENTERPOINT ENERGY","GAS_SERV","7/17/2003 6:29:58 PM","marks good","SEE REM"
"19705545","1425","7/16/2003 7:08:00 PM","447","X","NOTI","      ","PARK ROW","DIGCO","HOUSTON CHRONICLE","UPDATE","INSTALLING UNDERGROUND GAS LINES","START MARKING FROM THE INTERSECTION GOING WEST MARK THE  FRONT OF PROPERTY AND THE ROAD RIGHT OF WAY ON BOTH SIDES OF THE ROAD FOR  200 FEET.","FAXED LOCATE REQUEST  UPDATE PER CALLER-MARKINGS HAVE BEEN WASHED AWAY","PHILLIP TAMBORELLO","(713)691-3616","CALL FIRST","(713)333-2134","ORIGINAL","18904026","","7/16/2003 7:06:00 PM","7/21/2003 7:00:00 AM","HOUSTON CITY","TX","HARRIS","CENTERPOINT ENERGY","GAS_MAIN","7/17/2003 6:30:37 PM","marks good","SEE REM"
"19705545","1425","7/16/2003 7:08:00 PM","447","X","NOTI","      ","PARK ROW","DIGCO","HOUSTON CHRONICLE","UPDATE","INSTALLING UNDERGROUND GAS LINES","START MARKING FROM THE INTERSECTION GOING WEST MARK THE  FRONT OF PROPERTY AND THE ROAD RIGHT OF WAY ON BOTH SIDES OF THE ROAD FOR  200 FEET.","FAXED LOCATE REQUEST  UPDATE PER CALLER-MARKINGS HAVE BEEN WASHED AWAY","PHILLIP TAMBORELLO","(713)691-3616","CALL FIRST","(713)333-2134","ORIGINAL","18904026","","7/16/2003 7:06:00 PM","7/21/2003 7:00:00 AM","HOUSTON CITY","TX","HARRIS","CENTERPOINT ENERGY","ELEC_S/L","7/17/2003 6:31:42 PM","marks good","SEE REM"
"19705542","1423","7/16/2003 7:06:00 PM","447","X","NOTI","      ","PARK ROW","DIGCO","HOUSTON CHRONICLE","UPDATE","INSTALLING UNDERGROUND GAS LINES","START MARKING FROM THE INTERSECTION GOING EAST MARK THE  FRONT OF PROPERTY AND THE ROAD RIGHT OF WAY ON BOTH SIDES OF THE ROAD FOR  200 FEET.","FAXED LOCATE REQUEST  UPDATE PER CALLER-MARKINGS HAVE BEEN WASHED AWAY","PHILLIP TAMBORELLO","(713)691-3616","CALL FIRST","(713)333-2134","ORIGINAL","18904025","","7/16/2003 7:06:00 PM","7/21/2003 7:00:00 AM","HOUSTON CITY","TX","HARRIS","CENTERPOINT ENERGY","GAS_SERV","7/17/2003 6:32:39 PM","marks good","SEE REM"
"19705542","1423","7/16/2003 7:06:00 PM","447","X","NOTI","      ","PARK ROW","DIGCO","HOUSTON CHRONICLE","UPDATE","INSTALLING UNDERGROUND GAS LINES","START MARKING FROM THE INTERSECTION GOING EAST MARK THE  FRONT OF PROPERTY AND THE ROAD RIGHT OF WAY ON BOTH SIDES OF THE ROAD FOR  200 FEET.","FAXED LOCATE REQUEST  UPDATE PER CALLER-MARKINGS HAVE BEEN WASHED AWAY","PHILLIP TAMBORELLO","(713)691-3616","CALL FIRST","(713)333-2134","ORIGINAL","18904025","","7/16/2003 7:06:00 PM","7/21/2003 7:00:00 AM","HOUSTON CITY","TX","HARRIS","CENTERPOINT ENERGY","GAS_MAIN","7/17/2003 6:34:00 PM","marks good","SEE REM"
"19705542","1423","7/16/2003 7:06:00 PM","447","X","NOTI","      ","PARK ROW","DIGCO","HOUSTON CHRONICLE","UPDATE","INSTALLING UNDERGROUND GAS LINES","START MARKING FROM THE INTERSECTION GOING EAST MARK THE  FRONT OF PROPERTY AND THE ROAD RIGHT OF WAY ON BOTH SIDES OF THE ROAD FOR  200 FEET.","FAXED LOCATE REQUEST  UPDATE PER CALLER-MARKINGS HAVE BEEN WASHED AWAY","PHILLIP TAMBORELLO","(713)691-3616","CALL FIRST","(713)333-2134","ORIGINAL","18904025","","7/16/2003 7:06:00 PM","7/21/2003 7:00:00 AM","HOUSTON CITY","TX","HARRIS","CENTERPOINT ENERGY","ELEC_S/L","7/17/2003 6:34:27 PM","marks good","SEE REM"
"19705546","1426","7/16/2003 7:08:00 PM","448","W","NOTI","      ","PARK ROW","DIGCO","STATE HWY 6","UPDATE","INSTALLING UNDERGROUND GAS LINES","START MARKING FROM THE INTERSECTION GOING WEST MARK THE  FRONT OF PROPERTY AND THE ROAD RIGHT OF WAY ON BOTH SIDES OF THE ROAD TO  BROADFIELD.","FAXED LOCATE REQUEST  UPDATE PER CALLER-MARKINGS HAVE BEEN WASHED AWAY","PHILLIP TAMBORELLO","(713)691-3616","CALL FIRST","(713)333-2134","ORIGINAL","18904034","","7/16/2003 7:07:00 PM","7/21/2003 7:00:00 AM","HOUSTON CITY","TX","HARRIS","CENTERPOINT ENERGY","GAS_SERV","7/17/2003 6:35:24 PM","marks good","SEE REM"
"19705546","1426","7/16/2003 7:08:00 PM","448","W","NOTI","      ","PARK ROW","DIGCO","STATE HWY 6","UPDATE","INSTALLING UNDERGROUND GAS LINES","START MARKING FROM THE INTERSECTION GOING WEST MARK THE  FRONT OF PROPERTY AND THE ROAD RIGHT OF WAY ON BOTH SIDES OF THE ROAD TO  BROADFIELD.","FAXED LOCATE REQUEST  UPDATE PER CALLER-MARKINGS HAVE BEEN WASHED AWAY","PHILLIP TAMBORELLO","(713)691-3616","CALL FIRST","(713)333-2134","ORIGINAL","18904034","","7/16/2003 7:07:00 PM","7/21/2003 7:00:00 AM","HOUSTON CITY","TX","HARRIS","CENTERPOINT ENERGY","GAS_MAIN","7/17/2003 6:35:55 PM","marks good","SEE REM"
"19705546","1426","7/16/2003 7:08:00 PM","448","W","NOTI","      ","PARK ROW","DIGCO","STATE HWY 6","UPDATE","INSTALLING UNDERGROUND GAS LINES","START MARKING FROM THE INTERSECTION GOING WEST MARK THE  FRONT OF PROPERTY AND THE ROAD RIGHT OF WAY ON BOTH SIDES OF THE ROAD TO  BROADFIELD.","FAXED LOCATE REQUEST  UPDATE PER CALLER-MARKINGS HAVE BEEN WASHED AWAY","PHILLIP TAMBORELLO","(713)691-3616","CALL FIRST","(713)333-2134","ORIGINAL","18904034","","7/16/2003 7:07:00 PM","7/21/2003 7:00:00 AM","HOUSTON CITY","TX","HARRIS","CENTERPOINT ENERGY","ELEC_S/L","7/17/2003 6:36:17 PM","marks good","SEE REM"
