{
    "work": [
        {
            "Type": "Work Order",
            "emergency": true,
            "TypeAbbrev": "WO",
            "Acknowledged": false,
            "ID": "Bees? Test WO #1",
            "Image": "../img/characters/sh.jpg",
            "caller": "RHONDA DOTMAN",
            "legal_due_date": "7/27/2010 11:59:59 PM",
            "ticket_id": 1024,
            "work_lat": "33.993716",
            "work_long": "-81.015968",
            "company": "HAY HILL SERVICES",
            "priority": "2",
            "important": ["ticket_number", "due_date", "con_name", "con_city"]
        },
        {
            "Type": "Ticket",
            "TypeAbbrev": "T",
            "Acknowledged": false,
            "ID": "Bees? Test Ticket",
            "Image": "../img/characters/sh.jpg",
            "caller": "RHONDA DOTMAN",
            "legal_due_date": "7/27/2010 11:59:59 PM",
            "ticket_id": 1025,
            "work_lat": "33.993434",
            "work_long": "-81.018581",
            "company": "SEE REMARKS",
            "priority": "3",
            "important": ["ticket_number", "due_date", "con_name", "con_city"]
        },
        {
            "Type": "Damage",
            "TypeAbbrev": "D",
            "Acknowledged": false,
            "ID": "Bees? Test Damage",
            "Image": "../img/characters/sh.jpg",
            "caller": "RHONDA DOTMAN",
            "legal_due_date": "7/22/2010 1:06:00 PM",
            "ticket_id": 1026,
            "work_lat": "33.986705",
            "work_long": "-81.012363",
            "company": "CITY OF COLUMBIA WASTEWATER MAINTENANCE",
            "priority": "",
            "important": ["ticket_number", "due_date", "con_name", "con_city"]
        }
    ]
}