{
    "work": [
        {
            "Type": "Work Order",
            "TypeAbbrev": "WO",
            "Acknowledged": true,
            "ID": "Work Order 5478",
            "Image": "../img/characters/am.jpg",
            "caller": "RHONDA DOTMAN",
            "legal_due_date": "7/22/2010 12:48:00 PM",
            "ticket_id": 1015,
            "work_lat": "34.022483",
            "work_long": "-81.278617",
            "company": "SCE&G GAS DEPT",
            "priority": "3",
            "important": ["ticket_number", "due_date", "con_name", "con_city"]
        },
        {
            "Type": "Ticket",
            "TypeAbbrev": "T",
            "Acknowledged": false,
            "ID": "Test Ticket 4986",
            "Image": "../img/characters/am.jpg",
            "caller": "RHONDA DOTMAN",
            "legal_due_date": "7/27/2010 11:59:59 PM",
            "ticket_id": 1016,
            "work_lat": "34.024983",
            "work_long": "-81.041287",
            "company": "CITY OF COLUMBIA WATER DEPARTMENT",
            "priority": "",
            "important": ["ticket_number", "due_date", "con_name", "con_city"]
        }
    ]
}