
KORTERRA JOB PARKWAY-SMTP-1 NJ140350384 Seq: 32 02/05/2014 11:06:04
New Jersey One Call System        SEQUENCE NUMBER 0008    CDC = NJH

Transmit:  Date: 02/04/14   At: 10:04

*** R O U T I N E         *** Request No.: 140350384

Operators Notified:
AE1     = ATLANTIC CITY ELECTRIC        BAN     = VERIZON
CMC     = CAPE MAY COUNTY MUNICIPAL     GPMF4   = G4S TECHNOLOGY
MDT     = MIDDLE TOWNSHIP               NJH     = GARDEN STATE PARKWAY
SCNJ3   = NJ AMERICAN WATER             SJG     = SOUTH JERSEY GAS COMPANY

Start Date/Time:    02/08/14   At 07:00  Expiration Date: 04/09/14

Location Information:
County: CAPE MAY               Municipality: MIDDLE TWP
Subdivision/Community:
Street:               0 E SHELL BAY AVE
Nearest Intersection: US HWY 9
Other Intersection:   GOLF CLUB RD
Lat/Lon:
Type of Work: ROAD RECONSTRUCTION
Block:                Lot:                Depth: 10FT
Extent of Work: M/O ENTIRE LENGTH OF E SHELL BAY AVE FROM C/L OF US HWY 9 TO
  C/L OF GOLF CLUB RD INCLUDING ALL INTERSECTIONS AND EXTENDS 100FT E
  FROM C/L OF GOLF CLUB RD.  CURB TO 25FT BEHIND BOTH CURBS.  CURB TO
  CURB.
Remarks:
  Working For Contact:  HOWARD PIERSON

Working For: NEW JERSEY TURNPIKE AUTHORITY
Address:     581 MAIN STREET
City:        WOODBRIDGE, NJ  07095
Phone:       609-743-7175   Ext:

Excavator Information:
Caller:      PENNY STUBBS
Phone:       856-769-8244   Ext:

Excavator:   R E PIERSON CONSTRUCTION CO
Address:     PO BOX 430
City:        WOODSTOWN, NJ  08098
Phone:       856-769-8244   Ext:          Fax:  856-769-5630
Cellular:    856-769-8244
Email:       pstubbs@repierson.com
End Request


