
BEC03  00002 NCOCa 06/28/10 13:44:05 A101791845-00A NORM NEW GRID LR

North Carolina 811

Ticket : A101791845 Date: 06/28/10 Time: 13:40 Oper: PAL Chan:998
Old Tkt: A101791845 Date: 06/28/10 Time: 13:43 Oper: PAL Rev :00A

State: NC Cnty: CHEROKEE Place: MURPHY In/Out: B
Subdivision:

Address :
Street  : REED RD   Intersection: N
Cross 1 : RIVER HILL RD
Location: LOCATE BY 07/01/10 12:01 AM
DISTANCE FROM CROSS STREET IS:  STARTING FROM
STARTING FROM XST LOCATE: NORTHWEST ON BOTH SIDES OF ROAD TOWARD BROKEN ANTLER
TRL FOR 1/4ML
NOTE: DIRECTIONAL BORE
EXCAVATION AREA WILL BE MARKED WITH WHITE PAINT.
APPROXIMATELY 2400FT
:
Grids   : 3509C8415A    3509C8415B    3509D8415A    3509D8415B    3509D8415C

Work type:DIRECTIONAL BORES TO BURY TELE CABLE
Work date:07/01/10  Time: 08:00  Hours notice: 55/55  Priority: NORM
Ug/Oh/Both: U  Blasting: N  Boring: N  Railroad: N     Emergency: N
Duration: 4 HRS  Done for: AT&T [LOCAL]

Company : STAR CONSTRUCTION  Type: CONT
Co addr : 4030 ACCESS RD
City    : CHATTANOOGA State: TN Zip: 37406
Caller  : JOE CLEMMONS-NO EMAIL Phone: 423-622-5485
Contact : CELL Phone:
BestTime:
Cellular: 423-290-7881

Submitted date: 06/28/10 Time: 13:43
Members: BEC03  SCB01* TSE01

View map at:
http://newtina.ncocc.org/newtinweb/map_tkt.nap?Operation=MAPTKT&TRG=A10179184500A&OPR=aRUJ5qcM3odXGpVC
