
UQSTSO 00027B USAS 08/08/16 05:00:25 B62200012-00B NORM UPDT GRID

Ticket : B62200012  Date: 08/07/16 Time: 14:25 Oper: WEBUW Chan: WEB
Old Tkt: A60760884  Date: 07/08/16 Time: 09:44 Oper: WEBUBW Revision: 00B

Company: ERICKSON-HALL CONSTRUCTION     Caller: TYLER MIINCH
Co Addr: 500 CORPORATE DR
City&St: ESCONDIDO, CA                  Zip: 92029      Fax: 760-796-7750
Phone: 760-796-7700 Ext:      Call back: 7AM-4PM
Formn: TYLER MINCH          Phone: 760-522-9674
Email: JHOPE@ERICKSONHALL.COM

State: CA County: LOS ANGELES     Place: NORWALK
Delineated: Y
Delineated Method: WHITEPAINT
Address:             Street:BENFIELD AVE
X/ST 1 : DUNE ST
MPM 1:             MPM 2:
Locat: FIELD BOUNDED: FMR THE E/SIDE OF BENFIELD AVE APPROXIMATELY 930FT N/OF
     : THE E/INTER OF DUNE ST, CONT E/FOR APPROX 825FT, FRM THIS POINT CONT
     : N/FOR APPROX 250FT, FRM THIS POINT CONT W/FOR APPROX 825FT, FRM THIS
     : POINT CONT S/FOR APPROX 250FT BACK TO STARTING POINT  **FIELD IS LOC
     : BEHIND LAKESIDE MIDDLE SCHOOL AT 11000 KENNEY ST**

Excav Enters Into St/Sidewalk: N

Grids: 0706F0712
Lat/Long  : 33.927067/-118.098886 33.926993/-118.094866
          : 33.925969/-118.098906 33.925895/-118.094887
Caller GPS:

Boring: N  Explosives: N  Vacuum: N
Re-Mark: N

Work : REGRADING ENTIRE PLAYFIELD & ADDING POWER POLES (UNKN AMT)
Wkend: Y  Night: Y
Work date: 08/07/16 Time: 14:25 Hrs notc: 000 Work hrs: 000 Priority: 2
Instruct : WORK CONTINUING                Permit: NOT REQUIRED
Done for : LITTLE LAKE CITY SCHOOL DISTRICT

Tkt Exp: 09/04/16

                                  COMMENTS

REF EXP TICKET A060760884, UPDATE ONLY-WORK CONT PER JULIA HOPE--[WEBUW 08/07/16
14:25]

Mbrs : GSW2H  NOR01  SCG2WV SUNESYSLLC    TLC02  UCHRCOM       USCE47 USCE83SFS
UVZHTB
