
AGL118  GAUPC  ClickScreener EOD for 01/07/2010

Ticket         Rev  Seq     Mc TypeOfMsg                Sent To                                 Sent Time           
=============  ===  ======  =  =======================  ======================================  ==================  
01070-243-008  0    00089      Emergency Notice         emailtkts.fau5@tickets.utiliquest.com   01/07/2010 07:24    
01070-258-001  0    00091      Normal Notice            emailtkts.fau5@tickets.utiliquest.com   01/07/2010 07:24    
01070-258-001  0    00092      Normal Notice            emailtkts.fau5@tickets.utiliquest.com   01/07/2010 07:26    
01070-300-026  0    00136      Normal Notice            emailtkts.fau5@tickets.utiliquest.com   01/07/2010 08:00    
01070-300-027  0    00139      Normal Notice            emailtkts.fau5@tickets.utiliquest.com   01/07/2010 08:03    
01070-300-029  0    00146      Normal Notice            emailtkts.fau5@tickets.utiliquest.com   01/07/2010 08:05    
01070-300-031  0    00151      Normal Notice            emailtkts.fau5@tickets.utiliquest.com   01/07/2010 08:09    
01070-212-001  0    00212      Normal Notice            emailtkts.fau5@tickets.utiliquest.com   01/07/2010 08:29    
01070-237-008  0    00228      Emergency Notice         emailtkts.fau5@tickets.utiliquest.com   01/07/2010 08:33    
01070-237-009  0    00234      Normal Notice            emailtkts.fau5@tickets.utiliquest.com   01/07/2010 08:36    
01070-214-006  0    00318      Emergency Notice         emailtkts.fau5@tickets.utiliquest.com   01/07/2010 09:19    
01070-214-007  0    00337      Emergency Notice         emailtkts.fau5@tickets.utiliquest.com   01/07/2010 09:19    
01070-263-010  0    00390      Normal Notice            emailtkts.fau5@tickets.utiliquest.com   01/07/2010 09:38    
01070-300-387  0    00758      Normal Notice            emailtkts.fau5@tickets.utiliquest.com   01/07/2010 10:43    
01070-217-023  0    00767      Insufficient Notice      emailtkts.fau5@tickets.utiliquest.com   01/07/2010 10:44    
01070-300-410  0    00797      Normal Notice            emailtkts.fau5@tickets.utiliquest.com   01/07/2010 10:44    
01070-253-010  0    00854      Normal Notice            emailtkts.fau5@tickets.utiliquest.com   01/07/2010 10:49    
01070-215-020  0    00926      Normal Notice            emailtkts.fau5@tickets.utiliquest.com   01/07/2010 11:31    
01070-220-017  0    00979      Emergency Notice         emailtkts.fau5@tickets.utiliquest.com   01/07/2010 11:32    
01070-242-018  0    00993      Emergency Notice         emailtkts.fau5@tickets.utiliquest.com   01/07/2010 11:33    
01070-242-019  0    01002      Normal Notice            emailtkts.fau5@tickets.utiliquest.com   01/07/2010 11:33    
01070-300-554  0    01034      Normal Notice            emailtkts.fau5@tickets.utiliquest.com   01/07/2010 11:34    
01070-300-557  0    01040      Normal Notice            emailtkts.fau5@tickets.utiliquest.com   01/07/2010 11:34    
01070-400-029  0    01049      Large Project Excavation emailtkts.fau5@tickets.utiliquest.com   01/07/2010 11:34    
01070-300-562  0    01051      Normal Notice            emailtkts.fau5@tickets.utiliquest.com   01/07/2010 11:34    
01070-300-571  0    01061      Normal Notice            emailtkts.fau5@tickets.utiliquest.com   01/07/2010 11:35    
01070-239-019  0    01079      Insufficient Notice      emailtkts.fau5@tickets.utiliquest.com   01/07/2010 11:35    
01070-300-589  0    01090      Normal Notice            emailtkts.fau5@tickets.utiliquest.com   01/07/2010 11:35    
01070-300-597  0    01099      Normal Notice            emailtkts.fau5@tickets.utiliquest.com   01/07/2010 11:36    
01070-300-599  0    01102      Normal Notice            emailtkts.fau5@tickets.utiliquest.com   01/07/2010 11:36    
01070-300-603  0    01105      Normal Notice            emailtkts.fau5@tickets.utiliquest.com   01/07/2010 11:36    
01070-300-608  0    01112      Normal Notice            emailtkts.fau5@tickets.utiliquest.com   01/07/2010 11:37    
01070-300-619  0    01125      Normal Notice            emailtkts.fau5@tickets.utiliquest.com   01/07/2010 11:37    
01070-300-627  0    01144      Normal Notice            emailtkts.fau5@tickets.utiliquest.com   01/07/2010 11:42    
01070-300-635  0    01158      Normal Notice            emailtkts.fau5@tickets.utiliquest.com   01/07/2010 11:46    
01070-300-638  0    01165      Normal Notice            emailtkts.fau5@tickets.utiliquest.com   01/07/2010 11:46    
01070-300-645  0    01173      Normal Notice            emailtkts.fau5@tickets.utiliquest.com   01/07/2010 11:48    
01070-300-647  0    01177      Normal Notice            emailtkts.fau5@tickets.utiliquest.com   01/07/2010 11:49    
01070-300-653  0    01183      Normal Notice            emailtkts.fau5@tickets.utiliquest.com   01/07/2010 11:49    
01070-300-659  0    01189      Normal Notice            emailtkts.fau5@tickets.utiliquest.com   01/07/2010 11:50    
01070-300-668  0    01199      Normal Notice            emailtkts.fau5@tickets.utiliquest.com   01/07/2010 11:53    
01070-300-669  0    01203      Normal Notice            emailtkts.fau5@tickets.utiliquest.com   01/07/2010 11:53    
01070-300-675  0    01210      Normal Notice            emailtkts.fau5@tickets.utiliquest.com   01/07/2010 11:54    
01070-300-678  0    01215      Normal Notice            emailtkts.fau5@tickets.utiliquest.com   01/07/2010 11:55    
01070-300-683  0    01222      Normal Notice            emailtkts.fau5@tickets.utiliquest.com   01/07/2010 12:05    
01070-300-684  0    01224      Normal Notice            emailtkts.fau5@tickets.utiliquest.com   01/07/2010 12:05    
01070-300-693  0    01236      Normal Notice            emailtkts.fau5@tickets.utiliquest.com   01/07/2010 12:05    
01070-300-696  0    01238      Normal Notice            emailtkts.fau5@tickets.utiliquest.com   01/07/2010 12:05    
01070-260-029  0    01356      Normal Notice            emailtkts.fau5@tickets.utiliquest.com   01/07/2010 12:47    
01070-239-024  0    01403      Normal Notice            emailtkts.fau5@tickets.utiliquest.com   01/07/2010 12:59    
01070-246-030  0    01474      Normal Notice            emailtkts.fau5@tickets.utiliquest.com   01/07/2010 13:17    
01070-300-571  1    01481      Normal Notice            emailtkts.fau5@tickets.utiliquest.com   01/07/2010 13:17    
01070-300-873  0    01489      Normal Notice            emailtkts.fau5@tickets.utiliquest.com   01/07/2010 13:21    
01070-250-035  0    01569      Normal Notice            emailtkts.fau5@tickets.utiliquest.com   01/07/2010 13:37    
01070-236-022  0    01574      Normal Notice            emailtkts.fau5@tickets.utiliquest.com   01/07/2010 13:40    
01070-250-036  0    01579      Normal Notice            emailtkts.fau5@tickets.utiliquest.com   01/07/2010 13:42    
01070-234-035  0    01663      Normal Notice            emailtkts.fau5@tickets.utiliquest.com   01/07/2010 13:58    
01070-234-036  0    01673      Normal Notice            emailtkts.fau5@tickets.utiliquest.com   01/07/2010 14:00    
01070-234-037  0    01675      Normal Notice            emailtkts.fau5@tickets.utiliquest.com   01/07/2010 14:00    
01070-234-038  0    01689      Normal Notice            emailtkts.fau5@tickets.utiliquest.com   01/07/2010 14:01    
01070-234-039  0    01696      Normal Notice            emailtkts.fau5@tickets.utiliquest.com   01/07/2010 14:04    
01070-301-010  0    01697      Normal Notice            emailtkts.fau5@tickets.utiliquest.com   01/07/2010 14:05    
01070-234-040  0    01701      Normal Notice            emailtkts.fau5@tickets.utiliquest.com   01/07/2010 14:05    
01070-234-041  0    01713      Normal Notice            emailtkts.fau5@tickets.utiliquest.com   01/07/2010 14:06    
01070-234-041  0    01724      Normal Notice            emailtkts.fau5@tickets.utiliquest.com   01/07/2010 14:07    
01070-301-028  0    01725      Normal Notice            Cleared                                 01/07/2010 14:09    
01070-234-042  0    01742      Normal Notice            emailtkts.fau5@tickets.utiliquest.com   01/07/2010 14:11    
01070-234-043  0    01755      Normal Notice            emailtkts.fau5@tickets.utiliquest.com   01/07/2010 14:14    
01070-234-044  0    01761      Normal Notice            emailtkts.fau5@tickets.utiliquest.com   01/07/2010 14:14    
01070-234-045  0    01770      Normal Notice            emailtkts.fau5@tickets.utiliquest.com   01/07/2010 14:15    
01070-234-046  0    01780      Normal Notice            emailtkts.fau5@tickets.utiliquest.com   01/07/2010 14:17    
01070-301-097  0    01826      Normal Notice            emailtkts.fau5@tickets.utiliquest.com   01/07/2010 14:28    
01070-234-047  0    01827      Insufficient Notice      emailtkts.fau5@tickets.utiliquest.com   01/07/2010 14:28    
01070-234-048  0    01838      Insufficient Notice      emailtkts.fau5@tickets.utiliquest.com   01/07/2010 14:28    
01070-234-049  0    01845      Insufficient Notice      emailtkts.fau5@tickets.utiliquest.com   01/07/2010 14:28    
01070-258-038  0    01862      Emergency Notice         emailtkts.fau5@tickets.utiliquest.com   01/07/2010 14:33    
01070-301-155  0    01895      Normal Notice            emailtkts.fau5@tickets.utiliquest.com   01/07/2010 14:41    
01070-301-173  0    01910      Normal Notice            Cleared                                 01/07/2010 14:43    
01070-269-053  0    01932      Emergency Notice         emailtkts.fau5@tickets.utiliquest.com   01/07/2010 14:49    
01070-301-211  0    01955      Normal Notice            Cleared                                 01/07/2010 14:56    
01070-215-042  0    01960      Normal Notice            emailtkts.fau5@tickets.utiliquest.com   01/07/2010 15:00    
01070-301-217  0    01966      Normal Notice            emailtkts.fau5@tickets.utiliquest.com   01/07/2010 15:01    
01070-215-043  0    01969      Normal Notice            emailtkts.fau5@tickets.utiliquest.com   01/07/2010 15:01    
01070-215-044  0    01973      Normal Notice            emailtkts.fau5@tickets.utiliquest.com   01/07/2010 15:01    
01070-215-045  0    01979      Normal Notice            emailtkts.fau5@tickets.utiliquest.com   01/07/2010 15:05    
01070-215-046  0    01982      Normal Notice            emailtkts.fau5@tickets.utiliquest.com   01/07/2010 15:05    
01070-215-047  0    01986      Normal Notice            emailtkts.fau5@tickets.utiliquest.com   01/07/2010 15:05    
01070-215-048  0    01989      Normal Notice            emailtkts.fau5@tickets.utiliquest.com   01/07/2010 15:09    
01070-215-049  0    01993      Normal Notice            emailtkts.fau5@tickets.utiliquest.com   01/07/2010 15:09    
01070-215-050  0    02001      Normal Notice            emailtkts.fau5@tickets.utiliquest.com   01/07/2010 15:10    
01070-215-051  0    02010      Normal Notice            emailtkts.fau5@tickets.utiliquest.com   01/07/2010 15:13    
01070-215-052  0    02015      Normal Notice            emailtkts.fau5@tickets.utiliquest.com   01/07/2010 15:13    
01070-215-053  0    02018      Normal Notice            emailtkts.fau5@tickets.utiliquest.com   01/07/2010 15:13    
01070-215-054  0    02022      Normal Notice            emailtkts.fau5@tickets.utiliquest.com   01/07/2010 15:17    
01070-215-055  0    02027      Normal Notice            emailtkts.fau5@tickets.utiliquest.com   01/07/2010 15:17    
01070-301-259  0    02033      Normal Notice            emailtkts.fau5@tickets.utiliquest.com   01/07/2010 15:17    
01070-215-056  0    02034      Normal Notice            emailtkts.fau5@tickets.utiliquest.com   01/07/2010 15:17    
01070-215-057  0    02039      Normal Notice            emailtkts.fau5@tickets.utiliquest.com   01/07/2010 15:20    
01070-215-058  0    02049      Normal Notice            emailtkts.fau5@tickets.utiliquest.com   01/07/2010 15:22    
01070-301-274  0    02069      Normal Notice            emailtkts.fau5@tickets.utiliquest.com   01/07/2010 15:26    
01070-301-277  0    02074      Normal Notice            emailtkts.fau5@tickets.utiliquest.com   01/07/2010 15:26    
01070-301-325  0    02169      Normal Notice            emailtkts.fau5@tickets.utiliquest.com   01/07/2010 15:45    
01070-250-049  0    02221      Normal Notice            emailtkts.fau5@tickets.utiliquest.com   01/07/2010 16:03    
01070-301-357  0    02228      Normal Notice            emailtkts.fau5@tickets.utiliquest.com   01/07/2010 16:19    
01070-217-067  0    02354      Normal Notice            emailtkts.fau5@tickets.utiliquest.com   01/07/2010 16:43    
01070-217-068  0    02362      Normal Notice            emailtkts.fau5@tickets.utiliquest.com   01/07/2010 16:47    
01070-217-069  0    02369      Normal Notice            emailtkts.fau5@tickets.utiliquest.com   01/07/2010 16:48    
01070-217-070  0    02374      Normal Notice            emailtkts.fau5@tickets.utiliquest.com   01/07/2010 16:50    
01070-217-071  0    02385      Normal Notice            emailtkts.fau5@tickets.utiliquest.com   01/07/2010 16:55    
01070-217-072  0    02388      Normal Notice            emailtkts.fau5@tickets.utiliquest.com   01/07/2010 16:55    
01070-217-073  0    02390      Normal Notice            emailtkts.fau5@tickets.utiliquest.com   01/07/2010 16:58    
01070-217-074  0    02394      Normal Notice            emailtkts.fau5@tickets.utiliquest.com   01/07/2010 16:59    
01070-217-075  0    02397      Normal Notice            emailtkts.fau5@tickets.utiliquest.com   01/07/2010 17:02    
01070-217-076  0    02401      Normal Notice            emailtkts.fau5@tickets.utiliquest.com   01/07/2010 17:03    
01070-217-077  0    02403      Normal Notice            emailtkts.3004@tickets.utiliquest.com   01/07/2010 17:01    
01070-217-078  0    02405      Normal Notice            Cleared                                 01/07/2010 17:06    


       Count   TypeOfMsg                
=============  =======================  
           8   Emergency Notice         
           5   Insufficient Notice      
           1   Large Project Excavation 
         102   Normal Notice            
=============  =======================  
         116   Total Tickets            
