
06/01/2009

 | 9103473 | 9103507 | 9104809 | 9104815 | 9104995 | 9105062 | 9105147
 | 9105180 | 9105192 | 9105201 | 9105205 | 9105220 | 9105221 | 9105247
 | 9105253 | 9105256 | 9105258 | 9105259 | 9105262 | 9105263 | 9105264
 | 9105265 | 9105278 | 9105297 | 9105302 | 9105303 | 9105327 | 9105354
 | 9105356 | 9105357 | 9105365 | 9105370 | 9105373 | 9105381 | 9105384
 | 9105386 | 9105387 | 9105388 | 9105389 | 9105390 | 9105391 | 9105392
 | 9105393 | 9105394 | 9105395 | 9105396 | 9105397 | 9105398 | 9105399
 | 9105400 | 9105401 | 9105402 | 9105403 | 9105404 | 9105405 | 9105406
 | 9105407 | 9105408 | 9105409 | 9105410 | 9105411 | 9105412 | 9105414
 | 9105416 | 9105419 | 9105420 | 9105421 | 9105422 | 9105423 | 9105424
 | 9105425 | 9105426 | 9105429 | 9105431 | 9105435 | 9105442 | 9105449
 | 9105452 | 9105455 | 9105457 | 9105459 | 9105460 | 9105474 | 9105475
 | 9105476 | 9105477 | 9105479 | 9105482 | 9105485 | 9105488 | 9105490
 | 9105491 | 9105493 | 9105494 | 9105495 | 9105496 | 9105498 | 9105499
 | 9105500 | 9105502 | 9105505 | 9105507 | 9105508 | 9105509 | 9105510
 | 9105511 | 9105512 | 9105513 | 9105514 | 9105515 | 9105516 | 9105517
 | 9105518 | 9105519 | 9105520 | 9105521 | 9105522 | 9105523 | 9105527
 | 9105528 | 9105530 | 9105531 | 9105532 | 9105534 | 9105535 | 9105537
 | 9105538 | 9105542 | 9105543 | 9105545 | 9105548 | 9105556 | 9105560
 | 9105561 | 9105566 | 9105570 | 9105574 | 9105576 | 9105580 | 9105581
 | 9105584 | 9105585 | 9105586 | 9105590 | 9105595 | 9105600 | 9105609
 | 9105617 | 9105619 | 9105621 | 9105622 | 9105624 | 9105626 | 9105627
 | 9105629 | 9105630 | 9105632 | 9105633 | 9105634 | 9105635 | 9105636
 | 9105637 | 9105638 | 9105639 | 9105640 | 9105643 | 9105645 | 9105646
 | 9105647 | 9105650 | 9105651 | 9105652 | 9105653 | 9105655 | 9105656
 | 9105657 | 9105658 | 9105659 | 9105662 | 9105664 | 9105666 | 9105670
 | 9105671 | 9105673 | 9105680 | 9105681 | 9105682 | 9105683 | 9105685
 | 9105686 | 9105688 | 9105690 | 9105692 | 9105696 | 9105697 | 9105699
 | 9105701 | 9105703 | 9105705 | 9105707 | 9105709 | 9105711 | 9105714
 | 9105715 | 9105716 | 9105722 | 9105723 | 9105726 | 9105727 | 9105729
 | 9105730 | 9105731 | 9105732 | 9105733 | 9105734 | 9105736 | 9105738
 | 9105741 | 9105744 | 9105747 | 9105750 | 9105751 | 9105753 | 9105754
 | 9105755 | 9105757 | 9105758 | 9105759 | 9105760 | 9105762 | 9105763
 | 9105764 | 9105767 | 9105770 | 9105771 | 9105772 | 9105773 | 9105775
 | 9105777 | 9105779 | 9105783 | 9105787 | 9105789 | 9105791 | 9105792
 | 9105794 | 9105796 | 9105798 | 9105805 | 9105806 | 9105808 | 9105815
 | 9105817 | 9105820 | 9105821 | 9105822 | 9105824 | 9105825 | 9105828
 | 9105830 | 9105831 | 9105832 | 9105833 | 9105836 | 9105837 | 9105838
 | 9105839 | 9105840 | 9105841 | 9105842 | 9105844 | 9105845 | 9105847
 | 9105851 | 9105852 | 9105853 | 9105859 | 9105861 | 9105862 | 9105866
 | 9105869 | 9105870 | 9105871 | 9105872 | 9105875 | 9105878 | 9105879
 | 9105880 | 9105882 | 9105884 | 9105891 | 9105892 | 9105893 | 9105894
 | 9105899 | 9105900 | 9105901 | 9105902 | 9105903 | 9105905 | 9105906
 | 9105908 | 9105911 | 9105916 | 9105918 | 9105919 | 9105923 | 9105929
 | 9105931 | 9105932 | 9105937 | 9105942 | 9105943 | 9105945 | 9105947
 | 9105948 | 9105949 | 9105950 | 9105952 | 9105953 | 9105954 | 9105955
 | 9105956 | 9105957 | 9105958 | 9105959 | 9105960 | 9105961 | 9105964
 | 9105966 | 9105967 | 9105968 | 9105971 | 9105972 | 9105975 | 9105978
 | 9105979 | 9105980 | 9105981 | 9105983 | 9105985 | 9105989 | 9105990
 | 9105992 | 9105994 | 9105995 | 9105996 | 9105998 | 9105999 | 9106000
 | 9106001 | 9106002 | 9106004 | 9106006 | 9106009 | 9106010 | 9106014
 | 9106015 | 9106016 | 9106017 | 9106018 | 9106020 | 9106021 | 9106024
 | 9106025 | 9106026 | 9106028 | 9106029 | 9106030 | 9106031 | 9106032
 | 9106033 | 9106034 | 9106035 | 9106036 | 9106037 | 9106040 | 9106042
 | 9106044 | 9106046 | 9106048 | 9106049 | 9106050 | 9106054 | 9106058
 | 9106059 | 9106061 | 9106062 | 9106063 | 9106068 | 9106069 | 9106072
 | 9106073 | 9106074 | 9106075 | 9106076 | 9106079 | 9106080 | 9106088
 | 9106090 | 9106094 | 9106095 | 9106097 | 9106098 | 9106100 | 9106102
 | 9106104 | 9106105 | 9106106 | 9106109 | 9106111 | 9106114 | 9106115
 | 9106118 | 9106119 | 9106120 | 9106121 | 9106123 | 9106126 | 9106128
 | 9106129 | 9106133 | 9106135 | 9106137 | 9106139 | 9106141 | 9106143
 | 9106145 | 9106146 | 9106148 | 9106152 | 9106154 | 9106158 | 9106159
 | 9106163 | 9106165 | 9106166 | 9106169 | 9106171 | 9106172 | 9106178
 | 9106181 | 9106184 | 9106185 | 9106186 | 9106187 | 9106189 | 9106196
 | 9106200 | 9106202 | 9106205 | 9106208 | 9106213 | 9106215 | 9106218
 | 9106222 | 9106223 | 9106227 | 9106229 | 9106233 | 9106234 | 9106235
 | 9106238 | 9106240 | 9106241 | 9106243 | 9106244 | 9106246 | 9106247
 | 9106249 | 9106251 | 9106254 | 9106256 | 9106259 | 9106266 | 9106268
 | 9106270 | 9106272 | 9106273 | 9106275 | 9106276 | 9106278 | 9106280
 | 9106281 | 9106282 | 9106283 | 9106284 | 9106285 | 9106286 | 9106288
 | 9106289 | 9106290 | 9106291 | 9106292 | 9106294 | 9106295 | 9106296
 | 9106297 | 9106298 | 9106299 | 9106301 | 9106305 | 9106309 | 9106310
 | 9106311 | 9106313 | 9106315 | 9106317 | 9106318 | 9106330 | 9106331
 | 9106332 | 9106333 | 9106334 | 9106335 | 9106338 | 9106339 | 9106340
 | 9106342 | 9106344 | 9106347 | 9106348 | 9106349 | 9106350 | 9106353
 | 9106354 | 9106355 | 9106356 | 9106357 | 9106359 | 9106361 | 9106363
 | 9106364 | 9106365 | 9106366 | 9106367 | 9106368 | 9106370 | 9106374
 | 9106375 | 9106376 | 9106377 | 9106378 | 9106380 | 9106381 | 9106382
 | 9106383 | 9106384 | 9106386 | 9106387 | 9106388 | 9106389 | 9106391
 | 9106392 | 9106393 | 9106394 | 9106395 | 9106396 | 9106397 | 9106399
 | 9106400 | 9106401 | 9106405 | 9106407 | 9106410 | 9106411 | 9106416
 | 9106417 | 9106419 | 9106422 | 9106423 | 9106425 | 9106427 | 9106428
 | 9106429 | 9106432 | 9106435 | 9106437 | 9106438 | 9106439 | 9106441
 | 9106442 | 9106443 | 9106447 | 9106449 | 9106455 | 9106456 | 9106457
 | 9106459 | 9106460 | 9106462 | 9106463 | 9106464 | 9106465 | 9106470
 | 9106471 | 9106472 | 9106478 | 9106480 | 9106483 | 9106488 | 9106489
 | 9106492 | 9106495 | 9106501 | 9106503 | 9106504 | 9106506 | 9106507
 | 9106510 | 9106515 | 9106518 | 9106523 | 9106524 | 9106525 | 9106526
 | 9106528 | 9106529 | 9106531 | 9106532 | 9106535 | 9106538 | 9106540
 | 9106541 | 9106542 | 9106543 | 9106544 | 9106548 | 9106549 | 9106550
 | 9106553 | 9106556 | 9106557 | 9106558 | 9106564 | 9106567 | 9106570
 | 9106572 | 9106573 | 9106574 | 9106575 | 9106577 | 9106579 | 9106580
 | 9106583 | 9106585 | 9106586 | 9106593 | 9106598 | 9106601 | 9106603
 | 9106607 | 9106610 | 9106615 | 9106618 | 9106620 | 9106622 | 9106623
 | 9106626 | 9106627 | 9106628 | 9106630 | 9106633 | 9106634 | 9106635
 | 9106638 | 9106639 | 9106641 | 9106644 | 9106646 | 9106653 | 9106656
 | 9106657 | 9106658 | 9106659 | 9106678 | 9106698 | 9106700 | 9106701
 | 9106702 | 9106704 | 9106706 | 9106708 | 9106710 | 9106715 | 9106717
 | 9106720 | 9106721 | 9106722 | 9106723 | 9106726 | 9106728 | 9106729
 | 9126223 | 9126224 | 9126225 | 9126226 | 9126229 | 9126279 | 9126358
 | 9126439 | 9126447 | 9126491 | 9126529 | 9126530 | 9126563 | 9126572
 | 9126574 | 9126614 | 9126615 | 9126619 | 9126621 | 9126622 | 9126631
 | 9126633 | 9126695 | 9126701 | 9126723 | 9126756 | 9126768 | 9126771
 | 9126776 | 9126808 | 9126823 | 9126830 | 9126834 | 9126841 | 9126867
 | 9126870 | 9126898 | 9126899 | 9126912 | 9126987 | 9127005 | 9127021
 | 9127057 | 9127083 | 9127089 | 9127134 | 9127145 | 9127230 | 9127252
 | 9127276 | 9127279 | 9127283 | 9127303 | 9127316 | 9127355 | 9127391
 | 9127644 | 9127658 | 9127699 | 9127741 | 9127747 | 9127755 | 9127775
 | 9127809 | 9127849

Total Tickets: 758