
FROM DSNY      05/28/2013 AT 00:19
Dest: UTILIQUEST / PRIMARY
Service Area:                                ID: UTILIQUEST / PRIMARY
*******************************************************************************
*                 TICKET AUDIT FOR TRANSMISSIONS ON: 05/27/2013               *
*******************************************************************************

05273-154-014-00  E 0001   05273-222-007-00  R 0002   

 (+) RETRANSMIT - 0000         (E) EMERGENCY    - 0001
 (-) RESENT     - 0000         (P) PRIORITY     - 0000
 (!) CANCEL     - 0000         (I) INSUFFICIENT - 0000
 ( ) NORMAL     - 0002         (R) REGULAR      - 0001
                               (G) GAS EMERG    - 0000
                               (D) DESIGN       - 0000

                                   TOTAL        - 0002


There are no responses due today


