
FROM DSNY      06/05/2013 AT 00:11
Dest: UTILIQUEST / PRIMARY
Service Area:                                ID: UTILIQUEST / PRIMARY
*******************************************************************************
*                 TICKET AUDIT FOR TRANSMISSIONS ON: 06/04/2013               *
*******************************************************************************

06043-146-015-00  R 0037   06043-167-004-00  R 0038   06043-139-028-00  R 0040   
06043-146-023-00  R 0054   06043-500-088-00  R 0080   06043-161-046-00  R 0092   
06043-500-107-00  R 0093   06043-167-037-00  R 0095   06043-222-037-00  R 0115   
06043-134-104-00  R 0127   06043-134-105-00  R 0128   06043-145-055-00  R 0131   
06043-139-120-00  R 0133   06043-146-061-00    0136   06043-171-047-00  R 0140   
06043-044-083-00  E 0151   06043-148-011-00  R 0001   06043-148-012-00  R 0002   
06043-145-004-00  E 0003   06043-040-002-00  E 0004   06043-040-003-00  R 0005   
06043-078-001-00  R 0006   06043-078-005-00  R 0007   06043-012-015-00  R 0008   
06043-148-027-00  R 0009   06043-148-028-00  R 0010   06043-148-029-00  R 0011   
06043-148-030-00  R 0012   06043-148-031-00  R 0013   06043-148-032-00  R 0014   
06043-148-033-00  R 0015   06043-152-007-00  E 0016   06043-148-034-00  R 0017   
06043-148-035-00  R 0018   06043-148-036-00  R 0019   06043-148-037-00  R 0020   
06043-148-038-00  R 0021   06043-148-039-00  R 0022   06043-148-040-00  R 0023   
06043-148-041-00  R 0024   06043-148-042-00  R 0025   06043-148-043-00  R 0026   
06043-148-044-00  R 0027   06043-148-045-00  R 0028   06043-148-046-00  R 0029   
06043-148-047-00  R 0030   06043-154-001-00  R 0031   06043-148-048-00  R 0032   
06043-154-002-00  R 0033   06043-148-049-00  R 0034   06043-148-050-00  R 0035   
06043-177-003-00  R 0036   06043-139-026-00  E 0039   06043-134-015-00  I 0041   
06043-166-008-00  R 0042   06043-177-010-00  R 0043   06043-154-013-00  R 0044   
06043-167-008-00  R 0045   06043-177-011-00  R 0046   06043-154-014-00  R 0047   
06043-134-018-00  R 0048   06043-152-020-00  R 0049   06043-152-021-00  R 0050   
05243-040-026-01 +P 0051   06043-152-007-01 +E 0052   06043-520-023-00  R 0053   
06043-520-024-00  R 0055   06043-170-022-00  R 0056   06043-167-016-00  R 0057   
05293-134-043-01 +P 0058   06043-167-017-00  R 0059   06043-167-018-00  R 0060   
06043-167-019-00  R 0061   06043-167-020-00  R 0062   05163-167-045-01 +P 0063   
05163-167-045-02 +P 0064   06043-167-022-00  R 0065   06043-167-023-00  R 0066   
06043-167-024-00  R 0067   06043-167-025-00  R 0068   06043-150-025-00  R 0069   
06043-167-027-00  R 0070   06043-167-028-00  R 0071   06043-146-033-00  R 0072   
06043-146-034-00  R 0073   06043-146-035-00  R 0074   06043-120-050-00  R 0075   
06043-120-051-00  R 0076   06043-177-038-00  R 0077   06043-134-029-00  R 0078   
06043-166-026-00  R 0079   06043-166-030-00  R 0081   06043-171-019-00  R 0082   
06043-179-037-00  R 0083   06043-500-098-00  R 0084   06043-181-025-00  R 0085   
06043-222-028-00  R 0086   06043-500-101-00  R 0087   06043-012-048-00  R 0088   
06043-012-049-00  R 0089   06043-500-102-00  R 0090   06043-500-104-00  R 0091   
06043-177-048-00  R 0094   06043-166-042-00  R 0096   06043-222-032-00  R 0097   
06043-139-062-00  R 0098   06043-139-063-00  R 0099   06043-139-064-00  R 0100   
06043-139-065-00  R 0101   06043-139-066-00  R 0102   06043-139-067-00  R 0103   
06043-139-068-00  R 0104   06043-139-069-00  R 0105   06043-139-070-00  R 0106   
06043-139-071-00  R 0107   06043-139-072-00  R 0108   06043-139-074-00  R 0109   
06043-152-043-00  R 0110   06043-161-048-00  R 0111   06043-161-049-00  R 0112   
06043-161-050-00  R 0113   06043-161-051-00  R 0114   06043-152-053-00  R 0116   
06043-152-054-00  R 0117   06043-152-055-00  R 0118   06043-152-056-00  R 0119   
06043-152-057-00  R 0120   06043-152-058-00  R 0121   06043-152-059-00  R 0122   
06043-154-050-00  R 0123   06043-152-060-00  R 0124   06043-167-071-00  R 0125   
06043-167-072-00  R 0126   06043-146-055-00  E 0129   06043-179-055-00  R 0130   
06043-222-049-00  R 0132   06043-177-077-00  R 0134   06043-177-078-00  R 0135   
06043-154-063-00  R 0137   06043-222-062-00  R 0138   06043-179-076-00  R 0139   
06043-179-077-00  R 0141   06043-179-078-00  R 0142   06043-222-067-00  R 0143   
06043-222-068-00  R 0144   06043-222-069-00  R 0145   06043-170-064-00  R 0146   
06043-177-088-00  R 0147   06043-177-094-00  R 0148   06043-177-095-00  R 0149   
06043-044-081-00  E 0150   

 (+) RETRANSMIT - 0005         (E) EMERGENCY    - 0008
 (-) RESENT     - 0000         (P) PRIORITY     - 0004
 (!) CANCEL     - 0000         (I) INSUFFICIENT - 0001
 ( ) NORMAL     - 0146         (R) REGULAR      - 0137
                               (G) GAS EMERG    - 0000
                               (D) DESIGN       - 0000

                                   TOTAL        - 0151


There are no responses due today


