93490313|DPU105|2||12/17/09|07:45:43|00|Success|
93490127|HRCA20|1||12/17/09|07:45:43|00|Success|
93500029|DPML11|1||12/17/09|07:45:43|00|Success|
93500029|STOR24|2||12/17/09|07:45:43|00|Success|
