
SEQUENCE NUMBER 0003   CDC = NJN

NJ1C audit for CDC of NJN on 090512  (Page 05)

Serial# & Seq# &XTime   Serial# & Seq# &Xtime   Serial# & Seq# &XTime
091322614 3454   2215   091322616 3456   2226   091322617 3459   2226   
091322622 3464   2348   

Total number of Emergencies          0054
Total number of Routine Notices      0545
Total number of Messages for NJN     0599

If this audit does not match your manual tracking 
then call the Call Center and request a retransmission.
