
--===SEE838999-675552734===MIX===
Content-Type: text/plain
Content-Transfer-Encoding: quoted-printable





KORTERRA JOB MURFU01-SMTP-2 090910522 Seq: 22 04/01/2009 09:24:04
U01        00021 TNOCS 04/01/09 09:18:00 090910522 NORMAL GRID

=3D=3D=3D=3D=3D=3D=3D=3D//  TNOCS LOCATE REQUEST  //=3D=3D=3D=3D=3D=3D=3D=3D

TICKET NUMBER--[090910522]
OLD TICKET NUM-[]

MESSAGE TYPE---[NORMAL] LEAD TIME--[72]
PREPARED-------[04/01/09]  AT  [0918]  BY  [JUDIEANN]

CONTRACTOR--[BRATTON BROTHERS SERVICES]
CALLER--[ALISON BALLINGER]
ADDRESS-----[1209 TWIN OAK DR]
CITY--------[MURFREESBORO]   STATE--[TN]   ZIP--[37130]
CALL BACK---[(615) 895-5433]
PHONE--[(615) 895-5433]
CONTACT-----[ALISON BALLINGER]   PHONE--[(615) 895-5433]
CONTACT FAX-[Q]

WORK TO BEGIN--[04/06/09] AT [0930]      STATE--[TN]
COUNTY---[RUTHERFORD]  PLACE--[MURFREESBORO]

ADDRESS--[603]   STREET--[][PALISADE ][DR][]
NEAREST INTERSECTION--------[REGENCY PARK DR]
LATITUDE--[35.9055542692109]    LONGITUDE--[-86.3905171594834]
SECONDARY LATITUDE--[0] SECONDARY LONGITUDE--[0]

ADDITIONAL ADDRESSES IN LOCATION--[N]

LOCATION INFORMATION--
[MARK REAR AND BOTH SIDES OF PROP....PROP W OF THE INTER APPX 150FT            

WORK TYPE--[FENCE, INSTL]
DONE FOR--[BILL TAYLOR]
EXTENT-----[]

EXPLOSIVES--[N]    WHITE PAINT--[N]    GRID GIVEN--[N]

MAP REF.--[]
GRIDS-----
          [69D              ] [69C              ]

UTILITIES NOTIFIED--
  CODE       NAME                         CODE       NAME
  ---------- --------------------------   ---------- --------------------------
  B08        ATT/D-COLUM (615)661-3758    INTRU      COMCAST- RUTHERFORD
  ME         MURFREESBORO ELECTRIC (...   MRU        MURFREESBORO WATER & SEWER
  MUR        MURFREESBORO, CITY OF        U01        ATMOS ENERGY (UNITED CI...



--===SEE838999-675552734===MIX===--


