

This is your End of Day Audit from IRTHNet for items sent
since 2/22/2016 10:00 AM (Eastern Standard Time)

Seq   Ticket                    Registration Code                  
-------------------------------------------------------------------
1     16043767                  CC7711 (WOC)                       
2     16043744                  CC7712 (WOC)                       
3     16044516                  CC7722 (WOC)                       
4     16043950                  CC7730 (WOC)                       
