
SEQUENCE NUMBER 0003   CDC = NJN

NJ1C audit for CDC of NJN on 090512

Serial# & Seq# &XTime   Serial# & Seq# &Xtime   Serial# & Seq# &XTime
091320734        0156   091320735        0156   091320736        0156   
091320737        0156   091320738        0156   091320004 0007   0339   
091320009 0012   0526   091320012 0014   0550   091320019 0019   0612   
091320021 0023   0614   091320028 0030   0631   091320035 0036   0643   
091320036 0038   0645   091320037 0040   0647   091320038 0042   0647   
091320042 0046   0649   091320047 0051   0651   091320055 0055   0700   
091320061 0058   0713   091320062 0061   0713   091320072 0069   0721   
091320075 0074   0723   091320091 0096   0732   091320093 0100   0734   
091320096 0106   0734   091320100 0112   0736   091320102 0115   0738   
091320104 0119   0740   091320108 0124   0742   091320109 0125   0742   
091320112 0129   0744   091320129 0151   0751   091320133 0152   0752   
091320134 0154   0753   091320153 0170   0802   091320157 0175   0804   
091320161 0184   0807   091320164 0188   0809   091320166 0190   0810   
091320178 0204   0816   091320183 0208   0817   091320193 0222   0820   
091320197 0225   0822   091320202 0228   0827   091320208 0231   0827   
091320218 0234   0829   091320219 0237   0829   091320229 0246   0831   
091320242 0260   0836   091320244 0264   0836   091320245 0265   0836   
091320249 0273   0836   091320250 0275   0837   091320252 0279   0838   
091320255 0282   0838   091320258 0290   0839   091320276 0306   0843   
091320275 0309   0843   091320291 0331   0853   091320293 0334   0854   
091320294 0336   0855   091320295 0337   0855   091320298 0343   0855   
091320302 0351   0857   091320304 0354   0859   091320305 0355   0859   
091320308 0357   0859   091320309 0360   0900   091320312 0365   0901   
091320329 0381   0904   091320335 0383   0905   091320336 0385   0905   
091320352 0398   0911   091320356 0403   0913   091320359 0409   0914   
091320361 0410   0914   091320362 0413   0915   091320363 0415   0915   
091320364 0418   0918   091320366 0422   0919   091320368 0425   0919   
091320375 0432   0921   091320376 0435   0922   091320377 0437   0922   
091320380 0443   0923   091320383 0445   0924   091320385 0446   0925   
091320386 0448   0925   091320387 0451   0925   091320389 0453   0925   
091320391 0458   0926   091320392 0459   0926   091320395 0465   0927   
091320396 0467   0928   091320411 0493   0930   091320407 0494   0930   
091320408 0496   0930   091320412 0504   0931   091320413 0506   0931   
091320415 0508   0931   091320416 0510   0931   091320422 0515   0933   
091320424 0518   0934   091320425 0520   0934   091320429 0524   0935   
091320435 0529   0936   091320433 0532   0936   091320444 0547   0939   
091320446 0549   0939   091320448 0550   0939   091320455 0560   0940   
091320457 0566   0941   091320461 0569   0941   091320462 0571   0941   
091320467 0578   0942   091320470 0580   0942   091320477 0596   0945   
091320485 0598   0946   091320478 0600   0946   091320484 0604   0946   
091320494 0609   0950   091320495 0618   0950   091320507 0635   0952   
091320517 0650   0955   091320519 0655   0956   091320527 0663   0957   
091320532 0670   0959   091320536 0675   0959   091320538 0678   1000   
091320542 0684   1001   091320547 0689   1001   091320550 0695   1003   
091320554 0697   1004   091320565 0710   1008   091320566 0712   1008   
091320569 0718   1008   091320572 0720   1009   091320575 0726   1010   
091320579 0730   1011   091320580 0732   1012   091320588 0740   1014   
091320583 0741   1014   091320587 0745   1014   091320590 0747   1015   
091320593 0753   1016   091320597 0756   1017   091320602 0762   1019   
091320612 0776   1020   091320613 0781   1022   091320617 0788   1023   
