
                                                                                     
 ATTD19LAN 00007A USAS 03/29/10 07:40:45 A00321586-02A NORM UPDT GRID                
                                                                                     
 Ticket : A00321586 Date: 03/29/10 Time: 07:40 Oper: ANNIEF Chan: WEB                
 Old Tkt: A00321586 Date: 02/01/10 Time: 16:32 Oper: JVALEN Revision: 02A            
 State: CA County: LOS ANGELES          Place: ROSEMEAD                              
 Locat: ON GARVEY AVE FROM SULLIVAN AVE TO APROX 100' EAST                           
 Address: GARVEY AVE                                                                 
 X/ST 1 : SULLIVAN AVE                                                               
 Grids: 0636H022                                             Delineated: Y           
 Lat/Long  : 34.063141/-118.072559 34.063108/-118.071280                             
           : 34.062320/-118.072580 34.062286/-118.071301                             
 Caller GPS:                                                                         
                                                                                     
 Boring: N  Explosives: N  Vacuum: N                                                 
                                                                                     
 Re-Mark: N                                                                          
                                                                                     
 Work : ROW TO ROW R+R A/C AND CONCRETE 1' DEEP                                      
 Work date: 03/29/10 Time: 07:41 Hrs notc: 000 Work hrs: 000 Priority: 2             
 Instruct : WORK CONTINUING        Permit   : NOT REQUIRED                           
 Done for : CITY OF ROSEMEAD                                                         
                                                                                     
 Company: ALL AMERICAN ASPHALT           Caller: JOSE                                
 Address: 1776 ALL AMERICAN WAY                                                      
 City&St: CORONA, CA                     Zip: 92878                                  
 Phone: 951-739-4650                                                                 
 Formn: KEN HARTLINE         Phone: 951-453-9138                                     
 Email: JVALENZUELA@ALLAMERICANASPHALT.COM                                           
                                                                                     
                                   COMMENTS                                          
                                                                                     
 **RESEND**UPDATE ONLY-WORK CONT UPDATE PER JOSE--[JVALEN 03/01/10 15:20]            
 **RESEND**UPDATE ONLY-WORK CONT UPDATE ONLY! PER ANNIE--[ANNIEF 03/29/10 07:41]     
                                                                                     
 Mbrs : ATTD19LAN     CSDSGBL       ELM01  MPW01  ROS01  SCG4PW SGV30  UCHRCOM       
 USCE08                                                                              
 At&t Ticket Id: 23303067     clli code:   ROSMCA11                                  
                                                                                     
                                                                                     
                                                                                     
                                                                                     
                                                                                     
                                                                                     
                                                                                     
                                                                                     
                                                                                     
                                                                                     
                                                                                     
                                                                                     
                                                                                     
                                                                                     
                                                                                     
                                                                                     
                                                                                     
                                                                                     
                                                                                     
                                                                                     
                                                                                     
                                                                                     
                                                                                     
                                                                                     
                                                                                     
                                                                                     
                                                                                     
                                                                                     
                                                                                     
                                                                                     
                                                                                     
                                                                                     
                                                                                     
                                                                                     
                                                                                     
                                                                                     
                                                                                     
                                                                                     
                                                                                     
                                                                                     
                                                                                     
                                                                                     
                                                                                     
                                                                                     
                                                                                     
                                                                                     
                                                                                     
                                                                                     
                                                                                     
                                                                                     
                                                                                     
                                                                                     
=