
Arizona Blue Stake

DESTINATION AUDIT FOR FTCCOM06
LIST OF ALL TICKETS SENT BETWEEN 11/02/2011 12:05 AM AND 11/03/2011 12:05 AM

                  SORT BY SEQUENCE NUMBER
Seq. No   |Notice Number     |Type|SadaCode|Delivery Time
----------+------------------+----+--------|-------------------
1         |2011110200655.000 |    |FTCCOM06|11/02/2011 01:31 PM

* indicates ticket # is repeated

Total Tickets: 1

    -Routine            1

Please call (602) 659-7500 if this data
does not match the tickets you received
between 11/02/2011 12:05 am and 11/03/2011 12:05 am


