


-----Original Message-----
From: wa@occinc.com [mailto:wa@occinc.com] 
Sent: Wednesday, March 27, 2013 11:42 AM
To: onecall@noanet.net
Subject: 2 FULL BUSINESS DAYS 13069251

Ticket No: 13069251               2 FULL BUSINESS DAYS 
Send To: NOANT02    Seq No:    3  Map Ref:  

Transmit      Date:  3/27/13   Time: 11:42 AM    Op: orcbkd 
Original Call Date:  3/27/13   Time: 11:37 AM    Op: orcbkd 
Work to Begin Date:  3/30/13   Time: 12:00 AM 

State: WA            County: CLARK                   Place: VANCOUVER 
Address:   3200      Street: O ST 
Nearest Intersecting Street: 32ND 

Twp: 2N      Rng: 1E      Sect-Qtr: 23-NW 
Twp:         Rng:         Sect-Qtr:        

Type of Work: INSTALL FENCE 
Location of Work: ABV ADD IS BETWEEN 32ND AND 33RD ON O ST. MARK ENTIRE PROP
: AT ABV ADD. 

Remarks:  
:  

Company     : HOMEOWNER                        Best Time:   
Contact Name: MS STATES                        Phone: (360)771-1110 
Alt. Contact:                                  Phone:  
Contact Fax :  
Work Being Done For: HOMEOWNER 
Additional Members:  
CMCST03    CPU01      NWN02      QLNWA06    VAN01      VAN02      VAN03 


