


-----Original Message-----
From: wa@occinc.com [mailto:wa@occinc.com] 
Sent: Friday, March 22, 2013 9:56 AM
To: onecall@noanet.net
Subject: 2 FULL BUSINESS DAYS 13064680

Ticket No: 13064680               2 FULL BUSINESS DAYS 
Send To: NOANT01    Seq No:    1  Map Ref:  

Transmit      Date:  3/22/13   Time:  9:56 AM    Op: orbert 
Original Call Date:  3/22/13   Time:  9:52 AM    Op: orbert 
Work to Begin Date:  3/27/13   Time: 12:00 AM 

State: WA            County: FRANKLIN                Place: PASCO 
Address:             Street: EAST A ST 
Nearest Intersecting Street: SR 12 

Twp: 8N      Rng: 30E     Sect-Qtr: 12 
Twp: 9N      Rng: 30E     Sect-Qtr: 27-SW-SE,34-NW-NE 

Type of Work: PLACING TELEPHONE FIBER 
Location of Work: MARK AREA THAT HAS BEEN WHITELINED    AT THE SOUTH EAST
: CORNER OF THE ABOVE INTERSECTION   GOING WEST APPROX 3000FT 

Remarks: BEST INFO AVAIL 
:  

Company     : SPOKANE DITCH AND CABLE          Best Time:   
Contact Name: VICKI TURNER                     Phone: (509)483-1272 
Alt. Contact:                                  Phone:  
Contact Fax : (509)483-2525 
Work Being Done For: CENTURY LINK 
Additional Members:  
CHRTER03   CNG18      FRAPUD01   PASCO01    QLNWA11    WDOTS01 


