
MISSU Miss Utility
SUMM
DAILY AUDIT OF TICKETS SENT ON 10/24/12

Date/Time: 10/25/2012 12:05:45 AM
Receiving Terminal: VPG

Seq #   Ticket #    Seq #   Ticket #    Seq #   Ticket #    Seq #   Ticket #    
----- ------------  ----- ------------  ----- ------------  ----- ------------  
   1  12570113-ETKT| 125  12570652-48HR| 249  12571336-UPDT| 373  12572083-48HR|
   2  12570137-UPDT| 126  12570653-UPDT| 250  12571338-UPDT| 374  12572084-48HR|
   3  12570139-UPDT| 127  12570654-UPDT| 251  12571378-48HR| 375  12572085-48HR|
   4  12570140-UPDT| 128  12570655-UPDT| 252  12571398-UPDT| 376  12572086-48HR|
   5  12570149-UPDT| 129  12570658-UPDT| 253  12571400-UPDT| 377  12572065-48HR|
   6  12570181-FIOS| 130  12570659-UPDT| 254  12571401-UPDT| 378  12572104-48HR|
   7  12570187-FIOS| 131  12570661-UPDT| 255  12571402-UPDT| 379  12569761-CANC|
   8  12570188-FIOS| 132  12570666-UPDT| 256  12571405-UPDT| 380  12569768-CANC|
   9  12570194-FIOS| 133  12570667-UPDT| 257  12571407-UPDT| 381  12572137-UPDT|
  10  12570197-FIOS| 134  12570678-48HR| 258  12571409-UPDT| 382  12572150-UPDT|
  11  12570208-48HR| 135  12570692-ETKT| 259  12571410-UPDT| 383  12572159-48HR|
  12  12570225-FIOS| 136  12570728-UPDT| 260  12571412-UPDT| 384  12572132-48HR|
  13  12570242-48HR| 137  12570700-48HR| 261  12571413-UPDT| 385  12572181-48HR|
  14  12570250-UPDT| 138  12570714-48HR| 262  12571415-UPDT| 386  12572183-48HR|
  15  12570262-UPDT| 139  12570723-48HR| 263  12571417-UPDT| 387  12572184-48HR|
  16  12570274-UPDT| 140  12570707-ETKT| 264  12571418-UPDT| 388  12572186-48HR|
  17  12570277-UPDT| 141  12570696-48HR| 265  12571419-UPDT| 389  12572187-48HR|
  18  12570305-UPDT| 142  12570660-48HR| 266  12571423-UPDT| 390  12572217-48HR|
  19  12570313-UPDT| 143  12570752-UPDT| 267  12571425-UPDT| 391  12572223-48HR|
  20  12570281-UPDT| 144  12570757-UPDT| 268  12571426-UPDT| 392  12569774-CANC|
  21  12570320-UPDT| 145  12570760-UPDT| 269  12571429-UPDT| 393  12569781-CANC|
  22  12570322-UPDT| 146  12570792-48HR| 270  12571430-UPDT| 394  12566004-REMK|
  23  12570323-ETKT| 147  12570769-UPDT| 271  12571431-UPDT| 395  12572255-FIOS|
  24  12570328-ETKT| 148  12570779-UPDT| 272  12571433-UPDT| 396  12572248-48HR|
  25  12570332-ETKT| 149  12570784-UPDT| 273  12571435-UPDT| 397  12572270-48HR|
  26  12570337-ETKT| 150  12570795-48HR| 274  12571443-UPDT| 398  12572275-48HR|
  27  12570316-48HR| 151  12570797-ETKT| 275  12571445-UPDT| 399  12572269-48HR|
  28  12570319-ETKT| 152  12570798-48HR| 276  12571446-UPDT| 400  12572256-48HR|
  29  12570286-UPDT| 153  12570801-48HR| 277  12571447-UPDT| 401  12572306-48HR|
  30  12570326-ETKT| 154  12570802-ETKT| 278  12571449-UPDT| 402  12572324-48HR|
  31  12570393-48HR| 155  12570808-48HR| 279  12571451-UPDT| 403  12572365-FIOS|
  32  12570402-48HR| 156  12570811-48HR| 280  12571452-UPDT| 404  12572327-48HR|
  33  12570403-48HR| 157  12570814-48HR| 281  12571455-UPDT| 405  12572381-48HR|
  34  12570404-48HR| 158  12570820-48HR| 282  12571456-UPDT| 406  12572415-UPDT|
  35  12570408-48HR| 159  12570823-48HR| 283  12571459-UPDT| 407  12572418-UPDT|
  36  12570409-48HR| 160  12570818-48HR| 284  12571461-UPDT| 408  12572419-UPDT|
  37  12570410-48HR| 161  12570855-48HR| 285  12571463-48HR| 409  12572422-UPDT|
  38  12570411-48HR| 162  12570903-UPDT| 286  12571465-48HR| 410  12572332-UPDT|
  39  12570412-48HR| 163  12570909-UPDT| 287  12571479-48HR| 411  12572342-UPDT|
  40  12570414-48HR| 164  12570910-UPDT| 288  12571480-UPDT| 412  12572414-48HR|
  41  12570415-48HR| 165  12570915-UPDT| 289  12571492-48HR| 413  12572424-UPDT|
  42  12570416-48HR| 166  12570916-UPDT| 290  12571496-ETKT| 414  12572427-UPDT|
  43  12570419-48HR| 167  12570919-ETKT| 291  12571506-48HR| 415  12572450-48HR|
  44  12570420-48HR| 168  12570921-UPDT| 292  12571527-48HR| 416  12572453-48HR|
  45  12570423-48HR| 169  12570925-UPDT| 293  12571514-48HR| 417  12572455-48HR|
  46  12570424-48HR| 170  12570930-UPDT| 294  12571543-ETKT| 418  12572468-FIOS|
  47  12570425-48HR| 171  12570886-48HR| 295  12571546-ETKT| 419  12572474-FIOS|
  48  12570426-48HR| 172  12570936-UPDT| 296  12571558-48HR| 420  12572478-FIOS|
  49  12570407-48HR| 173  12570941-UPDT| 297  12571563-48HR| 421  12572481-FIOS|
  50  12570428-48HR| 174  12570943-UPDT| 298  12571565-FIOS| 422  12572504-48HR|
  51  12570430-48HR| 175  12570951-UPDT| 299  12571569-48HR| 423* 12572484-48HR|
  52  12570431-48HR| 176  12570956-UPDT| 300  12571572-48HR| 424  12572491-48HR|
  53  12570434-48HR| 177  12570944-ETKT| 301  12571574-FIOS| 425  12572535-48HR|
  54  12570435-48HR| 178  12570959-UPDT| 302  12571575-48HR| 426  12572555-48HR|
  55  12570429-48HR| 179  12570965-UPDT| 303  12571576-FIOS| 427  12572562-48HR|
  56  12570450-48HR| 180  12570968-UPDT| 304  12571577-ETKT| 428  12572564-UPDT|
  57  12570452-48HR| 181  12570961-48HR| 305  12571581-FIOS| 429  12572484-CANC|
  58  12570463-ETKT| 182  12570974-UPDT| 306  12571570-48HR| 430  12572567-UPDT|
  59  12570345-48HR| 183  12570981-UPDT| 307  12571584-FIOS| 431  12572556-48HR|
  60  12570474-48HR| 184  12570972-ETKT| 308  12571585-48HR| 432  12572569-48HR|
  61  12570476-48HR| 185  12570985-UPDT| 309  12571589-UPDT| 433  12572576-48HR|
  62  12570484-48HR| 186  12570990-UPDT| 310  12571590-48HR| 434  12572580-48HR|
  63  12570485-48HR| 187  12571006-48HR| 311  12571582-48HR| 435  12572581-UPDT|
  64  12570489-ETKT| 188  12571009-48HR| 312  12571593-48HR| 436  12572585-UPDT|
  65  12570492-ETKT| 189  12571014-48HR| 313  12571599-FIOS| 437  12572594-48HR|
  66  12570494-48HR| 190  12571017-48HR| 314* 12571610-48HR| 438  12572605-UPDT|
  67  12570497-48HR| 191  12571018-48HR| 315* 12571614-48HR| 439  12572611-UPDT|
  68  12570499-UPDT| 192  12571019-48HR| 316  12571615-48HR| 440  12572604-48HR|
  69  12570501-UPDT| 193  12571007-48HR| 317  12571600-ETKT| 441  12572614-UPDT|
  70  12570523-48HR| 194  12571023-48HR| 318  12571595-UPDT| 442  12572618-UPDT|
  71  12570525-48HR| 195  12571029-48HR| 319  12571624-ETKT| 443  12572619-UPDT|
  72  12570527-48HR| 196  12571051-48HR| 320  12571670-48HR| 444  12572617-48HR|
  73  12570530-48HR| 197  12571064-48HR| 321  12571610-CANC| 445  12572620-UPDT|
  74  12570533-48HR| 198  12571073-48HR| 322  12571614-CANC| 446  12572623-UPDT|
  75  12570537-48HR| 199  12571078-FIOS| 323  12571654-48HR| 447  12572621-48HR|
  76  12570538-48HR| 200  12571092-ETKT| 324  12571672-48HR| 448  12572628-48HR|
  77  12570543-48HR| 201  12571094-ETKT| 325  12571691-48HR| 449  12572635-48HR|
  78  12570546-48HR| 202  12571095-ETKT| 326  12571700-48HR| 450  12572639-48HR|
  79  12570554-48HR| 203  12571096-48HR| 327  12571698-48HR| 451  12572641-48HR|
  80  12570559-48HR| 204  12571098-48HR| 328  12571712-48HR| 452  12572642-48HR|
  81  12570560-48HR| 205  12571103-48HR| 329  12571757-UPDT| 453  12572647-48HR|
  82  12570562-48HR| 206  12571119-48HR| 330  12571761-UPDT| 454  12572654-48HR|
  83  12570568-UPDT| 207  12571147-FIOS| 331  12571762-UPDT| 455  12572657-48HR|
  84  12570569-48HR| 208  12571195-48HR| 332  12571764-UPDT| 456  12572687-48HR|
  85  12570571-48HR| 209  12571203-FIOS| 333  12571720-48HR| 457  12572691-ETKT|
  86  12570584-48HR| 210  12571218-FIOS| 334  12571739-48HR| 458  12572702-FIOS|
  87  12570589-48HR| 211  12571222-FIOS| 335  12571748-48HR| 459  12572769-FIOS|
  88  12570591-48HR| 212  12571209-48HR| 336  12571755-48HR| 460  12572790-48HR|
  89  12570594-48HR| 213  12571258-UPDT| 337  12571759-48HR| 461  12572796-FIOS|
  90  12570595-48HR| 214  12571261-UPDT| 338  12571770-48HR| 462  12572797-FIOS|
  91  12570598-48HR| 215  12571264-UPDT| 339  12571766-48HR| 463  12572798-FIOS|
  92  12570599-48HR| 216  12571266-UPDT| 340  12571771-48HR| 464  12572799-FIOS|
  93  12570602-48HR| 217  12571267-UPDT| 341  12571779-48HR| 465  12572800-FIOS|
  94  12570603-48HR| 218  12571268-UPDT| 342  12571793-48HR| 466  12572801-48HR|
  95  12570605-48HR| 219  12571269-UPDT| 343  12571786-48HR| 467  12572802-FIOS|
  96  12570606-48HR| 220  12571270-UPDT| 344  12571795-48HR| 468  12572803-FIOS|
  97  12570608-48HR| 221  12571271-UPDT| 345  12571805-48HR| 469  12572810-48HR|
  98  12570609-48HR| 222  12571272-UPDT| 346  12564481-CANC| 470  12572820-FIOS|
  99  12570612-48HR| 223  12571273-UPDT| 347  12571791-48HR| 471  12572821-FIOS|
 100  12570614-48HR| 224  12571274-UPDT| 348  12571812-48HR| 472  12572837-UPDT|
 101  12570615-48HR| 225  12571277-UPDT| 349  12571824-FIOS| 473  12572840-UPDT|
 102  12570617-48HR| 226  12571279-UPDT| 350  12571823-48HR| 474  12572843-UPDT|
 103  12570618-48HR| 227  12571281-UPDT| 351  12571829-ETKT| 475  12572844-UPDT|
 104  12570619-48HR| 228  12571282-UPDT| 352  12571835-FIOS| 476  12572845-UPDT|
 105  12570622-48HR| 229  12571284-UPDT| 353  12571842-48HR| 477  12572846-UPDT|
 106  12570625-48HR| 230  12571285-UPDT| 354  12571896-48HR| 478  12572847-UPDT|
 107  12570628-48HR| 231  12571287-UPDT| 355  12571891-ETKT| 479  12572848-UPDT|
 108  12570631-48HR| 232  12571290-UPDT| 356  12571799-48HR| 480  12572849-UPDT|
 109  12570632-48HR| 233  12571291-UPDT| 357  12571807-48HR| 481  12572862-48HR|
 110  12570633-48HR| 234  12571294-UPDT| 358  12571817-48HR| 482  12572882-ETKT|
 111  12570634-48HR| 235  12571295-UPDT| 359  12571822-48HR| 483  12572885-48HR|
 112  12570635-48HR| 236  12571296-UPDT| 360  12571827-48HR| 484  12572886-48HR|
 113  12570636-48HR| 237  12571297-UPDT| 361  12571925-FIOS| 485  12572887-48HR|
 114  12570638-48HR| 238  12571298-UPDT| 362  12571840-48HR| 486  12572888-48HR|
 115  12570639-48HR| 239  12571299-UPDT| 363  12571852-48HR| 487  12572890-48HR|
 116  12570640-48HR| 240  12571300-UPDT| 364  12571914-48HR| 488  12572892-48HR|
 117  12570641-48HR| 241  12571289-ETKT| 365  12571931-FIOS| 489  12572898-ETKT|
 118  12570642-48HR| 242  12571303-ETKT| 366  12571943-FIOS| 490  12572902-FIOS|
 119  12570643-48HR| 243  12571326-UPDT| 367  12572000-ETKT| 491  12572903-FIOS|
 120  12570644-UPDT| 244  12571327-UPDT| 368  12572018-ETKT| 492  12572904-FIOS|
 121  12570645-48HR| 245  12571329-UPDT| 369  12572032-48HR| 493  12572905-FIOS|
 122  12570646-48HR| 246  12571332-UPDT| 370  12572041-48HR| 494  12572906-FIOS|
 123  12570650-UPDT| 247  12571333-UPDT| 371  12572048-48HR| 495  12572914-FIOS|
 124  12570651-UPDT| 248  12571335-UPDT| 372  12572081-48HR| 496  12572915-FIOS|

* indicates ticket # is repeated

Total Tickets: 496

ETKT - EMERGENCY                      |   35

UPDT - UPDATE                         |  161

FIOS - FIOS                           |   46

48HR - STANDARD                       |  245

CANC - CANCELLATION                   |    8

REMK - REMARK                         |    1


Please call (410) 712-0056 if this data does
not match the tickets you received on 10/24/12


GOOD MORNING - Miss Utility Subscribers of Maryland, DC and Delmarva
Revised on: October 24, 2012 
***********************************************************************
IMPORTANT MESSAGES:

**Ticket Check upgrade for FTP and Web users - As of 2/10/11, we are happy to
report that all owner-members/locators who status tickets via FTP or
through www.managetickets.com can now post comments for all Maryland 
Ticket Check status codes. This enhancement will give locators the
ability to enter a message of up to 200 characters within the comments
box.

If you FTP your status to Ticket Check and need the file format that
includes the Status Comment field, please contact support@managetickets.com
for the updated file format requirements.

Excavators and homeowners will receive the comments on their Ticket Check
fax backs or email confirmations and they will be able to view them on 
Search and Status. 

***********************************************************************
	    MISS UTILITY 2012 HOLIDAY SCHEDULE

New Years Day Obs...January 2
Martin Luther King Jr...January 16
Lincoln's Birthday Obs (MD only)...February 13
President's Day...February 20
Maryland Day Obs (MD only)...March 26
Good Friday (MD & DE only)...April 6
Emancipation Day (DC only)...April 16
Memorial Day... May 28
Independence Day...July 4
Labor Day...September 3
Defender's Day (MD only)...September 12
Columbus Day...October 8
Election Day (MD & DE only)...November 6
Veteran's Day Obs...November 12
Thanksgiving Day...November 22
Day After Thanksgiving (MD and DE only)...November 23
Christmas Eve (DE only)...December 24
Christmas Day...December 25
New Years Eve (DE only)...December 31

The Call center will not include the above holidays when calculating the
start date of tickets respective of State holidays.

As a benefit to all members, your district code will be statused as closed
for the following holidays; New Years Day, Memorial Day, Independence Day,
Labor Day, Thanksgiving Day, the day after Thanksgiving and Christmas Day.

**************************************************************************
			Contact Information

Changes to district code databases should be forwarded to our Member 
Database Administrator, Shannon Stultz at shannonstultz@missutility.net. 
Changes may also be faxed to Miss Utility at 410-712-0062. These changes
include but are not limited to; underground plant notification area, 
contact/address revisions, office open and/or close times and ticket 
receiver modifications.

Regarding temporary office open/close district code changes, we will 
acknowledge your notice within 2 hours of receipt. If you do NOT receive 
our confirmation, please call our Help Desk immediately at 410-712-0056 or
email us at helpdesk@missutility.net. To ensure we are modifying the 
appropriate district codes, a list of all affected codes must be provided 
with the open/close change notice. Additionally, Miss Utility will contact
you when we have completed the district code programming as this affects 
Emergency ticket notification - programming can take up to one hour 
depending on the amount of affected district codes.

Daily Tickets/Audits: If you need a copy of your daily ticket audit or
ticket retransmits contact the retransmit line by calling 410-712-0056.
If you are experiencing problems receiving tickets, call the Help Desk at 
410-712-0056. Please be sure to have your district codes(s) available.

***********************************************************************
                            UPCOMING MEETINGS

The Maryland/DC Damage Prevention Meeting is held the fourth Tuesday of each
month (excluding December) at Miss Utility Center, 7223 Parkway Drive, Suite
100, Hanover, MD. Refreshments at 9am; Meeting at 9:30.

The Maryland/DC Subscribers Meeting time will be held December 12, 2012 at 
the Miss Utility Center, 7223 Parkway Dr, Hanover, MD, from 9:30am to 
12:00pm followed by a holiday luncheon. For questions, contact Dora Parks 
at 410-782-2026.

The Delmarva Membership Meeting is held the third Thursday of each month;
8:45am Coffee, 9:00am Presentations, 9:15am-10am Concerns, 10am-11am
Business Meeting, 11am-Noon Board Meeting. For more information, please
visit www.missutilitydelmarva.com. Meeting Minutes are available via
www.missutlitydelmarva.com/documents.asp.

Have a pleasant day.


