
<?xml version="1.0"?>
<NewDataSet>
  <delivery>
    <center>VUPSa</center>
    <recipient>UTIL13</recipient>
    <transmission_type>TKT</transmission_type>
    <transmitted>2010-09-01T13:34:07</transmitted>
    <seq_num>278</seq_num>
    <ticket>A024401027</ticket>
    <revision>00A</revision>
  </delivery>

  <tickets>
    <ticket>A024401027</ticket>
    <revision>00A</revision>
    <started>2010-09-01T13:23:08</started>
    <account>1RET</account>
    <original_ticket>A024401027</original_ticket>
    <original_date>2010-09-01T13:23:08</original_date>
    <original_account>1RET</original_account>
    <priority>NORM</priority>
    <type>NEW</type>
    <lookup>GRID</lookup>
    <category>LREQ</category>
    <meet>Y</meet>
    <derived_type>MEETING</derived_type>
    <response_required>Y</response_required>
    <response_due>2010-09-07T07:00:00</response_due>
    <meet_date>2010-09-02T14:00:00</meet_date>
    <state>VA</state>
    <county>FREDERICK</county>
    <place>ARMEL</place>
    <street>FRONT ROYAL PIKE</street>
    <cross1>REARDON RD</cross1>
    <work_type>SIGN - INSTALL</work_type>
    <done_for>PERRY ENGINEERING INC</done_for>
    <white_paint>N</white_paint>
    <blasting>N</blasting>
    <boring>N</boring>
    <name>COMMERCIAL PROJECT MANAGEMENT</name>
    <address1>150 TALESPIN CIR</address1>
    <city>WINCHESTER</city>
    <cstate>VA</cstate>
    <zip>22602</zip>
    <caller_type>CONT</caller_type>
    <first_time_caller>N</first_time_caller>
    <phone>5406621903</phone>
    <caller>BRUCE WILSON</caller>
    <caller_phone>5406621903</caller_phone>
    <email>bruce.wilson@cpm-wilsons.com</email>
    <map_reference>27G8</map_reference>
    <centroid>
      <coordinate>
        <latitude>39.082659</latitude>
        <longitude>-78.150100</longitude>
      </coordinate>
    </centroid>
    <best_fit_rect>
      <coordinate>
        <latitude>39.087696</latitude>
        <longitude>-78.159239</longitude>
      </coordinate>
      <coordinate>
        <latitude>39.093082</latitude>
        <longitude>-78.150601</longitude>
      </coordinate>
      <coordinate>
        <latitude>39.077621</latitude>
        <longitude>-78.140961</longitude>
      </coordinate>
      <coordinate>
        <latitude>39.072236</latitude>
        <longitude>-78.149599</longitude>
      </coordinate>
    </best_fit_rect>
    <location xml:space="preserve" >PROPOSED EXCAVATION AREA: 52 SIGNS ALONG FRONT ROYAL PIKE, MARANTO MANOR DR,
TASKER RD, AND RAINVILLE RD ON BOTH SIDES OF ALL FOUR STREETS</location>
    <remarks xml:space="preserve" >CALLER MAP REF: 27H9
MEETING LOCATION: AT THE INTERSECTION OF FRONT ROYAL PIKE AND TASKER RD.
EXCAVATOR WILL BE DRIVING A 2005 BURGANDY CHEVY PICKUP</remarks>
    <polygon>
      <coordinate>
        <latitude>39.091648</latitude>
        <longitude>-78.152901</longitude>
      </coordinate>
      <coordinate>
        <latitude>39.091473</latitude>
        <longitude>-78.149597</longitude>
      </coordinate>
      <coordinate>
        <latitude>39.087490</latitude>
        <longitude>-78.148476</longitude>
      </coordinate>
      <coordinate>
        <latitude>39.084702</latitude>
        <longitude>-78.147087</longitude>
      </coordinate>
      <coordinate>
        <latitude>39.080498</latitude>
        <longitude>-78.143730</longitude>
      </coordinate>
      <coordinate>
        <latitude>39.079037</latitude>
        <longitude>-78.142075</longitude>
      </coordinate>
      <coordinate>
        <latitude>39.077621</latitude>
        <longitude>-78.140961</longitude>
      </coordinate>
      <coordinate>
        <latitude>39.076694</latitude>
        <longitude>-78.143837</longitude>
      </coordinate>
      <coordinate>
        <latitude>39.080986</latitude>
        <longitude>-78.146713</longitude>
      </coordinate>
      <coordinate>
        <latitude>39.081341</latitude>
        <longitude>-78.150658</longitude>
      </coordinate>
      <coordinate>
        <latitude>39.083328</latitude>
        <longitude>-78.150558</longitude>
      </coordinate>
      <coordinate>
        <latitude>39.082710</latitude>
        <longitude>-78.148262</longitude>
      </coordinate>
      <coordinate>
        <latitude>39.084835</latitude>
        <longitude>-78.149864</longitude>
      </coordinate>
      <coordinate>
        <latitude>39.085056</latitude>
        <longitude>-78.152100</longitude>
      </coordinate>
      <coordinate>
        <latitude>39.082710</latitude>
        <longitude>-78.153381</longitude>
      </coordinate>
      <coordinate>
        <latitude>39.082401</latitude>
        <longitude>-78.155937</longitude>
      </coordinate>
      <coordinate>
        <latitude>39.085983</latitude>
        <longitude>-78.153648</longitude>
      </coordinate>
      <coordinate>
        <latitude>39.088329</latitude>
        <longitude>-78.157326</longitude>
      </coordinate>
      <coordinate>
        <latitude>39.089390</latitude>
        <longitude>-78.156204</longitude>
      </coordinate>
      <coordinate>
        <latitude>39.086693</latitude>
        <longitude>-78.152206</longitude>
      </coordinate>
      <coordinate>
        <latitude>39.085941</latitude>
        <longitude>-78.150452</longitude>
      </coordinate>
    </polygon>
    <gridlist>
      <grid>3904A7808A</grid>
      <grid>3904A7808B</grid>
      <grid>3904A7809C</grid>
      <grid>3904A7809D</grid>
      <grid>3904B7808B</grid>
      <grid>3904B7808C</grid>
      <grid>3905C7808A</grid>
      <grid>3905C7809C</grid>
      <grid>3905C7809D</grid>
      <grid>3905D7808A</grid>
      <grid>3905D7809C</grid>
      <grid>3905D7809D</grid>
    </gridlist>
    <memberlist>
      <memberitem>
        <member>CMC209</member>
        <group_code>CMC</group_code>
        <description>COMCAST</description>
      </memberitem>
      <memberitem>
        <member>CMC441</member>
        <group_code>CMC</group_code>
        <description>COMCAST</description>
      </memberitem>
      <memberitem>
        <member>FRS901</member>
        <group_code>FRS</group_code>
        <description>FREDERICK COUNTY SANITATION AU</description>
      </memberitem>
      <memberitem>
        <member>REC311</member>
        <group_code>REC</group_code>
        <description>RAPPAHANNOCK ELECTRIC COOPERAT</description>
      </memberitem>
      <memberitem>
        <member>SHG909</member>
        <group_code>SHG</group_code>
        <description>SHENANDOAH DIVISION WASHINGTON</description>
      </memberitem>
      <memberitem>
        <member>VZN212</member>
        <group_code>VZN</group_code>
        <description>VERIZON</description>
      </memberitem>
    </memberlist>
  </tickets>
</NewDataSet>
