
------=_Part_52094_27093122.1452635379886
Content-Type: text/plain; charset=ISO-8859-1
Content-Transfer-Encoding: 7bit

ATT331* 00366 NCOCc 01/12/16 16:47:30 C160121965-01C NORM CNCL GRID LR

North Carolina 811

CANCELLATION NOTICE

Ticket : C160121965 Date: 01/12/16 Time: 16:46 Oper: BIJ Chan:999
Old Tkt:    Date: 01/12/16 Time: 16:47 Oper:   Rev :01C

State: NC Cnty: MECKLENBURG Place: CHARLOTTE In/Out: B
Subdivision:

Address :
Street  : MERTON WOOD LN   Intersection: N
Cross 1 : FRESHWELL RD
Location: LOCATE BY 11:59 PM ON 01/15/2016


LOCATE BOTH SIDES OF AND IN MERTON WOOD LN TO INCLUDE BOTH SIDES OF AND IN THE
ROAD AND DRIVEWAYS FROM THE INTERSECTION OF FRESHWELL RD TO ADDRESS 13601 MERTON
WOODS LN FOR ROAD AND DRIVEWAY BORES

TOTAL DISTANCE IS ABOUT 400 FT
:
Grids   : 3505A8058C   3505A8058D   3506D8058C   3506D8058D

Work type:INSTALL FIBER / LIGHT DIGGING
Work date:01/16/16  Time: 00:00  Hours notice: 72/72  Priority: NORM
Ug/Oh/Both: U  Blasting: N  Boring: Y  Railroad: N     Emergency: N
Duration: 2 DAYS  Done for: ATT/ ANSCO

Company : BECLOP SERVICES LLC  Type: CONT
Co addr : 403 W JEFFERSON ST
City    : MONROE State: NC Zip: 28112
Caller  : OSCAR LOPEZ Phone: 704-441-0442
Contact : SAME Phone:
BestTime:
Email   : osmarlo4@gmail.com

Remarks : REASON FOR CANCEL: STREET IS INCORRECT
PLEASE REFER TO TICKET C160121997
01/12/2016 04:46:42 PM CANCELLED BY BIJ
:
Submitted date: 01/12/16 Time: 16:47
Members: ATT331*       CHA01  CHA02* CLS01  CSR02  DPC1L* OCL01  PNG02* TWC02*


------=_Part_52094_27093122.1452635379886--