

    *SUM*   SENTRi  Wednesday, August 31, 2010
    
    ***********************************************************************
    * THIS IS THE AGL SENTRi CENTER SIGNING OFF. YOUR END OF DAY          *
    * SUMMARY WILL FOLLOW. PLEASE NOTIFY THE CENTER OF ANY DISCREPANCIES  *
    ***********************************************************************
    
    00001  08250-300-363-0        00002  08260-301-575-0    
    00003  08310-301-924-0  00:02      00004  08310-301-925-0  00:02  
    00005  08260-221-026-1  03:48  L    00006  08260-235-008-1  03:48  L
    00007  08260-241-002-1  03:48  L    00008  08260-241-010-1  03:48  L
    00009  08260-241-011-1  03:48  L    00010  08260-244-004-1  03:48  L
    00011  08260-244-039-1  03:48  L    00012  08260-270-007-1  03:48  L
    00013  08260-300-024-1  03:48  L    00014  08260-300-024-1  03:48  L
    00015  08260-300-024-1  03:48  L    00016  08260-300-105-1  03:48  L
    00017  08260-300-105-1  03:48  L    00018  08260-300-179-1  03:48  L
    00019  08260-300-325-1  03:48  L    00020  08260-300-330-1  03:48  L
    00021  08260-300-345-1  03:48  L    00022  08260-300-367-1  03:48  L
    00023  08260-300-371-1  03:48  L    00024  08260-300-596-1  03:48  L
    00025  08260-300-830-1  03:48  L    00026  08260-301-170-1  03:48  L
    00027  08260-301-223-1  03:48  L    00028  08260-301-243-1  03:48  L
    00029  08260-301-269-1  03:48  L    00030  08260-301-289-1  03:48  L
    00031  08260-301-396-1  03:48  L    00032  08260-301-532-1  03:48  L
    00033  08260-301-578-1  03:48  L    00034  08260-301-579-1  03:48  L
    00035  08230-400-031-1  06:22      00036  08230-400-041-1  06:22  
    00037  08310-400-001-0  06:22      00038  08310-246-002-0  06:38  
    00039  08310-400-008-0  07:07      00040  08310-400-008-0  07:07  
    00041  08310-400-017-0  07:07      00042  08310-400-017-0  07:07  
    00043  08310-400-024-0  07:07  Y    00044  08310-400-024-0  07:07  Y
    00045  08310-400-026-0  07:07  Y    00046  08310-400-026-0  07:07  Y
    00047  08310-400-029-0  07:07  Y    00048  08310-400-034-0  07:07  Y
    00049  08310-243-001-0  07:09  Y    00050  08310-243-002-0  07:09  Y
    00051  08310-243-003-0  07:11  Y    00052  08310-243-004-0  07:13  Y
    00053  08310-243-005-0  07:13  Y    00054  08310-300-016-0  07:13  
    00055  08310-265-001-0  07:17      00056  08310-252-001-0  07:21  
    00057  08310-300-020-0  07:21      00058  08310-300-021-0  07:21  
    00059  08310-237-001-0  07:25      00060  08310-241-001-0  07:25  
    00061  08310-246-003-0  07:25      00062  08310-247-001-0  07:25  
    00063  08310-300-025-0  07:29      00064  08310-241-002-0  07:33  Y
    00065  08310-252-002-0  07:33      00066  08310-257-003-0  07:33  
    00067  08310-265-002-0  07:33      00068  08310-231-003-0  07:37  
    00069  08310-234-001-0  07:37      00070  08310-241-003-0  07:37  
    00071  08310-246-004-0  07:37      00072  08310-247-002-0  07:37  
    00073  08310-252-003-0  07:37       00074  08310-300-027-0  07:37  
    00075  08310-300-028-0  07:37      00076  08310-246-005-0  07:41  
    00077  08310-247-003-0  07:41      00078  08310-252-004-0  07:41  
    00079  08310-300-029-0  07:41  Y    00080  08310-300-030-0  07:41  Y
    00081  08240-300-046-1  07:46  Y    00082  08240-300-047-1  07:46  Y
    00083  08310-246-006-0  07:46      00084  08310-247-004-0  07:46  
    00085  08310-265-005-0  07:46      00086  08310-300-032-0  07:46  Y
    00087  08310-300-033-0  07:46  Y    00088  08310-300-034-0  07:46  Y
    00089  08310-300-035-0  07:46  Y    00090  08310-300-036-0  07:46   
    00091  08310-300-037-0  07:46  Y    00092  08310-300-039-0  07:46  Y
    00093  08310-300-040-0  07:48  Y    00094  08310-300-041-0  07:48   
    00095  08310-300-042-0  07:48  Y    00096  08240-300-049-1  07:50  Y
    00097  08240-300-050-1  07:50  Y    00098  08310-246-007-0  07:50  
    00099  08310-252-005-0  07:50      00100  08310-257-004-0  07:50   
    00101  08310-300-043-0  07:50      00102  08310-300-044-0  07:50  
    00103  08310-300-045-0  07:50  Y    00104  08240-300-051-1  07:54  Y
    00105  08310-234-004-0  07:54  Y    00106  08310-244-015-0  07:54   
    00107  08310-265-006-0  07:54      00108  08310-265-007-0  07:54  
    00109  08310-300-047-0  07:54      00110  08310-300-049-0  07:54  
    00111  08310-231-004-0  07:58       00112  08310-231-005-0  07:58   
    00113  08310-234-005-0  07:58  Y    00114  08310-246-009-0  07:58  
    00115  08310-257-004-1  07:58  C    00116  08310-257-005-0  07:58   
    00117  08310-265-008-0  07:58       00118  08310-300-053-0  07:58  
    00119  08310-300-058-0  07:58  Y    00120  08310-234-006-0  08:02  
    00121  08310-244-016-0  08:02      00122  08310-246-010-0  08:02  
    00123  08310-300-060-0  08:02  Y    00124  08310-231-006-0  08:06  
    00125  08310-241-015-0  08:06  Y    00126  08310-244-017-0  08:06   
    00127  08310-247-007-0  08:06      00128  08310-252-007-0  08:06  
    00129  08310-257-006-0  08:06      00130  08310-300-063-0  08:06  Y
    00131  08310-300-065-0  08:06      00132  08310-300-069-0  08:06  Y
    00133  08310-211-001-0  08:10  Y    00134  08310-237-005-0  08:10  
    00135  08310-243-008-0  08:10      00136  08310-252-008-0  08:10   
    00137  08310-300-072-0  08:10      00138  08310-300-073-0  08:10  
    00139  08310-300-075-0  08:10  Y    00140  08310-242-001-0  08:14  
    00141  08310-248-001-0  08:14       00142  08310-248-002-0  08:14  Y
    00143  08310-274-001-0  08:14  Y    00144  08310-300-076-0  08:14  
    00145  08310-300-080-0  08:14  Y    00146  08310-300-082-0  08:14  Y
    00147  08310-300-083-0  08:14  Y    00148  08310-300-084-0  08:14  
    00149  08310-300-085-0  08:14  Y    00150  08310-212-001-0  08:19  
    00151  08310-221-001-0  08:19      00152  08310-236-001-0  08:19  
    00153  08310-244-021-0  08:19  Y    00154  08310-270-001-0  08:19  
    00155  08310-270-002-0  08:19       00156  08310-300-086-0  08:19  
    00157  08310-300-087-0  08:19  Y    00158  08310-300-088-0  08:19  Y
    00159  08310-300-089-0  08:19      00160  08310-300-090-0  08:19  Y
    00161  08310-300-092-0  08:19  Y    00162  08310-300-093-0  08:19  Y
    00163  08310-300-094-0  08:19  Y    00164  08310-300-095-0  08:19  
    00165  08310-252-009-0  08:21      00166  08310-300-097-0  08:21  Y
    00167  08310-300-097-0  08:21  Y    00168  08310-210-002-0  08:23  
    00169  08310-221-002-0  08:23      00170  08310-222-001-0  08:23  
    00171  08310-231-007-0  08:23      00172  08310-245-002-0  08:23  
    00173  08310-252-010-0  08:23      00174  08310-257-007-0  08:23  
    00175  08310-260-001-0  08:23      00176  08310-300-102-0  08:23  
    00177  08310-300-103-0  08:25      00178  08310-300-105-0  08:25  
    00179  08250-239-053-1  08:27  Y    00180  08310-240-001-0  08:27  
    00181  08310-252-011-0  08:27      00182  08310-270-003-0  08:27  
    00183  08310-300-106-0  08:27      00184  08310-300-110-0  08:27  
    00185  08310-300-111-0  08:27      00186  08310-300-112-0  08:27  
    00187  08310-300-112-0  08:27      00188  08310-252-012-0  08:29  
    00189  08310-300-115-0  08:29      00190  08310-240-002-0  08:31  
    00191  08310-244-023-0  08:31  Y    00192  08310-253-002-0  08:31  
    00193  08310-274-002-0  08:31       00194  08310-274-002-0  08:31   
    00195  08310-300-117-0  08:31      00196  08310-300-119-0  08:31  
    00197  08310-300-120-0  08:31      00198  08310-222-002-0  08:33  
    00199  08310-240-003-0  08:33      00200  08310-244-024-0  08:33  Y
    00201  08310-300-123-0  08:33  Y    00202  08310-210-003-0  08:35  
    00203  08310-244-025-0  08:35  Y    00204  08310-267-002-0  08:35  
    00205  08310-300-125-0  08:35  Y    00206  08310-300-126-0  08:35  Y
    00207  08310-240-004-0  08:37      00208  08310-265-011-0  08:37  
    00209  08310-300-131-0  08:37  Y    00210  08310-300-133-0  08:37  Y
    00211  08310-300-134-0  08:37      00212  08310-300-136-0  08:37  Y
    00213  08310-244-026-0  08:39       00214  08310-260-002-0  08:39  
    00215  08310-300-137-0  08:39  Y    00216  08310-300-138-0  08:39  Y
    00217  08310-300-139-0  08:39  Y    00218  08310-300-140-0  08:39  Y
    00219  08310-300-141-0  08:39  Y    00220  08310-300-142-0  08:39  Y
    00221  08310-300-143-0  08:39      00222  08310-300-145-0  08:39  Y
    00223  08310-300-146-0  08:39  Y    00224  08310-300-147-0  08:39  Y
    00225  08310-300-148-0  08:39  Y    00226  08310-221-004-0  08:41  
    00227  08310-300-149-0  08:41       00228  08310-300-151-0  08:41  Y
    00229  08310-300-152-0  08:41  Y    00230  08310-300-153-0  08:41  Y
    00231  08310-300-155-0  08:41      00232  08310-211-003-0  08:43  
    00233  08310-212-002-0  08:43      00234  08310-213-003-0  08:43  
    00235  08310-216-009-0  08:43  Y    00236  08310-221-005-0  08:43  
    00237  08310-234-010-0  08:43      00238  08310-248-006-0  08:43  
    00239  08310-252-013-0  08:43  Y    00240  08310-267-003-0  08:43  
    00241  08310-300-157-0  08:43  Y    00242  08310-300-158-0  08:43  Y
    00243  08310-300-163-0  08:43  Y    00244  08310-300-164-0  08:43  
    00245  08310-300-165-0  08:43  Y    00246  08310-300-166-0  08:43  
    00247  08310-300-167-0  08:43      00248  08310-210-004-0  08:45  
    00249  08310-215-003-0  08:45      00250  08310-252-014-0  08:45  Y
    00251  08310-211-004-0  08:46       00252  08310-245-004-0  08:46  
    00253  08310-265-012-0  08:46  Y    00254  08310-267-004-0  08:46  
    00255  08310-267-005-0  08:46      00256  08310-300-171-0  08:46  
    00257  08310-300-171-0  08:46      00258  08310-300-172-0  08:46  Y
    00259  08310-300-173-0  08:46  Y    00260  08310-265-013-0  08:48  Y
    00261  08310-300-175-0  08:48       00262  08310-220-002-0  08:50  
    00263  08310-241-019-0  08:50      00264  08310-242-004-0  08:50  
    00265  08310-244-027-0  08:50      00266  08310-257-009-0  08:50  
    00267  08310-300-178-0  08:50      00268  08310-300-179-0  08:50  Y
    00269  08310-300-180-0  08:50      00270  08310-300-181-0  08:50  Y
    00271  08310-300-183-0  08:50       00272  08310-300-184-0  08:50  Y
    00273  08310-236-003-0  08:54       00274  08310-248-007-0  08:54  
    00275  08310-274-004-0  08:54      00276  08310-300-185-0  08:54  
    00277  08310-300-186-0  08:54  Y    00278  08310-300-187-0  08:54  Y
    00279  08310-300-188-0  08:54  Y    00280  08310-300-189-0  08:56  Y
    00281  08310-300-190-0  08:56  Y    00282  08310-300-191-0  08:56  Y
    00283  08310-300-192-0  08:56  Y    00284  08310-300-193-0  08:56  
    00285  08310-300-196-0  08:56      00286  08310-300-199-0  08:56  Y
    00287  08310-300-200-0  08:56  Y    00288  08310-241-020-0  08:58   
    00289  08310-244-028-0  08:58      00290  08310-247-010-0  08:58  
    00291  08310-265-014-0  08:58      00292  08310-270-006-0  08:58  
    00293  08310-300-202-0  08:58       00294  08310-300-203-0  08:58  
    00295  08310-300-204-0  08:58       00296  08310-300-205-0  08:58  Y
    00297  08310-300-207-0  08:58  Y    00298  08310-300-208-0  08:58  Y
    00299  08310-300-211-0  08:58  Y    00300  08310-300-213-0  08:58  Y
    00301  08310-300-214-0  08:58      00302  08310-300-215-0  08:58  Y
    00303  08310-220-003-0  09:00      00304  08310-222-003-0  09:00  
    00305  08310-245-006-0  09:00      00306  08310-248-008-0  09:00  
    00307  08310-252-016-0  09:00  Y    00308  08310-265-015-0  09:00  Y
    00309  08310-300-218-0  09:00  Y    00310  08310-300-219-0  09:00  
    00311  08310-300-220-0  09:00  Y    00312  08310-300-222-0  09:00  Y
    00313  08310-300-223-0  09:00      00314  08310-300-224-0  09:00  
    00315  08310-300-225-0  09:00  Y    00316  08310-234-012-0  09:02  
    00317  08310-257-010-0  09:02  Y    00318  08310-265-016-0  09:02   
    00319  08310-266-004-0  09:02      00320  08310-274-005-0  09:02  
    00321  08310-300-228-0  09:02  Y    00322  08310-300-229-0  09:02  
    00323  08310-300-230-0  09:02      00324  08310-300-232-0  09:02  
    00325  08310-300-233-0  09:02  Y    00326  08310-300-234-0  09:02  
    00327  08310-231-010-0  09:04      00328  08310-236-004-0  09:04  
    00329  08310-300-235-0  09:04      00330  08310-300-236-0  09:04  Y
    00331  08310-216-012-0  09:06      00332  08310-242-006-0  09:06  
    00333  08310-244-029-0  09:06      00334  08310-252-017-0  09:06   
    00335  08310-252-018-0  09:06  Y    00336  08310-267-006-0  09:06  
    00337  08310-300-238-0  09:06      00338  08310-300-239-0  09:06  Y
    00339  08310-300-240-0  09:06      00340  08310-300-243-0  09:06  Y
    00341  08310-300-245-0  09:06      00342  08310-300-246-0  09:06  
    00343  08310-300-247-0  09:06      00344  08260-301-334-3  09:10  C
    00345  08310-239-001-0  09:10      00346  08310-242-007-0  09:10   
    00347  08310-247-011-0  09:10      00348  08310-252-020-0  09:10  Y
    00349  08310-270-007-0  09:10      00350  08310-274-006-0  09:10  
    00351  08310-300-252-0  09:10      00352  08310-300-256-0  09:10  
    00353  08310-239-002-0  09:14       00354  08310-242-006-1  09:14  C
    00355  08310-300-257-0  09:14      00356  08310-300-259-0  09:14  
    00357  08310-245-013-0  09:15      00358  08310-248-011-0  09:15   
    00359  08310-259-001-0  09:15       00360  08310-300-261-0  09:15  
    00361  08310-300-262-0  09:15      00362  08310-300-264-0  09:15  
    00363  08310-222-004-0  09:19      00364  08310-232-001-0  09:19   
    00365  08310-236-005-0  09:19      00366  08310-240-008-0  09:19  
    00367  08310-243-013-0  09:19      00368  08310-244-030-0  09:19  
    00369  08310-253-008-0  09:19      00370  08310-300-267-0  09:19  
    00371  08310-300-268-0  09:19      00372  08310-300-269-0  09:19  Y
    00373  08310-300-270-0  09:19  Y    00374  08310-300-270-0  09:19  Y
    00375  08310-300-271-0  09:19      00376  08310-300-274-0  09:19  
    00377  08310-300-275-0  09:19  Y    00378  08310-300-276-0  09:19  Y
    00379  08310-245-014-0  09:21  Y    00380  08310-269-002-0  09:21   
    00381  08310-300-277-0  09:21      00382  08310-300-279-0  09:21   
    00383  08310-300-280-0  09:21      00384  08310-300-281-0  09:21  Y
    00385  08310-235-001-0  09:23      00386  08310-253-009-0  09:23  
    00387  08310-257-011-0  09:23      00388  08310-259-002-0  09:23  
    00389  08310-266-005-0  09:23      00390  08310-270-008-0  09:23  
    00391  08310-300-283-0  09:23      00392  08310-300-285-0  09:23  Y
    00393  08310-300-286-0  09:23      00394  08310-300-289-0  09:23  
    00395  08310-300-291-0  09:23  Y    00396  08310-300-292-0  09:23  
    00397  08310-300-293-0  09:23  Y    00398  08310-300-293-0  09:23  Y
    00399  08310-300-294-0  09:23      00400  08310-220-006-0  09:25  
    00401  08310-248-012-0  09:25      00402  08310-252-022-0  09:25  Y
    00403  08310-252-023-0  09:25  Y    00404  08310-253-010-0  09:25   
    00405  08310-300-295-0  09:25  Y    00406  08310-300-296-0  09:25  
    00407  08310-300-298-0  09:25  Y    00408  08310-300-299-0  09:25  Y
    00409  08310-300-300-0  09:25      00410  08310-300-302-0  09:25  
    00411  08310-221-009-0  09:27       00412  08310-237-009-0  09:27  
    00413  08310-242-008-0  09:27      00414  08310-252-024-0  09:27  Y
    00415  08310-253-011-0  09:27      00416  08310-300-304-0  09:27  Y
    00417  08310-300-304-0  09:27  Y    00418  08310-300-305-0  09:27  Y
    00419  08310-300-306-0  09:27      00420  08310-300-308-0  09:27  
    00421  08310-300-309-0  09:27      00422  08310-300-312-0  09:27  
    00423  08310-300-313-0  09:27  Y    00424  08310-300-314-0  09:27  
    00425  08310-300-315-0  09:27      00426  08310-300-316-0  09:27  Y
    00427  08310-221-010-0  09:29       00428  08310-238-001-0  09:29  
    00429  08310-240-009-0  09:29      00430  08310-300-317-0  09:29  
    00431  08310-300-319-0  09:29      00432  08310-300-321-0  09:29  
    00433  08310-300-322-0  09:29      00434  08310-235-002-0  09:31  
    00435  08310-237-010-0  09:31      00436  08310-239-004-0  09:31  
    00437  08310-245-015-0  09:31      00438  08310-300-325-0  09:31   
    00439  08310-300-326-0  09:31      00440  08310-300-330-0  09:31  
    00441  08310-300-331-0  09:31      00442  08310-300-333-0  09:31  
    00443  08310-300-336-0  09:31      00444  08310-300-340-0  09:31  
    00445  08310-236-006-0  09:33      00446  08310-236-006-0  09:33  
    00447  08310-300-343-0  09:33      00448  08310-300-344-0  09:33  
    00449  08310-300-346-0  09:33      00450  08310-300-348-0  09:33  
    00451  08260-250-016-1  09:35  Y    00452  08310-220-007-0  09:35  
    00453  08310-236-007-0  09:35       00454  08310-236-007-0  09:35   
    00455  08310-241-022-0  09:35       00456  08310-248-007-1  09:35  C
    00457  08310-300-353-0  09:35      00458  08310-300-354-0  09:35  
    00459  08310-300-356-0  09:35      00460  08310-231-012-0  09:37  
    00461  08310-239-005-0  09:37  Y    00462  08310-300-359-0  09:37   
    00463  08310-300-360-0  09:37      00464  08310-300-362-0  09:37  
    00465  08310-300-365-0  09:37      00466  08310-300-372-0  09:37  
    00467  08310-221-011-0  09:40       00468  08310-235-003-0  09:40   
    00469  08310-242-009-0  09:40  Y    00470  08310-260-004-0  09:40  
    00471  08310-269-003-0  09:40      00472  08310-300-374-0  09:40  
    00473  08310-300-376-0  09:40      00474  08310-300-378-0  09:40  
    00475  08310-300-379-0  09:40      00476  08310-300-380-0  09:40  
    00477  08260-264-023-2  09:42  Y    00478  08310-214-004-0  09:42  
    00479  08310-235-004-0  09:42       00480  08310-248-013-0  09:42   
    00481  08310-254-002-0  09:42      00482  08310-269-004-0  09:42   
    00483  08310-274-009-0  09:42      00484  08310-300-382-0  09:42  
    00485  08310-300-385-0  09:42      00486  08310-300-387-0  09:42  
    00487  08310-300-389-0  09:42      00488  08310-238-002-0  09:44   
    00489  08310-248-014-0  09:44       00490  08310-252-012-1  09:44  C
    00491  08310-274-006-1  09:44  C    00492  08310-300-392-0  09:44  Y
    00493  08310-300-393-0  09:44      00494  08310-300-394-0  09:44  
    00495  08310-300-396-0  09:44      00496  08310-300-397-0  09:44  
    00497  08310-300-398-0  09:44      00498  08310-222-005-0  09:46   
    00499  08310-231-013-0  09:46       00500  08310-240-010-0  09:46  
    00501  08310-241-023-0  09:46       00502  08310-251-002-0  09:46   
    00503  08310-300-403-0  09:46  Y    00504  08310-300-404-0  09:46  
    00505  08310-300-405-0  09:46      00506  08310-300-408-0  09:46  
    00507  08310-300-410-0  09:46      00508  08310-300-411-0  09:46  Y
    00509  08310-300-412-0  09:46      00510  08310-300-414-0  09:46  
    00511  08310-300-415-0  09:46      00512  08310-269-005-0  09:48  
    00513  08310-300-418-0  09:48      00514  08240-301-134-1  09:50  C
    00515  08310-216-017-0  09:50      00516  08310-252-025-0  09:50  
    00517  08310-300-426-0  09:50  Y    00518  08310-300-427-0  09:50  
    00519  08310-300-430-0  09:50      00520  08310-300-433-0  09:50  Y
    00521  08310-300-437-0  09:50  Y    00522  08310-300-442-0  09:50  Y
    00523  08310-300-443-0  09:50      00524  08310-300-445-0  09:50  
    00525  08310-216-018-0  09:52       00526  08310-232-002-0  09:52  
    00527  08310-300-446-0  09:52      00528  08310-300-452-0  09:52  
    00529  08310-300-453-0  09:52  Y    00530  08310-300-456-0  09:52  
    00531  08310-237-011-0  09:54      00532  08310-253-015-0  09:54  
    00533  08310-267-009-0  09:54      00534  08310-300-459-0  09:54  Y
    00535  08310-300-461-0  09:54  Y    00536  08310-300-464-0  09:54  Y
    00537  08310-300-465-0  09:54      00538  08310-300-467-0  09:54  
    00539  08310-300-469-0  09:54      00540  08310-300-470-0  09:54  
    00541  08310-300-472-0  09:54      00542  08310-235-005-0  09:56  
    00543  08310-236-008-0  09:56      00544  08310-270-011-0  09:56  Y
    00545  08310-300-474-0  09:56  Y    00546  08310-300-475-0  09:56  
    00547  08310-300-478-0  09:56  Y    00548  08310-300-479-0  09:56  Y
    00549  08310-300-480-0  09:56      00550  08310-300-481-0  09:56  Y
    00551  08300-247-053-1  09:58  C    00552  08310-231-014-0  09:58   
    00553  08310-237-012-0  09:58       00554  08310-241-025-0  09:58  
    00555  08310-253-016-0  09:58      00556  08310-300-483-0  09:58  
    00557  08310-300-489-0  09:58      00558  08310-300-494-0  09:58  
    00559  08310-214-005-0  10:00      00560  08310-244-032-0  10:00   
    00561  08310-254-003-0  10:00      00562  08310-259-004-0  10:00  
    00563  08310-300-495-0  10:00      00564  08310-300-503-0  10:00  
    00565  08310-300-506-0  10:00      00566  08310-236-009-0  10:02   
    00567  08310-247-016-0  10:02      00568  08310-251-004-0  10:02  
    00569  08310-269-010-0  10:02      00570  08310-300-508-0  10:02  
    00571  08310-300-510-0  10:02      00572  08310-300-510-0  10:02  
    00573  08310-300-511-0  10:02      00574  08310-300-512-0  10:02  Y
    00575  08310-240-011-0  10:05      00576  08310-248-017-0  10:05  
    00577  08310-260-005-0  10:05       00578  08310-300-519-0  10:05  
    00579  08310-300-523-0  10:05      00580  08310-300-526-0  10:05  
    00581  08310-300-530-0  10:05      00582  08310-221-015-0  10:07  
    00583  08310-237-013-0  10:07      00584  08310-242-012-0  10:07  
    00585  08310-248-018-0  10:07      00586  08310-257-014-0  10:07  
    00587  08310-269-011-0  10:07      00588  08310-270-012-0  10:07  
    00589  08310-300-533-0  10:07      00590  08310-300-538-0  10:07  
    00591  08310-300-538-0  10:07      00592  08310-300-539-0  10:07  
    00593  08310-300-540-0  10:07      00594  08310-300-541-0  10:07  
    00595  08310-300-542-0  10:07      00596  08310-300-543-0  10:07  
    00597  08310-300-545-0  10:07  Y    00598  08250-216-043-2  10:09  C
    00599  08250-216-043-2  10:09  C    00600  08310-232-003-0  10:09  
    00601  08310-253-017-0  10:09       00602  08310-300-547-0  10:09  
    00603  08310-300-548-0  10:09      00604  08310-300-550-0  10:09  
    00605  08310-300-551-0  10:09      00606  08310-220-009-0  10:11  
    00607  08310-237-014-0  10:11       00608  08310-238-004-0  10:11  Y
    00609  08310-238-005-0  10:11  Y    00610  08310-242-013-0  10:11  
    00611  08310-252-027-0  10:11      00612  08310-252-028-0  10:11  Y
    00613  08310-259-005-0  10:11      00614  08310-300-552-0  10:11  
    00615  08310-300-553-0  10:11      00616  08310-300-554-0  10:11  
    00617  08310-300-555-0  10:11  Y    00618  08310-300-556-0  10:11  
    00619  08310-300-557-0  10:11      00620  08310-300-559-0  10:11  Y
    00621  08310-300-560-0  10:11      00622  08310-300-561-0  10:11  Y
    00623  08310-300-562-0  10:11      00624  08310-300-563-0  10:11  
    00625  08310-300-564-0  10:11  Y    00626  08310-220-010-0  10:13  
    00627  08310-241-026-0  10:13      00628  08310-252-029-0  10:13  Y
    00629  08310-265-022-0  10:13      00630  08310-266-008-0  10:13  
    00631  08310-267-010-0  10:13      00632  08310-300-565-0  10:13  Y
    00633  08310-300-566-0  10:13      00634  08310-300-567-0  10:15  
    00635  08310-300-569-0  10:15      00636  08310-214-006-0  10:17   
    00637  08310-220-011-0  10:17      00638  08310-221-012-0  10:17  
    00639  08310-222-006-0  10:17      00640  08310-241-024-0  10:17  
    00641  08310-252-030-0  10:17  Y    00642  08310-252-031-0  10:17  Y
    00643  08310-266-007-0  10:17      00644  08310-270-010-0  10:17  
    00645  08310-300-420-0  10:17  Y    00646  08310-300-422-0  10:17  
    00647  08310-300-570-0  10:17      00648  08310-300-572-0  10:17  
    00649  08310-300-574-0  10:17      00650  08310-300-575-0  10:17  
    00651  08310-300-577-0  10:17      00652  08310-300-580-0  10:17  
    00653  08310-220-008-0  10:19      00654  08310-222-007-0  10:19   
    00655  08310-253-014-0  10:19      00656  08310-265-023-0  10:19   
    00657  08310-265-024-0  10:19       00658  08310-300-581-0  10:19  
    00659  08310-300-582-0  10:19      00660  08310-300-583-0  10:19  
    00661  08310-300-585-0  10:19      00662  08310-300-587-0  10:19  
    00663  08310-300-593-0  10:19      00664  08310-300-595-0  10:19  
    00665  08310-222-006-1  10:21  C    00666  08310-235-007-0  10:21  
    00667  08310-300-596-0  10:21      00668  08310-300-597-0  10:21  
    00669  08310-300-598-0  10:21      00670  08310-300-599-0  10:21  
    00671  08310-300-600-0  10:21      00672  08310-220-012-0  10:23   
    00673  08310-236-011-0  10:23      00674  08310-257-015-0  10:23  
    00675  08310-269-011-1  10:23  C    00676  08310-274-013-0  10:23  
    00677  08310-300-601-0  10:23      00678  08310-300-602-0  10:23  
    00679  08310-300-603-0  10:23      00680  08310-300-604-0  10:23  
    00681  08310-300-606-0  10:23      00682  08310-300-607-0  10:23  
    00683  08310-300-610-0  10:23      00684  08310-300-612-0  10:23  
    00685  08310-235-008-0  10:25      00686  08310-254-004-0  10:25  
    00687  08310-274-014-0  10:25       00688  08310-300-614-0  10:25  
    00689  08310-300-615-0  10:25      00690  08310-300-617-0  10:25  
    00691  08310-300-618-0  10:25      00692  08310-300-619-0  10:25  
    00693  08310-300-623-0  10:25      00694  08310-259-006-0  10:28  
    00695  08310-260-006-0  10:28      00696  08310-266-009-0  10:28  
    00697  08310-267-011-0  10:28       00698  08310-270-013-0  10:28  
    00699  08310-300-624-0  10:28      00700  08310-300-628-0  10:28  
    00701  08310-300-629-0  10:28      00702  08310-300-630-0  10:28  Y
    00703  08310-300-633-0  10:28      00704  08310-300-634-0  10:28  
    00705  08310-232-005-0  10:30      00706  08310-240-013-0  10:30  
    00707  08310-252-032-0  10:30       00708  08310-267-012-0  10:30  Y
    00709  08310-274-015-0  10:30      00710  08310-300-635-0  10:30  
    00711  08310-300-636-0  10:30  Y    00712  08310-300-637-0  10:30  
    00713  08310-300-638-0  10:30      00714  08310-300-640-0  10:30  Y
    00715  08310-300-641-0  10:30  Y    00716  08310-300-642-0  10:30  
    00717  08310-251-007-0  10:32      00718  08310-257-016-0  10:32  
    00719  08310-260-007-0  10:32      00720  08310-300-644-0  10:32  
    00721  08310-300-646-0  10:32  Y    00722  08310-300-648-0  10:32  
    00723  08310-300-650-0  10:32      00724  08310-300-651-0  10:32  
    00725  08310-221-018-0  10:34      00726  08310-234-020-0  10:34  
    00727  08310-235-009-0  10:34       00728  08310-247-020-0  10:34   
    00729  08310-260-008-0  10:34      00730  08310-270-014-0  10:34  
    00731  08310-300-652-0  10:34      00732  08310-300-652-0  10:34  
    00733  08310-300-653-0  10:34  Y    00734  08310-300-654-0  10:34  
    00735  08310-300-655-0  10:34      00736  08310-300-656-0  10:34  
    00737  08310-300-658-0  10:34      00738  08310-300-659-0  10:34  Y
    00739  08310-300-660-0  10:34      00740  08310-300-662-0  10:34  
    00741  08310-237-017-0  10:36      00742  08310-259-007-0  10:36  
    00743  08310-300-664-0  10:36      00744  08310-300-668-0  10:36  
    00745  08310-300-669-0  10:36      00746  08310-300-670-0  10:36  
    00747  08310-300-671-0  10:36      00748  08310-300-673-0  10:36  
    00749  08310-300-675-0  10:36      00750  08310-214-008-0  10:38  
    00751  08310-220-014-0  10:38      00752  08310-222-008-0  10:38   
    00753  08310-239-010-0  10:38      00754  08310-243-018-0  10:38  
    00755  08310-254-005-0  10:38      00756  08310-260-010-0  10:38  
    00757  08310-266-010-0  10:38  Y    00758  08310-267-013-0  10:38   
    00759  08310-269-016-0  10:38      00760  08310-300-677-0  10:38  
    00761  08310-300-679-0  10:38      00762  08310-300-680-0  10:38  
    00763  08310-300-681-0  10:38      00764  08310-300-685-0  10:38  
    00765  08310-300-688-0  10:38      00766  08310-300-689-0  10:38  
    00767  08310-253-019-0  10:40      00768  08310-300-690-0  10:40  
    00769  08310-300-691-0  10:40       00770  08310-222-009-0  10:42   
    00771  08310-234-021-0  10:42       00772  08310-241-029-0  10:42  
    00773  08310-247-021-0  10:42      00774  08310-265-025-0  10:42  
    00775  08310-269-017-0  10:42      00776  08310-300-694-0  10:42  Y
    00777  08310-300-695-0  10:42      00778  08310-300-696-0  10:42  
    00779  08310-300-698-0  10:42      00780  08310-300-700-0  10:42  
    00781  08310-300-701-0  10:42      00782  08310-300-703-0  10:42  
    00783  08310-300-705-0  10:42      00784  08260-300-452-1  10:44  Y
    00785  08310-251-008-0  10:44      00786  08310-300-706-0  10:44  
    00787  08310-300-707-0  10:44      00788  08310-300-708-0  10:44  
    00789  08310-300-710-0  10:44       00790  08310-300-711-0  10:44  
    00791  08310-266-011-0  10:46      00792  08310-266-012-0  10:46   
    00793  08310-269-018-0  10:46  Y    00794  08310-300-712-0  10:46  
    00795  08310-300-713-0  10:46      00796  08310-300-714-0  10:46  Y
    00797  08310-300-715-0  10:46      00798  08310-300-718-0  10:46  
    00799  08310-300-719-0  10:46      00800  08310-300-722-0  10:46  
    00801  08310-300-724-0  10:46      00802  08310-400-035-0  10:46  Y
    00803  08300-301-257-1  10:48  C    00804  08310-244-033-0  10:48  
    00805  08310-300-728-0  10:48  Y    00806  08310-300-729-0  10:48  
    00807  08310-234-022-0  10:49      00808  08310-260-011-0  10:49   
    00809  08310-300-730-0  10:49      00810  08310-300-731-0  10:49  
    00811  08310-239-012-0  10:51      00812  08310-253-023-0  10:51   
    00813  08310-253-024-0  10:51       00814  08310-254-006-0  10:51  
    00815  08310-257-018-0  10:51       00816  08310-267-015-0  10:51   
    00817  08310-300-732-0  10:51      00818  08310-300-733-0  10:51  
    00819  08310-300-734-0  10:51      00820  08310-300-735-0  10:51  
    00821  08310-300-736-0  10:51      00822  08310-300-737-0  10:51  Y
    00823  08310-300-743-0  10:51      00824  08310-257-019-0  10:53   
    00825  08310-300-744-0  10:53      00826  08310-248-022-0  10:55  
    00827  08310-269-019-0  10:55      00828  08310-300-745-0  10:55  
    00829  08310-300-747-0  10:55      00830  08310-300-749-0  10:55  
    00831  08310-300-751-0  10:55  Y    00832  08310-300-754-0  10:55  
    00833  08310-300-755-0  10:55      00834  08310-300-756-0  10:55  
    00835  08310-300-759-0  10:57      00836  08310-252-034-0  10:59  
    00837  08310-266-013-0  10:59      00838  08310-300-760-0  10:59  
    00839  08310-300-761-0  10:59      00840  08310-300-762-0  10:59  Y
    00841  08310-300-765-0  10:59       00842  08310-300-766-0  10:59  
    00843  08310-274-017-0  11:01      00844  08310-300-767-0  11:01  
    00845  08310-234-023-0  11:03      00846  08310-242-016-0  11:03  
    00847  08310-257-020-0  11:03      00848  08310-300-768-0  11:03  
    00849  08310-300-769-0  11:03      00850  08310-300-770-0  11:03  
    00851  08310-300-771-0  11:03  Y    00852  08310-300-772-0  11:03  
    00853  08310-300-773-0  11:03      00854  08310-300-774-0  11:03  
    00855  08310-300-775-0  11:03      00856  08310-214-009-0  11:05  
    00857  08310-300-777-0  11:05      00858  08310-300-778-0  11:05  
    00859  08310-247-024-0  11:07      00860  08310-260-012-0  11:07  
    00861  08310-267-016-0  11:07      00862  08310-274-018-0  11:07  Y
    00863  08310-300-780-0  11:07      00864  08310-300-781-0  11:07  
    00865  08310-300-782-0  11:07      00866  08310-245-022-0  11:09  
    00867  08310-251-009-0  11:09  Y    00868  08310-267-017-0  11:09  
    00869  08310-274-019-0  11:09  Y    00870  08310-300-785-0  11:09  
    00871  08310-300-786-0  11:09      00872  08310-216-023-0  11:11  
    00873  08310-234-024-0  11:11      00874  08310-259-009-0  11:11  
    00875  08310-266-014-0  11:11      00876  08310-300-787-0  11:11  
    00877  08310-300-789-0  11:11      00878  08310-300-790-0  11:11  Y
    00879  08310-242-017-0  11:13       00880  08310-300-791-0  11:13  
    00881  08310-300-792-0  11:13  Y    00882  08310-300-793-0  11:13  
    00883  08310-300-794-0  11:13      00884  08310-300-795-0  11:13  
    00885  08310-300-796-0  11:13  Y    00886  08310-300-798-0  11:13  Y
    00887  08310-300-799-0  11:15      00888  08310-300-801-0  11:15  Y
    00889  08310-300-803-0  11:15  Y    00890  08310-300-804-0  11:15  
    00891  08310-300-805-0  11:15      00892  08310-300-806-0  11:15  Y
    00893  08310-400-037-0  11:15      00894  08310-236-013-0  11:18  
    00895  08310-240-018-0  11:18  Y    00896  08310-247-025-0  11:18  
    00897  08310-260-013-0  11:18      00898  08310-267-018-0  11:18   
    00899  08310-300-808-0  11:18      00900  08310-300-810-0  11:18  Y
    00901  08310-300-811-0  11:18       00902  08310-300-812-0  11:18  
    00903  08310-300-813-0  11:18  Y    00904  08310-300-814-0  11:18  
    00905  08310-300-815-0  11:18      00906  08310-300-816-0  11:18  
    00907  08310-300-817-0  11:20      00908  08310-237-021-0  11:22  
    00909  08310-251-010-0  11:22      00910  08310-253-025-0  11:22  
    00911  08310-254-008-0  11:22      00912  08310-266-015-0  11:22  
    00913  08310-300-818-0  11:22      00914  08310-300-819-0  11:22  
    00915  08310-300-823-0  11:22      00916  08310-300-828-0  11:24  
    00917  08310-300-829-0  11:24      00918  08310-300-831-0  11:24  
    00919  08310-300-833-0  11:24  Y    00920  08310-300-834-0  11:24  
    00921  08310-239-015-0  11:26      00922  08310-240-019-0  11:26  
    00923  08310-254-009-0  11:26      00924  08310-269-023-0  11:26  
    00925  08310-274-020-0  11:26      00926  08310-300-835-0  11:26  
    00927  08310-300-836-0  11:26  Y    00928  08310-300-838-0  11:26  
    00929  08310-300-839-0  11:26      00930  08310-300-841-0  11:26  
    00931  08310-300-842-0  11:26      00932  08310-300-843-0  11:26  
    00933  08310-300-845-0  11:26      00934  08310-220-016-0  11:28  
    00935  08310-248-023-0  11:28      00936  08310-260-014-0  11:28  
    00937  08310-300-848-0  11:28      00938  08310-236-014-0  11:30  
    00939  08310-245-024-0  11:30      00940  08310-247-026-0  11:30  
    00941  08310-300-850-0  11:30      00942  08310-300-851-0  11:30  
    00943  08310-300-854-0  11:30  Y    00944  08310-300-856-0  11:30  
    00945  08310-300-857-0  11:30      00946  08310-300-858-0  11:30  
    00947  08310-300-861-0  11:30      00948  08310-216-025-0  11:32  
    00949  08310-234-026-0  11:32      00950  08310-300-862-0  11:32  
    00951  08310-300-863-0  11:32      00952  08310-300-864-0  11:32  
    00953  08310-221-024-0  11:34      00954  08310-235-011-0  11:34  
    00955  08310-251-011-0  11:34      00956  08310-259-012-0  11:34  Y
    00957  08310-300-865-0  11:34      00958  08310-300-866-0  11:34  
    00959  08310-300-867-0  11:34      00960  08310-300-868-0  11:34  
    00961  08310-300-869-0  11:34      00962  08310-300-871-0  11:34  Y
    00963  08310-300-872-0  11:34      00964  08310-300-873-0  11:34  
    00965  08310-300-874-0  11:34      00966  08310-300-875-0  11:34  Y
    00967  08310-300-876-0  11:34      00968  08310-221-025-0  11:36  
    00969  08310-300-877-0  11:36      00970  08310-222-013-0  11:38  
    00971  08310-241-032-0  11:38       00972  08310-248-025-0  11:38   
    00973  08310-259-013-0  11:38  Y    00974  08310-269-025-0  11:38  
    00975  08310-300-878-0  11:38      00976  08310-300-879-0  11:38  
    00977  08310-300-880-0  11:38      00978  08310-300-881-0  11:38  
    00979  08310-300-882-0  11:38      00980  08310-300-883-0  11:38  
    00981  08310-300-884-0  11:38      00982  08310-300-885-0  11:38  
    00983  08310-300-886-0  11:38      00984  08310-300-888-0  11:40  
    00985  08310-234-027-0  11:43       00986  08310-247-027-0  11:43  
    00987  08310-274-023-0  11:43      00988  08310-300-875-1  11:43  C
    00989  08310-300-889-0  11:43      00990  08310-300-891-0  11:43  
    00991  08310-300-893-0  11:43      00992  08310-300-894-0  11:43  
    00993  08310-300-896-0  11:43  Y    00994  08310-300-897-0  11:43  Y
    00995  08310-300-898-0  11:43      00996  08310-300-899-0  11:43  Y
    00997  08310-300-900-0  11:43  Y    00998  08310-300-901-0  11:43  Y
    00999  08310-300-902-0  11:43      01000  08310-300-903-0  11:43  Y
    01001  08310-300-904-0  11:43      01002  08310-300-905-0  11:43  
    01003  08310-267-020-0  11:45      01004  08310-300-906-0  11:45  
    01005  08310-300-907-0  11:45  Y    01006  08310-300-908-0  11:45  
    01007  08310-300-909-0  11:45  Y    01008  08310-300-910-0  11:45  Y
    01009  08310-300-911-0  11:45      01010  08310-300-912-0  11:45  
    01011  08310-300-913-0  11:45  Y    01012  08310-239-017-0  11:47  
    01013  08310-244-037-0  11:47      01014  08310-254-011-0  11:47  
    01015  08310-260-016-0  11:47      01016  08310-300-914-0  11:47  Y
    01017  08310-300-916-0  11:47  Y    01018  08310-300-918-0  11:47  Y
    01019  08310-300-919-0  11:47      01020  08310-300-920-0  11:47  
    01021  08310-300-921-0  11:47  Y    01022  08310-300-922-0  11:47  
    01023  08310-300-923-0  11:47      01024  08310-300-924-0  11:47  
    01025  08310-300-925-0  11:47      01026  08310-300-926-0  11:47   
    01027  08310-300-927-0  11:47  Y    01028  08310-300-928-0  11:47  
    01029  08310-300-930-0  11:47      01030  08310-300-931-0  11:47  
    01031  08310-220-018-0  11:49      01032  08310-222-014-0  11:49   
    01033  08310-300-932-0  11:49  Y    01034  08310-300-934-0  11:49  
    01035  08310-300-935-0  11:49      01036  08310-300-936-0  11:49  Y
    01037  08310-213-004-0  11:51       01038  08310-235-012-0  11:51  
    01039  08310-242-019-0  11:51      01040  08310-248-026-0  11:51   
    01041  08310-253-027-0  11:51      01042  08310-300-937-0  11:51  
    01043  08310-300-939-0  11:51      01044  08310-300-941-0  11:51  Y
    01045  08310-300-943-0  11:51  Y    01046  08310-300-945-0  11:51  Y
    01047  08310-300-946-0  11:51      01048  08310-300-947-0  11:51  
    01049  08310-300-948-0  11:51      01050  08310-300-949-0  11:51  
    01051  08310-221-026-0  11:53       01052  08310-300-953-0  11:53  
    01053  08310-300-954-0  11:53      01054  08310-300-955-0  11:53  
    01055  08310-300-957-0  11:53      01056  08310-234-028-0  11:55  
    01057  08310-266-019-0  11:55      01058  08310-266-020-0  11:55  
    01059  08310-300-959-0  11:55      01060  08310-300-961-0  11:55  
    01061  08310-300-962-0  11:55      01062  08310-300-963-0  11:55  
    01063  08310-300-964-0  11:55       01064  08310-300-966-0  11:55  
    01065  08310-274-024-0  11:57      01066  08310-300-968-0  11:57  
    01067  08310-300-971-0  11:57      01068  08310-300-972-0  11:57  
    01069  08310-232-008-0  11:59      01070  08310-270-018-0  11:59  
    01071  08310-300-974-0  11:59      01072  08310-300-976-0  11:59  
    01073  08310-300-977-0  11:59      01074  08310-300-978-0  11:59  
    01075  08310-240-022-0  12:01       01076  08310-251-012-0  12:01   
    01077  08310-266-022-0  12:01      01078  08310-266-023-0  12:01  
    01079  08310-300-979-0  12:01      01080  08310-300-983-0  12:01  
    01081  08310-244-038-0  12:03       01082  08310-244-038-0  12:03   
    01083  08310-300-987-0  12:03      01084  08310-300-988-0  12:03  
    01085  08310-235-013-0  12:05      01086  08310-242-020-0  12:05  
    01087  08310-260-017-0  12:05      01088  08310-266-024-0  12:05  
    01089  08310-300-990-0  12:05      01090  08310-300-991-0  12:05  
    01091  08310-300-994-0  12:05      01092  08310-300-995-0  12:05  
    01093  08310-300-996-0  12:05      01094  08250-301-682-1  12:09  Y
    01095  08310-214-012-0  12:09      01096  08310-259-014-0  12:09  
    01097  08310-300-999-0  12:09      01098  08310-301-001-0  12:09  
    01099  08310-301-002-0  12:09      01100  08310-301-003-0  12:09  
    01101  08310-301-004-0  12:09      01102  08310-301-005-0  12:09  
    01103  08310-301-007-0  12:09      01104  08250-301-682-2  12:14  Y
    01105  08300-243-037-1  12:14  Y    01106  08310-214-013-0  12:14   
    01107  08310-232-009-0  12:14      01108  08310-242-021-0  12:14  
    01109  08310-266-025-0  12:14      01110  08310-269-028-0  12:14  
    01111  08310-270-019-0  12:14      01112  08310-301-008-0  12:14  
    01113  08310-301-009-0  12:14  Y    01114  08310-301-011-0  12:14  
    01115  08310-301-013-0  12:14  Y    01116  08310-220-019-0  12:18   
    01117  08310-222-016-0  12:18       01118  08310-231-021-0  12:18  
    01119  08310-245-028-0  12:18      01120  08310-248-028-0  12:18  
    01121  08310-248-028-0  12:18      01122  08310-251-013-0  12:18  
    01123  08310-252-035-0  12:18      01124  08310-270-020-0  12:18   
    01125  08310-301-014-0  12:18      01126  08310-301-015-0  12:18  
    01127  08310-301-016-0  12:18      01128  08310-231-022-0  12:20   
    01129  08310-236-020-0  12:20      01130  08310-259-015-0  12:20   
    01131  08310-301-018-0  12:20      01132  08310-221-028-0  12:22  
    01133  08310-222-017-0  12:22       01134  08310-231-023-0  12:22  
    01135  08310-231-024-0  12:22      01136  08310-232-010-0  12:22   
    01137  08310-235-014-0  12:22       01138  08310-260-018-0  12:22  
    01139  08310-301-019-0  12:22      01140  08310-301-020-0  12:22  
    01141  08310-301-021-0  12:22      01142  08310-301-023-0  12:22  
    01143  08310-251-014-0  12:26      01144  08310-301-024-0  12:26  
    01145  08310-301-025-0  12:26       01146  08310-301-029-0  12:26  
    01147  08310-301-031-0  12:26      01148  08310-301-031-0  12:26  
    01149  08310-301-032-0  12:26      01150  08310-301-033-0  12:30  
    01151  08310-301-034-0  12:30      01152  08310-301-035-0  12:30  
    01153  08310-301-036-0  12:30      01154  08310-301-037-0  12:30  
    01155  08310-301-038-0  12:30      01156  08310-301-039-0  12:30  
    01157  08310-301-041-0  12:30       01158  08310-301-042-0  12:30  Y
    01159  08310-301-042-0  12:30  Y    01160  08310-301-043-0  12:30  
    01161  08270-301-348-1  12:34  C    01162  08310-301-045-0  12:34  
    01163  08310-301-046-0  12:34  Y    01164  08310-301-047-0  12:34   
    01165  08310-301-048-0  12:34  Y    01166  08310-301-049-0  12:34  
    01167  08310-301-050-0  12:34      01168  08310-301-051-0  12:34  Y
    01169  08310-301-052-0  12:34  Y    01170  08310-301-053-0  12:34  Y
    01171  08310-301-054-0  12:34      01172  08310-301-055-0  12:34  Y
    01173  08310-301-056-0  12:34  Y    01174  08310-301-057-0  12:34  Y
    01175  08310-301-059-0  12:34      01176  08310-301-060-0  12:34  Y
    01177  08270-301-290-1  12:38  C    01178  08310-301-061-0  12:38  Y
    01179  08310-301-062-0  12:38  Y    01180  08310-301-063-0  12:38  
    01181  08310-301-064-0  12:38  Y    01182  08310-301-065-0  12:38  Y
    01183  08310-301-066-0  12:38  Y    01184  08310-301-067-0  12:38  Y
    01185  08310-301-068-0  12:38  Y    01186  08310-301-069-0  12:38  
    01187  08310-301-070-0  12:38  Y    01188  08310-301-071-0  12:38   
    01189  08310-301-072-0  12:38      01190  08310-301-073-0  12:38  Y
    01191  08310-301-074-0  12:42  Y    01192  08310-301-075-0  12:42  
    01193  08310-301-076-0  12:42  Y    01194  08310-301-077-0  12:42  Y
    01195  08310-301-079-0  12:42  Y    01196  08310-301-080-0  12:42  Y
    01197  08310-301-081-0  12:42      01198  08310-301-082-0  12:42  Y
    01199  08310-301-083-0  12:42  Y    01200  08310-301-084-0  12:42  Y
    01201  08310-301-085-0  12:42  Y    01202  08310-301-087-0  12:42  
    01203  08310-301-088-0  12:42  Y    01204  08310-243-021-0  12:47  
    01205  08310-243-022-0  12:47       01206  08310-243-023-0  12:47   
    01207  08310-301-090-0  12:47  Y    01208  08310-301-092-0  12:47  Y
    01209  08310-301-093-0  12:47  Y    01210  08310-301-094-0  12:47  Y
    01211  08310-301-095-0  12:47      01212  08310-301-096-0  12:47  Y
    01213  08310-301-097-0  12:47  Y    01214  08310-301-098-0  12:47  Y
    01215  08310-301-099-0  12:47      01216  08310-301-101-0  12:47  
    01217  08310-301-102-0  12:47  Y    01218  08310-301-104-0  12:47  Y
    01219  08310-243-022-1  12:51  C    01220  08310-243-024-0  12:51   
    01221  08310-243-025-0  12:51       01222  08310-243-026-0  12:51   
    01223  08310-301-105-0  12:51  Y    01224  08310-301-106-0  12:51  Y
    01225  08310-301-107-0  12:51      01226  08310-301-108-0  12:51  Y
    01227  08310-301-111-0  12:51      01228  08310-301-112-0  12:51  Y
    01229  08310-301-113-0  12:51  Y    01230  08310-301-114-0  12:51  
    01231  08310-301-115-0  12:51      01232  08310-301-116-0  12:51  Y
    01233  08310-301-118-0  12:51  Y    01234  08310-301-120-0  12:51  
    01235  08310-301-121-0  12:51  Y    01236  08310-301-122-0  12:53  Y
    01237  08310-232-011-0  12:55  Y    01238  08310-236-021-0  12:55   
    01239  08310-243-021-1  12:55  C    01240  08310-243-023-1  12:55  C
    01241  08310-247-028-0  12:55      01242  08310-252-036-0  12:55  
    01243  08310-265-028-0  12:55       01244  08310-269-029-0  12:55  
    01245  08310-270-021-0  12:55      01246  08310-301-124-0  12:55  
    01247  08310-301-125-0  12:55  Y    01248  08310-301-126-0  12:55   
    01249  08310-301-127-0  12:55      01250  08310-301-128-0  12:55  Y
    01251  08310-301-129-0  12:55      01252  08310-301-130-0  12:55  
    01253  08310-301-132-0  12:55      01254  08310-257-022-0  12:57  
    01255  08310-301-133-0  12:57      01256  08310-236-022-0  12:59   
    01257  08310-237-026-0  12:59      01258  08310-238-011-0  12:59  
    01259  08310-247-029-0  12:59      01260  08310-259-016-0  12:59  
    01261  08310-260-019-0  12:59      01262  08310-301-134-0  12:59  Y
    01263  08310-301-134-0  12:59  Y    01264  08310-301-135-0  12:59  Y
    01265  08310-301-135-0  12:59  Y    01266  08310-301-136-0  12:59  
    01267  08310-301-137-0  12:59  Y    01268  08310-301-139-0  12:59  Y
    01269  08310-301-140-0  12:59      01270  08310-301-141-0  12:59  Y
    01271  08310-301-142-0  12:59      01272  08310-301-144-0  12:59  Y
    01273  08310-214-014-0  13:01      01274  08310-241-034-0  13:01  
    01275  08310-242-023-0  13:01      01276  08310-248-029-0  13:01  
    01277  08310-251-015-0  13:01      01278  08310-301-145-0  13:01  Y
    01279  08310-301-146-0  13:01      01280  08310-236-023-0  13:03   
    01281  08310-238-012-0  13:03      01282  08310-252-037-0  13:03  
    01283  08310-257-023-0  13:03      01284  08310-265-029-0  13:03  
    01285  08310-265-030-0  13:03       01286  08310-269-031-0  13:03  
    01287  08310-269-031-0  13:03      01288  08310-270-022-0  13:03  
    01289  08310-301-147-0  13:03  Y    01290  08310-301-149-0  13:03  Y
    01291  08310-301-150-0  13:03      01292  08310-301-151-0  13:03  Y
    01293  08310-301-152-0  13:03      01294  08310-301-153-0  13:03  Y
    01295  08310-301-154-0  13:03  Y    01296  08310-301-155-0  13:03  
    01297  08310-301-156-0  13:03  Y    01298  08310-301-157-0  13:03  Y
    01299  08310-301-158-0  13:03      01300  08310-301-159-0  13:03  Y
    01301  08310-301-161-0  13:03      01302  08310-243-027-0  13:05  
    01303  08310-265-031-0  13:05  Y    01304  08310-301-162-0  13:05  Y
    01305  08310-301-163-0  13:05  Y    01306  08310-301-164-0  13:05  Y
    01307  08310-301-165-0  13:05      01308  08310-301-166-0  13:05  Y
    01309  08310-301-167-0  13:05      01310  08310-234-029-0  13:07  
    01311  08310-235-015-0  13:07      01312  08310-236-024-0  13:07  
    01313  08310-237-027-0  13:07       01314  08310-251-016-0  13:07  
    01315  08310-252-038-0  13:07      01316  08310-252-039-0  13:07  
    01317  08310-260-020-0  13:07      01318  08310-265-032-0  13:07  Y
    01319  08310-270-023-0  13:07      01320  08310-301-169-0  13:07  
    01321  08310-301-170-0  13:07      01322  08310-301-172-0  13:07  
    01323  08310-214-015-0  13:09      01324  08310-247-030-0  13:09  
    01325  08310-251-017-0  13:09      01326  08310-301-173-0  13:09  
    01327  08310-301-174-0  13:09      01328  08310-301-175-0  13:09  
    01329  08310-301-176-0  13:09      01330  08310-301-178-0  13:09  
    01331  08310-301-180-0  13:09      01332  08310-251-018-0  13:11  
    01333  08310-301-181-0  13:11      01334  08310-301-182-0  13:11  
    01335  08310-234-030-0  13:14  Y    01336  08310-251-019-0  13:14  
    01337  08310-257-024-0  13:14      01338  08310-260-021-0  13:14   
    01339  08310-265-033-0  13:14       01340  08310-301-184-0  13:14  
    01341  08310-301-186-0  13:14      01342  08310-301-189-0  13:14  
    01343  08310-301-190-0  13:14      01344  08240-237-018-1  13:16  Y
    01345  08310-240-023-0  13:16      01346  08310-251-020-0  13:16  
    01347  08310-252-040-0  13:16      01348  08310-301-192-0  13:16  
    01349  08310-301-194-0  13:16      01350  08310-251-021-0  13:18  
    01351  08310-253-028-0  13:18      01352  08310-259-017-0  13:18   
    01353  08310-301-195-0  13:18      01354  08310-301-198-0  13:18   
    01355  08310-301-200-0  13:18      01356  08310-301-202-0  13:18  Y
    01357  08310-214-016-0  13:22      01358  08310-240-024-0  13:22  Y
    01359  08310-242-025-0  13:22       01360  08310-243-028-0  13:22  
    01361  08310-253-029-0  13:22  Y    01362  08310-260-022-0  13:22  
    01363  08310-265-034-0  13:22      01364  08310-269-032-0  13:22  
    01365  08310-301-203-0  13:22  Y    01366  08310-301-204-0  13:22  
    01367  08310-301-205-0  13:22      01368  08310-301-207-0  13:22  
    01369  08310-234-031-0  13:24      01370  08310-234-031-0  13:24  
    01371  08310-252-041-0  13:24      01372  08310-301-208-0  13:24  
    01373  08310-301-209-0  13:24      01374  08310-231-031-0  13:26  
    01375  08310-265-035-0  13:26  Y    01376  08310-270-026-0  13:26  
    01377  08310-301-210-0  13:26      01378  08310-301-211-0  13:26  
    01379  08310-301-212-0  13:26      01380  08310-301-214-0  13:26  
    01381  08310-301-215-0  13:26      01382  08310-301-216-0  13:26  
    01383  08310-301-217-0  13:26      01384  08310-301-219-0  13:26  
    01385  08310-238-015-0  13:30      01386  08310-247-032-0  13:30  
    01387  08310-301-221-0  13:30      01388  08310-301-222-0  13:30  
    01389  08310-301-223-0  13:30      01390  08310-301-224-0  13:30  
    01391  08310-301-224-0  13:30      01392  08310-301-226-0  13:30  
    01393  08310-301-227-0  13:30  Y    01394  08310-301-228-0  13:30  
    01395  08300-214-008-1  13:34  Y    01396  08300-269-053-1  13:34  C
    01397  08310-214-017-0  13:34      01398  08310-216-028-0  13:34   
    01399  08310-222-018-0  13:34       01400  08310-236-025-0  13:34  
    01401  08310-243-029-0  13:34      01402  08310-301-230-0  13:34  
    01403  08310-214-018-0  13:38       01404  08310-231-032-0  13:38  
    01405  08310-234-032-0  13:38      01406  08310-236-026-0  13:38  Y
    01407  08310-240-026-0  13:38      01408  08310-301-231-0  13:38  
    01409  08310-301-232-0  13:38      01410  08310-301-233-0  13:38   
    01411  08310-301-234-0  13:38      01412  08310-301-237-0  13:38  
    01413  08310-301-239-0  13:38      01414  08310-220-020-0  13:42   
    01415  08310-222-019-0  13:42      01416  08310-247-034-0  13:42  Y
    01417  08310-267-024-0  13:42      01418  08310-274-027-0  13:42  
    01419  08310-301-240-0  13:42      01420  08310-301-241-0  13:42  Y
    01421  08310-301-242-0  13:42      01422  08310-301-246-0  13:42  
    01423  08310-301-248-0  13:42      01424  08310-214-019-0  13:47  
    01425  08310-216-029-0  13:47      01426  08310-240-027-0  13:47  
    01427  08310-240-028-0  13:47      01428  08310-240-028-0  13:47  
    01429  08310-241-039-0  13:47      01430  08310-241-040-0  13:47  
    01431  08310-251-023-0  13:47      01432  08310-259-016-1  13:47  C
    01433  08310-265-036-0  13:47      01434  08310-301-250-0  13:47  
    01435  08310-301-251-0  13:47      01436  08310-301-253-0  13:47  
    01437  08310-301-254-0  13:47      01438  08310-301-255-0  13:47  
    01439  08310-301-256-0  13:47  Y    01440  08310-257-027-0  13:49  
    01441  08310-214-020-0  13:51      01442  08310-231-033-0  13:51   
    01443  08310-231-034-0  13:51       01444  08310-240-029-0  13:51  
    01445  08310-247-035-0  13:51      01446  08310-267-025-0  13:51   
    01447  08310-267-026-0  13:51       01448  08310-301-260-0  13:51  Y
    01449  08300-220-033-1  13:53  C    01450  08310-267-027-0  13:53   
    01451  08230-237-017-1  13:55  Y    01452  08300-220-034-1  13:55  C
    01453  08310-222-020-0  13:55      01454  08310-253-037-0  13:55  
    01455  08310-301-261-0  13:55  Y    01456  08310-301-263-0  13:55  Y
    01457  08310-301-264-0  13:55  Y    01458  08310-301-266-0  13:55  
    01459  08310-301-267-0  13:55  Y    01460  08310-301-268-0  13:55  
    01461  08310-301-269-0  13:55  Y    01462  08310-244-040-0  13:57   
    01463  08310-265-037-0  13:57      01464  08310-301-270-0  13:57  Y
    01465  08310-301-271-0  13:57       01466  08310-301-272-0  13:57  Y
    01467  08310-220-021-0  13:59      01468  08310-240-030-0  13:59  
    01469  08310-265-038-0  13:59       01470  08310-270-029-0  13:59  
    01471  08310-270-030-0  13:59       01472  08310-301-274-0  13:59  Y
    01473  08310-301-275-0  13:59  Y    01474  08310-301-276-0  13:59  Y
    01475  08310-301-277-0  13:59  Y    01476  08310-301-278-0  13:59  
    01477  08310-301-279-0  13:59  Y    01478  08310-301-280-0  13:59  
    01479  08310-301-281-0  13:59  Y    01480  08310-301-282-0  13:59  Y
    01481  08310-301-284-0  13:59  Y    01482  08310-301-285-0  13:59   
    01483  08310-301-286-0  13:59  Y    01484  08310-301-287-0  13:59  
    01485  08310-301-288-0  13:59  Y    01486  08310-274-028-0  14:01  
    01487  08310-301-289-0  14:01  Y    01488  08310-301-290-0  14:01   
    01489  08310-301-291-0  14:01  Y    01490  08310-301-292-0  14:01  
    01491  08310-301-294-0  14:01  Y    01492  08310-220-022-0  14:03  
    01493  08310-239-025-0  14:03      01494  08310-270-031-0  14:03   
    01495  08310-301-295-0  14:03      01496  08310-301-296-0  14:03  Y
    01497  08310-301-297-0  14:03  Y    01498  08310-301-298-0  14:03  
    01499  08310-301-299-0  14:03  Y    01500  08310-301-300-0  14:03  
    01501  08310-301-302-0  14:03  Y    01502  08310-301-302-0  14:03  Y
    01503  08310-301-303-0  14:03      01504  08310-301-305-0  14:03  Y
    01505  08310-301-306-0  14:03  Y    01506  08310-301-306-0  14:03  Y
    01507  08310-301-307-0  14:03      01508  08310-236-028-0  14:05  
    01509  08310-239-026-0  14:05      01510  08310-301-308-0  14:05  Y
    01511  08310-301-309-0  14:05      01512  08310-301-310-0  14:05  Y
    01513  08310-301-310-0  14:05  Y    01514  08310-301-311-0  14:05  Y
    01515  08310-301-312-0  14:05      01516  08310-301-313-0  14:05  
    01517  08310-240-031-0  14:07      01518  08310-244-041-0  14:07   
    01519  08310-252-043-0  14:07      01520  08310-274-029-0  14:07  
    01521  08310-301-314-0  14:07      01522  08310-301-315-0  14:07  
    01523  08310-301-317-0  14:07      01524  08310-241-041-0  14:10  
    01525  08310-254-014-0  14:10      01526  08310-266-027-0  14:10   
    01527  08310-301-318-0  14:10      01528  08310-301-321-0  14:10  
    01529  08310-301-322-0  14:10      01530  08310-301-323-0  14:10  
    01531  08310-301-324-0  14:10      01532  08310-222-021-0  14:12  
    01533  08310-301-326-0  14:12      01534  08310-301-327-0  14:12  
    01535  08310-301-328-0  14:12      01536  08310-241-042-0  14:14   
    01537  08310-244-042-0  14:14      01538  08310-254-015-0  14:14  
    01539  08310-274-030-0  14:14      01540  08310-301-330-0  14:14  
    01541  08310-301-333-0  14:14      01542  08310-301-334-0  14:14  
    01543  08310-301-335-0  14:14      01544  08310-301-336-0  14:14  
    01545  08310-220-023-0  14:16      01546  08310-270-032-0  14:16  
    01547  08310-301-337-0  14:16      01548  08310-301-338-0  14:16  
    01549  08310-400-038-0  14:16      01550  08270-301-157-1  14:18  C
    01551  08310-239-028-0  14:18       01552  08310-244-043-0  14:18  Y
    01553  08310-257-030-0  14:18      01554  08310-274-031-0  14:18   
    01555  08310-301-341-0  14:18      01556  08310-301-344-0  14:18  Y
    01557  08310-301-347-0  14:18      01558  08310-301-348-0  14:18  
    01559  08310-301-350-0  14:18      01560  08310-301-351-0  14:18  
    01561  08310-274-032-0  14:20       01562  08310-301-353-0  14:20  
    01563  08310-301-354-0  14:20  Y    01564  08310-235-017-0  14:22  
    01565  08310-248-031-0  14:22      01566  08310-248-032-0  14:22  
    01567  08310-252-045-0  14:22      01568  08310-259-018-0  14:22  
    01569  08310-274-033-0  14:22       01570  08310-301-358-0  14:22  
    01571  08310-301-360-0  14:22      01572  08310-301-361-0  14:22  
    01573  08310-301-365-0  14:22      01574  08310-231-036-0  14:26   
    01575  08310-231-036-0  14:26       01576  08310-247-038-0  14:26  Y
    01577  08310-248-033-0  14:26      01578  08310-248-034-0  14:26  
    01579  08310-252-046-0  14:26      01580  08310-253-040-0  14:26  Y
    01581  08310-253-041-0  14:26  Y    01582  08310-301-366-0  14:26  
    01583  08310-301-367-0  14:26      01584  08310-301-368-0  14:26  
    01585  08310-301-370-0  14:26      01586  08310-301-371-0  14:26  
    01587  08310-301-372-0  14:26  Y    01588  08310-301-373-0  14:26  
    01589  08310-301-374-0  14:26      01590  08310-301-375-0  14:26  
    01591  08310-301-378-0  14:26      01592  08310-240-033-0  14:28  
    01593  08310-248-035-0  14:28      01594  08310-253-042-0  14:28  Y
    01595  08310-253-043-0  14:28  Y    01596  08310-257-031-0  14:28  
    01597  08310-301-380-0  14:28      01598  08310-301-381-0  14:28  
    01599  08310-301-383-0  14:28      01600  08310-221-032-0  14:30  
    01601  08310-243-031-0  14:30       01602  08310-253-044-0  14:30  Y
    01603  08310-253-045-0  14:30  Y    01604  08310-254-016-0  14:30  
    01605  08310-301-385-0  14:30      01606  08310-301-386-0  14:30  
    01607  08310-301-387-0  14:30      01608  08310-301-388-0  14:30  
    01609  08310-301-389-0  14:30      01610  08310-301-390-0  14:30  
    01611  08310-301-392-0  14:30      01612  08310-216-034-0  14:32  
    01613  08310-248-036-0  14:32      01614  08310-301-395-0  14:32  
    01615  08310-301-397-0  14:32      01616  08310-247-039-0  14:34  
    01617  08310-248-037-0  14:34      01618  08310-253-046-0  14:34   
    01619  08310-259-019-0  14:34      01620  08310-301-401-0  14:34  
    01621  08310-301-402-0  14:34      01622  08310-301-403-0  14:34  
    01623  08310-301-404-0  14:34      01624  08310-301-406-0  14:34  
    01625  08310-301-407-0  14:34      01626  08310-301-408-0  14:34  
    01627  08310-301-410-0  14:34      01628  08310-237-031-0  14:36  
    01629  08310-301-412-0  14:36      01630  08310-301-413-0  14:36  
    01631  08310-301-415-0  14:36      01632  08310-301-416-0  14:36  
    01633  08310-257-032-0  14:39      01634  08310-266-028-0  14:39  
    01635  08310-301-418-0  14:39      01636  08310-301-419-0  14:39  
    01637  08310-301-421-0  14:39      01638  08310-301-423-0  14:39  
    01639  08310-301-425-0  14:39      01640  08310-301-426-0  14:39  
    01641  08310-301-427-0  14:39      01642  08310-301-428-0  14:39  
    01643  08310-244-044-0  14:41       01644  08310-301-431-0  14:41  
    01645  08310-301-432-0  14:41      01646  08310-301-440-0  14:43  
    01647  08310-301-440-0  14:43      01648  08310-301-444-0  14:43  
    01649  08310-301-446-0  14:43      01650  08310-216-035-0  14:47  
    01651  08310-267-030-0  14:47      01652  08310-301-450-0  14:47  
    01653  08310-301-452-0  14:47  Y    01654  08310-301-454-0  14:47  
    01655  08310-301-457-0  14:47      01656  08310-301-460-0  14:47  
    01657  08310-301-461-0  14:47      01658  08310-301-463-0  14:47  
    01659  08310-248-038-0  14:49      01660  08310-301-467-0  14:49  Y
    01661  08310-237-032-0  14:51      01662  08310-240-036-0  14:51  Y
    01663  08310-254-017-0  14:51      01664  08310-301-468-0  14:51  
    01665  08310-301-470-0  14:51       01666  08310-301-473-0  14:51  Y
    01667  08310-301-475-0  14:51      01668  08310-301-476-0  14:51  Y
    01669  08310-301-477-0  14:51      01670  08310-254-018-0  14:53  
    01671  08310-301-481-0  14:53      01672  08310-254-019-0  14:55  
    01673  08310-301-484-0  14:55      01674  08310-301-487-0  14:55  
    01675  08310-301-489-0  14:55      01676  08310-247-042-0  14:57  
    01677  08310-248-039-0  14:57      01678  08310-253-048-0  14:57  
    01679  08310-254-020-0  14:57      01680  08310-265-040-0  14:57  
    01681  08310-301-495-0  14:57      01682  08310-301-498-0  14:59  
    01683  08310-301-501-0  14:59      01684  08310-237-033-0  15:01  
    01685  08310-245-035-0  15:01      01686  08310-254-021-0  15:01  
    01687  08310-274-037-0  15:01       01688  08310-301-502-0  15:01  
    01689  08310-301-504-0  15:01      01690  08310-301-505-0  15:01  
    01691  08310-301-506-0  15:01      01692  08310-245-036-0  15:03  
    01693  08310-252-049-0  15:03      01694  08310-257-033-0  15:03  Y
    01695  08310-301-509-0  15:03  Y    01696  08310-301-510-0  15:03  
    01697  08310-251-024-0  15:05      01698  08310-265-041-0  15:05  
    01699  08310-274-039-0  15:05       01700  08310-274-040-0  15:05   
    01701  08310-301-512-0  15:05      01702  08310-301-513-0  15:05  
    01703  08310-301-515-0  15:05      01704  08310-301-516-0  15:05  
    01705  08310-301-518-0  15:07      01706  08310-301-520-0  15:07   
    01707  08310-301-523-0  15:07      01708  08310-231-041-0  15:10  
    01709  08310-248-040-0  15:10      01710  08310-301-524-0  15:10  
    01711  08310-301-526-0  15:10      01712  08310-301-527-0  15:10  
    01713  08310-301-529-0  15:10      01714  08310-301-532-0  15:10  
    01715  08310-301-533-0  15:10      01716  08310-301-535-0  15:10  
    01717  08310-221-035-0  15:12      01718  08310-252-050-0  15:12  Y
    01719  08310-301-537-0  15:12      01720  08310-301-538-0  15:12  
    01721  08310-301-540-0  15:12      01722  08310-216-037-0  15:14  
    01723  08310-237-034-0  15:14      01724  08310-242-029-0  15:14   
    01725  08310-245-037-0  15:14      01726  08310-301-541-0  15:14  
    01727  08310-301-545-0  15:14      01728  08310-301-546-0  15:14  
    01729  08310-301-549-0  15:14      01730  08310-301-551-0  15:14  
    01731  08310-301-552-0  15:14      01732  08310-265-042-0  15:16   
    01733  08310-301-556-0  15:16      01734  08310-301-558-0  15:16  
    01735  08310-220-029-0  15:18      01736  08310-235-022-0  15:18  
    01737  08310-238-019-0  15:18       01738  08310-247-043-0  15:18  
    01739  08310-251-023-1  15:18  C    01740  08310-257-035-0  15:18  
    01741  08310-259-023-0  15:18  Y    01742  08310-259-024-0  15:18  Y
    01743  08310-274-041-0  15:18       01744  08310-274-042-0  15:18   
    01745  08310-301-562-0  15:18      01746  08310-301-564-0  15:18  Y
    01747  08310-220-030-0  15:22       01748  08310-232-017-0  15:22  
    01749  08310-234-045-0  15:22      01750  08310-236-029-0  15:22   
    01751  08310-236-029-0  15:22       01752  08310-245-038-0  15:22  
    01753  08310-270-033-0  15:22       01754  08310-274-043-0  15:22   
    01755  08310-301-566-0  15:22  Y    01756  08310-301-567-0  15:22  Y
    01757  08310-301-568-0  15:22      01758  08310-301-569-0  15:22  Y
    01759  08310-301-571-0  15:22  Y    01760  08310-301-572-0  15:22  
    01761  08310-214-022-0  15:24       01762  08310-221-032-1  15:24  C
    01763  08310-222-025-0  15:24       01764  08310-247-044-0  15:24  
    01765  08310-269-039-0  15:24      01766  08310-301-573-0  15:24  Y
    01767  08310-301-576-0  15:24  Y    01768  08310-301-577-0  15:24  
    01769  08310-301-579-0  15:24  Y    01770  08310-301-580-0  15:24  Y
    01771  08310-301-581-0  15:24      01772  08310-240-038-0  15:26   
    01773  08310-241-044-0  15:26      01774  08310-244-047-0  15:26  
    01775  08310-244-048-0  15:26      01776  08310-252-053-0  15:26  
    01777  08310-254-022-0  15:26      01778  08310-257-036-0  15:26  
    01779  08310-265-043-0  15:26      01780  08310-269-040-0  15:26  Y
    01781  08310-301-582-0  15:26      01782  08310-301-583-0  15:26  Y
    01783  08310-301-585-0  15:26      01784  08310-301-586-0  15:26  Y
    01785  08310-301-589-0  15:26  Y    01786  08310-301-590-0  15:26  Y
    01787  08310-244-049-0  15:28      01788  08310-251-025-0  15:28  
    01789  08310-269-041-0  15:28  Y    01790  08310-301-592-0  15:28  Y
    01791  08310-301-593-0  15:28      01792  08310-301-594-0  15:28  Y
    01793  08310-301-595-0  15:28      01794  08310-242-030-0  15:30  
    01795  08310-244-050-0  15:30      01796  08310-244-051-0  15:30  
    01797  08310-247-045-0  15:30  Y    01798  08310-247-046-0  15:30  Y
    01799  08310-247-046-0  15:30  Y    01800  08310-301-596-0  15:30  
    01801  08310-301-598-0  15:30  Y    01802  08310-301-599-0  15:30  
    01803  08310-301-599-0  15:30      01804  08310-301-601-0  15:30  Y
    01805  08310-301-603-0  15:30      01806  08310-301-605-0  15:30  
    01807  08310-301-606-0  15:30      01808  08310-214-023-0  15:34  
    01809  08310-222-026-0  15:34       01810  08310-240-039-0  15:34  
    01811  08310-241-046-0  15:34      01812  08310-247-047-0  15:34  Y
    01813  08310-252-054-0  15:34      01814  08310-265-044-0  15:34  
    01815  08310-301-609-0  15:34      01816  08310-301-611-0  15:34  
    01817  08310-222-025-1  15:37  C    01818  08310-241-047-0  15:37  
    01819  08310-247-048-0  15:37  Y    01820  08310-301-612-0  15:37  
    01821  08310-301-614-0  15:37      01822  08310-301-614-0  15:37  
    01823  08310-301-621-0  15:37      01824  08310-216-039-0  15:39  Y
    01825  08310-216-040-0  15:39  Y    01826  08310-241-048-0  15:39  
    01827  08310-254-023-0  15:39      01828  08310-257-037-0  15:39  
    01829  08310-301-622-0  15:39      01830  08310-301-623-0  15:39  
    01831  08310-301-626-0  15:39      01832  08310-301-628-0  15:39  
    01833  08310-214-024-0  15:41      01834  08310-216-041-0  15:41  Y
    01835  08310-222-027-0  15:41      01836  08310-234-047-0  15:41   
    01837  08310-241-049-0  15:41      01838  08310-242-032-0  15:41   
    01839  08310-247-049-0  15:41      01840  08310-274-044-0  15:41  
    01841  08310-216-045-0  15:43  Y    01842  08310-241-050-0  15:43  
    01843  08310-301-630-0  15:43      01844  08310-301-630-0  15:43  
    01845  08310-301-635-0  15:43      01846  08310-301-636-0  15:43  
    01847  08310-301-637-0  15:43      01848  08310-214-025-0  15:45  
    01849  08310-216-046-0  15:45       01850  08310-232-019-0  15:45  Y
    01851  08310-241-051-0  15:45      01852  08310-265-045-0  15:45  Y
    01853  08310-265-046-0  15:45  Y    01854  08310-266-031-0  15:45  
    01855  08310-269-044-0  15:45      01856  08310-301-638-0  15:45  
    01857  08310-301-640-0  15:45      01858  08310-301-641-0  15:45  
    01859  08310-232-020-0  15:47  Y    01860  08310-232-021-0  15:47  Y
    01861  08310-240-041-0  15:47      01862  08310-241-052-0  15:47  
    01863  08310-248-042-0  15:47      01864  08310-253-052-0  15:47  
    01865  08310-301-643-0  15:47  Y    01866  08310-301-644-0  15:47  
    01867  08310-301-647-0  15:47      01868  08310-301-648-0  15:47  
    01869  08310-301-649-0  15:47      01870  08310-301-651-0  15:47  
    01871  08310-214-026-0  15:49      01872  08310-245-040-0  15:49  Y
    01873  08310-247-050-0  15:49      01874  08310-301-655-0  15:49  
    01875  08310-216-047-0  15:51      01876  08310-231-044-0  15:51  
    01877  08310-232-022-0  15:51  Y    01878  08310-232-023-0  15:51  Y
    01879  08310-234-048-0  15:51      01880  08310-241-053-0  15:51  
    01881  08310-243-037-0  15:51      01882  08310-247-051-0  15:51   
    01883  08310-251-027-0  15:51       01884  08310-301-658-0  15:51  
    01885  08310-301-659-0  15:51      01886  08310-301-662-0  15:51  
    01887  08310-301-663-0  15:51      01888  08310-301-664-0  15:51  
    01889  08310-301-665-0  15:51      01890  08310-214-027-0  15:53  
    01891  08310-232-024-0  15:53  Y    01892  08310-238-023-0  15:53  
    01893  08310-241-054-0  15:53      01894  08310-253-053-0  15:53   
    01895  08310-270-036-0  15:53      01896  08310-301-667-0  15:53  
    01897  08310-301-669-0  15:53      01898  08310-301-670-0  15:53  
    01899  08310-221-038-0  15:55      01900  08310-221-038-0  15:55  
    01901  08310-244-053-0  15:55      01902  08310-251-028-0  15:55  
    01903  08310-269-045-0  15:55      01904  08310-243-039-0  15:57  Y
    01905  08310-248-043-0  15:57      01906  08310-251-029-0  15:57  
    01907  08310-252-056-0  15:57       01908  08310-254-024-0  15:57  Y
    01909  08310-265-049-0  15:57      01910  08310-301-676-0  15:57  
    01911  08310-221-039-0  15:59      01912  08310-234-049-0  15:59  Y
    01913  08310-241-056-0  15:59      01914  08310-243-040-0  15:59  Y
    01915  08310-243-041-0  15:59  Y    01916  08310-301-679-0  15:59  
    01917  08310-301-680-0  15:59      01918  08310-301-681-0  15:59  
    01919  08310-231-045-0  16:01       01920  08310-241-057-0  16:01  
    01921  08310-247-052-0  16:01       01922  08310-267-033-0  16:01  
    01923  08310-301-683-0  16:01      01924  08310-301-687-0  16:01  
    01925  08310-241-058-0  16:04      01926  08310-214-028-0  16:06  
    01927  08310-216-051-0  16:06  Y    01928  08310-222-028-0  16:06  
    01929  08310-236-032-0  16:06      01930  08310-241-059-0  16:06  
    01931  08310-248-044-0  16:06       01932  08310-253-054-0  16:06   
    01933  08310-254-025-0  16:06      01934  08310-257-039-0  16:06  
    01935  08310-301-692-0  16:06      01936  08310-301-697-0  16:06  
    01937  08310-301-698-0  16:06      01938  08310-220-032-0  16:08  
    01939  08310-235-026-0  16:08      01940  08310-236-033-0  16:08   
    01941  08310-248-045-0  16:08  Y    01942  08310-265-050-0  16:08  
    01943  08240-256-045-1  16:10  Y    01944  08310-220-033-0  16:10  
    01945  08310-236-032-1  16:10  C    01946  08310-248-046-0  16:10   
    01947  08310-248-047-0  16:10       01948  08310-251-030-0  16:10  
    01949  08310-253-055-0  16:10      01950  08310-301-703-0  16:10  
    01951  08310-301-706-0  16:10      01952  08310-301-708-0  16:10  
    01953  08310-267-034-0  16:12      01954  08310-301-710-0  16:12  
    01955  08240-256-043-1  16:14  Y    01956  08310-301-713-0  16:14  
    01957  08310-301-717-0  16:14      01958  08310-301-721-0  16:14  
    01959  08310-221-041-0  16:18      01960  08310-222-029-0  16:18  
    01961  08310-235-027-0  16:18      01962  08310-239-034-0  16:18  
    01963  08310-240-043-0  16:18      01964  08310-242-036-0  16:18  
    01965  08310-254-027-0  16:18      01966  08310-264-001-0  16:18  
    01967  08310-269-046-0  16:18      01968  08310-270-038-0  16:18  
    01969  08310-270-038-0  16:18      01970  08310-301-725-0  16:18  
    01971  08310-301-729-0  16:18      01972  08310-301-731-0  16:18  
    01973  08310-220-034-0  16:20      01974  08310-221-042-0  16:22  
    01975  08310-232-025-0  16:22       01976  08310-238-025-0  16:22  
    01977  08310-254-028-0  16:22      01978  08310-266-039-0  16:22  
    01979  08310-266-040-0  16:22      01980  08310-269-047-0  16:22  
    01981  08310-269-048-0  16:22      01982  08310-301-732-0  16:22  
    01983  08310-301-735-0  16:22      01984  08310-301-736-0  16:22  
    01985  08310-301-737-0  16:22  Y    01986  08310-301-738-0  16:22  Y
    01987  08310-301-739-0  16:22      01988  08310-301-740-0  16:22  Y
    01989  08310-214-030-0  16:26      01990  08310-220-035-0  16:26  
    01991  08310-221-044-0  16:26      01992  08310-239-035-0  16:26   
    01993  08310-264-002-0  16:26      01994  08310-267-035-0  16:26  
    01995  08310-274-047-0  16:26      01996  08310-301-742-0  16:26  Y
    01997  08310-301-743-0  16:26      01998  08310-216-058-0  16:30  
    01999  08310-221-045-0  16:30      02000  08310-239-036-0  16:30  
    02001  08310-245-055-0  16:30      02002  08310-254-029-0  16:30   
    02003  08310-259-030-0  16:30      02004  08310-301-746-0  16:30  
    02005  08310-301-750-0  16:30  Y    02006  08310-301-752-0  16:30  
    02007  08310-301-753-0  16:30      02008  08310-301-754-0  16:30  Y
    02009  08310-269-050-0  16:32      02010  08310-221-046-0  16:35  
    02011  08310-232-027-0  16:35      02012  08310-239-037-0  16:35   
    02013  08310-245-056-0  16:35      02014  08310-248-051-0  16:35  
    02015  08310-251-031-0  16:35      02016  08310-264-003-0  16:35  
    02017  08310-269-051-0  16:35      02018  08310-269-052-0  16:35  
    02019  08310-301-755-0  16:35  Y    02020  08310-301-756-0  16:35  
    02021  08310-301-757-0  16:35  Y    02022  08310-301-758-0  16:35  
    02023  08310-301-759-0  16:35      02024  08310-301-760-0  16:35  Y
    02025  08310-301-761-0  16:35      02026  08310-301-762-0  16:35  Y
    02027  08310-216-059-0  16:39      02028  08310-221-047-0  16:39  
    02029  08310-232-028-0  16:39      02030  08310-251-032-0  16:39  
    02031  08310-301-763-0  16:39  Y    02032  08310-301-765-0  16:39  Y
    02033  08160-266-019-1  16:43  Y    02034  08260-242-001-1  16:43  Y
    02035  08310-236-037-0  16:43      02036  08310-238-026-0  16:43  
    02037  08310-240-046-0  16:43      02038  08310-245-057-0  16:43  
    02039  08310-301-766-0  16:43  Y    02040  08310-301-767-0  16:43  
    02041  08310-301-769-0  16:43      02042  08310-301-770-0  16:43  Y
    02043  08310-301-771-0  16:43      02044  08310-301-772-0  16:43  
    02045  08310-301-774-0  16:43  Y    02046  08310-259-031-0  16:45  
    02047  08310-221-048-0  16:47      02048  08310-222-030-0  16:47  
    02049  08310-253-057-0  16:47       02050  08310-264-005-0  16:47  Y
    02051  08310-301-775-0  16:47      02052  08310-301-776-0  16:47  
    02053  08310-301-778-0  16:47      02054  08310-216-060-0  16:51  
    02055  08310-220-037-0  16:51      02056  08310-240-047-0  16:51  
    02057  08310-254-030-0  16:51      02058  08310-254-030-1  16:51  C
    02059  08310-254-031-0  16:51       02060  08310-270-041-0  16:51  
    02061  08310-301-781-0  16:51      02062  08310-301-782-0  16:51  
    02063  08310-301-783-0  16:51  Y    02064  08310-269-053-0  16:53  
    02065  08310-274-050-0  16:53      02066  08310-301-784-0  16:53  
    02067  08310-221-049-0  16:55      02068  08310-240-048-0  16:55  
    02069  08310-242-048-0  16:55      02070  08310-259-032-0  16:55  
    02071  08310-301-786-0  16:55      02072  08310-301-787-0  16:55  Y
    02073  08310-214-031-0  16:57      02074  08310-245-059-0  16:57  
    02075  08310-301-792-0  16:57      02076  08310-253-058-0  17:01  
    02077  08310-254-032-0  17:01  Y    02078  08310-301-795-0  17:01  
    02079  08310-301-796-0  17:01  Y    02080  08310-216-061-0  17:03   
    02081  08310-220-038-0  17:03      02082  08310-239-038-0  17:03  
    02083  08310-269-054-0  17:03      02084  08310-270-042-0  17:03  
    02085  08310-270-042-1  17:03  C    02086  08310-270-043-0  17:03   
    02087  08310-301-797-0  17:03  Y    02088  08310-301-798-0  17:03  Y
    02089  08310-301-799-0  17:03  Y    02090  08310-301-800-0  17:03  Y
    02091  08310-240-049-0  17:05      02092  08310-248-054-0  17:05  
    02093  08310-301-802-0  17:05      02094  08310-301-804-0  17:09  
    02095  08310-239-039-0  17:14      02096  08310-264-007-0  17:14  
    02097  08310-301-808-0  17:14      02098  08310-301-810-0  17:14  
    02099  08310-232-030-0  17:18      02100  08310-238-027-0  17:22  
    02101  08310-239-040-0  17:22       02102  08310-251-034-0  17:22  
    02103  08310-254-033-0  17:22      02104  08310-259-034-0  17:22  
    02105  08310-301-813-0  17:22      02106  08310-301-814-0  17:22  
    02107  08310-301-816-0  17:22  Y    02108  08310-254-034-0  17:26  
    02109  08310-269-055-0  17:26      02110  08310-301-817-0  17:26  Y
    02111  08310-301-818-0  17:26      02112  08310-301-819-0  17:26  Y
    02113  08310-301-820-0  17:26  Y    02114  08310-301-821-0  17:26  Y
    02115  08310-301-822-0  17:26      02116  08310-301-823-0  17:26  Y
    02117  08310-301-824-0  17:30  Y    02118  08310-301-825-0  17:30  
    02119  08310-301-826-0  17:30  Y    02120  08310-301-828-0  17:30  
    02121  08310-301-829-0  17:30  Y    02122  08310-301-830-0  17:30  Y
    02123  08310-301-831-0  17:30      02124  08310-301-832-0  17:30  Y
    02125  08310-301-833-0  17:30  Y    02126  08310-301-834-0  17:30  
    02127  08310-259-035-0  17:34      02128  08310-301-835-0  17:34  Y
    02129  08310-301-836-0  17:34  Y    02130  08310-301-837-0  17:34  Y
    02131  08310-301-839-0  17:34  Y    02132  08310-301-840-0  17:34  
    02133  08310-301-841-0  17:34  Y    02134  08310-301-842-0  17:34  Y
    02135  08310-232-031-0  17:38      02136  08310-239-041-0  17:38  
    02137  08310-301-843-0  17:38  Y    02138  08310-301-845-0  17:38  Y
    02139  08310-301-846-0  17:38  Y    02140  08310-301-847-0  17:38  Y
    02141  08310-301-848-0  17:38      02142  08310-301-849-0  17:38  Y
    02143  08310-301-850-0  17:38  Y    02144  08310-264-010-0  17:40  
    02145  08310-301-851-0  17:42  Y    02146  08310-301-852-0  17:42  Y
    02147  08310-301-853-0  17:42  Y    02148  08310-301-854-0  17:42  
    02149  08310-301-854-0  17:42      02150  08310-301-857-0  17:46  Y
    02151  08310-301-858-0  17:46  Y    02152  08310-301-859-0  17:46  Y
    02153  08310-301-861-0  17:46  Y    02154  08310-235-038-0  17:50  
    02155  08310-259-034-1  17:50  C    02156  08310-301-862-0  17:50  Y
    02157  08310-301-863-0  17:50  Y    02158  08310-301-864-0  17:50  Y
    02159  08310-301-865-0  17:50  Y    02160  08310-301-867-0  17:54  Y
    02161  08310-301-869-0  17:54  Y    02162  08310-301-871-0  17:54  Y
    02163  08310-232-032-0  17:59       02164  08310-232-032-0  17:59   
    02165  08310-301-872-0  17:59  Y    02166  08310-301-873-0  17:59  Y
    02167  08310-301-874-0  17:59  Y    02168  08310-301-876-0  17:59  Y
    02169  08310-301-877-0  18:03  Y    02170  08310-301-879-0  18:07  Y
    02171  08310-301-881-0  18:07  Y    02172  08310-301-882-0  18:07  Y
    02173  08310-301-883-0  18:07  Y    02174  08310-301-884-0  18:09  Y
    02175  08310-238-028-0  18:11      02176  08310-301-885-0  18:11  Y
    02177  08310-301-886-0  18:11  Y    02178  08310-301-887-0  18:11  Y
    02179  08310-301-889-0  18:11  Y    02180  08310-301-890-0  18:11  Y
    02181  08310-301-891-0  18:11  Y    02182  08310-251-036-0  18:13  
    02183  08310-301-892-0  18:13  Y    02184  08310-264-011-0  18:15  
    02185  08310-301-893-0  18:15  Y    02186  08310-301-894-0  18:15  Y
    02187  08310-301-895-0  18:15  Y    02188  08310-301-896-0  18:15  Y
    02189  08310-301-897-0  18:15  Y    02190  08310-301-898-0  18:17  Y
    02191  08310-301-899-0  18:17  Y    02192  08310-301-899-0  18:17  Y
    02193  08310-301-899-0  18:17  Y    02194  08310-301-900-0  18:17  Y
    02195  08310-264-012-0  18:21       02196  08310-264-013-0  18:29  
    02197  08310-264-014-0  18:37      02198  08310-264-017-0  19:06   
    02199  08310-264-019-0  19:34      02200  08310-301-908-0  20:07  
    02201  08310-301-909-0  20:09      02202  08310-264-020-0  20:37  
    02203  08310-264-021-0  20:49      02204  08310-264-022-0  21:14   
    02205  08310-264-023-0  21:22      02206  08310-264-024-0  21:30  
    02207  08310-264-026-0  21:46      02208  08310-301-913-0  21:58  
    02209  08310-264-027-0  22:39      02210  08310-301-915-0  23:09  
    02211  08310-301-915-0  23:09      02212  08310-301-921-0  23:50  
    02213  08310-301-922-0  23:50      02214  08310-301-922-0  23:50  
    02215  08310-301-923-0  23:54            
    
    
    (P) UPDATE    - 00000
    (C) CANCEL    - 00031
    (R) RESENT    - 00000
    (Y) RENOTIFY  - 00518
    (L) LATE RESP - 00030
    (U) UNGRIDDED - 00000
    ( ) NORMAL    - 01636
        TOTAL     - 02215
