

    *SUM*   SENTRi  Tuesday, August 23, 2010
    
    ***********************************************************************
    * THIS IS THE AGL SENTRi CENTER SIGNING OFF. YOUR END OF DAY          *
    * SUMMARY WILL FOLLOW. PLEASE NOTIFY THE CENTER OF ANY DISCREPANCIES  *
    ***********************************************************************
    
    00001  08230-220-057-0        00002  08230-300-001-0  00:35  Y
    00003  08230-300-002-0  00:35  Y    00004  08230-300-003-0  00:35  Y
    00005  08230-300-004-0  00:35  Y    00006  08230-300-005-0  00:39  Y
    00007  08230-300-006-0  00:39  Y    00008  08230-300-007-0  00:39  Y
    00009  08230-300-008-0  00:41  Y    00010  08230-246-003-0  04:02  
    00011  08230-246-004-0  04:06       00012  08230-246-005-0  04:10  
    00013  08230-246-006-0  04:10      00014  08230-246-007-0  04:42  
    00015  08230-246-008-0  05:37      00016  08230-300-010-0  06:58  
    00017  08230-400-009-0  07:06  Y    00018  08230-400-009-0  07:06  Y
    00019  08230-400-015-0  07:06  Y    00020  08230-400-025-0  07:06  Y
    00021  08230-400-029-0  07:08  Y    00022  08230-244-001-0  07:10  
    00023  08230-249-002-0  07:10  Y    00024  08230-252-001-0  07:10  
    00025  08230-265-001-0  07:10      00026  08230-234-001-0  07:14   
    00027  08230-237-001-0  07:14      00028  08230-249-003-0  07:14  Y
    00029  08230-249-004-0  07:14  Y    00030  08230-249-005-0  07:14  Y
    00031  08230-237-002-0  07:18       00032  08230-246-010-0  07:18  
    00033  08230-249-007-0  07:18      00034  08230-257-001-0  07:18  
    00035  08230-265-002-0  07:22      00036  08230-258-002-0  07:23  
    00037  08200-245-017-1  07:27  Y    00038  08230-257-002-0  07:27  
    00039  08230-234-002-0  07:31      00040  08230-231-002-0  07:35  
    00041  08230-247-003-0  07:35      00042  08230-249-008-0  07:37   
    00043  08230-258-003-0  07:37      00044  08160-231-005-1  07:39  Y
    00045  08230-237-003-0  07:41      00046  08230-252-005-0  07:41  
    00047  08230-300-025-0  07:41      00048  08230-252-006-0  07:43  
    00049  08230-231-003-0  07:45      00050  08230-234-003-0  07:45   
    00051  08230-252-007-0  07:45      00052  08230-252-007-0  07:45  
    00053  08230-258-004-0  07:45      00054  08230-300-027-0  07:45  
    00055  08230-232-001-0  07:49      00056  08230-240-001-0  07:49  
    00057  08230-244-004-0  07:49      00058  08230-246-015-0  07:49  
    00059  08230-300-028-0  07:49  Y    00060  08230-300-029-0  07:49  Y
    00061  08230-234-004-0  07:52      00062  08230-247-004-0  07:52  
    00063  08230-300-031-0  07:52  Y    00064  08230-244-005-0  07:54  
    00065  08230-246-016-0  07:54      00066  08230-249-009-0  07:54  
    00067  08230-300-032-0  07:54      00068  08230-300-033-0  07:54  Y
    00069  08230-300-034-0  07:54  Y    00070  08230-300-036-0  07:54  
    00071  08230-300-038-0  07:54  Y    00072  08230-234-005-0  07:58  
    00073  08230-246-017-0  07:58      00074  08230-247-005-0  07:58  
    00075  08230-265-006-0  07:58      00076  08230-300-043-0  07:58  Y
    00077  08230-244-006-0  08:02      00078  08230-300-046-0  08:02  Y
    00079  08230-300-048-0  08:02  Y    00080  08230-300-049-0  08:02  
    00081  08230-300-051-0  08:02  Y    00082  08230-300-052-0  08:02  
    00083  08230-300-056-0  08:02      00084  08230-244-007-0  08:04   
    00085  08230-240-003-0  08:06      00086  08230-240-004-0  08:06   
    00087  08230-244-006-1  08:06  C    00088  08230-246-019-0  08:06  
    00089  08230-247-006-0  08:06      00090  08230-249-010-0  08:06  
    00091  08230-300-059-0  08:06  Y    00092  08230-300-062-0  08:06  
    00093  08230-300-065-0  08:06  Y    00094  08230-400-030-0  08:06  
    00095  08230-240-003-1  08:08  C    00096  08230-248-001-0  08:08  
    00097  08230-221-001-0  08:10       00098  08230-232-002-0  08:10  
    00099  08230-300-078-0  08:10      00100  08230-215-001-0  08:14  
    00101  08230-220-001-0  08:14      00102  08230-253-001-0  08:14  
    00103  08230-265-007-0  08:14      00104  08230-265-008-0  08:14   
    00105  08230-274-001-0  08:14      00106  08230-300-085-0  08:14  Y
    00107  08230-300-090-0  08:14  Y    00108  08230-300-093-0  08:14  Y
    00109  08230-231-008-0  08:18      00110  08230-234-006-0  08:18  
    00111  08230-236-001-0  08:18  Y    00112  08230-236-002-0  08:18  Y
    00113  08230-236-003-0  08:18  Y    00114  08230-247-007-0  08:18  
    00115  08230-300-101-0  08:18      00116  08230-236-004-0  08:19  Y
    00117  08230-236-005-0  08:21  Y    00118  08230-257-009-0  08:21  Y
    00119  08230-218-001-0  08:23      00120  08230-236-006-0  08:23  Y
    00121  08230-236-007-0  08:23  Y    00122  08230-236-008-0  08:23  Y
    00123  08230-245-002-0  08:23      00124  08230-257-010-0  08:23  Y
    00125  08230-300-109-0  08:23      00126  08230-300-114-0  08:23  
    00127  08230-300-115-0  08:23      00128  08230-220-002-0  08:25  
    00129  08230-220-003-0  08:25      00130  08230-221-002-0  08:25  
    00131  08230-257-011-0  08:25  Y    00132  08230-258-008-0  08:25  Y
    00133  08230-258-009-0  08:25  Y    00134  08230-300-117-0  08:25  Y
    00135  08230-220-003-1  08:27  C    00136  08230-220-004-0  08:27   
    00137  08230-221-003-0  08:27      00138  08230-236-009-0  08:27   
    00139  08230-237-005-0  08:27  Y    00140  08230-244-010-0  08:27  
    00141  08230-248-003-0  08:27  Y    00142  08230-270-002-0  08:27  Y
    00143  08230-300-118-0  08:27      00144  08230-300-119-0  08:27  
    00145  08230-300-120-0  08:27  Y    00146  08230-300-122-0  08:27  Y
    00147  08230-250-004-0  08:29      00148  08230-250-005-0  08:31  
    00149  08230-252-012-0  08:31      00150  08230-252-012-0  08:31  
    00151  08230-265-011-0  08:31      00152  08230-300-128-0  08:31  Y
    00153  08230-300-130-0  08:31  Y    00154  08230-300-133-0  08:33  
    00155  08230-300-134-0  08:33  Y    00156  08220-269-002-0  08:35  
    00157  08230-240-008-0  08:35      00158  08230-245-003-0  08:35  
    00159  08230-258-010-0  08:35      00160  08230-270-003-0  08:35  Y
    00161  08230-274-003-0  08:35      00162  08230-300-137-0  08:35  Y
    00163  08230-300-138-0  08:35  Y    00164  08230-300-138-0  08:35  Y
    00165  08230-300-140-0  08:35  Y    00166  08230-300-144-0  08:35  Y
    00167  08230-300-145-0  08:35      00168  08230-266-003-0  08:37  Y
    00169  08230-210-004-0  08:39  Y    00170  08230-237-006-0  08:39  
    00171  08220-269-003-0  08:41       00172  08230-236-010-0  08:41  
    00173  08230-247-009-0  08:41      00174  08230-252-013-0  08:41  
    00175  08230-253-004-0  08:41      00176  08230-258-011-0  08:41  
    00177  08180-300-276-2  08:43  Y    00178  08230-213-002-0  08:43  
    00179  08230-221-005-0  08:43      00180  08230-250-006-0  08:43  
    00181  08230-265-012-0  08:43      00182  08230-300-155-0  08:43  
    00183  08220-269-004-0  08:45      00184  08230-216-005-0  08:46  Y
    00185  08230-216-006-0  08:46  Y    00186  08230-218-003-0  08:46  
    00187  08230-220-006-0  08:46      00188  08230-222-004-0  08:46  
    00189  08230-257-013-0  08:46      00190  08230-300-158-0  08:46  
    00191  08220-269-005-0  08:49       00192  08220-269-006-0  08:49   
    00193  08230-218-004-0  08:50      00194  08230-244-013-0  08:50  Y
    00195  08230-252-014-0  08:50      00196  08230-220-007-0  08:52  
    00197  08230-249-013-0  08:52      00198  08230-300-166-0  08:52  
    00199  08230-220-008-0  08:54      00200  08230-231-011-0  08:54  
    00201  08230-245-009-0  08:54      00202  08230-300-171-0  08:54  
    00203  08230-236-013-0  08:58      00204  08230-244-015-0  08:58  
    00205  08230-250-008-0  08:58      00206  08230-252-015-0  08:58  
    00207  08230-300-176-0  08:58      00208  08230-236-014-0  09:02   
    00209  08230-247-012-0  09:02  Y    00210  08230-247-013-0  09:02  Y
    00211  08230-258-014-0  09:02      00212  08230-267-007-0  09:02  
    00213  08230-270-012-0  09:02      00214  08230-232-006-0  09:04  
    00215  08230-300-181-0  09:04  Y    00216  08230-220-010-0  09:06   
    00217  08230-221-008-0  09:06      00218  08230-236-015-0  09:06  
    00219  08230-247-014-0  09:06  Y    00220  08230-249-014-0  09:06  
    00221  08230-253-007-0  09:06      00222  08230-300-184-0  09:06  Y
    00223  08230-300-185-0  09:06  Y    00224  08230-300-186-0  09:06  
    00225  08230-300-187-0  09:06  Y    00226  08230-300-188-0  09:06  Y
    00227  08230-300-189-0  09:06      00228  08230-211-001-0  09:08  Y
    00229  08230-237-008-0  09:08      00230  08230-244-016-0  09:08  
    00231  08230-300-190-0  09:08  Y    00232  08230-300-191-0  09:08  Y
    00233  08230-300-192-0  09:08  Y    00234  08230-300-194-0  09:08  Y
    00235  08110-300-421-1  09:10  Y    00236  08230-218-008-0  09:10  
    00237  08230-235-001-0  09:10       00238  08230-239-001-0  09:10  
    00239  08230-240-012-0  09:10      00240  08230-244-017-0  09:10   
    00241  08230-247-016-0  09:10  Y    00242  08230-254-001-0  09:10  
    00243  08230-254-001-0  09:10      00244  08230-260-003-0  09:10  
    00245  08230-267-008-0  09:10      00246  08230-300-197-0  09:10  Y
    00247  08230-300-199-0  09:10  Y    00248  08230-236-016-0  09:13  
    00249  08230-247-017-0  09:13  Y    00250  08230-247-018-0  09:13  Y
    00251  08230-300-200-0  09:13  Y    00252  08230-300-204-0  09:13  Y
    00253  08230-215-005-0  09:15  Y    00254  08230-235-002-0  09:15   
    00255  08230-237-009-0  09:15      00256  08230-245-012-0  09:15  
    00257  08230-259-001-0  09:15      00258  08230-259-002-0  09:15   
    00259  08230-300-205-0  09:15  Y    00260  08230-300-206-0  09:15  Y
    00261  08230-300-209-0  09:15       00262  08230-300-209-0  09:15   
    00263  08180-231-030-1  09:19  Y    00264  08230-211-002-0  09:19  
    00265  08230-235-003-0  09:19      00266  08230-248-008-0  09:19  
    00267  08230-300-210-0  09:19      00268  08230-300-212-0  09:19  
    00269  08180-249-024-1  09:23  Y    00270  08230-213-019-0  09:23  
    00271  08230-253-008-0  09:23       00272  08230-263-001-0  09:23  
    00273  08230-266-007-0  09:23  Y    00274  08230-267-009-0  09:23  
    00275  08230-300-217-0  09:23      00276  08230-300-222-0  09:23  Y
    00277  08230-236-017-0  09:25      00278  08230-240-013-0  09:25  
    00279  08230-259-003-0  09:25      00280  08230-266-008-0  09:25  Y
    00281  08230-300-224-0  09:25  Y    00282  08230-213-020-0  09:27   
    00283  08230-221-010-0  09:27      00284  08230-232-008-0  09:27  
    00285  08230-258-015-0  09:27      00286  08230-263-002-0  09:27   
    00287  08230-300-225-0  09:27  Y    00288  08230-300-226-0  09:27  Y
    00289  08230-300-227-0  09:27      00290  08230-300-228-0  09:27  Y
    00291  08230-300-229-0  09:27  Y    00292  08230-300-230-0  09:27  Y
    00293  08230-300-231-0  09:27  Y    00294  08230-300-232-0  09:27  Y
    00295  08230-300-234-0  09:27  Y    00296  08230-300-236-0  09:27  
    00297  08230-300-237-0  09:27       00298  08230-300-237-0  09:27   
    00299  08230-300-239-0  09:27  Y    00300  08180-253-031-1  09:29  Y
    00301  08230-221-011-0  09:29      00302  08230-237-010-0  09:29  
    00303  08230-300-242-0  09:29  Y    00304  08230-300-244-0  09:29   
    00305  08230-300-246-0  09:29  Y    00306  08230-215-006-0  09:31  
    00307  08230-300-251-0  09:31      00308  08230-300-253-0  09:31  Y
    00309  08230-300-254-0  09:31      00310  08230-300-259-0  09:31  Y
    00311  08230-300-261-0  09:31      00312  08230-300-262-0  09:34  Y
    00313  08230-300-266-0  09:34      00314  08230-300-267-0  09:34  Y
    00315  08230-300-269-0  09:34  Y    00316  08230-300-270-0  09:34  Y
    00317  08230-300-273-0  09:34  Y    00318  08230-238-003-0  09:36  
    00319  08230-263-003-0  09:36      00320  08230-300-275-0  09:36  Y
    00321  08230-300-277-0  09:36  Y    00322  08230-300-278-0  09:36  
    00323  08230-300-279-0  09:36  Y    00324  08230-300-281-0  09:36  Y
    00325  08230-300-283-0  09:36  Y    00326  08230-300-284-0  09:36  Y
    00327  08230-300-285-0  09:36  Y    00328  08230-300-286-0  09:36  Y
    00329  08230-213-021-0  09:38      00330  08230-256-004-0  09:38  
    00331  08230-300-287-0  09:38  Y    00332  08230-300-288-0  09:38  Y
    00333  08230-300-289-0  09:38      00334  08230-300-291-0  09:38  
    00335  08230-300-292-0  09:38  Y    00336  08230-300-293-0  09:38  
    00337  08230-300-294-0  09:38  Y    00338  08230-300-295-0  09:38  
    00339  08230-210-009-0  09:40      00340  08230-244-019-0  09:40  Y
    00341  08230-259-005-0  09:40      00342  08230-260-004-0  09:40  
    00343  08230-270-016-0  09:40      00344  08230-300-296-0  09:40  Y
    00345  08230-300-297-0  09:40  Y    00346  08230-300-298-0  09:40  Y
    00347  08230-300-300-0  09:40  Y    00348  08230-300-301-0  09:40  Y
    00349  08230-300-303-0  09:40  Y    00350  08230-244-020-0  09:42  Y
    00351  08230-248-010-0  09:42      00352  08230-250-012-0  09:42  
    00353  08230-300-306-0  09:42  Y    00354  08230-300-307-0  09:42  
    00355  08230-300-309-0  09:42  Y    00356  08230-300-311-0  09:42  Y
    00357  08230-300-313-0  09:42  Y    00358  08230-300-315-0  09:42  
    00359  08230-300-315-0  09:42      00360  08230-300-317-0  09:42  Y
    00361  08230-300-318-0  09:44      00362  08230-300-319-0  09:44   
    00363  08230-300-320-0  09:44  Y    00364  08230-300-322-0  09:44  Y
    00365  08230-300-325-0  09:44  Y    00366  08230-300-328-0  09:44  Y
    00367  08230-300-329-0  09:44      00368  08230-300-330-0  09:44  Y
    00369  08230-232-009-0  09:46      00370  08230-238-004-0  09:46  
    00371  08230-239-005-0  09:46      00372  08230-267-012-0  09:46  
    00373  08230-300-331-0  09:46  Y    00374  08230-300-333-0  09:46  
    00375  08230-300-334-0  09:46  Y    00376  08230-300-339-0  09:46   
    00377  08230-210-010-0  09:48      00378  08230-221-013-0  09:48  
    00379  08230-240-015-0  09:48      00380  08230-252-018-0  09:48  
    00381  08230-259-006-0  09:48      00382  08230-300-340-0  09:48  Y
    00383  08230-300-342-0  09:48       00384  08230-300-345-0  09:48  
    00385  08230-300-346-0  09:48      00386  08230-300-348-0  09:48  
    00387  08230-300-350-0  09:48  Y    00388  08230-215-008-0  09:50  
    00389  08230-235-006-0  09:50      00390  08230-250-013-0  09:50  
    00391  08230-256-005-0  09:50      00392  08230-270-018-0  09:50  
    00393  08230-300-352-0  09:50       00394  08230-300-354-0  09:50  
    00395  08230-300-355-0  09:50       00396  08230-300-358-0  09:50   
    00397  08230-210-011-0  09:52      00398  08230-216-010-0  09:52  
    00399  08230-216-010-0  09:52      00400  08230-247-022-0  09:52  
    00401  08230-249-017-0  09:52      00402  08230-266-010-0  09:52   
    00403  08230-270-019-0  09:52  Y    00404  08230-274-012-0  09:52  
    00405  08230-300-359-0  09:52      00406  08230-300-360-0  09:52  
    00407  08230-300-362-0  09:52      00408  08230-300-364-0  09:52  
    00409  08230-210-012-0  09:55      00410  08230-231-018-0  09:55  
    00411  08230-247-023-0  09:55      00412  08230-248-011-0  09:55  
    00413  08230-265-019-0  09:55      00414  08230-300-366-0  09:55  
    00415  08230-300-367-0  09:55      00416  08230-300-371-0  09:55  
    00417  08230-300-371-0  09:55      00418  08230-300-372-0  09:55  
    00419  08230-300-373-0  09:55      00420  08230-300-374-0  09:55   
    00421  08230-210-013-0  09:57       00422  08230-210-014-0  09:57  
    00423  08230-247-024-0  09:57      00424  08230-300-375-0  09:57   
    00425  08230-300-375-0  09:57       00426  08230-300-376-0  09:57   
    00427  08170-274-029-1  09:59  Y    00428  08230-239-007-0  09:59  
    00429  08230-240-016-0  09:59      00430  08230-249-018-0  09:59  
    00431  08230-300-379-0  09:59  Y    00432  08230-300-382-0  09:59  
    00433  08230-300-383-0  09:59      00434  08230-300-385-0  09:59   
    00435  08230-300-386-0  09:59  Y    00436  08230-300-387-0  09:59  
    00437  08230-300-389-0  10:01      00438  08230-300-390-0  10:01  Y
    00439  08230-300-391-0  10:01      00440  08230-300-394-0  10:01  
    00441  08230-300-395-0  10:01  Y    00442  08230-222-009-0  10:03  
    00443  08230-237-012-0  10:03      00444  08230-237-013-0  10:03   
    00445  08230-247-027-0  10:03      00446  08230-247-028-0  10:03  
    00447  08230-253-011-0  10:03      00448  08230-300-396-0  10:03  
    00449  08230-300-397-0  10:03      00450  08230-300-398-0  10:03  
    00451  08230-300-399-0  10:03  Y    00452  08230-300-401-0  10:03  Y
    00453  08230-300-402-0  10:03      00454  08230-300-402-0  10:03  
    00455  08230-300-405-0  10:03  Y    00456  08230-300-406-0  10:03  
    00457  08230-248-013-0  10:05      00458  08230-300-407-0  10:05  Y
    00459  08230-300-408-0  10:05      00460  08230-300-410-0  10:05  Y
    00461  08230-300-411-0  10:05  Y    00462  08230-300-412-0  10:05   
    00463  08230-300-413-0  10:05      00464  08230-300-414-0  10:05  
    00465  08230-300-415-0  10:05  Y    00466  08230-300-418-0  10:05  Y
    00467  08230-300-419-0  10:05  Y    00468  08230-300-421-0  10:05  Y
    00469  08230-300-422-0  10:05      00470  08230-300-423-0  10:05  Y
    00471  08230-215-009-0  10:07      00472  08230-220-017-0  10:07  
    00473  08230-237-014-0  10:07      00474  08230-249-019-0  10:07  
    00475  08230-260-007-0  10:07      00476  08230-300-425-0  10:07  Y
    00477  08230-300-427-0  10:07  Y    00478  08230-300-428-0  10:07  Y
    00479  08230-300-429-0  10:07  Y    00480  08230-300-430-0  10:07  
    00481  08230-300-431-0  10:07  Y    00482  08230-300-432-0  10:07  Y
    00483  08230-300-435-0  10:07       00484  08230-300-436-0  10:07  Y
    00485  08230-300-437-0  10:07  Y    00486  08230-300-438-0  10:07  
    00487  08230-218-011-0  10:09      00488  08230-220-018-0  10:09  
    00489  08230-221-015-0  10:09      00490  08230-221-015-0  10:09  
    00491  08230-239-008-0  10:09      00492  08230-240-017-0  10:09  
    00493  08230-248-014-0  10:09      00494  08230-254-006-0  10:09  
    00495  08230-300-439-0  10:09  Y    00496  08230-300-440-0  10:09  
    00497  08230-300-441-0  10:09      00498  08230-300-442-0  10:09  Y
    00499  08230-300-444-0  10:09      00500  08230-300-445-0  10:09  
    00501  08230-222-010-0  10:11       00502  08230-237-015-0  10:11  
    00503  08230-250-016-0  10:11      00504  08230-259-008-0  10:11  
    00505  08230-300-447-0  10:11      00506  08230-300-450-0  10:11  
    00507  08230-300-451-0  10:11  Y    00508  08230-300-452-0  10:11  
    00509  08230-300-454-0  10:11      00510  08230-300-455-0  10:11  
    00511  08230-249-020-0  10:13  Y    00512  08230-265-021-0  10:13  
    00513  08230-300-457-0  10:13  Y    00514  08230-300-457-0  10:13  Y
    00515  08230-300-458-0  10:13  Y    00516  08230-300-461-0  10:13  
    00517  08220-269-011-0  10:14      00518  08230-235-009-0  10:16  
    00519  08230-239-009-0  10:16      00520  08230-244-029-0  10:16  
    00521  08230-300-463-0  10:16      00522  08230-300-464-0  10:16  
    00523  08230-210-016-0  10:18      00524  08230-215-010-0  10:18   
    00525  08230-247-029-0  10:18      00526  08230-250-017-0  10:18   
    00527  08230-252-021-0  10:18      00528  08230-265-022-0  10:18   
    00529  08230-265-023-0  10:18       00530  08230-265-024-0  10:18   
    00531  08230-270-021-0  10:18      00532  08230-300-465-0  10:18  Y
    00533  08230-300-466-0  10:18       00534  08230-300-467-0  10:18  
    00535  08230-221-016-0  10:20       00536  08230-254-007-0  10:20  
    00537  08230-300-468-0  10:20       00538  08230-300-469-0  10:20  
    00539  08220-269-012-0  10:22      00540  08230-232-012-0  10:22  
    00541  08230-256-008-0  10:22      00542  08230-300-471-0  10:22  
    00543  08230-300-472-0  10:22  Y    00544  08230-300-474-0  10:22  Y
    00545  08230-300-475-0  10:22      00546  08230-300-477-0  10:22  Y
    00547  08230-300-478-0  10:22  Y    00548  08230-300-479-0  10:24  Y
    00549  08230-300-480-0  10:24      00550  08230-232-013-0  10:26  Y
    00551  08230-247-030-0  10:26      00552  08230-259-009-0  10:26  
    00553  08230-260-008-0  10:26      00554  08230-265-025-0  10:26  
    00555  08230-300-481-0  10:26  Y    00556  08230-300-483-0  10:26  Y
    00557  08230-300-486-0  10:26      00558  08180-249-024-2  10:28  Y
    00559  08230-244-030-0  10:28      00560  08230-250-018-0  10:28  
    00561  08230-266-011-0  10:28      00562  08230-300-494-0  10:28  
    00563  08230-300-495-0  10:28       00564  08230-216-012-0  10:30  
    00565  08230-216-013-0  10:30      00566  08230-234-018-0  10:30  
    00567  08230-240-018-0  10:30      00568  08230-248-015-0  10:30  
    00569  08230-260-009-0  10:30      00570  08230-300-501-0  10:30   
    00571  08230-300-503-0  10:30      00572  08230-300-505-0  10:30  
    00573  08230-270-023-0  10:32       00574  08220-269-014-0  10:34  
    00575  08230-220-020-0  10:34       00576  08230-231-022-0  10:34  
    00577  08230-237-017-0  10:34      00578  08230-300-507-0  10:34  
    00579  08230-300-508-0  10:34      00580  08230-300-509-0  10:34  
    00581  08230-300-510-0  10:34      00582  08230-300-511-0  10:34  
    00583  08230-300-513-0  10:34      00584  08230-213-024-0  10:36  
    00585  08230-248-016-0  10:36       00586  08230-214-004-0  10:38  
    00587  08230-239-011-0  10:38      00588  08230-266-012-0  10:38  
    00589  08230-300-518-0  10:38      00590  08230-300-519-0  10:38  
    00591  08230-300-520-0  10:38      00592  08230-300-522-0  10:38  
    00593  08230-300-524-0  10:38      00594  08230-300-527-0  10:38  
    00595  08230-213-021-1  10:41  C    00596  08230-252-023-0  10:41  
    00597  08230-253-013-0  10:41      00598  08230-300-529-0  10:41  
    00599  08230-300-530-0  10:41      00600  08230-220-021-0  10:43  
    00601  08230-232-014-0  10:43      00602  08230-234-019-0  10:43  
    00603  08230-247-033-0  10:43       00604  08230-259-011-0  10:43  
    00605  08230-265-028-0  10:43      00606  08230-300-534-0  10:43  
    00607  08230-300-535-0  10:43      00608  08230-300-536-0  10:43  
    00609  08230-300-537-0  10:43  Y    00610  08230-254-008-0  10:45  
    00611  08230-257-018-0  10:45      00612  08230-258-026-0  10:47  
    00613  08230-300-540-0  10:47      00614  08230-300-541-0  10:47  
    00615  08230-300-543-0  10:47       00616  08230-300-545-0  10:47  
    00617  08230-300-546-0  10:47      00618  08230-237-019-0  10:51  
    00619  08230-239-012-0  10:51      00620  08230-245-015-0  10:51   
    00621  08230-300-554-0  10:51      00622  08230-300-555-0  10:51  
    00623  08230-300-557-0  10:51      00624  08230-300-558-0  10:51  
    00625  08230-300-559-0  10:51      00626  08230-214-005-0  10:53  
    00627  08230-257-019-0  10:53       00628  08230-300-560-0  10:53  
    00629  08230-216-016-0  10:55      00630  08230-253-015-0  10:55  
    00631  08230-257-020-0  10:55       00632  08230-259-012-0  10:55  
    00633  08230-300-468-1  10:55  C    00634  08230-300-564-0  10:55  
    00635  08230-300-565-0  10:55      00636  08230-300-566-0  10:55  
    00637  08230-300-567-0  10:55       00638  08230-300-572-0  10:55  
    00639  08230-245-016-0  10:57       00640  08230-248-018-0  10:57  
    00641  08230-257-021-0  10:57       00642  08230-300-573-0  10:57  
    00643  08230-300-574-0  10:57      00644  08230-300-575-0  10:57  
    00645  08230-300-576-0  10:57      00646  08180-300-499-1  10:59  Y
    00647  08230-222-011-0  10:59      00648  08230-300-577-0  10:59  Y
    00649  08230-300-581-0  10:59  Y    00650  08230-300-582-0  10:59  
    00651  08230-300-583-0  10:59  Y    00652  08230-222-012-0  11:01   
    00653  08230-232-015-0  11:01      00654  08230-270-026-0  11:01  
    00655  08230-300-586-0  11:01      00656  08230-300-587-0  11:01  Y
    00657  08230-300-588-0  11:01      00658  08160-249-034-1  11:03  Y
    00659  08230-222-011-1  11:03  C    00660  08230-232-016-0  11:03   
    00661  08230-238-010-0  11:03      00662  08230-253-016-0  11:03  
    00663  08230-259-013-0  11:03      00664  08230-260-012-0  11:03  
    00665  08230-300-589-0  11:03  Y    00666  08230-300-590-0  11:03  
    00667  08230-300-591-0  11:03      00668  08230-300-592-0  11:03  
    00669  08230-300-593-0  11:03      00670  08230-300-594-0  11:03  
    00671  08230-300-594-1  11:03  C    00672  08230-300-595-0  11:03  
    00673  08230-300-596-0  11:03      00674  08230-300-597-0  11:03  
    00675  08230-252-026-0  11:05      00676  08230-258-028-0  11:05  
    00677  08230-300-598-0  11:05      00678  08230-300-599-0  11:05  Y
    00679  08230-300-601-0  11:05      00680  08160-234-017-2  11:08  Y
    00681  08230-248-019-0  11:08      00682  08230-253-017-0  11:08  
    00683  08230-300-603-0  11:08      00684  08230-300-604-0  11:08  
    00685  08230-300-607-0  11:08      00686  08230-300-608-0  11:08  
    00687  08220-269-015-0  11:09      00688  08230-211-003-0  11:10   
    00689  08230-235-013-0  11:10      00690  08230-300-609-0  11:10  
    00691  08230-300-610-0  11:10      00692  08230-300-612-0  11:10  
    00693  08230-300-614-0  11:10      00694  08230-270-027-0  11:12  
    00695  08230-300-615-0  11:12      00696  08230-300-616-0  11:12  
    00697  08230-300-617-0  11:12      00698  08230-300-621-0  11:12  
    00699  08230-238-012-0  11:14      00700  08230-248-020-0  11:14  
    00701  08230-267-022-0  11:14       00702  08230-270-028-0  11:14  
    00703  08230-300-623-0  11:14      00704  08230-300-624-0  11:14  
    00705  08230-300-625-0  11:14      00706  08230-300-626-0  11:14  
    00707  08230-300-627-0  11:14      00708  08230-300-628-0  11:14  
    00709  08230-222-013-0  11:16       00710  08230-239-015-0  11:16  
    00711  08230-248-021-0  11:16      00712  08230-260-013-0  11:16  
    00713  08230-300-629-0  11:16      00714  08230-300-630-0  11:16  
    00715  08230-300-631-0  11:16      00716  08230-300-632-0  11:16  
    00717  08230-300-632-0  11:16      00718  08230-236-019-0  11:18  
    00719  08230-237-021-0  11:18      00720  08230-239-016-0  11:18  
    00721  08230-250-019-0  11:18      00722  08230-300-562-0  11:18  
    00723  08230-300-635-0  11:18      00724  08230-300-638-0  11:18  
    00725  08230-300-641-0  11:18      00726  08230-300-642-0  11:18  
    00727  08230-220-025-0  11:20      00728  08230-239-017-0  11:20  
    00729  08230-244-046-0  11:20      00730  08230-300-644-0  11:20  
    00731  08230-300-647-0  11:20      00732  08230-300-649-0  11:20  
    00733  08230-220-026-0  11:22      00734  08230-222-013-1  11:22  C
    00735  08230-222-014-0  11:22       00736  08230-222-015-0  11:22   
    00737  08230-244-047-0  11:22       00738  08230-260-014-0  11:22  
    00739  08230-267-024-0  11:22      00740  08230-300-650-0  11:22  
    00741  08230-300-651-0  11:22      00742  08230-300-653-0  11:22  
    00743  08230-300-654-0  11:22      00744  08230-300-654-0  11:22  
    00745  08230-300-657-0  11:22      00746  08230-300-658-0  11:22  
    00747  08230-300-659-0  11:22      00748  08230-300-660-0  11:22  
    00749  08220-269-016-0  11:25       00750  08230-216-018-0  11:26  
    00751  08230-220-027-0  11:26       00752  08230-234-022-0  11:26  
    00753  08230-238-013-0  11:26      00754  08230-239-018-0  11:26  
    00755  08230-245-020-0  11:26      00756  08230-260-015-0  11:26  
    00757  08230-300-662-0  11:26      00758  08230-300-669-0  11:26  
    00759  08230-300-672-0  11:26      00760  08230-300-673-0  11:26  
    00761  08230-249-027-0  11:28      00762  08230-300-674-0  11:28  
    00763  08230-221-021-0  11:31      00764  08230-239-019-0  11:31  Y
    00765  08230-240-033-0  11:31      00766  08230-300-678-0  11:31  
    00767  08230-300-679-0  11:31      00768  08230-300-680-0  11:31  
    00769  08230-300-682-0  11:31      00770  08230-300-684-0  11:31  
    00771  08230-300-685-0  11:31      00772  08230-300-687-0  11:31  
    00773  08230-300-688-0  11:31      00774  08230-238-014-0  11:33  
    00775  08230-244-048-0  11:33      00776  08230-253-019-0  11:33  
    00777  08230-260-016-0  11:33      00778  08230-300-689-0  11:33  
    00779  08230-300-691-0  11:33      00780  08230-220-028-0  11:35  
    00781  08230-236-020-0  11:35      00782  08230-237-022-0  11:35  
    00783  08230-250-023-0  11:35       00784  08230-263-019-0  11:35   
    00785  08230-300-692-0  11:35      00786  08230-300-693-0  11:35  
    00787  08230-300-695-0  11:35      00788  08230-300-697-0  11:35   
    00789  08230-300-698-0  11:35      00790  08230-300-699-0  11:35  
    00791  08230-300-703-0  11:35      00792  08230-300-703-0  11:35  
    00793  08230-300-704-0  11:35      00794  08230-300-705-0  11:35   
    00795  08230-300-707-0  11:35      00796  08230-235-014-0  11:37  
    00797  08230-235-014-0  11:37      00798  08230-245-022-0  11:37  
    00799  08230-260-017-0  11:37      00800  08230-300-708-0  11:37  
    00801  08230-300-710-0  11:37  Y    00802  08230-300-711-0  11:37  
    00803  08230-300-714-0  11:37      00804  08180-300-301-4  11:39  Y
    00805  08230-216-019-0  11:39      00806  08230-300-715-0  11:39  
    00807  08230-300-718-0  11:39      00808  08230-300-720-0  11:39  
    00809  08230-300-724-0  11:39      00810  08230-300-727-0  11:39  
    00811  08230-300-728-0  11:39      00812  08230-300-730-0  11:39  
    00813  08230-250-024-0  11:41       00814  08230-253-020-0  11:41  
    00815  08230-300-731-0  11:41      00816  08230-300-732-0  11:41  
    00817  08230-300-734-0  11:41      00818  08230-300-737-0  11:41   
    00819  08230-300-740-0  11:41      00820  08230-300-742-0  11:41  
    00821  08230-234-024-0  11:43      00822  08230-300-743-0  11:43  
    00823  08230-300-745-0  11:43       00824  08230-300-746-0  11:43  
    00825  08230-300-748-0  11:43      00826  08230-300-749-0  11:43  
    00827  08230-300-753-0  11:43      00828  08230-300-755-0  11:43  
    00829  08230-300-756-0  11:43      00830  08230-300-757-0  11:43  
    00831  08230-300-758-0  11:43      00832  08230-300-760-0  11:43  
    00833  08230-232-017-0  11:45      00834  08230-300-761-0  11:45  
    00835  08230-300-762-0  11:45      00836  08230-300-763-0  11:45  Y
    00837  08230-300-764-0  11:45      00838  08230-300-766-0  11:45  
    00839  08230-235-015-0  11:47      00840  08230-248-023-0  11:47  
    00841  08230-300-767-0  11:47      00842  08230-300-770-0  11:47   
    00843  08230-300-771-0  11:47      00844  08230-300-773-0  11:47  
    00845  08230-300-774-0  11:47      00846  08230-300-775-0  11:47  
    00847  08230-300-778-0  11:47      00848  08230-245-023-0  11:49  
    00849  08230-300-783-0  11:49       00850  08230-300-785-0  11:49  
    00851  08230-300-786-0  11:49      00852  08230-300-787-0  11:49  
    00853  08230-300-788-0  11:49      00854  08230-220-030-0  11:51  
    00855  08230-267-028-0  11:51      00856  08230-300-790-0  11:51  
    00857  08230-300-794-0  11:51      00858  08230-300-798-0  11:51  
    00859  08230-300-802-0  11:51      00860  08230-300-803-0  11:51   
    00861  08230-300-804-0  11:51      00862  08230-250-026-0  11:54  
    00863  08230-253-021-0  11:54      00864  08230-300-808-0  11:54  
    00865  08230-300-811-0  11:54      00866  08230-300-812-0  11:54  
    00867  08230-300-812-0  11:54      00868  08230-300-813-0  11:54  
    00869  08230-300-814-0  11:54       00870  08230-300-815-0  11:54  
    00871  08230-300-816-0  11:54      00872  08230-240-036-0  11:56  
    00873  08230-300-819-0  11:56      00874  08230-300-821-0  11:56  
    00875  08230-300-823-0  11:56      00876  08230-300-824-0  11:56   
    00877  08230-300-825-0  11:56      00878  08230-300-825-0  11:56  
    00879  08230-300-829-0  11:56      00880  08230-235-016-0  11:58  
    00881  08230-250-027-0  11:58       00882  08230-254-012-0  11:58  
    00883  08230-263-021-0  11:58      00884  08230-300-830-0  11:58   
    00885  08230-300-834-0  11:58      00886  08230-300-835-0  11:58   
    00887  08230-300-836-0  11:58      00888  08230-300-837-0  11:58  
    00889  08230-300-840-0  11:58      00890  08230-236-024-0  12:00  
    00891  08230-244-051-0  12:00       00892  08230-274-030-0  12:00  
    00893  08230-300-841-0  12:00      00894  08230-300-842-0  12:00  
    00895  08230-300-843-0  12:00      00896  08230-300-845-0  12:00  
    00897  08230-238-017-0  12:02      00898  08230-263-022-0  12:02  
    00899  08230-267-030-0  12:02       00900  08230-300-846-0  12:02  
    00901  08230-300-848-0  12:02      00902  08230-300-849-0  12:02  
    00903  08230-300-851-0  12:02      00904  08230-300-853-0  12:02  
    00905  08230-300-854-0  12:02      00906  08230-300-855-0  12:02  
    00907  08230-300-856-0  12:02      00908  08230-400-033-0  12:02  Y
    00909  08230-400-035-0  12:02  Y    00910  08230-240-037-0  12:04  
    00911  08230-267-031-0  12:04       00912  08230-270-033-0  12:04  
    00913  08230-300-857-0  12:04      00914  08230-300-859-0  12:04  
    00915  08230-300-861-0  12:04      00916  08230-300-862-0  12:04  
    00917  08230-300-863-0  12:04      00918  08230-214-009-0  12:06  
    00919  08230-239-021-0  12:06      00920  08230-240-038-0  12:06   
    00921  08230-254-013-0  12:06      00922  08230-259-016-0  12:06  
    00923  08230-300-865-0  12:06      00924  08230-300-866-0  12:06  
    00925  08230-300-868-0  12:06      00926  08230-300-869-0  12:06  
    00927  08230-300-870-0  12:06      00928  08230-300-871-0  12:06  
    00929  08230-300-872-0  12:06      00930  08230-300-874-0  12:06  
    00931  08230-240-037-1  12:08  C    00932  08230-244-052-0  12:08  
    00933  08230-270-034-0  12:08      00934  08230-300-877-0  12:08  
    00935  08230-300-878-0  12:08      00936  08230-300-879-0  12:08  
    00937  08230-300-880-0  12:08      00938  08230-231-024-0  12:10  
    00939  08230-258-029-0  12:10      00940  08230-300-882-0  12:10  
    00941  08230-300-884-0  12:10      00942  08230-300-885-0  12:10  
    00943  08230-300-886-0  12:10      00944  08230-300-888-0  12:10  
    00945  08230-300-889-0  12:10      00946  08230-220-033-0  12:12   
    00947  08230-221-024-0  12:12      00948  08230-222-016-0  12:12  
    00949  08230-232-019-0  12:12      00950  08230-300-891-0  12:12  
    00951  08230-300-892-0  12:12      00952  08230-300-894-0  12:12  
    00953  08230-300-895-0  12:12      00954  08230-300-898-0  12:12  
    00955  08230-300-900-0  12:12      00956  08230-300-902-0  12:12  
    00957  08230-300-903-0  12:12      00958  08230-300-905-0  12:12  
    00959  08230-300-906-0  12:12      00960  08230-220-034-0  12:14   
    00961  08230-236-025-0  12:14      00962  08230-236-025-0  12:14  
    00963  08230-256-016-0  12:14      00964  08230-267-032-0  12:14  
    00965  08230-300-907-0  12:14      00966  08230-300-908-0  12:14  
    00967  08230-300-909-0  12:14      00968  08230-300-911-0  12:14  
    00969  08230-300-913-0  12:14      00970  08230-300-917-0  12:14  
    00971  08230-300-919-0  12:14      00972  08230-300-920-0  12:14  
    00973  08230-231-025-0  12:17      00974  08230-260-019-0  12:17  
    00975  08230-270-035-0  12:17      00976  08230-300-922-0  12:17  
    00977  08230-300-923-0  12:17      00978  08230-300-925-0  12:17  
    00979  08230-300-926-0  12:17      00980  08230-300-927-0  12:17  
    00981  08230-232-020-0  12:19      00982  08230-244-053-0  12:19  
    00983  08230-300-929-0  12:19      00984  08230-300-930-0  12:19  
    00985  08230-300-933-0  12:19      00986  08230-300-934-0  12:19  
    00987  08230-300-935-0  12:19      00988  08230-300-937-0  12:19  
    00989  08230-300-940-0  12:19      00990  08230-300-941-0  12:19  
    00991  08230-300-942-0  12:19      00992  08230-300-943-0  12:19  
    00993  08230-300-944-0  12:21      00994  08030-237-023-1  12:23  Y
    00995  08230-252-028-0  12:23       00996  08230-254-016-0  12:23  
    00997  08230-274-032-0  12:23      00998  08230-274-033-0  12:23   
    00999  08230-300-945-0  12:23      01000  08230-300-946-0  12:23  
    01001  08230-300-947-0  12:23      01002  08230-300-950-0  12:23  
    01003  08230-300-951-0  12:23      01004  08230-300-952-0  12:23  
    01005  08230-300-953-0  12:23      01006  08230-300-954-0  12:23  
    01007  08230-300-955-0  12:23      01008  08230-300-956-0  12:23  
    01009  08230-300-957-0  12:23      01010  08230-300-959-0  12:23  
    01011  08220-269-019-0  12:24      01012  08190-300-358-1  12:25  Y
    01013  08190-300-358-1  12:25  Y    01014  08230-220-025-1  12:25  C
    01015  08230-231-026-0  12:25      01016  08230-232-021-0  12:25  
    01017  08230-238-020-0  12:25       01018  08230-274-032-1  12:25  C
    01019  08230-300-962-0  12:25      01020  08220-269-020-0  12:26  
    01021  08230-220-035-0  12:27      01022  08230-236-026-0  12:27  
    01023  08230-238-021-0  12:27       01024  08230-245-028-0  12:27  
    01025  08230-248-027-0  12:27      01026  08230-257-024-0  12:27  
    01027  08230-270-036-0  12:27       01028  08230-300-963-0  12:27  
    01029  08230-300-964-0  12:27      01030  08230-300-965-0  12:27  
    01031  08230-300-967-0  12:27      01032  08230-300-968-0  12:27  
    01033  08230-300-969-0  12:27      01034  08230-300-970-0  12:27  
    01035  08230-300-974-0  12:27      01036  08230-300-975-0  12:29  
    01037  08230-300-977-0  12:29      01038  08230-300-980-0  12:29  
    01039  08230-300-981-0  12:29      01040  08230-252-029-0  12:31  
    01041  08230-270-037-0  12:31       01042  08230-300-982-0  12:31  
    01043  08230-300-983-0  12:31      01044  08230-300-984-0  12:31  
    01045  08230-300-985-0  12:31      01046  08230-300-989-0  12:31  
    01047  08230-300-990-0  12:31      01048  08230-300-991-0  12:31  
    01049  08230-300-992-0  12:33      01050  08230-300-993-0  12:33  
    01051  08230-300-994-0  12:33      01052  08230-300-997-0  12:33  
    01053  08230-300-998-0  12:33      01054  08230-300-999-0  12:33  
    01055  08190-300-368-1  12:35  Y    01056  08190-300-368-1  12:35  Y
    01057  08230-232-022-0  12:35      01058  08230-245-029-0  12:35  
    01059  08230-259-018-0  12:35      01060  08230-301-002-0  12:35  
    01061  08230-301-005-0  12:35      01062  08230-301-006-0  12:35  
    01063  08230-301-007-0  12:35      01064  08220-269-021-0  12:36  
    01065  08230-236-027-0  12:37      01066  08230-263-025-0  12:37  
    01067  08230-301-008-0  12:37      01068  08230-301-010-0  12:37  
    01069  08230-301-011-0  12:37      01070  08230-301-012-0  12:37  
    01071  08230-301-013-0  12:37      01072  08180-301-453-1  12:39  Y
    01073  08230-232-023-0  12:39      01074  08230-236-028-0  12:39   
    01075  08230-245-030-0  12:39       01076  08230-257-025-0  12:39  
    01077  08230-301-014-0  12:39      01078  08230-301-016-0  12:39  
    01079  08230-301-017-0  12:39      01080  08230-301-018-0  12:39  
    01081  08230-301-019-0  12:39      01082  08230-301-020-0  12:39  
    01083  08230-301-022-0  12:39      01084  08230-301-023-0  12:39  
    01085  08230-214-011-0  12:41      01086  08230-245-031-0  12:41  
    01087  08230-301-024-0  12:41      01088  08230-301-025-0  12:41  
    01089  08230-301-026-0  12:41      01090  08230-301-027-0  12:41  
    01091  08230-301-028-0  12:41      01092  08230-301-029-0  12:41  
    01093  08230-301-030-0  12:41      01094  08230-245-032-0  12:44   
    01095  08230-301-033-0  12:44      01096  08230-301-034-0  12:44  
    01097  08230-301-035-0  12:44      01098  08230-301-038-0  12:44  
    01099  08230-301-039-0  12:44      01100  08230-301-040-0  12:44  
    01101  08230-301-041-0  12:44      01102  08230-301-043-0  12:44  
    01103  08230-231-028-0  12:46      01104  08230-237-023-0  12:46  
    01105  08230-260-020-0  12:46      01106  08230-301-045-0  12:46  
    01107  08230-301-047-0  12:46      01108  08230-301-049-0  12:46  
    01109  08230-301-050-0  12:46      01110  08230-301-051-0  12:46  
    01111  08230-301-052-0  12:46       01112  08230-301-053-0  12:46  
    01113  08230-301-054-0  12:46      01114  08230-301-055-0  12:46  
    01115  08230-301-057-0  12:46      01116  08230-301-058-0  12:48  
    01117  08230-235-020-0  12:50      01118  08230-235-020-0  12:50  
    01119  08230-301-059-0  12:50      01120  08230-301-060-0  12:50  
    01121  08230-301-063-0  12:50      01122  08230-301-065-0  12:50  
    01123  08230-301-066-0  12:50      01124  08230-301-067-0  12:50  
    01125  08230-301-067-0  12:50      01126  08230-301-068-0  12:50  
    01127  08230-301-069-0  12:50      01128  08230-301-070-0  12:50  
    01129  08230-239-026-0  12:52      01130  08230-263-026-0  12:52  
    01131  08230-265-045-0  12:52      01132  08230-301-071-0  12:52  
    01133  08230-301-074-0  12:52      01134  08230-301-075-0  12:52  
    01135  08230-301-076-0  12:52      01136  08230-301-077-0  12:52  
    01137  08230-301-078-0  12:52      01138  08230-301-081-0  12:52  
    01139  08230-301-082-0  12:52      01140  08230-301-083-0  12:52  
    01141  08230-235-021-0  12:54       01142  08230-235-021-0  12:54   
    01143  08230-239-027-0  12:54      01144  08230-239-028-0  12:54  
    01145  08230-252-031-0  12:54      01146  08230-301-085-0  12:54  
    01147  08230-301-086-0  12:54      01148  08230-301-087-0  12:54  
    01149  08230-301-088-0  12:54      01150  08230-301-089-0  12:54  
    01151  08230-301-090-0  12:54      01152  08230-301-091-0  12:54  
    01153  08230-301-093-0  12:54      01154  08230-301-094-0  12:54  
    01155  08230-301-095-0  12:54      01156  08230-301-096-0  12:54  
    01157  08230-301-097-0  12:54      01158  08230-214-012-0  12:56  
    01159  08230-231-029-0  12:56      01160  08230-239-029-0  12:56  
    01161  08230-239-030-0  12:56       01162  08230-254-020-0  12:56  
    01163  08230-301-098-0  12:56      01164  08230-301-099-0  12:56  
    01165  08230-301-100-0  12:56      01166  08230-301-101-0  12:56  
    01167  08230-301-102-0  12:56      01168  08230-239-029-1  12:58  C
    01169  08230-247-051-0  12:58      01170  08230-301-104-0  12:58  
    01171  08230-301-105-0  12:58      01172  08230-301-108-0  12:58  Y
    01173  08230-301-109-0  12:58      01174  08230-301-110-0  12:58  
    01175  08230-301-111-0  12:58      01176  08230-301-112-0  12:58  
    01177  08230-301-113-0  12:58  Y    01178  08230-301-115-0  12:58  Y
    01179  08230-301-116-0  12:58  Y    01180  08230-301-117-0  12:58  
    01181  08230-301-118-0  12:58      01182  08230-301-119-0  12:58  
    01183  08230-301-121-0  12:58  Y    01184  08230-250-037-0  13:00  
    01185  08230-301-122-0  13:00  Y    01186  08230-301-123-0  13:00  
    01187  08230-301-124-0  13:00      01188  08230-301-125-0  13:00  
    01189  08230-301-126-0  13:00  Y    01190  08230-301-127-0  13:02  
    01191  08230-301-128-0  13:02  Y    01192  08230-301-129-0  13:02  
    01193  08230-301-130-0  13:02  Y    01194  08230-301-131-0  13:02  
    01195  08230-301-132-0  13:02  Y    01196  08230-301-133-0  13:02  
    01197  08230-301-135-0  13:02      01198  08230-263-027-0  13:04  
    01199  08230-301-136-0  13:04  Y    01200  08230-301-138-0  13:04  Y
    01201  08230-301-139-0  13:04      01202  08230-301-140-0  13:04  
    01203  08230-301-141-0  13:04  Y    01204  08230-239-031-0  13:06  
    01205  08230-256-019-0  13:06      01206  08230-257-027-0  13:06  
    01207  08230-301-144-0  13:06      01208  08230-301-150-0  13:06  
    01209  08230-301-151-0  13:06  Y    01210  08230-301-152-0  13:06  
    01211  08230-301-153-0  13:06      01212  08230-301-154-0  13:06  Y
    01213  08230-301-155-0  13:06  Y    01214  08230-301-156-0  13:06  
    01215  08230-301-158-0  13:06      01216  08230-231-030-0  13:08  
    01217  08230-301-161-0  13:08      01218  08230-301-162-0  13:08  
    01219  08230-301-165-0  13:08      01220  08230-301-166-0  13:08  Y
    01221  08230-301-167-0  13:08  Y    01222  08230-301-169-0  13:08  
    01223  08130-300-827-1  13:11  Y    01224  08130-300-834-1  13:11  Y
    01225  08220-300-015-0  13:11      01226  08230-234-027-0  13:11  
    01227  08230-242-001-0  13:11      01228  08230-301-173-0  13:11  Y
    01229  08230-301-175-0  13:11  Y    01230  08230-301-178-0  13:11  
    01231  08230-301-179-0  13:11      01232  08230-301-181-0  13:11  Y
    01233  08230-254-021-0  13:13      01234  08230-301-183-0  13:13  
    01235  08230-301-183-0  13:13      01236  08230-301-184-0  13:13   
    01237  08230-301-185-0  13:13  Y    01238  08230-301-186-0  13:13  
    01239  08230-301-187-0  13:13      01240  08230-301-189-0  13:13  Y
    01241  08230-301-190-0  13:13      01242  08230-301-191-0  13:13  
    01243  08230-301-193-0  13:13      01244  08230-301-195-0  13:13  
    01245  08230-301-196-0  13:13  Y    01246  08230-301-197-0  13:13  Y
    01247  08230-301-199-0  13:13      01248  08230-301-200-0  13:13  
    01249  08220-269-022-0  13:15      01250  08230-301-201-0  13:15  
    01251  08230-301-202-0  13:15       01252  08230-301-203-0  13:15  Y
    01253  08230-301-204-0  13:15      01254  08230-301-205-0  13:15  Y
    01255  08230-301-206-0  13:15  Y    01256  08230-301-207-0  13:15  Y
    01257  08230-301-208-0  13:15      01258  08230-301-209-0  13:15  
    01259  08230-301-210-0  13:15  Y    01260  08230-301-211-0  13:15  
    01261  08230-301-212-0  13:15  Y    01262  08230-301-213-0  13:15  Y
    01263  08230-301-214-0  13:15  Y    01264  08230-301-215-0  13:15  
    01265  08230-301-216-0  13:15      01266  08230-301-217-0  13:15  Y
    01267  08120-238-008-1  13:17  Y    01268  08230-260-022-0  13:17  
    01269  08230-301-218-0  13:17      01270  08230-301-220-0  13:17  
    01271  08230-301-222-0  13:17  Y    01272  08230-301-223-0  13:17  
    01273  08230-301-224-0  13:17  Y    01274  08230-301-225-0  13:17  
    01275  08230-301-227-0  13:19  Y    01276  08230-301-228-0  13:19  
    01277  08230-301-229-0  13:19      01278  08230-301-230-0  13:19  
    01279  08230-301-231-0  13:19  Y    01280  08230-301-232-0  13:19  Y
    01281  08230-301-235-0  13:19      01282  08230-301-236-0  13:19  Y
    01283  08230-301-237-0  13:19      01284  08230-301-239-0  13:19  Y
    01285  08230-301-240-0  13:19  Y    01286  08230-301-241-0  13:19  
    01287  08230-237-025-0  13:21      01288  08230-301-242-0  13:21  
    01289  08230-301-243-0  13:21  Y    01290  08230-301-246-0  13:21  
    01291  08230-301-247-0  13:21      01292  08230-301-248-0  13:21  Y
    01293  08230-301-249-0  13:21  Y    01294  08230-301-250-0  13:21  Y
    01295  08230-249-030-0  13:23      01296  08230-253-024-0  13:23   
    01297  08230-301-251-0  13:23      01298  08230-301-252-0  13:23  
    01299  08230-301-253-0  13:23  Y    01300  08230-301-254-0  13:23  
    01301  08230-301-255-0  13:23      01302  08230-301-256-0  13:23  Y
    01303  08230-301-257-0  13:23      01304  08230-301-258-0  13:23  Y
    01305  08230-301-259-0  13:23      01306  08230-301-261-0  13:23  Y
    01307  08230-301-262-0  13:23  Y    01308  08230-301-263-0  13:23  
    01309  08230-301-264-0  13:23  Y    01310  08230-301-265-0  13:23  
    01311  08230-237-026-0  13:25  Y    01312  08230-240-039-0  13:25  
    01313  08230-301-268-0  13:25      01314  08230-301-269-0  13:25  
    01315  08230-301-270-0  13:25  Y    01316  08230-301-272-0  13:25  
    01317  08230-301-273-0  13:25      01318  08230-301-276-0  13:25  Y
    01319  08230-237-027-0  13:27  Y    01320  08230-274-034-0  13:27   
    01321  08230-301-277-0  13:27      01322  08230-301-279-0  13:27  
    01323  08230-301-280-0  13:27  Y    01324  08230-301-281-0  13:27  
    01325  08230-301-282-0  13:27  Y    01326  08230-301-283-0  13:27  Y
    01327  08230-301-285-0  13:27      01328  08230-301-286-0  13:27  
    01329  08230-301-288-0  13:27      01330  08230-301-290-0  13:27  
    01331  08230-214-013-0  13:29      01332  08230-239-033-0  13:29  
    01333  08230-247-053-0  13:29       01334  08230-249-031-0  13:29  
    01335  08230-253-025-0  13:29      01336  08230-301-291-0  13:29  Y
    01337  08230-301-292-0  13:29      01338  08230-301-294-0  13:29  Y
    01339  08230-301-295-0  13:29      01340  08230-263-029-0  13:31  
    01341  08230-301-296-0  13:31      01342  08230-301-297-0  13:31  Y
    01343  08230-301-298-0  13:31      01344  08230-301-299-0  13:31  Y
    01345  08230-301-300-0  13:31  Y    01346  08230-301-301-0  13:31  
    01347  08230-301-302-0  13:31      01348  08230-301-303-0  13:31  Y
    01349  08230-301-305-0  13:31      01350  08230-218-023-0  13:34  
    01351  08230-301-307-0  13:34      01352  08230-301-308-0  13:34  Y
    01353  08230-301-309-0  13:34      01354  08230-301-313-0  13:34  Y
    01355  08230-274-035-0  13:36       01356  08230-301-316-0  13:36  
    01357  08230-301-317-0  13:36      01358  08230-301-318-0  13:36  
    01359  08230-301-322-0  13:36      01360  08180-234-018-2  13:38  Y
    01361  08230-249-032-0  13:38  Y    01362  08230-301-324-0  13:38  
    01363  08230-301-325-0  13:38      01364  08230-301-326-0  13:38  
    01365  08230-301-328-0  13:38      01366  08230-301-330-0  13:38  
    01367  08230-301-331-0  13:38  Y    01368  08230-258-039-0  13:40  
    01369  08230-301-332-0  13:40       01370  08230-301-334-0  13:40  Y
    01371  08230-216-026-0  13:42      01372  08230-301-336-0  13:42  
    01373  08230-301-337-0  13:42  Y    01374  08230-301-338-0  13:42  
    01375  08230-301-339-0  13:42  Y    01376  08230-301-340-0  13:42  
    01377  08230-301-343-0  13:42  Y    01378  08230-252-036-0  13:44  
    01379  08230-301-344-0  13:44      01380  08230-301-345-0  13:44  Y
    01381  08230-237-032-0  13:46       01382  08230-239-034-0  13:46  
    01383  08230-240-042-0  13:46      01384  08230-242-004-0  13:46   
    01385  08230-257-031-0  13:46       01386  08230-258-040-0  13:46  
    01387  08230-265-050-0  13:46      01388  08230-301-346-0  13:46  
    01389  08230-301-349-0  13:46      01390  08230-301-352-0  13:46  
    01391  08230-301-353-0  13:46  Y    01392  08230-301-354-0  13:46  
    01393  08230-301-355-0  13:46      01394  07300-248-021-1  13:48  C
    01395  08040-237-018-1  13:48  Y    01396  08230-239-034-1  13:48  C
    01397  08230-239-035-0  13:48       01398  08230-245-033-0  13:48  
    01399  08230-245-033-0  13:48      01400  08230-249-033-0  13:48  
    01401  08230-301-357-0  13:48      01402  08230-301-358-0  13:48  Y
    01403  08230-301-362-0  13:48  Y    01404  08230-301-363-0  13:48  Y
    01405  08230-301-364-0  13:48      01406  08230-221-027-0  13:50  
    01407  08230-236-032-0  13:50      01408  08230-249-034-0  13:50  
    01409  08230-267-037-0  13:50       01410  08230-301-365-0  13:50  
    01411  08230-301-366-0  13:50  Y    01412  08230-301-367-0  13:50  Y
    01413  08230-301-368-0  13:50      01414  08230-301-370-0  13:50  
    01415  08230-265-051-0  13:52       01416  08230-301-374-0  13:52  Y
    01417  08230-301-375-0  13:52      01418  08230-301-377-0  13:52  
    01419  08230-301-378-0  13:52      01420  08230-301-379-0  13:52  
    01421  08230-301-380-0  13:52  Y    01422  08230-301-381-0  13:52  
    01423  08230-301-382-0  13:52      01424  08220-269-023-0  13:53  
    01425  08230-221-028-0  13:54      01426  08230-252-037-0  13:54  
    01427  08230-301-388-0  13:54      01428  08230-301-390-0  13:54  
    01429  08230-301-391-0  13:54      01430  08230-301-393-0  13:54  
    01431  08230-301-395-0  13:54      01432  08230-301-397-0  13:56  
    01433  08170-249-027-2  13:58  Y    01434  08230-231-033-0  13:58  
    01435  08230-265-052-0  13:58  Y    01436  08230-301-398-0  13:58  
    01437  08230-301-399-0  13:58      01438  08230-301-401-0  13:58  
    01439  08230-301-404-0  13:58      01440  08230-301-405-0  13:58  
    01441  08230-301-406-0  13:58      01442  08230-301-407-0  13:58  
    01443  08230-301-409-0  14:00      01444  08230-301-410-0  14:00  Y
    01445  08230-301-411-0  14:00      01446  08230-301-413-0  14:00  
    01447  08230-218-024-0  14:03      01448  08230-236-033-0  14:03  
    01449  08230-240-044-0  14:03      01450  08230-267-038-0  14:03  
    01451  08230-301-417-0  14:03      01452  08230-301-418-0  14:03  
    01453  08230-301-419-0  14:03      01454  08230-301-420-0  14:03  
    01455  08230-301-421-0  14:03      01456  08230-301-422-0  14:03  
    01457  08230-301-423-0  14:03      01458  08230-301-424-0  14:03  
    01459  08230-301-426-0  14:03      01460  08230-301-427-0  14:03  
    01461  08230-252-038-0  14:07      01462  08230-301-428-0  14:07  
    01463  08230-301-430-0  14:07      01464  08230-301-431-0  14:07  
    01465  08230-301-433-0  14:07      01466  08230-301-437-0  14:07  
    01467  08230-234-035-0  14:09      01468  08170-237-042-1  14:11  Y
    01469  08230-301-439-0  14:11      01470  08230-301-440-0  14:11  
    01471  08230-301-441-0  14:11      01472  08230-301-444-0  14:11  Y
    01473  08230-301-445-0  14:11      01474  08230-301-446-0  14:11  
    01475  08230-301-447-0  14:11      01476  08230-301-448-0  14:11  
    01477  08230-301-450-0  14:11      01478  08230-301-451-0  14:11  
    01479  08230-301-452-0  14:11      01480  08230-301-453-0  14:11  
    01481  08230-400-038-0  14:11  Y    01482  08230-222-020-0  14:13   
    01483  08230-301-455-0  14:13      01484  08230-301-457-0  14:13  
    01485  08230-253-029-0  14:15      01486  08230-253-030-0  14:15  
    01487  08230-254-022-0  14:15      01488  08230-265-054-0  14:15  
    01489  08230-274-038-0  14:15       01490  08230-301-458-0  14:15  
    01491  08230-301-459-0  14:15      01492  08230-301-460-0  14:15  
    01493  08230-301-464-0  14:15      01494  08230-301-465-0  14:15  
    01495  08230-301-466-0  14:15      01496  08230-301-467-0  14:15  
    01497  08230-400-040-0  14:15  Y    01498  08230-252-039-0  14:17  
    01499  08230-301-468-0  14:17      01500  08230-301-470-0  14:17  
    01501  08230-301-471-0  14:17      01502  08230-216-029-0  14:19  
    01503  08230-221-030-0  14:19      01504  08230-239-038-0  14:19  Y
    01505  08230-249-035-0  14:19      01506  08230-254-023-0  14:19  
    01507  08230-266-026-0  14:19      01508  08230-301-472-0  14:19  
    01509  08230-301-475-0  14:19      01510  08230-301-476-0  14:19  
    01511  08230-301-478-0  14:19  Y    01512  08230-301-479-0  14:19  
    01513  08230-301-481-0  14:19      01514  08230-301-482-0  14:19  
    01515  08230-301-483-0  14:21  Y    01516  08230-301-484-0  14:21  
    01517  08230-301-485-0  14:21      01518  08230-301-486-0  14:21  
    01519  08230-301-487-0  14:21      01520  08230-301-488-0  14:21  Y
    01521  08230-301-489-0  14:21      01522  08230-240-046-0  14:23   
    01523  08230-245-036-0  14:23      01524  08230-248-030-0  14:23  
    01525  08230-254-024-0  14:23      01526  08230-258-049-0  14:23   
    01527  08230-267-040-0  14:23      01528  08230-274-039-0  14:23  
    01529  08230-301-490-0  14:23      01530  08230-301-492-0  14:23  Y
    01531  08230-301-493-0  14:23      01532  08230-301-495-0  14:23  
    01533  08230-301-498-0  14:23      01534  08230-301-501-0  14:23  
    01535  08230-301-502-0  14:23      01536  08230-301-503-0  14:23  Y
    01537  08230-235-025-0  14:25       01538  08230-301-504-0  14:25  
    01539  08230-301-506-0  14:25      01540  08230-301-508-0  14:25  
    01541  08230-301-509-0  14:25      01542  08230-301-511-0  14:25  
    01543  08230-301-512-0  14:25      01544  08230-301-513-0  14:25  Y
    01545  08230-301-515-0  14:25      01546  08230-301-516-0  14:25  
    01547  08230-248-031-0  14:28       01548  08230-301-520-0  14:28  
    01549  08230-301-523-0  14:28      01550  08230-301-524-0  14:28  Y
    01551  08230-234-037-0  14:30      01552  08230-237-035-0  14:30  
    01553  08230-252-041-0  14:30      01554  08230-301-525-0  14:30  
    01555  08230-301-526-0  14:30      01556  08230-301-528-0  14:30  Y
    01557  08230-301-529-0  14:30      01558  08230-301-531-0  14:30  
    01559  08230-301-532-0  14:30      01560  08230-240-047-0  14:32  
    01561  08230-301-537-0  14:32      01562  08230-265-056-0  14:34  
    01563  08230-301-067-1  14:34  C    01564  08230-301-067-1  14:34  C
    01565  08230-301-489-1  14:34  C    01566  08230-301-538-0  14:34  
    01567  08230-301-539-0  14:34      01568  08230-301-540-0  14:34  
    01569  08230-301-542-0  14:34      01570  08230-301-544-0  14:34  
    01571  08230-231-034-0  14:36      01572  08230-235-026-0  14:36  
    01573  08230-248-032-0  14:36      01574  08230-252-042-0  14:36   
    01575  08230-265-057-0  14:36      01576  08230-301-547-0  14:36  
    01577  08230-301-550-0  14:36  Y    01578  08230-301-551-0  14:36  
    01579  08230-301-553-0  14:36      01580  08230-231-035-0  14:38  
    01581  08230-235-026-1  14:38  C    01582  08230-235-027-0  14:38   
    01583  08230-249-036-0  14:38      01584  08230-301-554-0  14:38  
    01585  08230-301-557-0  14:38      01586  08230-301-559-0  14:38  
    01587  08230-301-559-0  14:38      01588  08230-301-560-0  14:38  
    01589  08230-301-561-0  14:38      01590  08230-242-014-0  14:40   
    01591  08230-301-565-0  14:40      01592  08230-301-566-0  14:40  
    01593  08230-301-567-0  14:40      01594  08230-301-569-0  14:40  Y
    01595  08230-234-038-0  14:42      01596  08230-240-048-0  14:42  
    01597  08230-260-025-0  14:42  Y    01598  08230-266-028-0  14:42  
    01599  08230-301-570-0  14:42      01600  08230-301-572-0  14:42  
    01601  08230-301-573-0  14:42      01602  08230-301-575-0  14:42  
    01603  08230-301-576-0  14:42  Y    01604  08230-234-039-0  14:44   
    01605  08230-256-023-0  14:44      01606  08230-266-029-0  14:44   
    01607  08230-301-577-0  14:44      01608  08230-301-579-0  14:44  
    01609  08230-301-580-0  14:44      01610  08230-301-581-0  14:44  Y
    01611  08230-301-583-0  14:44      01612  08230-235-028-0  14:46  
    01613  08230-238-038-0  14:46      01614  08230-244-066-0  14:46   
    01615  08230-257-034-0  14:46      01616  08230-263-030-0  14:46  
    01617  08230-301-584-0  14:46  Y    01618  08230-301-585-0  14:46  
    01619  08230-301-587-0  14:46  Y    01620  08230-301-588-0  14:46  
    01621  08230-301-590-0  14:46      01622  08230-301-591-0  14:46  
    01623  08230-301-591-0  14:46      01624  08230-240-049-0  14:50   
    01625  08230-256-024-0  14:50      01626  08230-259-024-0  14:50  
    01627  08230-274-041-0  14:50       01628  08230-301-594-0  14:50  
    01629  08230-301-595-0  14:50      01630  08230-301-600-0  14:50  
    01631  08230-301-601-0  14:50      01632  08230-301-602-0  14:50  
    01633  08230-238-039-0  14:52  Y    01634  08230-234-040-0  14:55  
    01635  08230-238-040-0  14:55  Y    01636  08230-238-041-0  14:55  Y
    01637  08230-257-035-0  14:55      01638  08230-301-445-1  14:55  C
    01639  08230-301-608-0  14:55      01640  08230-301-609-0  14:55  
    01641  08230-301-614-0  14:57      01642  08230-221-034-0  14:59  
    01643  08230-238-042-0  14:59       01644  08230-244-067-0  14:59  
    01645  08230-266-030-0  14:59      01646  08230-274-042-0  14:59  
    01647  08230-301-616-0  14:59      01648  08230-301-617-0  14:59  
    01649  08230-301-618-0  14:59      01650  08230-221-035-0  15:01  
    01651  08230-235-029-0  15:01  Y    01652  08230-238-043-0  15:01  
    01653  08230-242-015-0  15:01      01654  08230-301-620-0  15:01  
    01655  08230-220-055-0  15:03       01656  08230-245-041-0  15:03  
    01657  08230-254-026-0  15:03      01658  08230-256-025-0  15:03  
    01659  08230-260-026-0  15:03      01660  08230-263-032-0  15:03  Y
    01661  08230-274-043-0  15:03       01662  08230-301-627-0  15:03  
    01663  08230-301-628-0  15:03      01664  08230-301-629-0  15:03  
    01665  08230-231-037-0  15:05      01666  08230-301-633-0  15:05  
    01667  08230-301-634-0  15:05      01668  08230-301-636-0  15:05  
    01669  08230-301-640-0  15:05      01670  08230-231-025-1  15:07  C
    01671  08230-248-033-0  15:07      01672  08230-267-047-0  15:07   
    01673  08230-301-642-0  15:07      01674  08230-301-645-0  15:07  
    01675  08230-301-646-0  15:07      01676  08230-301-650-0  15:07  
    01677  08230-274-044-0  15:09       01678  08230-301-655-0  15:09  
    01679  08230-301-658-0  15:09      01680  08230-301-659-0  15:09  
    01681  08230-235-030-0  15:11      01682  08230-236-034-0  15:11  
    01683  08230-254-027-0  15:11      01684  08230-301-662-0  15:11  
    01685  08230-301-663-0  15:11      01686  08230-301-664-0  15:11  
    01687  08220-269-024-0  15:12      01688  08190-301-547-1  15:13  C
    01689  08230-222-026-0  15:13      01690  08230-301-671-0  15:13  
    01691  08230-301-674-0  15:13      01692  08230-301-675-0  15:13  
    01693  08230-220-056-0  15:15      01694  08230-231-038-0  15:15  
    01695  08230-254-028-0  15:15       01696  08230-257-036-0  15:15  
    01697  08230-301-676-0  15:15      01698  08230-301-679-0  15:15  
    01699  08230-301-680-0  15:15      01700  08230-232-019-1  15:17  C
    01701  08230-232-020-1  15:17  C    01702  08230-232-021-1  15:17  C
    01703  08230-258-055-0  15:17      01704  08230-301-686-0  15:17  
    01705  08230-214-018-0  15:19      01706  08230-232-022-1  15:19  C
    01707  08230-301-689-0  15:19      01708  08230-301-692-0  15:19  
    01709  08230-301-693-0  15:19      01710  08230-221-037-0  15:22  
    01711  08230-232-023-1  15:22  C    01712  08230-236-040-0  15:22  Y
    01713  08230-247-072-0  15:22      01714  08230-250-047-0  15:22  
    01715  08230-214-019-0  15:24       01716  08230-236-041-0  15:24  Y
    01717  08230-236-042-0  15:24  Y    01718  08230-236-043-0  15:24  Y
    01719  08230-236-044-0  15:24  Y    01720  08230-239-039-0  15:24  
    01721  08230-249-041-0  15:24      01722  08230-250-048-0  15:24  
    01723  08230-259-026-0  15:24      01724  08230-270-052-0  15:24   
    01725  08230-301-699-0  15:24      01726  08230-301-701-0  15:24  
    01727  08230-301-703-0  15:24      01728  08230-222-027-0  15:26  
    01729  08230-231-039-0  15:26      01730  08230-236-046-0  15:26  Y
    01731  08230-249-042-0  15:26      01732  08230-301-706-0  15:26  
    01733  08230-301-707-0  15:26       01734  08230-301-709-0  15:26  
    01735  08230-301-711-0  15:26       01736  08230-214-020-0  15:28   
    01737  08230-236-047-0  15:28  Y    01738  08230-249-043-0  15:28  
    01739  08230-250-049-0  15:28      01740  08230-257-037-0  15:28   
    01741  08230-266-031-0  15:28      01742  08230-214-021-0  15:30   
    01743  08230-235-031-0  15:30       01744  08230-237-038-0  15:30  Y
    01745  08230-240-053-0  15:30      01746  08230-240-054-0  15:30   
    01747  08230-247-073-0  15:30      01748  08230-249-044-0  15:30  
    01749  08230-301-717-0  15:30      01750  08230-301-719-0  15:30  
    01751  08230-214-022-0  15:32       01752  08230-249-045-0  15:32  
    01753  08230-260-028-0  15:32      01754  08230-301-162-1  15:32  C
    01755  08230-301-723-0  15:32      01756  08230-236-049-0  15:34   
    01757  08230-237-040-0  15:34  Y    01758  08230-258-057-0  15:34  
    01759  08230-274-045-0  15:34       01760  08230-235-032-0  15:36  
    01761  08230-258-058-0  15:36      01762  08230-258-058-0  15:36  
    01763  08230-301-732-0  15:36      01764  08230-216-035-0  15:38  Y
    01765  08230-216-036-0  15:38  Y    01766  08230-240-055-0  15:38  
    01767  08230-250-050-0  15:38      01768  08230-265-062-0  15:38  
    01769  08230-265-063-0  15:38       01770  08230-301-734-0  15:38  
    01771  08230-301-735-0  15:38      01772  08230-216-037-0  15:40  Y
    01773  08230-216-038-0  15:40  Y    01774  08230-258-059-0  15:40  
    01775  08230-274-046-0  15:40      01776  08230-301-739-0  15:40  
    01777  08230-301-741-0  15:40      01778  08230-216-039-0  15:42  Y
    01779  08230-235-033-0  15:42      01780  08230-265-064-0  15:42   
    01781  08230-301-745-0  15:42      01782  08230-232-030-0  15:44  
    01783  08230-258-060-0  15:44       01784  08230-258-060-0  15:44   
    01785  08230-270-054-0  15:44      01786  08230-274-047-0  15:44   
    01787  08230-301-751-0  15:44      01788  08230-301-754-0  15:44   
    01789  08230-260-029-0  15:46      01790  08230-301-755-0  15:46  
    01791  08230-216-044-0  15:48  Y    01792  08230-216-045-0  15:48  Y
    01793  08230-235-034-0  15:48      01794  08230-240-056-0  15:48  
    01795  08230-240-057-0  15:48      01796  08230-242-019-0  15:48  
    01797  08230-247-075-0  15:48  Y    01798  08230-301-764-0  15:48  
    01799  08230-301-767-0  15:48      01800  08230-216-047-0  15:51  Y
    01801  08230-222-028-0  15:51      01802  08230-252-048-0  15:51  
    01803  08230-258-061-0  15:51      01804  08230-301-771-0  15:51  
    01805  08230-301-772-0  15:51       01806  08230-216-048-0  15:53  Y
    01807  08230-216-049-0  15:53  Y    01808  08230-234-044-0  15:53  
    01809  08230-242-020-0  15:53      01810  08230-301-774-0  15:53  
    01811  08230-301-775-0  15:53      01812  08230-301-779-0  15:53  
    01813  08230-301-780-0  15:53      01814  08230-301-781-0  15:53  
    01815  08230-253-050-0  15:55      01816  08230-266-032-0  15:55  
    01817  08230-270-055-0  15:55      01818  08230-220-058-0  15:57  
    01819  08230-235-035-0  15:57       01820  08230-253-051-0  15:57  
    01821  08230-253-052-0  15:57      01822  08230-267-050-0  15:57  
    01823  08230-301-786-0  15:57      01824  08230-301-787-0  15:57  
    01825  08230-301-789-0  15:57      01826  08230-301-790-0  15:57  
    01827  08230-254-030-0  15:59      01828  08230-256-030-0  15:59  
    01829  08230-274-048-0  15:59      01830  08230-301-797-0  15:59  
    01831  08230-301-799-0  15:59  Y    01832  08230-301-800-0  15:59  
    01833  08230-301-801-0  15:59  Y    01834  08230-266-033-0  16:01   
    01835  08230-301-806-0  16:01      01836  08230-301-807-0  16:01  Y
    01837  08230-301-808-0  16:01      01838  08230-263-035-0  16:03  
    01839  08230-265-066-0  16:03      01840  08230-301-809-0  16:03  
    01841  08230-221-041-0  16:05      01842  08230-222-029-0  16:05   
    01843  08230-234-045-0  16:05      01844  08230-238-047-0  16:05  
    01845  08230-270-056-0  16:05      01846  08230-301-815-0  16:05  Y
    01847  08230-301-817-0  16:05      01848  08230-301-821-0  16:05  
    01849  08230-214-024-0  16:07      01850  08230-216-050-0  16:07  
    01851  08230-235-036-0  16:07      01852  08230-235-037-0  16:07  
    01853  08230-253-053-0  16:07      01854  08230-260-031-0  16:07  
    01855  08230-263-036-0  16:07  Y    01856  08230-274-049-0  16:07  Y
    01857  08230-301-823-0  16:07      01858  08230-301-827-0  16:07  Y
    01859  08230-214-025-0  16:09      01860  08230-220-059-0  16:09  
    01861  08230-236-051-0  16:09      01862  08230-253-054-0  16:09  
    01863  08230-266-033-1  16:09  C    01864  08230-301-828-0  16:09  
    01865  08230-301-829-0  16:09      01866  08230-301-832-0  16:09  
    01867  08230-301-833-0  16:09  Y    01868  08230-301-834-0  16:09  Y
    01869  08230-301-838-0  16:09  Y    01870  08230-216-051-0  16:11  Y
    01871  08230-216-051-0  16:11  Y    01872  08230-240-059-0  16:11  
    01873  08230-253-055-0  16:11      01874  08230-270-057-0  16:11  
    01875  08230-301-839-0  16:11  Y    01876  08230-301-840-0  16:11  
    01877  08230-301-841-0  16:11      01878  08230-301-842-0  16:11  Y
    01879  08230-301-844-0  16:11      01880  08230-301-846-0  16:11  Y
    01881  08230-301-848-0  16:11      01882  08230-301-851-0  16:11  Y
    01883  08230-214-026-0  16:13      01884  08230-235-038-0  16:13  
    01885  08230-235-038-0  16:13      01886  08230-264-001-0  16:13  
    01887  08220-245-001-0  16:15       01888  08220-269-025-0  16:15  
    01889  08220-269-025-0  16:15      01890  08230-214-027-0  16:15  
    01891  08230-214-028-0  16:15      01892  08230-270-058-0  16:15   
    01893  08230-301-856-0  16:15       01894  08230-301-862-0  16:15  Y
    01895  08230-301-863-0  16:15  Y    01896  08230-301-864-0  16:15  
    01897  08230-301-865-0  16:15      01898  08230-214-029-0  16:18  
    01899  08230-222-030-0  16:18      01900  08230-242-022-0  16:18  
    01901  08230-267-053-0  16:18      01902  08230-301-868-0  16:18  
    01903  08230-214-025-1  16:20  C    01904  08230-222-030-1  16:20  C
    01905  08230-222-031-0  16:20       01906  08230-238-049-0  16:20  
    01907  08230-250-054-0  16:20      01908  08230-259-033-0  16:20  
    01909  08230-301-871-0  16:20      01910  08230-301-872-0  16:20  Y
    01911  08230-301-873-0  16:20      01912  08230-301-873-0  16:20  
    01913  08230-301-876-0  16:20  Y    01914  08230-301-877-0  16:20  
    01915  08230-301-879-0  16:20      01916  08230-222-032-0  16:22   
    01917  08230-245-045-0  16:22      01918  08230-248-047-0  16:22  
    01919  08230-301-884-0  16:22      01920  08230-301-887-0  16:22  
    01921  08230-301-889-0  16:22  Y    01922  08230-301-890-0  16:22  
    01923  08230-301-892-0  16:22  Y    01924  08230-301-894-0  16:22  
    01925  08230-242-023-0  16:24      01926  08230-301-895-0  16:24  
    01927  08230-232-032-0  16:26      01928  08230-239-055-0  16:26  
    01929  08230-260-032-0  16:26      01930  08230-267-055-0  16:26  Y
    01931  08230-267-057-0  16:26  Y    01932  08230-301-901-0  16:26  
    01933  08230-301-903-0  16:26      01934  08230-301-904-0  16:26  
    01935  08230-301-905-0  16:26      01936  08230-301-906-0  16:26  
    01937  08230-301-911-0  16:26      01938  08230-222-029-1  16:28  C
    01939  08230-238-050-0  16:28      01940  08230-245-046-0  16:28  
    01941  08230-301-912-0  16:28      01942  08230-301-917-0  16:28  
    01943  08170-248-014-1  16:30  Y    01944  08230-266-035-0  16:30  
    01945  08230-267-061-0  16:30  Y    01946  08230-301-918-0  16:30  
    01947  08230-301-924-0  16:30      01948  08230-301-925-0  16:30  
    01949  08230-301-926-0  16:30      01950  08230-301-927-0  16:30  Y
    01951  08230-301-928-0  16:30      01952  08230-400-042-0  16:30  
    01953  08230-259-034-0  16:32  Y    01954  08230-274-052-0  16:32  
    01955  08230-301-933-0  16:32  Y    01956  08220-245-002-0  16:33  
    01957  08230-232-033-0  16:34      01958  08230-242-024-0  16:34  
    01959  08230-245-047-0  16:34      01960  08230-264-003-0  16:34  
    01961  08230-301-938-0  16:34      01962  08230-301-939-0  16:34  
    01963  08230-301-940-0  16:34      01964  08230-301-941-0  16:34  
    01965  08230-301-944-0  16:34      01966  08230-301-945-0  16:34  
    01967  08230-220-060-0  16:36      01968  08230-264-004-0  16:36   
    01969  08230-301-947-0  16:36      01970  08230-301-950-0  16:36  
    01971  08230-301-951-0  16:36      01972  08230-222-033-0  16:38  
    01973  08230-256-034-0  16:38      01974  08230-263-038-0  16:38  
    01975  08230-301-954-0  16:38      01976  08230-301-957-0  16:38  
    01977  08230-214-031-0  16:42       01978  08230-216-060-0  16:42  
    01979  08230-235-040-0  16:42       01980  08230-248-050-0  16:42  
    01981  08230-259-035-0  16:42      01982  08230-263-039-0  16:42  
    01983  08230-274-053-0  16:42      01984  08230-301-960-0  16:42  
    01985  08230-301-962-0  16:42      01986  08230-301-966-0  16:42  
    01987  08230-301-967-0  16:42      01988  08230-216-061-0  16:47  
    01989  08230-270-060-0  16:47      01990  08230-270-060-1  16:47  C
    01991  08230-270-061-0  16:47       01992  08230-301-977-0  16:47  
    01993  08230-216-062-0  16:51      01994  08230-221-043-0  16:51  
    01995  08230-248-051-0  16:51      01996  08230-260-035-0  16:51  
    01997  08230-267-065-0  16:51      01998  08230-301-981-0  16:51  
    01999  08230-301-984-0  16:51      02000  08230-301-989-0  16:53  
    02001  08230-301-989-0  16:53      02002  08230-216-063-0  16:55  
    02003  08230-220-062-0  16:55      02004  08230-220-063-0  16:55  
    02005  08230-256-035-0  16:55      02006  08230-260-036-0  16:55  
    02007  08230-301-991-0  16:55      02008  08230-301-994-0  16:55  
    02009  08230-301-995-0  16:55      02010  08230-274-054-0  16:57  
    02011  08230-302-002-0  16:57      02012  08230-238-052-0  16:59  
    02013  08230-260-037-0  16:59      02014  08230-260-038-0  16:59  
    02015  08230-302-004-0  16:59      02016  08230-302-007-0  16:59  
    02017  08230-302-008-0  16:59      02018  08220-245-003-0  17:00  
    02019  08230-242-027-0  17:01       02020  08220-245-004-0  17:02  
    02021  08230-214-032-0  17:03      02022  08230-222-032-1  17:03  C
    02023  08230-245-049-0  17:03      02024  08230-250-060-0  17:03  
    02025  08230-256-036-0  17:03      02026  08230-302-009-0  17:03  
    02027  08230-302-010-0  17:03      02028  08230-302-011-0  17:03  
    02029  08230-302-013-0  17:03      02030  08230-302-014-0  17:03  
    02031  08230-302-015-0  17:03      02032  08230-302-017-0  17:03  
    02033  08230-302-018-0  17:03      02034  08230-216-064-0  17:05  
    02035  08230-302-019-0  17:05      02036  08230-302-021-0  17:05  
    02037  08230-216-064-1  17:07  C    02038  08230-216-065-0  17:07   
    02039  08230-222-034-0  17:07      02040  08230-302-023-0  17:07  
    02041  08230-302-024-0  17:07      02042  08230-302-025-0  17:07  
    02043  08230-302-027-0  17:07      02044  08230-238-053-0  17:09   
    02045  08230-263-040-0  17:09      02046  08230-302-029-0  17:09  
    02047  08230-302-030-0  17:09      02048  08230-238-054-0  17:13  Y
    02049  08230-253-059-0  17:13      02050  08230-256-037-0  17:13  
    02051  08230-302-032-0  17:13      02052  08230-302-034-0  17:13  
    02053  08230-302-035-0  17:13      02054  08230-302-036-0  17:13  
    02055  08230-253-060-0  17:15      02056  08230-302-037-0  17:15  
    02057  08230-238-055-0  17:17  Y    02058  08230-254-037-0  17:17  
    02059  08230-254-037-0  17:17      02060  08230-302-039-0  17:17  
    02061  08230-302-042-0  17:17      02062  08230-302-043-0  17:17  
    02063  08230-214-033-0  17:22      02064  08230-238-056-0  17:22  
    02065  08230-264-009-0  17:22      02066  08230-302-045-0  17:22  Y
    02067  08230-302-046-0  17:22      02068  08230-302-048-0  17:22  
    02069  08230-302-051-0  17:22  Y    02070  08230-302-051-0  17:22  Y
    02071  08230-235-043-0  17:26      02072  08230-302-052-0  17:26  
    02073  08230-302-053-0  17:26  Y    02074  08230-302-053-0  17:26  Y
    02075  08230-302-054-0  17:26  Y    02076  08230-302-054-0  17:26  Y
    02077  08230-302-055-0  17:26      02078  08230-302-056-0  17:30  
    02079  08230-302-057-0  17:30      02080  08230-302-058-0  17:30  
    02081  08230-264-010-0  17:34      02082  08230-302-059-0  17:34  
    02083  08230-302-060-0  17:34      02084  08230-302-063-0  17:38  
    02085  08230-302-065-0  17:38      02086  08230-238-057-0  17:42  Y
    02087  08230-238-058-0  17:42  Y    02088  08230-302-067-0  17:42  
    02089  08220-245-006-0  17:44      02090  08230-259-040-0  17:46   
    02091  08230-302-069-0  17:46      02092  08230-302-070-0  17:46  
    02093  08230-302-071-0  17:50      02094  08230-302-072-0  17:50  
    02095  08230-302-073-0  17:54      02096  08230-238-059-0  17:58  
    02097  08230-239-061-0  17:58      02098  08230-302-075-0  17:58  
    02099  08230-302-076-0  18:02      02100  08230-302-076-0  18:02  
    02101  08230-302-078-0  18:06      02102  08230-302-079-0  18:10  
    02103  08230-235-047-0  18:14      02104  08230-302-080-0  18:14  
    02105  08230-302-081-0  18:14      02106  08230-264-012-0  18:27  
    02107  08230-264-013-0  18:29      02108  08220-245-008-0  18:33  
    02109  08230-264-016-0  18:49      02110  08230-264-018-0  19:01   
    02111  08230-264-019-0  19:05      02112  08230-264-020-0  19:09  
    02113  08230-264-021-0  19:13      02114  08230-302-083-0  19:26  
    02115  08230-302-084-0  19:26      02116  08230-302-086-0  19:30  
    02117  08230-302-087-0  19:34      02118  08230-302-088-0  19:34  
    02119  08230-302-089-0  19:38      02120  08230-302-090-0  19:38  
    02121  08230-302-091-0  19:42      02122  08220-245-012-0  19:44  
    02123  08220-300-027-0  19:44      02124  08220-300-030-0  19:44  
    02125  08220-300-031-0  19:44      02126  08230-302-092-0  19:46  
    02127  08230-302-093-0  19:46      02128  08230-302-094-0  19:46  
    02129  08230-302-095-0  19:50      02130  08230-302-096-0  19:50  
    02131  08230-302-097-0  19:54      02132  08230-302-098-0  19:54  
    02133  08230-302-099-0  19:58      02134  08230-302-099-1  19:58  C
    02135  08230-302-100-0  19:58      02136  08230-302-101-0  20:02  
    02137  08230-302-102-0  20:06      02138  08230-302-103-0  20:10  
    02139  08230-302-104-0  20:10      02140  08160-301-387-1  20:18  Y
    02141  08230-264-023-0  20:23      02142  08220-245-014-0  20:35  
    02143  08230-264-025-0  20:45      02144  08220-245-015-0  20:49  
    02145  08220-300-054-0  20:49      02146  08220-245-019-0  21:17  
    02147  08220-245-020-0  21:17       02148  08230-302-113-0  21:17  
    02149  08230-302-114-0  21:17      02150  08230-302-115-0  21:25  
    02151  08230-302-116-0  21:30      02152  08230-302-117-0  21:30  
    02153  08220-300-064-0  21:33      02154  08230-264-027-0  21:34  
    02155  08230-302-118-0  21:34      02156  08230-264-028-0  21:38   
    02157  08230-302-119-0  21:38      02158  08230-302-120-0  21:38  
    02159  08220-300-066-0  21:42      02160  08230-264-029-0  21:42  
    02161  08230-302-122-0  21:42      02162  08230-302-123-0  21:42  
    02163  08230-302-124-0  21:46      02164  08230-302-125-0  21:46  
    02165  08220-300-067-0  21:50      02166  08230-302-126-0  21:50  
    02167  08230-302-128-0  21:50      02168  08230-302-130-0  21:54  
    02169  08230-302-131-0  21:54      02170  08230-302-133-0  21:58  
    02171  08230-302-131-1  22:02  C    02172  08230-302-135-0  22:06  
    02173  08230-302-136-0  22:06      02174  08230-302-138-0  22:10  
    02175  08220-300-068-0  22:22  Y    02176  08220-300-068-0  22:22  Y
    02177  08230-264-031-0  22:51            
    
    
    (P) UPDATE    - 00000
    (C) CANCEL    - 00036
    (R) RESENT    - 00000
    (Y) RENOTIFY  - 00393
    (L) LATE RESP - 00000
    (U) UNGRIDDED - 00000
    ( ) NORMAL    - 01748
        TOTAL     - 02177
