
SDG09  00016A USAS 10/20/08 09:30:02 A82100332-03A NORM UPDT GRID

Ticket : A82100332 Date: 10/20/08 Time: 09:29 Oper: LRL Chan: 100
Old Tkt: A81210118 Date: 06/25/08 Time: 13:07 Oper: LAB Revision: 03A
State: CA County: SAN DIEGO            Place: OTAY MESA
Locat: BOTH SIDES OF DENNERY RD FRM REGATTA LN CONT N/E TO APPROX 500FT N/E OF
     : RED CORAL LN AT THAT POINT CONT DUE N/INTO OPEN AREA FOR APPROX 500FT AT
     : THAT POINT CONT W/FOR APPROX 2000FT AT THAT POINT CONT S/E TO REGATTA LN;
Address: DENNERY RD
X/ST 1 : REGATTA LN
X/ST 2 : RED CORAL LN
Grids: 1330H06                                              Delineated: Y
Lat/Long  : 32.590012/-117.033897 32.590061/-117.027397
          : 32.585470/-117.033863 32.585519/-117.027363
Caller GPS:

Boring: N  Explosives: N  Vacuum: N

Re-Mark: N

Work : EXCAVATING FOR SEWER, WATER & STORM DRAINS
Work date: 10/20/08 Time: 09:29 Hrs notc: 000 Work hrs: 000 Priority: 2
Instruct : WORK CONTINUING        Permit   : 2007901579
Done for : PARDEE CONSTRUCTION

Company: BASILE CONSTRUCTION            Caller: JENNIFER
Address: 7840 DUNBROOK ROAD
City&St: SAN DIEGO, CA                  Zip: 92126      Fax: 858-586-7809
Phone: 858-586-7800 Ext:      Call back: 7-4
Formn: JACK                 Phone: 619-813-7804
Email: JEN@BASILE-DIG.COM

                                  COMMENTS

REF EXP TICKET A081210118, UPDATE ONLY-WORK CONT PER JENNIFER--[LRL 07/28/08
08:43]
**RESEND**UPDATE ONLY-WORK CONT PER JENNIFER--[ADS 08/25/08 14:19]
**RESEND**UPDATE ONLY-WORK CONT PER YVETTE--[KMC 09/22/08 13:03]
**RESEND**UPDATE ONLY-WORK CONT PER JENNIFER--[LRL 10/20/08 09:29]

Mbrs : ATTD28SD      CHU01  COX01  OTAYWTRSWR    SDG07  SDG09  SND01  SND02
USDG09
