
SDG09  00027A USAS 10/20/08 09:58:07 A82940523-00A NORM UPDT GRID

Ticket : A82940523 Date: 10/20/08 Time: 09:57 Oper: KEL Chan: 100
Old Tkt: A82521796 Date: 09/08/08 Time: 17:55 Oper: KKP Revision: 00A
State: CA County: SAN DIEGO            Place: SAN DIEGO
Locat: LOTS 435, 474-477 VIA LA VENTANA LOC BETWEEN CAMDEN PL  AND MISSION
     : PRESEVE PL;  LOTS 448, 491,478 MISSION PRESERVE PL LOC BETWEEN VIA LA
     : VENTANA AND CAMDEN PL   *CALLER STATES CITY IS POWAY*
Address: VIA LA VENTANA
X/ST 1 : CAMDEN PL
X/ST 2 : MISSION PRESERVE PL
Grids: 1210H022     1210J021                                Delineated: Y
Lat/Long  : 32.924617/-117.015612 32.924087/-117.011111
          : 32.921937/-117.015927 32.921407/-117.011427
Caller GPS:

Boring: N  Explosives: N  Vacuum: N

Re-Mark: N

Work : INSTALL DRAINS
Work date: 10/20/08 Time: 09:57 Hrs notc: 000 Work hrs: 000 Priority: 2
Instruct : WORK CONTINUING        Permit   : NOT REQUIRED
Done for : DAVIDSON COMMUNITIES

Company: NISSHO LANDSCAPING             Caller: FELIX ROJAS
Address: 1902 S SANTA FE AVE
City&St: VISTA, CA                      Zip: 92083      Fax: 760-727-8706
Phone: 760-727-9719 Ext:      Call back: 8:00AM-3:00PM
Formn: FELIX                Phone: 760-801-2675
Email: FELIX@NISSHOCA.COM

                                  COMMENTS

REF EXP TICKET A082521796, UPDATE ONLY-WORK CONT PER FELIX--[KEL 10/20/08 09:57]

Mbrs : ATTD28SD      SDG06  SDG09  SND01  TWCSD  USDG09
