
SDG09  00011A USAS 10/20/08 09:26:01 A82100294-03A NORM UPDT GRID

Ticket : A82100294 Date: 10/20/08 Time: 09:25 Oper: LRL Chan: 100
Old Tkt: A81210077 Date: 06/25/08 Time: 13:04 Oper: LAB Revision: 03A
State: CA County: SAN DIEGO            Place: CHULA VISTA
Locat: BOTH SIDES OF WINDINGWALK ST FROM EXPLORATION FALLS DR CONT S/W FOR
     : APPROX 1000FT; BOTH SIDES OF DISCOVERY FALLS DR FROM EXPLORATION
     : FALLS DR  CONT S/FOR APPROX 1000FT AT THAT POINT IS CROSS ROADS DR GO
     : W/ON BOTH SIDES OF CROSS ROADS DR FOR 1000FT; NEW STREET NOT SHOWN IN MAP
     : WINDINGWALK ST NOW EXT S/W FROM EXPLORATION FALLS DR  AND DISCOVERY FALLS
     : DR IS LOC APPROX 1000FT E/OF THE INTER/OF EXPLORATIONS FALLS DR AND
     : WINDINGWALK ST, *****MEET AT THE INTER/OF WINDINGWALK ST AND EXPLORATION
     : FALLS DR
Address: WINDINGWALK ST
X/ST 1 : EXPLORATION FALLS DR
Grids: 1331G014     1331H0134    1331H0212                  Delineated: Y
Lat/Long  : 32.622014/-116.959090 32.621630/-116.952528
          : 32.618402/-116.959301 32.618018/-116.952739
Caller GPS:

Boring: N  Explosives: N  Vacuum: N

Re-Mark: N

Work : INSTALL SEWER, WATER, AND STORM DRAIN
Work date: 10/20/08 Time: 09:25 Hrs notc: 000 Work hrs: 000 Priority: 2
Instruct : WORK CONTINUING        Permit   : 2006-901579
Done for : SHAE HOMES

Company: BASILE CONSTRUCTION            Caller: SHANNA
Address: 7840 DUNBROOK ROAD
City&St: SAN DIEGO, CA                  Zip: 92126      Fax: 858-586-7809
Phone: 858-586-7800
Formn: STEVE MORINO         Phone: 619-813-7809

                                  COMMENTS

REF EXP TICKET A081210077, UPDATE ONLY-WORK CONT PER JENNIFER--[LRL 07/28/08
08:34]
**RESEND**UPDATE ONLY-WORK CONT PER JENNIFER--[ADS 08/25/08 14:17]
**RESEND**UPDATE ONLY-WORK CONT PER YVETTE--[KMC 09/22/08 12:59]
**RESEND**UPDATE ONLY-WORK CONT PER JENNIFER--[LRL 10/20/08 09:25]

Mbrs : ATTD28SD      CHU01  COX01  OTAYWTRSWR    SDC03  SDG02  SDG07  SDG09
USDG09
