
SDG09  00003A USAS 10/20/08 09:08:20 A72990167-13A NORM UPDT GRID

Ticket : A72990167 Date: 10/20/08 Time: 09:06 Oper: MMD Chan: 100
Old Tkt: A71060895 Date: 09/28/07 Time: 09:34 Oper: JDD Revision: 13A
State: CA County: SAN DIEGO            Place: SAN DIEGO
Locat: WORKING IN BOUNDED AREA; ON THE N/BY VIA DE LA VALLE;  ON THE E/BY APPROX
     : 1 MILE E/OF I-5 & EL CAMINO REAL;  ON THE S/BY APPROX 1 MILE S/OF VIA DE
     : LA VALLE;  ON THE W/BY I-5   (JOINT MEET AT JOB TRAILERS AT 2777 VIA DE
     : LA VALLE - PLEASE CALL TO CONFIRM)
Address: VIA DE LA VALLE
X/ST 1 : I-5
Grids: 1187H02      1187H03      1187H042     1187J02       Delineated: N
Grids: 1187J03      1187J0412    1188A0213    1188A033
Lat/Long  : 32.980879/-117.253046 32.981873/-117.234612
          : 32.966050/-117.252246 32.967044/-117.233812
Caller GPS:

Boring: N  Explosives: N  Vacuum: N

Re-Mark: N

Work : WETLANDS RESTORATION PROJECT - MASS GRADING
Work date: 10/20/08 Time: 09:07 Hrs notc: 000 Work hrs: 000 Priority: 2
Instruct : WORK CONTINUING        Permit   : ONSITE
Done for : SO CAL EDISON

Company: MARATHON CONSTRUCTION          Caller: JOHN RUTH
Address: N/A
City&St: CA                             Zip:
Phone: 858-259-5894
Formn: JOHN RUTH            Phone: 619-954-4780

                                  COMMENTS

REF PREV TICKET A071060895, TICKET TOO OLD FOR COMPUTER TO RETRANSMIT,
**RESEND**UPDATE ONLY-WORK CONT PER JON RUTH--[LMC 10/26/07 08:17]
**RESEND**UPDATE ONLY-WORK CONT PER JOHN--[MMD 11/21/07 08:16]
**RESEND**UPDATE ONLY-WORK CONT PER DON--[LMC 12/19/07 07:17]
**RESEND**UPDATE ONLY-WORK CONT PER JOHN RUTH--[LMC 01/16/08 08:20]
**RESEND**UPDATE ONLY-WORK CONT PER JOHN RUTH--[LAC 02/13/08 13:08]
**RESEND**UPDATE ONLY-WORK CONT PER JOHN--[MMD 03/12/08 07:45]
**RESEND**UPDATE ONLY-WORK CONT PER JOHN--[KDB 04/08/08 14:36]
**RESEND**UPDATE ONLY-WORK CONT PER JOHN--[LYD 05/06/08 08:53]
**RESEND**UPDATE ONLY-WORK CONT PER JOHN RUTH--[KEL 06/03/08 15:14]
**RESEND**UPDATE ONLY-WORK CONT PER JOHN--[ADS 06/30/08 14:17]
**RESEND**UPDATE ONLY-WORK CONT PER JOHN--[LLF 07/28/08 11:52]
**RESEND**UPDATE ONLY-WORK CONT PER JOHN RUTH--[LOM 08/25/08 06:52]
**RESEND**UPDATE ONLY-WORK CONT PER JOHN--[CLA 09/22/08 07:28]
**RESEND**UPDATE ONLY-WORK CONT PER JOHN--[MMD 10/20/08 09:07]

Mbrs : ATTATL ATTD28SD      COX04  KMEPFUEL02    LVL3CM NEXTG  SDG02  SDG04
SDG09  SND01  SND02  TWCSD  UATLSD USDG09 UTWCCARL
