
SDG09  00038A USAS 10/20/08 14:30:33 A81560130-06A NORM UPDT GRID

Ticket : A81560130 Date: 10/20/08 Time: 14:30 Oper: ALFC Chan: WEB
Old Tkt: A81560130 Date: 06/04/08 Time: 07:23 Oper: ALFC Revision: 06A
State: CA County: SAN DIEGO            Place: OTAY MESA
Locat: WORKING 0 FT TO 350 FT ON THE S/SIDE OF ST ANDREWS AVE STARTING AT LA
     : MEDIA RD  AND EXTEND W/FOR APPROX 1,500 FT.
     : *PLEASE MARK DELINEATED AREA OR CONTACT KAREN AT 951-360-8103 TO CLEAR
     : AREA IF NO CONFLICT**
Address: ST ANDREWS AVE
X/ST 1 : LA MEDIA RD
Grids: 1351G02123                                           Delineated: Y
Lat/Long  : 32.566199/-116.967677 32.566209/-116.962099
          : 32.564719/-116.967674 32.564729/-116.962097
Caller GPS:

Boring: Y  Explosives: N  Vacuum: N

Re-Mark: N

Work : REMOVE & INSTALL CHAIN LINK FENCE
Work date: 10/20/08 Time: 14:30 Hrs notc: 000 Work hrs: 000 Priority: 2
Instruct : WORK CONTINUING        Permit   : NOT REQUIRED
Done for : SKANSKA USA S6039-LAMEDIA

Company: ALCORN FENCE COMPANY           Caller: KAREN PATIN
Address: 6445 PEDLEY RD
City&St: RIVERSIDE, CA                  Zip: 92509      Fax: 951-360-8105
Phone: 951-360-8103 Ext:      Call back: 7:30 - 4:00
Formn: UNKNOWN              Phone: 951-360-8103
Email: KPATIN@ALCORN-FENCE.COM

                                  COMMENTS

**RESEND**CALLER ADVISES NO SHOW FROM CITY, STREET LIGHTS, TRAFFIC LIGHTS - :
C/OF SAN DIEGO STREET AND TRAFFIC LIGHTS. CREW ON SITE AND DIGGING. PLEASE MARK
NOW OR CONTACT KAREN AT 951-360-8103 TO CLEAR AREA IF NO CONFLICT. PER KAREN
PATIN--[ALFC 06/16/08 07:19]
**RESEND**UPDATE ONLY-WORK CONT PER KAREN PATIN--[ALFC 07/10/08 08:59]
**RESEND**UPDATE ONLY-WORK CONT PER CARMEN LOPEZ--[ALFC 08/05/08 13:39]
**RESEND**UPDATE ONLY-WORK CONT PER NORINE MOORE--[ALFC 08/29/08 07:51]
**RESEND**UPDATE ONLY-WORK CONT PER NORINE MOORE--[ALFC 09/24/08 12:14]
**RESEND**UPDATE ONLY-WORK CONT PER NORINE MOORE--[ALFC 10/20/08 14:30]

Mbrs : ATTD28SD      COX01  OTAYWTRSWR    SDG07  SDG09  SND01  SND02  USDG09
