
SDG09  00025A USAS 10/20/08 09:39:01 A82310899-09A NORM UPDT GRID

Ticket : A82310899 Date: 10/20/08 Time: 09:38 Oper: LRL Chan: 100
Old Tkt: A82310899 Date: 08/18/08 Time: 12:39 Oper: LYD Revision: 09A
State: CA County: SAN DIEGO            Place: SAN DIEGO
Locat: BOTH SIDES OF EL CAMINO REAL FRM A POINT APPROX 1 MILE N OF HALF MILE DR
     : CONT N/E TO SAN DIEGUITO RD THEN FRM THAT POINT GO E ON BOTH SIDES OF SAN
     : DIEGUITO FOR APPROX 500FT
Address: EL CAMINO REAL
X/ST 1 : HALF MILE DR
Grids: 1187J024     1187J032     1188A0234    1188A031      Delineated: Y
Lat/Long  : 32.975093/-117.238427 32.976481/-117.229418
          : 32.973299/-117.238151 32.974687/-117.229141
Caller GPS:

Boring: N  Explosives: N  Vacuum: N

Re-Mark: N

Work : INSTALL UTILS
Work date: 10/20/08 Time: 09:38 Hrs notc: 000 Work hrs: 000 Priority: 2
Instruct : WORK CONTINUING        Permit   : 2007901579
Done for : PARDEE CONST

Company: BASILE CONSTRUCTION            Caller: JENNIFER
Address: 7840 DUNBROOK ROAD
City&St: SAN DIEGO, CA                  Zip: 92126      Fax: 858-586-7809
Phone: 858-586-7800 Ext:      Call back: 7-4
Formn: STEVE                Phone: 619-813-7809
Email: JEN@BASILE-DIG.COM

                                  COMMENTS

**RESEND**CALLER REQUEST MEMEBER THAT MARKED FOR FUEL TO PLEASE RESPOND FOR A
MEET ON FRI 8-22-08 @ 8AM AT APPROX 500FT S/W/OF  SAN DIEGUITO ON EL CAMINO REAL
PER JENNIFER--[EMB 08/20/08 10:43]
**RESEND**CLARIFYING PREVIOUS TRANSMIT REQUESTING SDG&E AND ANY LOCATERS MARKING
FOR FUEL MEET ON FIRDAY 8/22/08 AT 8AM PER JENNIFER--[NHR 08/20/08 10:49]
**RESEND**CALLER ADVISES NO SHOW FROM WATER - PLEASE RESPOND ASAP; CALLER STATES
IT IS AN EMERGENCY NOW PER JENNIFER--[TEL 08/22/08 08:48]
**RESEND**CALLER ADVISES NO SHOW FROM GAS, ELECTRIC - CALLER STATES NEED MAR KS
AT THENTER OF SAN DIEGUITO AND OLD EL CAMINO REAL PER JENNIFER--[EMB 08/22/08
09:26]
**RESEND**CALLER ADVISES NO SHOW FROM GAS, ELECTRIC, WATER PER JENNIFER--[EMB
08/22/08 09:28]
**RESEND**UPDATE ONLY-WORK CONT PER JENNIFER--[ADS 08/25/08 14:26]
**RESEND**CALLER ADVISES NO SHOW FROM WATER - REQ C/OF SANDIEGO TO PLEASE
RESPOND ASAP PER JENNIFER--[JMC 08/29/08 11:26]
**RESEND**UPDATE ONLY-WORK CONT PER YVETTE--[KMC 09/22/08 13:08]
**RESEND**UPDATE ONLY-WORK CONT PER JENNIFER--[LRL 10/20/08 09:38]

Mbrs : ATTD28SD      KMEPFUEL02    NEXTG  SDG02  SDG04  SDG09  SFI01  SND01
SND02  TWCSD  UATLSD USDG09
