
SDG09  00010A USAS 10/20/08 09:25:07 A82100285-03A NORM UPDT GRID

Ticket : A82100285 Date: 10/20/08 Time: 09:24 Oper: LRL Chan: 100
Old Tkt: A81210070 Date: 06/25/08 Time: 13:03 Oper: LAB Revision: 03A
State: CA County: SAN DIEGO            Place: CHULA VISTA
Locat: BOUNDED AREA: N/W BY WINDINGWALK ST (IF EXTENDED), S/W BY 600FT S/W OF
     : EXPLORATION FALLS DR, S/E BY 200FT S/E OF WINDINGWALK ST (IF EXTENDED),
     : N/E BY 900FT N/W OF EXPLORATION FALLS DR       **MEET AT THE INTER OF
     : WINDINGWALK ST AND EXPLORATION FALLS DR
Address: WINDINGWALK ST
X/ST 1 : EXPLORATION FALLS DR
Grids: 1331G014     1331H0113                               Delineated: Y
Lat/Long  : 32.622766/-116.953626 32.622005/-116.953274
          : 32.620675/-116.958146 32.619914/-116.957794
Caller GPS:

Boring: N  Explosives: N  Vacuum: N

Re-Mark: N

Work : INSTALL SWR, WTR, STORM DRAIN
Work date: 10/20/08 Time: 09:24 Hrs notc: 000 Work hrs: 000 Priority: 2
Instruct : WORK CONTINUING        Permit   : 2006-901579
Done for : SHEA HOMES

Company: BASILE CONSTRUCTION            Caller: SHANNA
Address: 7840 DUNBROOK ROAD
City&St: SAN DIEGO, CA                  Zip: 92126      Fax: 858-586-7809
Phone: 858-586-7800
Formn: LARRY                Phone: 858-431-9858

                                  COMMENTS

REF EXP TICKET A081210070, UPDATE ONLY-WORK CONT PER JENNIFER--[LRL 07/28/08
08:32]
**RESEND**UPDATE ONLY-WORK CONT PER JENNIFER--[ADS 08/25/08 14:16]
**RESEND**UPDATE ONLY-WORK CONT PER YVETTE--[KMC 09/22/08 12:59]
**RESEND**UPDATE ONLY-WORK CONT PER JENNIFER--[LRL 10/20/08 09:24]

Mbrs : ATTD28SD      CHU01  COX01  OTAYWTRSWR    SDC03  SDG02  SDG07  SDG09
USDG09
