
SDG09  00018A USAS 10/20/08 09:30:37 A82100335-03A NORM UPDT GRID

Ticket : A82100335 Date: 10/20/08 Time: 09:30 Oper: LRL Chan: 100
Old Tkt: A81210122 Date: 06/25/08 Time: 13:07 Oper: LAB Revision: 03A
State: CA County: SAN DIEGO            Place: CHULA VISTA
Locat: BOUNDED AREA: W/BY EASTLAKE PKWY, S/BY HUNTE PKWY, E/BY DISCOVERY FALLS
     : DR & N/BY CROSSROADS ST      PLEASE MEET AT THE INTER/OF JUAREZ WAY &
     : DISCOVERY FALLS DR
Address: DISCOVER FALLS DR
X/ST 1 : EASTLAKE PKWY
Grids: 1331G0224    1331H0213                               Delineated: Y
Lat/Long  : 32.616544/-116.961595 32.618146/-116.957736
          : 32.612602/-116.959959 32.614204/-116.956100
Caller GPS:

Boring: N  Explosives: N  Vacuum: N

Re-Mark: N

Work : INSTALL SEWER WATER & STORM DRAIN
Work date: 10/20/08 Time: 09:30 Hrs notc: 000 Work hrs: 000 Priority: 2
Instruct : WORK CONTINUING        Permit   : 2006-901579
Done for : BROOKFIELD HOMES

Company: BASILE CONSTRUCTION            Caller: JENNIFER
Address: 7840 DUNBROOK ROAD
City&St: SAN DIEGO, CA                  Zip: 92126      Fax: 858-586-7809
Phone: 858-586-7800 Ext:      Call back: 7-4
Formn: LARRY                Phone: 858-431-9858
Email: JEN@BASILE-DIG.COM

                                  COMMENTS

REF EXP TICKET A081210122, UPDATE ONLY-WORK CONT PER JENNIFER--[LRL 07/28/08
08:44]
**RESEND**UPDATE ONLY-WORK CONT PER JENNIFER--[ADS 08/25/08 14:20]
**RESEND**UPDATE ONLY-WORK CONT PER YVETTE--[KMC 09/22/08 13:04]
**RESEND**UPDATE ONLY-WORK CONT PER JENNIFER--[LRL 10/20/08 09:30]

Mbrs : ATTD28SD      CHU01  COX01  OTAYWTRSWR    SDG07  SDG09  USDG09
