
SDG09  00019A USAS 10/20/08 09:31:00 A82100340-03A NORM UPDT GRID

Ticket : A82100340 Date: 10/20/08 Time: 09:30 Oper: LRL Chan: 100
Old Tkt: A81210124 Date: 06/25/08 Time: 13:08 Oper: LAB Revision: 03A
State: CA County: SAN DIEGO            Place: SAN DIEGO
Locat: BOTH SIDES OF OLD COURSE RD FRM CRESCENT CREEK RD S/FOR APPROX 60FT;  OLD
     : COURSE RD IS SHOWN IN 2007 TG AT APPROX 475FT S/OF HIGH SOCIETY WAY (NOW
     : SHOWN AS THE LAKES DR) AND CRESCENT CREEK RD IS NOT SHOWN IN MAP...
     : INTER/OF OLD COURSE RD AND CRESCENT CREEK RD LOC APPROX 3800FT S/E/OF
     : INTER/OF OLD COURSE RD AND N/MOST BING CROSBY BLVD
Address: OLD COURSE RD
X/ST 1 : CRESCENT CREEK RD
Grids: 1169B0134    1169B0212                               Delineated: Y
Lat/Long  : 33.030375/-117.143709 33.029635/-117.142593
          : 33.029630/-117.144203 33.028890/-117.143087
Caller GPS:

Boring: N  Explosives: N  Vacuum: N

Re-Mark: N

Work : INSTALL SEWER, WATER, STORM DRAIN
Work date: 10/20/08 Time: 09:30 Hrs notc: 000 Work hrs: 000 Priority: 2
Instruct : WORK CONTINUING        Permit   : 2007-901579
Done for : LENNAR HOMES

Company: BASILE CONSTRUCTION            Caller: SHANNA
Address: 7840 DUNBROOK ROAD
City&St: SAN DIEGO, CA                  Zip: 92126      Fax: 858-586-7809
Phone: 858-586-7800
Formn: STEVE MERINO         Phone: 619-813-7809

                                  COMMENTS

REF EXP TICKET A081210124, UPDATE ONLY-WORK CONT PER JENNIFER--[LRL 07/28/08
08:45]
**RESEND**UPDATE ONLY-WORK CONT PER JENNIFER--[ADS 08/25/08 14:20]
**RESEND**UPDATE ONLY-WORK CONT PER YVETTE--[KMC 09/22/08 13:04]
**RESEND**UPDATE ONLY-WORK CONT PER JENNIFER--[LRL 10/20/08 09:30]

Mbrs : ATTD28SD      OMW62  SDG05  SDG09  USDG09
