
SDG09  00022A USAS 10/20/08 09:34:17 A82100364-03A NORM UPDT GRID

Ticket : A82100364 Date: 10/20/08 Time: 09:34 Oper: LRL Chan: 100
Old Tkt: A81710258 Date: 06/25/08 Time: 13:11 Oper: LAB Revision: 03A
State: CA County: SAN DIEGO            Place: CHULA VISTA
Locat: FRM N/E SIDE/OF INTER/OF WINDINGWALK ST & DISCOVERY FALLS DR CONT N/ON
     : E/SIDE OF DISCOVERY FALLS DR TO BIRCH RD (IF EXTENDED E) FRM THAT POINT
     : CONT E/FOR APPROX 20FT FRM THAT POINT CONT S/TO WINDINGWALK ST THE ENTIRE
     : DISTANCE
Address: DISCOVERY FALLS DR
X/ST 1 : WINDINGWALK ST
Grids: 1331G014                                             Delineated: Y
Lat/Long  : 32.621092/-116.960403 32.621117/-116.960275
          : 32.619791/-116.960148 32.619816/-116.960020
Caller GPS:

Boring: N  Explosives: N  Vacuum: N

Re-Mark: N

Work : EMERGENCY INSTALL UGRND UTILS
Work date: 10/20/08 Time: 09:34 Hrs notc: 000 Work hrs: 000 Priority: 2
Instruct : WORK CONTINUING        Permit   : 2007901579
Done for : BROOKFIELD HOMES

Company: BASILE CONSTRUCTION            Caller: JENNIFER
Address: 7840 DUNBROOK ROAD
City&St: SAN DIEGO, CA                  Zip: 92126      Fax: 858-586-7809
Phone: 858-586-7800 Ext:      Call back: 7-4
Formn: STEVE MORENO         Phone: 619-813-7809
Email: JEN@BASILE-DIG.COM

                                  COMMENTS

REF EXP TICKET A081710258, UPDATE ONLY-WORK CONT PER JENNIFER--[LRL 07/28/08
08:51]
**RESEND**UPDATE ONLY-WORK CONT PER JENNIFER--[ADS 08/25/08 14:23]
**RESEND**UPDATE ONLY-WORK CONT PER YVETTE--[KMC 09/22/08 13:06]
**RESEND**UPDATE ONLY-WORK CONT PER JENNIFER--[LRL 10/20/08 09:34]

Mbrs : ATTD28SD      CHU01  COX01  OTAYWTRSWR    SDG07  SDG09  USDG09
