
From AL811
Audit For 6/8/2013
Output Utiliquest - Atlanta

For ATT/Southern Bell - GA - SBGA01 : SBGA01
For Utiliquest - Atlanta : 

Type  Seq#  Ticket        Status       Codes                         
----  ----  ------------  -----------  ------------------------------

Emergency     : 0
Resend        : 0
Failed        : 0
Total         : 0



Legend
-----------------------
  - Normal
* - Resend
! - Emergency

