Version 300
Charset "WindowsLatin1"
Delimiter ","
CoordSys Earth Projection 1, 62
Columns 3
  name Char(10)
  description Char(100)
  Field3 Char(100)
Data

Region  1
  6
-77.051429 38.915196
-77.059492 38.9072
-77.05468 38.903051
-77.047787 38.904164
-77.044926 38.909224
-77.051429 38.915196
    Pen (2,2,0) 
    Brush (2,16777215,16777215)
    Center -77.052209 38.909123
Region  1
  5
-77.057151 38.919143
-77.049478 38.914285
-77.042195 38.916512
-77.047787 38.920661
-77.057151 38.919143
    Pen (2,2,0) 
    Brush (2,16777215,16777215)
    Center -77.049673 38.917473
Region  1
  11
-77.037644 38.919649
-77.044146 38.914184
-77.039204 38.912565
-77.039074 38.91054
-77.035563 38.909528
-77.036863 38.912463
-77.037774 38.911957
-77.038164 38.913475
-77.030101 38.915196
-77.032832 38.920358
-77.037644 38.919649
    Pen (2,2,0) 
    Brush (2,16777215,16777215)
    Center -77.037123 38.914943
Region  1
  8
-77.037691 38.928985
-77.039379 38.921711
-77.028341 38.921711
-77.02964 38.918479
-77.027302 38.91464
-77.014577 38.918479
-77.023667 38.92848
-77.037691 38.928985
    Pen (2,2,0) 
    Brush (2,16777215,16777215)
    Center -77.026978 38.921812
Region  1
  9
-77.023407 38.93141
-77.024576 38.929996
-77.02055 38.928076
-77.020161 38.925955
-77.014317 38.918681
-77.009643 38.918984
-77.005617 38.925348
-77.014837 38.931309
-77.023407 38.93141
    Pen (2,2,5263615) 
    Brush (2,16777215,16777215)
    Center -77.015096 38.925045
