
KORTERRA AUDIT UTILIQUEST-SMTP-1 *EOD AUDIT* FOR TICKETS SENT ON 6/17/2010

Ticket Number			Seq #
---------------------------------------------------------
NJ101672203			1
NJ101680002			2
NJ101680008			3
NJ101680014			4
NJ101680010			5
NJ101680017			6
NJ101680030			7
NJ101680021			8
NJ101680003			9
NJ101680001			10
NJ101672194			11
NJ101680025			12
NJ101680050			13
NJ101680058			14
NJ101680060			15
NJ101680067			16
NJ101680040			17
NJ101672200			18
NJ101680068			19
NJ101680095			20
NJ101680104			21
NJ101680112			22
NJ101672195			23
NJ101672192			24
NJ101680117			25
NJ101672183			26
NJ101672178			27
NJ101672155			28
NJ101672151			29
NJ101680093			30
NJ101680128			31
NJ101672145			32
NJ101672138			33
NJ101680132			34
NJ101672133			35
NJ101672127			36
NJ101680138			37
NJ101672126			38
NJ101672078			39
NJ101671827			40
NJ101660930			41
NJ101660937			42
NJ101660892			43
NJ101680114			44
NJ101680135			45
NJ101660946			46
NJ101660946			47
NJ101660942			48
NJ101662227			49
NJ101670707			50
NJ101660466			51
NJ101680109			52
NJ101680111			53
NJ101680139			54
NJ101672180			55
NJ101680052			56
NJ101680066			57
NJ101680154			58
NJ101680162			59
NJ101680064			60
NJ101680071			61
NJ101680126			62
NJ101680170			63
NJ101680129			64
NJ101680137			65
NJ101680015			66
NJ101680141			67
NJ101680015			68
NJ101680136			69
NJ101680140			70
NJ101680183			71
NJ101680177			72
NJ101680180			73
NJ101680191			74
NJ101680209			75
NJ101680237			76
NJ101680253			77
NJ101680255			78
NJ101680272			79
NJ101680261			80
NJ101680284			81
NJ101680208			82
NJ101680263			83
NJ101680294			84
NJ101680305			85
NJ101680243			86
NJ101680262			87
NJ101680277			88
NJ101680299			89
NJ101680334			90
NJ101680273			91
NJ101680301			92
NJ101680329			93
NJ101680347			94
NJ101680350			95
NJ101680247			96
NJ101680354			97
NJ101680338			98
NJ101680344			99
NJ101680348			100
NJ101680357			101
NJ101680366			102
NJ101680368			103
NJ101680371			104
NJ101680373			105
NJ101680375			106
NJ101680379			107
NJ101680381			108
NJ101680384			109
NJ101680385			110
NJ101680388			111
NJ101680252			112
NJ101680387			113
NJ101680419			114
NJ101680427			115
NJ101680430			116
NJ101680438			117
NJ101680442			118
NJ101680448			119
NJ101680423			120
NJ101680434			121
NJ101680463			122
NJ101680422			123
NJ101680472			124
NJ101680445			125
NJ101680460			126
NJ101680464			127
NJ101680475			128
NJ101680474			129
NJ101680506			130
NJ101680520			131
NJ101680483			132
NJ101680512			133
NJ101680526			134
NJ101680541			135
NJ101680543			136
NJ101680469			137
NJ101680501			138
NJ101680516			139
NJ101680533			140
NJ101680518			141
NJ101680521			142
NJ101680546			143
NJ101680568			144
NJ101680564			145
NJ101680565			146
NJ101680561			147
NJ101680575			148
NJ101680580			149
NJ101680540			150
NJ101680563			151
NJ101680569			152
NJ101680574			153
NJ101680588			154
NJ101680592			155
NJ101680594			156
NJ101680595			157
NJ101680589			158
NJ101680602			159
NJ101680620			160
NJ101680625			161
NJ101680535			162
NJ101680436			163
NJ101680215			164
NJ101680617			165
NJ101680662			166
NJ101680246			167
NJ101680143			168
NJ101680635			169
NJ101680163			170
NJ101680159			171
NJ101680167			172
NJ101680640			173
NJ101680173			174
NJ101680217			175
NJ101680188			176
NJ101680274			177
NJ101680682			178
NJ101680228			179
NJ101680285			180
NJ101680316			181
NJ101680297			182
NJ101680665			183
NJ101680688			184
NJ101680670			185
NJ101680654			186
NJ101680605			187
NJ101680324			188
NJ101680693			189
NJ101680698			190
NJ101680703			191
NJ101680340			192
NJ101680336			193
NJ101680325			194
NJ101680327			195
NJ101680705			196
NJ101680365			197
NJ101680704			198
NJ101680714			199
NJ101680717			200
NJ101680683			201
NJ101680730			202
NJ101680733			203
NJ101680735			204
NJ101680734			205
NJ101680747			206
NJ101680753			207
NJ101680745			208
NJ101680761			209
NJ101680762			210
NJ101680766			211
NJ101680754			212
NJ101680771			213
NJ101680772			214
NJ101680777			215
NJ101680768			216
NJ101680775			217
NJ101680790			218
NJ101680841			219
NJ101680879			220
NJ101680866			221
NJ101680876			222
NJ101680795			223
NJ101680910			224
NJ101680900			225
NJ101680807			226
NJ101680892			227
NJ101680895			228
NJ101680922			229
NJ101680926			230
NJ101680931			231
NJ101680946			232
NJ101680578			233
NJ101680908			234
NJ101680981			235
NJ101680960			236
NJ101680972			237
NJ101680943			238
NJ101681001			239
NJ101681005			240
NJ101680360			241
NJ101680342			242
NJ101680902			243
NJ101680947			244
NJ101680914			245
NJ101680353			246
NJ101680382			247
NJ101680984			248
NJ101680985			249
NJ101680991			250
NJ101681007			251
NJ101681014			252
NJ101681021			253
NJ101681027			254
NJ101681033			255
NJ101681042			256
NJ101681045			257
NJ101681047			258
NJ101681049			259
NJ101681057			260
NJ101681060			261
NJ101681061			262
NJ101680401			263
NJ101681064			264
NJ101681068			265
NJ101681023			266
NJ101681029			267
NJ101681034			268
NJ101681084			269
NJ101680412			270
NJ101680421			271
NJ101680410			272
NJ101680397			273
NJ101680397			274
NJ101680431			275
NJ101680451			276
NJ101680440			277
NJ101681072			278
NJ101681080			279
NJ101681089			280
NJ101681083			281
NJ101681092			282
NJ101681096			283
NJ101681100			284
NJ101681099			285
NJ101681117			286
NJ101681122			287
NJ101681130			288
NJ101681131			289
NJ101671378			290
NJ101681110			291
NJ101671328			292
NJ101671339			293
NJ101671430			294
NJ101671654			295
NJ101681142			296
NJ101671677			297
NJ101671697			298
NJ101681125			299
NJ101681144			300
NJ101671427			301
NJ101671435			302
NJ101671546			303
NJ101681148			304
NJ101681152			305
NJ101681153			306
NJ101681157			307
NJ101671295			308
NJ101671524			309
NJ101671540			310
NJ101671552			311
NJ101671611			312
NJ101671617			313
NJ101681160			314
NJ101671291			315
NJ101671303			316
NJ101671305			317
NJ101671308			318
NJ101671340			319
NJ101671350			320
NJ101681168			321
NJ101681172			322
NJ101671429			323
NJ101671437			324
NJ101671438			325
NJ101671444			326
NJ101671475			327
NJ101671496			328
NJ101671498			329
NJ101681164			330
NJ101681173			331
NJ101681188			332
NJ101671675			333
NJ101681195			334
NJ101681184			335
NJ101681200			336
NJ101681206			337
NJ101681209			338
NJ101681217			339
NJ101681219			340
NJ101681212			341
NJ101681234			342
NJ101681245			343
NJ101681256			344
NJ101671698			345
NJ101681214			346
NJ101681251			347
NJ101681218			348
NJ101671280			349
NJ101681302			350
NJ101671623			351
NJ101671671			352
NJ101681298			353
NJ101681325			354
NJ101671337			355
NJ101671390			356
NJ101671445			357
NJ101671448			358
NJ101671451			359
NJ101671589			360
NJ101671595			361
NJ101671602			362
NJ101671419			363
NJ101671450			364
NJ101671460			365
NJ101671593			366
NJ101671621			367
NJ101671680			368
NJ101681326			369
NJ101681342			370
NJ101671298			371
NJ101671307			372
NJ101671314			373
NJ101681343			374
NJ101681358			375
NJ101681371			376
NJ101681291			377
NJ101681301			378
NJ101681314			379
NJ101681315			380
NJ101681319			381
NJ101681324			382
NJ101681331			383
NJ101681257			384
NJ101681347			385
NJ101681352			386
NJ101681360			387
NJ101671544			388
NJ101671624			389
NJ101671626			390
NJ101671641			391
NJ101681420			392
NJ101681395			393
NJ101681397			394
NJ101681407			395
NJ101681334			396
NJ101680411			397
NJ101680441			398
NJ101680524			399
NJ101681434			400
NJ101680557			401
NJ101680511			402
NJ101680527			403
NJ101680573			404
NJ101680530			405
NJ101680560			406
NJ101680616			407
NJ101680628			408
NJ101681444			409
NJ101681448			410
NJ101681453			411
NJ101681458			412
NJ101680639			413
NJ101680642			414
NJ101680607			415
NJ101680661			416
NJ101681460			417
NJ101681469			418
NJ101681479			419
NJ101681470			420
NJ101681498			421
NJ101680439			422
NJ101680489			423
NJ101681482			424
NJ101681488			425
NJ101681513			426
NJ101681515			427
NJ101681517			428
NJ101681519			429
NJ101681490			430
NJ101681525			431
NJ101681531			432
NJ101680591			433
NJ101680470			434
NJ101681500			435
NJ101681536			436
NJ101680572			437
NJ101680599			438
NJ101680658			439
NJ101680679			440
NJ101681502			441
NJ101681504			442
NJ101680722			443
NJ101681506			444
NJ101681557			445
NJ101680723			446
NJ101680741			447
NJ101680749			448
NJ101680763			449
NJ101681508			450
NJ101681512			451
NJ101680785			452
NJ101680765			453
NJ101681516			454
NJ101681563			455
NJ101680562			456
NJ101680653			457
NJ101680666			458
NJ101680742			459
NJ101680695			460
NJ101681445			461
NJ101681521			462
NJ101681529			463
NJ101681541			464
NJ101681567			465
NJ101680794			466
NJ101681569			467
NJ101681577			468
NJ101680830			469
NJ101680836			470
NJ101680860			471
NJ101680864			472
NJ101681535			473
NJ101681543			474
NJ101681588			475
NJ101680920			476
NJ101681549			477
NJ101681551			478
NJ101681609			479
NJ101680875			480
NJ101680942			481
NJ101680955			482
NJ101680966			483
NJ101680979			484
NJ101681559			485
NJ101681605			486
NJ101681618			487
NJ101681276			488
NJ101681564			489
NJ101681592			490
NJ101681611			491
NJ101681632			492
NJ101681562			493
NJ101681575			494
NJ101681582			495
NJ101681533			496
NJ101681646			497
NJ101681626			498
NJ101680584			499
NJ101680728			500
NJ101680805			501
NJ101680870			502
NJ101681578			503
NJ101681601			504
NJ101681622			505
NJ101681658			506
NJ101680897			507
NJ101680952			508
NJ101681659			509
NJ101681660			510
NJ101681679			511
NJ101681680			512
NJ101680982			513
NJ101680983			514
NJ101681004			515
NJ101681637			516
NJ101681648			517
NJ101681690			518
NJ101681019			519
NJ101681694			520
NJ101681051			521
NJ101681067			522
NJ101681070			523
NJ101681082			524
NJ101680752			525
NJ101680936			526
NJ101680925			527
NJ101681706			528
NJ101680850			529
NJ101680990			530
NJ101681076			531
NJ101681076			532
NJ101681055			533
NJ101681090			534
NJ101681107			535
NJ101681104			536
NJ101681132			537
NJ101681139			538
NJ101681722			539
NJ101681757			540
NJ101681766			541
NJ101681755			542
NJ101681761			543
NJ101681166			544
NJ101681181			545
NJ101681237			546
NJ101681265			547
NJ101681261			548
NJ101681296			549
NJ101681713			550
NJ101681734			551
NJ101681775			552
NJ101681776			553
NJ101681778			554
NJ101681781			555
NJ101681792			556
NJ101681784			557
NJ101681808			558
NJ101681791			559
NJ101681814			560
NJ101681820			561
NJ101681825			562
NJ101681756			563
NJ101680941			564
NJ101681011			565
NJ101681041			566
NJ101681115			567
NJ101681137			568
NJ101681198			569
NJ101681777			570
NJ101681278			571
NJ101681312			572
NJ101681307			573
NJ101681255			574
NJ101681366			575
NJ101681332			576
NJ101681387			577
NJ101681806			578
NJ101681832			579
NJ101681839			580
NJ101681849			581
NJ101681394			582
NJ101681351			583
NJ101681367			584
NJ101681862			585
NJ101681867			586
NJ101681873			587
NJ101681876			588
NJ101681882			589
NJ101681886			590
NJ101681044			591
NJ101681847			592
NJ101681894			593
NJ101681895			594
NJ101681900			595
NJ101681904			596
NJ101681093			597
NJ101681207			598
NJ101681310			599
NJ101681353			600
NJ101680195			601
NJ101681119			602
NJ101681250			603
NJ101681293			604
NJ101681350			605
NJ101681364			606
NJ101681906			607
NJ101681909			608
NJ101671504			609
NJ101671377			610
NJ101671601			611
NJ101681403			612
NJ101681435			613
NJ101681411			614
NJ101681877			615
NJ101681917			616
NJ101681918			617
NJ101681922			618
NJ101681468			619
NJ101681484			620
NJ101681454			621
NJ101681523			622
NJ101681494			623
NJ101681539			624
NJ101681923			625
NJ101681930			626
NJ101681938			627
NJ101681947			628
NJ101681220			629
NJ101681338			630
NJ101681380			631
NJ101681414			632
NJ101681432			633
NJ101681480			634
NJ101681537			635
NJ101681548			636
NJ101681546			637
NJ101681589			638
NJ101681616			639
NJ101681952			640
NJ101681955			641
NJ101681944			642
NJ101681962			643
NJ101681965			644
NJ101681969			645
NJ101681929			646
NJ101681959			647
NJ101681977			648
NJ101681972			649
NJ101681980			650
NJ101681982			651
NJ101681986			652
NJ101681987			653
NJ101681948			654
NJ101681983			655
NJ101681988			656
NJ101681993			657
NJ101681114			658
NJ101681990			659
NJ101682003			660
NJ101682004			661
NJ101682007			662
NJ101682011			663
NJ101682006			664
NJ101682012			665
NJ101682014			666
NJ101681244			667
NJ101671618			668
NJ101681451			669
NJ101681472			670
NJ101681497			671
NJ101681545			672
NJ101682016			673
NJ101682019			674
NJ101681868			675
NJ101681879			676
NJ101681812			677
NJ101681373			678
NJ101681976			679
NJ101681831			680
NJ101681999			681
NJ101682002			682
NJ101681669			683
NJ101681161			684
NJ101681871			685
NJ101681710			686
NJ101681966			687
NJ101681881			688
NJ101681899			689
NJ101681774			690
NJ101681951			691
NJ101681996			692
NJ101681850			693
NJ101681684			694
NJ101681718			695
NJ101681720			696
NJ101681629			697
NJ101681798			698
NJ101681634			699
NJ101681744			700
NJ101681797			701
NJ101681810			702
NJ101681728			703
NJ101681721			704
NJ101681875			705
NJ101681602			706
NJ101681642			707
NJ101681600			708
NJ101681581			709
NJ101681612			710
NJ101681652			711
NJ101681654			712
NJ101681644			713
NJ101681661			714
NJ101681670			715
NJ101681591			716
NJ101681675			717
NJ101681610			718
NJ101681686			719
NJ101681693			720
NJ101681692			721
NJ101681709			722
NJ101681712			723
NJ101681759			724
NJ101681764			725
NJ101681704			726
NJ101681763			727
NJ101681758			728
NJ101681851			729
NJ101681872			730
NJ101681844			731
NJ101681821			732
NJ101681891			733
NJ101681892			734
NJ101681915			735
NJ101681927			736
NJ101681954			737
NJ101681967			738
NJ101681975			739
NJ101681981			740
NJ101682013			741
NJ101682005			742
NJ101682010			743
NJ101682021			744
NJ101682023			745
NJ101682020			746
NJ101682025			747
NJ101682026			748
NJ101682031			749
NJ101682033			750
NJ101682038			751
NJ101682040			752
NJ101682041			753
NJ101682043			754
NJ101682044			755
NJ101682048			756
NJ101682052			757
NJ101682051			758
NJ101682054			759
NJ101682055			760
NJ101682056			761
NJ101682057			762
NJ101682058			763
NJ101682060			764
NJ101682061			765
NJ101682062			766
NJ101682063			767
NJ101682064			768
NJ101682065			769
NJ101682067			770
NJ101682068			771
NJ101682069			772
NJ101682070			773
NJ101682083			774
NJ101682084			775
NJ101682085			776
NJ101682086			777
NJ101682071			778
NJ101682074			779
NJ101682082			780
NJ101682087			781
NJ101682078			782
NJ101682080			783
NJ101682091			784
NJ101682093			785
NJ101682104			786
NJ101682105			787
NJ101682108			788
NJ101682116			789


Total Sent = 789

End Of Report