
UQSTSO 01167A USAS 08/21/09 14:39:18 A91551430-06A REMK REMK GRID

Ticket : A91551430 Date: 08/21/09 Time: 14:35 Oper: KMC Chan: 100
Old Tkt: A91551430 Date: 06/04/09 Time: 16:30 Oper: ADS Revision: 06A
State: CA County: LOS ANGELES          Place: REDONDO BEACH
Locat: ENTIRE INTER/OF ARTESIA BLVD & GREVILLEA AVE, CENTERLINE TO BACK OF
     : SIDEWALK ON S/SIDE OF ARTESIA BLVD FROM GREVILLEA AVE E/TO PRAIRIE AVE
Address: ARTESIA BLVD
X/ST 1 : GREVILLEA AVE
Grids: 0733D074     0733E073     0763C012     0763D0112     Delineated: Y
Grids: 0763E011
Lat/Long  : 33.873292/-118.355314 33.873263/-118.343300
          : 33.872468/-118.355316 33.872439/-118.343302
Caller GPS:

Boring: Y  Explosives: N  Vacuum: N

Re-Mark: Y  Re-Mark Type: ALL

Work : INSTALL ELECT CONDUIT
Work date: 08/21/09 Time: 14:39 Hrs notc: 000 Work hrs: 000 Priority: 2
Instruct : REQUEST REMARKS        Permit   : NOT REQUIRED
Done for : LACBPW

Company: MSL                            Caller: BRIAN
Address: 4580 E EISENHOWER CIRCLE
City&St: ANAHEIM, CA                    Zip: 92807      Fax: 714-693-4838
Phone: 714-693-4837 Ext:      Call back: 7AM-4PM
Formn: DON                  Phone: 714-493-9066

                                  COMMENTS

**RESEND**UPDATE ONLY-WORK CONT PER BRIAN--[CLA 07/02/09 13:29]
**RESEND**REQUEST REMARKS FROM ALL-WORK CONT PER BRIAN--[NHR 07/13/09 15:40]
**RESEND**NEED STANDBY FROM ALL UTILI ON FRI 7-24-09 AT 8AM PER BRAIN--[KKP
07/22/09 15:58]
**RESEND**UPDATE ONLY-WORK CONT PER BRYAN--[LYD 07/28/09 14:35]
**RESEND**REQ STANDBY FRM ALL MEMBERS TO ID EXPOSED STEEL PIPE 8/13/09 @ 8:00AM
PER BRIAN--[JMC 08/12/09 12:17]
**RESEND**REQUEST REMARKS FROM ALL-WORK CONT NEED UTI TO PLEASE MEET MIKE ROUSH
AT INTER/OF ARTESIA BLVD & GREVILLEA AVE ON 8/24/09 AT 8:00AM TO REMARK LINES,
MIKE'S #714-936-1066; ALL OTHER MEMBERS PLEASE REMARK ASAP PER BRYAN--[KMC
08/21/09 14:39]

Mbrs : ATL01  ATTD22LAS     CHESP  COPW   CRMSNPIP      CWS01  CWSWBMWD
LACOTS LNDL   MOB01  SCG32F SCW2M  TORWTRDIST    UCCT99 USCE44 UTWCTOR
UVZSTAMON     WBMWD
