
Louisiana One Call
SUMM
DAILY AUDIT OF TICKETS SENT ON 06/04/09

Date/Time: 06/05/2009 12:15:03 AM
Receiving Terminal: LAFCAB01

Seq #   Ticket #    Seq #   Ticket #    Seq #   Ticket #    Seq #   Ticket #    
----- ------------  ----- ------------  ----- ------------  ----- ------------  
   1*90232709-EMER |  26 90232883-48HR |  50 90233837-48HR |  74 90233850-48HR |
   2 90232753-UPDT |  27 90232890-48HR |  51 90233379-48HR |  75 90233864-48HR |
   3 90232760-UPDT |  28 90232893-48HR |  52 90233385-48HR |  76 90233867-48HR |
   4 90232761-UPDT |  29 90232925-48HR |  53 90227486-48HR |  77 90233872-48HR |
   5 90232666-REPR |  30 90233352-48HR |  54 90234020-48HR |  78 90233874-48HR |
   6 90232833-48HR |  31 90232962-48HR |  55 90234060-48HR |  79 90233875-48HR |
   7 90232896-48HR |  32 90233467-48HR |  56 90234101-48HR |  80 90234139-48HR |
   8 90232902-48HR |  33 90233007-48HR |  57 90233448-48HR |  81 90234146-48HR |
   9 90232717-48HR |  34 90233091-48HR |  58 90225628-48HR |  82 90234026-48HR |
  10 90233046-48HR |  35 90233082-48HR |  59 90233521-48HR |  83 90234537-48HR |
  11 90232709-EMER |  36 90233044-48HR |  60 90234182-UPDT |  84 90234362-REPR |
  12 90232818-48HR |  37 90233089-48HR |  61 90234187-UPDT |  85 90234479-48HR |
  13 90232803-48HR |  38 90233160-REPR |  62 90234190-UPDT |  86 90234628-48HR |
  14 90232824-48HR |  39 90231818-48HR |  63 90233626-48HR |  87 90234662-48HR |
  15 90232828-48HR |  40 90233326-48HR |  64 90228641-SHRT |  88 90234692-48HR |
  16 90233237-48HR |  41 90233337-48HR |  65 90234323-48HR |  89 90234701-48HR |
  17 90233272-UPDT |  42 90233344-48HR |  66 90233729-UPDT |  90 90234532-UPDT |
  18 90232840-48HR |  43 90233365-48HR |  67 90234348-48HR |  91 90234561-48HR |
  19 90232875-48HR |  44 90233370-UPDT |  68 90233720-48HR |  92 90234621-48HR |
  20 90232866-48HR |  45 90233657-48HR |  69 90233743-UPDT |  93 90234610-48HR |
  21 90232856-48HR |  46 90233697-48HR |  70 90233795-48HR |  94 90234777-48HR |
  22 90232850-48HR |  47 90233662-48HR |  71 90233798-48HR |  95 90234813-48HR |
  23 90232882-48HR |  48 90233711-48HR |  72 90233869-48HR |  96 90234825-48HR |
  24 90232861-48HR |  49 90233828-EMER |  73 90233848-48HR |  97 90234843-48HR |
  25 90232868-48HR |

* indicates ticket # is repeated

Total Tickets: 97

EMER - EMERGENCY                      |    3

UPDT - UPDATE                         |   11

REPR - REPAIR                         |    3

48HR - 48 HOURS NOTICE                |   79

SHRT - SHORT NOTICE                   |    1


Please call (800) 272-3020 if this data does
not match the tickets you received on 06/04/09
