
Louisiana One Call
SUMM
DAILY AUDIT OF TICKETS SENT ON 06/04/09

Date/Time: 06/05/2009 12:15:03 AM
Receiving Terminal: LF01

Seq #   Ticket #    Seq #   Ticket #    Seq #   Ticket #    Seq #   Ticket #    
----- ------------  ----- ------------  ----- ------------  ----- ------------  
   1 90232629-48HR |  65 90233373-48HR | 128 90233382-48HR | 191 90227621-48HR |
   2 90226174-48HR |  66 90232962-48HR | 129 90233387-48HR | 192 90233864-48HR |
   3*90232709-EMER |  67 90232987-48HR | 130 90233385-48HR | 193 90233867-48HR |
   4 90232725-48HR |  68 90233401-48HR | 131 90233398-48HR | 194 90233872-48HR |
   5 90232732-48HR |  69 90232997-48HR | 132 90233927-UPDT | 195 90233874-48HR |
   6 90232753-UPDT |  70 90233020-48HR | 133 90233939-UPDT | 196 90233875-48HR |
   7 90232760-UPDT |  71 90233022-48HR | 134 90227486-48HR | 197 90234139-48HR |
   8 90232761-UPDT |  72 90233467-48HR | 135 90233392-UPDT | 198 90234146-48HR |
   9 90232766-48HR |  73 90233036-48HR | 136 90233937-48HR | 199 90234026-48HR |
  10 90232773-48HR |  74 90233043-48HR | 137 90233417-48HR | 200 90234324-48HR |
  11 90232778-48HR |  75 90233053-48HR | 138 90233437-48HR | 201 90234537-48HR |
  12 90232666-REPR |  76 90233050-48HR | 139 90233449-48HR | 202 90234362-REPR |
  13 90232822-REPR |  77 90233007-48HR | 140 90233997-48HR | 203 90233952-48HR |
  14 90232825-48HR |  78 90233091-48HR | 141 90234020-48HR | 204 90234148-REPR |
  15 90232831-REPR |  79 90233082-48HR | 142 90234032-48HR | 205 90234479-48HR |
  16 90232833-48HR |  80 90233044-48HR | 143 90228420-48HR | 206 90234161-REPR |
  17 90232896-48HR |  81 90233524-48HR | 144 90234060-48HR | 207 90234153-48HR |
  18 90232902-48HR |  82 90233089-48HR | 145 90234051-48HR | 208 90234628-48HR |
  19 90232914-EMER |  83 90233098-48HR | 146 90234087-REPR | 209 90233934-UPDT |
  20 90232717-48HR |  84 90233106-48HR | 147 90234101-48HR | 210 90234634-48HR |
  21 90232994-48HR |  85 90233105-48HR | 148 90233448-48HR | 211 90234647-48HR |
  22 90232724-48HR |  86 90233574-48HR | 149 90234126-48HR | 212 90234638-48HR |
  23 90233046-48HR |  87 90233146-48HR | 150 90234121-EMER | 213 90234204-48HR |
  24 90233061-48HR |  88 90233160-REPR | 151 90224374-48HR | 214 90234150-UPDT |
  25 90233068-48HR |  89 90233609-48HR | 152 90234100-48HR | 215 90234393-48HR |
  26 90233076-48HR |  90 90233123-48HR | 153 90234151-48HR | 216 90234662-48HR |
  27 90233102-48HR |  91 90233204-48HR | 154 90225628-48HR | 217 90234692-48HR |
  28 90232744-48HR |  92 90233152-48HR | 155 90233521-48HR | 218 90234701-48HR |
  29 90233145-48HR |  93 90233230-REPR | 156 90234182-UPDT | 219 90234494-48HR |
  30 90232709-EMER |  94 90233274-UPDT | 157 90234187-UPDT | 220 90234516-48HR |
  31 90232818-48HR |  95 90233290-48HR | 158 90234183-48HR | 221 90234532-UPDT |
  32 90233142-EMER |  96 90233295-48HR | 159 90234190-UPDT | 222 90234534-48HR |
  33 90231385-UPDT |  97 90233304-48HR | 160 90234196-48HR | 223 90234519-48HR |
  34 90232803-48HR |  98 90233225-UPDT | 161 90233571-REPR | 224 90234533-48HR |
  35 90232824-48HR |  99 90233215-48HR | 162 90233610-48HR | 225 90234561-48HR |
  36 90232828-48HR | 100 90231818-48HR | 163 90233626-48HR | 226 90234578-48HR |
  37 90233237-48HR | 101 90233326-48HR | 164 90234263-REPR | 227 90234592-48HR |
  38 90233214-48HR | 102 90233337-48HR | 165 90228641-SHRT | 228 90234621-48HR |
  39 90233272-UPDT | 103 90233344-48HR | 166 90234323-48HR | 229 90234604-48HR |
  40 90232840-48HR | 104 90233365-48HR | 167 90233958-48HR | 230 90234610-48HR |
  41 90232858-48HR | 105 90233370-UPDT | 168 90234313-48HR | 231 90234625-24HR |
  42 90232875-48HR | 106 90233375-48HR | 169 90233729-UPDT | 232 90234629-48HR |
  43 90232866-48HR | 107 90233657-48HR | 170 90233713-REPR | 233 90234777-48HR |
  44 90232856-48HR | 108 90233691-48HR | 171 90234348-48HR | 234 90234663-48HR |
  45 90232850-48HR | 109 90233697-48HR | 172 90233733-UPDT | 235 90234696-48HR |
  46 90232882-48HR | 110 90233662-48HR | 173 90233731-UPDT | 236 90234688-48HR |
  47 90232861-48HR | 111 90233243-48HR | 174 90233720-48HR | 237 90234698-REPR |
  48 90232864-48HR | 112 90233711-48HR | 175 90233737-UPDT | 238 90234793-REPR |
  49 90232868-48HR | 113 90233305-48HR | 176 90233743-UPDT | 239 90234795-48HR |
  50 90233294-48HR | 114 90233301-48HR | 177 90233725-REPR | 240 90234798-48HR |
  51 90233289-48HR | 115 90233738-48HR | 178 90233728-REPR | 241 90234763-48HR |
  52 90233315-EMER | 116 90233753-REPR | 179 90233751-UPDT | 242 90234767-48HR |
  53 90232881-48HR | 117 90233782-48HR | 180*90234353-48HR | 243 90228828-48HR |
  54 90232883-48HR | 118 90233777-48HR | 181 90234353-48HR | 244 90234810-REPR |
  55 90232890-48HR | 119 90233335-48HR | 182 90233778-48HR | 245 90234807-48HR |
  56 90232885-48HR | 120 90233788-48HR | 183 90233795-48HR | 246 90234813-48HR |
  57 90232893-48HR | 121 90233828-EMER | 184 90233798-48HR | 247 90234825-48HR |
  58 90232888-48HR | 122 90233355-48HR | 185 90224838-48HR | 248 90234838-48HR |
  59 90232874-48HR | 123 90233837-48HR | 186 90234407-48HR | 249 90234831-48HR |
  60 90232925-48HR | 124 90233813-48HR | 187 90234405-48HR | 250 90234843-48HR |
  61 90233310-24HR | 125 90233369-48HR | 188 90233869-48HR | 251 90234868-48HR |
  62 90228085-48HR | 126 90233374-48HR | 189 90233848-48HR | 252 90233253-UPDT |
  63 90233352-48HR | 127 90233379-48HR | 190 90233850-48HR | 253 90233769-UPDT |
  64 90232957-UPDT |

* indicates ticket # is repeated

Total Tickets: 253

48HR - 48 HOURS NOTICE                |  199

EMER - EMERGENCY                      |    7

UPDT - UPDATE                         |   26

REPR - REPAIR                         |   18

24HR - 24 HOURS NOTICE                |    2

SHRT - SHORT NOTICE                   |    1


Please call (800) 272-3020 if this data does
not match the tickets you received on 06/04/09
