
Notified Date      Ticket Id         Member    Ticket Type
06/04/2009 00:13   06019-041-028:1   Agl106    Late
06/04/2009 00:13   06019-087-059:1   Agl106    Late
06/04/2009 00:14   06019-500-582:1   Agl106    Late
06/04/2009 00:14   06019-500-591:1   Agl106    Late
06/04/2009 00:14   06019-500-754:1   Agl106    Late
06/04/2009 00:16   06019-041-029:1   Agl106    Late
06/04/2009 00:17   06019-041-030:1   Agl106    Late
06/04/2009 00:17   06019-500-595:1   Agl106    Late
06/04/2009 00:32   06019-501-353:1   Agl108    Late
06/04/2009 00:32   06019-501-353:1   Agl113    Late
06/04/2009 07:46   06049-026-001:0   Agl113    Emergency
06/04/2009 07:46   06049-026-002:0   Agl113    Emergency
06/04/2009 07:46   06049-112-002:0   Agl104    Emergency
06/04/2009 07:46   06019-087-038:2   Agl104    Cancel
06/04/2009 07:46   06019-118-009:2   Agl122    Resend
06/04/2009 07:47   06049-112-003:0   Agl104    Normal
06/04/2009 07:49   06049-500-047:0   Agl122    Restake
06/04/2009 07:49   06049-500-048:0   Agl122    Restake
06/04/2009 07:49   06049-500-050:0   Agl122    Restake
06/04/2009 07:49   06049-500-051:0   Agl122    Restake
06/04/2009 07:49   06049-500-052:0   Agl122    Restake
06/04/2009 07:49   06049-500-058:0   Agl122    Restake
06/04/2009 07:49   06049-500-055:0   Agl122    Restake
06/04/2009 07:49   06049-500-054:0   Agl122    Restake
06/04/2009 07:49   06049-500-057:0   Agl122    Restake
06/04/2009 07:49   06049-500-059:0   Agl122    Restake
06/04/2009 07:49   06049-500-049:0   Agl122    Restake
06/04/2009 07:50   06049-500-060:0   Agl122    Restake
06/04/2009 07:50   06049-500-061:0   Agl122    Restake
06/04/2009 07:50   06049-500-064:0   Agl122    Restake
06/04/2009 07:50   06049-500-063:0   Agl122    Restake
06/04/2009 07:50   06049-500-065:0   Agl122    Restake
06/04/2009 07:50   06049-500-066:0   Agl122    Restake
06/04/2009 07:50   06049-500-071:0   Agl122    Restake
06/04/2009 07:50   06049-500-072:0   Agl122    Restake
06/04/2009 07:50   06049-500-073:0   Agl122    Restake
06/04/2009 07:50   06049-500-076:0   Agl113    Restake
06/04/2009 07:51   06049-500-078:0   Agl108    Restake
06/04/2009 07:51   06049-500-078:0   Agl113    Restake
06/04/2009 07:51   06049-500-081:0   Agl113    Restake
06/04/2009 07:51   06049-500-091:0   Agl113    Restake
06/04/2009 07:51   06049-500-094:0   Agl113    Restake
06/04/2009 07:57   06049-039-005:0   Agl104    Restake
06/04/2009 07:57   06049-068-007:0   Agl104    Normal
06/04/2009 08:03   06049-500-127:0   Agl104    Restake
06/04/2009 08:04   06049-500-126:0   Agl104    Restake
06/04/2009 08:06   06049-068-008:0   Agl122    Short
06/04/2009 08:06   06049-500-128:0   Agl104    Restake
06/04/2009 08:06   06049-500-131:0   Agl106    Restake
06/04/2009 08:06   06049-500-129:0   Agl104    Restake
06/04/2009 08:09   06049-104-001:0   Agl104    Restake
06/04/2009 08:09   06049-087-001:0   Agl118    Normal
06/04/2009 08:14   06049-103-006:0   Agl122    Emergency
06/04/2009 08:16   06049-500-147:0   Agl104    Normal
06/04/2009 08:16   06049-103-007:0   Agl122    Emergency
06/04/2009 08:16   06049-064-002:0   Agl122    Emergency
06/04/2009 08:19   06049-064-003:0   Agl122    Normal
06/04/2009 08:20   06049-500-155:0   Agl104    Normal
06/04/2009 08:24   06049-087-002:0   Agl122    Normal
06/04/2009 08:24   06049-500-158:0   Agl122    Restake
06/04/2009 08:24   06049-500-159:0   Agl120    Normal
06/04/2009 08:25   06049-017-007:0   Agl122    Normal
06/04/2009 08:26   06049-087-005:0   Agl122    Normal
06/04/2009 08:27   06049-500-174:0   Agl122    Normal
06/04/2009 08:30   06049-500-180:0   Agl122    Normal
06/04/2009 08:30   06049-500-187:0   Agl122    Normal
06/04/2009 08:31   06049-114-019:0   Agl122    Emergency
06/04/2009 08:32   06049-500-198:0   Agl104    Restake
06/04/2009 08:36   06049-119-011:0   Agl104    Normal
06/04/2009 08:41   06049-103-010:0   Agl113    Normal
06/04/2009 08:41   06049-500-228:0   Agl104    Restake
06/04/2009 08:43   06049-500-243:0   Agl122    Normal
06/04/2009 08:44   06049-500-255:0   Agl118    Normal
06/04/2009 08:50   06049-500-286:0   Agl118    Restake
06/04/2009 08:52   06049-500-299:0   Agl118    Restake
06/04/2009 08:59   06049-112-009:0   Agl122    Emergency
06/04/2009 09:01   06049-112-010:0   Agl122    Emergency
06/04/2009 09:02   06049-112-011:0   Agl122    Normal
06/04/2009 09:03   06049-060-005:0   Agl106    Emergency
06/04/2009 09:03   06049-112-012:0   Agl122    Emergency
06/04/2009 09:04   06049-500-364:0   Agl122    Restake
06/04/2009 09:06   06049-112-013:0   Agl122    Normal
06/04/2009 09:09   06049-106-006:0   Agl118    Normal
06/04/2009 09:10   06049-500-393:0   Agl104    Normal
06/04/2009 09:11   06049-500-401:0   Agl122    Restake
06/04/2009 09:13   06049-500-414:0   Agl104    Normal
06/04/2009 09:13   06049-500-417:0   Agl104    Normal
06/04/2009 09:13   06049-021-006:0   Agl122    Emergency
06/04/2009 09:15   06049-109-006:0   Agl104    Damage
06/04/2009 09:15   06049-021-007:0   Agl122    Normal
06/04/2009 09:16   06049-500-426:0   Agl122    Restake
06/04/2009 09:18   06049-500-433:0   Agl122    Restake
06/04/2009 09:18   06049-500-436:0   Agl122    Restake
06/04/2009 09:18   06049-500-439:0   Agl122    Restake
06/04/2009 09:21   06049-106-007:0   Agl118    Normal
06/04/2009 09:22   06049-089-002:0   Agl104    Normal
06/04/2009 09:23   06049-500-470:0   Agl106    Restake
06/04/2009 09:24   06049-087-013:0   Agl122    Emergency
06/04/2009 09:28   06049-087-014:0   Agl122    Emergency
06/04/2009 09:30   06049-500-508:0   Agl122    Normal
06/04/2009 09:34   06049-021-009:0   Agl122    Normal
06/04/2009 09:37   06049-500-548:0   Agl122    Restake
06/04/2009 09:38   06049-500-547:0   Agl122    Normal
06/04/2009 09:40   06049-500-554:0   Agl122    Restake
06/04/2009 09:40   06049-500-557:0   Agl122    Restake
06/04/2009 09:40   06049-500-560:0   Agl122    Restake
06/04/2009 09:40   06049-500-562:0   Agl122    Restake
06/04/2009 09:42   06049-500-565:0   Agl122    Restake
06/04/2009 09:43   06049-500-566:0   Agl122    Restake
06/04/2009 09:43   06049-500-568:0   Agl122    Restake
06/04/2009 09:43   06049-500-569:0   Agl122    Restake
06/04/2009 09:43   06049-500-570:0   Agl122    Restake
06/04/2009 09:43   06049-500-571:0   Agl122    Restake
06/04/2009 09:43   06049-500-575:0   Agl122    Restake
06/04/2009 09:44   06049-500-578:0   Agl122    Restake
06/04/2009 09:44   06049-500-581:0   Agl122    Restake
06/04/2009 09:44   06049-500-584:0   Agl122    Restake
06/04/2009 09:44   06049-500-586:0   Agl122    Restake
06/04/2009 09:46   06049-500-587:0   Agl118    Restake
06/04/2009 09:46   06049-500-590:0   Agl118    Restake
06/04/2009 09:46   06049-500-593:0   Agl118    Restake
06/04/2009 09:46   06049-500-595:0   Agl118    Restake
06/04/2009 09:46   06049-500-596:0   Agl118    Restake
06/04/2009 09:46   06049-500-591:0   Agl118    Restake
06/04/2009 09:48   06049-500-599:0   Agl113    Normal
06/04/2009 09:48   06049-500-600:0   Agl118    Restake
06/04/2009 09:48   06049-500-601:0   Agl118    Restake
06/04/2009 09:48   06049-500-602:0   Agl118    Restake
06/04/2009 09:51   06049-500-607:0   Agl118    Restake
06/04/2009 09:51   06049-500-608:0   Agl118    Restake
06/04/2009 09:51   06049-500-615:0   Agl104    Restake
06/04/2009 09:51   06049-500-611:0   Agl106    Normal
06/04/2009 09:55   06049-103-014:0   Agl122    Normal
06/04/2009 09:57   06049-012-004:0   Agl122    Update
06/04/2009 09:57   06049-500-645:0   Agl118    Restake
06/04/2009 09:59   06049-055-025:0   Agl118    Normal
06/04/2009 10:02   06049-500-675:0   Agl118    Normal
06/04/2009 10:12   06049-500-774:0   Agl113    Normal
06/04/2009 10:13   06049-500-782:0   Agl122    Restake
06/04/2009 10:16   06049-500-805:0   Agl104    Normal
06/04/2009 10:16   06049-500-806:0   Agl122    Restake
06/04/2009 10:18   06049-109-014:0   Agl104    Normal
06/04/2009 10:19   06049-039-031:0   Agl118    Normal
06/04/2009 10:21   06049-500-813:0   Agl104    Normal
06/04/2009 10:21   06049-500-821:0   Agl104    Normal
06/04/2009 10:24   06049-104-021:0   Agl104    Normal
06/04/2009 10:24   06049-500-832:0   Agl104    Normal
06/04/2009 10:24   06049-500-833:0   Agl122    Restake
06/04/2009 10:24   06049-500-838:0   Agl122    Restake
06/04/2009 10:26   06049-007-011:0   Agl104    Update
06/04/2009 10:26   06049-500-842:0   Agl122    Restake
06/04/2009 10:28   06049-068-021:0   Agl104    Normal
06/04/2009 10:28   06049-500-852:0   Agl118    Normal
06/04/2009 10:29   06049-500-862:0   Agl118    Normal
06/04/2009 10:29   06049-500-847:0   Agl122    Restake
06/04/2009 10:31   06049-500-864:0   Agl122    Restake
06/04/2009 10:34   06049-119-019:0   Agl106    Restake
06/04/2009 10:34   06049-119-020:0   Agl106    Restake
06/04/2009 10:36   06049-041-008:0   Agl106    Normal
06/04/2009 10:43   06049-500-936:0   Agl108    Normal
06/04/2009 10:43   06049-500-936:0   Agl113    Normal
06/04/2009 10:43   06049-500-937:0   Agl122    Restake
06/04/2009 10:44   06049-500-940:0   Agl122    Restake
06/04/2009 10:44   06049-500-945:0   Agl122    Restake
06/04/2009 10:44   06049-500-942:0   Agl122    Restake
06/04/2009 10:46   06049-012-009:0   Agl122    Restake
06/04/2009 10:46   06049-500-946:0   Agl113    Normal
06/04/2009 10:46   06049-500-950:0   Agl113    Normal
06/04/2009 10:46   06049-500-952:0   Agl113    Normal
06/04/2009 10:46   06049-500-957:0   Agl118    Restake
06/04/2009 10:46   06049-500-955:0   Agl118    Restake
06/04/2009 10:47   06049-119-021:0   Agl118    Normal
06/04/2009 10:47   06049-500-960:0   Agl113    Normal
06/04/2009 10:47   06049-500-964:0   Agl113    Normal
06/04/2009 10:47   06049-047-017:0   Agl118    Normal
06/04/2009 10:48   06019-022-029:2   Agl104    Resend
06/04/2009 10:48   06049-012-010:0   Agl122    Restake
06/04/2009 10:48   06049-500-967:0   Agl113    Normal
06/04/2009 10:48   06049-500-973:0   Agl120    Restake
06/04/2009 10:49   06049-500-975:0   Agl113    Normal
06/04/2009 10:49   06049-500-977:0   Agl120    Restake
06/04/2009 10:50   06049-500-978:0   Agl120    Restake
06/04/2009 10:50   06049-500-979:0   Agl113    Normal
06/04/2009 10:50   06049-500-981:0   Agl113    Normal
06/04/2009 10:51   06049-500-991:0   Agl122    Normal
06/04/2009 10:54   06049-501-008:0   Agl122    Normal
06/04/2009 10:58   06049-501-021:0   Agl104    Normal
06/04/2009 11:00   06049-023-019:0   Agl104    Normal
06/04/2009 11:01   06049-501-032:0   Agl104    Normal
06/04/2009 11:04   06049-501-046:0   Agl104    Normal
06/04/2009 11:05   06049-501-044:0   Agl122    Normal
06/04/2009 11:07   06049-501-057:0   Agl122    Normal
06/04/2009 11:07   06049-501-058:0   Agl104    Normal
06/04/2009 11:10   06049-015-034:0   Agl104    Restake
06/04/2009 11:12   06049-084-027:0   Agl104    Normal
06/04/2009 11:18   06049-501-101:0   Agl118    Normal
06/04/2009 11:19   06049-015-035:0   Agl118    Short
06/04/2009 11:24   06049-501-132:0   Agl122    Restake
06/04/2009 11:27   06049-103-028:0   Agl131    Normal
06/04/2009 11:27   06049-501-143:0   Agl122    Restake
06/04/2009 11:29   06049-501-155:0   Agl122    Restake
06/04/2009 11:33   06049-501-174:0   Agl122    Restake
06/04/2009 11:33   06049-501-167:0   Agl122    Restake
06/04/2009 11:34   06049-501-180:0   Agl122    Restake
06/04/2009 11:34   06049-501-178:0   Agl122    Normal
06/04/2009 11:35   06049-021-017:0   Agl118    Restake
06/04/2009 11:35   06049-501-184:0   Agl120    Normal
06/04/2009 11:36   06049-501-185:0   Agl122    Restake
06/04/2009 11:37   06049-501-186:0   Agl122    Restake
06/04/2009 11:39   06049-501-191:0   Agl122    Restake
06/04/2009 11:43   06049-501-194:0   Agl104    Normal
06/04/2009 11:45   06049-501-207:0   Agl122    Normal
06/04/2009 11:46   06049-501-210:0   Agl122    Normal
06/04/2009 11:52   06049-501-238:0   Agl122    Normal
06/04/2009 11:54   06049-501-243:0   Agl122    Restake
06/04/2009 12:07   06049-501-265:0   Agl104    Normal
06/04/2009 12:09   06049-501-267:0   Agl104    Normal
06/04/2009 12:09   06049-501-269:0   Agl122    Restake
06/04/2009 12:09   06049-501-272:0   Agl104    Normal
06/04/2009 12:13   06049-501-285:0   Agl104    Normal
06/04/2009 12:13   06049-501-287:0   Agl122    Restake
06/04/2009 12:13   06049-501-288:0   Agl104    Normal
06/04/2009 12:14   06049-501-280:0   Agl104    Normal
06/04/2009 12:14   06049-501-294:0   Agl122    Restake
06/04/2009 12:15   06049-501-295:0   Agl104    Normal
06/04/2009 12:15   06049-501-292:0   Agl104    Normal
06/04/2009 12:20   06049-055-033:0   Agl113    Design
06/04/2009 12:20   06049-501-308:0   Agl122    Restake
06/04/2009 12:22   06049-055-034:0   Agl113    Design
06/04/2009 12:25   06049-501-323:0   Agl122    Restake
06/04/2009 12:25   06049-501-320:0   Agl106    Normal
06/04/2009 12:28   06049-501-328:0   Agl122    Restake
06/04/2009 12:28   06049-060-021:0   Agl122    Normal
06/04/2009 12:28   06049-501-335:0   Agl104    Restake
06/04/2009 12:30   06049-038-026:0   Agl122    Normal
06/04/2009 12:31   06049-501-343:0   Agl122    Restake
06/04/2009 12:33   06049-501-346:0   Agl104    Restake
06/04/2009 12:33   06049-501-347:0   Agl122    Restake
06/04/2009 12:34   06049-501-350:0   Agl122    Restake
06/04/2009 12:36   06049-501-356:0   Agl122    Restake
06/04/2009 12:40   06049-501-365:0   Agl104    Normal
06/04/2009 12:40   06049-501-366:0   Agl106    Restake
06/04/2009 12:40   06049-501-366:0   Agl121    Restake
06/04/2009 12:42   06049-501-372:0   Agl104    Normal
06/04/2009 12:44   06049-501-381:0   Agl106    Restake
06/04/2009 12:44   06049-501-381:0   Agl121    Restake
06/04/2009 12:44   06049-501-382:0   Agl104    Normal
06/04/2009 12:46   06049-084-045:0   Agl104    Normal
06/04/2009 12:46   06049-501-388:0   Agl104    Normal
06/04/2009 12:46   06049-501-397:0   Agl104    Normal
06/04/2009 12:48   06049-084-045:1   Agl104    Update
06/04/2009 12:51   06049-501-414:0   Agl104    Normal
06/04/2009 12:51   06049-501-416:0   Agl104    Normal
06/04/2009 12:53   06049-020-020:0   Agl104    Normal
06/04/2009 12:55   06049-053-023:0   Agl122    Emergency
06/04/2009 12:55   06049-020-021:0   Agl104    Normal
06/04/2009 12:55   06049-501-431:0   Agl104    Normal
06/04/2009 12:56   06049-501-423:0   Agl104    Normal
06/04/2009 12:57   06049-015-039:0   Agl118    Normal
06/04/2009 13:00   06049-501-452:0   Agl104    Normal
06/04/2009 13:00   06049-020-022:0   Agl104    Normal
06/04/2009 13:02   06049-501-462:0   Agl118    Normal
06/04/2009 13:05   06049-501-469:0   Agl104    Normal
06/04/2009 13:05   06049-501-472:0   Agl104    Normal
06/04/2009 13:08   06049-501-476:0   Agl104    Normal
06/04/2009 13:11   06049-501-482:0   Agl104    Normal
06/04/2009 13:12   06049-501-490:0   Agl122    Normal
06/04/2009 13:17   06049-501-503:0   Agl122    Normal
06/04/2009 13:23   06049-501-512:0   Agl104    Normal
06/04/2009 13:23   06049-112-034:0   Agl113    Normal
06/04/2009 13:25   06049-053-025:0   Agl104    Normal
06/04/2009 13:25   06049-501-530:0   Agl104    Normal
06/04/2009 13:25   06049-095-015:0   Agl120    Restake
06/04/2009 13:26   06049-501-540:0   Agl104    Normal
06/04/2009 13:27   06049-015-041:0   Agl104    Restake
06/04/2009 13:27   06049-095-016:0   Agl120    Restake
06/04/2009 13:27   06049-095-017:0   Agl120    Restake
06/04/2009 13:27   06049-501-548:0   Agl104    Normal
06/04/2009 13:30   06049-501-556:0   Agl104    Normal
06/04/2009 13:30   06049-501-561:0   Agl104    Normal
06/04/2009 13:30   06049-501-563:0   Agl122    Normal
06/04/2009 13:31   06049-501-565:0   Agl104    Normal
06/04/2009 13:34   06049-501-567:0   Agl104    Normal
06/04/2009 13:34   06049-501-568:0   Agl104    Normal
06/04/2009 13:34   06049-501-571:0   Agl104    Normal
06/04/2009 13:35   06049-023-028:0   Agl122    Normal
06/04/2009 13:37   06049-022-029:0   Agl104    Update
06/04/2009 13:37   06049-022-030:0   Agl104    Update
06/04/2009 13:38   06049-053-026:0   Agl104    Normal
06/04/2009 13:41   06049-053-027:0   Agl104    Normal
06/04/2009 13:46   06049-501-599:0   Agl122    Normal
06/04/2009 13:47   06049-007-026:0   Agl104    Restake
06/04/2009 13:48   06049-501-615:0   Agl104    Normal
06/04/2009 13:49   06049-501-617:0   Agl122    Normal
06/04/2009 13:52   06049-501-634:0   Agl104    Normal
06/04/2009 13:52   06049-501-636:0   Agl104    Normal
06/04/2009 13:53   06049-112-036:0   Agl122    Emergency
06/04/2009 13:53   06049-501-640:0   Agl106    Normal
06/04/2009 13:54   06049-039-042:0   Agl122    Emergency
06/04/2009 13:55   06049-501-644:0   Agl106    Normal
06/04/2009 13:55   06049-501-650:0   Agl104    Normal
06/04/2009 13:56   06049-501-656:0   Agl122    Normal
06/04/2009 13:56   06049-501-658:0   Agl104    Normal
06/04/2009 13:57   06049-015-042:0   Agl106    Normal
06/04/2009 13:57   06049-501-662:0   Agl122    Normal
06/04/2009 13:59   06049-501-676:0   Agl106    Normal
06/04/2009 14:04   06049-055-037:0   Agl122    Normal
06/04/2009 14:04   06049-501-695:0   Agl104    Normal
06/04/2009 14:08   06049-501-700:0   Agl106    Normal
06/04/2009 14:11   06049-022-033:0   Agl104    Short
06/04/2009 14:12   06049-112-038:0   Agl104    Normal
06/04/2009 14:12   06049-501-724:0   Agl106    Normal
06/04/2009 14:13   06049-501-728:0   Agl106    Normal
06/04/2009 14:16   06049-020-029:0   Agl118    Restake
06/04/2009 14:17   06049-019-023:0   Agl104    Normal
06/04/2009 14:22   06049-501-788:0   Agl122    Normal
06/04/2009 14:23   06049-501-793:0   Agl104    Normal
06/04/2009 14:27   06049-501-808:0   Agl104    Normal
06/04/2009 14:27   06049-501-807:0   Agl104    Normal
06/04/2009 14:29   06049-104-039:0   Agl104    Normal
06/04/2009 14:29   06049-501-810:0   Agl106    Normal
06/04/2009 14:34   06049-012-022:0   Agl106    Restake
06/04/2009 14:36   06049-020-030:0   Agl104    Normal
06/04/2009 14:37   06049-008-024:0   Agl106    Normal
06/04/2009 14:37   06049-501-847:0   Agl106    Normal
06/04/2009 14:39   06049-501-863:0   Agl122    Normal
06/04/2009 14:42   06049-501-872:0   Agl122    Normal
06/04/2009 14:42   06049-501-880:0   Agl122    Normal
06/04/2009 14:45   06049-012-023:0   Agl104    Normal
06/04/2009 14:45   06049-087-066:0   Agl122    Normal
06/04/2009 14:47   06049-020-031:0   Agl122    Normal
06/04/2009 14:49   06049-039-046:0   Agl122    Normal
06/04/2009 14:52   06049-501-937:0   Agl122    Restake
06/04/2009 14:57   06049-501-961:0   Agl122    Normal
06/04/2009 14:57   06049-501-965:0   Agl113    Normal
06/04/2009 15:04   06049-103-046:0   Agl104    Normal
06/04/2009 15:06   06049-047-034:0   Agl106    Restake
06/04/2009 15:06   06049-103-047:0   Agl104    Normal
06/04/2009 15:06   06049-103-048:0   Agl104    Normal
06/04/2009 15:08   06049-041-039:0   Agl122    Normal
06/04/2009 15:08   06049-047-035:0   Agl106    Restake
06/04/2009 15:08   06049-502-004:0   Agl104    Normal
06/04/2009 15:11   06049-103-050:0   Agl104    Normal
06/04/2009 15:12   06049-106-048:0   Agl106    Update
06/04/2009 15:13   06049-502-041:0   Agl113    Normal
06/04/2009 15:13   06049-103-051:0   Agl104    Normal
06/04/2009 15:14   06049-103-052:0   Agl104    Normal
06/04/2009 15:14   06049-106-049:0   Agl106    Normal
06/04/2009 15:15   06049-047-040:0   Agl122    Restake
06/04/2009 15:16   06049-106-050:0   Agl106    Update
06/04/2009 15:16   06049-019-027:0   Agl118    Emergency
06/04/2009 15:17   06049-103-053:0   Agl104    Normal
06/04/2009 15:18   06049-112-043:0   Agl106    Normal
06/04/2009 15:19   06049-103-054:0   Agl104    Normal
06/04/2009 15:20   06049-103-055:0   Agl104    Normal
06/04/2009 15:20   06049-502-084:0   Agl104    Normal
06/04/2009 15:20   06049-502-085:0   Agl104    Normal
06/04/2009 15:22   06049-103-056:0   Agl104    Normal
06/04/2009 15:22   06049-112-045:0   Agl106    Normal
06/04/2009 15:23   06049-007-034:0   Agl104    Normal
06/04/2009 15:23   06049-103-057:0   Agl104    Normal
06/04/2009 15:23   06049-502-099:0   Agl122    Normal
06/04/2009 15:23   06049-502-107:0   Agl104    Normal
06/04/2009 15:24   06049-103-058:0   Agl104    Normal
06/04/2009 15:25   06049-103-059:0   Agl104    Normal
06/04/2009 15:25   06049-103-046:1   Agl104    Update
06/04/2009 15:25   06049-103-047:1   Agl104    Update
06/04/2009 15:25   06049-502-118:0   Agl104    Normal
06/04/2009 15:26   06049-103-048:1   Agl104    Update
06/04/2009 15:26   06049-502-123:0   Agl104    Normal
06/04/2009 15:27   06049-047-042:0   Agl118    Restake
06/04/2009 15:28   06049-022-045:0   Agl122    Normal
06/04/2009 15:28   06049-047-043:0   Agl120    Restake
06/04/2009 15:29   06049-502-141:0   Agl104    Normal
06/04/2009 15:30   06049-047-044:0   Agl118    Restake
06/04/2009 15:33   06049-502-168:0   Agl120    Normal
06/04/2009 15:33   06049-502-169:0   Agl104    Normal
06/04/2009 15:33   06049-502-172:0   Agl118    Normal
06/04/2009 15:34   06049-047-045:0   Agl118    Restake
06/04/2009 15:36   06049-114-041:0   Agl104    Normal
06/04/2009 15:37   06049-019-028:0   Agl113    Normal
06/04/2009 15:37   06049-502-203:0   Agl118    Normal
06/04/2009 15:38   06049-019-028:1   Agl113    Update
06/04/2009 15:38   06049-039-050:0   Agl122    Emergency
06/04/2009 15:42   06049-019-029:0   Agl113    Normal
06/04/2009 15:51   06049-023-047:0   Agl113    Restake
06/04/2009 15:52   06049-023-052:0   Agl113    Restake
06/04/2009 15:52   06049-023-050:0   Agl113    Restake
06/04/2009 15:53   06049-023-053:0   Agl113    Restake
06/04/2009 15:54   06049-005-013:0   Agl122    Design
06/04/2009 15:54   06049-023-055:0   Agl113    Restake
06/04/2009 15:55   06049-502-300:0   Agl118    Normal
06/04/2009 15:57   06049-023-058:0   Agl113    Restake
06/04/2009 15:57   06049-023-059:0   Agl113    Restake
06/04/2009 16:01   06049-005-014:0   Agl104    Restake
06/04/2009 16:01   06049-502-308:0   Agl106    Normal
06/04/2009 16:01   06049-026-042:0   Agl113    Restake
06/04/2009 16:03   06049-502-316:0   Agl104    Normal
06/04/2009 16:03   06049-502-322:0   Agl106    Normal
06/04/2009 16:06   06049-104-044:0   Agl120    Normal
06/04/2009 16:06   06049-502-329:0   Agl104    Normal
06/04/2009 16:08   06049-502-337:0   Agl104    Normal
06/04/2009 16:15   06049-060-033:0   Agl113    Restake
06/04/2009 16:17   06049-060-036:0   Agl108    Restake
06/04/2009 16:17   06049-060-036:0   Agl113    Restake
06/04/2009 16:17   06049-060-034:0   Agl113    Restake
06/04/2009 16:17   06049-060-035:0   Agl108    Restake
06/04/2009 16:17   06049-060-035:0   Agl113    Restake
06/04/2009 16:18   06049-060-037:0   Agl113    Restake
06/04/2009 16:18   06049-060-038:0   Agl113    Restake
06/04/2009 16:18   06049-060-039:0   Agl113    Restake
06/04/2009 16:18   06049-060-040:0   Agl113    Restake
06/04/2009 16:18   06049-060-041:0   Agl113    Restake
06/04/2009 16:20   06049-060-043:0   Agl113    Restake
06/04/2009 16:20   06049-060-042:0   Agl113    Restake
06/04/2009 16:20   06049-060-044:0   Agl113    Restake
06/04/2009 16:22   06049-060-045:0   Agl113    Restake
06/04/2009 16:22   06049-060-046:0   Agl113    Restake
06/04/2009 16:24   06049-502-413:0   Agl113    Restake
06/04/2009 16:25   06049-104-046:0   Agl113    Restake
06/04/2009 16:26   06049-104-049:0   Agl113    Restake
06/04/2009 16:26   06049-502-429:0   Agl104    Restake
06/04/2009 16:27   06049-104-051:0   Agl113    Restake
06/04/2009 16:27   06049-104-053:0   Agl113    Restake
06/04/2009 16:27   06049-502-433:0   Agl104    Normal
06/04/2009 16:27   06049-104-052:0   Agl113    Restake
06/04/2009 16:27   06049-502-438:0   Agl113    Restake
06/04/2009 16:27   06049-502-439:0   Agl113    Restake
06/04/2009 16:28   06049-104-054:0   Agl113    Restake
06/04/2009 16:28   06049-104-055:0   Agl113    Restake
06/04/2009 16:28   06049-104-056:0   Agl113    Restake
06/04/2009 16:29   06049-104-057:0   Agl113    Restake
06/04/2009 16:29   06049-502-447:0   Agl113    Restake
06/04/2009 16:32   06049-104-058:0   Agl113    Restake
06/04/2009 16:33   06049-104-059:0   Agl113    Restake
06/04/2009 16:34   06049-012-054:0   Agl118    Normal
06/04/2009 16:35   06049-060-049:0   Agl120    Normal
06/04/2009 16:35   06049-106-059:0   Agl113    Update
06/04/2009 16:35   06049-109-045:0   Agl118    Normal
06/04/2009 16:35   06049-109-046:0   Agl118    Normal
06/04/2009 16:41   06049-106-060:0   Agl113    Normal
06/04/2009 16:41   06049-109-047:0   Agl118    Normal
06/04/2009 16:43   06049-071-012:0   Agl122    Damage
06/04/2009 16:59   06049-022-054:0   Agl122    Normal
06/04/2009 17:00   06049-106-063:0   Agl122    Normal
06/04/2009 17:00   06049-005-018:0   Agl119    Normal
06/04/2009 17:00   06049-005-017:0   Agl119    Normal
06/04/2009 17:19   06049-089-049:0   Agl104    Restake
06/04/2009 17:19   06049-089-049:0   Agl131    Restake
06/04/2009 17:19   06049-089-052:0   Agl104    Restake
06/04/2009 17:20   06049-089-053:0   Agl104    Restake
06/04/2009 17:35   06049-089-054:0   Agl104    Restake
06/04/2009 18:35   06049-028-006:0   Agl106    Emergency
06/04/2009 19:43   06049-028-007:0   Agl118    Damage
06/04/2009 23:50   06049-502-477:0   Agl113    Normal
06/04/2009 23:50   06049-502-479:0   Agl113    Normal
06/04/2009 23:50   06049-502-480:0   Agl113    Normal
06/04/2009 23:50   06049-502-478:0   Agl113    Normal

Total Tickets Sent: 458