
KORTERRA AUDIT FTTPELEC *EOD AUDIT* FOR TICKETS SENT ON 6/4/2009

Ticket Number			Seq #
---------------------------------------------------------
No Tickets sent to this location.			


Total Sent = 0

End Of Report