
0 
Date/Time :  6-05-09 at  0:01 

LONESTAR
SUMM
DAILY AUDIT OF TICKETS SENT ON 06/04/09

Date/Time: 06/05/2009 12:01:02 AM
Receiving Terminal: COMCAST1

Seq #   Ticket #    Seq #   Ticket #    Seq #   Ticket #    Seq #   Ticket #    
----- ------------  ----- ------------  ----- ------------  ----- ------------  
   1 15590050-EMER | 102 15590776-ROUT | 203 15591541-ROUT | 303 15592219-ROUT |
   2 15590064-REPA | 103 15590778-UPDA | 204 15591566-EMER | 304 15592208-ROUT |
   3 15590079-REPA | 104 15590784-ROUT | 205 15591559-ROUT | 305 15592229-ROUT |
   4 15590061-ROUT | 105 15590785-ROUT | 206 15591585-ROUT | 306 15592217-ROUT |
   5 15590087-REPA | 106 15590786-ROUT | 207 15591615-ROUT | 307 15592248-ROUT |
   6 15590091-REPA | 107 15590766-ROUT | 208 15591616-ROUT | 308 15592245-ROUT |
   7 15590092-ROUT | 108 15590791-UPDA | 209 15591624-ROUT | 309 15592260-ROUT |
   8*15590100-REPA | 109 15590801-ROUT | 210 15591633-ROUT | 310 15592270-ROUT |
   9 15590103-REPA | 110 15590793-UPDA | 211 15591631-ROUT | 311 15592271-ROUT |
  10 15590107-EMER | 111 15590794-UPDA | 212 15591638-ROUT | 312 15592272-ROUT |
  11 15590100-REPA | 112 15590808-UPDA | 213 15591639-ROUT | 313 15592273-ROUT |
  12 15590123-ROUT | 113 15590809-UPDA | 214 15591654-ROUT | 314 15592274-ROUT |
  13 15590139-REPA | 114 15590815-ROUT | 215 15591663-UPDA | 315 15592269-ROUT |
  14 15590138-ROUT | 115 15590836-ROUT | 216 15591680-ROUT | 316 15592243-UPDA |
  15 15590131-ROUT | 116 15590824-ROUT | 217 15591665-ROUT | 317*15592261-REPA |
  16 15590149-ROUT | 117 15590861-ROUT | 218 15591699-EMER | 318 15592278-ROUT |
  17 15590154-ROUT | 118 15590911-ROUT | 219 15591658-EMER | 319 15592296-ROUT |
  18 15590162-ROUT | 119 15590910-UPDA | 220 15591719-ROUT | 320 15592297-ROUT |
  19 15590148-ROUT | 120 15590917-UPDA | 221 15591722-ROUT | 321 15592261-REPA |
  20 15590151-PRIO | 121 15590926-ROUT | 222 15591739-ROUT | 322 15592292-UPDA |
  21 15590183-ROUT | 122 15590927-ROUT | 223 15591733-2REQ | 323 15592301-ROUT |
  22 15590198-ROUT | 123 15590908-ROUT | 224 15591758-ROUT | 324*15592288-REPA |
  23 15590159-REPA | 124 15590920-UPDA | 225 15591734-ROUT | 325 15592311-REPA |
  24 15590200-ROUT | 125 15590790-ROUT | 226 15591746-REPA | 326 15592318-ROUT |
  25 15590204-ROUT | 126 15590810-ROUT | 227 15591782-ROUT | 327 15592288-REPA |
  26 15590222-EMER | 127 15590934-UPDA | 228 15591807-ROUT | 328 15592339-ROUT |
  27 15590182-ROUT | 128 15590936-UPDA | 229 15591808-2REQ | 329 15592352-ROUT |
  28 15590188-ROUT | 129 15590940-UPDA | 230 15591811-ROUT | 330 15592361-ROUT |
  29 15590203-EMER | 130 15590951-UPDA | 231 15591787-ROUT | 331 15592350-ROUT |
  30 15590241-ROUT | 131 15590952-UPDA | 232 15591830-ROUT | 332 15592374-ROUT |
  31 15590250-ROUT | 132 15590954-UPDA | 233 15591828-ROUT | 333 15592375-ROUT |
  32 15590184-ROUT | 133 15590941-ROUT | 234 15591837-ROUT | 334 15592351-ROUT |
  33 15590223-ROUT | 134 15590961-ROUT | 235 15591839-ROUT | 335 15592383-SHOR |
  34 15590269-EMER | 135 15590964-ROUT | 236 15591861-ROUT | 336 15592399-ROUT |
  35 15590280-ROUT | 136 15590914-ROUT | 237 15591877-ROUT | 337 15592400-ROUT |
  36 15590282-ROUT | 137 15590967-ROUT | 238 15591880-ROUT | 338 15592008-ROUT |
  37 15590277-EMER | 138 15590986-ROUT | 239 15591896-ROUT | 339 15592395-ROUT |
  38 15590311-ROUT | 139 15590974-ROUT | 240 15591907-ROUT | 340 15592409-ROUT |
  39 15590234-2REQ | 140 15591006-ROUT | 241 15591895-ROUT | 341 15592410-ROUT |
  40 15590317-ROUT | 141 15590976-ROUT | 242 15591854-UPDA | 342 15592405-ROUT |
  41 15590302-EMER | 142 15590979-ROUT | 243 15591929-ROUT | 343 15592413-ROUT |
  42 15590328-ROUT | 143 15590980-ROUT | 244 15591943-ROUT | 344 15592423-ROUT |
  43 15590337-EMER | 144 15590991-ROUT | 245 15591913-ROUT | 345 15592421-ROUT |
  44 15590220-ROUT | 145 15591008-ROUT | 246 15591918-ROUT | 346 15592425-ROUT |
  45 15590404-EMER | 146 15590921-ROUT | 247 15591897-ROUT | 347 15592435-ROUT |
  46 15590260-ROUT | 147 15590969-ROUT | 248 15591947-DAMG | 348 15592441-ROUT |
  47 15590313-ROUT | 148 15591013-EMER | 249 15591983-ROUT | 349 15592420-ROUT |
  48 15590362-ROUT | 149 15590977-ROUT | 250 15591986-ROUT | 350 15592456-DAMG |
  49 15590375-ROUT | 150 15591045-PRIO | 251 15591998-ROUT | 351 15592455-ROUT |
  50 15590393-ROUT | 151 15591000-ROUT | 252 15592001-ROUT | 352 15592471-ROUT |
  51 15590308-ROUT | 152 15591057-ROUT | 253 15592025-ROUT | 353 15592482-ROUT |
  52 15590456-UPDA | 153 15591062-ROUT | 254 15592026-ROUT | 354 15592485-ROUT |
  53 15590424-ROUT | 154 15591122-ROUT | 255 15592027-ROUT | 355 15592230-ROUT |
  54 15590466-ROUT | 155 15591105-ROUT | 256 15592038-ROUT | 356 15592241-ROUT |
  55 15590439-ROUT | 156 15591147-ROUT | 257 15592039-ROUT | 357 15592497-ROUT |
  56 15590447-ROUT | 157 15591143-EMER | 258 15592044-ROUT | 358 15592256-ROUT |
  57 15590446-ROUT | 158 15591132-ROUT | 259 15592047-ROUT | 359 15592268-ROUT |
  58 15590448-UPDA | 159 15591183-SHOR | 260 15592060-ROUT | 360 15592279-ROUT |
  59 15590489-ROUT | 160 15591190-ROUT | 261 15592061-ROUT | 361 15592490-UPDA |
  60 15590494-ROUT | 161 15591154-ROUT | 262 15592065-UPDA | 362 15592293-ROUT |
  61 15590473-REPA | 162 15591201-ROUT | 263 15592015-ROUT | 363 15592300-ROUT |
  62 15590492-ROUT | 163 15591246-SHOR | 264 15592068-ROUT | 364 15592313-ROUT |
  63 15590500-ROUT | 164 15591260-ROUT | 265 15592073-ROUT | 365 15592373-ROUT |
  64 15590516-ROUT | 165 15591266-ROUT | 266 15592077-ROUT | 366 15592228-ROUT |
  65 15590517-ROUT | 166 15591297-ROUT | 267 15592082-ROUT | 367 15592534-ROUT |
  66 15590519-ROUT | 167 15591298-ROUT | 268 15592085-ROUT | 368 15592540-ROUT |
  67 15590493-ROUT | 168 15591302-ROUT | 269 15592063-ROUT | 369 15592546-ROUT |
  68 15590501-ROUT | 169 15591333-ROUT | 270 15592084-ROUT | 370 15592426-ROUT |
  69 15590537-ROUT | 170 15591335-ROUT | 271 15592094-ROUT | 371 15592422-ROUT |
  70 15590551-UPDA | 171 15591318-DAMG | 272 15592100-ROUT | 372 15592550-ROUT |
  71 15590557-UPDA | 172 15591344-ROUT | 273 15592076-ROUT | 373 15592452-ROUT |
  72 15590566-ROUT | 173 15591337-ROUT | 274 15592013-ROUT | 374 15592551-ROUT |
  73 15590571-ROUT | 174 15591353-ROUT | 275 15592103-ROUT | 375 15592565-2REQ |
  74 15590572-ROUT | 175 15591354-2REQ | 276 15592107-ROUT | 376 15592557-ROUT |
  75 15590577-2REQ | 176 15591357-ROUT | 277 15592096-ROUT | 377 15592323-ROUT |
  76 15590543-REPA | 177 15591358-ROUT | 278 15592102-ROUT | 378 15592582-SHOR |
  77 15590515-2REQ | 178 15591367-SHOR | 279 15592110-ROUT | 379 15592589-ROUT |
  78 15590588-ROUT | 179 15591287-SHOR | 280 15592113-ROUT | 380 15592610-ROUT |
  79 15590563-ROUT | 180 15591365-ROUT | 281 15592118-ROUT | 381 15592617-ROUT |
  80 15590591-ROUT | 181 15591378-ROUT | 282 15592128-ROUT | 382 15592634-2REQ |
  81 15590592-ROUT | 182 15591380-ROUT | 283 15592148-ROUT | 383 15592641-2REQ |
  82 15590593-ROUT | 183 15591384-ROUT | 284 15592154-ROUT | 384 15592654-ROUT |
  83 15590595-ROUT | 184 15591391-ROUT | 285 15592156-ROUT | 385 15592664-ROUT |
  84 15590603-ROUT | 185 15591392-ROUT | 286 15592150-ROUT | 386 15592668-ROUT |
  85 15590601-UPDA | 186 15591397-ROUT | 287 15592160-ROUT | 387 15592671-ROUT |
  86 15590616-ROUT | 187 15591402-ROUT | 288 15592115-ROUT | 388 15592675-2REQ |
  87 15590618-ROUT | 188 15591400-ROUT | 289 15592165-ROUT | 389 15592697-ROUT |
  88 15590620-ROUT | 189 15591407-ROUT | 290 15592130-ROUT | 390 15592698-ROUT |
  89 15590623-ROUT | 190 15591435-ROUT | 291 15592169-ROUT | 391 15592704-ROUT |
  90 15590678-ROUT | 191 15591431-ROUT | 292 15592158-ROUT | 392 15592708-ROUT |
  91 15590679-ROUT | 192 15591381-ROUT | 293 15592180-ROUT | 393 15592713-ROUT |
  92 15590615-ROUT | 193 15591429-REPA | 294*15592183-ROUT | 394 15592747-ROUT |
  93 15590692-ROUT | 194 15591496-ROUT | 295 15592182-ROUT | 395 15592778-ROUT |
  94 15590674-ROUT | 195 15591510-ROUT | 296 15592159-ROUT | 396 15592805-SHOR |
  95 15590681-ROUT | 196 15591502-ROUT | 297 15592184-ROUT | 397 15592824-ROUT |
  96 15590696-UPDA | 197 15591427-ROUT | 298 15592192-ROUT | 398 15592827-ROUT |
  97 15590682-ROUT | 198 15591434-REPA | 299 15592199-ROUT | 399 15592840-ROUT |
  98 15590727-EMER | 199 15591451-ROUT | 300 15592205-ROUT | 400 15592841-ROUT |
  99 15590760-UPDA | 200 15591498-ROUT | 301 15592166-ROUT | 401 15592842-ROUT |
 100 15590765-UPDA | 201 15591414-ROUT | 302 15592183-ROUT | 402 15592843-ROUT |
 101 15590767-UPDA | 202 15591561-ROUT |

* indicates ticket # is repeated

Total Tickets: 402

EMER - EMER-EMERGENCY                 |   15

REPA - NOTI-REPAIR                    |   19

ROUT - NOTI-ROUTINE                   |  316

PRIO - NOTI-PRIORITY                  |    2

2REQ - NOTI-2D REQUEST                |   10

UPDA - NOTI-UPDATE                    |   30

SHOR - INSU-SHORT NOT                 |    7

DAMG - EMER-DIG-UP                    |    3


Please call (713) 432-0365 if this data does
not match the tickets you received on 06/04/09
