
AUDIT	2009/06/04 23:00:08	00001

*********************************************************************
*  This is your End of Day Audit from                               *
*  for the period 2009/06/03 23:00:02 thru 2009/06/04 23:00:02.     *
*********************************************************************

Service Area: DC NON PIPELINE
*00005 MISUTIL2009060400001 00:11  *00007 MISUTIL2009060400008 05:26
*00008 MISUTIL2009060400009 06:42  *00010 MISUTIL2009060400010 06:42
*00011 MISUTIL2009060400012 06:42  *00014 MISUTIL2009060400015 06:53
*00015 MISUTIL2009060400016 06:53  *00016 MISUTIL2009060400017 06:53
*00017 MISUTIL2009060400018 06:53  *00018 MISUTIL2009060400019 06:53
*00019 MISUTIL2009060400020 06:53  *00020 MISUTIL2009060400021 06:53
*00021 MISUTIL2009060400022 06:53  *00022 MISUTIL2009060400023 06:53
*00026 MISUTIL2009060400024 07:03  *00040 MISUTIL2009060400041 07:15
*00041 MISUTIL2009060400042 07:29  *00071 MISUTIL2009060400072 07:48
*00072 MISUTIL2009060400073 07:48  *00073 MISUTIL2009060400074 07:48
*00074 MISUTIL2009060400075 07:48  *00075 MISUTIL2009060400076 07:48
*00076 MISUTIL2009060400077 07:48  *00077 MISUTIL2009060400078 07:48
*00078 MISUTIL2009060400071 07:48  *00079 MISUTIL2009060400079 07:48
*00080 MISUTIL2009060400080 07:48  *00081 MISUTIL2009060400082 08:04
*00098 MISUTIL2009060400098 08:23  *00100 MISUTIL2009060400099 08:23
*00101 MISUTIL2009060400100 08:23  *00102 MISUTIL2009060400101 08:23
*00103 MISUTIL2009060400103 08:23  *00105 MISUTIL2009060400104 08:23
*00107 MISUTIL2009060400107 08:23  *00109 MISUTIL2009060400109 08:26
*00112 MISUTIL2009060400112 08:26  *00120 MISUTIL2009060400120 08:30
*00121 MISUTIL2009060400121 08:30  *00122 MISUTIL2009060400122 08:30
*00123 MISUTIL2009060400123 08:30  *00124 MISUTIL2009060400124 08:30
*00127 MISUTIL2009060400127 08:30  *00129 MISUTIL2009060400129 08:33
*00131 MISUTIL2009060400131 08:33  *00133 MISUTIL2009060400133 08:33
*00138 MISUTIL2009060400138 08:33  *00140 MISUTIL2009060400141 08:33
*00141 MISUTIL2009060400139 08:33  *00142 MISUTIL2009060400142 08:33
*00143 MISUTIL2009060400143 08:37  *00144 MISUTIL2009060400144 08:37
*00145 MISUTIL2009060400145 08:37  *00147 MISUTIL2009060400147 08:37
*00148 MISUTIL2009060400148 08:37  *00149 MISUTIL2009060400149 08:37
*00150 MISUTIL2009060400150 08:37  *00151 MISUTIL2009060400151 08:37
*00152 MISUTIL2009060400152 08:37  *00154 MISUTIL2009060400154 08:37
*00157 MISUTIL2009060400157 08:45  *00171 MISUTIL2009060400171 08:55
*00173 MISUTIL2009060400174 09:03  *00175 MISUTIL2009060400177 09:03
*00179 MISUTIL2009060400178 09:03  *00181 MISUTIL2009060400181 09:03
*00182 MISUTIL2009060400182 09:03  *00189 MISUTIL2009060400192 09:10
*00194 MISUTIL2009060400196 09:19  *00197 MISUTIL2009060400198 09:19
*00203 MISUTIL2009060400209 09:27  *00206 MISUTIL2009060400204 09:27
*00208 MISUTIL2009060400207 09:27  *00212 MISUTIL2009060400212 09:27
*00223 MISUTIL2009060400223 09:33  *00234 MISUTIL2009060400233 09:41
*00236 MISUTIL2009060400236 09:41  *00242 MISUTIL2009060400242 09:41
*00243 MISUTIL2009060400247 09:48  *00244 MISUTIL2009060400243 09:48
*00248 MISUTIL2009060400245 09:48  *00253 MISUTIL2009060400256 09:57
*00255 MISUTIL2009060400253 09:57  *00259 MISUTIL2009060400257 09:57
*00262 MISUTIL2009060400262 09:57  *00271 MISUTIL2009060400271 10:12
*00275 MISUTIL2009060400273 10:15  *00279 MISUTIL2009060400279 10:15
*00313 MISUTIL2009060400313 10:29  *00333 MISUTIL2009060400333 10:32
*00334 MISUTIL2009060400334 10:34  *00337 MISUTIL2009060400338 10:34
*00347 MISUTIL2009060400349 10:57  *00348 MISUTIL2009060400347 10:57
*00358 MISUTIL2009060400358 11:25  *00374 MISUTIL2009060400377 11:30
*00384 MISUTIL2009060400384 11:34  *00387 MISUTIL2009060400387 11:34
*00388 MISUTIL2009060400388 11:34  *00389 MISUTIL2009060400389 11:34
*00390 MISUTIL2009060400391 11:40  *00393 MISUTIL2009060400393 11:40
*00395 MISUTIL2009060400394 11:40  *00396 MISUTIL2009060400395 11:40
*00399 MISUTIL2009060400399 11:40  *00400 MISUTIL2009060400400 11:42
*00402 MISUTIL2009060400402 11:42  *00406 MISUTIL2009060400406 11:42
*00408 MISUTIL2009060400407 11:42  *00411 MISUTIL2009060400411 11:42
*00413 MISUTIL2009060400413 11:42  *00415 MISUTIL2009060400414 11:45
*00423 MISUTIL2009060400422 11:45  *00425 MISUTIL2009060400424 11:47
*00426 MISUTIL2009060400425 11:47  *00429 MISUTIL2009060400428 11:47
*00431 MISUTIL2009060400430 11:47  *00433 MISUTIL2009060400432 11:47
*00448 MISUTIL2009060400445 12:06  *00449 MISUTIL2009060400446 12:06
*00451 MISUTIL2009060400450 12:06  *00452 MISUTIL2009060400452 12:06
*00455 MISUTIL2009060400458 12:09  *00456 MISUTIL2009060400456 12:09
*00457 MISUTIL2009060400459 12:09  *00458 MISUTIL2009060400460 12:09
*00459 MISUTIL2009060400461 12:09  *00460 MISUTIL2009060400462 12:09
*00465 MISUTIL2009060400465 12:15  *00470 MISUTIL2009060400470 12:15
*00472 MISUTIL2009060400471 12:15  *00473 MISUTIL2009060400472 12:15
*00475 MISUTIL2009060400474 12:15  *00476 MISUTIL2009060400476 12:19
*00477 MISUTIL2009060400478 12:19  *00478 MISUTIL2009060400475 12:19
*00479 MISUTIL2009060400477 12:19  *00481 MISUTIL2009060400480 12:19
*00485 MISUTIL2009060400484 12:19  *00498 MISUTIL2009060400497 12:38
*00500 MISUTIL2009060400498 12:49  *00519 MISUTIL2009060400521 13:06
*00521 MISUTIL2009060400518 13:06  *00522 MISUTIL2009060400520 13:06
*00529 MISUTIL2009060400535 13:13  *00539 MISUTIL2009060400543 13:20
*00574 MISUTIL2009060400572 13:45  *00575 MISUTIL2009060400573 13:45
*00577 MISUTIL2009060400575 13:45  *00579 MISUTIL2009060400577 13:45
*00581 MISUTIL2009060400579 13:46  *00583 MISUTIL2009060400581 13:46
*00586 MISUTIL2009060400584 13:46  *00588 MISUTIL2009060400586 13:46
*00592 MISUTIL2009060400589 13:52  *00593 MISUTIL2009060400590 13:52
*00609 MISUTIL2009060400610 14:14  *00611 MISUTIL2009060400609 14:14
*00613 MISUTIL2009060400613 14:14  *00616 MISUTIL2009060400614 14:14
*00617 MISUTIL2009060400615 14:14  *00618 MISUTIL2009060400616 14:14
*00621 MISUTIL2009060400617 14:23  *00622 MISUTIL2009060400619 14:23
*00626 MISUTIL2009060400624 14:23  *00629 MISUTIL2009060400628 14:36
*00630 MISUTIL2009060400627 14:36  *00631 MISUTIL2009060400629 14:36
*00635 MISUTIL2009060400633 14:49  *00637 MISUTIL2009060400638 14:49
*00638 MISUTIL2009060400635 14:49  *00640 MISUTIL2009060400637 14:49
*00659 MISUTIL2009060400643 14:55  *00679 MISUTIL2009060400673 15:04
*00682 MISUTIL2009060400680 15:14  *00684 MISUTIL2009060400682 15:14
*00687 MISUTIL2009060400684 15:14  *00690 MISUTIL2009060400687 15:14
*00694 MISUTIL2009060400691 15:18  *00700 MISUTIL2009060400698 15:18
*00706 MISUTIL2009060400702 15:20  *00713 MISUTIL2009060400711 15:31
*00714 MISUTIL2009060400712 15:31  *00717 MISUTIL2009060400715 15:31
*00725 MISUTIL2009060400724 15:40  *00728 MISUTIL2009060400727 15:40
*00731 MISUTIL2009060400729 15:40  *00732 MISUTIL2009060400730 15:53
*00740 MISUTIL2009060400740 16:06  *00741 MISUTIL2009060400738 16:06
*00750 MISUTIL2009060400748 16:17  *00755 MISUTIL2009060400753 16:34
*00756 MISUTIL2009060400756 16:34  *00775 MISUTIL2009060400772 16:55
*00778 MISUTIL2009060400773 16:55  *00783 MISUTIL2009060400782 17:06
*00789 MISUTIL2009060400787 17:20  *00790 MISUTIL2009060400788 17:20
*00806 MISUTIL2009060400804 17:24  *00824 MISUTIL2009060400822 17:37
*00830 MISUTIL2009060400832 17:48  *00852 MISUTIL2009060400850 19:09
*00854 MISUTIL2009060400852 19:29  *00855 MISUTIL2009060400853 20:00
*00856 MISUTIL2009060400854 22:36


Service Area: MONT NON PIPELINE
*00002 MISUTIL2009060301040 23:30  *00003 MISUTIL2009060301041 23:31
*00009 MISUTIL2009060400011 06:42  *00012 MISUTIL2009060400013 06:53
*00013 MISUTIL2009060400014 06:53  *00027 MISUTIL2009060400025 07:03
*00028 MISUTIL2009060400026 07:03  *00029 MISUTIL2009060400029 07:03
*00030 MISUTIL2009060400030 07:03  *00032 MISUTIL2009060400033 07:03
*00033 MISUTIL2009060400035 07:15  *00034 MISUTIL2009060400034 07:15
*00035 MISUTIL2009060400038 07:15  *00036 MISUTIL2009060400036 07:15
*00037 MISUTIL2009060400037 07:15  *00038 MISUTIL2009060400039 07:15
*00039 MISUTIL2009060400040 07:15  *00042 MISUTIL2009060400043 07:29
*00044 MISUTIL2009060400048 07:29  *00045 MISUTIL2009060400044 07:29
*00046 MISUTIL2009060400045 07:29  *00047 MISUTIL2009060400046 07:29
*00048 MISUTIL2009060400049 07:29  *00049 MISUTIL2009060400050 07:29
*00051 MISUTIL2009060400052 07:35  *00052 MISUTIL2009060400051 07:35
*00053 MISUTIL2009060400053 07:35  *00054 MISUTIL2009060400058 07:35
*00055 MISUTIL2009060400054 07:35  *00056 MISUTIL2009060400055 07:35
*00057 MISUTIL2009060400056 07:35  *00058 MISUTIL2009060400057 07:35
*00059 MISUTIL2009060400059 07:35  *00060 MISUTIL2009060400060 07:35
*00061 MISUTIL2009060400061 07:44  *00062 MISUTIL2009060400062 07:44
*00063 MISUTIL2009060400064 07:44  *00064 MISUTIL2009060400063 07:44
*00065 MISUTIL2009060400065 07:44  *00066 MISUTIL2009060400066 07:44
*00067 MISUTIL2009060400068 07:44  *00068 MISUTIL2009060400067 07:44
*00070 MISUTIL2009060400070 07:44  *00082 MISUTIL2009060400081 08:04
*00084 MISUTIL2009060400083 08:04  *00085 MISUTIL2009060400085 08:04
*00087 MISUTIL2009060400087 08:04  *00088 MISUTIL2009060400089 08:16
*00089 MISUTIL2009060400090 08:16  *00092 MISUTIL2009060400092 08:17
*00093 MISUTIL2009060400093 08:17  *00094 MISUTIL2009060400094 08:17
*00095 MISUTIL2009060400095 08:17  *00096 MISUTIL2009060400096 08:17
*00097 MISUTIL2009060400097 08:17  *00099 MISUTIL2009060400102 08:23
*00106 MISUTIL2009060400105 08:23  *00108 MISUTIL2009060400108 08:26
*00110 MISUTIL2009060400110 08:26  *00111 MISUTIL2009060400111 08:26
*00113 MISUTIL2009060400113 08:26  *00114 MISUTIL2009060400114 08:26
*00115 MISUTIL2009060400115 08:26  *00116 MISUTIL2009060400116 08:26
*00117 MISUTIL2009060400117 08:26  *00118 MISUTIL2009060400118 08:30
*00119 MISUTIL2009060400119 08:30  *00125 MISUTIL2009060400125 08:30
*00128 MISUTIL2009060400128 08:30  *00130 MISUTIL2009060400130 08:33
*00132 MISUTIL2009060400132 08:33  *00134 MISUTIL2009060400134 08:33
*00135 MISUTIL2009060400135 08:33  *00137 MISUTIL2009060400137 08:33
*00139 MISUTIL2009060400140 08:33  *00146 MISUTIL2009060400146 08:37
*00153 MISUTIL2009060400153 08:37  *00155 MISUTIL2009060400155 08:45
*00156 MISUTIL2009060400156 08:45  *00158 MISUTIL2009060400158 08:45
*00159 MISUTIL2009060400159 08:45  *00161 MISUTIL2009060400161 08:45
*00163 MISUTIL2009060400163 08:45  *00166 MISUTIL2009060400168 08:55
*00167 MISUTIL2009060400165 08:55  *00169 MISUTIL2009060400169 08:55
*00170 MISUTIL2009060400170 08:55  *00183 MISUTIL2009060400188 09:09
*00184 MISUTIL2009060400186 09:09  *00188 MISUTIL2009060400191 09:10
*00195 MISUTIL2009060400195 09:19  *00201 MISUTIL2009060400200 09:19
*00205 MISUTIL2009060400206 09:27  *00209 MISUTIL2009060400208 09:27
*00210 MISUTIL2009060400210 09:27  *00211 MISUTIL2009060400211 09:27
*00213 MISUTIL2009060400213 09:30  *00214 MISUTIL2009060400214 09:30
*00215 MISUTIL2009060400215 09:30  *00216 MISUTIL2009060400216 09:30
*00217 MISUTIL2009060400217 09:30  *00218 MISUTIL2009060400218 09:30
*00219 MISUTIL2009060400219 09:30  *00220 MISUTIL2009060400220 09:30
*00221 MISUTIL2009060400221 09:30  *00222 MISUTIL2009060400222 09:30
*00225 MISUTIL2009060400224 09:33  *00226 MISUTIL2009060400225 09:33
*00227 MISUTIL2009060400226 09:33  *00228 MISUTIL2009060400227 09:33
*00229 MISUTIL2009060400228 09:33  *00230 MISUTIL2009060400229 09:33
*00231 MISUTIL2009060400231 09:33  *00232 MISUTIL2009060400232 09:33
*00237 MISUTIL2009060400237 09:41  *00246 MISUTIL2009060400249 09:48
*00247 MISUTIL2009060400246 09:48  *00249 MISUTIL2009060400248 09:48
*00250 MISUTIL2009060400250 09:48  *00251 MISUTIL2009060400251 09:48
*00254 MISUTIL2009060400259 09:57  *00256 MISUTIL2009060400254 09:57
*00257 MISUTIL2009060400255 09:57  *00258 MISUTIL2009060400260 09:57
*00261 MISUTIL2009060400261 09:57  *00263 MISUTIL2009060400272 10:12
*00264 MISUTIL2009060400263 10:12  *00265 MISUTIL2009060400264 10:12
*00266 MISUTIL2009060400265 10:12  *00267 MISUTIL2009060400266 10:12
*00268 MISUTIL2009060400267 10:12  *00270 MISUTIL2009060400269 10:12
*00272 MISUTIL2009060400270 10:12  *00273 MISUTIL2009060400278 10:14
*00274 MISUTIL2009060400280 10:15  *00276 MISUTIL2009060400274 10:15
*00277 MISUTIL2009060400276 10:15  *00278 MISUTIL2009060400277 10:15
*00280 MISUTIL2009060400275 10:15  *00281 MISUTIL2009060400281 10:15
*00283 MISUTIL2009060400283 10:20  *00284 MISUTIL2009060400284 10:20
*00285 MISUTIL2009060400285 10:20  *00286 MISUTIL2009060400286 10:20
*00287 MISUTIL2009060400287 10:20  *00288 MISUTIL2009060400288 10:20
*00290 MISUTIL2009060400291 10:20  *00291 MISUTIL2009060400290 10:20
*00292 MISUTIL2009060400292 10:20  *00293 MISUTIL2009060400294 10:23
*00294 MISUTIL2009060400293 10:23  *00295 MISUTIL2009060400295 10:23
*00296 MISUTIL2009060400296 10:23  *00297 MISUTIL2009060400297 10:23
*00298 MISUTIL2009060400298 10:23  *00299 MISUTIL2009060400299 10:23
*00300 MISUTIL2009060400300 10:23  *00301 MISUTIL2009060400301 10:23
*00302 MISUTIL2009060400302 10:23  *00304 MISUTIL2009060400303 10:26
*00305 MISUTIL2009060400304 10:26  *00306 MISUTIL2009060400305 10:26
*00307 MISUTIL2009060400307 10:26  *00308 MISUTIL2009060400308 10:26
*00309 MISUTIL2009060400310 10:26  *00310 MISUTIL2009060400309 10:26
*00311 MISUTIL2009060400311 10:26  *00312 MISUTIL2009060400312 10:26
*00315 MISUTIL2009060400315 10:29  *00316 MISUTIL2009060400316 10:29
*00317 MISUTIL2009060400317 10:29  *00318 MISUTIL2009060400318 10:29
*00319 MISUTIL2009060400319 10:29  *00320 MISUTIL2009060400320 10:29
*00321 MISUTIL2009060400321 10:29  *00322 MISUTIL2009060400322 10:29
*00323 MISUTIL2009060400323 10:29  *00324 MISUTIL2009060400326 10:32
*00325 MISUTIL2009060400324 10:32  *00326 MISUTIL2009060400325 10:32
*00327 MISUTIL2009060400327 10:32  *00328 MISUTIL2009060400330 10:32
*00329 MISUTIL2009060400328 10:32  *00330 MISUTIL2009060400329 10:32
*00331 MISUTIL2009060400331 10:32  *00332 MISUTIL2009060400332 10:32
*00335 MISUTIL2009060400335 10:34  *00336 MISUTIL2009060400336 10:34
*00338 MISUTIL2009060400337 10:34  *00339 MISUTIL2009060400339 10:34
*00340 MISUTIL2009060400340 10:34  *00341 MISUTIL2009060400341 10:34
*00342 MISUTIL2009060400342 10:34  *00343 MISUTIL2009060400343 10:34
*00344 MISUTIL2009060400344 10:45  *00346 MISUTIL2009060400346 10:57
*00349 MISUTIL2009060400350 10:57  *00350 MISUTIL2009060400348 10:57
*00352 MISUTIL2009060400352 11:08  *00354 MISUTIL2009060400353 11:08
*00355 MISUTIL2009060400354 11:08  *00356 MISUTIL2009060400356 11:08
*00359 MISUTIL2009060400359 11:25  *00360 MISUTIL2009060400360 11:25
*00363 MISUTIL2009060400363 11:25  *00365 MISUTIL2009060400364 11:25
*00366 MISUTIL2009060400366 11:25  *00367 MISUTIL2009060400367 11:25
*00369 MISUTIL2009060400368 11:30  *00370 MISUTIL2009060400369 11:30
*00372 MISUTIL2009060400371 11:30  *00373 MISUTIL2009060400372 11:30
*00375 MISUTIL2009060400373 11:30  *00376 MISUTIL2009060400375 11:30
*00377 MISUTIL2009060400376 11:30  *00378 MISUTIL2009060400378 11:30
*00379 MISUTIL2009060400380 11:34  *00380 MISUTIL2009060400379 11:34
*00381 MISUTIL2009060400381 11:34  *00382 MISUTIL2009060400382 11:34
*00383 MISUTIL2009060400383 11:34  *00385 MISUTIL2009060400385 11:34
*00386 MISUTIL2009060400386 11:34  *00391 MISUTIL2009060400390 11:40
*00397 MISUTIL2009060400396 11:40  *00404 MISUTIL2009060400403 11:42
*00409 MISUTIL2009060400408 11:42  *00419 MISUTIL2009060400418 11:45
*00421 MISUTIL2009060400420 11:45  *00428 MISUTIL2009060400427 11:47
*00438 MISUTIL2009060400436 11:55  *00440 MISUTIL2009060400438 11:55
*00441 MISUTIL2009060400440 11:55  *00443 MISUTIL2009060400442 11:55
*00445 MISUTIL2009060400449 12:06  *00447 MISUTIL2009060400447 12:06
*00450 MISUTIL2009060400448 12:06  *00453 MISUTIL2009060400451 12:06
*00454 MISUTIL2009060400453 12:06  *00461 MISUTIL2009060400454 12:09
*00463 MISUTIL2009060400455 12:09  *00464 MISUTIL2009060400457 12:09
*00468 MISUTIL2009060400464 12:15  *00471 MISUTIL2009060400467 12:15
*00474 MISUTIL2009060400473 12:15  *00480 MISUTIL2009060400479 12:19
*00482 MISUTIL2009060400481 12:19  *00483 MISUTIL2009060400482 12:19
*00484 MISUTIL2009060400483 12:19  *00486 MISUTIL2009060400490 12:27
*00487 MISUTIL2009060400485 12:27  *00488 MISUTIL2009060400486 12:27
*00489 MISUTIL2009060400487 12:27  *00491 MISUTIL2009060400489 12:27
*00492 MISUTIL2009060400491 12:27  *00493 MISUTIL2009060400492 12:27
*00494 MISUTIL2009060400493 12:27  *00495 MISUTIL2009060400494 12:27
*00496 MISUTIL2009060400495 12:38  *00497 MISUTIL2009060400496 12:38
*00499 MISUTIL2009060400499 12:49  *00505 MISUTIL2009060400504 12:49
*00506 MISUTIL2009060400505 12:49  *00507 MISUTIL2009060400506 12:49
*00512 MISUTIL2009060400516 12:59  *00514 MISUTIL2009060400512 12:59
*00515 MISUTIL2009060400513 12:59  *00520 MISUTIL2009060400519 13:06
*00523 MISUTIL2009060400526 13:06  *00525 MISUTIL2009060400523 13:06
*00526 MISUTIL2009060400524 13:06  *00527 MISUTIL2009060400525 13:06
*00528 MISUTIL2009060400527 13:06  *00530 MISUTIL2009060400530 13:13
*00531 MISUTIL2009060400528 13:13  *00532 MISUTIL2009060400529 13:13
*00535 MISUTIL2009060400533 13:13  *00544 MISUTIL2009060400542 13:20
*00546 MISUTIL2009060400545 13:20  *00548 MISUTIL2009060400547 13:20
*00549 MISUTIL2009060400548 13:29  *00550 MISUTIL2009060400549 13:29
*00551 MISUTIL2009060400550 13:29  *00552 MISUTIL2009060400551 13:29
*00553 MISUTIL2009060400552 13:29  *00554 MISUTIL2009060400553 13:29
*00555 MISUTIL2009060400557 13:29  *00556 MISUTIL2009060400554 13:29
*00557 MISUTIL2009060400558 13:29  *00558 MISUTIL2009060400555 13:29
*00559 MISUTIL2009060400556 13:29  *00560 MISUTIL2009060400559 13:40
*00561 MISUTIL2009060400560 13:40  *00562 MISUTIL2009060400561 13:40
*00563 MISUTIL2009060400562 13:40  *00564 MISUTIL2009060400563 13:40
*00565 MISUTIL2009060400564 13:40  *00567 MISUTIL2009060400565 13:45
*00568 MISUTIL2009060400566 13:45  *00569 MISUTIL2009060400567 13:45
*00570 MISUTIL2009060400568 13:45  *00571 MISUTIL2009060400569 13:45
*00572 MISUTIL2009060400571 13:45  *00573 MISUTIL2009060400570 13:45
*00576 MISUTIL2009060400574 13:45  *00578 MISUTIL2009060400576 13:45
*00580 MISUTIL2009060400578 13:46  *00582 MISUTIL2009060400580 13:46
*00584 MISUTIL2009060400582 13:46  *00585 MISUTIL2009060400583 13:46
*00587 MISUTIL2009060400585 13:46  *00589 MISUTIL2009060400587 13:46
*00590 MISUTIL2009060400593 13:52  *00594 MISUTIL2009060400591 13:52
*00595 MISUTIL2009060400592 13:52  *00596 MISUTIL2009060400594 13:52
*00597 MISUTIL2009060400595 13:52  *00599 MISUTIL2009060400597 13:52
*00600 MISUTIL2009060400598 14:05  *00601 MISUTIL2009060400599 14:05
*00602 MISUTIL2009060400600 14:05  *00604 MISUTIL2009060400602 14:05
*00606 MISUTIL2009060400604 14:05  *00607 MISUTIL2009060400605 14:05
*00614 MISUTIL2009060400611 14:14  *00615 MISUTIL2009060400612 14:14
*00619 MISUTIL2009060400621 14:23  *00620 MISUTIL2009060400618 14:23
*00623 MISUTIL2009060400620 14:23  *00624 MISUTIL2009060400622 14:23
*00625 MISUTIL2009060400623 14:23  *00627 MISUTIL2009060400625 14:23
*00632 MISUTIL2009060400630 14:36  *00634 MISUTIL2009060400632 14:49
*00639 MISUTIL2009060400636 14:49  *00641 MISUTIL2009060400639 14:49
*00644 MISUTIL2009060400645 14:55  *00658 MISUTIL2009060400644 14:55
*00660 MISUTIL2009060400642 14:55  *00661 MISUTIL2009060400653 14:55
*00674 MISUTIL2009060400671 15:04  *00686 MISUTIL2009060400683 15:14
*00691 MISUTIL2009060400689 15:14  *00696 MISUTIL2009060400693 15:18
*00701 MISUTIL2009060400699 15:18  *00702 MISUTIL2009060400701 15:20
*00703 MISUTIL2009060400703 15:20  *00704 MISUTIL2009060400704 15:20
*00705 MISUTIL2009060400706 15:20  *00707 MISUTIL2009060400707 15:20
*00708 MISUTIL2009060400708 15:20  *00709 MISUTIL2009060400709 15:20
*00710 MISUTIL2009060400710 15:20  *00712 MISUTIL2009060400705 15:20
*00716 MISUTIL2009060400714 15:31  *00718 MISUTIL2009060400716 15:31
*00719 MISUTIL2009060400718 15:31  *00720 MISUTIL2009060400717 15:31
*00723 MISUTIL2009060400720 15:40  *00724 MISUTIL2009060400721 15:40
*00726 MISUTIL2009060400722 15:40  *00727 MISUTIL2009060400723 15:40
*00729 MISUTIL2009060400725 15:40  *00730 MISUTIL2009060400726 15:40
*00734 MISUTIL2009060400731 15:53  *00735 MISUTIL2009060400733 15:53
*00737 MISUTIL2009060400734 15:53  *00738 MISUTIL2009060400736 15:53
*00739 MISUTIL2009060400737 15:53  *00742 MISUTIL2009060400739 16:06
*00743 MISUTIL2009060400741 16:06  *00744 MISUTIL2009060400742 16:17
*00745 MISUTIL2009060400743 16:17  *00746 MISUTIL2009060400750 16:17
*00747 MISUTIL2009060400744 16:17  *00748 MISUTIL2009060400745 16:17
*00749 MISUTIL2009060400746 16:17  *00753 MISUTIL2009060400751 16:17
*00757 MISUTIL2009060400757 16:34  *00759 MISUTIL2009060400755 16:34
*00760 MISUTIL2009060400758 16:34  *00761 MISUTIL2009060400759 16:34
*00763 MISUTIL2009060400760 16:39  *00764 MISUTIL2009060400761 16:39
*00765 MISUTIL2009060400762 16:39  *00766 MISUTIL2009060400763 16:39
*00767 MISUTIL2009060400764 16:39  *00768 MISUTIL2009060400765 16:39
*00770 MISUTIL2009060400767 16:39  *00772 MISUTIL2009060400770 16:39
*00773 MISUTIL2009060400771 16:39  *00774 MISUTIL2009060400780 16:55
*00776 MISUTIL2009060400777 16:55  *00785 MISUTIL2009060400785 17:06
*00786 MISUTIL2009060400783 17:06  *00787 MISUTIL2009060400784 17:06
*00788 MISUTIL2009060400786 17:06  *00791 MISUTIL2009060400789 17:20
*00792 MISUTIL2009060400790 17:20  *00793 MISUTIL2009060400791 17:20
*00794 MISUTIL2009060400792 17:20  *00795 MISUTIL2009060400793 17:20
*00796 MISUTIL2009060400794 17:20  *00797 MISUTIL2009060400795 17:20
*00798 MISUTIL2009060400796 17:24  *00799 MISUTIL2009060400797 17:24
*00800 MISUTIL2009060400798 17:24  *00801 MISUTIL2009060400799 17:24
*00802 MISUTIL2009060400800 17:24  *00803 MISUTIL2009060400801 17:24
*00804 MISUTIL2009060400802 17:24  *00805 MISUTIL2009060400803 17:24
*00807 MISUTIL2009060400805 17:24  *00808 MISUTIL2009060400806 17:24
*00809 MISUTIL2009060400807 17:30  *00810 MISUTIL2009060400808 17:30
*00811 MISUTIL2009060400809 17:30  *00812 MISUTIL2009060400810 17:30
*00813 MISUTIL2009060400811 17:30  *00814 MISUTIL2009060400812 17:30
*00815 MISUTIL2009060400813 17:30  *00816 MISUTIL2009060400814 17:30
*00817 MISUTIL2009060400815 17:30  *00818 MISUTIL2009060400816 17:30
*00819 MISUTIL2009060400817 17:37  *00820 MISUTIL2009060400818 17:37
*00821 MISUTIL2009060400819 17:37  *00822 MISUTIL2009060400820 17:37
*00823 MISUTIL2009060400821 17:37  *00825 MISUTIL2009060400823 17:37
*00826 MISUTIL2009060400824 17:37  *00827 MISUTIL2009060400825 17:37
*00828 MISUTIL2009060400826 17:37  *00829 MISUTIL2009060400827 17:37
*00831 MISUTIL2009060400828 17:48  *00832 MISUTIL2009060400829 17:48
*00833 MISUTIL2009060400830 17:48  *00834 MISUTIL2009060400831 17:48
*00835 MISUTIL2009060400833 17:48  *00836 MISUTIL2009060400834 17:55
*00837 MISUTIL2009060400835 17:55  *00838 MISUTIL2009060400836 17:55
*00839 MISUTIL2009060400837 17:55  *00840 MISUTIL2009060400838 17:55
*00841 MISUTIL2009060400839 17:55  *00842 MISUTIL2009060400840 17:55
*00843 MISUTIL2009060400841 17:55  *00844 MISUTIL2009060400843 17:55
*00845 MISUTIL2009060400842 17:55  *00846 MISUTIL2009060400844 18:06
*00847 MISUTIL2009060400845 18:06  *00848 MISUTIL2009060400846 18:06
*00849 MISUTIL2009060400847 18:06  *00850 MISUTIL2009060400848 18:06
*00851 MISUTIL2009060400849 18:06  *00853 MISUTIL2009060400851 19:09


Service Area: PG NON PIPELINE
*00001 MISUTIL2009060400003 00:11  *00002 MISUTIL2009060400004 00:11
*00003 MISUTIL2009060400005 00:11  *00004 MISUTIL2009060400002 00:11
*00023 MISUTIL2009060400027 07:03  *00024 MISUTIL2009060400032 07:03
*00025 MISUTIL2009060400028 07:03  *00031 MISUTIL2009060400031 07:03
*00043 MISUTIL2009060400047 07:29  *00069 MISUTIL2009060400069 07:44
*00083 MISUTIL2009060400084 08:04  *00086 MISUTIL2009060400086 08:04
*00090 MISUTIL2009060400091 08:16  *00091 MISUTIL2009060400088 08:17
*00104 MISUTIL2009060400106 08:23  *00126 MISUTIL2009060400126 08:30
*00136 MISUTIL2009060400136 08:33  *00160 MISUTIL2009060400160 08:45
*00162 MISUTIL2009060400162 08:45  *00164 MISUTIL2009060400164 08:45
*00165 MISUTIL2009060400167 08:55  *00168 MISUTIL2009060400166 08:55
*00172 MISUTIL2009060400172 08:55  *00174 MISUTIL2009060400173 09:03
*00176 MISUTIL2009060400180 09:03  *00177 MISUTIL2009060400175 09:03
*00178 MISUTIL2009060400176 09:03  *00180 MISUTIL2009060400179 09:03
*00185 MISUTIL2009060400183 09:09  *00186 MISUTIL2009060400184 09:09
*00187 MISUTIL2009060400185 09:09  *00190 MISUTIL2009060400189 09:10
*00191 MISUTIL2009060400187 09:10  *00192 MISUTIL2009060400190 09:10
*00193 MISUTIL2009060400193 09:19  *00196 MISUTIL2009060400194 09:19
*00198 MISUTIL2009060400197 09:19  *00199 MISUTIL2009060400199 09:19
*00200 MISUTIL2009060400202 09:19  *00202 MISUTIL2009060400201 09:19
*00204 MISUTIL2009060400203 09:27  *00207 MISUTIL2009060400205 09:27
*00224 MISUTIL2009060400230 09:33  *00233 MISUTIL2009060400234 09:41
*00235 MISUTIL2009060400235 09:41  *00238 MISUTIL2009060400239 09:41
*00239 MISUTIL2009060400238 09:41  *00240 MISUTIL2009060400240 09:41
*00241 MISUTIL2009060400241 09:41  *00245 MISUTIL2009060400244 09:48
*00252 MISUTIL2009060400252 09:48  *00260 MISUTIL2009060400258 09:57
*00269 MISUTIL2009060400268 10:12  *00282 MISUTIL2009060400282 10:15
*00289 MISUTIL2009060400289 10:20  *00303 MISUTIL2009060400306 10:26
*00314 MISUTIL2009060400314 10:29  *00345 MISUTIL2009060400345 10:45
*00351 MISUTIL2009060400351 10:57  *00353 MISUTIL2009060400355 11:08
*00357 MISUTIL2009060400357 11:08  *00361 MISUTIL2009060400361 11:25
*00362 MISUTIL2009060400362 11:25  *00364 MISUTIL2009060400365 11:25
*00368 MISUTIL2009060400370 11:30  *00371 MISUTIL2009060400374 11:30
*00392 MISUTIL2009060400398 11:40  *00394 MISUTIL2009060400392 11:40
*00398 MISUTIL2009060400397 11:40  *00401 MISUTIL2009060400401 11:42
*00403 MISUTIL2009060400404 11:42  *00405 MISUTIL2009060400410 11:42
*00407 MISUTIL2009060400405 11:42  *00410 MISUTIL2009060400409 11:42
*00412 MISUTIL2009060400412 11:42  *00416 MISUTIL2009060400415 11:45
*00417 MISUTIL2009060400416 11:45  *00418 MISUTIL2009060400417 11:45
*00420 MISUTIL2009060400419 11:45  *00422 MISUTIL2009060400421 11:45
*00424 MISUTIL2009060400423 11:45  *00427 MISUTIL2009060400426 11:47
*00430 MISUTIL2009060400429 11:47  *00432 MISUTIL2009060400431 11:47
*00434 MISUTIL2009060400433 11:47  *00435 MISUTIL2009060400439 11:55
*00436 MISUTIL2009060400434 11:55  *00437 MISUTIL2009060400435 11:55
*00439 MISUTIL2009060400437 11:55  *00442 MISUTIL2009060400441 11:55
*00444 MISUTIL2009060400443 11:55  *00446 MISUTIL2009060400444 12:06
*00462 MISUTIL2009060400463 12:09  *00466 MISUTIL2009060400469 12:15
*00467 MISUTIL2009060400466 12:15  *00469 MISUTIL2009060400468 12:15
*00490 MISUTIL2009060400488 12:27  *00501 MISUTIL2009060400500 12:49
*00502 MISUTIL2009060400501 12:49  *00503 MISUTIL2009060400502 12:49
*00504 MISUTIL2009060400503 12:49  *00508 MISUTIL2009060400507 12:49
*00509 MISUTIL2009060400508 12:59  *00510 MISUTIL2009060400509 12:59
*00511 MISUTIL2009060400510 12:59  *00513 MISUTIL2009060400511 12:59
*00516 MISUTIL2009060400514 12:59  *00517 MISUTIL2009060400515 12:59
*00518 MISUTIL2009060400517 12:59  *00524 MISUTIL2009060400522 13:06
*00533 MISUTIL2009060400531 13:13  *00534 MISUTIL2009060400532 13:13
*00536 MISUTIL2009060400534 13:13  *00537 MISUTIL2009060400536 13:13
*00538 MISUTIL2009060400537 13:13  *00540 MISUTIL2009060400540 13:20
*00541 MISUTIL2009060400538 13:20  *00542 MISUTIL2009060400539 13:20
*00543 MISUTIL2009060400541 13:20  *00545 MISUTIL2009060400544 13:20
*00547 MISUTIL2009060400546 13:20  *00591 MISUTIL2009060400588 13:52
*00598 MISUTIL2009060400596 13:52  *00603 MISUTIL2009060400601 14:05
*00605 MISUTIL2009060400603 14:05  *00608 MISUTIL2009060400606 14:05
*00610 MISUTIL2009060400607 14:14  *00612 MISUTIL2009060400608 14:14
*00628 MISUTIL2009060400626 14:23  *00633 MISUTIL2009060400631 14:36
*00636 MISUTIL2009060400634 14:49  *00642 MISUTIL2009060400640 14:49
*00643 MISUTIL2009060400641 14:49  *00645 MISUTIL2009060400646 14:55
*00646 MISUTIL2009060400647 14:55  *00647 MISUTIL2009060400648 14:55
*00648 MISUTIL2009060400649 14:55  *00649 MISUTIL2009060400650 14:55
*00650 MISUTIL2009060400651 14:55  *00651 MISUTIL2009060400652 14:55
*00652 MISUTIL2009060400654 14:55  *00653 MISUTIL2009060400655 14:55
*00654 MISUTIL2009060400656 14:55  *00655 MISUTIL2009060400657 14:55
*00656 MISUTIL2009060400658 14:55  *00657 MISUTIL2009060400659 14:55
*00662 MISUTIL2009060400660 14:56  *00663 MISUTIL2009060400661 14:56
*00664 MISUTIL2009060400662 14:56  *00665 MISUTIL2009060400663 14:56
*00666 MISUTIL2009060400664 14:56  *00667 MISUTIL2009060400665 14:56
*00668 MISUTIL2009060400666 14:56  *00669 MISUTIL2009060400667 14:56
*00670 MISUTIL2009060400668 14:56  *00671 MISUTIL2009060400669 14:56
*00672 MISUTIL2009060400670 15:04  *00673 MISUTIL2009060400672 15:04
*00675 MISUTIL2009060400674 15:04  *00676 MISUTIL2009060400675 15:04
*00677 MISUTIL2009060400676 15:04  *00678 MISUTIL2009060400677 15:04
*00680 MISUTIL2009060400678 15:04  *00681 MISUTIL2009060400679 15:04
*00683 MISUTIL2009060400681 15:14  *00685 MISUTIL2009060400685 15:14
*00688 MISUTIL2009060400686 15:14  *00689 MISUTIL2009060400688 15:14
*00692 MISUTIL2009060400690 15:18  *00693 MISUTIL2009060400692 15:18
*00695 MISUTIL2009060400695 15:18  *00697 MISUTIL2009060400694 15:18
*00698 MISUTIL2009060400696 15:18  *00699 MISUTIL2009060400697 15:18
*00711 MISUTIL2009060400700 15:20  *00715 MISUTIL2009060400713 15:31
*00721 MISUTIL2009060400719 15:31  *00722 MISUTIL2009060400728 15:40
*00733 MISUTIL2009060400732 15:53  *00736 MISUTIL2009060400735 15:53
*00751 MISUTIL2009060400747 16:17  *00752 MISUTIL2009060400749 16:17
*00754 MISUTIL2009060400752 16:17  *00758 MISUTIL2009060400754 16:34
*00762 MISUTIL2009060400768 16:39  *00769 MISUTIL2009060400766 16:39
*00771 MISUTIL2009060400769 16:39  *00777 MISUTIL2009060400774 16:55
*00779 MISUTIL2009060400775 16:55  *00780 MISUTIL2009060400776 16:55
*00781 MISUTIL2009060400778 16:55  *00782 MISUTIL2009060400779 16:55
*00784 MISUTIL2009060400781 17:06


Service Area: VA PIPELINE
*00006 VUPS2009060400003    00:11   00050 VUPS2009060400004    07:29
 00414 VUPS2009060400005    11:42   00566 VUPS2009060400006    13:40

Total number of notices sent during time period: 858


Please notify  immediately of any missing transmissions.  
