
Notified Date      Ticket Id         Member    Ticket Type
06/04/2009 00:01   9254859:1         Wgl06     Late
06/04/2009 00:02   9251462:1         Wgl06     Late
06/04/2009 00:02   9253954:1         Wgl06     Late
06/04/2009 00:02   9253962:1         Wgl06     Late
06/04/2009 06:37   9263938:0         Wgl06     Emergency
06/04/2009 06:48   9263952:0         Wgl06     Normal
06/04/2009 06:50   9263956:0         Wgl06     Normal
06/04/2009 06:55   9263983:0         Wgl06     Normal
06/04/2009 06:56   9263988:0         Wgl06     Normal
06/04/2009 06:58   9263838:0         Wgl06     Normal
06/04/2009 06:58   9263837:0         Wgl06     Normal
06/04/2009 06:58   9263842:0         Wgl06     Normal
06/04/2009 07:00   9264006:0         Wgl06     Normal
06/04/2009 07:01   9264011:0         Wgl06     Normal
06/04/2009 07:01   9264012:0         Wgl06     Restake
06/04/2009 07:02   9264018:0         Wgl06     Restake
06/04/2009 07:02   9264016:0         Wgl06     Restake
06/04/2009 07:03   9263851:0         Wgl06     Normal
06/04/2009 07:04   9264021:0         Wgl06     Normal
06/04/2009 07:04   9264023:0         Wgl06     Restake
06/04/2009 07:05   9264001:0         Wgl06     Emergency
06/04/2009 07:05   9263853:0         Wgl06     Normal
06/04/2009 07:06   9264032:0         Wgl06     Normal
06/04/2009 07:06   9264033:0         Wgl06     Normal
06/04/2009 07:07   9264024:0         Wgl06     Emergency
06/04/2009 07:07   9264038:0         Wgl06     Normal
06/04/2009 07:08   9264036:0         Wgl06     Emergency
06/04/2009 07:09   9264029:0         Wgl06     Normal
06/04/2009 07:11   9264047:0         Wgl06     Normal
06/04/2009 07:12   9264044:0         Wgl06     Emergency
06/04/2009 07:17   9264055:0         Wgl06     Emergency
06/04/2009 07:19   9264065:0         Wgl06     Restake
06/04/2009 07:25   9264073:0         Wgl06     Restake
06/04/2009 07:26   9264078:0         Wgl06     Restake
06/04/2009 07:27   9264079:0         Wgl06     Restake
06/04/2009 07:27   9263909:0         Wgl06     Normal
06/04/2009 07:28   9264080:0         Wgl06     Restake
06/04/2009 07:28   9264074:0         Wgl06     Emergency
06/04/2009 07:28   9264075:0         Wgl06     Emergency
06/04/2009 07:29   9264083:0         Wgl06     Restake
06/04/2009 07:29   9264084:0         Wgl06     Restake
06/04/2009 07:29   9264085:0         Wgl06     Restake
06/04/2009 07:30   9264082:0         Wgl06     Emergency
06/04/2009 07:30   9264089:0         Wgl06     Restake
06/04/2009 07:30   9264092:0         Wgl06     Restake
06/04/2009 07:31   9264094:0         Wgl06     Restake
06/04/2009 07:31   9264096:0         Wgl06     Restake
06/04/2009 07:32   9264099:0         Wgl06     Restake
06/04/2009 07:32   9264097:0         Wgl06     Restake
06/04/2009 07:32   9264101:0         Wgl06     Restake
06/04/2009 07:32   9264104:0         Wgl06     Restake
06/04/2009 07:32   9264103:0         Wgl06     Restake
06/04/2009 07:32   9264093:0         Wgl06     Emergency
06/04/2009 07:32   9264108:0         Wgl06     Restake
06/04/2009 07:33   9264105:0         Wgl06     Normal
06/04/2009 07:34   9264090:0         Wgl06     Normal
06/04/2009 07:35   9264116:0         Wgl06     Normal
06/04/2009 07:36   9264107:0         Wgl06     Emergency
06/04/2009 07:36   9264118:0         Wgl06     Restake
06/04/2009 07:36   9264122:0         Wgl06     Restake
06/04/2009 07:38   9264119:0         Wgl06     Restake
06/04/2009 07:38   9264129:0         Wgl06     Restake
06/04/2009 07:39   9264134:0         Wgl06     Normal
06/04/2009 07:40   9264132:0         Wgl06     Restake
06/04/2009 07:40   9264138:0         Wgl06     Restake
06/04/2009 07:42   9264142:0         Wgl06     Restake
06/04/2009 07:42   9264146:0         Wgl06     Normal
06/04/2009 07:42   9264145:0         Wgl06     Restake
06/04/2009 07:43   9264144:0         Wgl06     Normal
06/04/2009 07:45   9264147:0         Wgl06     Restake
06/04/2009 07:52   9264152:0         Wgl06     Normal
06/04/2009 07:54   9264171:0         Wgl06     Normal
06/04/2009 07:58   9264164:0         Wgl06     Normal
06/04/2009 07:58   9264182:0         Wgl06     Normal
06/04/2009 07:59   9264179:0         Wgl06     Short
06/04/2009 07:59   9264189:0         Wgl06     Normal
06/04/2009 08:00   9264196:0         Wgl06     Normal
06/04/2009 08:02   9264195:0         Wgl06     Emergency
06/04/2009 08:04   9264197:0         Wgl06     Emergency
06/04/2009 08:04   9264202:0         Wgl06     Normal
06/04/2009 08:06   9264211:0         Wgl06     Normal
06/04/2009 08:07   9264199:0         Wgl06     Normal
06/04/2009 08:07   9264217:0         Wgl06     Normal
06/04/2009 08:08   9264218:0         Wgl06     Normal
06/04/2009 08:08   9264207:0         Wgl06     Emergency
06/04/2009 08:08   9264200:0         Wgl06     Normal
06/04/2009 08:09   9264220:0         Wgl06     Normal
06/04/2009 08:10   9264221:0         Wgl06     Restake
06/04/2009 08:11   9264222:0         Wgl06     Restake
06/04/2009 08:11   9264225:0         Wgl06     Restake
06/04/2009 08:12   9264229:0         Wgl06     Restake
06/04/2009 08:13   9264231:0         Wgl06     Restake
06/04/2009 08:14   9264233:0         Wgl06     Normal
06/04/2009 08:14   9264234:0         Wgl06     Normal
06/04/2009 08:17   9264236:0         Wgl06     Normal
06/04/2009 08:17   9264243:0         Wgl06     Normal
06/04/2009 08:19   9264250:0         Wgl06     Normal
06/04/2009 08:20   9264246:0         Wgl06     Emergency
06/04/2009 08:21   9264237:0         Wgl06     Normal
06/04/2009 08:22   9264257:0         Wgl06     Normal
06/04/2009 08:22   9264267:0         Wgl06     Restake
06/04/2009 08:23   9264270:0         Wgl06     Restake
06/04/2009 08:23   9264273:0         Wgl06     Normal
06/04/2009 08:23   9264275:0         Wgl06     Restake
06/04/2009 08:24   9264282:0         Wgl06     Restake
06/04/2009 08:25   9264283:0         Wgl06     Restake
06/04/2009 08:25   9264286:0         Wgl06     Restake
06/04/2009 08:26   9264287:0         Wgl06     Restake
06/04/2009 08:26   9264289:0         Wgl06     Restake
06/04/2009 08:26   9264291:0         Wgl06     Restake
06/04/2009 08:27   9264292:0         Wgl06     Restake
06/04/2009 08:27   9264293:0         Wgl06     Normal
06/04/2009 08:30   9264300:0         Wgl06     Restake
06/04/2009 08:30   9264301:0         Wgl06     Normal
06/04/2009 08:30   9264303:0         Wgl06     Restake
06/04/2009 08:30   9264305:0         Wgl06     Restake
06/04/2009 08:31   9264298:0         Wgl06     Normal
06/04/2009 08:31   9264307:0         Wgl06     Restake
06/04/2009 08:31   9264311:0         Wgl06     Restake
06/04/2009 08:32   9264313:0         Wgl06     Restake
06/04/2009 08:32   9264314:0         Wgl06     Normal
06/04/2009 08:32   9264315:0         Wgl06     Restake
06/04/2009 08:33   9264318:0         Wgl06     Restake
06/04/2009 08:34   9264326:0         Wgl06     Restake
06/04/2009 08:37   9264347:0         Wgl06     Normal
06/04/2009 08:37   9264345:0         Wgl06     Restake
06/04/2009 08:38   9264349:0         Wgl06     Restake
06/04/2009 08:38   9264351:0         Wgl06     Restake
06/04/2009 08:38   9264353:0         Wgl06     Restake
06/04/2009 08:39   9264356:0         Wgl06     Restake
06/04/2009 08:39   9264357:0         Wgl06     Normal
06/04/2009 08:39   9264358:0         Wgl06     Restake
06/04/2009 08:42   9264360:0         Wgl06     Normal
06/04/2009 08:44   9264365:0         Wgl06     Restake
06/04/2009 08:44   9264366:0         Wgl06     Restake
06/04/2009 08:45   9264369:0         Wgl06     Normal
06/04/2009 08:46   9264370:0         Wgl06     Restake
06/04/2009 08:46   9264372:0         Wgl06     Normal
06/04/2009 08:46   9264362:0         Wgl06     Emergency
06/04/2009 08:46   9264363:0         Wgl06     Emergency
06/04/2009 08:47   9264378:0         Wgl06     Restake
06/04/2009 08:48   9264383:0         Wgl06     Normal
06/04/2009 08:49   9264389:0         Wgl06     Restake
06/04/2009 08:54   9264404:0         Wgl06     Normal
06/04/2009 08:55   9264408:0         Wgl06     Normal
06/04/2009 08:57   9264405:0         Wgl06     Normal
06/04/2009 08:58   9264413:0         Wgl06     Normal
06/04/2009 08:58   9264412:0         Wgl06     Restake
06/04/2009 08:59   9264411:0         Wgl06     Normal
06/04/2009 08:59   9264407:0         Wgl06     Normal
06/04/2009 08:59   9264416:0         Wgl06     Normal
06/04/2009 09:01   9264415:0         Wgl06     Normal
06/04/2009 09:01   9264425:0         Wgl06     Normal
06/04/2009 09:02   9264427:0         Wgl06     Normal
06/04/2009 09:03   9264423:0         Wgl06     Normal
06/04/2009 09:03   9264432:0         Wgl06     Normal
06/04/2009 09:04   9264430:0         Wgl06     Normal
06/04/2009 09:04   9264435:0         Wgl06     Normal
06/04/2009 09:04   9264418:0         Wgl06     Normal
06/04/2009 09:05   9264441:0         Wgl06     Normal
06/04/2009 09:07   9264442:0         Wgl06     Normal
06/04/2009 09:07   9264436:0         Wgl06     Normal
06/04/2009 09:07   9264443:0         Wgl06     Normal
06/04/2009 09:07   9264445:0         Wgl06     Normal
06/04/2009 09:07   9264410:0         Wgl06     Short
06/04/2009 09:08   9264428:0         Wgl06     Normal
06/04/2009 09:09   9264454:0         Wgl06     Normal
06/04/2009 09:09   9264457:0         Wgl06     Normal
06/04/2009 09:09   9264458:0         Wgl06     Normal
06/04/2009 09:09   9264424:0         Wgl06     Normal
06/04/2009 09:10   9264459:0         Wgl06     Normal
06/04/2009 09:10   9264456:0         Wgl06     Normal
06/04/2009 09:10   9264460:0         Wgl06     Normal
06/04/2009 09:10   9264461:0         Wgl06     Normal
06/04/2009 09:11   9264452:0         Wgl06     Normal
06/04/2009 09:11   9264464:0         Wgl06     Normal
06/04/2009 09:11   9264466:0         Wgl06     Normal
06/04/2009 09:11   9251399:1         Wgl06     Update
06/04/2009 09:12   9264467:0         Wgl06     Normal
06/04/2009 09:12   9264463:0         Wgl06     Normal
06/04/2009 09:13   9264472:0         Wgl06     Normal
06/04/2009 09:13   9264473:0         Wgl06     Normal
06/04/2009 09:14   9264477:0         Wgl06     Normal
06/04/2009 09:15   9264479:0         Wgl06     Normal
06/04/2009 09:17   9264484:0         Wgl06     Normal
06/04/2009 09:18   9264478:0         Wgl06     Short
06/04/2009 09:19   9264487:0         Wgl06     Normal
06/04/2009 09:20   9264485:0         Wgl06     Emergency
06/04/2009 09:20   9264493:0         Wgl06     Normal
06/04/2009 09:21   9264495:0         Wgl06     Normal
06/04/2009 09:22   9264496:0         Wgl06     Restake
06/04/2009 09:23   9264501:0         Wgl06     Normal
06/04/2009 09:23   9264504:0         Wgl06     Restake
06/04/2009 09:23   9264508:0         Wgl06     Restake
06/04/2009 09:24   9264511:0         Wgl06     Restake
06/04/2009 09:24   9264513:0         Wgl06     Normal
06/04/2009 09:24   9264514:0         Wgl06     Restake
06/04/2009 09:25   9264516:0         Wgl06     Restake
06/04/2009 09:26   9264519:0         Wgl06     Normal
06/04/2009 09:26   9264520:0         Wgl06     Normal
06/04/2009 09:28   9264497:0         Wgl06     Restake
06/04/2009 09:28   9264527:0         Wgl06     Restake
06/04/2009 09:28   9264506:0         Wgl06     Restake
06/04/2009 09:29   9264530:0         Wgl06     Restake
06/04/2009 09:30   9264531:0         Wgl06     Restake
06/04/2009 09:30   9264533:0         Wgl06     Restake
06/04/2009 09:30   9264534:0         Wgl06     Restake
06/04/2009 09:30   9264535:0         Wgl06     Restake
06/04/2009 09:31   9264539:0         Wgl06     Restake
06/04/2009 09:31   9264540:0         Wgl06     Restake
06/04/2009 09:31   9264542:0         Wgl06     Restake
06/04/2009 09:32   9264545:0         Wgl06     Restake
06/04/2009 09:32   9264546:0         Wgl06     Restake
06/04/2009 09:32   9264548:0         Wgl06     Restake
06/04/2009 09:32   9264549:0         Wgl06     Restake
06/04/2009 09:33   9264550:0         Wgl06     Restake
06/04/2009 09:33   9264551:0         Wgl06     Restake
06/04/2009 09:34   9264528:0         Wgl06     Normal
06/04/2009 09:34   9264553:0         Wgl06     Restake
06/04/2009 09:34   9264554:0         Wgl06     Restake
06/04/2009 09:35   9264557:0         Wgl06     Normal
06/04/2009 09:35   9264537:0         Wgl06     Normal
06/04/2009 09:35   9264552:0         Wgl06     Normal
06/04/2009 09:37   9264564:0         Wgl06     Normal
06/04/2009 09:38   9264559:0         Wgl06     Normal
06/04/2009 09:39   9264541:0         Wgl06     Normal
06/04/2009 09:39   9264569:0         Wgl06     Restake
06/04/2009 09:39   9264561:0         Wgl06     Normal
06/04/2009 09:39   9264560:0         Wgl06     Restake
06/04/2009 09:39   9264572:0         Wgl06     Restake
06/04/2009 09:40   9264574:0         Wgl06     Restake
06/04/2009 09:41   9264582:0         Wgl06     Normal
06/04/2009 09:43   9264577:0         Wgl06     Emergency
06/04/2009 09:43   9264586:0         Wgl06     Normal
06/04/2009 09:43   9264585:0         Wgl06     Emergency
06/04/2009 09:45   9264595:0         Wgl06     Normal
06/04/2009 09:47   9264591:0         Wgl06     Emergency
06/04/2009 09:47   9264594:0         Wgl06     Emergency
06/04/2009 09:48   9264581:0         Wgl06     Normal
06/04/2009 09:49   9264604:0         Wgl06     Normal
06/04/2009 09:49   9264609:0         Wgl06     Normal
06/04/2009 09:49   9264598:0         Wgl06     Emergency
06/04/2009 09:49   9264612:0         Wgl06     Normal
06/04/2009 09:50   9264611:0         Wgl06     Normal
06/04/2009 09:50   9264616:0         Wgl06     Normal
06/04/2009 09:52   9264617:0         Wgl06     Restake
06/04/2009 09:52   9264625:0         Wgl06     Normal
06/04/2009 09:54   9264623:0         Wgl06     Normal
06/04/2009 09:55   9264634:0         Wgl06     Normal
06/04/2009 09:56   9264627:0         Wgl06     Emergency
06/04/2009 09:56   9264599:0         Wgl06     Normal
06/04/2009 09:56   9264638:0         Wgl06     Normal
06/04/2009 09:56   9264601:0         Wgl06     Restake
06/04/2009 09:58   9264626:0         Wgl06     Normal
06/04/2009 09:58   9264642:0         Wgl06     Normal
06/04/2009 09:58   9264620:0         Wgl06     Normal
06/04/2009 09:58   9264630:0         Wgl06     Normal
06/04/2009 09:58   9264644:0         Wgl06     Normal
06/04/2009 09:58   9264618:0         Wgl06     Normal
06/04/2009 10:02   9264653:0         Wgl06     Normal
06/04/2009 10:04   9264666:0         Wgl06     Restake
06/04/2009 10:04   9264669:0         Wgl06     Restake
06/04/2009 10:05   9264672:1         Wgl06     Restake
06/04/2009 10:05   9264679:0         Wgl06     Normal
06/04/2009 10:05   9264676:0         Wgl06     Restake
06/04/2009 10:06   9264685:0         Wgl06     Normal
06/04/2009 10:09   9264692:0         Wgl06     Normal
06/04/2009 10:10   9264701:0         Wgl06     Normal
06/04/2009 10:12   9264647:0         Wgl06     Normal
06/04/2009 10:13   9264659:0         Wgl06     Restake
06/04/2009 10:13   9264664:0         Wgl06     Restake
06/04/2009 10:13   9256461:1         Wgl06     Update
06/04/2009 10:14   9264713:0         Wgl06     Normal
06/04/2009 10:14   9264671:0         Wgl06     Restake
06/04/2009 10:14   9256442:1         Wgl06     Update
06/04/2009 10:14   9264708:0         Wgl06     Normal
06/04/2009 10:14   9256473:1         Wgl06     Update
06/04/2009 10:15   9264718:0         Wgl06     Normal
06/04/2009 10:16   9264715:0         Wgl06     Normal
06/04/2009 10:16   9256491:1         Wgl06     Update
06/04/2009 10:16   9264706:0         Wgl06     Emergency
06/04/2009 10:17   9256507:1         Wgl06     Update
06/04/2009 10:18   9247431:1         Wgl06     Update
06/04/2009 10:19   9264725:0         Wgl06     Restake
06/04/2009 10:19   9264734:0         Wgl06     Restake
06/04/2009 10:19   9264731:0         Wgl06     Restake
06/04/2009 10:20   9264736:0         Wgl06     Restake
06/04/2009 10:20   9264738:0         Wgl06     Normal
06/04/2009 10:20   9264739:0         Wgl06     Restake
06/04/2009 10:20   9264742:0         Wgl06     Normal
06/04/2009 10:20   9264740:0         Wgl06     Restake
06/04/2009 10:20   9264744:0         Wgl06     Restake
06/04/2009 10:22   9264746:0         Wgl06     Restake
06/04/2009 10:22   9264750:0         Wgl06     Restake
06/04/2009 10:22   9264751:0         Wgl06     Restake
06/04/2009 10:22   9264753:0         Wgl06     Restake
06/04/2009 10:22   9264755:0         Wgl06     Restake
06/04/2009 10:23   9264756:0         Wgl06     Restake
06/04/2009 10:23   9264757:0         Wgl06     Restake
06/04/2009 10:23   9264759:0         Wgl06     Restake
06/04/2009 10:24   9264760:0         Wgl06     Restake
06/04/2009 10:25   9264764:0         Wgl06     Restake
06/04/2009 10:25   9264767:0         Wgl06     Restake
06/04/2009 10:25   9264770:0         Wgl06     Restake
06/04/2009 10:25   9264723:0         Wgl06     Normal
06/04/2009 10:25   9264768:0         Wgl06     Restake
06/04/2009 10:26   9264771:0         Wgl06     Restake
06/04/2009 10:26   9264772:0         Wgl06     Restake
06/04/2009 10:27   9264774:0         Wgl06     Restake
06/04/2009 10:27   9264775:0         Wgl06     Restake
06/04/2009 10:27   9264776:0         Wgl06     Restake
06/04/2009 10:27   9264777:0         Wgl06     Restake
06/04/2009 10:28   9264778:0         Wgl06     Restake
06/04/2009 10:28   9264782:0         Wgl06     Restake
06/04/2009 10:28   9264769:0         Wgl06     Normal
06/04/2009 10:29   9264783:0         Wgl06     Restake
06/04/2009 10:29   9264784:0         Wgl06     Normal
06/04/2009 10:29   9264785:0         Wgl06     Restake
06/04/2009 10:29   9264787:0         Wgl06     Restake
06/04/2009 10:30   9264789:0         Wgl06     Restake
06/04/2009 10:30   9264790:0         Wgl06     Restake
06/04/2009 10:30   9264791:0         Wgl06     Restake
06/04/2009 10:30   9258419:1         Wgl06     Update
06/04/2009 10:30   9264788:0         Wgl06     Restake
06/04/2009 10:30   9264784:1         Wgl06     Cancel
06/04/2009 10:30   9264794:0         Wgl06     Restake
06/04/2009 10:31   9264797:0         Wgl06     Restake
06/04/2009 10:31   9264798:0         Wgl06     Normal
06/04/2009 10:32   9264795:0         Wgl06     Short
06/04/2009 10:32   9264805:0         Wgl06     Restake
06/04/2009 10:32   9264802:0         Wgl06     Restake
06/04/2009 10:32   9264811:0         Wgl06     Restake
06/04/2009 10:32   9264809:0         Wgl06     Restake
06/04/2009 10:32   9264813:0         Wgl06     Restake
06/04/2009 10:33   9264816:0         Wgl06     Normal
06/04/2009 10:33   9264815:0         Wgl06     Restake
06/04/2009 10:33   9264817:0         Wgl06     Restake
06/04/2009 10:34   9264820:0         Wgl06     Restake
06/04/2009 10:34   9264823:0         Wgl06     Restake
06/04/2009 10:34   9264825:0         Wgl06     Restake
06/04/2009 10:35   9264828:0         Wgl06     Restake
06/04/2009 10:40   9264842:0         Wgl06     Normal
06/04/2009 10:44   9264865:0         Wgl06     Normal
06/04/2009 10:49   9264847:0         Wgl06     Normal
06/04/2009 10:51   9264881:0         Wgl06     Short
06/04/2009 10:52   9264858:0         Wgl06     Short
06/04/2009 10:52   9264895:0         Wgl06     Normal
06/04/2009 10:55   9264897:0         Wgl06     Emergency
06/04/2009 10:55   9264888:0         Wgl06     Normal
06/04/2009 10:57   9264906:0         Wgl06     Normal
06/04/2009 10:58   9264913:0         Wgl06     Emergency
06/04/2009 11:02   9264926:0         Wgl06     Emergency
06/04/2009 11:02   9264932:0         Wgl06     Normal
06/04/2009 11:03   9264924:0         Wgl06     Emergency
06/04/2009 11:03   9264934:0         Wgl06     Normal
06/04/2009 11:08   9264942:0         Wgl06     Restake
06/04/2009 11:16   9264971:0         Wgl06     Normal
06/04/2009 11:18   9264974:0         Wgl06     Normal
06/04/2009 11:18   9264977:0         Wgl06     Normal
06/04/2009 11:18   9264981:0         Wgl06     Normal
06/04/2009 11:18   9264978:0         Wgl06     Normal
06/04/2009 11:19   9264979:0         Wgl06     Normal
06/04/2009 11:20   9264987:0         Wgl06     Normal
06/04/2009 11:20   9264988:0         Wgl06     Normal
06/04/2009 11:20   9264982:0         Wgl06     Emergency
06/04/2009 11:22   9264997:0         Wgl06     Normal
06/04/2009 11:22   9265001:0         Wgl06     Normal
06/04/2009 11:22   9265002:0         Wgl06     Normal
06/04/2009 11:23   9264995:0         Wgl06     Emergency
06/04/2009 11:23   9265005:0         Wgl06     Normal
06/04/2009 11:23   9265006:0         Wgl06     Normal
06/04/2009 11:24   9264998:0         Wgl06     Emergency
06/04/2009 11:25   9265010:0         Wgl06     Normal
06/04/2009 11:25   9265011:0         Wgl06     Normal
06/04/2009 11:25   9265012:0         Wgl06     Normal
06/04/2009 11:25   9265015:0         Wgl06     Normal
06/04/2009 11:26   9265017:0         Wgl06     Restake
06/04/2009 11:26   9265018:0         Wgl06     Normal
06/04/2009 11:26   9265019:0         Wgl06     Normal
06/04/2009 11:26   9264986:0         Wgl06     Short
06/04/2009 11:26   9265022:0         Wgl06     Normal
06/04/2009 11:27   9265026:0         Wgl06     Normal
06/04/2009 11:27   9265027:0         Wgl06     Restake
06/04/2009 11:28   9264963:0         Wgl06     Normal
06/04/2009 11:28   9265028:0         Wgl06     Normal
06/04/2009 11:28   9265031:0         Wgl06     Normal
06/04/2009 11:28   9265034:0         Wgl06     Restake
06/04/2009 11:28   9265035:0         Wgl06     Normal
06/04/2009 11:29   9265024:0         Wgl06     Emergency
06/04/2009 11:29   9265036:0         Wgl06     Normal
06/04/2009 11:30   9265044:0         Wgl06     Restake
06/04/2009 11:31   9265049:0         Wgl06     Normal
06/04/2009 11:31   9264930:0         Wgl06     Normal
06/04/2009 11:32   9265032:0         Wgl06     Normal
06/04/2009 11:32   9265055:0         Wgl06     Restake
06/04/2009 11:32   9265050:0         Wgl06     Restake
06/04/2009 11:32   9265057:0         Wgl06     Normal
06/04/2009 11:33   9265062:0         Wgl06     Normal
06/04/2009 11:33   9265063:0         Wgl06     Normal
06/04/2009 11:33   9265065:0         Wgl06     Restake
06/04/2009 11:36   9265077:0         Wgl06     Normal
06/04/2009 11:36   9265083:0         Wgl06     Restake
06/04/2009 11:36   9265082:0         Wgl06     Normal
06/04/2009 11:37   9265086:0         Wgl06     Normal
06/04/2009 11:38   9265089:0         Wgl06     Normal
06/04/2009 11:39   9231685:1         Wgl06     Cancel
06/04/2009 11:39   9265095:0         Wgl06     Normal
06/04/2009 11:40   9265096:0         Wgl06     Normal
06/04/2009 11:40   9265097:0         Wgl06     Restake
06/04/2009 11:40   9265078:0         Wgl06     Emergency
06/04/2009 11:40   9265099:0         Wgl06     Normal
06/04/2009 11:40   9265098:0         Wgl06     Restake
06/04/2009 11:41   9265104:0         Wgl06     Restake
06/04/2009 11:41   9265111:0         Wgl06     Restake
06/04/2009 11:42   9265117:0         Wgl06     Restake
06/04/2009 11:42   9265122:0         Wgl06     Normal
06/04/2009 11:42   9265112:0         Wgl06     Normal
06/04/2009 11:43   9265114:0         Wgl06     Restake
06/04/2009 11:43   9265124:0         Wgl06     Restake
06/04/2009 11:43   9265130:0         Wgl06     Restake
06/04/2009 11:44   9265127:0         Wgl06     Restake
06/04/2009 11:44   9265134:0         Wgl06     Restake
06/04/2009 11:44   9265139:0         Wgl06     Restake
06/04/2009 11:45   9265142:0         Wgl06     Restake
06/04/2009 11:46   9265147:0         Wgl06     Normal
06/04/2009 11:46   9265150:0         Wgl06     Restake
06/04/2009 11:46   9265152:0         Wgl06     Restake
06/04/2009 11:46   9265155:0         Wgl06     Restake
06/04/2009 11:46   9265146:0         Wgl06     Normal
06/04/2009 11:47   9265141:0         Wgl06     Normal
06/04/2009 11:47   9265157:0         Wgl06     Normal
06/04/2009 11:47   9265161:0         Wgl06     Restake
06/04/2009 11:48   9265165:0         Wgl06     Restake
06/04/2009 11:48   9265169:0         Wgl06     Normal
06/04/2009 11:48   9265170:0         Wgl06     Restake
06/04/2009 11:48   9265175:0         Wgl06     Restake
06/04/2009 11:48   9265176:0         Wgl06     Normal
06/04/2009 11:49   9265182:0         Wgl06     Restake
06/04/2009 11:49   9265184:0         Wgl06     Normal
06/04/2009 11:50   9265186:0         Wgl06     Normal
06/04/2009 11:50   9265189:0         Wgl06     Restake
06/04/2009 11:51   9265143:0         Wgl06     Normal
06/04/2009 11:51   9265187:0         Wgl06     Normal
06/04/2009 11:51   9265193:0         Wgl06     Normal
06/04/2009 11:54   9265214:0         Wgl06     Restake
06/04/2009 11:56   9265206:0         Wgl06     Emergency
06/04/2009 11:57   9265156:0         Wgl06     Short
06/04/2009 11:58   9265183:0         Wgl06     Emergency
06/04/2009 12:02   9265227:0         Wgl06     Normal
06/04/2009 12:02   9265192:0         Wgl06     Normal
06/04/2009 12:03   9265237:0         Wgl06     Normal
06/04/2009 12:03   9265113:0         Wgl06     Normal
06/04/2009 12:03   9260530:1         Wgl06     Cancel
06/04/2009 12:05   9265242:0         Wgl06     Normal
06/04/2009 12:06   9265246:0         Wgl06     Normal
06/04/2009 12:06   9265247:0         Wgl06     Restake
06/04/2009 12:06   9265249:0         Wgl06     Normal
06/04/2009 12:08   9265254:0         Wgl06     Normal
06/04/2009 12:08   9265258:0         Wgl06     Normal
06/04/2009 12:08   9265259:0         Wgl06     Normal
06/04/2009 12:10   9265250:0         Wgl06     Normal
06/04/2009 12:11   9265262:0         Wgl06     Normal
06/04/2009 12:12   9265277:0         Wgl06     Normal
06/04/2009 12:13   9265271:0         Wgl06     Normal
06/04/2009 12:14   9265251:0         Wgl06     Emergency
06/04/2009 12:15   9265292:0         Wgl06     Normal
06/04/2009 12:17   9264842:1         Wgl06     Cancel
06/04/2009 12:17   9265304:0         Wgl06     Normal
06/04/2009 12:17   9265306:0         Wgl06     Normal
06/04/2009 12:18   9265310:0         Wgl06     Normal
06/04/2009 12:19   9265312:0         Wgl06     Normal
06/04/2009 12:19   9265313:0         Wgl06     Normal
06/04/2009 12:20   9265317:0         Wgl06     Normal
06/04/2009 12:20   9265319:0         Wgl06     Normal
06/04/2009 12:21   9265290:0         Wgl06     Normal
06/04/2009 12:21   9265323:0         Wgl06     Normal
06/04/2009 12:23   9265332:0         Wgl06     Normal
06/04/2009 12:24   9265333:0         Wgl06     Normal
06/04/2009 12:24   9265307:0         Wgl06     Normal
06/04/2009 12:25   9265337:0         Wgl06     Normal
06/04/2009 12:26   9265341:0         Wgl06     Normal
06/04/2009 12:26   9265321:0         Wgl06     Normal
06/04/2009 12:26   9265342:0         Wgl06     Normal
06/04/2009 12:27   9265345:0         Wgl06     Normal
06/04/2009 12:27   9265351:0         Wgl06     Normal
06/04/2009 12:28   9265354:0         Wgl06     Normal
06/04/2009 12:29   9265231:0         Wgl06     Normal
06/04/2009 12:29   9265359:0         Wgl06     Normal
06/04/2009 12:30   9265357:0         Wgl06     Normal
06/04/2009 12:30   9265360:0         Wgl06     Normal
06/04/2009 12:31   9265363:0         Wgl06     Normal
06/04/2009 12:33   9265370:0         Wgl06     Normal
06/04/2009 12:35   9265373:0         Wgl06     Normal
06/04/2009 12:40   9265364:0         Wgl06     Normal
06/04/2009 12:40   9265376:0         Wgl06     Normal
06/04/2009 12:40   9265349:0         Wgl06     Normal
06/04/2009 12:40   9265378:0         Wgl06     Normal
06/04/2009 12:41   9265379:0         Wgl06     Normal
06/04/2009 12:41   9265381:0         Wgl06     Normal
06/04/2009 12:43   9265383:0         Wgl06     Normal
06/04/2009 12:44   9265386:0         Wgl06     Normal
06/04/2009 12:44   9265384:0         Wgl06     Normal
06/04/2009 12:49   9265391:0         Wgl06     Normal
06/04/2009 12:49   9265392:0         Wgl06     Normal
06/04/2009 12:49   9265393:0         Wgl06     Normal
06/04/2009 12:50   9265394:0         Wgl06     Normal
06/04/2009 12:51   9265397:0         Wgl06     Normal
06/04/2009 12:51   9265399:0         Wgl06     Normal
06/04/2009 12:52   9265400:0         Wgl06     Restake
06/04/2009 12:52   9265395:0         Wgl06     Normal
06/04/2009 12:52   9265402:0         Wgl06     Restake
06/04/2009 12:52   9265404:0         Wgl06     Restake
06/04/2009 12:53   9265406:0         Wgl06     Restake
06/04/2009 12:53   9265401:0         Wgl06     Normal
06/04/2009 12:53   9265403:0         Wgl06     Normal
06/04/2009 12:53   9265396:0         Wgl06     Normal
06/04/2009 12:54   9265408:0         Wgl06     Normal
06/04/2009 12:54   9265407:0         Wgl06     Normal
06/04/2009 12:56   9265410:0         Wgl06     Normal
06/04/2009 12:59   9265419:0         Wgl06     Normal
06/04/2009 13:00   9265409:0         Wgl06     Normal
06/04/2009 13:02   9265426:0         Wgl06     Normal
06/04/2009 13:04   9265428:0         Wgl06     Normal
06/04/2009 13:06   9265430:0         Wgl06     Normal
06/04/2009 13:06   9265431:0         Wgl06     Normal
06/04/2009 13:06   9265424:0         Wgl06     Normal
06/04/2009 13:07   9265434:0         Wgl06     Normal
06/04/2009 13:07   9265435:0         Wgl06     Normal
06/04/2009 13:08   9265437:0         Wgl06     Normal
06/04/2009 13:08   9265432:0         Wgl06     Normal
06/04/2009 13:09   9265438:0         Wgl06     Normal
06/04/2009 13:10   9265440:0         Wgl06     Restake
06/04/2009 13:11   9265446:0         Wgl06     Normal
06/04/2009 13:12   9265448:0         Wgl06     Normal
06/04/2009 13:12   9265450:0         Wgl06     Normal
06/04/2009 13:13   9265451:0         Wgl06     Normal
06/04/2009 13:14   9265452:0         Wgl06     Normal
06/04/2009 13:14   9265445:0         Wgl06     Normal
06/04/2009 13:14   9265453:0         Wgl06     Normal
06/04/2009 13:15   9265454:0         Wgl06     Normal
06/04/2009 13:15   9265457:0         Wgl06     Normal
06/04/2009 13:15   9265449:0         Wgl06     Normal
06/04/2009 13:16   9265458:0         Wgl06     Normal
06/04/2009 13:18   9265461:0         Wgl06     Normal
06/04/2009 13:19   9265462:0         Wgl06     Normal
06/04/2009 13:19   9265464:0         Wgl06     Restake
06/04/2009 13:19   9265463:0         Wgl06     Normal
06/04/2009 13:20   9265465:0         Wgl06     Normal
06/04/2009 13:21   9265466:0         Wgl06     Restake
06/04/2009 13:21   9265467:0         Wgl06     Normal
06/04/2009 13:22   9265468:0         Wgl06     Restake
06/04/2009 13:23   9265470:0         Wgl06     Restake
06/04/2009 13:24   9265473:0         Wgl06     Restake
06/04/2009 13:25   9265476:0         Wgl06     Restake
06/04/2009 13:26   9265480:0         Wgl06     Restake
06/04/2009 13:28   9265482:0         Wgl06     Normal
06/04/2009 13:28   9265485:0         Wgl06     Restake
06/04/2009 13:29   9265488:0         Wgl06     Restake
06/04/2009 13:30   9265456:0         Wgl06     Normal
06/04/2009 13:30   9265483:0         Wgl06     Normal
06/04/2009 13:30   9265481:0         Wgl06     Normal
06/04/2009 13:31   9265492:0         Wgl06     Restake
06/04/2009 13:31   9265493:0         Wgl06     Normal
06/04/2009 13:32   9265497:0         Wgl06     Restake
06/04/2009 13:33   9265499:0         Wgl06     Normal
06/04/2009 13:34   9265500:0         Wgl06     Restake
06/04/2009 13:35   9265504:0         Wgl06     Restake
06/04/2009 13:41   9265514:0         Wgl06     Normal
06/04/2009 13:41   9265519:0         Wgl06     Restake
06/04/2009 13:43   9265522:0         Wgl06     Restake
06/04/2009 13:43   9265527:0         Wgl06     Restake
06/04/2009 13:44   9265528:0         Wgl06     Restake
06/04/2009 13:44   9265530:0         Wgl06     Restake
06/04/2009 13:45   9265532:0         Wgl06     Restake
06/04/2009 13:45   9265533:0         Wgl06     Restake
06/04/2009 13:45   9265536:0         Wgl06     Restake
06/04/2009 13:45   9265538:0         Wgl06     Restake
06/04/2009 13:46   9265542:0         Wgl06     Restake
06/04/2009 13:46   9265544:0         Wgl06     Restake
06/04/2009 13:47   9265546:0         Wgl06     Restake
06/04/2009 13:47   9265547:0         Wgl06     Restake
06/04/2009 13:47   9265553:0         Wgl06     Restake
06/04/2009 13:47   9265550:1         Wgl06     Restake
06/04/2009 13:48   9265523:0         Wgl06     Normal
06/04/2009 13:48   9265559:0         Wgl06     Restake
06/04/2009 13:48   9265561:0         Wgl06     Restake
06/04/2009 13:49   9265563:0         Wgl06     Restake
06/04/2009 13:49   9265515:0         Wgl06     Emergency
06/04/2009 13:49   9265566:0         Wgl06     Restake
06/04/2009 13:49   9265568:0         Wgl06     Restake
06/04/2009 13:49   9265569:0         Wgl06     Normal
06/04/2009 13:50   9265572:0         Wgl06     Restake
06/04/2009 13:51   9265578:0         Wgl06     Restake
06/04/2009 13:51   9265582:0         Wgl06     Restake
06/04/2009 13:53   9265589:0         Wgl06     Normal
06/04/2009 13:55   9265564:0         Wgl06     Normal
06/04/2009 13:55   9265593:0         Wgl06     Normal
06/04/2009 13:56   9265602:0         Wgl06     Normal
06/04/2009 13:57   9265605:0         Wgl06     Normal
06/04/2009 13:58   9265611:0         Wgl06     Normal
06/04/2009 13:59   9265614:0         Wgl06     Normal
06/04/2009 14:00   9265617:0         Wgl06     Normal
06/04/2009 14:01   9265618:0         Wgl06     Normal
06/04/2009 14:02   9265622:0         Wgl06     Normal
06/04/2009 14:02   9265625:0         Wgl06     Normal
06/04/2009 14:04   9265629:0         Wgl06     Normal
06/04/2009 14:04   9265632:0         Wgl06     Normal
06/04/2009 14:06   9265642:0         Wgl06     Normal
06/04/2009 14:08   9265649:0         Wgl06     Normal
06/04/2009 14:08   9265626:0         Wgl06     Normal
06/04/2009 14:09   9265650:0         Wgl06     Normal
06/04/2009 14:09   9265652:0         Wgl06     Normal
06/04/2009 14:11   9265655:0         Wgl06     Normal
06/04/2009 14:12   9265654:0         Wgl06     Restake
06/04/2009 14:16   9265660:0         Wgl06     Emergency
06/04/2009 14:17   9265667:0         Wgl06     Normal
06/04/2009 14:19   9265672:0         Wgl06     Normal
06/04/2009 14:21   9265674:0         Wgl06     Normal
06/04/2009 14:21   9264977:1         Wgl06     Cancel
06/04/2009 14:21   9265677:0         Wgl06     Normal
06/04/2009 14:22   9265679:0         Wgl06     Normal
06/04/2009 14:22   9265684:0         Wgl06     Normal
06/04/2009 14:23   9265687:0         Wgl06     Normal
06/04/2009 14:25   9265693:0         Wgl06     Normal
06/04/2009 14:28   9265706:0         Wgl06     Normal
06/04/2009 14:29   9265685:0         Wgl06     Normal
06/04/2009 14:31   9265715:0         Wgl06     Normal
06/04/2009 14:32   9265716:0         Wgl06     Restake
06/04/2009 14:40   9265731:0         Wgl06     Normal
06/04/2009 14:41   9265749:0         Wgl06     Normal
06/04/2009 14:45   9265744:0         Wgl06     Normal
06/04/2009 14:46   9265774:0         Wgl06     Normal
06/04/2009 14:47   9265779:0         Wgl06     Normal
06/04/2009 14:48   9265781:0         Wgl06     Normal
06/04/2009 14:48   9265788:0         Wgl06     Normal
06/04/2009 14:49   9265789:0         Wgl06     Normal
06/04/2009 14:49   9265793:0         Wgl06     Normal
06/04/2009 14:50   9265798:0         Wgl06     Normal
06/04/2009 14:54   9265753:0         Wgl06     Short
06/04/2009 14:55   9265709:0         Wgl06     Normal
06/04/2009 14:55   9265718:0         Wgl06     Normal
06/04/2009 14:55   9265725:0         Wgl06     Normal
06/04/2009 14:55   9265726:0         Wgl06     Normal
06/04/2009 14:55   9265823:0         Wgl06     Normal
06/04/2009 14:55   9265722:0         Wgl06     Normal
06/04/2009 14:56   9265825:0         Wgl06     Normal
06/04/2009 14:56   9265730:0         Wgl06     Normal
06/04/2009 14:56   9265733:0         Wgl06     Normal
06/04/2009 14:56   9265732:0         Wgl06     Normal
06/04/2009 14:56   9265727:0         Wgl06     Normal
06/04/2009 14:56   9265735:0         Wgl06     Normal
06/04/2009 14:56   9265740:0         Wgl06     Normal
06/04/2009 14:56   9265741:0         Wgl06     Normal
06/04/2009 14:56   9265737:0         Wgl06     Normal
06/04/2009 14:56   9265743:0         Wgl06     Normal
06/04/2009 14:56   9265746:0         Wgl06     Normal
06/04/2009 14:56   9265755:0         Wgl06     Normal
06/04/2009 14:56   9265736:0         Wgl06     Normal
06/04/2009 14:57   9265757:0         Wgl06     Normal
06/04/2009 14:57   9265762:0         Wgl06     Normal
06/04/2009 14:57   9265765:0         Wgl06     Normal
06/04/2009 14:57   9265769:0         Wgl06     Normal
06/04/2009 14:57   9265773:0         Wgl06     Normal
06/04/2009 14:57   9265782:0         Wgl06     Normal
06/04/2009 14:58   9265799:0         Wgl06     Normal
06/04/2009 14:58   9265830:0         Wgl06     Normal
06/04/2009 14:58   9265804:0         Wgl06     Normal
06/04/2009 14:58   9265821:0         Wgl06     Normal
06/04/2009 14:58   9265826:0         Wgl06     Normal
06/04/2009 14:58   9265828:0         Wgl06     Normal
06/04/2009 14:59   9265777:0         Wgl06     Normal
06/04/2009 14:59   9265824:0         Wgl06     Normal
06/04/2009 15:03   9265836:0         Wgl06     Normal
06/04/2009 15:03   9265839:0         Wgl06     Normal
06/04/2009 15:03   9265831:0         Wgl06     Normal
06/04/2009 15:03   9265833:0         Wgl06     Normal
06/04/2009 15:03   9265840:0         Wgl06     Normal
06/04/2009 15:04   9265843:0         Wgl06     Normal
06/04/2009 15:04   9265846:0         Wgl06     Normal
06/04/2009 15:04   9265832:0         Wgl06     Normal
06/04/2009 15:05   9265851:0         Wgl06     Normal
06/04/2009 15:05   9265838:0         Wgl06     Normal
06/04/2009 15:05   9265849:0         Wgl06     Normal
06/04/2009 15:08   9265853:0         Wgl06     Normal
06/04/2009 15:09   9265862:0         Wgl06     Normal
06/04/2009 15:13   9265860:0         Wgl06     Normal
06/04/2009 15:13   9265870:0         Wgl06     Normal
06/04/2009 15:13   9265871:0         Wgl06     Restake
06/04/2009 15:14   9265876:0         Wgl06     Restake
06/04/2009 15:14   9265872:0         Wgl06     Normal
06/04/2009 15:15   9265883:0         Wgl06     Normal
06/04/2009 15:15   9265884:0         Wgl06     Restake
06/04/2009 15:15   9265889:0         Wgl06     Restake
06/04/2009 15:16   9265886:0         Wgl06     Normal
06/04/2009 15:16   9265898:0         Wgl06     Normal
06/04/2009 15:16   9265899:0         Wgl06     Restake
06/04/2009 15:17   9265903:0         Wgl06     Restake
06/04/2009 15:18   9265910:0         Wgl06     Restake
06/04/2009 15:18   9265913:0         Wgl06     Normal
06/04/2009 15:19   9265895:0         Wgl06     Normal
06/04/2009 15:19   9265911:0         Wgl06     Normal
06/04/2009 15:20   9265916:0         Wgl06     Normal
06/04/2009 15:21   9265868:0         Wgl06     Restake
06/04/2009 15:21   9265875:0         Wgl06     Restake
06/04/2009 15:21   9265874:0         Wgl06     Restake
06/04/2009 15:21   9265922:0         Wgl06     Normal
06/04/2009 15:21   9265878:0         Wgl06     Restake
06/04/2009 15:21   9265881:0         Wgl06     Restake
06/04/2009 15:21   9265885:0         Wgl06     Restake
06/04/2009 15:21   9265894:0         Wgl06     Restake
06/04/2009 15:21   9265891:0         Wgl06     Restake
06/04/2009 15:23   9265930:0         Wgl06     Normal
06/04/2009 15:24   9265941:0         Wgl06     Normal
06/04/2009 15:25   9265942:0         Wgl06     Normal
06/04/2009 15:25   9265943:0         Wgl06     Normal
06/04/2009 15:26   9265951:0         Wgl06     Normal
06/04/2009 15:27   9265956:0         Wgl06     Restake
06/04/2009 15:28   9265967:0         Wgl06     Normal
06/04/2009 15:28   9265966:0         Wgl06     Normal
06/04/2009 15:29   9265978:0         Wgl06     Normal
06/04/2009 15:30   9265974:0         Wgl06     Restake
06/04/2009 15:31   9265990:0         Wgl06     Normal
06/04/2009 15:32   9265915:0         Wgl06     Normal
06/04/2009 15:32   9265992:0         Wgl06     Normal
06/04/2009 15:32   9265983:0         Wgl06     Restake
06/04/2009 15:34   9266001:0         Wgl06     Normal
06/04/2009 15:35   9266006:0         Wgl06     Normal
06/04/2009 15:36   9265987:0         Wgl06     Normal
06/04/2009 15:37   9266011:0         Wgl06     Normal
06/04/2009 15:37   9265993:0         Wgl06     Normal
06/04/2009 15:37   9266000:0         Wgl06     Normal
06/04/2009 15:37   9266004:0         Wgl06     Normal
06/04/2009 15:37   9266010:0         Wgl06     Normal
06/04/2009 15:38   9266003:0         Wgl06     Normal
06/04/2009 15:38   9266015:0         Wgl06     Normal
06/04/2009 15:39   9266017:0         Wgl06     Normal
06/04/2009 15:40   9266016:0         Wgl06     Normal
06/04/2009 15:40   9265906:0         Wgl06     Normal
06/04/2009 15:41   9266002:0         Wgl06     Normal
06/04/2009 15:45   9266029:0         Wgl06     Normal
06/04/2009 15:47   9266025:0         Wgl06     Normal
06/04/2009 15:48   9266031:0         Wgl06     Normal
06/04/2009 15:48   9266039:0         Wgl06     Normal
06/04/2009 15:49   9266033:0         Wgl06     Normal
06/04/2009 15:52   9266045:0         Wgl06     Normal
06/04/2009 15:52   9266048:0         Wgl06     Normal
06/04/2009 15:52   9266036:0         Wgl06     Normal
06/04/2009 15:56   9266063:0         Wgl06     Normal
06/04/2009 15:57   9266065:0         Wgl06     Normal
06/04/2009 16:07   9266080:0         Wgl06     Normal
06/04/2009 16:07   9266078:0         Wgl06     Normal
06/04/2009 16:07   9266081:0         Wgl06     Normal
06/04/2009 16:08   9266085:0         Wgl06     Normal
06/04/2009 16:09   9266089:0         Wgl06     Normal
06/04/2009 16:09   9266088:0         Wgl06     Normal
06/04/2009 16:10   9266090:0         Wgl06     Normal
06/04/2009 16:11   9266094:0         Wgl06     Normal
06/04/2009 16:11   9266087:0         Wgl06     Normal
06/04/2009 16:12   9266099:0         Wgl06     Normal
06/04/2009 16:13   9266100:0         Wgl06     Normal
06/04/2009 16:14   9266102:0         Wgl06     Normal
06/04/2009 16:14   9266101:0         Wgl06     Normal
06/04/2009 16:16   9266107:0         Wgl06     Normal
06/04/2009 16:17   9266084:0         Wgl06     Normal
06/04/2009 16:17   9266103:0         Wgl06     Normal
06/04/2009 16:17   9266106:0         Wgl06     Normal
06/04/2009 16:18   9266108:0         Wgl06     Normal
06/04/2009 16:25   9266114:0         Wgl06     Normal
06/04/2009 16:25   9266119:0         Wgl06     Restake
06/04/2009 16:25   9265441:0         Wgl06     Normal
06/04/2009 16:26   9266120:0         Wgl06     Restake
06/04/2009 16:28   9266118:0         Wgl06     Normal
06/04/2009 16:32   9266124:0         Wgl06     Normal
06/04/2009 16:33   9266125:0         Wgl06     Normal
06/04/2009 16:33   9266127:0         Wgl06     Normal
06/04/2009 16:34   9266128:0         Wgl06     Normal
06/04/2009 16:35   9266129:0         Wgl06     Normal
06/04/2009 16:35   9266130:0         Wgl06     Normal
06/04/2009 16:36   9266131:0         Wgl06     Normal
06/04/2009 16:36   9266133:0         Wgl06     Normal
06/04/2009 16:37   9266135:0         Wgl06     Normal
06/04/2009 16:38   9266136:0         Wgl06     Normal
06/04/2009 16:38   9266138:0         Wgl06     Normal
06/04/2009 16:38   9266139:0         Wgl06     Normal
06/04/2009 16:39   9266140:0         Wgl06     Normal
06/04/2009 16:39   9266142:0         Wgl06     Normal
06/04/2009 16:39   9266141:0         Wgl06     Normal
06/04/2009 16:40   9266126:0         Wgl06     Normal
06/04/2009 16:49   9266155:0         Wgl06     Restake
06/04/2009 16:50   9266154:0         Wgl06     Normal
06/04/2009 16:51   9266158:0         Wgl06     Normal
06/04/2009 16:51   9266159:0         Wgl06     Restake
06/04/2009 16:52   9266161:0         Wgl06     Restake
06/04/2009 16:53   9266151:0         Wgl06     Normal
06/04/2009 16:54   9266162:0         Wgl06     Restake
06/04/2009 16:54   9266167:0         Wgl06     Restake
06/04/2009 16:55   9265677:1         Wgl06     Cancel
06/04/2009 16:56   9266163:0         Wgl06     Normal
06/04/2009 16:56   9266172:0         Wgl06     Restake
06/04/2009 16:57   9266165:0         Wgl06     Normal
06/04/2009 16:57   9266168:0         Wgl06     Normal
06/04/2009 16:57   9266166:0         Wgl06     Normal
06/04/2009 16:57   9266170:0         Wgl06     Normal
06/04/2009 16:57   9266171:0         Wgl06     Normal
06/04/2009 16:57   9266173:0         Wgl06     Normal
06/04/2009 16:57   9266174:0         Wgl06     Normal
06/04/2009 16:57   9266175:0         Wgl06     Normal
06/04/2009 16:58   9266176:0         Wgl06     Normal
06/04/2009 16:58   9266180:0         Wgl06     Normal
06/04/2009 16:58   9266177:0         Wgl06     Normal
06/04/2009 16:58   9266178:0         Wgl06     Normal
06/04/2009 16:58   9266181:0         Wgl06     Normal
06/04/2009 16:58   9266182:0         Wgl06     Normal
06/04/2009 16:58   9266183:0         Wgl06     Normal
06/04/2009 16:58   9266184:0         Wgl06     Normal
06/04/2009 16:58   9266189:0         Wgl06     Normal
06/04/2009 17:00   9266187:0         Wgl06     Normal
06/04/2009 17:00   9266190:0         Wgl06     Normal
06/04/2009 17:05   9266192:0         Wgl06     Normal
06/04/2009 17:05   9266186:0         Wgl06     Normal
06/04/2009 17:06   9266194:0         Wgl06     Normal
06/04/2009 17:27   9266203:0         Wgl06     Normal
06/04/2009 17:32   9266223:0         Wgl06     Normal
06/04/2009 17:32   9266215:0         Wgl06     Normal
06/04/2009 17:32   9266216:0         Wgl06     Normal
06/04/2009 17:32   9266227:0         Wgl06     Normal
06/04/2009 17:32   9266228:0         Wgl06     Normal
06/04/2009 17:32   9266224:0         Wgl06     Normal
06/04/2009 17:32   9266220:0         Wgl06     Normal
06/04/2009 17:32   9266219:0         Wgl06     Normal
06/04/2009 17:32   9266229:0         Wgl06     Normal
06/04/2009 17:32   9266218:0         Wgl06     Normal
06/04/2009 17:32   9266226:0         Wgl06     Normal
06/04/2009 17:32   9266222:0         Wgl06     Normal
06/04/2009 17:32   9266225:0         Wgl06     Normal
06/04/2009 17:32   9266230:0         Wgl06     Normal
06/04/2009 17:32   9266236:0         Wgl06     Normal
06/04/2009 17:32   9266237:0         Wgl06     Normal
06/04/2009 17:33   9266238:0         Wgl06     Normal
06/04/2009 17:33   9266239:0         Wgl06     Normal
06/04/2009 17:35   9266240:0         Wgl06     Normal
06/04/2009 17:35   9266242:0         Wgl06     Normal
06/04/2009 17:35   9266243:0         Wgl06     Normal
06/04/2009 17:35   9266244:0         Wgl06     Normal
06/04/2009 17:37   9266207:0         Wgl06     Normal
06/04/2009 17:37   9266234:0         Wgl06     Normal
06/04/2009 17:37   9266233:0         Wgl06     Normal
06/04/2009 17:37   9266210:0         Wgl06     Normal
06/04/2009 17:37   9266209:0         Wgl06     Normal
06/04/2009 17:37   9266208:0         Wgl06     Normal
06/04/2009 17:37   9266204:0         Wgl06     Normal
06/04/2009 17:37   9266212:0         Wgl06     Normal
06/04/2009 17:37   9266214:0         Wgl06     Normal
06/04/2009 17:37   9266213:0         Wgl06     Normal
06/04/2009 17:37   9266205:0         Wgl06     Normal
06/04/2009 17:37   9266235:0         Wgl06     Normal
06/04/2009 17:38   9266245:0         Wgl06     Normal
06/04/2009 17:38   9266246:0         Wgl06     Normal
06/04/2009 17:38   9266247:0         Wgl06     Normal
06/04/2009 17:39   9266248:0         Wgl06     Normal
06/04/2009 17:40   9266249:0         Wgl06     Normal
06/04/2009 17:40   9266250:0         Wgl06     Normal
06/04/2009 17:41   9266251:0         Wgl06     Normal
06/04/2009 17:50   9266252:0         Wgl06     Normal
06/04/2009 17:51   9266253:0         Wgl06     Normal
06/04/2009 17:51   9266254:0         Wgl06     Normal
06/04/2009 17:52   9266255:0         Wgl06     Normal
06/04/2009 17:53   9266256:0         Wgl06     Normal
06/04/2009 17:53   9266257:0         Wgl06     Normal
06/04/2009 17:54   9266258:0         Wgl06     Normal
06/04/2009 17:55   9266260:0         Wgl06     Normal
06/04/2009 17:55   9266261:0         Wgl06     Normal
06/04/2009 17:55   9266259:0         Wgl06     Normal
06/04/2009 17:56   9266262:0         Wgl06     Normal
06/04/2009 17:56   9266263:0         Wgl06     Normal
06/04/2009 17:57   9266264:0         Wgl06     Normal
06/04/2009 17:57   9266266:0         Wgl06     Normal
06/04/2009 17:58   9266267:0         Wgl06     Normal
06/04/2009 17:59   9266268:0         Wgl06     Normal
06/04/2009 19:08   9266273:0         Wgl06     Emergency
06/04/2009 23:02   9266304:0         Wgl06     Emergency
06/04/2009 23:40   9266305:0         Wgl06     Normal
06/04/2009 23:48   9266307:0         Wgl06     Normal
06/04/2009 23:51   9266308:0         Wgl06     Normal
06/04/2009 23:52   9266309:0         Wgl06     Normal
06/04/2009 23:53   9266310:0         Wgl06     Normal
06/04/2009 23:54   9266311:0         Wgl06     Normal
06/04/2009 23:56   9266312:0         Wgl06     Normal
06/04/2009 23:58   9266313:0         Wgl06     Normal

Total Tickets Sent: 889