
Louisiana One Call
SUMM
DAILY AUDIT OF TICKETS SENT ON 06/04/09

Date/Time: 06/05/2009 12:15:03 AM
Receiving Terminal: SH01

Seq #   Ticket #    Seq #   Ticket #    Seq #   Ticket #    Seq #   Ticket #    
----- ------------  ----- ------------  ----- ------------  ----- ------------  
   1 90232636-UPDT |  59 90233338-48HR | 117 90233739-48HR | 175 90234381-UPDT |
   2 90232635-UPDT |  60 90233415-48HR | 118 90233742-48HR | 176 90234705-REPR |
   3 90232697-EMER |  61 90233708-REPR | 119 90233752-48HR | 177 90234640-48HR |
   4 90232718-EMER |  62 90233689-48HR | 120 90233746-48HR | 178 90234507-48HR |
   5 90232715-48HR |  63 90233758-48HR | 121 90233759-48HR | 179 90234564-48HR |
   6 90232762-REPR |  64 90233834-48HR | 122 90233771-48HR | 180 90234569-48HR |
   7 90232768-48HR |  65 90233852-48HR | 123 90234363-48HR | 181 90234574-48HR |
   8 90232747-EMER |  66 90233865-48HR | 124 90233744-48HR | 182 90234556-48HR |
   9 90232776-EMER |  67 90233889-48HR | 125 90233773-48HR | 183 90234581-48HR |
  10 90232758-EMER |  68 90233905-48HR | 126 90233760-48HR | 184 90234654-REPR |
  11 90232845-UPDT |  69 90233914-EMER | 127 90233763-48HR | 185 90234602-REPR |
  12 90232841-EMER |  70 90233833-48HR | 128 90233774-48HR | 186 90234736-48HR |
  13 90232862-48HR |  71 90233924-48HR | 129 90233780-48HR | 187 90234536-48HR |
  14 90232889-48HR |  72 90233902-48HR | 130 90233781-48HR | 188 90234700-REPR |
  15 90232943-48HR |  73 90233949-48HR | 131 90233768-48HR | 189 90234606-48HR |
  16 90232711-48HR |  74 90233395-48HR | 132 90233776-48HR | 190 90234608-48HR |
  17 90232720-48HR |  75 90223878-48HR | 133 90233785-48HR | 191 90234614-UPDT |
  18 90233004-48HR |  76 90233405-REPR | 134 90234403-UPDT | 192 90234617-REPR |
  19 90232733-REPR |  77 90233410-48HR | 135 90233790-48HR | 193 90234748-48HR |
  20 90232735-48HR |  78 90233983-48HR | 136 90234408-UPDT | 194 90234616-UPDT |
  21 90233056-UPDT |  79 90233996-UPDT | 137 90233786-48HR | 195 90234631-UPDT |
  22 90232742-48HR |  80 90233999-UPDT | 138 90234412-UPDT | 196 90234661-REPR |
  23 90233063-UPDT |  81 90233988-48HR | 139 90233793-48HR | 197 90234657-REPR |
  24 90232745-48HR |  82 90233972-24HR | 140 90234413-UPDT | 198 90234659-REPR |
  25*90233062-EMER |  83 90234057-48HR | 141 90234415-UPDT | 199 90234667-REPR |
  26 90232750-48HR |  84 90234071-48HR | 142 90233767-48HR | 200 90234670-REPR |
  27 90232755-48HR |  85 90233418-48HR | 143 90233789-48HR | 201 90234672-REPR |
  28 90232759-48HR |  86 90233453-REPR | 144 90233879-48HR | 202 90234674-REPR |
  29 90233073-REPR |  87 90234093-48HR | 145 90233800-48HR | 203 90234671-48HR |
  30 90227121-48HR |  88 90229184-48HR | 146 90234416-UPDT | 204 90234675-REPR |
  31 90233135-48HR |  89 90233492-48HR | 147 90234420-UPDT | 205 90234677-REPR |
  32 90233193-REPR |  90 90233515-UPDT | 148 90234389-PRIO | 206 90234650-48HR |
  33 90233252-48HR |  91 90233540-UPDT | 149 90233806-48HR | 207 90234660-REPR |
  34 90233258-48HR |  92 90233554-UPDT | 150 90233811-48HR | 208 90234690-REPR |
  35 90232872-48HR |  93 90233560-48HR | 151 90233817-48HR | 209 90234686-REPR |
  36 90233242-48HR |  94 90234160-48HR | 152 90233926-48HR | 210 90234693-REPR |
  37 90232821-48HR |  95 90233581-48HR | 153 90233940-48HR | 211 90234706-REPR |
  38 90233283-EMER |  96 90233618-UPDT | 154 90234192-48HR | 212 90234681-REPR |
  39 90233299-48HR |  97 90233597-48HR | 155 90233974-48HR | 213 90234694-REPR |
  40 90233254-48HR |  98 90233631-UPDT | 156 90234019-48HR | 214 90234702-48HR |
  41 90224815-48HR |  99 90233623-UPDT | 157 90234421-48HR | 215 90234757-48HR |
  42 90232927-UPDT | 100 90234266-EMER | 158 90234433-48HR | 216 90234764-48HR |
  43 90232938-UPDT | 101 90233640-UPDT | 159 90234445-48HR | 217 90234779-48HR |
  44 90232933-UPDT | 102 90233644-UPDT | 160 90234493-48HR | 218 90234797-48HR |
  45 90233358-EMER | 103 90233664-48HR | 161 90234572-SHRT | 219 90234801-48HR |
  46 90232952-48HR | 104 90233683-48HR | 162 90234180-48HR | 220 90234818-48HR |
  47 90232961-48HR | 105 90233757-48HR | 163 90234155-48HR | 221 90234822-48HR |
  48 90233386-REPR | 106 90233684-48HR | 164 90234596-48HR | 222 90234833-48HR |
  49 90233397-48HR | 107 90233681-UPDT | 165 90234619-48HR | 223 90234828-24HR |
  50 90232971-48HR | 108 90233709-48HR | 166 90234622-48HR | 224 90234830-48HR |
  51 90233559-EMER | 109 90233718-48HR | 167 90234627-48HR | 225 90234827-48HR |
  52 90233062-EMER | 110 90234322-EMER | 168 90234198-48HR | 226 90234844-48HR |
  53 90233601-48HR | 111 90233762-48HR | 169 90234423-48HR | 227 90234849-48HR |
  54 90233162-48HR | 112 90233750-48HR | 170 90234265-48HR | 228 90234851-48HR |
  55 90233200-48HR | 113 90233719-48HR | 171 90234666-48HR | 229 90234835-48HR |
  56 90233165-48HR | 114 90233723-48HR | 172 90234430-48HR | 230 90234848-48HR |
  57 90233250-48HR | 115 90233732-48HR | 173 90234521-UPDT | 231 90234867-REPR |
  58 90233372-48HR | 116 90233765-48HR | 174 90234386-UPDT | 232 90234869-48HR |

* indicates ticket # is repeated

Total Tickets: 232

UPDT - UPDATE                         |   32

EMER - EMERGENCY                      |   14

48HR - 48 HOURS NOTICE                |  152

REPR - REPAIR                         |   30

24HR - 24 HOURS NOTICE                |    2

PRIO - PRIORITY                       |    1

SHRT - SHORT NOTICE                   |    1


Please call (800) 272-3020 if this data does
not match the tickets you received on 06/04/09
