

Thu Jun 04                                                             page    1
                          Daily Summary Report 060409

MSGID  OCC_TKTNUM      OCC_SITE DELIVERED                                       
-----------------------------------------                                       
00001  A91550001-00A   ATTD28SD 07:12 CST                                       
00002  A91541576-00A   ATTD28SD 07:12 CST                                       
00003  A91541575-00A   ATTD13OR 07:12 CST                                       
00004  A91340001-01A   ATTD01OR 07:12 CST                                       
00005  A91550005-00A   ATTD13OR 08:09 CST                                       
00006  A90051489-12A   ATTD28SD 08:19 CST                                       
00007  A91270645-01A   ATTD28SD 08:34 CST                                       
00008  A91541409-01A   ATTD19LAN08:34 CST                                       
00009  A91550010-00A   ATTD14LAN08:40 CST                                       
00010  A91550016-00A   ATTD19LAN08:51 CST                                       
00011  A91030915-02A   ATTD13OR 08:51 CST                                       
00012  A91550017-00A   ATTD19LAN09:05 CST                                       
00013  A91550018-00A   ATTD28SD 09:05 CST                                       
00014  A91550019-00A   ATTD19LAN09:05 CST                                       
00015  A91550020-00A   ATTD19LAN09:05 CST                                       
00016  A91550021-00A   ATTD28SD 09:05 CST                                       
00017  A91550022-00A   ATTD19LAN09:05 CST                                       
00018  A91550023-00A   ATTD19LAN09:05 CST                                       
00019  A91550026-00A   ATTD01OR 09:05 CST                                       
00020  A91550027-00A   ATTD19LAN09:05 CST                                       
00021  A91070545-02A   ATTD01OR 09:08 CST                                       
00022  A91070547-02A   ATTD01OR 09:08 CST                                       
00023  A91070554-02A   ATTD01OR 09:08 CST                                       
00024  A91550029-00A   ATTD19LAN09:08 CST                                       
00025  A91070564-02A   ATTD01OR 09:08 CST                                       
00026  A91070569-03A   ATTD01OR 09:08 CST                                       
00027  A91140507-02A   ATTD01OR 09:08 CST                                       
00028  A91140511-02A   ATTD01OR 09:08 CST                                       
00029  A91140513-02A   ATTD01OR 09:08 CST                                       
00030  A91140517-02A   ATTD01OR 09:08 CST                                       
00031  A91140528-02A   ATTD01OR 09:08 CST                                       
00032  A91140522-02A   ATTD01OR 09:08 CST                                       
00033  A91140534-02A   ATTD01OR 09:08 CST                                       
00034  A91550033-00A   ATTD19LAN09:08 CST                                       
00035  A91550017-01A   ATTD19LAN09:10 CST                                       
00036  A91550036-00A   ATTD28SD 09:10 CST                                       
00037  A91550037-00A   ATTD25LAS09:10 CST                                       
00038  A91550040-00A   ATTD13OR 09:15 CST                                       
00039  A91550042-00A   ATTD20LAN09:15 CST                                       
00040  A91550031-00A   ATTD19LAN09:23 CST                                       
00041  A91550039-00A   ATTD13OR 09:23 CST                                       
00042  A91550030-00A   ATTD25LAS09:29 CST                                       
00043  A91550052-00A   ATTD19LAN09:39 CST                                       
00044  A91550056-00A   ATTD13OR 09:39 CST                                       
00045  A91041433-03A   ATTD13OR 09:39 CST                                       
00046  A91550060-00A   ATTD20LAN09:39 CST                                       
00047  A91550060-00A   ATTD19LAN09:39 CST                                       
00048  A91550064-00A   ATTD13OR 09:45 CST                                       
00049  A83300707-17A   ATTD28SD 09:45 CST                                       
00050  A91550071-00A   ATTD13OR 09:45 CST                                       
00051  A91550054-00A   ATTD13OR 09:45 CST                                       
00052  A91550055-00A   ATTD13OR 09:45 CST                                       
00053  A91550074-00A   ATTD13OR 09:49 CST                                       
00054  A91550077-00A   ATTD20LAN09:49 CST                                       
00055  A91521187-01A   ATTD13OR 09:49 CST                                       
00056  A91550079-00A   ATTD13OR 09:49 CST                                       
00057  A91550082-00A   ATTD28SD 09:49 CST                                       
00058  A91550083-00A   ATTD01OR 09:49 CST                                       
00059  A91320856-01A   ATTD28SD 09:49 CST                                       
00060  A91550088-00A   ATTD13OR 09:51 CST                                       
00061  A91550093-00A   ATTD28SD 09:51 CST                                       
00062  A91330285-01A   ATTD13OR 09:53 CST                                       
00063  A91330500-01A   ATTD13OR 09:54 CST                                       
00064  A91000053-05A   ATTD01OR 10:10 CST                                       
00065  A91550101-00A   ATTD14LAN10:10 CST                                       
00066  A90480394-04A   ATTD20LAN10:10 CST                                       
00067  A90780728-03A   ATTD14LAN10:10 CST                                       
00068  A91550103-00A   ATTD28SD 10:10 CST                                       
00069  A91550083-01A   ATTD01OR 10:10 CST                                       
00070  A91550105-00A   ATTD18LAN10:10 CST                                       
00071  A91550104-00A   ATTD18LAN10:10 CST                                       
00072  A91550106-00A   ATTD124OR10:10 CST                                       
00073  A91550107-00A   ATTD17LAN10:10 CST                                       
00074  A91550108-00A   ATTD17LAN10:10 CST                                       
00075  A91550109-00A   ATTD18LAN10:10 CST                                       
00076  A91550100-00A   ATTD25LAS10:12 CST                                       
00077  A91550116-00A   ATTD28SD 10:16 CST                                       
00078  A91550117-00A   ATTD28SD 10:16 CST                                       
00079  A90151361-05A   ATTD124OR10:16 CST                                       
00080  A91550119-00A   ATTD17LAN10:16 CST                                       
00081  A91550123-00A   ATTD18LAN10:16 CST                                       
00082  A91550125-00A   ATTD28SD 10:16 CST                                       
00083  A82551513-12A   ATTD28SD 10:16 CST                                       
00084  A83081229-11A   ATTD28SD 10:16 CST                                       
00085  A90301043-07A   ATTD28SD 10:16 CST                                       
00086  A90301053-07A   ATTD28SD 10:16 CST                                       
00087  A90840190-05A   ATTD28SD 10:16 CST                                       
00088  A91550126-00A   ATTD17LAN10:16 CST                                       
00089  A91050468-02A   ATTD28SD 10:16 CST                                       
00090  A91550127-00A   ATTD17LAN10:16 CST                                       
00091  A91550129-00A   ATTD01OR 10:16 CST                                       
00092  A91550134-00A   ATTD28SD 10:16 CST                                       
00093  A91550135-00A   ATTD20LAN10:23 CST                                       
00094  A91550135-00A   ATTD25LAS10:23 CST                                       
00095  A91550137-00A   ATTD20LAN10:23 CST                                       
00096  A91550140-00A   ATTD13OR 10:23 CST                                       
00097  A91550141-00A   ATTD17LAN10:23 CST                                       
00098  A91550143-00A   ATTD13OR 10:23 CST                                       
00099  A91550145-00A   ATTD20LAN10:23 CST                                       
00100  A91550145-00A   ATTD25LAS10:23 CST                                       
00101  A91550146-00A   ATTD17LAN10:23 CST                                       
00102  A91550148-00A   ATTD28SD 10:23 CST                                       
00103  A91550151-00A   ATTD01OR 10:31 CST                                       
00104  A91550158-00A   ATTD22LAS10:31 CST                                       
00105  A91550159-00A   ATTD01OR 10:31 CST                                       
00106  A91550116-01A   ATTD28SD 10:31 CST                                       
00107  A91550164-00A   ATTD17LAN10:31 CST                                       
00108  A91180497-02A   ATTD14LAN10:31 CST                                       
00109  A91550165-00A   ATTD28SD 10:31 CST                                       
00110  A91271253-01A   ATTD22LAS10:31 CST                                       
00111  A91070049-02A   ATTD28SD 10:31 CST                                       
00112  A91550166-00A   ATTD01OR 10:31 CST                                       
00113  A91550167-00A   ATTD28SD 10:31 CST                                       
00114  A91070050-02A   ATTD28SD 10:31 CST                                       
00115  A91240391-02A   ATTD28SD 10:31 CST                                       
00116  A91271255-01A   ATTD22LAS10:31 CST                                       
00117  A91280091-01A   ATTD28SD 10:31 CST                                       
00118  A91070038-03A   ATTD01OR 10:31 CST                                       
00119  A91550122-00A   ATTD13OR 10:31 CST                                       
00120  A91550118-00A   ATTD13OR 10:31 CST                                       
00121  A91550136-00A   ATTD22LAS10:32 CST                                       
00122  A91550161-00A   ATTD22LAS10:32 CST                                       
00123  A72220193-24A   ATTD13OR 10:34 CST                                       
00124  A91521230-01A   ATTD01OR 10:34 CST                                       
00125  A91550115-00A   ATTD22LAS10:34 CST                                       
00126  A82250064-15A   ATTD28SD 10:34 CST                                       
00127  A82460710-17A   ATTD28SD 10:34 CST                                       
00128  A90190902-07A   ATTD14LAN10:34 CST                                       
00129  A90440270-05A   ATTD14LAN10:34 CST                                       
00130  A91550153-00A   ATTD25LAS10:34 CST                                       
00131  A91550154-00A   ATTD124OR10:34 CST                                       
00132  A91461291-01A   ATTD14LAN10:34 CST                                       
00133  A91271251-01A   ATTD22LAS10:37 CST                                       
00134  A91070039-03A   ATTD01OR 10:41 CST                                       
00135  A91271256-01A   ATTD22LAS10:41 CST                                       
00136  A91070048-02A   ATTD01OR 10:41 CST                                       
00137  A91121043-02A   ATTD01OR 10:41 CST                                       
00138  A91070045-02A   ATTD01OR 10:41 CST                                       
00139  A91070044-02A   ATTD01OR 10:41 CST                                       
00140  A91070035-02A   ATTD01OR 10:41 CST                                       
00141  A91271260-01A   ATTD22LAS10:41 CST                                       
00142  A91070046-02A   ATTD01OR 10:41 CST                                       
00143  A91550151-01A   ATTD01OR 10:41 CST                                       
00144  A91070040-02A   ATTD01OR 10:41 CST                                       
00145  A91070043-02A   ATTD01OR 10:41 CST                                       
00146  A91270319-01A   ATTD22LAS10:41 CST                                       
00147  A91550171-00A   ATTD18LAN10:41 CST                                       
00148  A91070047-02A   ATTD01OR 10:41 CST                                       
00149  A91550176-00A   ATTD01OR 10:41 CST                                       
00150  A91280108-01A   ATTD28SD 10:41 CST                                       
00151  A91550187-00A   ATTD28SD 10:41 CST                                       
00152  A91550188-00A   ATTD17LAN10:41 CST                                       
00153  A91271257-01A   ATTD22LAS10:45 CST                                       
00154  A91550139-00A   ATTD13OR 10:45 CST                                       
00155  A91550190-00A   ATTD01OR 10:49 CST                                       
00156  A91550191-00A   ATTD20LAN10:49 CST                                       
00157  A91550194-00A   ATTD28SD 10:49 CST                                       
00158  A91550198-00A   ATTD28SD 10:49 CST                                       
00159  A91550179-00A   ATTD17LAN10:52 CST                                       
00160  A91550196-00A   ATTD17LAN10:53 CST                                       
00161  A91550211-00A   ATTD124OR10:56 CST                                       
00162  A91550212-00A   ATTD19LAN10:56 CST                                       
00163  A91550217-00A   ATTD13OR 10:56 CST                                       
00164  A91550221-00A   ATTD01OR 10:56 CST                                       
00165  A91550220-00A   ATTD01OR 10:56 CST                                       
00166  A91461242-01A   ATTD19LAN10:56 CST                                       
00167  A91550221-01A   ATTD01OR 10:56 CST                                       
00168  A91550232-00A   ATTD20LAN10:56 CST                                       
00169  A91550235-00A   ATTD22LAS10:56 CST                                       
00170  A91310083-01A   ATTD28SD 10:56 CST                                       
00171  A91550131-00A   ATTD13OR 10:59 CST                                       
00172  A91550180-00A   ATTD28SD 11:01 CST                                       
00173  A91550181-00A   ATTD17LAN11:01 CST                                       
00174  A91550183-00A   ATTD28SD 11:01 CST                                       
00175  A91550185-00A   ATTD13OR 11:01 CST                                       
00176  A91310097-04A   ATTD28SD 11:01 CST                                       
00177  A91550239-00A   ATTD124OR11:01 CST                                       
00178  A83150270-16A   ATTD13OR 11:04 CST                                       
00179  A91550244-00A   ATTD25LAS11:04 CST                                       
00180  A91550248-00A   ATTD25LAS11:10 CST                                       
00181  A91550249-00A   ATTD14LAN11:10 CST                                       
00182  A91550253-00A   ATTD28SD 11:10 CST                                       
00183  A91550254-00A   ATTD25LAS11:10 CST                                       
00184  A91550256-00A   ATTD14LAN11:10 CST                                       
00185  A91550257-00A   ATTD28SD 11:10 CST                                       
00186  A91550261-00A   ATTD01OR 11:10 CST                                       
00187  A90281014-05A   ATTD14LAN11:10 CST                                       
00188  A91310718-01A   ATTD19LAN11:10 CST                                       
00189  A83081140-16A   ATTD13OR 11:14 CST                                       
00190  A91550218-00A   ATTD13OR 11:15 CST                                       
00191  A91550247-00A   ATTD19LAN11:16 CST                                       
00192  A91550266-00A   ATTD28SD 11:17 CST                                       
00193  A91320273-01A   ATTD25LAS11:17 CST                                       
00194  A91550267-00A   ATTD28SD 11:17 CST                                       
00195  A91550270-00A   ATTD01OR 11:17 CST                                       
00196  A91550294-00A   ATTD124OR11:17 CST                                       
00197  A91550297-00A   ATTD28SD 11:17 CST                                       
00198  A91550055-01A   ATTD13OR 11:22 CST                                       
00199  A91550273-00A   ATTD28SD 11:24 CST                                       
00200  A91550278-00A   ATTD28SD 11:24 CST                                       
00201  A91550277-00A   ATTD25LAS11:24 CST                                       
00202  A91550279-00A   ATTD124OR11:24 CST                                       
00203  A91550282-00A   ATTD28SD 11:24 CST                                       
00204  A91550283-00A   ATTD01OR 11:24 CST                                       
00205  A91550288-00A   ATTD28SD 11:24 CST                                       
00206  A91550289-00A   ATTD28SD 11:24 CST                                       
00207  A91550301-00A   ATTD124OR11:24 CST                                       
00208  A91550302-00A   ATTD28SD 11:24 CST                                       
00209  A91550307-00A   ATTD28SD 11:24 CST                                       
00210  A91550308-00A   ATTD28SD 11:24 CST                                       
00211  A91550309-00A   ATTD124OR11:24 CST                                       
00212  A91550310-00A   ATTD28SD 11:24 CST                                       
00213  A91550309-01A   ATTD124OR11:24 CST                                       
00214  A91550313-00A   ATTD17LAN11:24 CST                                       
00215  A91550285-00A   ATTD19LAN11:26 CST                                       
00216  A91550314-00A   ATTD28SD 11:31 CST                                       
00217  A91310551-01A   ATTD28SD 11:31 CST                                       
00218  A91550317-00A   ATTD28SD 11:31 CST                                       
00219  A91550320-00A   ATTD28SD 11:31 CST                                       
00220  A91550319-00A   ATTD19LAN11:31 CST                                       
00221  A91550318-00A   ATTD124OR11:31 CST                                       
00222  A91550322-00A   ATTD28SD 11:31 CST                                       
00223  A91550319-01A   ATTD19LAN11:31 CST                                       
00224  A91550324-00A   ATTD28SD 11:31 CST                                       
00225  A91550342-00A   ATTD19LAN11:31 CST                                       
00226  A91550349-00A   ATTD19LAN11:31 CST                                       
00227  A91540950-01A   ATTD14LAN11:35 CST                                       
00228  A91550328-00A   ATTD28SD 11:35 CST                                       
00229  A91550327-00A   ATTD28SD 11:35 CST                                       
00230  A91251117-02A   ATTD28SD 11:35 CST                                       
00231  A91251096-02A   ATTD28SD 11:35 CST                                       
00232  A91550330-00A   ATTD17LAN11:35 CST                                       
00233  A91550331-00A   ATTD01OR 11:35 CST                                       
00234  A91550331-00A   ATTD124OR11:35 CST                                       
00235  A91550334-00A   ATTD28SD 11:35 CST                                       
00236  A91550326-00A   ATTD13OR 11:38 CST                                       
00237  A91550285-01A   ATTD19LAN11:38 CST                                       
00238  A91550336-00A   ATTD17LAN11:38 CST                                       
00239  A90711193-03A   ATTD28SD 11:42 CST                                       
00240  A91550352-00A   ATTD01OR 11:42 CST                                       
00241  A91550353-00A   ATTD13OR 11:42 CST                                       
00242  A90991510-02A   ATTD28SD 11:42 CST                                       
00243  A91550354-00A   ATTD19LAN11:42 CST                                       
00244  A91550355-00A   ATTD25LAS11:42 CST                                       
00245  A91550356-00A   ATTD22LAS11:42 CST                                       
00246  A91550357-00A   ATTD28SD 11:42 CST                                       
00247  A82940617-10A   ATTD20LAN11:50 CST                                       
00248  A90370401-05A   ATTD17LAN11:50 CST                                       
00249  A90930455-03A   ATTD22LAS11:50 CST                                       
00250  A90930462-03A   ATTD25LAS11:50 CST                                       
00251  A91470194-02A   ATTD25LAS11:50 CST                                       
00252  A91550378-00A   ATTD25LAS11:50 CST                                       
00253  A90650449-04A   ATTD17LAN11:50 CST                                       
00254  A91350183-01A   ATTD25LAS11:50 CST                                       
00255  A90290460-06A   ATTD17LAN11:50 CST                                       
00256  A91101495-02A   ATTD01OR 11:50 CST                                       
00257  A91311696-02A   ATTD01OR 11:50 CST                                       
00258  A91250352-02A   ATTD124OR11:50 CST                                       
00259  A91550381-00A   ATTD01OR 11:50 CST                                       
00260  A91550378-01A   ATTD25LAS11:50 CST                                       
00261  A91550384-00A   ATTD28SD 11:50 CST                                       
00262  A91550385-00A   ATTD13OR 11:52 CST                                       
00263  A91550386-00A   ATTD13OR 11:52 CST                                       
00264  A91550364-00A   ATTD124OR11:55 CST                                       
00265  A91550365-00A   ATTD01OR 11:55 CST                                       
00266  A91550368-00A   ATTD22LAS11:55 CST                                       
00267  A91550367-00A   ATTD124OR11:55 CST                                       
00268  A91550393-00A   ATTD19LAN11:55 CST                                       
00269  A91550394-00A   ATTD20LAN11:58 CST                                       
00270  A91550396-00A   ATTD25LAS11:58 CST                                       
00271  A91550395-00A   ATTD25LAS12:00 CST                                       
00272  A91550391-00A   ATTD13OR 12:01 CST                                       
00273  A91550369-00A   ATTD28SD 12:02 CST                                       
00274  A91550370-00A   ATTD124OR12:02 CST                                       
00275  A91270564-01A   ATTD01OR 12:02 CST                                       
00276  A91550400-00A   ATTD124OR12:02 CST                                       
00277  A91550401-00A   ATTD28SD 12:02 CST                                       
00278  A91550154-01A   ATTD124OR12:02 CST                                       
00279  A91550403-00A   ATTD22LAS12:02 CST                                       
00280  A91550404-00A   ATTD14LAN12:02 CST                                       
00281  A91550413-00A   ATTD17LAN12:10 CST                                       
00282  A91550414-00A   ATTD14LAN12:10 CST                                       
00283  A91550417-00A   ATTD19LAN12:10 CST                                       
00284  A91550421-00A   ATTD14LAN12:10 CST                                       
00285  A91550422-00A   ATTD22LAS12:10 CST                                       
00286  A91550424-00A   ATTD28SD 12:10 CST                                       
00287  A91550425-00A   ATTD25LAS12:10 CST                                       
00288  A91320466-01A   ATTD20LAN12:10 CST                                       
00289  A91550428-00A   ATTD124OR12:10 CST                                       
00290  A91550431-00A   ATTD19LAN12:10 CST                                       
00291  A91550430-00A   ATTD124OR12:10 CST                                       
00292  A91550432-00A   ATTD19LAN12:10 CST                                       
00293  A91550433-00A   ATTD13OR 12:10 CST                                       
00294  A91550435-00A   ATTD28SD 12:10 CST                                       
00295  A91550437-00A   ATTD22LAS12:10 CST                                       
00296  A91481041-02A   ATTD28SD 12:16 CST                                       
00297  A91550406-00A   ATTD13OR 12:16 CST                                       
00298  A91550407-00A   ATTD28SD 12:16 CST                                       
00299  A91550408-00A   ATTD124OR12:16 CST                                       
00300  A91550406-01A   ATTD13OR 12:16 CST                                       
00301  A91550439-00A   ATTD28SD 12:16 CST                                       
00302  A91541527-01A   ATTD28SD 12:16 CST                                       
00303  A91550442-00A   ATTD28SD 12:16 CST                                       
00304  A91540352-01A   ATTD13OR 12:16 CST                                       
00305  A91550449-00A   ATTD28SD 12:16 CST                                       
00306  A91550449-01A   ATTD28SD 12:16 CST                                       
00307  A91550438-00A   ATTD13OR 12:19 CST                                       
00308  A73251099-24A   ATTD14LAN12:20 CST                                       
00309  A80940687-19A   ATTD124OR12:20 CST                                       
00310  A71991173-28A   ATTD17LAN12:20 CST                                       
00311  A80370379-20A   ATTD25LAS12:20 CST                                       
00312  A91550453-00A   ATTD22LAS12:20 CST                                       
00313  A91550456-00A   ATTD28SD 12:20 CST                                       
00314  A91550428-01A   ATTD124OR12:20 CST                                       
00315  A91550458-00A   ATTD01OR 12:20 CST                                       
00316  A91550460-00A   ATTD28SD 12:20 CST                                       
00317  A91411236-01A   ATTD19LAN12:20 CST                                       
00318  A83530272-06A   ATTD01OR 12:20 CST                                       
00319  A91550462-00A   ATTD124OR12:20 CST                                       
00320  A90781222-03A   ATTD28SD 12:20 CST                                       
00321  A90781223-03A   ATTD124OR12:20 CST                                       
00322  A90750699-03A   ATTD13OR 12:20 CST                                       
00323  A91550466-00A   ATTD28SD 12:20 CST                                       
00324  A91550470-00A   ATTD124OR12:25 CST                                       
00325  A91550471-00A   ATTD22LAS12:25 CST                                       
00326  A91550473-00A   ATTD28SD 12:25 CST                                       
00327  A91550474-00A   ATTD124OR12:25 CST                                       
00328  A91270275-01A   ATTD01OR 12:25 CST                                       
00329  A91270277-01A   ATTD01OR 12:25 CST                                       
00330  A91270279-02A   ATTD01OR 12:25 CST                                       
00331  A91270285-01A   ATTD01OR 12:25 CST                                       
00332  A91270282-01A   ATTD01OR 12:25 CST                                       
00333  A90781219-03A   ATTD19LAN12:27 CST                                       
00334  A91550482-00A   ATTD28SD 12:36 CST                                       
00335  A91550484-00A   ATTD28SD 12:36 CST                                       
00336  A91550485-00A   ATTD124OR12:36 CST                                       
00337  A91550487-00A   ATTD25LAS12:36 CST                                       
00338  A91550489-00A   ATTD28SD 12:36 CST                                       
00339  A91550494-00A   ATTD20LAN12:36 CST                                       
00340  A91550253-01A   ATTD28SD 12:36 CST                                       
00341  A91550495-00A   ATTD28SD 12:36 CST                                       
00342  A91550496-00A   ATTD19LAN12:42 CST                                       
00343  A91550499-00A   ATTD17LAN12:42 CST                                       
00344  A91550500-00A   ATTD14LAN12:42 CST                                       
00345  A91550502-00A   ATTD28SD 12:42 CST                                       
00346  A91550504-00A   ATTD28SD 12:42 CST                                       
00347  A91550507-00A   ATTD124OR12:42 CST                                       
00348  A91550508-00A   ATTD17LAN12:42 CST                                       
00349  A91550511-00A   ATTD01OR 12:42 CST                                       
00350  A91550512-00A   ATTD28SD 12:42 CST                                       
00351  A91550509-00A   ATTD22LAS12:42 CST                                       
00352  A91550514-00A   ATTD01OR 12:42 CST                                       
00353  A91550515-00A   ATTD01OR 12:42 CST                                       
00354  A91550516-00A   ATTD19LAN12:42 CST                                       
00355  A91550517-00A   ATTD01OR 12:42 CST                                       
00356  A91550520-00A   ATTD18LAN12:42 CST                                       
00357  A91281030-02A   ATTD17LAN12:42 CST                                       
00358  A91550506-00A   ATTD14LAN12:47 CST                                       
00359  A91550497-00A   ATTD13OR 12:47 CST                                       
00360  A91320770-01A   ATTD19LAN12:50 CST                                       
00361  A91550533-00A   ATTD01OR 12:50 CST                                       
00362  A90061133-08A   ATTD01OR 12:50 CST                                       
00363  A91550535-00A   ATTD20LAN12:50 CST                                       
00364  A91550540-00A   ATTD19LAN12:50 CST                                       
00365  A91550541-00A   ATTD25LAS12:50 CST                                       
00366  A91550546-00A   ATTD28SD 12:50 CST                                       
00367  A91550551-00A   ATTD14LAN12:55 CST                                       
00368  A91550555-00A   ATTD22LAS12:55 CST                                       
00369  A91550553-00A   ATTD28SD 12:55 CST                                       
00370  A91550554-00A   ATTD124OR12:55 CST                                       
00371  A91550560-00A   ATTD124OR12:55 CST                                       
00372  A91550553-01A   ATTD28SD 12:55 CST                                       
00373  A91550484-01A   ATTD28SD 12:55 CST                                       
00374  A91550564-00A   ATTD124OR12:55 CST                                       
00375  A91550569-00A   ATTD01OR 12:55 CST                                       
00376  A91550499-02A   ATTD17LAN12:55 CST                                       
00377  A91550552-00A   ATTD19LAN12:57 CST                                       
00378  A91550525-00A   ATTD124OR13:01 CST                                       
00379  A91550528-00A   ATTD20LAN13:01 CST                                       
00380  A91550529-00A   ATTD19LAN13:01 CST                                       
00381  A91550531-00A   ATTD20LAN13:01 CST                                       
00382  A91550572-00A   ATTD17LAN13:01 CST                                       
00383  A91550573-00A   ATTD124OR13:01 CST                                       
00384  A91550576-00A   ATTD20LAN13:01 CST                                       
00385  A91270926-01A   ATTD22LAS13:07 CST                                       
00386  A91550582-00A   ATTD19LAN13:07 CST                                       
00387  A91550582-00A   ATTD20LAN13:07 CST                                       
00388  A91550584-00A   ATTD01OR 13:07 CST                                       
00389  A91550590-00A   ATTD28SD 13:07 CST                                       
00390  A91550591-00A   ATTD20LAN13:07 CST                                       
00391  A91550592-00A   ATTD01OR 13:07 CST                                       
00392  A91550595-00A   ATTD13OR 13:07 CST                                       
00393  A91550598-00A   ATTD25LAS13:07 CST                                       
00394  A90710026-05A   ATTD28SD 13:07 CST                                       
00395  A91550614-00A   ATTD28SD 13:07 CST                                       
00396  A91550618-00A   ATTD28SD 13:11 CST                                       
00397  A91520232-01A   ATTD28SD 13:11 CST                                       
00398  A91550619-00A   ATTD28SD 13:11 CST                                       
00399  A91550621-00A   ATTD28SD 13:11 CST                                       
00400  A91550628-00A   ATTD01OR 13:11 CST                                       
00401  A91550629-00A   ATTD28SD 13:11 CST                                       
00402  A90290579-07A   ATTD13OR 13:11 CST                                       
00403  A91550633-00A   ATTD28SD 13:13 CST                                       
00404  A91250520-02A   ATTD13OR 13:13 CST                                       
00405  A91550637-00A   ATTD28SD 13:13 CST                                       
00406  A91550644-00A   ATTD01OR 13:13 CST                                       
00407  A91550647-00A   ATTD28SD 13:13 CST                                       
00408  A91550648-00A   ATTD17LAN13:13 CST                                       
00409  A91550586-00A   ATTD13OR 13:15 CST                                       
00410  A91550597-00A   ATTD13OR 13:15 CST                                       
00411  A91550599-00A   ATTD13OR 13:15 CST                                       
00412  A91550642-01A   ATTD19LAN13:15 CST                                       
00413  A91550649-00A   ATTD28SD 13:15 CST                                       
00414  A91550651-00A   ATTD17LAN13:15 CST                                       
00415  A91550652-00A   ATTD14LAN13:15 CST                                       
00416  A91550642-00A   ATTD19LAN13:15 CST                                       
00417  A91550526-00A   ATTD17LAN13:15 CST                                       
00418  A91550634-00A   ATTD13OR 13:15 CST                                       
00419  A91320979-02A   ATTD28SD 13:15 CST                                       
00420  A91550654-00A   ATTD25LAS13:15 CST                                       
00421  A91550656-00A   ATTD28SD 13:17 CST                                       
00422  A91550659-00A   ATTD28SD 13:20 CST                                       
00423  A91550663-00A   ATTD13OR 13:20 CST                                       
00424  A91550664-00A   ATTD01OR 13:20 CST                                       
00425  A91550666-00A   ATTD124OR13:20 CST                                       
00426  A91550667-00A   ATTD28SD 13:21 CST                                       
00427  A91550668-00A   ATTD19LAN13:21 CST                                       
00428  A91550669-00A   ATTD20LAN13:21 CST                                       
00429  A91550670-00A   ATTD124OR13:21 CST                                       
00430  A91550673-00A   ATTD19LAN13:22 CST                                       
00431  A91550674-00A   ATTD28SD 13:22 CST                                       
00432  A91550672-00A   ATTD124OR13:22 CST                                       
00433  A73040052-25A   ATTD13OR 13:24 CST                                       
00434  A90840064-03A   ATTD13OR 13:25 CST                                       
00435  A91550623-00A   ATTD25LAS13:30 CST                                       
00436  A91550505-00A   ATTD19LAN13:30 CST                                       
00437  A91550656-01A   ATTD28SD 13:39 CST                                       
00438  A91550676-00A   ATTD124OR13:39 CST                                       
00439  A91550677-00A   ATTD28SD 13:39 CST                                       
00440  A90430454-04A   ATTD28SD 13:39 CST                                       
00441  A90430468-04A   ATTD28SD 13:39 CST                                       
00442  A90430471-04A   ATTD28SD 13:39 CST                                       
00443  A90430474-05A   ATTD28SD 13:39 CST                                       
00444  A90430481-04A   ATTD28SD 13:39 CST                                       
00445  A90430509-04A   ATTD28SD 13:39 CST                                       
00446  A90190143-05A   ATTD28SD 13:39 CST                                       
00447  A91550681-00A   ATTD28SD 13:39 CST                                       
00448  A91320753-01A   ATTD28SD 13:39 CST                                       
00449  A91340608-01A   ATTD28SD 13:39 CST                                       
00450  A91340621-01A   ATTD28SD 13:39 CST                                       
00451  A91550682-00A   ATTD20LAN13:39 CST                                       
00452  A91550683-00A   ATTD124OR13:39 CST                                       
00453  A91340631-01A   ATTD28SD 13:39 CST                                       
00454  A91550685-00A   ATTD13OR 13:39 CST                                       
00455  A91550686-00A   ATTD28SD 13:39 CST                                       
00456  A91550683-01A   ATTD124OR13:39 CST                                       
00457  A91550680-00A   ATTD25LAS13:42 CST                                       
00458  A91340639-01A   ATTD28SD 13:45 CST                                       
00459  A91340631-02A   ATTD28SD 13:45 CST                                       
00460  A91550692-00A   ATTD14LAN13:45 CST                                       
00461  A91411218-01A   ATTD28SD 13:45 CST                                       
00462  A91550694-00A   ATTD14LAN13:45 CST                                       
00463  A91550695-00A   ATTD28SD 13:45 CST                                       
00464  A91550697-00A   ATTD13OR 13:45 CST                                       
00465  A91550700-00A   ATTD14LAN13:45 CST                                       
00466  A90580424-04A   ATTD17LAN13:45 CST                                       
00467  A90580426-04A   ATTD17LAN13:45 CST                                       
00468  A90580428-04A   ATTD17LAN13:45 CST                                       
00469  A90580431-04A   ATTD17LAN13:45 CST                                       
00470  A90580432-04A   ATTD17LAN13:45 CST                                       
00471  A90580436-04A   ATTD124OR13:45 CST                                       
00472  A91031492-02A   ATTD13OR 13:45 CST                                       
00473  A91050540-02A   ATTD13OR 13:45 CST                                       
00474  A90580433-04A   ATTD17LAN13:45 CST                                       
00475  A90580441-04A   ATTD17LAN13:47 CST                                       
00476  A90580440-04A   ATTD17LAN13:47 CST                                       
00477  A91041325-02A   ATTD19LAN13:47 CST                                       
00478  A91550712-00A   ATTD25LAS13:48 CST                                       
00479  A91550711-00A   ATTD17LAN13:48 CST                                       
00480  A91550716-00A   ATTD25LAS13:48 CST                                       
00481  A91550719-00A   ATTD14LAN13:48 CST                                       
00482  A91550718-00A   ATTD13OR 13:48 CST                                       
00483  A91550721-00A   ATTD17LAN13:48 CST                                       
00484  A91550722-00A   ATTD14LAN13:48 CST                                       
00485  A91550724-00A   ATTD124OR13:48 CST                                       
00486  A91550725-00A   ATTD14LAN13:48 CST                                       
00487  A91550728-00A   ATTD14LAN13:48 CST                                       
00488  A91550729-00A   ATTD01OR 13:51 CST                                       
00489  A91550731-00A   ATTD14LAN13:51 CST                                       
00490  A91550734-00A   ATTD124OR13:54 CST                                       
00491  A91550732-00A   ATTD22LAS13:58 CST                                       
00492  A91550735-00A   ATTD01OR 14:09 CST                                       
00493  A91550736-00A   ATTD17LAN14:09 CST                                       
00494  A91550739-00A   ATTD28SD 14:09 CST                                       
00495  A91550741-00A   ATTD124OR14:09 CST                                       
00496  A91550742-00A   ATTD19LAN14:09 CST                                       
00497  A91550744-00A   ATTD17LAN14:09 CST                                       
00498  A91550746-01A   ATTD01OR 14:09 CST                                       
00499  A91550749-00A   ATTD25LAS14:09 CST                                       
00500  A91550742-01A   ATTD19LAN14:13 CST                                       
00501  A91550746-00A   ATTD01OR 14:13 CST                                       
00502  A91350310-01A   ATTD28SD 14:13 CST                                       
00503  A91550753-00A   ATTD14LAN14:13 CST                                       
00504  A91550755-00A   ATTD19LAN14:13 CST                                       
00505  A91550759-00A   ATTD28SD 14:13 CST                                       
00506  A91550765-00A   ATTD19LAN14:15 CST                                       
00507  A91550769-00A   ATTD124OR14:15 CST                                       
00508  A91550774-00A   ATTD124OR14:17 CST                                       
00509  A91550775-00A   ATTD18LAN14:18 CST                                       
00510  A91480162-01A   ATTD28SD 14:18 CST                                       
00511  A91550778-00A   ATTD18LAN14:18 CST                                       
00512  A91550780-00A   ATTD18LAN14:20 CST                                       
00513  A91550740-00A   ATTD13OR 14:20 CST                                       
00514  A91550763-00A   ATTD13OR 14:20 CST                                       
00515  A91550782-00A   ATTD18LAN14:22 CST                                       
00516  A91550766-00A   ATTD13OR 14:22 CST                                       
00517  A91550767-00A   ATTD13OR 14:22 CST                                       
00518  A91490957-01A   ATTD01OR 14:22 CST                                       
00519  A91550784-00A   ATTD18LAN14:22 CST                                       
00520  A91550768-00A   ATTD13OR 14:22 CST                                       
00521  A91550773-00A   ATTD13OR 14:22 CST                                       
00522  A91550772-00A   ATTD22LAS14:24 CST                                       
00523  A91550762-00A   ATTD25LAS14:24 CST                                       
00524  A91550770-00A   ATTD13OR 14:30 CST                                       
00525  A91550787-00A   ATTD01OR 14:40 CST                                       
00526  A91550790-00A   ATTD25LAS14:40 CST                                       
00527  A91550803-00A   ATTD124OR14:40 CST                                       
00528  A91550804-00A   ATTD25LAS14:40 CST                                       
00529  A91550807-00A   ATTD124OR14:40 CST                                       
00530  A91550801-00A   ATTD13OR 14:42 CST                                       
00531  A91550795-00A   ATTD124OR14:46 CST                                       
00532  A91550798-00A   ATTD124OR14:46 CST                                       
00533  A91330623-01A   ATTD124OR14:46 CST                                       
00534  A90840185-03A   ATTD124OR14:46 CST                                       
00535  A91480231-04A   ATTD28SD 14:46 CST                                       
00536  A91550821-00A   ATTD28SD 14:46 CST                                       
00537  A91550822-00A   ATTD25LAS14:46 CST                                       
00538  A91550828-00A   ATTD19LAN14:46 CST                                       
00539  A91550827-00A   ATTD17LAN14:46 CST                                       
00540  A91550831-00A   ATTD13OR 14:51 CST                                       
00541  A91550830-00A   ATTD28SD 14:51 CST                                       
00542  A91550832-00A   ATTD01OR 14:51 CST                                       
00543  A91550838-00A   ATTD17LAN14:51 CST                                       
00544  A91550840-00A   ATTD13OR 14:51 CST                                       
00545  A90990970-02A   ATTD20LAN14:51 CST                                       
00546  A91550843-00A   ATTD124OR14:51 CST                                       
00547  A91550844-00A   ATTD28SD 14:51 CST                                       
00548  A91550845-00A   ATTD124OR14:51 CST                                       
00549  A91340266-01A   ATTD28SD 14:51 CST                                       
00550  A91550848-00A   ATTD124OR14:51 CST                                       
00551  A90980734-05A   ATTD28SD 14:51 CST                                       
00552  A90990988-02A   ATTD22LAS14:51 CST                                       
00553  A91340282-01A   ATTD28SD 14:51 CST                                       
00554  A90980774-05A   ATTD28SD 14:51 CST                                       
00555  A91350641-01A   ATTD18LAN14:51 CST                                       
00556  A91401087-01A   ATTD22LAS14:51 CST                                       
00557  A90990976-02A   ATTD19LAN14:53 CST                                       
00558  A90980752-06A   ATTD28SD 14:54 CST                                       
00559  A91340257-01A   ATTD28SD 14:54 CST                                       
00560  A91180938-03A   ATTD28SD 14:54 CST                                       
00561  A91180477-03A   ATTD28SD 14:54 CST                                       
00562  A91410704-01A   ATTD28SD 14:54 CST                                       
00563  A91550861-00A   ATTD17LAN14:54 CST                                       
00564  A91550866-00A   ATTD25LAS14:54 CST                                       
00565  A91550867-00A   ATTD17LAN14:54 CST                                       
00566  A91550870-00A   ATTD124OR14:54 CST                                       
00567  A91550873-00A   ATTD25LAS14:54 CST                                       
00568  A91550874-00A   ATTD124OR14:54 CST                                       
00569  A91550876-00A   ATTD17LAN14:54 CST                                       
00570  A91550877-00A   ATTD25LAS14:54 CST                                       
00571  A91550800-00A   ATTD17LAN14:54 CST                                       
00572  A91270550-01A   ATTD13OR 14:56 CST                                       
00573  A91270554-01A   ATTD13OR 14:56 CST                                       
00574  A91270558-01A   ATTD13OR 14:56 CST                                       
00575  A91550872-00A   ATTD19LAN14:56 CST                                       
00576  A90990985-02A   ATTD13OR 15:00 CST                                       
00577  A91550879-00A   ATTD25LAS15:09 CST                                       
00578  A91270624-02A   ATTD25LAS15:09 CST                                       
00579  A91550881-00A   ATTD28SD 15:09 CST                                       
00580  A91550884-00A   ATTD25LAS15:09 CST                                       
00581  A91550886-00A   ATTD28SD 15:09 CST                                       
00582  A91340760-03A   ATTD19LAN15:09 CST                                       
00583  A91550887-00A   ATTD25LAS15:09 CST                                       
00584  A91550889-00A   ATTD124OR15:09 CST                                       
00585  A91550890-00A   ATTD28SD 15:09 CST                                       
00586  A91550893-00A   ATTD25LAS15:09 CST                                       
00587  A91550891-00A   ATTD25LAS15:09 CST                                       
00588  A91550893-00A   ATTD19LAN15:09 CST                                       
00589  A90750200-04A   ATTD19LAN15:09 CST                                       
00590  A91550892-00A   ATTD28SD 15:09 CST                                       
00591  A91550894-00A   ATTD28SD 15:09 CST                                       
00592  A91550896-00A   ATTD25LAS15:09 CST                                       
00593  A90750198-04A   ATTD19LAN15:09 CST                                       
00594  A91340772-04A   ATTD19LAN15:09 CST                                       
00595  A91550897-00A   ATTD25LAS15:09 CST                                       
00596  A91340758-03A   ATTD19LAN15:09 CST                                       
00597  A91550900-00A   ATTD28SD 15:10 CST                                       
00598  A91550901-00A   ATTD25LAS15:10 CST                                       
00599  A90750202-04A   ATTD19LAN15:10 CST                                       
00600  A91550890-01A   ATTD28SD 15:10 CST                                       
00601  A91550902-00A   ATTD25LAS15:10 CST                                       
00602  A91550903-00A   ATTD124OR15:10 CST                                       
00603  A91550906-00A   ATTD124OR15:15 CST                                       
00604  A91550907-00A   ATTD01OR 15:15 CST                                       
00605  A91550908-00A   ATTD20LAN15:15 CST                                       
00606  A91550908-00A   ATTD25LAS15:15 CST                                       
00607  A91550914-00A   ATTD22LAS15:15 CST                                       
00608  A91550917-00A   ATTD01OR 15:15 CST                                       
00609  A91550919-00A   ATTD25LAS15:15 CST                                       
00610  A91550921-00A   ATTD124OR15:15 CST                                       
00611  A91550930-00A   ATTD01OR 15:15 CST                                       
00612  A91550931-00A   ATTD17LAN15:15 CST                                       
00613  A91550933-00A   ATTD28SD 15:15 CST                                       
00614  A91550934-00A   ATTD18LAN15:15 CST                                       
00615  A91550937-00A   ATTD01OR 15:15 CST                                       
00616  A91550885-00A   ATTD17LAN15:17 CST                                       
00617  A91550904-00A   ATTD13OR 15:19 CST                                       
00618  A91550924-00A   ATTD01OR 15:23 CST                                       
00619  A91480319-01A   ATTD28SD 15:23 CST                                       
00620  A91550926-00A   ATTD22LAS15:23 CST                                       
00621  A91550941-00A   ATTD18LAN15:23 CST                                       
00622  A91550942-00A   ATTD124OR15:23 CST                                       
00623  A91550944-00A   ATTD01OR 15:23 CST                                       
00624  A90931017-03A   ATTD28SD 15:23 CST                                       
00625  A91550945-00A   ATTD28SD 15:23 CST                                       
00626  A91550946-00A   ATTD14LAN15:23 CST                                       
00627  A91550949-00A   ATTD01OR 15:23 CST                                       
00628  A91550951-00A   ATTD28SD 15:23 CST                                       
00629  A91550954-00A   ATTD01OR 15:27 CST                                       
00630  A91550956-00A   ATTD25LAS15:27 CST                                       
00631  A91550958-00A   ATTD19LAN15:27 CST                                       
00632  A91550959-00A   ATTD17LAN15:27 CST                                       
00633  A91550961-00A   ATTD25LAS15:27 CST                                       
00634  A91550962-00A   ATTD25LAS15:27 CST                                       
00635  A91550964-00A   ATTD25LAS15:27 CST                                       
00636  A91550963-00A   ATTD124OR15:27 CST                                       
00637  A91331277-01A   ATTD19LAN15:27 CST                                       
00638  A91550969-00A   ATTD13OR 15:41 CST                                       
00639  A91550973-00A   ATTD13OR 15:41 CST                                       
00640  A91520641-01A   ATTD124OR15:41 CST                                       
00641  A91550981-00A   ATTD28SD 15:41 CST                                       
00642  A91550994-00A   ATTD14LAN15:41 CST                                       
00643  A91340352-01A   ATTD124OR15:41 CST                                       
00644  A91540950-02A   ATTD14LAN15:44 CST                                       
00645  A91550996-00A   ATTD18LAN15:44 CST                                       
00646  A91550994-01A   ATTD14LAN15:44 CST                                       
00647  A91551008-00A   ATTD17LAN15:44 CST                                       
00648  A91550996-01A   ATTD18LAN15:44 CST                                       
00649  A91551013-00A   ATTD28SD 15:44 CST                                       
00650  A91551018-00A   ATTD19LAN15:44 CST                                       
00651  A91520591-01A   ATTD01OR 15:47 CST                                       
00652  A91551028-00A   ATTD25LAS15:47 CST                                       
00653  A91520608-01A   ATTD01OR 15:47 CST                                       
00654  A91551029-00A   ATTD17LAN15:47 CST                                       
00655  A91551031-00A   ATTD124OR15:47 CST                                       
00656  A91520591-02A   ATTD01OR 15:47 CST                                       
00657  A91551034-00A   ATTD01OR 15:47 CST                                       
00658  A91530406-01A   ATTD28SD 15:48 CST                                       
00659  A91551046-00A   ATTD19LAN15:48 CST                                       
00660  A91551047-00A   ATTD124OR15:48 CST                                       
00661  A91550981-01A   ATTD28SD 15:48 CST                                       
00662  A91551054-00A   ATTD28SD 15:51 CST                                       
00663  A91551056-00A   ATTD17LAN15:51 CST                                       
00664  A91551030-00A   ATTD13OR 15:55 CST                                       
00665  A91551020-00A   ATTD13OR 15:55 CST                                       
00666  A91551000-00A   ATTD13OR 15:58 CST                                       
00667  A91551021-00A   ATTD13OR 15:58 CST                                       
00668  A91550979-00A   ATTD25LAS16:01 CST                                       
00669  A91120189-03A   ATTD14LAN16:02 CST                                       
00670  A91551011-00A   ATTD13OR 16:02 CST                                       
00671  A91550975-00A   ATTD01OR 16:03 CST                                       
00672  A91551065-00A   ATTD22LAS16:10 CST                                       
00673  A91551069-00A   ATTD14LAN16:10 CST                                       
00674  A91551080-00A   ATTD14LAN16:10 CST                                       
00675  A91551081-00A   ATTD20LAN16:10 CST                                       
00676  A91551082-00A   ATTD124OR16:10 CST                                       
00677  A91551084-00A   ATTD28SD 16:10 CST                                       
00678  A91551085-00A   ATTD19LAN16:10 CST                                       
00679  A91551083-00A   ATTD14LAN16:10 CST                                       
00680  A91551086-00A   ATTD124OR16:10 CST                                       
00681  A91551088-00A   ATTD20LAN16:10 CST                                       
00682  A91551089-00A   ATTD17LAN16:10 CST                                       
00683  A91551084-01A   ATTD28SD 16:10 CST                                       
00684  A91551074-00A   ATTD20LAN16:15 CST                                       
00685  A91551075-00A   ATTD13OR 16:15 CST                                       
00686  A91551076-00A   ATTD01OR 16:15 CST                                       
00687  A91551095-00A   ATTD20LAN16:15 CST                                       
00688  A91551097-00A   ATTD28SD 16:15 CST                                       
00689  A91551098-00A   ATTD20LAN16:15 CST                                       
00690  A91541456-01A   ATTD13OR 16:15 CST                                       
00691  A91551101-00A   ATTD19LAN16:17 CST                                       
00692  A91551103-00A   ATTD20LAN16:17 CST                                       
00693  A91551106-00A   ATTD20LAN16:17 CST                                       
00694  A91551107-00A   ATTD01OR 16:17 CST                                       
00695  A91551077-00A   ATTD19LAN16:17 CST                                       
00696  A91551079-00A   ATTD19LAN16:17 CST                                       
00697  A91551112-00A   ATTD01OR 16:20 CST                                       
00698  A91551113-00A   ATTD19LAN16:21 CST                                       
00699  A91551116-00A   ATTD01OR 16:21 CST                                       
00700  A91551120-00A   ATTD20LAN16:21 CST                                       
00701  A91551120-00A   ATTD25LAS16:21 CST                                       
00702  A90260815-05A   ATTD01OR 16:21 CST                                       
00703  A82541224-14A   ATTD01OR 16:21 CST                                       
00704  A80911217-18A   ATTD01OR 16:21 CST                                       
00705  A91551132-00A   ATTD13OR 16:24 CST                                       
00706  A91551136-00A   ATTD20LAN16:24 CST                                       
00707  A91551137-00A   ATTD25LAS16:24 CST                                       
00708  A91551139-00A   ATTD19LAN16:24 CST                                       
00709  A91551140-00A   ATTD22LAS16:33 CST                                       
00710  A91551144-00A   ATTD17LAN16:33 CST                                       
00711  A91551146-00A   ATTD13OR 16:33 CST                                       
00712  A91530744-01A   ATTD19LAN16:33 CST                                       
00713  A91530989-01A   ATTD01OR 16:40 CST                                       
00714  A91551149-00A   ATTD19LAN16:40 CST                                       
00715  A91551150-00A   ATTD124OR16:40 CST                                       
00716  A91551151-00A   ATTD28SD 16:40 CST                                       
00717  A91521360-01A   ATTD14LAN16:40 CST                                       
00718  A91551155-00A   ATTD14LAN16:40 CST                                       
00719  A91551157-00A   ATTD124OR16:40 CST                                       
00720  A91551160-00A   ATTD01OR 16:40 CST                                       
00721  A91551165-00A   ATTD19LAN16:46 CST                                       
00722  A91551167-00A   ATTD28SD 16:46 CST                                       
00723  A91551173-00A   ATTD01OR 16:46 CST                                       
00724  A91551175-00A   ATTD28SD 16:46 CST                                       
00725  A91551177-00A   ATTD19LAN16:46 CST                                       
00726  A91551179-00A   ATTD28SD 16:46 CST                                       
00727  A91551181-00A   ATTD13OR 16:46 CST                                       
00728  A91551184-00A   ATTD124OR16:46 CST                                       
00729  A91551185-00A   ATTD01OR 16:46 CST                                       
00730  A91551186-00A   ATTD28SD 16:46 CST                                       
00731  A91551183-00A   ATTD28SD 16:54 CST                                       
00732  A91551188-00A   ATTD01OR 16:54 CST                                       
00733  A91271009-01A   ATTD22LAS16:54 CST                                       
00734  A91551191-00A   ATTD124OR16:54 CST                                       
00735  A91271023-01A   ATTD28SD 16:54 CST                                       
00736  A91271025-01A   ATTD28SD 16:54 CST                                       
00737  A91551194-00A   ATTD22LAS16:54 CST                                       
00738  A91271028-01A   ATTD28SD 16:54 CST                                       
00739  A91271033-01A   ATTD28SD 16:54 CST                                       
00740  A91271036-01A   ATTD28SD 16:54 CST                                       
00741  A91271041-01A   ATTD28SD 16:54 CST                                       
00742  A91551197-00A   ATTD22LAS16:54 CST                                       
00743  A91271042-01A   ATTD28SD 16:54 CST                                       
00744  A91271044-01A   ATTD28SD 16:54 CST                                       
00745  A91551200-00A   ATTD22LAS16:54 CST                                       
00746  A91551199-00A   ATTD124OR16:54 CST                                       
00747  A91120600-02A   ATTD28SD 16:54 CST                                       
00748  A82540746-10A   ATTD18LAN16:54 CST                                       
00749  A82731157-09A   ATTD01OR 16:54 CST                                       
00750  A91271056-01A   ATTD28SD 16:54 CST                                       
00751  A91060275-03A   ATTD28SD 16:55 CST                                       
00752  A91060260-03A   ATTD28SD 16:55 CST                                       
00753  A91060242-03A   ATTD28SD 16:55 CST                                       
00754  A91551190-00A   ATTD13OR 16:55 CST                                       
00755  A91350375-01A   ATTD13OR 16:55 CST                                       
00756  A91551152-00A   ATTD13OR 16:55 CST                                       
00757  A91551079-01A   ATTD19LAN16:56 CST                                       
00758  A91060226-03A   ATTD28SD 16:59 CST                                       
00759  A91060213-03A   ATTD28SD 16:59 CST                                       
00760  A91060205-03A   ATTD28SD 16:59 CST                                       
00761  A91271067-01A   ATTD28SD 16:59 CST                                       
00762  A90790383-03A   ATTD13OR 16:59 CST                                       
00763  A90820925-03A   ATTD13OR 16:59 CST                                       
00764  A91551204-00A   ATTD01OR 16:59 CST                                       
00765  A90820933-03A   ATTD13OR 16:59 CST                                       
00766  A91551206-00A   ATTD01OR 16:59 CST                                       
00767  A91350082-02A   ATTD28SD 16:59 CST                                       
00768  A90820941-03A   ATTD13OR 16:59 CST                                       
00769  A91551209-00A   ATTD01OR 16:59 CST                                       
00770  A91551207-00A   ATTD28SD 16:59 CST                                       
00771  A91271093-01A   ATTD28SD 16:59 CST                                       
00772  A91551210-00A   ATTD19LAN16:59 CST                                       
00773  A90820947-03A   ATTD13OR 16:59 CST                                       
00774  A90820953-03A   ATTD13OR 16:59 CST                                       
00775  A91551214-00A   ATTD01OR 16:59 CST                                       
00776  A90820975-04A   ATTD13OR 16:59 CST                                       
00777  A91551217-00A   ATTD13OR 16:59 CST                                       
00778  A91551219-00A   ATTD124OR17:01 CST                                       
00779  A91551221-00A   ATTD28SD 17:01 CST                                       
00780  A83180096-14A   ATTD28SD 17:01 CST                                       
00781  A90200454-10A   ATTD28SD 17:01 CST                                       
00782  A90820960-03A   ATTD13OR 17:01 CST                                       
00783  A90820968-03A   ATTD13OR 17:01 CST                                       
00784  A91551223-00A   ATTD14LAN17:08 CST                                       
00785  A91551225-00A   ATTD28SD 17:08 CST                                       
00786  A91551227-00A   ATTD01OR 17:08 CST                                       
00787  A91551228-00A   ATTD19LAN17:08 CST                                       
00788  A91551230-00A   ATTD124OR17:08 CST                                       
00789  A91551231-00A   ATTD28SD 17:08 CST                                       
00790  A91551237-00A   ATTD01OR 17:08 CST                                       
00791  A91551241-00A   ATTD28SD 17:13 CST                                       
00792  A91551243-00A   ATTD25LAS17:13 CST                                       
00793  A91551244-00A   ATTD19LAN17:13 CST                                       
00794  A91551246-00A   ATTD19LAN17:13 CST                                       
00795  A91551247-00A   ATTD20LAN17:13 CST                                       
00796  A91551247-00A   ATTD19LAN17:13 CST                                       
00797  A91551249-00A   ATTD20LAN17:13 CST                                       
00798  A91551221-01A   ATTD28SD 17:13 CST                                       
00799  A91551251-00A   ATTD28SD 17:13 CST                                       
00800  A91551252-00A   ATTD20LAN17:13 CST                                       
00801  A91551253-00A   ATTD25LAS17:13 CST                                       
00802  A91551253-00A   ATTD20LAN17:13 CST                                       
00803  A91530648-01A   ATTD01OR 17:13 CST                                       
00804  A91551254-00A   ATTD124OR17:13 CST                                       
00805  A91551257-00A   ATTD01OR 17:13 CST                                       
00806  A91551261-00A   ATTD13OR 17:15 CST                                       
00807  A91551262-00A   ATTD20LAN17:15 CST                                       
00808  A91551263-00A   ATTD28SD 17:15 CST                                       
00809  A91551265-00A   ATTD28SD 17:15 CST                                       
00810  A91551267-00A   ATTD28SD 17:15 CST                                       
00811  A91551249-01A   ATTD20LAN17:15 CST                                       
00812  A91551269-00A   ATTD28SD 17:15 CST                                       
00813  A91551252-01A   ATTD20LAN17:15 CST                                       
00814  A91531210-01A   ATTD28SD 17:15 CST                                       
00815  A91551270-00A   ATTD28SD 17:15 CST                                       
00816  A91531210-02A   ATTD28SD 17:18 CST                                       
00817  A91551282-00A   ATTD13OR 17:19 CST                                       
00818  A91551283-00A   ATTD22LAS17:19 CST                                       
00819  A91470663-02A   ATTD17LAN17:22 CST                                       
00820  A91551275-00A   ATTD13OR 17:22 CST                                       
00821  A91551274-00A   ATTD25LAS17:22 CST                                       
00822  A91551293-00A   ATTD14LAN17:39 CST                                       
00823  A91551295-00A   ATTD28SD 17:39 CST                                       
00824  A91551294-00A   ATTD20LAN17:39 CST                                       
00825  A91551297-00A   ATTD14LAN17:39 CST                                       
00826  A91551299-00A   ATTD28SD 17:39 CST                                       
00827  A91551302-00A   ATTD14LAN17:39 CST                                       
00828  A91551304-00A   ATTD20LAN17:39 CST                                       
00829  A91551307-00A   ATTD01OR 17:39 CST                                       
00830  A91551305-00A   ATTD28SD 17:39 CST                                       
00831  A91551309-00A   ATTD20LAN17:39 CST                                       
00832  A91551314-00A   ATTD28SD 17:41 CST                                       
00833  A91551319-00A   ATTD124OR17:41 CST                                       
00834  A91551316-00A   ATTD25LAS17:41 CST                                       
00835  A91551318-00A   ATTD28SD 17:41 CST                                       
00836  A91551321-00A   ATTD25LAS17:41 CST                                       
00837  A91551324-00A   ATTD28SD 17:41 CST                                       
00838  A91551325-00A   ATTD28SD 17:41 CST                                       
00839  A91551326-00A   ATTD28SD 17:41 CST                                       
00840  A91551327-00A   ATTD25LAS17:41 CST                                       
00841  A91551328-00A   ATTD28SD 17:45 CST                                       
00842  A90991512-02A   ATTD17LAN17:45 CST                                       
00843  A91551331-00A   ATTD17LAN17:45 CST                                       
00844  A91551334-00A   ATTD28SD 17:45 CST                                       
00845  A91551333-00A   ATTD124OR17:45 CST                                       
00846  A91551339-00A   ATTD25LAS17:45 CST                                       
00847  A91551340-00A   ATTD22LAS17:45 CST                                       
00848  A91551341-00A   ATTD28SD 17:45 CST                                       
00849  A91530406-02A   ATTD28SD 17:45 CST                                       
00850  A91530406-03A   ATTD28SD 17:46 CST                                       
00851  A91551349-00A   ATTD01OR 17:46 CST                                       
00852  A91551354-00A   ATTD28SD 17:50 CST                                       
00853  A91551355-00A   ATTD01OR 17:50 CST                                       
00854  A91551352-00A   ATTD13OR 17:50 CST                                       
00855  A91551356-00A   ATTD25LAS17:50 CST                                       
00856  A91551359-00A   ATTD18LAN17:51 CST                                       
00857  A91551360-00A   ATTD17LAN18:06 CST                                       
00858  A91551365-00A   ATTD01OR 18:06 CST                                       
00859  A91551367-00A   ATTD28SD 18:06 CST                                       
00860  A91551369-00A   ATTD28SD 18:06 CST                                       
00861  A91551372-00A   ATTD28SD 18:06 CST                                       
00862  A91551375-00A   ATTD124OR18:06 CST                                       
00863  A91551389-00A   ATTD19LAN18:11 CST                                       
00864  A91551396-00A   ATTD28SD 18:17 CST                                       
00865  A83101470-10A   ATTD14LAN18:20 CST                                       
00866  A91551407-00A   ATTD14LAN18:21 CST                                       
00867  A91551408-00A   ATTD14LAN18:38 CST                                       
00868  A91551409-00A   ATTD14LAN18:38 CST                                       
00869  A91551411-00A   ATTD14LAN18:38 CST                                       
00870  A91551412-00A   ATTD14LAN18:38 CST                                       
00871  A91551413-00A   ATTD17LAN18:38 CST                                       
00872  A91551414-00A   ATTD14LAN18:38 CST                                       
00873  A91551416-00A   ATTD14LAN18:38 CST                                       
00874  A91551415-00A   ATTD14LAN18:38 CST                                       
00875  A91551417-00A   ATTD20LAN18:38 CST                                       
00876  A91551418-00A   ATTD14LAN18:38 CST                                       
00877  A91551419-00A   ATTD25LAS18:38 CST                                       
00878  A91551422-00A   ATTD22LAS18:38 CST                                       
00879  A91551426-00A   ATTD28SD 18:38 CST                                       
00880  A91551427-00A   ATTD19LAN18:38 CST                                       
00881  A91551429-00A   ATTD22LAS18:38 CST                                       
00882  A91551440-00A   ATTD124OR18:43 CST                                       
00883  A91551445-00A   ATTD14LAN18:49 CST                                       
00884  A91551434-00A   ATTD13OR 19:00 CST                                       
00885  A91551430-00A   ATTD22LAS19:04 CST                                       
00886  A91551446-00A   ATTD22LAS19:05 CST                                       
00887  A91551448-00A   ATTD28SD 19:05 CST                                       
00888  A91551449-00A   ATTD17LAN19:05 CST                                       
00889  A91551449-00A   ATTD25LAS19:05 CST                                       
00890  A91551450-00A   ATTD28SD 19:05 CST                                       
00891  A91551451-00A   ATTD28SD 19:05 CST                                       
00892  A91551452-00A   ATTD01OR 19:05 CST                                       
00893  A91551437-00A   ATTD13OR 19:08 CST                                       
00894  A91551457-00A   ATTD20LAN19:08 CST                                       
00895  A91551458-00A   ATTD01OR 19:08 CST                                       
00896  A91551454-00A   ATTD25LAS19:09 CST                                       
00897  A91551462-00A   ATTD17LAN19:13 CST                                       
00898  A91551465-00A   ATTD28SD 19:20 CST                                       
00899  A91551467-00A   ATTD28SD 19:20 CST                                       
00900  A91551467-01A   ATTD28SD 19:33 CST                                       
00901  A91551467-02A   ATTD28SD 19:33 CST                                       
00902  A91551470-00A   ATTD19LAN19:33 CST                                       
00903  A91551471-00A   ATTD01OR 19:33 CST                                       
00904  A91551472-00A   ATTD22LAS19:33 CST                                       
00905  A91551472-01A   ATTD22LAS19:33 CST                                       
00906  A91481307-01A   ATTD28SD 19:43 CST                                       
00907  A91551474-00A   ATTD28SD 19:43 CST                                       
00908  A91551475-00A   ATTD13OR 19:45 CST                                       
00909  A91551477-00A   ATTD22LAS19:49 CST                                       
00910  A91551478-00A   ATTD124OR20:04 CST                                       
00911  A91551481-00A   ATTD17LAN20:17 CST                                       
00912  A91551482-00A   ATTD28SD 20:17 CST                                       
00913  A91551483-00A   ATTD17LAN20:20 CST                                       
00914  A91551484-00A   ATTD17LAN20:20 CST                                       
00915  A91551487-00A   ATTD28SD 20:48 CST                                       
00916  A91551490-00A   ATTD01OR 21:03 CST                                       
       ----------------                                                         
TOTAL               916                                                         