

Ticket Identifier: 110138760
Ticket No: 16043767               2 FULL BUSINESS DAYS      CANCELLATION 
Send To: CC7711     Seq No:   70  Map Ref:  

Transmit      Date:  2/22/16   Time:  1:10 PM    Op: wirobi 
Original Call Date:  2/21/16   Time: 10:02 AM    Op: orport 
Work to Begin Date:  2/25/16   Time: 12:00 AM 

State: WA            County: PIERCE                  Place: PUYALLUP 
Address:  18110      Street: 76TH AVE E 
Nearest Intersecting Street: 181ST ST 

Twp: 19N   Rng: 4E    Sect-Qtr: 32-NW-NE 
Twp:       Rng:       Sect-Qtr:        
Ex. Coord NW Lat: 47.092880 Lon: -122.3296522SE Lat: 47.0907948Lon: -122.3271903 

Type of Work: MOVE TREE 
Location of Work: EXCAVATION SITE IS ON THE W SIDE OF THE ROAD. 
: ADD IS APX 150FT N OF INTER  MARK MIDDLE OF BACKYARD AT ABV ADD 

Remarks: BEST INFORMATION AVAILABLE  RANDY STATES WK WILL NOT TAKE PLACE 
: AREA WILL BE MARKED IN WHITE 

Company     : HOMEOWNER                        Best Time:   
Contact Name: RANDY PULLEN                     Phone: (253)888-9706 
Email Address:  pullen64@hotmail.com 
Alt. Contact:                                  Phone:  
Contact Fax :  
Work Being Done For: HOMEOWNER 
Additional Members:  
PIERCE01   PUGE07     PUGG07     QLNWA24    RAINVW01   TACPWR01
