
ATL01 *SUM* UPCA 10/17/08 00:00:17
***************************************************************************
*  THIS IS THE UTILITIES PROTECTION CENTER SIGNING OFF.  YOUR END OF DAY  *
*  SUMMARY WILL FOLLOW.  PLEASE NOTIFY THE CENTER OF ANY DISCREPANCIES    *
***************************************************************************

00007 10168-248-012-000 09:35   00008 10168-255-005-000 09:35   
00014 10168-248-016-000 10:50   

(P) UPDATE     - 00000
(C) CANCEL     - 00000
(R) RESENT     - 00000
(Y) RENOTIFY   - 00000
(L) LATE RESP  - 00000
(U) UNGRIDDED  - 00000
( ) NORMAL     - 00003
    TOTAL      - 00003


