NCA1	PBTHAN	AMADOR	*	3637
NCA1	PBTHAN	EL DORADO	*	3637
NCA1	PBTHAN	MARIPOSA	*	3637
NCA1	PBTHAN	MERCED	*	3637
NCA1	PBTHAN	TUOLUMNE	*	3637
NCA1	PBTHAN	SACRAMENTO	GALT	3637
NCA1	PBTHAN	SACRAMENTO	GALT, CO AREA	3637
NCA1	PBTHAN	SACRAMENTO	HERALD, CO AREA	3637
NCA1	PBTHAN	KERN	BEAR VALLEY SPRINGS	3637
NCA1	PBTHAN	KERN	BEAR VALLEY SPRINGS, CO AREA	3637
NCA1	PBTHAN	KERN	BEAR VALLEY, CO AREA	3637
NCA1	PBTHAN	KERN	BORON, CO AREA	3637
NCA1	PBTHAN	KERN	CALIENTE, CO AREA	3637
NCA1	PBTHAN	KERN	CALIFORNIA CITY	3637
NCA1	PBTHAN	KERN	CALIFORNIA CITY, CO AREA	3637
NCA1	PBTHAN	KERN	CANTIL, CO AREA	3637
NCA1	PBTHAN	KERN	CUMMINGS VALLEY SCHOOL, CO A	3637
NCA1	PBTHAN	KERN	DUSTIN ACRES, CO AREA	3637
NCA1	PBTHAN	KERN	EDWARDS AIR FORCE BASE, CO A	3637
NCA1	PBTHAN	KERN	EDWARDS, CO AREA	3637
NCA1	PBTHAN	KERN	GOLDEN HIILS	3637
NCA1	PBTHAN	KERN	GOLDEN HILLS ELEMENTARY SCHO	3637
NCA1	PBTHAN	KERN	HART FLAT, CO AREA	3637
NCA1	PBTHAN	KERN	HAVILAH, CO AREA	3637
NCA1	PBTHAN	KERN	KEENE, CO AREA	3637
NCA1	PBTHAN	KERN	LORAINE, CO AREA	3637
NCA1	PBTHAN	KERN	MOJAVE, CO AREA	3637
NCA1	PBTHAN	KERN	MONOLITH, CO AREA	3637
NCA1	PBTHAN	KERN	NORTH EDWARDS, CO AREA	3637
NCA1	PBTHAN	KERN	RIDGECREST	3637
NCA1	PBTHAN	KERN	ROSAMOND, CO AREA	3637
NCA1	PBTHAN	KERN	STALLION SPRINGS, CO AREA	3637
NCA1	PBTHAN	KERN	TEHACHAPI	3637
NCA1	PBTHAN	KERN	TEHACHAPI, CO AREA	3637
NCA1	PBTHAN	KERN	TWIN OAKS, CO AREA	3637
NCA1	PBTHAN	KERN	WALKER BASIN, CO AREA	3637
NCA1	PBTHAN	KERN	WOODFORD, CO AREA	3637
NCA1	PBTHAN	STANISLAUS	CERES	3637
NCA1	PBTHAN	STANISLAUS	CERES, CO AREA	3637
NCA1	PBTHAN	STANISLAUS	CROWS LANDING, CO AREA	3637
NCA1	PBTHAN	STANISLAUS	DENAIR, CO AREA	3637
NCA1	PBTHAN	STANISLAUS	EMPIRE, CO AREA	3637
NCA1	PBTHAN	STANISLAUS	GRAYSON, CO AREA	3637
NCA1	PBTHAN	STANISLAUS	HICKMAN, CO AREA	3637
NCA1	PBTHAN	STANISLAUS	HUGHSON	3637
NCA1	PBTHAN	STANISLAUS	HUGHSON, CO AREA	3637
NCA1	PBTHAN	STANISLAUS	KEYES, CO AREA	3637
NCA1	PBTHAN	STANISLAUS	KNIGHTS FERRY, CO AREA	3637
NCA1	PBTHAN	STANISLAUS	LA GRANGE, CO AREA	3637
NCA1	PBTHAN	STANISLAUS	MODESTO	3637
NCA1	PBTHAN	STANISLAUS	MODESTO, CO AREA	3637
NCA1	PBTHAN	STANISLAUS	MOUNTAIN VIEW, CO AREA	3637
NCA1	PBTHAN	STANISLAUS	NEWMAN	3637
NCA1	PBTHAN	STANISLAUS	NEWMAN, CO AREA	3637
NCA1	PBTHAN	STANISLAUS	OAKDALE	3637
NCA1	PBTHAN	STANISLAUS	OAKDALE, CO AREA	3637
NCA1	PBTHAN	STANISLAUS	PATTERSON	3637
NCA1	PBTHAN	STANISLAUS	PATTERSON, CO AREA	3637
NCA1	PBTHAN	STANISLAUS	RIVERBANK	3637
NCA1	PBTHAN	STANISLAUS	RIVERBANK, CO AREA	3637
NCA1	PBTHAN	STANISLAUS	SALIDA, CO AREA	3637
NCA1	PBTHAN	STANISLAUS	TURLOCK	3637
NCA1	PBTHAN	STANISLAUS	TURLOCK, CO AREA	3637
NCA1	PBTHAN	STANISLAUS	VERNALIS, CO AREA	3637
NCA1	PBTHAN	STANISLAUS	WESTLEY, CO AREA	3637
NCA1	PBTHAN	CALAVERAS	ANGELS CAMP, CO AREA	3637
NCA1	PBTHAN	CALAVERAS	ANGELS CITY	3637
NCA1	PBTHAN	CALAVERAS	ARNOLD, CO AREA	3637
NCA1	PBTHAN	CALAVERAS	AVERY, CO AREA	3637
NCA1	PBTHAN	CALAVERAS	BURSON, CO AREA	3637
NCA1	PBTHAN	CALAVERAS	COPPER COVE VILLAGE, CO AREA	3637
NCA1	PBTHAN	CALAVERAS	COPPEROPOLIS, CO AREA	3637
NCA1	PBTHAN	CALAVERAS	DORRINGTON, CO AREA	3637
NCA1	PBTHAN	CALAVERAS	DOUGLAS FLAT, CO AREA	3637
NCA1	PBTHAN	CALAVERAS	GLENCOE, CO AREA	3637
NCA1	PBTHAN	CALAVERAS	HATHAWAY PINES, CO AREA	3637
NCA1	PBTHAN	CALAVERAS	JENNY LIND, CO AREA	3637
NCA1	PBTHAN	CALAVERAS	MOKELUMNE HILL, CO AREA	3637
NCA1	PBTHAN	CALAVERAS	MOUNTAIN RANCH, CO AREA	3637
NCA1	PBTHAN	CALAVERAS	MURPHYS, CO AREA	3637
NCA1	PBTHAN	CALAVERAS	RAIL ROAD FLAT, CO AREA	3637
NCA1	PBTHAN	CALAVERAS	SAN ANDREAS, CO AREA	3637
NCA1	PBTHAN	CALAVERAS	SHEEP RANCH, CO AREA	3637
NCA1	PBTHAN	CALAVERAS	VALLECITO, CO AREA	3637
NCA1	PBTHAN	CALAVERAS	VALLEY SPRINGS, CO AREA	3637
NCA1	PBTHAN	CALAVERAS	WALLACE, CO AREA	3637
NCA1	PBTHAN	CALAVERAS	WEST POINT, CO AREA	3637
NCA1	PBTHAN	CALAVERAS	WILSEYVILLE, CO AREA	3637
NCA1	PBTHAN	SAN JOAQUIN	APP 4 MI W/O TRACY	3637
NCA1	PBTHAN	SAN JOAQUIN	BANTA, CO AREA	3637
NCA1	PBTHAN	SAN JOAQUIN	ESCALON	3637
NCA1	PBTHAN	SAN JOAQUIN	ESCALON, CO AREA	3637
NCA1	PBTHAN	SAN JOAQUIN	GALT, CO AREA	3637
NCA1	PBTHAN	SAN JOAQUIN	LAMMERSVILLE ELEMENTARY SCHO	3637
NCA1	PBTHAN	SAN JOAQUIN	LOCKEFORD, CO AREA	3637
NCA1	PBTHAN	SAN JOAQUIN	LODI	3637
NCA1	PBTHAN	SAN JOAQUIN	LODI, CO AREA	3637
NCA1	PBTHAN	SAN JOAQUIN	OAKDALE, CO AREA	3637
NCA1	PBTHAN	SAN JOAQUIN	RIPON	3637
NCA1	PBTHAN	SAN JOAQUIN	RIPON, CO AREA	3637
NCA1	PBTHAN	SAN JOAQUIN	THORNTON, CO AREA	3637
NCA1	PBTHAN	SAN JOAQUIN	TRACY	3637
NCA1	PBTHAN	SAN JOAQUIN	TRACY, CO AREA	3637
NCA1	PBTHAN	SAN JOAQUIN	VERNALIS, CO AREA	3637
NCA1	PBTHAN	SAN JOAQUIN	VICTOR, CO AREA	3637
NCA1	PBTHAN	SAN JOAQUIN	WOODBRIDGE, CO AREA	3637

