
--===SEE838999156780171===MIX===
Content-Type: text/plain
Content-Transfer-Encoding: quoted-printable





KORTERRA JOB MARY01-SMTP-1 082520577 Seq: 3 10/22/2008 10:52:56
U07        00009 TNOCS 09/08/08 08:39:00 082520577 NORMAL GRID

=3D=3D=3D=3D=3D=3D=3D=3D//  TNOCS LOCATE REQUEST  //=3D=3D=3D=3D=3D=3D=3D=3D

TICKET NUMBER--[082520577]
OLD TICKET NUM-[]

MESSAGE TYPE---[NORMAL] LEAD TIME--[72]
PREPARED-------[09/08/08]  AT  [0839]  BY  [GR.JEFF.SEIBER]

CONTRACTOR--[XTREME BROADBAND]
CALLER--[JEFF SEIBER]
ADDRESS-----[5136 HWY 321 N]
CITY--------[LENOIR CITY]   STATE--[TN]   ZIP--[37771]
CALL BACK---[865 207 0698 CELL]
PHONE--[(865) 988-3445]
CONTACT-----[JEFF SEIBER]   PHONE--[(865) 988-3445]
CONTACT FAX-[(865) 988-9442]

WORK TO BEGIN--[09/11/08] AT [0845]      STATE--[TN]
COUNTY---[BLOUNT]  PLACE--[MARYVILLE]

ADDRESS--[805]   STREET--[][ FOOTHILLS][DR][]
NEAREST INTERSECTION--------[W LAMAR ALEXANDER PKWY]
LATITUDE--[35.7532674210526]    LONGITUDE--[-84.0005999473684]
SECONDARY LATITUDE--[35.7495335263158] SECONDARY LONGITUDE--[-83.9943767894737]

ADDITIONAL ADDRESSES IN LOCATION--[N]

LOCATION INFORMATION--
[THIS IS LUXBURY SUITES [BEHIND MCDONALD~S]. FROM THE INTER OF LAMAR           
[ALEXANDER AND FOOTHILLS DR GO APPRX 200~ NE ON FOOTHILLS DR. TURN INTO        
[MCDONALDS PARKING LOT. GO TO THE REAR. [ENTERANCE TO LUXBURY.] WHEN FACING    
[THE OFFICE. MARK THE LT SIDE OF BLDG.. WHITE PAINT..                          

WORK TYPE--[CATV LINE(S) AND/OR DROP(S), INSTL]
DONE FOR--[CHARTER]
EXTENT-----[]

EXPLOSIVES--[N]    WHITE PAINT--[Y]    GRID GIVEN--[N]

MAP REF.--[]
GRIDS-----
          [57G              ] [57F              ] [57J              ]
          [57K              ]

UTILITIES NOTIFIED--
  CODE       NAME                         CODE       NAME
  ---------- --------------------------   ---------- --------------------------
  ALW        ALCOA UTILITIES - WATER...   B03        ATT/D-KNOX (615)661-3758
  CK4        CHARTER COMMUNICATIONS ...   CM         MARYVILLE UTILITIES, CI...
  MCI        MCI                          SBU        SOUTH BLOUNT UTIL
  U07        ATMOS ENERGY (UNITED CI...



--===SEE838999156780171===MIX===--


