
--===SEE838999156780171===MIX===
Content-Type: text/plain
Content-Transfer-Encoding: quoted-printable





KORTERRA JOB MARY01-SMTP-1 082610415 Seq: 4 10/22/2008 10:52:59
U07        00007 TNOCS 09/17/08 08:39:00 082610415 NORMAL GRID

=3D=3D=3D=3D=3D=3D=3D=3D//  TNOCS LOCATE REQUEST  //=3D=3D=3D=3D=3D=3D=3D=3D

TICKET NUMBER--[082610415]
OLD TICKET NUM-[]

MESSAGE TYPE---[NORMAL] LEAD TIME--[72]
PREPARED-------[09/17/08]  AT  [0839]  BY  [SAM]

CONTRACTOR--[CITY OF MARYVILLE]
CALLER--[PAUL GILLEY]
ADDRESS-----[332 HOME AVE]
CITY--------[MARYVILLE]   STATE--[TN]   ZIP--[37801]
CALL BACK---[865-273-3321 OR 865-696-7159]
PHONE--[(865) 273-3321]
CONTACT-----[PAUL GILLEY]   PHONE--[(865) 273-3321]
CONTACT FAX-[]

WORK TO BEGIN--[09/22/08] AT [0845]      STATE--[TN]
COUNTY---[BLOUNT]  PLACE--[MARYVILLE]

ADDRESS--[]   STREET--[][7TH][ST][]
NEAREST INTERSECTION--------[E BROADWAY AVE]
LATITUDE--[35.7753063779255]    LONGITUDE--[-83.9543843444825]
SECONDARY LATITUDE--[0] SECONDARY LONGITUDE--[0]

ADDITIONAL ADDRESSES IN LOCATION--[N]

LOCATION INFORMATION--
[MARK ENTIRE INTER...AREA MARKED W/ WHITE...                                   

WORK TYPE--[WATER MAIN, INSTL]
DONE FOR--[CITY OF MARYVILLE]
EXTENT-----[]

EXPLOSIVES--[N]    WHITE PAINT--[Y]    GRID GIVEN--[N]

MAP REF.--[]
GRIDS-----
          [47B              ] [47G              ]

UTILITIES NOTIFIED--
  CODE       NAME                         CODE       NAME
  ---------- --------------------------   ---------- --------------------------
  ALU        ALCOA UTIL - ELECTRIC        ALW        ALCOA UTILITIES - WATER...
  B03        ATT/D-KNOX (615)661-3758     CK4        CHARTER COMMUNICATIONS ...
  CM         MARYVILLE UTILITIES, CI...   U07        ATMOS ENERGY (UNITED CI...



--===SEE838999156780171===MIX===--


