590	BURY  TELEPHONE DROP WIRE
590	BURY DROP
590	BURY PHONE DROP
590	BURY TELEPHONE DROP WIRE
590	BURY TELEPHONE SERVICE WIRE
590	BURYING DROP
590	DROP
591	BURY  TELEPHONE DROP WIRE
591	BURY DROP
591	BURY PHONE DROP
591	BURY TELEPHONE DROP WIRE
591	BURY TELEPHONE SERVICE WIRE
591	BURYING DROP
591	DROP
592	BURY DROP
592	BURY PHONE DROP
592	BURY TELEPHONE DROP  WIRE
592	BURY TELEPHONE DROP WIRE
592	BURY TELEPHONE SERVICE WIRE
592	BURYING DROP
592	DROP
593	BURY DROP
593	BURY PHONE DROP
593	BURY TELEPHONE DROP  WIRE
593	BURY TELEPHONE DROP WIRE
593	BURY TELEPHONE SERVICE WIRE
593	BURYING DROP
593	DROP
594	BURY DROP
594	BURY PHONE DROP
594	BURY TELEPHONE DROP  WIRE
594	BURY TELEPHONE DROP WIRE
594	BURY TELEPHONE SERVICE WIRE
594	BURYING DROP
594	DROP
595	BURY DROP
595	BURY PHONE DROP
595	BURY TELEPHONE DROP  WIRE
595	BURY TELEPHONE DROP WIRE
595	BURY TELEPHONE SERVICE WIRE
595	BURYING DROP
595	DROP
596	BURY DROP
596	BURY PHONE DROP
596	BURY TELEPHONE DROP  WIRE
596	BURY TELEPHONE DROP WIRE
596	BURY TELEPHONE SERVICE WIRE
596	BURYING DROP
596	DROP
597	BURY DROP
597	BURY PHONE DROP
597	BURY TELEPHONE DROP  WIRE
597	BURY TELEPHONE DROP WIRE
597	BURY TELEPHONE SERVICE WIRE
597	BURYING DROP
597	DROP
598	BURY DROP
598	BURY PHONE DROP
598	BURY TELEPHONE DROP  WIRE
598	BURY TELEPHONE DROP WIRE
598	BURY TELEPHONE SERVICE WIRE
598	BURYING DROP
598	DROP
599	BURY DROP
599	BURY PHONE DROP
599	BURY TELEPHONE DROP  WIRE
599	BURY TELEPHONE DROP WIRE
599	BURY TELEPHONE SERVICE WIRE
599	BURYING DROP
599	DROP
600	BURY DROP
600	BURY PHONE DROP
600	BURY TELEPHONE DROP  WIRE
600	BURY TELEPHONE DROP WIRE
600	BURY TELEPHONE SERVICE WIRE
600	BURYING DROP
600	DROP
601	BURY DROP
601	BURY PHONE DROP
601	BURY TELEPHONE DROP  WIRE
601	BURY TELEPHONE DROP WIRE
601	BURY TELEPHONE SERVICE WIRE
601	BURYING DROP
601	DROP
602	BURY DROP
602	BURY PHONE DROP
602	BURY TELEPHONE DROP  WIRE
602	BURY TELEPHONE DROP WIRE
602	BURY TELEPHONE SERVICE WIRE
602	BURYING DROP
602	DROP
615	BURY DROP
615	BURY PHONE DROP
615	BURY TELEPHONE DROP  WIRE
615	BURY TELEPHONE DROP WIRE
615	BURY TELEPHONE SERVICE WIRE
615	BURYING DROP
615	DROP
