79000	t	100000.00	
79001	AIG 2	250000.00	
79002	Wausau	50000.00	
79003	General Star	50000.00	
79004	Atlantic Mutual	250000.00	
79005	Crum & Forster	5000.00	
79006	Westchester Fire Ins.	250000.00	
79007	Liberty Mutual	2000000.00	
