1	UtiliQuest	UQLogo.gif	4 Concourse Pkwy Ste. 250	Atlanta	GA	30350	877-461-3901		0		P3H
2	STS	STSLogo.gif	P. O. Box 860788	Orlando	FL	32886	555-555-5555		0		M1U
3	UTI	UTILogo.gif	4 Concourse Pkwy Ste. 250	Atlanta	GA	30350	877-461-3901		0		P3H
