000	Corporate	AZ00000G01	000		2		q3	Atlanta	
001	Corporate	AZ00000G01	001		1		AA	Atlanta	
002	Contracts	GA00000L00 	002		1		AB	Atlanta	
003	Fleet/Procurement	GA00000L00 	003		1		AC	Atlanta	
004	Training	GA00000L00 	004		1		AD	Atlanta	
005	Accounting/Finance	GA00000L00 	005		1		AE	Atlanta	
006	Claims	GA00000L00 	006		1		AF	Atlanta	
007	Information Technology	GA00000L00 	007		1		AG	Atlanta	
008	Human Resources	GA00000L00 	008		1		AH	Atlanta	
009	Safety	GA00000L00 	009		1		AI	Atlanta	
011	Doraville Warehouse	GA00000L00 	011		1		BM	Atlanta	
030	Arizona - STS	inactive			2		x0		
100	Memphis - STS	inactive			1		x1		
103	Landham MS Gas	inactive	103		1		AL		
110	New Mexico - STS	inactive	110		1		78	Albuquerque	
111	111 - TXAU	inactive	111		1	Please send Correspondence to: 4 Concourse Pkwy, Ste. 250 Atlanta, GA 30328	BL	Austin	
115	115 - TXFW	inactive	115		1		BO	Fort Worth	
117	117 - TXDO	inactive	117		1		BP	Dallas - Overhead	
118	118 - MDDC	MD00000L00	118		1	Please send Correspondence to: 4 Concourse Pkwy, Ste. 250 Atlanta, GA 30328	BN	D.C. Metro	13644
119	Unknown/Test	inactive	999		1		z3		
120	Las Cruces - STS	inactive			2		x2	Las Cruces	
130	Santa Fe - STS	inactive			2		x3	Santa Fe	
139	139 - TNME	inactive	139		1	Please send Correspondence to: 4 Concourse Pkwy, Ste. 250 Atlanta, GA 30328	BH	Memphis	
141	141 - LALA	inactive	141		1	Please send Correspondence to: 4 Concourse Pkwy, Ste. 250 Atlanta, GA 30328	BI	Lafayette	
142	142 - SCCO	SC00000L00	142		1	Please send Correspondence to: 4 Concourse Pkwy, Ste. 250 Atlanta, GA 30328	BJ	Columbia	10431
143	Hammonton, NJ 	inactive	143		1		BK	Hammonton	
196	Safety Field Support	GA00000G01	196		1		BR		
197	IT Field Support	GA00000G01	197		1		BS		
198	Training Field Support	GA00000G01	198		1		BT		
200	Brentwood - STS	inactive			2		x4		
210	Idaho (Blackfoot)	inactive			2		x5		
220	Idaho (Boise)	inactive			2		z4		
230	Idaho (Twin Falls)	inactive			2		x6		
300	300 - GADO	GA00000G01	300		2	Please send Correspondence to: 4 Concourse Pkwy, Ste. 250 Atlanta, GA 30328	DA	Doraville	14433
305	305 - GALP	GA00000G01	305		2	Please send Correspondence to: 4 Concourse Pkwy, Ste. 250 Atlanta, GA 30328	DG	Doraville	15340
310	Doraville GA - STS	inactive			2	
Please send Correspondence to: 4 Concourse Pkwy, Ste. 250 Atlanta, GA 30328	x7		
330	330 - GALA	GA00000G01	330		2	Please send Correspondence to: 4 Concourse Pkwy, Ste. 250 Atlanta, GA 30328	DB	Lawrenceville	6004
350	350 - GAMA	GA00000G01	350		2	Please send Correspondence to: 4 Concourse Pkwy, Ste. 250 Atlanta, GA 30328	DC	Marietta	6006
370	370 - GAFP	inactive	370		2	Please send Correspondence to: 4 Concourse Pkwy, Ste. 250 Atlanta, GA 30328	DD	Forest Park	
390	390 - GAHI	GA00000G01	390		2	Please send Correspondence to: 4 Concourse Pkwy, Ste. 250 Atlanta, GA 30328	BQ	West Georgia	6945
410	Orem, Utah - STS	inactive			2		z5		
420	Roy, Utah - STS	inactive			2		z6		
430	St George, Utah - STS	inactive			2		x8		
440	West Valley, Utah - STS	inactive			2		x9		
550	Omaha - STS	inactive			2		y1		
620	Lubbock, TX - STS	inactive	620		1		34	Lubbock	
640	Fort Worth, TX - STS	inactive	640		1		35	Forth Worth	
660	McKinney, TX - STS	inactive	660		1		36	McKinney	
720	Alabama - STS	inactive			2		y2		
750	750 - PAKP	PA00000L00	750		2	Please send Correspondence to: 4 Concourse Pkwy, Ste. 250 Atlanta, GA 30328	DE	King of Prussia	7013
810	Louisville	inactive			2		y3		
900	Orlando FL - STS	inactive	900		2		40		
901	BellSouth FL - STS	inactive	901		2		DF		
910	Fayetteville, NC - STS	inactive	910		2		42		
920	Greensboro, NC - STS	inactive	920		2		43		
930	Virginia - STS	inactive	930		2		44		
940	Tennessee - STS	inactive	940		2		45		
950	South Carolina - STS	inactive	950		2		46		
FAM	107 - ALMO	AL00000L00	107		1	Please send Correspondence to: 4 Concourse Pkwy, Ste. 250 Atlanta, GA 30328	AP	Mobile	2540
FAQ	FAQ.NewMexico	inactive	137		1		BF		
FAU	Atlanta	inactive	124		1		49	Atlanta	
FBL	104 - LABR	inactive	104		1	Please send Correspondence to: 4 Concourse Pkwy, Ste. 250 Atlanta, GA 30328	AM	Baton Rouge	
FCC	ClosedProfitCenters				1		51		
FCH	FCH.Chicago	inactive			1		y4		
FCL	105 - NCCH	NC00000L00	105		1	Please send Correspondence to: 4 Concourse Pkwy, Ste. 250 Atlanta, GA 30328	AN	Charlotte	1787
FCO	CO.Ohio	inactive			1		y5		
FCS	Colorodo Springs, CO	inactive	204		1		55	Colorado Springs	
FCT	Chattanooga TN	inactive	134		1		56	Chattanooga	
FCV	123 - VAFR	inactive	123		1	Please send Correspondence to: 4 Concourse Pkwy, Ste. 250 Atlanta, GA 30328	AX	Richmond	
FDE	121 - DESM	inactive	121		1	Please send Correspondence to: 4 Concourse Pkwy, Ste. 250 Atlanta, GA 30328	AV	Smyrna	2729
FDG	216 - CASD	CA00000L00	216		1	Please send Correspondence to: 4 Concourse Pkwy, Ste. 250 Atlanta, GA 30328	EC	San Diego	1872
FDX	127 - TXDA	inactive	127		1	Please send Correspondence to: 4 Concourse Pkwy, Ste. 250 Atlanta, GA 30328	AZ	Dallas	2410
FEF	West Palm	inactive	126		1		AY		
FFA	221 - CAFA	CA00000L00	221		1	Please send Correspondence to: 4 Concourse Pkwy, Ste. 250 Atlanta, GA 30328	EH	Fairfield	11120
FFR	CA.Fresno	inactive	210		3		63		
FGA	131 - GAHI	inactive	131		1	Please send Correspondence to: 4 Concourse Pkwy, Ste. 250 Atlanta, GA 30328	BC	West Georgia	
FGL	North Carolina - Ga	inactive	108		1		65		
FGV	138 - SCGR	SC00000L00	138		1	Please send Correspondence to: 4 Concourse Pkwy, Ste. 250 Atlanta, GA 30328	BG	Greenville	4872
FHL	109 - TXHO	inactive	109		1	Please send Correspondence to: 4 Concourse Pkwy, Ste. 250 Atlanta, GA 30328	AQ	Houston	2781
FHY	219 - CAHA	CA00000L00	219		1	Please send Correspondence to: 4 Concourse Pkwy, Ste. 250 Atlanta, GA 30328	EF	Hayward	6943
FJL	106 - MSBR	inactive	106		1	Please send Correspondence to: 4 Concourse Pkwy, Ste. 250 Atlanta, GA 30328	AO	Jackson	2597
FJT	Jackson TN	inactive	135		1		70	Jackson	
FJX	Jacksonville FL	inactive	132		1		71	Jacksonville	
FMB	114 - MDBA	MD00000L00	114		1	Please send Correspondence to: 4 Concourse Pkwy, Ste. 250 Atlanta, GA 30328	AU	Baltimore	1005
FMO	220 - CAMO	inactive	220		1	Please send Correspondence to: 4 Concourse Pkwy, Ste. 250 Atlanta, GA 30328	EG	Modesto	
FMS	122 - MSGU	inactive	122		1	Please send Correspondence to: 4 Concourse Pkwy, Ste. 250 Atlanta, GA 30328	AW	Gulfport	2563
FMW	102 - MDBE	MD00000L00	102		1	Please send Correspondence to: 4 Concourse Pkwy, Ste. 250 Atlanta, GA 30328	AK	Beltsville	1004
FNC	Northern Co	inactive	203		1		76		
FND	North Denver	inactive	201		1		77	North Denver	
FNJ	113 - NJFR	NJ00000L00	113		1	Please send Correspondence to: 4 Concourse Pkwy, Ste. 250 Atlanta, GA 30328	AT	New Jersey	212
FNL	130 - LAMO	inactive	130		1	Please send Correspondence to: 4 Concourse Pkwy, Ste. 250 Atlanta, GA 30328	BB	Monroe	
FNV	133 - TNNA	TN00000L00	133		1	Please send Correspondence to: 4 Concourse Pkwy, Ste. 250 Atlanta, GA 30328	BD	Nashville	2233
FOK	OK.Tulsa	inactive	125		1		81	Tulsa	
FOL	Orlando, FL (UQ)	inactive			1		y6	Orlando	
FOM	Corporate	inactive	000		1		83		
FOR	Oregon	inactive			1		y7		
FOX	214 - CAVE	CA00000L00	214		1	Please send Correspondence to: 4 Concourse Pkwy, Ste. 250 Atlanta, GA 30328	EA	Ventura	1873
FPK	136 - VACH	inactive	136		1	Please send Correspondence to: 4 Concourse Pkwy, Ste. 250 Atlanta, GA 30328	BE	Chesapeake 	
FPL	110 - FLPE	FL00000L00	110		1	Please send Correspondence to: 4 Concourse Pkwy, Ste. 250 Atlanta, GA 30328	AR	Pensacola	2167
FRC	CA.Richmond				3		88		
FRI	215 - CARI	CA00000L00	215		1	Please send Correspondence to: 4 Concourse Pkwy, Ste. 250 Atlanta, GA 30328	EB	Riverside	1866
FSA	TX.SanAntonio	inactive			1		y8	San Antonio	
FSD	South Denver	inactive	202		1		91	South Denver	
FSF	217 - CAFE	CA00000L00	217		1	Please send Correspondence to: 4 Concourse Pkwy, Ste. 250 Atlanta, GA 30328	ED	Commerce	1870
FSJ	CA.SanJose				3		93		
FTL	112 - TNKN	inactive	112		1	Please send Correspondence to: 4 Concourse Pkwy, Ste. 250 Atlanta, GA 30328	AS	Knoxville	
FTS	TX.Harlingen	inactive	116		1		95	Harlingen	
FTX	South Texas	inactive			1		y9		
FVI	CA.Victorville DON'T USE	inactive			3		z1		
FVT	218 - CAVT	CA00000L00	218		1	Please send Correspondence to: 4 Concourse Pkwy, Ste. 250 Atlanta, GA 30328	EE	CA Admin	
FWI	Milwaukee, WI	inactive			1		z2	Milwaukee	
FWP	128 - WVSH	inactive	128		1	Please send Correspondence to: 4 Concourse Pkwy, Ste. 250 Atlanta, GA 30328	BA		
FXL	101 - VAMA	VA00000L00	101		1	Please send Correspondence to: 4 Concourse Pkwy, Ste. 250 Atlanta, GA 30328	AJ	Manassas	697
SLM	St Louis - system testing				1		A2		
ZCC	JG.CalClosedProfitCenters				3		A3		
ZFR	JG.Fresno				3		A4		
ZMO	JG.Modesto				3		A5		
ZOX	JG.Oxnard				3		A6		
ZRC	JG.Richmond				3		A7		
ZRI	JG.Riverside				3		A8		
ZSA	JG.SanDiego				3		A9		
ZSF	JG.SFSprings				3		B0		
ZSJ	JG.SanJose				3		B1		
