1	2	Pre-excavation Photos/Videos	1	1	0.00	1	1	2010-07-28 11:27:50.040
2	2	Facility Maps/Records	1	1	0.00	1	1	2010-07-28 11:27:50.040
3	2	Damage Photos/Videos	1	1	0.00	1	1	2010-07-28 11:27:50.040
4	2	Investigative Sketch	0	1	0.00	1	1	2010-07-28 11:27:50.040
5	2	Ticket Search/Ticket Image	0	1	0.00	1	1	2010-07-28 11:27:50.040
6	2	E-Sketch/Virtual or Manual Manifest	1	1	0.00	0	1	2010-07-28 11:27:50.040
7	2	High Profile Notification	1	1	5000.00	1	1	2010-07-28 11:27:50.040
8	2	Locate Status Activity Report	1	1	0.00	1	1	2010-07-28 11:27:50.040
9	2	DPS Locate Statement	1	1	0.00	1	1	2010-07-28 11:27:50.040
10	2	Utility Damage Investigation Summary	1	1	0.00	1	1	2010-07-28 11:27:50.040
