1	Reports - Show	General	ReportScreen			
2	Damages - Enter/Complete	General	Damages			
3	Damages - Litigation	General	DamageLitigation			
4	Tickets - Search	General	SearchTickets		Limitation is a comma-separated list of call centers the user may search.	
5	Reports - Run	General	RunReports			
6	Tickets - Edit Locates	General	EditLocates		Limitation is a comma-separated list terms the user may edit.	
8	Reports - Run for My Manager	General	RunReportForManager			
9	Tickets - Close Locates as Assigned User	General	StatusLocatesAsAssigned			
11	Attachments - Upload Group	General	UploadGroup			
12	Timesheets - See All	General	TimesheetsSeeAll			
13	Timesheets - Approve	General	TimesheetsApprove			
14	Timesheets - Final Approve	General	TimesheetsFinalApprove			
15	Timesheets - Export	General	TimesheetsExport			
16	Timesheets - Edit All/UnApprove	General	TimesheetsUnApprove			
17	Timesheets - Vehicle Usage Entry	General	POVCOVEntry			
18	Timesheets - Entry	General	TimesheetsEntry			
20	Damages - Set Claim Status	General	DamagesSetClaimStatus			
21	Damages - Approve	General	DamagesApprove			
22	Damages - Assign/Create	General	DamagesAssign			
23	Damages - View All	General	DamagesViewAll			
24	Tickets - Management	General	TicketManagement			
25	Tickets - Create New	General	CreateNewTicket			
26	Damages - Set Invoice Code	General	DamagesSetInvoiceCode			
27	Tickets - View History	General	ViewTicketHistory			
28	Tickets - View Billing	General	ViewTicketBilling			
29	Assets - View/Assign/Limited Edit	General	ManageAssets			
30	Tickets - Approve Manual	General	TicketsApproveManual			
31	Billing - View Adjustments	General	BillingAdjustmentsView			
32	Billing - Add Adjustments	General	BillingAdjustmentsAdd			
33	Damages - New Screens	General	DamagesV2			
34	Damages - Litigation View	General	LitigationView			
35	Damages - Litigation Edit	General	LitigationEdit			
36	Billing - Run	General	BillingRun			
37	Billing - Delete	General	BillingDelete			
38	Billing - Commit	General	BillingCommit			
39	Billing - Uncommit	General	BillingUncommit			
40	Billing - Re-Export	General	BillingReexport			
41	Tickets - Assign Area	General	TicketsAssignArea			
42	Damages - Approve Invoice	General	DamagesApproveInvoice			
43	Damages - Bill Damage	General	DamagesBillDamage			
44	Damages - Add Estimate	General	DamagesAddEstimate			
45	Messages - Send	General	MessagesSend		Limitation can be a list of manager ids representing additional parts of the hierarchy where a message can be sent.	
46	Messages - Review	General	MessagesReview		Limitation does not apply to this right.	
47	Assets - Create/Edit	General	EditAssets			
48	Ticket Points - Use Feature	General	UsePointsFeature			
49	Sync - Reminder Active	General	SyncReminderInterval			
50	Attachments - Upload Anything	General	UploadAnything			
51	Reports - DamageDetails	Report	DamageDetails			
52	Reports - Audit	Report	Audit			
53	Reports - LocatorLoad	Report	LocatorLoad			
54	Reports - LateTicket	Report	LateTicket			
55	Reports - NoConflict	Report	NoConflict			
56	Reports - HighProfile	Report	HighProfile			
57	Reports - AfterHours	Report	AfterHours			
58	Reports - TicketsDue	Report	TicketsDue			
59	Reports - Productivity	Report	Productivity			
60	Reports - ClosedTicketDetail	Report	ClosedTicketDetail			
61	Reports - InitialStatus	Report	InitialStatus			
62	Reports - NewTicketDetail	Report	NewTicketDetail			
63	Reports - LoadSheet	Report	LoadSheet			
64	Reports - TicketsReceived	Report	TicketsReceived			
65	Reports - TimesheetDetail	Report	TimesheetDetail			
66	Reports - ExcavatorCall	Report	ExcavatorCall			
67	Reports - TimesheetSummary	Report	TimesheetSummary			
68	Reports - DamagesByLocator	Report	DamagesByLocator			
69	Reports - DailyClientClosingNNG	Report	DailyClientClosingNNG			
70	Reports - SyncSummary	Report	SyncSummary			
71	Reports - LocateStatusActivity	Report	LocateStatusActivity			
72	Reports - TimeExport	Report	TimeExport			
73	Reports - TimesheetException	Report	TimesheetException			
74	Reports - DamageLiabilityChanges	Report	DamageLiabilityChanges			
75	Reports - OnTimeCompletion	Report	OnTimeCompletion			
76	Reports - OldOpenTickets	Report	OldOpenTickets			
77	Reports - DailyStatusDbf	Report	DailyStatusDbf			
78	Reports - NoResponseTickets	Report	NoResponseTickets			
79	Reports - FaxStatus	Report	FaxStatus			
80	Reports - EmailedHPTickets	Report	EmailedHPTickets			
81	Reports - Assets	Report	Assets			
82	Reports - TimesheetAudit	Report	TimesheetAudit			
83	Reports - Echo	Report	Echo			
84	Reports - DamageList	Report	DamageList			
85	Reports - TimeRuleCheck	Report	TimeRuleCheck			
86	Reports - ProductivityClient	Report	ProductivityClient			
87	Reports - ManagerStatus	Report	ManagerStatus			
88	Reports - BlastingTickets	Report	BlastingTickets			
89	Reports - ProfitCenterSetup	Report	ProfitCenterSetup			
90	Reports - TimesheetExport	Report	TimesheetExport			
91	Reports - PayrollSummary	Report	PayrollSummary			
92	Reports - PayrollExceptionStandard	Report	PayrollExceptionStandard			
93	Reports - PayrollExceptionAdHoc	Report	PayrollExceptionAdHoc			
94	Reports - StatusGroups	Report	StatusGroups			
95	Reports - HighProfileExport	Report	HighProfileExport			
96	Reports - BillingRate	Report	BillingRate			
97	Reports - InvoiceIDException	Report	InvoiceIDException			
98	Reports - Employees	Report	Employees			
99	Reports - DailySales	Report	DailySales			
100	Reports - BillingException	Report	BillingException			
101	Reports - DamageDefaultEstimate	Report	DamageDefaultEstimate			
102	Reports - DamageIDException	Report	DamageIDException			
103	Reports - DamageInvoice	Report	DamageInvoice			
104	Reports - DailyClientClosing	Report	DailyClientClosing			
105	Reports - LocatorSchedule	Report	LocatorSchedule			
106	Reports - BillableDamages	Report	BillableDamages			
107	Reports - DamageProductivity	Report	DamageProductivity			
108	Reports - DamagesPerLocates	Report	DamagesPerLocates			
109	Reports - EmployeeActivity	Report	EmployeeActivity			
110	Reports - TimeSubmitMessageResponse	Report	TimeSubmitMessageResponse			
111	Reports - TimesheetExceptionByEmp	Report	TimesheetExceptionByEmp			
112	Reports - RestrictedUseExemption	Report	RestrictedUseExemption			
113	Reports - TimesheetEmpSummary	Report	TimesheetEmpSummary			
114	Restrict Usage - Limit Hours	General	RestrictUsageLimitHours		Limitation is a Group Name associated with a set of hour limits setup using the Restrict Usage Times option.	
115	Restrict Usage - Grant Exemption	General	RestrictUsageGrantExemption		Limitation does not apply to this right.	
116	Timesheets - Employee Type Entry	General	TimesheetsEmpTypeEntry			
118	Tickets - Edit Facilities	General	TicketsEditFacilities			
120	Tickets - Add Locates	General	TicketsAddLocates		Limitation does not apply to this right.	
121	Tickets - Change Locator View Limits	General	TicketsChangeViewLimits		Limitation does not apply to this right.	
122	Tickets - Edit Arrivals	General	TicketsEditArrivals		Limitation is the employee ID representing the part of the tree hierarchy the user edits arrivals for.	
124	Routing - Edit Areas	General	RoutingEditAreas		Limitation is the employee ID representing the part of the tree hierarchy the user can reassign maps areas for/to.	
125	Reports - DailyClientClosingCCT	Report	DailyClientClosingCCT			
126	Reports - ResponseLog	Report	ResponseLog			
127	Reports - TicketsReceivedSummary	Report	TicketsReceivedSummary			
128	Reports - ProductionHoursByPC	Report	ProductionHoursByPC			
129	Reports - EmployeeActivitySummary	Report	EmployeeActivitySummary			
130	Reports - HighLevelProductivity	Report	HighLevelProductivity			
131	Reports - TicketDetail	Report	TicketDetail			
132	Reports - ActiveComputerSync	Report	ActiveComputerSync			
133	Tickets - Acknowledge Activity	General	TicketsAcknowledgeActivity		Limitation does not apply to this right.	
134	Tickets - Immediate Sync	General	TicketsImmediateSync		Limitation is not used for this right.	
135	Tickets - Acknowledge All Activities	General	TicketsAcknowledgeAllActivities		Limitation does not apply to this right.	
136	Tickets - Show without Arriving	General	TicketsShowWithoutArriving		Limitation does not apply to this right	
138	Tickets - Auto-approve New Tickets	General	TicketsAutoApproveNewTickets		Limitation does not apply to this right.	
139	Tickets - Assign New Tickets	General	TicketsAssignNewTickets		Limitation does not apply to this right.	
140	Tickets - Add Ready To Mark Locates	General	TicketsAddReadyToMarkLocates		Limitation does not apply to this right.	
141	Tickets - Assign New Locates to Ticket Locator	General	TicketsAssignNewLocatesToTicketLocator		Limitation does not apply to this right.	
142	Tickets - Edit Closed Locates	General	TicketsEditClosedLocates		Limitation does not apply to this right.	
143	Tickets - View Another Locator's Locates	General	TicketsViewAnotherLocatorsLocates		Limitation does not apply to this right.	
144	Tickets - Edit Another Locator's Locates	General	TicketsEditAnotherLocatorsLocates		Limitation does not apply to this right.	
145	Tickets - Edit Another Locator's Hours/Units	General	TicketsEditAnotherLocatorsUnits		Limitation does not apply to this right.	
146	Tickets - Show Unacked Tickets	General	TicketsShowUnacked		Limitation does not apply to this right.	
148	Damages - Assign Locator	General	DamagesAssignLocator		Limitation is the employee ID representing the part of the hierarchy the user can assign to a damage.	
149	Manage - Profit Center	General	ManageProfitCenter		Limitation does not apply to this right.	
150	Attachments - Remove	General	AttachmentsRemove		Limitation does not apply to this right.	
151	Reports - EmployeeCovStatus	Report	EmployeeCovStatus			
152	Reports - LocatesCompletedSummary	Report	LocatesCompletedSummary			
153	Reports - EmployeesInTraining	Report	EmployeesInTraining			
154	Reports - PayrollExceptionBreaks	Report	PayrollExceptionBreaks			
155	Reports - TicketActivity	Report	TicketActivity			
156	Damages - View Accrual History	General	DamagesViewAccrualHistory		Limitation does not apply to this right.	
157	Timesheets - Prior Day Entry	General	TimesheetsPriorDayEntry		Limitation does not apply to this right	
158	Attachments - Background Upload	General	AttachmentsBackgroundUpload		Limitation is the location_id to use for uploads.	
159	Sync - Auto-sync on Idle	General	SyncAfterIdle		Limitation is a comma separated list of minutes: idle delay, delay minimized, minimum time between syncs.	
160	Sync - Auto-sync on Ticket Save	General	SyncAfterTicketSave		Limitation is a not used for this right.	
161	Sync - Auto-sync on Timesheet Save	General	SyncAfterTimesheetSave		Limitation is a not used for this right.	
162	Attachments - Auto-attach	General	AttachmentsAutoAttach		Limitation can be NOWARN to suppress the No Images Attached warning message.	
163	Tickets - Show Work Full Screen	General	TicketsShowWorkFullScreen		Limitation is the number of seconds the full work screen is shown.  Default is 120 if not entered.	
164	Timesheets - Clock Entry	General	TimesheetsClockEntry		Limitation does not apply to this right.	
165	Restrict Usage - Use Before Clock In	General	WorkBeforeClockIn		Limitation does not apply to this right.	
166	Restrict Usage - Use During Lunch Break	General	WorkDuringLunchBreak		Limitation does not apply to this right.	
167	Restrict Usage - Use After Work Clock Out	General	WorkAfterWorkClockOut		Limitation does not apply to this right.	
168	Tickets - Allow Status Codes	General	TicketsAllowStatusCodes		Limitation does not apply to this right.	
169	Tickets - Allow Restricted Status Codes	General	TicketsAllowRestrictedStatusCodes		Limitation does not apply to this right.	
170	Tickets - Release for Work	General	TicketsReleaseForWork		Limitation does not apply to this right.	
171	Tickets - Selective Export	General	TicketsSelectiveExport		Limitation does not apply to this right.	
172	Timesheets - Clock Import	General	TimesheetsClockImport		Limitation does not apply to this right.	
173	Location - Track GPS Position	General	TrackGPSPosition		Limitation is F,S: F = Threshold in feet to compute on site vs. off site; S = GPS polling delay seconds. Default is 2000,5.	
174	Damages - Set Responsibility	General	DamagesSetResponsibility		Limitation does not apply to this right.	
175	Damages - Edit When Approved	General	DamagesEditWhenApproved		Limitation does not apply to this right.	
176	Damages - Assign Profit Center	General	DamagesAssignProfitCenter		Limitation does not apply to this right.	
177	Damages - Management	General	DamagesManagement		Limitation does not apply to this right.	
178	Damages - Edit Without Arriving	General	DamagesEditWithoutArriving		Limitation does not apply to this right.	
179	Damages - Edit Arrivals	General	DamagesEditArrivals		Limitation is the employee ID representing the part of the tree hierarchy the user edits arrivals for.	
180	Tickets - Management New	General	TicketManagementV2		Uses the Tickets - Management right limitation.	
181	Damages - Selective Export	General	DamagesSelectiveExport		Limitation does not apply to this right.	
182	Tickets - Manage Future Tickets	General	TicketsManageFutureTickets		Limitation does not apply to this right.	
183	Work Orders - Management	General	WorkOrdersManagement		Limitation does not apply to this right.	
184	Work Orders - Immediate Sync	General	WorkOrdersImmediateSync		Limitation does not apply to this right.	
185	Work Orders - View History	General	ViewWorkOrderHistory		Limitation does not apply to this right.	
186	Work Orders - Search	General	SearchWorkOrders		Limitation is a comma-separated list of call centers the user may search.	
187	Work Orders - Selective Export	General	WorkOrdersSelectiveExport		Limitation does not apply to this right.	
188	Tickets - Create Follow Up	General	TicketsCreateFollowUp		Limitation does not apply to this right.	
189	Messages - Delete Any	General	MessagesDeleteAny		Limitation does not apply to this right.	
190	Attachments - Add to Closed Work Order	General	AttachmentsAddToClosedWorkOrder		Limitation does not apply to this right.	
191	Tickets - Show Future Workload	General	TicketsShowFutureWorkload		Limitation does not apply to this right.	
