11000	CompanyAllegheny	
11001	BellSouthCompany	ATT values for 139
11002	OCCCoxCableWorkDoneFor	
11003	OCCWashingtonGasWorkDoneFor	
11004	BRExcavatorGradyCrawford	
11005	BRExcavatorGulfgate	
11006	BRWorkDoneForEatel	
11007	BRExcavatorProTechs	
11008	BRWorkDoneForCentury	
11009	BRWorkDoneForTransLA	
11010	BRExcavatorDeviney	
11011	BRExcavatorEllington	
11012	FCV3WorkDoneForNorthernNeck	
11013	FCVWorkDoneForShenandoahGas	
11014	FMWWorkDoneForDCWater	
11015	FMWWorkDoneForWASubSanitary	
11016	FMBCompanyBGE	
11017	FMBCompanyAdelphia	
11018	FNVCompanyMidTNElectric	
11019	FCODropBuryWorkTypes	
11020	FCOTCSContractors	
11021	FAMMobileGas	
11022	FTLJeffersonWorkDoneFor	
11023	FAQSpecialTierStatuses	
11024	AGLTermsWDF	work_done_for values -STS GA
11027	BSTTermsWDF	work_done_for values -STS GA
11028	ComcastTermsWDF	work_done_for values -STS GA
11029	ComcastTermsCDW	company values -STS GA
11030	AGLTermsCDW	company values  - STS GA
11031	BSTTermsCDW	company values - STS GA
11032	CowetaTermsWDF	work_done_for values -STS GA
11033	CowetaTermsCDW	company values -STS GA
11034	9001SprintTermsWDF	work_done_for values - STS FL
11036	AllSprintTermsWDF	work_done_for values - Sprint
11038	9101FourCountyCDW	company values FOUR County EMC - 9101
11039	9101TimeWarnerWDF	work_done_for values - 9101 Time Warner
11040	9101TimeWarnerCDW	company values - 9101 Time Warner
11041	VerizonNoChargeTT	late ticket values for Verison
11042	VaNaturalGasWDF	work_done _for values - VNG
11043	CharterComm-GA	work_done_for values
11044	901WorkDoneForOUC	work_done_for values - OUC
11045	ATT_LASouth	ATT Manager: Brown
11046	ATT_LANorth	ATT Manager: Denis Delja
11047	ATT_Sacramento	ATT Manager: Dennis Hodgkins
11048	ATT_SouthBay	ATT Manager: Howard
11049	ATT_ValleyNorth	ATT Manager: Anthony Kobliska
11050	ATT_NorthBay	ATT Manager: Jeff Lim
11052	ATT_NorthCoast	ATT Manager: Greg Pickle
11053	ATT_Orange-Riverside	ATT Manager: Scott Shelly
11054	ATT_SanDiego	ATT Manager: Jeff Smith
11055	AtmosTermsWDF	work_done_for values - Atmos in TX
11056	ATT_ValleySouth	ATT Manager: Anthony Kobliska
11057	EmbarqTermsWDF	work_done_for Embarq
11059	NoResponses	ticket types for No Response rates
11060	FMSCompanyBellSouth	
11061	FJLCompanyBellSouth	
11062	CancelTicketTypes	cancel ticket types - GA
11063	DamageTicketTypes	damage ticket types - GA
11064	FTLChatanoogaGasWDF	
11065	FTLCharterCDW	
11066	DukePowerCDW	company values Duke Power - FCL and FGV
11067	DukePowerWDF	work done for values for Duke Power
11068	TimeWarnerWDF	work done for Time Warner
11069	TimeWarnerCDW	company doing work Time Warner
11070	SurveyTicketTypes	design/survey ticket types
11071	FMWCompanyBGE	
11073	MetroWaterWDF	work_done_for values TN
11074	WashingtonGasWDF	work done for Washington Gas
11075	MeetingTicketTypes	meeting ticket type values
