
FROM DSNY      11/06/2011 AT 00:17
Dest: UTILIQUEST / PRIMARY
Service Area:                                ID: UTILIQUEST / PRIMARY
*******************************************************************************
*                 TICKET AUDIT FOR TRANSMISSIONS ON: 11/05/2011               *
*******************************************************************************

11051-165-005-00  E 0001   11051-165-006-00  E 0002   11051-165-011-00  E 0003   
11051-150-004-00  R 0004   11051-150-008-00  E 0005   11051-150-020-00  R 0006   
11051-150-021-00  R 0007   11051-150-027-00  E 0008   11051-150-034-00  R 0009   
11051-150-042-00  E 0010   11051-150-053-00  E 0011   11051-150-065-00  E 0012   

 (+) RETRANSMIT - 0000         (E) EMERGENCY    - 0008
 (-) RESENT     - 0000         (P) PRIORITY     - 0000
 (!) CANCEL     - 0000         (I) INSUFFICIENT - 0000
 ( ) NORMAL     - 0012         (R) REGULAR      - 0004
                               (G) GAS EMERG    - 0000
                               (D) DESIGN       - 0000

                                   TOTAL        - 0012


