
FROM DSNY      11/05/2011 AT 00:18
Dest: UTILIQUEST / PRIMARY
Service Area:                                ID: UTILIQUEST / PRIMARY
*******************************************************************************
*                 TICKET AUDIT FOR TRANSMISSIONS ON: 11/04/2011               *
*******************************************************************************

11041-165-004-00  E 0001   11041-165-005-00  E 0002   11041-165-006-00  E 0003   
11041-165-007-00  E 0004   11041-165-008-00  E 0005   11041-165-016-00  E 0006   
11041-165-017-00  E 0007   11041-165-023-00  E 0008   11031-152-097-01 +E 0009   
11041-044-001-00  R 0010   11041-078-003-00  R 0011   11031-152-097-02 +E 0012   
11041-078-005-00  E 0013   11041-078-006-00  E 0014   11041-078-007-00  E 0015   
11041-078-008-00  E 0016   11041-154-001-00  E 0017   11041-044-006-00  E 0018   
11041-078-012-00  E 0019   11041-145-007-00  R 0020   11041-012-018-00  D 0021   
11041-012-022-00  E 0022   11041-120-019-00  R 0023   11041-120-020-00  R 0024   
11041-074-022-00  R 0025   11041-074-023-00  R 0026   11041-074-024-00  R 0027   
11041-074-025-00  R 0028   11041-074-026-00  R 0029   11041-074-027-00  R 0030   
11041-074-028-00  R 0031   11041-044-028-00  E 0032   11041-074-029-00  R 0033   
11041-074-030-00  R 0034   11041-074-031-00  R 0035   11041-074-032-00  R 0036   
11041-074-033-00  E 0037   11041-120-025-00  E 0038   11041-120-028-00  R 0039   
11041-044-034-00  R 0040   11041-134-030-00  R 0041   11041-040-039-00  E 0042   
11041-500-039-00  R 0043   11041-074-037-00  R 0044   11041-120-025-01 +E 0045   
11041-500-044-00  R 0046   11041-154-034-00  R 0047   11041-154-035-00  R 0048   
11041-500-052-00  R 0049   11041-012-049-00  R 0050   11041-012-066-00  E 0051   
11041-154-051-00  R 0052   11041-044-053-00  R 0053   11041-044-054-00  R 0054   
11041-139-041-00  R 0055   11041-044-060-00  R 0056   11041-044-061-00  R 0057   
11041-044-062-00  R 0058   11041-044-063-00  R 0059   11041-044-064-00  R 0060   
11041-044-065-00  R 0061   11041-145-032-00  E 0062   11041-044-066-00  R 0063   
11041-044-067-00  R 0064   11041-044-068-00  R 0065   11041-044-069-00  R 0066   
11041-012-074-00  R 0067   11041-166-061-00  R 0068   11041-078-096-00  D 0069   
11041-078-098-00  R 0070   11041-078-099-00  R 0071   11041-078-100-00  R 0072   
11041-078-101-00  R 0073   11041-078-102-00  R 0074   11041-078-103-00  R 0075   
11041-078-104-00  R 0076   11041-078-105-00  R 0077   11041-078-106-00  R 0078   
11041-078-107-00  R 0079   11041-078-108-00  R 0080   11041-078-109-00  R 0081   
11041-078-110-00  R 0082   11041-078-111-00  R 0083   11041-078-112-00  R 0084   
11041-078-113-00  R 0085   11041-161-001-00  R 0086   11041-152-062-00  R 0087   
11041-145-042-00  R 0088   11041-154-089-00  R 0089   11041-154-090-00  R 0090   
11041-152-063-00  R 0091   11041-154-089-01 +R 0092   11041-152-064-00  R 0093   
11041-152-065-00  R 0094   11041-161-005-00  R 0095   11041-161-006-00  R 0096   
11041-161-007-00  R 0097   11041-166-069-00  R 0098   11041-161-027-00  R 0099   
11041-161-028-00  R 0100   11041-161-027-01 +R 0101   

 (+) RETRANSMIT - 0005         (E) EMERGENCY    - 0025
 (-) RESENT     - 0000         (P) PRIORITY     - 0000
 (!) CANCEL     - 0000         (I) INSUFFICIENT - 0000
 ( ) NORMAL     - 0096         (R) REGULAR      - 0074
                               (G) GAS EMERG    - 0000
                               (D) DESIGN       - 0002

                                   TOTAL        - 0101


