
4720 *SUM* UPCA 12/01/08 00:03:08
***************************************************************************
*  THIS IS THE UTILITIES PROTECTION CENTER SIGNING OFF.  YOUR END OF DAY  *
*  SUMMARY WILL FOLLOW.  PLEASE NOTIFY THE CENTER OF ANY DISCREPANCIES    *
***************************************************************************

00001 11308-263-001-000 05:57   00002 11308-263-002-000 06:03   
00003 11308-263-003-000 06:51   00004 11308-263-004-000 06:54   
00005 11308-263-005-000 07:06   00006 11308-263-001-001 07:06 C 
00007 11308-263-002-001 07:09   00008 11308-263-006-000 07:15   
00009 11308-263-007-000 08:18   00010 11308-232-001-000 08:36   
00011 11308-263-008-000 08:36   00012 11308-232-003-000 09:36   
00013 11308-232-004-000 10:03   00014 11308-232-007-000 11:51   
00015 11308-232-008-000 12:00   00016 11308-232-010-000 12:27   
00017 11308-232-011-000 12:33   00018 11308-232-012-000 12:39   
00019 11308-232-016-000 13:57   00020 11308-300-001-000 14:48   
00021 11308-232-018-000 15:03   00022 11308-232-019-000 15:09   
00023 11308-232-020-000 15:18   00024 11308-300-002-000 15:45   
00025 11308-300-003-000 15:48   00026 11308-300-004-000 15:51   
00027 11308-300-005-000 15:54   00028 11308-300-006-000 15:57   
00029 11308-300-007-000 15:57   00030 11308-232-021-000 15:57   
00031 11308-300-008-000 16:03   00032 11308-300-009-000 16:03   
00033 11308-237-002-000 17:06   00034 11308-237-003-000 17:24   
00035 11308-237-004-000 17:33   00036 11308-237-005-000 17:42   
00037 11308-237-006-000 17:45   00038 11308-237-007-000 17:48   
00039 11308-237-011-000 18:45   00040 11308-237-012-000 19:00   
00041 11308-237-015-000 19:27   00042 11308-237-016-000 21:48   
00043 11308-300-010-000 22:09   00044 11308-300-011-000 22:09   
00045 11308-300-012-000 22:12   00046 11308-300-013-000 22:12   
00047 11308-300-014-000 22:24   00048 11308-300-015-000 22:27   
00049 11308-300-016-000 22:27   00050 11308-300-017-000 22:30   
00051 11308-300-018-000 22:33   00052 11308-300-019-000 22:36   
00053 11308-300-020-000 22:42   00054 11308-300-021-000 22:42   
00055 11308-300-022-000 22:45   00056 11308-300-023-000 22:45   
00057 11308-300-024-000 22:48   00058 11308-300-025-000 22:48   
00059 11308-300-026-000 22:48   00060 11308-300-027-000 22:51   
00061 11308-300-028-000 22:51   00062 11308-300-029-000 22:54   
00063 11308-300-030-000 22:54   00064 11308-300-031-000 22:54   
00065 11308-300-032-000 22:57   00066 11308-300-033-000 22:57   
00067 11308-300-034-000 23:00   00068 11308-300-035-000 23:00   
00069 11308-300-036-000 23:00   00070 11308-300-037-000 23:03   
00071 11308-300-038-000 23:06   

(P) UPDATE     - 00000
(C) CANCEL     - 00001
(R) RESENT     - 00000
(Y) RENOTIFY   - 00000
(L) LATE RESP  - 00000
(U) UNGRIDDED  - 00000
( ) NORMAL     - 00070
    TOTAL      - 00071


