
STS99  *SUM* UPCA 12/09/08 00:03:36
***************************************************************************
*  THIS IS THE UTILITIES PROTECTION CENTER SIGNING OFF.  YOUR END OF DAY  *
*  SUMMARY WILL FOLLOW.  PLEASE NOTIFY THE CENTER OF ANY DISCREPANCIES    *
***************************************************************************

00001 12088-235-001-000 05:18   00002 12088-235-003-000 05:57   
00003 12088-235-004-000 06:00   00004 12088-231-001-000 07:12   
00005 12088-249-001-000 07:15   00006 12088-265-001-000 07:21   
00007 12088-235-005-000 07:30   00008 12088-252-002-000 07:30 Y 
00009 12088-231-002-000 07:30   00010 12088-257-001-000 07:33   
00011 12088-231-003-000 07:33   00012 12088-258-002-000 07:36   
00013 12088-265-002-000 07:36   00014 12088-231-004-000 07:36   
00015 12088-247-002-000 07:36   00016 12088-249-002-000 07:39   
00017 12088-242-002-000 07:45 Y 00018 12088-300-002-000 07:45   
00019 12088-265-003-000 07:45   00020 12088-244-006-000 07:48   
00021 12088-249-003-000 07:54   00022 12088-265-004-000 07:54   
00023 12088-234-005-000 07:54   00024 12088-300-003-000 07:57   
00025 12088-231-006-000 07:57   00026 12088-252-004-000 07:57   
00027 12088-244-007-000 08:00   00028 12088-300-002-001 08:00 C 
00029 12088-247-004-000 08:03   00030 12088-258-003-000 08:03   
00031 12088-248-001-000 08:03 Y 00032 12088-212-001-000 08:06 Y 
00033 12088-244-008-000 08:06 Y 00034 12088-265-005-000 08:06   
00035 12088-255-001-000 08:06   00036 12088-244-009-000 08:09 Y 
00037 12088-234-006-000 08:09   00038 12088-244-010-000 08:09 Y 
00039 12088-233-001-000 08:09   00040 12088-231-007-000 08:09   
00041 12088-239-001-000 08:09   00042 12088-258-004-000 08:12   
00043 12088-218-001-000 08:12   00044 12088-239-002-000 08:15   
00045 12088-257-003-000 08:15   00046 12088-265-006-000 08:18   
00047 12088-242-005-000 08:21   00048 12088-260-001-000 08:21   
00049 12088-233-002-000 08:21   00050 12088-239-003-000 08:24   
00051 12088-218-003-000 08:24   00052 12088-212-002-000 08:24   
00053 12088-231-013-000 08:24   00054 12088-233-003-000 08:24   
00055 12088-239-001-001 08:24   00056 12088-265-007-000 08:24   
00057 12088-255-002-000 08:24   00058 12088-252-007-000 08:24   
00059 12088-242-006-000 08:27   00060 12088-212-003-000 08:27 Y 
00061 12088-257-005-000 08:30   00062 12088-239-004-000 08:30   
00063 12088-248-004-000 08:30   00064 12088-247-008-000 08:30   
00065 12088-215-003-000 08:30   00066 12088-260-002-000 08:30   
00067 12088-218-005-000 08:33   00068 12088-212-004-000 08:33 Y 
00069 12088-233-004-000 08:33   00070 12088-249-004-000 08:33   
00071 12088-236-005-000 08:33   00072 12088-247-009-000 08:33   
00073 12088-212-005-000 08:33 Y 00074 12088-215-004-000 08:33   
00075 12088-257-006-000 08:36   00076 12088-247-010-000 08:36   
00077 12088-218-006-000 08:36   00078 12088-244-012-000 08:36   
00079 12088-248-005-000 08:36   00080 12088-233-005-000 08:39   
00081 12088-212-006-000 08:39 Y 00082 12088-258-007-000 08:39   
00083 12088-212-007-000 08:39 Y 00084 12088-234-007-000 08:39   
00085 12088-247-011-000 08:39   00086 12088-239-006-000 08:39   
00087 12088-260-003-000 08:39   00088 12088-259-006-000 08:39   
00089 12088-212-008-000 08:39 Y 00090 12088-247-012-000 08:42   
00091 12088-248-006-000 08:42   00092 12088-233-006-000 08:42   
00093 12088-300-008-000 08:42   00094 12088-212-009-000 08:42 Y 
00095 12088-248-007-000 08:42 Y 00096 12088-239-007-000 08:42 Y 
00097 12088-242-009-000 08:42 Y 00098 12088-213-001-000 08:42   
00099 12088-236-007-000 08:45   00100 12088-218-007-000 08:45   
00101 12088-248-008-000 08:45 Y 00102 12088-239-008-000 08:45 Y 
00103 12088-260-004-000 08:45   00104 12088-239-009-000 08:45 Y 
00105 12088-248-009-000 08:45 Y 00106 12088-248-010-000 08:45 Y 
00107 12088-300-009-000 08:45   00108 12088-248-011-000 08:45 Y 
00109 12088-216-005-000 08:48   00110 12088-248-012-000 08:48 Y 
00111 12088-247-013-000 08:48   00112 12088-248-013-000 08:48 Y 
00113 12088-248-014-000 08:48 Y 00114 12088-248-015-000 08:48 Y 
00115 12088-215-006-000 08:51 Y 00116 12088-236-008-000 08:51 Y 
00117 12088-215-007-000 08:51 Y 00118 12088-215-008-000 08:54 Y 
00119 12088-236-009-000 08:54 Y 00120 12088-236-010-000 08:57 Y 
00121 12088-241-009-000 09:00 Y 00122 12088-259-009-000 09:00   
00123 12088-215-009-000 09:03   00124 12088-241-010-000 09:03 Y 
00125 12088-213-002-000 09:03   00126 12088-244-013-000 09:03 Y 
00127 12088-300-010-000 09:03   00128 12088-239-019-000 09:03   
00129 12088-241-011-000 09:03 Y 00130 12088-215-010-000 09:03   
00131 12088-244-014-000 09:06 Y 00132 12088-246-001-000 09:06 Y 
00133 12088-239-020-000 09:06 Y 00134 12088-215-011-000 09:06   
00135 12088-215-012-000 09:09   00136 12088-216-008-000 09:09   
00137 12088-260-005-000 09:09   00138 12088-220-002-000 09:12   
00139 12088-243-001-000 09:12   00140 12088-265-009-000 09:12 Y 
00141 12088-243-002-000 09:15   00142 12088-300-012-000 09:15   
00143 12088-256-002-000 09:15   00144 12088-243-003-000 09:18   
00145 12088-234-009-000 09:18   00146 12088-243-004-000 09:18   
00147 12088-244-016-000 09:21 Y 00148 12088-263-001-000 09:21   
00149 12088-243-005-000 09:21   00150 12088-256-003-000 09:21   
00151 12088-300-014-000 09:21   00152 12088-234-010-000 09:21   
00153 12088-259-010-000 09:21 Y 00154 12088-243-006-000 09:21   
00155 12088-256-004-000 09:21   00156 12088-256-002-001 09:21 C 
00157 12088-215-013-000 09:24   00158 12088-243-007-000 09:24   
00159 12088-259-011-000 09:24 Y 00160 12088-234-011-000 09:24   
00161 12088-255-008-000 09:24   00162 12088-243-008-000 09:27   
00163 12088-259-012-000 09:27 Y 00164 12088-300-015-000 09:27   
00165 12088-256-005-000 09:27   00166 12088-234-012-000 09:27   
00167 12088-243-009-000 09:27   00168 12088-243-010-000 09:30   
00169 12088-238-001-000 09:30 Y 00170 12088-234-013-000 09:30   
00171 12088-238-002-000 09:30 Y 00172 12088-243-011-000 09:33   
00173 12088-234-014-000 09:33   00174 12088-215-014-000 09:33   
00175 12088-263-002-000 09:33   00176 12088-243-012-000 09:33   
00177 12088-234-015-000 09:36   00178 12088-243-013-000 09:36   
00179 12088-243-014-000 09:36   00180 12088-300-019-000 09:36 Y 
00181 12088-234-016-000 09:36   00182 12088-259-013-000 09:39   
00183 12088-234-017-000 09:39   00184 12088-236-011-000 09:42   
00185 12088-300-020-000 09:45   00186 12088-213-006-000 09:45   
00187 12088-213-007-000 09:48   00188 11208-255-029-001 09:48 R 
00189 12088-242-011-000 09:48   00190 12088-238-003-000 09:48   
00191 12088-259-014-000 09:51   00192 12088-213-008-000 09:51   
00193 12088-237-001-000 09:51 Y 00194 12088-257-014-000 09:51 Y 
00195 12088-238-004-000 09:51   00196 12088-213-009-000 09:51   
00197 12088-244-017-000 09:54   00198 12088-237-002-000 09:54 Y 
00199 12088-262-005-000 09:54   00200 12088-238-005-000 09:54   
00201 12088-237-003-000 09:54 Y 00202 12088-257-015-000 09:54 Y 
00203 12088-213-010-000 09:54   00204 12088-263-003-000 09:54   
00205 12088-231-016-000 09:54   00206 12088-259-015-000 09:54   
00207 12088-237-004-000 09:54 Y 00208 12088-213-011-000 09:57   
00209 12088-257-016-000 09:57 Y 00210 12088-260-009-000 09:57   
00211 12088-262-006-000 09:57 Y 00212 12088-259-016-000 09:57   
00213 12088-232-001-000 09:57   00214 12088-218-012-000 09:57   
00215 12088-238-006-000 09:57   00216 12088-257-017-000 09:57 Y 
00217 12088-262-007-000 10:00 Y 00218 12088-238-007-000 10:00   
00219 12088-260-010-000 10:00   00220 12088-220-006-000 10:03   
00221 12088-232-002-000 10:03   00222 12088-238-008-000 10:03   
00223 12088-244-018-000 10:03   00224 12088-213-012-000 10:03   
00225 12088-238-009-000 10:06   00226 12088-232-003-000 10:06   
00227 12088-260-011-000 10:06   00228 12088-213-013-000 10:06   
00229 12088-216-010-000 10:06 Y 00230 12088-256-006-000 10:06   
00231 12088-232-004-000 10:06   00232 12088-238-010-000 10:06   
00233 12088-220-007-000 10:06   00234 12088-300-022-000 10:09   
00235 12088-265-010-000 10:09   00236 12088-232-005-000 10:09   
00237 12088-213-014-000 10:09   00238 12088-231-017-000 10:09 Y 
00239 12088-238-011-000 10:09   00240 12088-240-005-000 10:09   
00241 12088-249-005-000 10:12   00242 12088-216-011-000 10:12 Y 
00243 12088-213-015-000 10:12   00244 12088-238-012-000 10:12   
00245 12088-265-011-000 10:12   00246 12088-249-006-000 10:12   
00247 12088-232-006-000 10:12   00248 12088-265-012-000 10:15   
00249 12088-212-010-000 10:15   00250 12088-238-013-000 10:15   
00251 12088-213-016-000 10:15   00252 12088-232-007-000 10:15   
00253 12088-216-012-000 10:15 Y 00254 12088-265-013-000 10:15 Y 
00255 12088-252-009-000 10:15   00256 12088-213-017-000 10:15   
00257 11248-246-030-001 10:15 R 00258 12088-231-018-000 10:15   
00259 12088-265-014-000 10:18 Y 00260 12088-300-024-000 10:18   
00261 12088-254-004-000 10:18   00262 12088-213-018-000 10:18   
00263 12088-238-014-000 10:18   00264 12088-252-010-000 10:18   
00265 12088-252-011-000 10:21   00266 12088-242-013-000 10:21   
00267 12088-300-025-000 10:21   00268 12088-238-015-000 10:21   
00269 12088-218-014-000 10:21   00270 12088-244-019-000 10:21   
00271 12088-247-023-000 10:21   00272 12088-213-019-000 10:24   
00273 12088-238-016-000 10:24   00274 12088-212-011-000 10:24   
00275 12088-265-015-000 10:24   00276 12088-213-020-000 10:24   
00277 12088-238-017-000 10:24   00278 12088-240-006-000 10:27   
00279 12088-232-008-000 10:27   00280 12088-238-018-000 10:27   
00281 12088-257-020-000 10:27   00282 12088-263-004-000 10:30   
00283 12088-242-014-000 10:30   00284 12088-238-019-000 10:30   
00285 12088-247-024-000 10:30   00286 12088-242-015-000 10:33   
00287 12088-238-020-000 10:33   00288 12088-255-009-000 10:33   
00289 12088-244-020-000 10:33   00290 12088-263-005-000 10:33   
00291 12088-238-021-000 10:33   00292 12088-247-025-000 10:33   
00293 12088-252-012-000 10:36   00294 12088-259-018-000 10:36   
00295 12088-263-004-001 10:36   00296 12088-238-022-000 10:36   
00297 12018-249-021-001 10:36 R 00298 12088-249-008-000 10:36   
00299 12088-247-026-000 10:36   00300 12088-243-017-000 10:36   
00301 12088-300-027-000 10:36   00302 12088-238-023-000 10:39   
00303 12088-255-010-000 10:39   00304 12088-215-018-000 10:39 Y 
00305 12088-238-024-000 10:39   00306 12088-252-013-000 10:39   
00307 12088-246-004-000 10:39 Y 00308 12088-237-009-000 10:42   
00309 12018-237-018-002 10:42 R 00310 12088-246-005-000 10:42 Y 
00311 12088-246-006-000 10:42 Y 00312 12088-247-027-000 10:42   
00313 12088-251-001-000 10:42   00314 12088-256-008-000 10:42   
00315 12088-246-007-000 10:42 Y 00316 12088-248-016-000 10:42   
00317 12088-246-008-000 10:45 Y 00318 12088-265-016-000 10:45   
00319 12088-257-021-000 10:45   00320 12088-246-009-000 10:45 Y 
00321 12088-216-014-000 10:45 Y 00322 12088-234-018-000 10:45   
00323 12088-246-010-000 10:45 Y 00324 12088-248-017-000 10:45 Y 
00325 12088-246-011-000 10:45 Y 00326 12088-259-019-000 10:45   
00327 12088-218-017-000 10:45   00328 12088-256-009-000 10:48 Y 
00329 12088-244-021-000 10:48   00330 12088-216-015-000 10:48 Y 
00331 12088-231-022-000 10:48 Y 00332 12088-256-010-000 10:48 Y 
00333 12088-231-023-000 10:48 Y 00334 12088-212-012-000 10:48 Y 
00335 12088-265-017-000 10:51   00336 12088-256-011-000 10:51 Y 
00337 12088-216-016-000 10:51 Y 00338 12088-254-006-000 10:51   
00339 12088-249-010-000 10:51   00340 12088-246-012-000 10:51   
00341 12088-231-024-000 10:51 Y 00342 12088-240-007-000 10:51   
00343 12028-231-047-002 10:51 R 00344 12088-256-012-000 10:51 Y 
00345 12088-262-010-000 10:51 Y 00346 12088-257-022-000 10:51   
00347 12088-260-012-000 10:51   00348 12088-246-013-000 10:54   
00349 12088-216-017-000 10:54 Y 00350 12088-252-015-000 10:54   
00351 12088-254-007-000 10:54   00352 12088-259-020-000 10:54   
00353 12088-252-016-000 10:54   00354 12088-244-022-000 10:54   
00355 12088-300-030-000 10:57   00356 12088-300-031-000 10:57 Y 
00357 12088-246-014-000 10:57   00358 12088-300-032-000 10:57   
00359 12088-239-023-000 10:57   00360 12088-212-013-000 11:00   
00361 12088-300-033-000 11:00   00362 12088-257-023-000 11:00 Y 
00363 12088-246-015-000 11:00   00364 12088-212-014-000 11:00 Y 
00365 12088-259-021-000 11:00   00366 12088-220-009-000 11:00   
00367 12088-246-016-000 11:00   00368 12088-259-022-000 11:03   
00369 12088-262-012-000 11:03   00370 12088-234-019-000 11:03   
00371 12088-259-023-000 11:03   00372 12088-246-017-000 11:03   
00373 12088-300-035-000 11:03   00374 12088-246-018-000 11:06   
00375 12088-262-013-000 11:06 Y 00376 12088-237-011-000 11:06   
00377 12088-259-024-000 11:06   00378 12088-243-020-000 11:06   
00379 12088-213-022-000 11:06 Y 00380 12088-246-019-000 11:09   
00381 12088-262-014-000 11:09 Y 00382 12088-259-025-000 11:09   
00383 12088-246-020-000 11:09   00384 12088-213-023-000 11:09 Y 
00385 12088-215-019-000 11:12   00386 12088-246-021-000 11:12   
00387 12088-249-013-000 11:12   00388 12088-242-018-000 11:12   
00389 12088-237-012-000 11:12   00390 12088-244-024-000 11:15   
00391 12088-246-022-000 11:15   00392 12088-256-015-000 11:15   
00393 12088-246-023-000 11:15   00394 12088-254-008-000 11:15   
00395 12088-245-031-000 11:15   00396 12068-257-002-001 11:18 C 
00397 12088-245-032-000 11:18   00398 12088-240-010-000 11:18   
00399 12088-247-030-000 11:18   00400 12088-300-037-000 11:21   
00401 12088-300-038-000 11:21   00402 12088-237-013-000 11:21   
00403 12088-245-031-001 11:24   00404 12088-300-039-000 11:24   
00405 12088-247-032-000 11:24 Y 00406 12088-262-016-000 11:24 Y 
00407 12088-240-011-000 11:24   00408 12088-300-040-000 11:24   
00409 12088-213-025-000 11:24   00410 12088-247-033-000 11:24 Y 
00411 12088-251-004-000 11:24 Y 00412 12088-237-014-000 11:24   
00413 12088-233-017-000 11:27   00414 12088-247-034-000 11:27 Y 
00415 12088-300-041-000 11:27   00416 12088-239-027-000 11:27   
00417 12088-242-020-000 11:27   00418 12088-247-035-000 11:27 Y 
00419 12088-300-042-000 11:27   00420 12088-247-036-000 11:27 Y 
00421 12088-262-017-000 11:27 Y 00422 12088-300-043-000 11:30   
00423 12088-247-037-000 11:30 Y 00424 12088-300-045-000 11:30   
00425 12088-247-038-000 11:30 Y 00426 12088-300-046-000 11:30   
00427 12088-243-021-000 11:30   00428 12088-247-039-000 11:30 Y 
00429 12088-251-005-000 11:30   00430 12088-244-028-000 11:30   
00431 12088-247-040-000 11:33 Y 00432 12088-300-047-000 11:33   
00433 12088-247-041-000 11:33 Y 00434 12088-239-028-000 11:33   
00435 12088-249-015-000 11:36 Y 00436 12088-215-020-000 11:36   
00437 12088-242-021-000 11:36   00438 12088-256-018-000 11:36   
00439 12088-300-050-000 11:36   00440 12088-249-016-000 11:36 Y 
00441 12088-218-021-000 11:36   00442 12088-245-033-000 11:36   
00443 12088-215-021-000 11:36   00444 12088-260-009-001 11:39 C 
00445 12088-246-024-000 11:39   00446 12088-300-052-000 11:39   
00447 12088-243-022-000 11:39   00448 12088-244-029-000 11:39   
00449 12088-300-053-000 11:39   00450 12088-251-006-000 11:39   
00451 12088-300-054-000 11:42   00452 12088-259-028-000 11:42   
00453 12088-212-019-000 11:42 Y 00454 12088-300-055-000 11:42   
00455 12088-215-020-000 11:42   00456 12088-239-029-000 11:42   
00457 12088-251-007-000 11:42   00458 12088-218-022-000 11:42   
00459 12088-246-025-000 11:42   00460 12088-300-056-000 11:45   
00461 12088-212-020-000 11:45 Y 00462 12088-300-057-000 11:45   
00463 12088-255-023-000 11:45   00464 12088-260-017-000 11:45   
00465 12088-262-018-000 11:45   00466 12088-300-058-000 11:48   
00467 12088-300-059-000 11:48   00468 12088-213-030-000 11:48   
00469 12088-242-022-000 11:48   00470 12088-239-030-000 11:48   
00471 12088-300-060-000 11:48   00472 12088-239-031-000 11:51   
00473 12088-237-015-000 11:51   00474 12088-212-021-000 11:51   
00475 12088-238-027-000 11:54 Y 00476 12088-213-031-000 11:54   
00477 12088-254-010-000 11:54   00478 12088-239-032-000 11:54   
00479 12088-255-024-000 11:54   00480 12088-220-017-000 11:54 Y 
00481 12088-238-028-000 11:54 Y 00482 12088-220-018-000 11:54 Y 
00483 12088-239-030-001 11:54   00484 12088-220-019-000 11:57 Y 
00485 12088-248-024-000 11:57   00486 12088-220-020-000 11:57 Y 
00487 12088-238-029-000 11:57 Y 00488 12088-256-021-000 11:57   
00489 12088-245-036-000 11:57   00490 12018-256-010-001 11:57 R 
00491 12088-256-022-000 12:00 Y 00492 12088-238-030-000 12:00   
00493 12088-243-028-000 12:03 Y 00494 12088-255-025-000 12:03   
00495 12088-215-025-000 12:03   00496 12088-262-020-000 12:03 Y 
00497 12088-243-029-000 12:03 Y 00498 12088-248-025-000 12:06   
00499 12088-243-030-000 12:06 Y 00500 12088-262-021-000 12:06 Y 
00501 12088-215-026-000 12:06   00502 12088-212-022-000 12:06   
00503 12088-237-017-000 12:06   00504 12088-232-016-000 12:06 Y 
00505 12088-242-025-000 12:06   00506 12088-238-031-000 12:06   
00507 12088-262-022-000 12:06 Y 00508 12088-256-023-000 12:09   
00509 12088-236-017-000 12:09   00510 12088-265-020-000 12:09   
00511 12088-220-023-000 12:09   00512 12088-237-018-000 12:09   
00513 12088-262-023-000 12:09 Y 00514 12088-242-026-000 12:12   
00515 12088-239-036-000 12:12   00516 12088-237-019-000 12:12   
00517 12088-262-024-000 12:12 Y 00518 12088-300-063-000 12:12   
00519 12088-231-026-000 12:12   00520 12088-262-025-000 12:12 Y 
00521 12088-216-020-000 12:12   00522 12088-239-037-000 12:15   
00523 12088-237-020-000 12:15 Y 00524 12088-300-064-000 12:15   
00525 12088-262-026-000 12:15 Y 00526 12088-265-021-000 12:15   
00527 12088-262-027-000 12:18 Y 00528 12088-256-024-000 12:18   
00529 12088-246-024-001 12:18   00530 12088-262-028-000 12:18 Y 
00531 12088-237-021-000 12:18   00532 12088-245-038-000 12:21   
00533 12088-300-065-000 12:21   00534 12088-239-038-000 12:21 Y 
00535 12088-248-026-000 12:21   00536 12088-262-029-000 12:21 Y 
00537 12088-237-022-000 12:21   00538 12088-213-034-000 12:21   
00539 12088-238-032-000 12:21   00540 12088-259-037-000 12:21   
00541 12088-262-030-000 12:21 Y 00542 12088-236-018-000 12:24   
00543 12088-300-066-000 12:24   00544 12088-257-024-000 12:24   
00545 12088-262-031-000 12:24 Y 00546 12088-300-067-000 12:24   
00547 12038-251-036-001 12:27 R 00548 12088-260-022-000 12:27   
00549 12088-300-068-000 12:27   00550 12088-246-028-000 12:30 Y 
00551 12048-265-012-001 12:30 R 00552 12088-258-011-000 12:30   
00553 12088-256-025-000 12:30   00554 12088-262-032-000 12:33 Y 
00555 12088-300-069-000 12:33   00556 12088-300-070-000 12:36   
00557 12088-300-071-000 12:39   00558 12088-216-021-000 12:39   
00559 12088-220-025-000 12:39   00560 12088-238-033-000 12:39   
00561 12088-243-032-000 12:39   00562 12088-265-023-000 12:39   
00563 12088-240-017-000 12:42   00564 12088-300-072-000 12:42   
00565 12088-220-026-000 12:42   00566 12088-247-042-000 12:42   
00567 12088-300-073-000 12:42   00568 12088-300-074-000 12:42   
00569 12088-300-076-000 12:45   00570 12088-249-017-000 12:45   
00571 12088-300-077-000 12:45   00572 12088-300-078-000 12:45   
00573 12088-246-029-000 12:45 Y 00574 12088-300-079-000 12:45   
00575 12088-248-029-000 12:48   00576 12088-300-080-000 12:48   
00577 12088-300-081-000 12:48   00578 12088-300-033-001 12:48 C 
00579 12088-243-034-000 12:48 Y 00580 12088-259-039-000 12:48   
00581 12088-300-082-000 12:48   00582 12088-251-011-000 12:48 Y 
00583 12088-252-020-000 12:51 Y 00584 12088-240-018-000 12:51   
00585 12088-247-043-000 12:51   00586 12088-300-084-000 12:51   
00587 12058-256-033-001 12:51 R 00588 12088-260-023-000 12:51   
00589 12088-262-033-000 12:51   00590 12088-300-085-000 12:51   
00591 12088-256-026-000 12:51   00592 12088-247-044-000 12:51   
00593 12088-251-012-000 12:54 Y 00594 12088-300-086-000 12:54   
00595 12088-241-020-000 12:54   00596 12088-300-087-000 12:54   
00597 12088-233-043-000 12:54   00598 12088-246-030-000 12:54   
00599 12088-237-023-000 12:54   00600 12088-300-088-000 12:57   
00601 12088-300-089-000 12:57   00602 12088-248-030-000 12:57   
00603 12088-300-090-000 12:57   00604 12088-300-091-000 13:00   
00605 12088-234-022-000 13:00   00606 12088-300-092-000 13:00   
00607 12088-300-093-000 13:00   00608 12088-234-023-000 13:00   
00609 12088-251-013-000 13:00   00610 12088-300-094-000 13:00   
00611 12088-259-040-000 13:00   00612 12088-256-027-000 13:03   
00613 12088-260-024-000 13:03   00614 12088-252-021-000 13:06   
00615 12088-256-028-000 13:06   00616 12088-258-012-000 13:06   
00617 12088-231-030-000 13:06   00618 12088-213-041-000 13:06   
00619 12088-300-095-000 13:06   00620 12088-262-034-000 13:09   
00621 12088-255-026-000 13:09   00622 12088-213-042-000 13:09   
00623 12088-257-027-000 13:12   00624 11268-240-036-001 13:12 R 
00625 12088-300-096-000 13:12   00626 12088-249-019-000 13:12 Y 
00627 12088-213-043-000 13:18   00628 12088-300-097-000 13:18   
00629 12088-241-021-000 13:18   00630 12088-237-024-000 13:18   
00631 12088-249-020-000 13:18 Y 00632 12088-252-022-000 13:18   
00633 12088-236-021-000 13:18   00634 12088-213-044-000 13:18   
00635 12088-300-098-000 13:18   00636 12088-257-028-000 13:18   
00637 12088-245-055-000 13:18   00638 12088-213-045-000 13:21   
00639 12088-300-099-000 13:21   00640 12088-258-013-000 13:21   
00641 12088-245-056-000 13:21   00642 12088-249-021-000 13:21 Y 
00643 12088-213-046-000 13:21   00644 12088-244-032-000 13:24   
00645 12088-213-047-000 13:24   00646 12088-249-022-000 13:24 Y 
00647 12088-213-048-000 13:27   00648 12088-255-029-000 13:27   
00649 12088-249-023-000 13:27 Y 00650 12088-213-049-000 13:27   
00651 12088-249-024-000 13:30 Y 00652 12088-247-054-000 13:33   
00653 12088-249-025-000 13:33 Y 00654 12088-258-014-000 13:33   
00655 12088-245-058-000 13:33   00656 12088-300-101-000 13:33   
00657 12088-234-026-000 13:33   00658 12088-249-026-000 13:33 Y 
00659 12088-213-050-000 13:36   00660 12088-265-031-000 13:36   
00661 12088-300-102-000 13:36   00662 12088-255-030-000 13:36   
00663 12088-252-024-000 13:36   00664 12088-249-027-000 13:36 Y 
00665 12088-257-030-000 13:39   00666 12088-249-028-000 13:39 Y 
00667 12088-247-055-000 13:39   00668 12088-237-026-000 13:39   
00669 12038-239-068-001 13:39 R 00670 12088-245-060-000 13:45   
00671 12088-249-029-000 13:45 Y 00672 12088-263-013-000 13:45   
00673 12088-243-050-000 13:45   00674 12088-258-015-000 13:45 Y 
00675 12088-300-103-000 13:45   00676 12088-220-027-000 13:45 Y 
00677 12088-243-051-000 13:45 Y 00678 12088-247-056-000 13:48   
00679 12088-256-034-000 13:48   00680 12088-220-028-000 13:48 Y 
00681 12088-243-052-000 13:48 Y 00682 12088-220-029-000 13:48 Y 
00683 12088-220-030-000 13:48 Y 00684 12088-213-052-000 13:51   
00685 12088-243-053-000 13:51 Y 00686 12088-243-054-000 13:54 Y 
00687 12088-252-026-000 13:57   00688 12088-240-019-000 13:57   
00689 12088-257-032-000 14:00   00690 12088-249-031-000 14:00   
00691 12088-244-047-000 14:03   00692 12088-257-033-000 14:03   
00693 12088-243-055-000 14:03   00694 12088-216-022-000 14:03   
00695 12088-244-048-000 14:03   00696 12088-249-032-000 14:06 Y 
00697 12088-256-039-000 14:06   00698 12088-242-029-000 14:06   
00699 12088-242-030-000 14:09   00700 12088-212-023-000 14:12   
00701 12088-242-031-000 14:12   00702 12088-240-021-000 14:15   
00703 12088-252-029-000 14:15 Y 00704 12088-242-032-000 14:15   
00705 12088-252-030-000 14:15 Y 00706 12088-242-033-000 14:15   
00707 12088-252-031-000 14:18 Y 00708 12088-255-033-000 14:18   
00709 12088-252-032-000 14:18 Y 00710 12088-242-034-000 14:18   
00711 12088-233-044-000 14:18   00712 12088-252-033-000 14:18 Y 
00713 12088-252-034-000 14:18 Y 00714 12088-242-035-000 14:21   
00715 12088-248-033-000 14:21   00716 12088-252-035-000 14:21 Y 
00717 12088-243-058-000 14:21 Y 00718 12088-265-037-000 14:21   
00719 12088-242-036-000 14:21   00720 12088-233-045-000 14:21   
00721 12088-300-104-000 14:24   00722 12088-242-037-000 14:24   
00723 12088-300-105-000 14:24   00724 12088-255-034-000 14:24   
00725 12088-257-035-000 14:24   00726 12088-248-034-000 14:24   
00727 12088-216-023-000 14:27   00728 12088-237-032-000 14:27   
00729 12088-243-059-000 14:27   00730 12088-255-035-000 14:27   
00731 12088-300-106-000 14:30   00732 12088-265-038-000 14:30   
00733 12088-242-038-000 14:30   00734 12088-265-039-000 14:30   
00735 12088-260-027-000 14:33   00736 12088-242-039-000 14:33   
00737 12088-233-046-000 14:33   00738 12088-300-108-000 14:33   
00739 12088-265-040-000 14:33   00740 12088-248-036-000 14:36   
00741 12088-246-035-000 14:36   00742 12088-234-033-000 14:36   
00743 12088-257-037-000 14:36   00744 12088-236-026-000 14:42   
00745 12088-241-029-000 14:42   00746 12088-248-037-000 14:42   
00747 12088-242-040-000 14:42   00748 12088-300-111-000 14:42   
00749 12088-300-112-000 14:42   00750 12088-247-062-000 14:42   
00751 12088-256-045-000 14:42   00752 12088-236-027-000 14:42   
00753 12088-255-036-000 14:42   00754 12088-246-037-000 14:42   
00755 12088-242-041-000 14:45   00756 12088-244-032-001 14:45 C 
00757 12088-215-032-000 14:45   00758 12088-252-037-000 14:45   
00759 12088-248-038-000 14:45   00760 12088-239-041-000 14:45   
00761 12088-251-017-000 14:45   00762 12088-231-034-000 14:45   
00763 12088-242-042-000 14:45   00764 12088-249-034-000 14:48   
00765 12088-255-037-000 14:48   00766 12088-300-113-000 14:48   
00767 12088-231-035-000 14:48   00768 12088-242-043-000 14:48   
00769 12088-212-025-000 14:51   00770 12088-231-036-000 14:51   
00771 11248-243-046-002 14:51 R 00772 12088-255-038-000 14:51   
00773 12088-242-044-000 14:51   00774 12088-231-037-000 14:51   
00775 12088-236-028-000 14:54   00776 12088-300-114-000 14:54   
00777 12088-255-039-000 14:54   00778 12088-231-038-000 14:54   
00779 12088-239-043-000 14:54 Y 00780 12088-242-045-000 14:54   
00781 12088-239-044-000 14:54 Y 00782 12088-300-115-000 14:54   
00783 12088-231-039-000 14:54   00784 12088-241-030-000 14:57   
00785 12088-238-041-000 14:57   00786 12088-265-042-000 14:57   
00787 12088-247-063-000 14:57   00788 12088-231-040-000 14:57   
00789 12088-300-116-000 14:57   00790 12088-240-029-000 14:57 Y 
00791 12088-255-040-000 15:00   00792 12088-260-029-000 15:00   
00793 12088-231-041-000 15:00   00794 12088-300-117-000 15:00   
00795 12088-255-041-000 15:00   00796 12088-240-030-000 15:00 Y 
00797 12088-242-046-000 15:00   00798 12088-249-035-000 15:00   
00799 12088-239-045-000 15:00   00800 12088-300-112-001 15:03 C 
00801 12088-262-041-000 15:03   00802 12088-240-031-000 15:03 Y 
00803 12088-300-118-000 15:03   00804 12088-300-119-000 15:03   
00805 12088-238-042-000 15:03   00806 12088-246-039-000 15:03 Y 
00807 12088-265-043-000 15:03   00808 12088-249-036-000 15:03   
00809 12088-240-032-000 15:03 Y 00810 12088-255-042-000 15:06   
00811 12088-300-120-000 15:06 Y 00812 12088-254-032-000 15:06   
00813 12088-300-121-000 15:06   00814 12088-234-034-000 15:06   
00815 12088-241-031-000 15:06   00816 12088-236-029-000 15:06   
00817 12088-300-122-000 15:06 Y 00818 12088-255-043-000 15:09   
00819 12088-258-016-000 15:09 Y 00820 12088-242-047-000 15:12   
00821 12088-255-044-000 15:12   00822 12088-249-037-000 15:12   
00823 12088-236-030-000 15:12 Y 00824 12088-255-045-000 15:15   
00825 12088-265-044-000 15:15   00826 12088-238-045-000 15:15 Y 
00827 12088-236-031-000 15:15 Y 00828 12088-300-121-001 15:15   
00829 12088-236-032-000 15:15 Y 00830 12088-300-123-000 15:18   
00831 12088-234-035-000 15:18   00832 12088-236-033-000 15:18 Y 
00833 12088-236-034-000 15:18 Y 00834 12088-257-039-000 15:18   
00835 12088-236-035-000 15:21 Y 00836 12088-247-065-000 15:21   
00837 12088-260-031-000 15:21   00838 12088-254-037-000 15:21   
00839 12088-251-021-000 15:21   00840 12088-253-001-000 15:21   
00841 12088-300-125-000 15:21   00842 12088-260-032-000 15:21   
00843 12088-236-036-000 15:24   00844 12088-251-022-000 15:24 Y 
00845 12088-245-065-000 15:27   00846 12088-236-037-000 15:27   
00847 12088-234-036-000 15:27   00848 12088-234-037-000 15:30   
00849 12088-241-033-000 15:30   00850 12088-300-126-000 15:30   
00851 12088-246-042-000 15:30   00852 12088-236-038-000 15:33   
00853 12088-239-051-000 15:33 Y 00854 12088-241-034-000 15:33   
00855 12088-260-035-000 15:33   00856 12088-245-066-000 15:33   
00857 12088-218-036-000 15:36   00858 12088-257-041-000 15:36   
00859 12088-251-023-000 15:36   00860 12088-300-115-001 15:36 C 
00861 12088-240-034-000 15:36   00862 12088-236-039-000 15:36 Y 
00863 12088-234-038-000 15:39   00864 12088-242-049-000 15:39   
00865 12088-258-018-000 15:39 Y 00866 12088-244-054-000 15:39   
00867 12088-245-067-000 15:45   00868 12088-246-043-000 15:45   
00869 12088-263-017-000 15:45 Y 00870 12088-240-035-000 15:45   
00871 12088-300-121-002 15:45   00872 12088-253-003-000 15:45   
00873 12088-220-045-000 15:45   00874 12088-231-050-000 15:45   
00875 12088-215-034-000 15:45   00876 12088-249-040-000 15:45   
00877 12088-263-019-000 15:45 Y 00878 12088-231-051-000 15:48   
00879 12088-240-036-000 15:48   00880 12088-211-004-000 15:48   
00881 12088-231-052-000 15:48   00882 12088-252-051-000 15:48   
00883 12088-263-020-000 15:48 Y 00884 12088-231-053-000 15:48   
00885 12088-238-048-000 15:48   00886 12088-241-036-000 15:51   
00887 12088-240-037-000 15:51   00888 12088-254-039-000 15:51   
00889 12088-246-044-000 15:51   00890 12088-211-005-000 15:54 Y 
00891 12088-237-035-000 15:54   00892 12088-241-037-000 15:54   
00893 12088-252-053-000 15:54   00894 12088-218-037-000 15:54   
00895 12088-255-047-000 15:54   00896 12088-241-038-000 15:54   
00897 12088-252-054-000 15:57   00898 12088-253-004-000 15:57   
00899 12088-234-039-000 15:57   00900 12088-211-006-000 15:57   
00901 12088-255-048-000 15:57   00902 12088-251-024-000 16:00   
00903 12088-253-005-000 16:03   00904 12088-218-038-000 16:03   
00905 12088-240-038-000 16:03   00906 12088-246-045-000 16:03   
00907 12088-252-055-000 16:03   00908 12088-246-046-000 16:06 Y 
00909 12088-238-049-000 16:06   00910 12088-262-049-000 16:06   
00911 12088-252-056-000 16:06   00912 12088-220-048-000 16:06 Y 
00913 12088-232-019-000 16:09   00914 12088-240-039-000 16:09   
00915 12088-215-040-000 16:12   00916 12088-257-042-000 16:12   
00917 12088-232-020-000 16:12   00918 12088-236-042-000 16:15   
00919 12088-238-050-000 16:18   00920 12088-215-041-000 16:18   
00921 12088-262-050-000 16:18   00922 12088-257-043-000 16:18   
00923 12088-240-040-000 16:18   00924 12088-236-043-000 16:18   
00925 12088-255-051-000 16:18   00926 12088-218-041-000 16:18   
00927 12088-246-047-000 16:21   00928 12088-233-065-000 16:21   
00929 12088-233-066-000 16:24   00930 12088-262-051-000 16:24   
00931 12088-240-041-000 16:24   00932 12088-236-039-001 16:24 C 
00933 12088-248-047-000 16:27   00934 12088-254-042-000 16:27   
00935 12088-243-069-000 16:27   00936 12088-236-009-001 16:27 C 
00937 12088-248-048-000 16:30   00938 12088-263-024-000 16:30   
00939 12088-253-009-000 16:30 Y 00940 12088-240-042-000 16:33   
00941 12088-248-049-000 16:33   00942 12088-300-101-001 16:33 C 
00943 12088-253-010-000 16:33 Y 00944 12088-255-053-000 16:36   
00945 12088-220-050-000 16:36   00946 12088-218-042-000 16:36   
00947 12088-253-011-000 16:36 Y 00948 12088-237-039-000 16:36   
00949 12088-253-012-000 16:39 Y 00950 12088-233-068-000 16:39   
00951 12088-240-043-000 16:42   00952 12088-246-048-000 16:42   
00953 12088-248-051-000 16:42   00954 12088-251-027-000 16:42   
00955 12088-240-044-000 16:45   00956 12088-253-013-000 16:48   
00957 12088-248-052-000 16:48   00958 12088-248-053-000 16:48   
00959 12088-239-061-000 16:51   00960 12088-262-052-000 16:54   
00961 12088-247-025-001 16:54   00962 12088-246-050-000 16:57   
00963 12088-236-044-000 16:57   00964 12088-248-054-000 17:00   
00965 12088-263-025-000 17:03   00966 12088-254-045-000 17:09   
00967 12088-254-046-000 17:09   00968 12088-237-041-000 17:12   
00969 12088-254-047-000 17:15   00970 12088-246-051-000 17:30   
00971 12088-251-029-000 17:45   00972 12088-237-042-000 17:45   
00973 12088-264-007-000 17:51   00974 12088-254-048-000 17:51   
00975 12088-246-052-000 17:51   00976 12088-264-008-000 17:54   
00977 12088-256-050-000 17:57   00978 12088-256-051-000 18:00   
00979 12088-232-021-000 18:00   00980 12088-264-010-000 18:21   
00981 12088-264-012-000 19:06   00982 12088-264-015-000 19:27   
00983 12088-264-016-000 20:12   00984 12088-264-017-000 20:12   
00985 12088-264-018-000 20:18   00986 12088-264-020-000 21:54   


(P) UPDATE     - 00000
(C) CANCEL     - 00011
(R) RESENT     - 00012
(Y) RENOTIFY   - 00204
(L) LATE RESP  - 00000
(U) UNGRIDDED  - 00000
( ) NORMAL     - 00759
    TOTAL      - 00986


