
From AL811
Audit For 6/6/2013
Output Utiliquest - Atlanta

For ATT/Southern Bell - GA - SBGA01 : SBGA01
For Utiliquest - Atlanta : 

Type  Seq#  Ticket        Status       Codes                         
----  ----  ------------  -----------  ------------------------------
      0001  131570536     Delivered    SBGA01                        
      0002  131571297     Delivered    SBGA01                        

Emergency     : 0
Resend        : 0
Failed        : 0
Total         : 2



Legend
-----------------------
  - Normal
* - Resend
! - Emergency

