
B03002RCV  00213 TNOCS 01/18/11 19:03:00 110181825 NORMAL GRID 

========//  TNOCS LOCATE REQUEST  //========

TICKET NUMBER--[110181825] 
OLD TICKET NUM-[]  

MESSAGE TYPE---[NORMAL] LEAD TIME--[72]
PREPARED-------[01/18/11]  AT  [1903]  BY  [JEFF]

CONTRACTOR--[SUPERIOR TELECOM INC]   CALLER--[BILLY WARD]
ADDRESS-----[PO BOX 308]
CITY--------[SUNBRIGHT]   STATE--[TN]   ZIP--[37872]
CALL BACK---[865 617 2848]   PHONE--[(865) 617-2848]
CONTACT-----[BILLY WARD]   PHONE--[(865) 617-2848]
CONTACT FAX-[]

WORK TO BEGIN--[01/21/11] AT [1915]      STATE--[TN]
COUNTY---[BRADLEY]  PLACE--[CLEVELAND]

ADDRESS--[]   STREET--[][FRONTAGE][RD][NW]
NEAREST INTERSECTION--------[PAUL HUFF PKWY NW]
LATITUDE--[35.2375861025831]    LONGITUDE--[-84.8593639458944]
SECONDARY LATITUDE--[35.2322388483553]    SECONDARY LONGITUDE--[-84.8576386003185]

ADDITIONAL ADDRESSES IN LOCATION--[N]

LOCATION INFORMATION--
[FROM THE INTER GO N APPX 8000FT..START MARKING AT THIS POINT GOING N FOR APPX ]
[2000FT ON BOTH SIDES OF THE RD...THIS IS MARKING THE AREAS AS INDICATED WITH  ]
[WHITE PAINT & FLAGS...                                                        ]

WORK TYPE--[ANCHOR(S), INSTL]  DONE FOR--[VOLUNTEER ENERGY]
EXTENT-----[6MI; 31,680FT]

EXPLOSIVES--[N]    WHITE PAINT--[Y]    GRID GIVEN--[N]

MAP REF.--[]
GRIDS-----
          [27H              ] [27I              ] 

UTILITIES NOTIFIED--
  CODE       NAME                         CODE       NAME                      
  ---------- --------------------------   ---------- --------------------------
  B02        ATT/D-CHATT (334)272-4129    CNG        CLEVELAND NATURAL GAS (...
  CP3        COLONIAL PIPELINE - RIN...   CWS        CLEVELAND UTIL WATER & ...
  ET5        EAST TENNESSEE NATURAL ...

