
KORTERRA AUDIT UTILIQUEST_WV-SMTP-1 *EOD AUDIT* FOR TICKETS SENT ON 2/23/2012

Ticket Number			Seq #
---------------------------------------------------------
WV1205417605PEB			1
WV1205417611PEB			2
WV1205417619PE			3
WV1205417625PEB			4
WV1205417630PEB			5
WV1205417647PEB			6
WV1205417649PEB			7
WV1205417665PEB			8
WV1205417675PE			9
WV1205417691PEB			10
WV1205417688PEB			11
WV1205417698PEB			12
WV1205417709PEB			13
WV1205417718PE			14
WV1205417716PEB			15
WV1205417723PE			16
WV1205417731PEB			17
WV1205417754PEB			18
WV1205417755PEB			19
WV1205417765PE			20
WV1205417768PE			21
WV1205417776PEB			22
WV1205417778PEB			23
WV1205417780PEB			24
WV1205417783PE			25
WV1205417810PE			26
WV1205417812PE			27
WV1205417830PEB			28
WV1205417829PEB			29
WV1205417832PEB			30
WV1205417833PE			31
WV1205417834PEB			32
WV1205417855PEB			33
WV1205417856PEB			34
WV1205417858PEB			35
WV1205417857PEB			36
WV1205417859PEB			37
WV1205417861PEB			38
WV1205417863PEB			39
WV1205417862PEB			40
WV1205417866PEB			41
WV1205417864PEB			42
WV1205417865PEB			43
WV1205417867PEB			44
WV1205417873PEB			45
WV1205417874PEB			46
WV1205417875PEB			47
WV1205417876PEB			48
WV1205417877PEB			49
WV1205417878PEB			50
WV1205417879PEB			51
WV1205417880PEB			52
WV1205417881PEB			53
WV1205417882PEB			54
WV1205417883PEB			55
WV1205417884PEB			56


Total Sent = 56

End Of Report

-----------------------------------------
The information contained in this message is intended only for the
personal and confidential use of the recipient(s) named above. If
the reader of this message is not the intended recipient or an
agent responsible for delivering it to the intended recipient, you
are hereby notified that you have received this document in error
and that any review, dissemination, distribution, or copying of
this message is strictly prohibited. If you have received this
communication in error, please notify us immediately, and delete
the original message.