
PACBEL 01564 USAN 10/04/12 13:21:40 0372361 NORMAL NOTICE 

Message Number: 0372361 Received by USAN at 13:19 on 10/04/12 by BMC

Work Begins:    10/09/12 at 13:30   Notice: 020 hrs      Priority: 2
Night Work: N    Weekend Work: N

Expires: 11/01/12 at 23:59   Update By: 10/30/12 at 16:59

Caller:         RUBEN BORJAS             
Company:        CITY OF SAN LUIS OBISPO            
Address:        25 PRADO RD                             
City:           SAN LUIS OBISPO               State: CA Zip: 93405
Business Tel:   805-781-7054                  Fax:                             
Email Address:                                                              

Nature of Work: DIG FOR SI/WLK REPL                     
Done for:       SAME                          Explosives: N
Foreman:        CALLER                   
Field Tel:                                    Cell Tel: 805-781-7054           
Area Premarked: Y   Premark Method: WHITE PAINT                                
Permit Type:    NO                            
Vac / Pwr Equip Use In The Approx Location Of Member Facilities Requested: N
Excavation Enters Into Street Or Sidewalk Area: Y

Location: 
Street Address:         1210 OCEANAIRE DR
  Cross Street:         GALLEON WAY

    WRK IN FRT/O PROP AT ADDR 

Place: SAN LUIS OBISPO              County: SAN LUIS OBISPO      State: CA

Long/Lat Long: -120.694754 Lat:  35.259182 Long: -120.68817  Lat:  35.264846 


Sent to:
ATTCAL = AT&T TRANSMISSION CAL        CHASLO = CHARTER COMM SLO             
CTYSLO = CITY SAN LUIS OBISPO         LEVCAL = LEVEL 3 COMM - CALIF         
MCIWSA = MCI WORLDCOM                 PACBEL = PACIFIC BELL                 
PGESLO = PGE DISTR SAN LUIS OBISP     P66SLO = PHILLIPS 66 - SAN LUIS O     
SPTTEL = QWEST COMM (CA)              SLOUSD = SLO UNIFIED SCH DIST         
SCGSLO = SO CAL GAS SAN LUIS OBIS     SPRINT = SPRINT                       





At&t Ticket Id: 25652785   clli code: SNLOCA01   OCC Tkt No: 0372361-000
PACBEL: CONDUIT