"Ticket Number","Sequence Number"," Transmit Date","KeyMap Page","KeyMap Grid"," Type","House Number","Street Name","Company","Intersecting Street","Description","Type of Work","Extent of Work","Remarks","Contact Name","Contact Phone","Alternate Contact Name","Alternate Contact Phone","Retransmitted","Update of Ticket","Update By","Original Call Date","Begin Work Date","Place","State","County","Work Being Done For","Facility Code","Transaction Date","Transaction Remarks","Transaction Status Code","Workflow Status","User ID","Last Name","First Name"
"30382529","1405","10/29/2008 4:21:00 PM","489","T","NOTI","      ","HAYES","HUFF AND MITCHELL INC","WESTHEIMER","REPAIR","REPAIR OF STORM SEWER MAIN","MARK ENTIRE FRONT EASEMENT  ENTIRE ROAD RIGHT OF WAY ON BOTH  SIDES OF ROAD OF HAYES GOING N FROM WESTHEIMER 200FT PASS BRIAR FOREST TO  INCLUDE 200FT RADIUS OF BOTH INTERSECTION WITH HAYES.","none","GABINO NAVARRO","281-304-9100   ","PABLO/CELL","832-473-3385","ORIGINAL","","","10/29/2008 4:10:00 PM","10/31/2008 4:15:00 PM","HOUSTON CITY","TX","HARRIS","CITY OF HOUSTON","GAS_SERV","10/31/2008 2:25:49 PM","per gabino navoarro this work is to start next week around tuesday or wed. 281-995-1750","IN PROG","499","00914715","Corl","Randall "
"30382529","1405","10/29/2008 4:21:00 PM","489","T","NOTI","      ","HAYES","HUFF AND MITCHELL INC","WESTHEIMER","REPAIR","REPAIR OF STORM SEWER MAIN","MARK ENTIRE FRONT EASEMENT  ENTIRE ROAD RIGHT OF WAY ON BOTH  SIDES OF ROAD OF HAYES GOING N FROM WESTHEIMER 200FT PASS BRIAR FOREST TO  INCLUDE 200FT RADIUS OF BOTH INTERSECTION WITH HAYES.","none","GABINO NAVARRO","281-304-9100   ","PABLO/CELL","832-473-3385","ORIGINAL","","","10/29/2008 4:10:00 PM","10/31/2008 4:15:00 PM","HOUSTON CITY","TX","HARRIS","CITY OF HOUSTON","GAS_MAIN","10/31/2008 2:25:53 PM","","IN PROG","499","00914715","Corl","Randall "
"30382529","1405","10/29/2008 4:21:00 PM","489","T","NOTI","      ","HAYES","HUFF AND MITCHELL INC","WESTHEIMER","REPAIR","REPAIR OF STORM SEWER MAIN","MARK ENTIRE FRONT EASEMENT  ENTIRE ROAD RIGHT OF WAY ON BOTH  SIDES OF ROAD OF HAYES GOING N FROM WESTHEIMER 200FT PASS BRIAR FOREST TO  INCLUDE 200FT RADIUS OF BOTH INTERSECTION WITH HAYES.","none","GABINO NAVARRO","281-304-9100   ","PABLO/CELL","832-473-3385","ORIGINAL","","","10/29/2008 4:10:00 PM","10/31/2008 4:15:00 PM","HOUSTON CITY","TX","HARRIS","CITY OF HOUSTON","IGSC","10/31/2008 2:25:53 PM","","IN PROG","499","00914715","Corl","Randall "
"30382529","1405","10/29/2008 4:21:00 PM","489","T","NOTI","      ","HAYES","HUFF AND MITCHELL INC","WESTHEIMER","REPAIR","REPAIR OF STORM SEWER MAIN","MARK ENTIRE FRONT EASEMENT  ENTIRE ROAD RIGHT OF WAY ON BOTH  SIDES OF ROAD OF HAYES GOING N FROM WESTHEIMER 200FT PASS BRIAR FOREST TO  INCLUDE 200FT RADIUS OF BOTH INTERSECTION WITH HAYES.","none","GABINO NAVARRO","281-304-9100   ","PABLO/CELL","832-473-3385","ORIGINAL","","","10/29/2008 4:10:00 PM","10/31/2008 4:15:00 PM","HOUSTON CITY","TX","HARRIS","CITY OF HOUSTON","ELEC_3PH","10/31/2008 2:25:54 PM","","IN PROG","499","00914715","Corl","Randall "
"30382529","1405","10/29/2008 4:21:00 PM","489","T","NOTI","      ","HAYES","HUFF AND MITCHELL INC","WESTHEIMER","REPAIR","REPAIR OF STORM SEWER MAIN","MARK ENTIRE FRONT EASEMENT  ENTIRE ROAD RIGHT OF WAY ON BOTH  SIDES OF ROAD OF HAYES GOING N FROM WESTHEIMER 200FT PASS BRIAR FOREST TO  INCLUDE 200FT RADIUS OF BOTH INTERSECTION WITH HAYES.","none","GABINO NAVARRO","281-304-9100   ","PABLO/CELL","832-473-3385","ORIGINAL","","","10/29/2008 4:10:00 PM","10/31/2008 4:15:00 PM","HOUSTON CITY","TX","HARRIS","CITY OF HOUSTON","ELEC_URD","10/31/2008 2:25:54 PM","","IN PROG","499","00914715","Corl","Randall "
"30382529","1405","10/29/2008 4:21:00 PM","489","T","NOTI","      ","HAYES","HUFF AND MITCHELL INC","WESTHEIMER","REPAIR","REPAIR OF STORM SEWER MAIN","MARK ENTIRE FRONT EASEMENT  ENTIRE ROAD RIGHT OF WAY ON BOTH  SIDES OF ROAD OF HAYES GOING N FROM WESTHEIMER 200FT PASS BRIAR FOREST TO  INCLUDE 200FT RADIUS OF BOTH INTERSECTION WITH HAYES.","none","GABINO NAVARRO","281-304-9100   ","PABLO/CELL","832-473-3385","ORIGINAL","","","10/29/2008 4:10:00 PM","10/31/2008 4:15:00 PM","HOUSTON CITY","TX","HARRIS","CITY OF HOUSTON","ELEC_S/L","10/31/2008 2:25:56 PM","","IN PROG","499","00914715","Corl","Randall "
