{"table_data":[{"tname":"row","SyncDateTime":"2014-05-22T18:17:38.923"},
{"tname":"users","uid":8000,"emp_id":7072,"login_id":"04300","chg_pwd":false,"active_ind":true,"can_view_notes":false,"can_view_history":false,"chg_pwd_date":"2014-07-15T00:00:00.000"},
{"tname":"open_locate","ticket_id":1218,"locate_id":21380,"status":"-R"},
{"tname":"open_locate","ticket_id":1218,"locate_id":21381,"status":"-R"},
{"tname":"open_locate","ticket_id":1220,"locate_id":21395,"status":"-R"},
{"tname":"open_locate","ticket_id":1220,"locate_id":21396,"status":"-R"},
{"tname":"open_locate","ticket_id":1220,"locate_id":21399,"status":"-R"},
{"tname":"open_locate","ticket_id":1221,"locate_id":21404,"status":"-R"},
{"tname":"open_locate","ticket_id":1221,"locate_id":21405,"status":"-R"},
{"tname":"open_locate","ticket_id":1221,"locate_id":21407,"status":"-R"},
{"tname":"open_locate","ticket_id":1218,"locate_id":25505,"status":"-R"},
{"tname":"ticket","ticket_id":1218,"ticket_number":"20100201081","parsed_ok":true,"ticket_format":"7501","kind":"NORMAL","map_page":"","revision":"","transmit_date":"2010-01-20T13:03:51.000","due_date":"2010-01-25T23:59:59.000","work_description":"WORKING AT 900, 902, 903, 904, 909 AND 919 CHESTNUT ST, BTWN WOODLAWN AVE AND GIRARD AVE.","work_state":"PA","work_county":"DELAWARE","work_city":"COLLINGDALE BORO","work_address_number":"","work_address_number_2":"","work_address_street":"CHESTNUT ST","work_cross":"WOODLAWN AVE","work_subdivision":"","work_type":"CURB BOX REHABILITATION","work_date":"2010-01-25T08:00:00.000","work_notc":"","work_remarks":"","priority":"","respond_date":"2010-01-22T00:00:00.000","duration":"","company":"AQUA PA","con_type":"","con_name":"J FLETCHER CREAMER SON","con_address":"101 E BROADWAY","con_city":"HACKENSACK","con_state":"NJ","con_zip":"07601","call_date":"2010-01-20T13:03:00.000","caller":"AL HEIMBACH","caller_contact":"AL HEIMBACH","caller_phone":"610-690-0301","caller_cellular":"","caller_fax":"610-690-0302","caller_altcontact":"","caller_altphone":"610-690-0301","caller_email":"none","operator":"JODI HORN","channel":"","work_lat":"39.915586","work_long":"-75.284162","image":"KE     00039 POCS 01\/20\/10 13:03:51 20100201081-000 NEW  XCAV RTN\n\n============PENNSYLVANIA UNDERGROUND UTILITY LINE PROTECTION REQUEST============\n\nSerial Number--[20100201081]-[000] Channel#--[1300026][0212]\n\nMessage Type--[NEW][EXCAVATION][ROUTINE]\n\nCounty--[DELAWARE]        Municipality--[COLLINGDALE BORO]\nWork Site--[CHESTNUT ST]\n     Nearest Intersection--[WOODLAWN AVE]\n     Second Intersection--[GIRARD AVE]\n     Subdivision--[]                              Site Marked in White--[Y]\nLocation Information--\n     [WORKING AT 900, 902, 903, 904, 909 AND 919 CHESTNUT ST, BTWN WOODLAWN AVE\n      AND GIRARD AVE.]\n     Caller Lat\/Lon--[]\nMapped Type--[P] Mapped Lat\/Lon--\n     [39.915281\/-75.284862,39.915997\/-75.283631,39.915860\/-75.283522,\n      39.915175\/-75.284772]\n     Map Graphic--[http:\/\/www.pa1call.org\/ViewMap\/view.aspx?sn=20100201081]\n\nType of Work--[CURB BOX REHABILITATION]                      Depth--[5FT]\nExtent of Excavation--[3FT X 3FT]       Method of Excavation--[HAND]\nStreet--[ ] Sidewalk--[X] Pub Prop--[ ] Pvt Prop--[ ] Other--[]\n\n              Lawful Start Dates--[25-Jan-10] Through [03-Feb-10]\n   Scheduled Excavation Date--[25-Jan-10] Dig Time--[0800] Duration--[3 DAYS]\n                         Response Due Date--[22-Jan-10]\n\nCaller--[AL HEIMBACH]                      Phone--[610-690-0301] Ext--[]\nExcavator--[J FLETCHER CREAMER SON]         Homeowner\/Business--[B]\nAddress--[101 E BROADWAY]\nCity--[HACKENSACK]                   State--[NJ] Zip--[07601]\nFAX--[610-690-0302]  Email--[none]\nWork Being Done For--[AQUA PA]\n\nPerson to Contact--[AL HEIMBACH]               Phone--[610-690-0301] Ext--[]\nBest Time to Call--[ANYTIME]\n\nPrepared--[20-Jan-10] at [1303] by [JODI HORN]\n\nJob Number--[09-7568]\nRemarks--\n     []\n\nATM0  ATM=AT&T ATLANTA     CDB0  CDB=COLLINGDLE BORO  HT 0  HT =AQUA PA INC    \nJQ10  JQ1=DARBY CREEK JA   JY 0  JY =COMCAST CABLE W  KE 0  KE =PECO MRTN      \nYI 0  YI =VERIZON HRSM\n\nSerial Number--[20100201081]-[000]\n\n========== Copyright (c) 2010 by Pennsylvania One Call System, Inc. ==========","modified_date":"2014-05-22T15:34:49.830","active":true,"ticket_type":"NEW XCAV RTN","legal_due_date":"2010-01-25T23:59:59.000","route_area_id":12635,"watch_and_protect":false,"explosives":"N","serial_number":"20100201081","map_ref":"","recv_manager_id":7013,"route_area_name":"750.DELAWARE.COLLINGDALE BORO"},
{"tname":"ticket","ticket_id":1220,"ticket_number":"20100201086","parsed_ok":true,"ticket_format":"7501","kind":"NORMAL","map_page":"","revision":"","transmit_date":"2010-01-20T13:05:07.000","due_date":"2010-01-25T23:59:59.000","work_description":"MARK OUT ON WALNUT ST SIDE OF PROPERTY, THE SITE IS AT THE COR OF THE INTER.","work_state":"PA","work_county":"DELAWARE","work_city":"COLWYN BORO","work_address_number":"","work_address_number_2":"","work_address_street":"118 S 4TH ST","work_cross":"WALNUT ST","work_subdivision":"","work_type":"REPAIR WTR SVC","work_date":"2010-01-25T08:00:00.000","work_notc":"","work_remarks":"******=== UPDATE 20093640967-000 --1\/20\/2010 1304 JC2 12===******\n      UPDATE REQUESTED BY: DIANE S\n      REASON FOR UPDATE: WORK NOT STARTED\n      REMARK LINES.","priority":"","respond_date":"2010-01-22T00:00:00.000","duration":"","company":"AQUA ","con_type":"","con_name":"AQUA AMERICA","con_address":"700 W SPROUL RD","con_city":"SPRINGFIELD","con_state":"PA","con_zip":"19064","call_date":"2010-01-20T13:04:00.000","caller":"DIANE SWEIGARD","caller_contact":"DIANE SWEIGARD","caller_phone":"610-328-5065","caller_cellular":"","caller_fax":"610-328-4065","caller_altcontact":"","caller_altphone":"610-328-5065","caller_email":"dsweigard@aquaamerica.com","operator":"JACKIE COLCLASER","channel":"","work_lat":"39.915034","work_long":"-75.253321","image":"JY     00032 POCS 01\/20\/10 13:05:07 20100201086-000 UPDT XCAV RTN\n\n============PENNSYLVANIA UNDERGROUND UTILITY LINE PROTECTION REQUEST============\n\nSerial Number--[20100201086]-[000] Channel#--[1304012][0046]\n\nMessage Type--[UPDATE][EXCAVATION][ROUTINE]\n\nCounty--[DELAWARE]        Municipality--[COLWYN BORO]\nWork Site--[118 S 4TH ST]\n     Nearest Intersection--[WALNUT ST]\n     Second Intersection--[]\n     Subdivision--[]                              Site Marked in White--[N]\nLocation Information--\n     [MARK OUT ON WALNUT ST SIDE OF PROPERTY, THE SITE IS AT THE COR OF THE\n      INTER.]\n     Caller Lat\/Lon--[]\nMapped Type--[P] Mapped Lat\/Lon--\n     [39.915356\/-75.253610,39.914854\/-75.253759,39.914709\/-75.252995,\n      39.915197\/-75.252866]\n     Map Graphic--[http:\/\/www.pa1call.org\/ViewMap\/view.aspx?sn=20100201086]\n\nType of Work--[REPAIR WTR SVC]                               Depth--[6FT]\nExtent of Excavation--[]                Method of Excavation--[BH]\nStreet--[X] Sidewalk--[X] Pub Prop--[ ] Pvt Prop--[ ] Other--[]\n\n              Lawful Start Dates--[25-Jan-10] Through [03-Feb-10]\n   Scheduled Excavation Date--[25-Jan-10] Dig Time--[0800] Duration--[3 DAYS]\n                         Response Due Date--[22-Jan-10]\n\nCaller--[DIANE SWEIGARD]                   Phone--[610-328-5065] Ext--[]\nExcavator--[AQUA AMERICA]                   Homeowner\/Business--[B]\nAddress--[700 W SPROUL RD]\nCity--[SPRINGFIELD]                  State--[PA] Zip--[19064]\nFAX--[610-328-4065]  Email--[dsweigard@aquaamerica.com]\nWork Being Done For--[AQUA ]\n\nPerson to Contact--[DIANE SWEIGARD]            Phone--[610-328-5065] Ext--[]\nBest Time to Call--[0730-1600]\n\nPrepared--[20-Jan-10] at [1304] by [JACKIE COLCLASER]\n\nRemarks--\n     [******=== UPDATE 20093640967-000 --1\/20\/2010 1304 JC2 12===******\n      UPDATE REQUESTED BY: DIANE S\n      REASON FOR UPDATE: WORK NOT STARTED\n      REMARK LINES.]\n\nATM0  ATM=AT&T ATLANTA     HT 0  HT =AQUA PA INC      JQ10  JQ1=DARBY CREEK JA \nJY 0  JY =COMCAST CABLE W  KE 0  KE =PECO MRTN        QS 0  QS =QWEST          \nYI 0  YI =VERIZON HRSM\n\nSerial Number--[20100201086]-[000]\n\n========== Copyright (c) 2010 by Pennsylvania One Call System, Inc. ==========","modified_date":"2014-05-22T15:34:50.083","active":true,"ticket_type":"UPDT XCAV RTN","legal_due_date":"2010-01-25T23:59:59.000","route_area_id":12636,"watch_and_protect":false,"explosives":"N","serial_number":"20100201086","map_ref":"","recv_manager_id":7013,"route_area_name":"750.DELAWARE.COLWYN BORO"},
{"tname":"ticket","ticket_id":1221,"ticket_number":"20100201085","parsed_ok":true,"ticket_format":"7501","kind":"NORMAL","map_page":"","revision":"","transmit_date":"2010-01-20T13:05:07.000","due_date":"2010-01-25T23:59:59.000","work_description":"MARK OUT ON WALNUT ST SIDE OF PROPERTY, THE SITE IS AT THE COR OF THE INTER.","work_state":"PA","work_county":"DELAWARE","work_city":"DARBY BORO","work_address_number":"","work_address_number_2":"","work_address_street":"118 S 4TH ST","work_cross":"WALNUT ST","work_subdivision":"","work_type":"REPAIR WTR SVC","work_date":"2010-01-25T08:00:00.000","work_notc":"","work_remarks":"******=== UPDATE 20093640966-000 --1\/20\/2010 1304 JC2 12===******\n      UPDATE REQUESTED BY: DIANE S\n      REASON FOR UPDATE: WORK NOT STARTED\n      REMARK LINES.","priority":"","respond_date":"2010-01-22T00:00:00.000","duration":"","company":"AQUA ","con_type":"","con_name":"AQUA AMERICA","con_address":"700 W SPROUL RD","con_city":"SPRINGFIELD","con_state":"PA","con_zip":"19064","call_date":"2010-01-20T13:04:00.000","caller":"DIANE SWEIGARD","caller_contact":"DIANE SWEIGARD","caller_phone":"610-328-5065","caller_cellular":"","caller_fax":"610-328-4065","caller_altcontact":"","caller_altphone":"610-328-5065","caller_email":"dsweigard@aquaamerica.com","operator":"JACKIE COLCLASER","channel":"","work_lat":"39.915034","work_long":"-75.253321","image":"JY     00031 POCS 01\/20\/10 13:05:06 20100201085-000 UPDT XCAV RTN\n\n============PENNSYLVANIA UNDERGROUND UTILITY LINE PROTECTION REQUEST============\n\nSerial Number--[20100201085]-[000] Channel#--[1304012][0046]\n\nMessage Type--[UPDATE][EXCAVATION][ROUTINE]\n\nCounty--[DELAWARE]        Municipality--[DARBY BORO]\nWork Site--[118 S 4TH ST]\n     Nearest Intersection--[WALNUT ST]\n     Second Intersection--[]\n     Subdivision--[]                              Site Marked in White--[N]\nLocation Information--\n     [MARK OUT ON WALNUT ST SIDE OF PROPERTY, THE SITE IS AT THE COR OF THE\n      INTER.]\n     Caller Lat\/Lon--[]\nMapped Type--[P] Mapped Lat\/Lon--\n     [39.915356\/-75.253610,39.914854\/-75.253759,39.914709\/-75.252995,\n      39.915197\/-75.252866]\n     Map Graphic--[http:\/\/www.pa1call.org\/ViewMap\/view.aspx?sn=20100201085]\n\nType of Work--[REPAIR WTR SVC]                               Depth--[6FT]\nExtent of Excavation--[]                Method of Excavation--[BH]\nStreet--[X] Sidewalk--[X] Pub Prop--[ ] Pvt Prop--[ ] Other--[]\n\n              Lawful Start Dates--[25-Jan-10] Through [03-Feb-10]\n   Scheduled Excavation Date--[25-Jan-10] Dig Time--[0800] Duration--[3 DAYS]\n                         Response Due Date--[22-Jan-10]\n\nCaller--[DIANE SWEIGARD]                   Phone--[610-328-5065] Ext--[]\nExcavator--[AQUA AMERICA]                   Homeowner\/Business--[B]\nAddress--[700 W SPROUL RD]\nCity--[SPRINGFIELD]                  State--[PA] Zip--[19064]\nFAX--[610-328-4065]  Email--[dsweigard@aquaamerica.com]\nWork Being Done For--[AQUA ]\n\nPerson to Contact--[DIANE SWEIGARD]            Phone--[610-328-5065] Ext--[]\nBest Time to Call--[0730-1600]\n\nPrepared--[20-Jan-10] at [1304] by [JACKIE COLCLASER]\n\nRemarks--\n     [******=== UPDATE 20093640966-000 --1\/20\/2010 1304 JC2 12===******\n      UPDATE REQUESTED BY: DIANE S\n      REASON FOR UPDATE: WORK NOT STARTED\n      REMARK LINES.]\n\nATM0  ATM=AT&T ATLANTA     DRB0  DRB=DARBY BOROUGH    HT 0  HT =AQUA PA INC    \nJQ10  JQ1=DARBY CREEK JA   JY 0  JY =COMCAST CABLE W  KE 0  KE =PECO MRTN      \nYI 0  YI =VERIZON HRSM\n\nSerial Number--[20100201085]-[000]\n\n========== Copyright (c) 2010 by Pennsylvania One Call System, Inc. ==========","modified_date":"2014-05-22T15:34:50.290","active":true,"ticket_type":"UPDT XCAV RTN","legal_due_date":"2010-01-25T23:59:59.000","route_area_id":12639,"watch_and_protect":false,"explosives":"N","serial_number":"20100201085","map_ref":"","recv_manager_id":7013,"route_area_name":"750.DELAWARE.DARBY BORO"},
{"tname":"locate","locate_id":21380,"ticket_id":1218,"client_code":"JY","client_id":3689,"status":"-R","high_profile":false,"closed":false,"closed_how":"","modified_date":"2014-05-22T15:27:18.427","active":true,"invoiced":false,"assigned_to":7072,"added_by":"PARSER","watch_and_protect":false,"assigned_to_id":7072,"locator_id":7072},
{"tname":"locate","locate_id":21381,"ticket_id":1218,"client_code":"KE","client_id":2527,"status":"-R","high_profile":false,"closed":false,"closed_how":"","modified_date":"2014-05-22T15:27:18.450","active":true,"invoiced":false,"assigned_to":7072,"added_by":"PARSER","watch_and_protect":false,"assigned_to_id":7072,"locator_id":7072},
{"tname":"locate","locate_id":21383,"ticket_id":1218,"client_code":"KEG","client_id":2535,"status":"M","high_profile":true,"qty_marked":1,"closed":true,"closed_by_id":5821,"closed_how":"Ticket Man","closed_date":"2014-05-22T18:16:13.000","modified_date":"2014-05-22T18:16:14.550","active":true,"invoiced":false,"added_by":"PARSER","watch_and_protect":false,"high_profile_reason":585,"assigned_to_id":7072,"mark_type":"NEW MARK","locator_id":7072,"entry_date":"2014-05-22T18:16:13.000","status_changed_by_id":5821},
{"tname":"locate","locate_id":25505,"ticket_id":1218,"client_code":"CS","client_id":3682,"status":"-R","high_profile":false,"qty_marked":1,"closed":false,"closed_by_id":5821,"closed_how":"Ticket Man","closed_date":"2014-05-22T18:16:12.000","modified_date":"2014-05-22T18:16:13.897","active":true,"invoiced":false,"assigned_to":7072,"added_by":"5821","watch_and_protect":false,"high_profile_reason":0,"assigned_to_id":7072,"mark_type":"","locator_id":7072,"entry_date":"2014-05-22T18:16:12.000","status_changed_by_id":5821},
{"tname":"locate","locate_id":21395,"ticket_id":1220,"client_code":"JY","client_id":3689,"status":"-R","high_profile":false,"closed":false,"closed_how":"","modified_date":"2014-05-22T15:27:18.650","active":true,"invoiced":false,"assigned_to":7072,"added_by":"PARSER","watch_and_protect":false,"assigned_to_id":7072,"locator_id":7072},
{"tname":"locate","locate_id":21396,"ticket_id":1220,"client_code":"KE","client_id":2527,"status":"-R","high_profile":false,"closed":false,"closed_how":"","modified_date":"2014-05-22T15:27:18.670","active":true,"invoiced":false,"assigned_to":7072,"added_by":"PARSER","watch_and_protect":false,"assigned_to_id":7072,"locator_id":7072},
{"tname":"locate","locate_id":21399,"ticket_id":1220,"client_code":"KEG","client_id":2535,"status":"-R","high_profile":false,"closed":false,"closed_how":"","modified_date":"2014-05-22T15:27:18.697","active":true,"invoiced":false,"assigned_to":7072,"added_by":"PARSER","watch_and_protect":false,"assigned_to_id":7072,"locator_id":7072},
{"tname":"locate","locate_id":21404,"ticket_id":1221,"client_code":"JY","client_id":3689,"status":"-R","high_profile":false,"closed":false,"closed_how":"","modified_date":"2014-05-22T15:27:18.777","active":true,"invoiced":false,"assigned_to":7072,"added_by":"PARSER","watch_and_protect":false,"assigned_to_id":7072,"locator_id":7072},
{"tname":"locate","locate_id":21405,"ticket_id":1221,"client_code":"KE","client_id":2527,"status":"-R","high_profile":false,"closed":false,"closed_how":"","modified_date":"2014-05-22T15:27:18.797","active":true,"invoiced":false,"assigned_to":7072,"added_by":"PARSER","watch_and_protect":false,"assigned_to_id":7072,"locator_id":7072},
{"tname":"locate","locate_id":21407,"ticket_id":1221,"client_code":"KEG","client_id":2535,"status":"-R","high_profile":false,"closed":false,"closed_how":"","modified_date":"2014-05-22T15:27:18.823","active":true,"invoiced":false,"assigned_to":7072,"added_by":"PARSER","watch_and_protect":false,"assigned_to_id":7072,"locator_id":7072},
{"tname":"ticket_version","ticket_version_id":8254,"ticket_id":1218,"ticket_revision":"","ticket_number":"20100201081","ticket_type":"NEW XCAV RTN","transmit_date":"2010-01-20T13:03:51.000","processed_date":"2014-05-22T15:22:28.000","serial_number":"20100201081","arrival_date":"2014-05-22T15:22:26.000","filename":"7501-2010-01-20-00458.txt","ticket_format":"7501","source":"7501"},
{"tname":"ticket_version","ticket_version_id":8255,"ticket_id":1218,"ticket_revision":"","ticket_number":"20100201081","ticket_type":"NEW XCAV RTN","transmit_date":"2010-01-20T13:03:51.000","processed_date":"2014-05-22T15:22:28.000","serial_number":"20100201081","arrival_date":"2014-05-22T15:22:26.000","filename":"7501-2010-01-20-00459.txt","ticket_format":"7501","source":"7501"},
{"tname":"ticket_version","ticket_version_id":9067,"ticket_id":1218,"ticket_revision":"","ticket_number":"20100201081","ticket_type":"NEW XCAV RTN","transmit_date":"2010-01-20T13:03:51.000","processed_date":"2014-05-22T15:34:49.000","serial_number":"20100201081","arrival_date":"2014-05-22T15:34:48.000","filename":"7501-2010-01-20-00458.txt","ticket_format":"7501","source":"7501"},
{"tname":"ticket_version","ticket_version_id":9068,"ticket_id":1218,"ticket_revision":"","ticket_number":"20100201081","ticket_type":"NEW XCAV RTN","transmit_date":"2010-01-20T13:03:51.000","processed_date":"2014-05-22T15:34:49.000","serial_number":"20100201081","arrival_date":"2014-05-22T15:34:48.000","filename":"7501-2010-01-20-00459.txt","ticket_format":"7501","source":"7501"},
{"tname":"ticket_version","ticket_version_id":8257,"ticket_id":1220,"ticket_revision":"","ticket_number":"20100201086","ticket_type":"UPDT XCAV RTN","transmit_date":"2010-01-20T13:05:07.000","processed_date":"2014-05-22T15:22:28.000","serial_number":"20100201086","arrival_date":"2014-05-22T15:22:26.000","filename":"7501-2010-01-20-00461.txt","ticket_format":"7501","source":"7501"},
{"tname":"ticket_version","ticket_version_id":9070,"ticket_id":1220,"ticket_revision":"","ticket_number":"20100201086","ticket_type":"UPDT XCAV RTN","transmit_date":"2010-01-20T13:05:07.000","processed_date":"2014-05-22T15:34:50.000","serial_number":"20100201086","arrival_date":"2014-05-22T15:34:48.000","filename":"7501-2010-01-20-00461.txt","ticket_format":"7501","source":"7501"},
{"tname":"ticket_version","ticket_version_id":8258,"ticket_id":1221,"ticket_revision":"","ticket_number":"20100201085","ticket_type":"UPDT XCAV RTN","transmit_date":"2010-01-20T13:05:07.000","processed_date":"2014-05-22T15:22:28.000","serial_number":"20100201085","arrival_date":"2014-05-22T15:22:26.000","filename":"7501-2010-01-20-00462.txt","ticket_format":"7501","source":"7501"},
{"tname":"ticket_version","ticket_version_id":8259,"ticket_id":1221,"ticket_revision":"","ticket_number":"20100201085","ticket_type":"UPDT XCAV RTN","transmit_date":"2010-01-20T13:05:06.000","processed_date":"2014-05-22T15:22:28.000","serial_number":"20100201085","arrival_date":"2014-05-22T15:22:26.000","filename":"7501-2010-01-20-00463.txt","ticket_format":"7501","source":"7501"},
{"tname":"ticket_version","ticket_version_id":9071,"ticket_id":1221,"ticket_revision":"","ticket_number":"20100201085","ticket_type":"UPDT XCAV RTN","transmit_date":"2010-01-20T13:05:07.000","processed_date":"2014-05-22T15:34:50.000","serial_number":"20100201085","arrival_date":"2014-05-22T15:34:48.000","filename":"7501-2010-01-20-00462.txt","ticket_format":"7501","source":"7501"},
{"tname":"ticket_version","ticket_version_id":9072,"ticket_id":1221,"ticket_revision":"","ticket_number":"20100201085","ticket_type":"UPDT XCAV RTN","transmit_date":"2010-01-20T13:05:06.000","processed_date":"2014-05-22T15:34:50.000","serial_number":"20100201085","arrival_date":"2014-05-22T15:34:48.000","filename":"7501-2010-01-20-00463.txt","ticket_format":"7501","source":"7501"},
{"tname":"jobsite_arrival","arrival_id":43000,"ticket_id":1218,"arrival_date":"2014-05-22T18:15:45.473","emp_id":5821,"entry_method":"CLOCK","added_by":5821,"active":true,"modified_date":"2014-05-22T18:15:45.550"},
{"tname":"locate_facility","locate_facility_id":1,"locate_id":21383,"facility_type":"OTHER","facility_material":"EMPTY","facility_size":"OTHER","added_by":5821,"added_date":"2014-05-22T18:14:58.133","modified_date":"2014-05-22T18:16:14.643","active":true},
{"tname":"center_ticket_summary","pc_code":"750","tickets_open":0,"tickets_due_today":0,"tickets_due_tomorrow":0}]}