
TESTDC     4     AROCS 12/30/08 08:53:00 081230-0181 NORMAL NOGRID 

==============//  AOC TICKET  //==============

TICKET NUMBER--[081230-0181]  
OLD TICKET NUM-[]  

MESSAGE TYPE---[NORMAL] LEAD TIME--[20]
PREPARED-------[12/30/08]  AT  [0853]  BY  [SBATES]

CONTRACTOR--[CENTRAL ARKANSAS WATER]   CALLER--[LIDDY-ANN EVERETT]
ADDRESS-----[5300 SOUTH SHACKLEFORD RD]
CITY--------[LITTLE ROCK]   STATE--[AR]   ZIP--[72204]
CALL BACK---[]   PHONE--[(501) 223-1550]
COMPANY FAX-[(501) 221-7723]
CONTACT-----[KENNY GRAY]   PHONE--[(501) 223-1568]
EMAIL-------[LIDDY-ANN.EVERETT@CARKW.COM]
CONTACT FAX-[]

WORK TO BEGIN--[01/02/09] AT [0900]      STATE--[AR]
COUNTY---[PULASKI]  PLACE--[LITTLE ROCK]

ADDRESS--[704]   STREET--[S][WOODROW][ST][]
NEAREST INTERSECTION--------[W 7TH ST]
LATITUDE--[34.7453406080186]    LONGITUDE--[-92.3055551933759]
SECONDARY LATITUDE--[0]    SECONDARY LONGITUDE--[0]

ADDITIONAL ADDRESSES IN LOCATION--[N]

LOCATION INFORMATION--
[WORKING ON THE SE CORNER OF INT                                               ]
[CAW WO #56074                                                                 ]

WORK TYPE--[WATER, REPAIR VALVE]  DONE FOR--[CENTRAL ARKANSAS WATER]
EXTENT-----[3 HOURS]

EXPLOSIVES--[N]    WHITE PAINT--[Y]    GRID GIVEN--[N]
DIRECTIONAL BORING--[N]

MAP REF.--[]
GRIDS-----
          [                 ] 

UTILITIES NOTIFIED--
  CODE       NAME                         CODE       NAME                      
  ---------- --------------------------   ---------- --------------------------
  ALTELCOM   WINDSTREAM COMMUNICATIO...   ATT01      AT&T ARKANSAS             
  ENT20B     ENTERGY - LITTLE ROCK        ENT20WM    ENTERGY - LITTLE ROCK     
  ESPIRE     TIME WARNER TELECOM          LRTRAF     LITTLE ROCK TRAFFIC       
  LRWASTE    LITTLE ROCK WASTEWATER       REARC119   CENTERPOINT ENERGY ARKL...




