
TESTDC     5     AROCS 12/30/08 08:56:00 081230-0193 NORMAL NOGRID 

==============//  AOC TICKET  //==============

TICKET NUMBER--[081230-0193]  
OLD TICKET NUM-[]  

MESSAGE TYPE---[NORMAL] LEAD TIME--[19]
PREPARED-------[12/30/08]  AT  [0856]  BY  [CPALMERE]

CONTRACTOR--[UNDERWOOD CONSTRUCTION,LLC.]   CALLER--[DOROTHY UNDERWOOD]
ADDRESS-----[PO BOX 1301]
CITY--------[SEARCY]   STATE--[AR]   ZIP--[72145]
CALL BACK---[SAME]   PHONE--[(501) 278-5579]
COMPANY FAX-[(501) 268-8339]
CONTACT-----[DOROTHY UNDERWOOD]   PHONE--[(501) 278-5579]
EMAIL-------[]
CONTACT FAX-[(501) 268-5776]

WORK TO BEGIN--[01/02/09] AT [0900]      STATE--[AR]
COUNTY---[WHITE]  PLACE--[RURAL]

ADDRESS--[101]   STREET--[][MASON COVE][][]
NEAREST INTERSECTION--------[VIRGINIA WAY]
LATITUDE--[35.229167957795]    LONGITUDE--[-91.8060782994979]
SECONDARY LATITUDE--[35.2276878552559]    SECONDARY LONGITUDE--[-91.8055090292906]

ADDITIONAL ADDRESSES IN LOCATION--[N]

LOCATION INFORMATION--
[RURAL OF SEARCY - WORKING N OF THE INT - LOCATE AS MARKED IN WHITE -          ]
[INSTALLING SERVICES FOR A POOL HOUSE -                                        ]

WORK TYPE--[SERV LINES - INSTALL WATER & SEWER]  DONE FOR--[AMY COPE]
EXTENT-----[1 DAY]

EXPLOSIVES--[N]    WHITE PAINT--[Y]    GRID GIVEN--[N]
DIRECTIONAL BORING--[N]

MAP REF.--[]
GRIDS-----
          [                 ] 

UTILITIES NOTIFIED--
  CODE       NAME                         CODE       NAME                      
  ---------- --------------------------   ---------- --------------------------
  ATT01      AT&T ARKANSAS                FECC01     1ST ELEC - JACKSONVILLE   
  OGTLLC     OZARK GAS TRANSMISSION LLC   REARC145   CENTERPOINT ENERGY ARKL...
  SEARCY     SEARCY WATER AND SEWER     




