
TESTDC     10    AROCS 12/30/08 08:23:00 081230-0105 EMERGENCY NOGRID 

==============//  AOC TICKET  //==============

TICKET NUMBER--[081230-0105]   == E M E R G E N C Y ==
OLD TICKET NUM-[]  

MESSAGE TYPE---[EMERGENCY] LEAD TIME--[0]
PREPARED-------[12/30/08]  AT  [0823]  BY  [TBRADLEY]

CONTRACTOR--[ENTERGY]   CALLER--[TINY DANIEL]
ADDRESS-----[1009 E CHURCH]
CITY--------[WARREN]   STATE--[AR]   ZIP--[71671]
CALL BACK---[ALT OFFICE 870/367-7546]   PHONE--[(870) 226-5738]
COMPANY FAX-[(870) 222-1010]
CONTACT-----[TINY DANIEL]   PHONE--[(870) 226-5738]
EMAIL-------[]
CONTACT FAX-[(870) 222-1010]

WORK TO BEGIN--[12/30/08] AT [0830]      STATE--[AR]
COUNTY---[ASHLEY]  PLACE--[CROSSETT]

ADDRESS--[109]   STREET--[][WOODSHIRE][DR][]
NEAREST INTERSECTION--------[PETERSBURG RD]
LATITUDE--[33.116125114727]    LONGITUDE--[-91.9635712965403]
SECONDARY LATITUDE--[0]    SECONDARY LONGITUDE--[0]

ADDITIONAL ADDRESSES IN LOCATION--[N]

LOCATION INFORMATION--
[*EMERGENCY - CREW WILL BE ON SITE TODAY WITHIN 1 HR*                          ]
[WORKING APPX 200 YDS E OF INT WITH PETERSBURG RD - BACK OF PPTY - IN ALLEY -  ]

WORK TYPE--[ELECTRIC, REPAIR PRIMARY]  DONE FOR--[ENTERGY]
EXTENT-----[3 HRS]

EXPLOSIVES--[N]    WHITE PAINT--[Y]    GRID GIVEN--[N]
DIRECTIONAL BORING--[N]

MAP REF.--[]
GRIDS-----
          [                 ] 

UTILITIES NOTIFIED--
  CODE       NAME                         CODE       NAME                      
  ---------- --------------------------   ---------- --------------------------
  ALLTCR     WINDSTREAM - CROSSETT D...   CHARTCRO   CHARTER COMMUNICATIONS ...
  CROSSETT   CROSSETT WATER COMMISSION    ENT15      ENTERGY - CROSSETT        
  REARC003   CENTERPOINT ENERGY ARKL... 




