
TESTDC     15    AROCS 12/30/08 09:08:00 081230-0211 NON-COMPLIANT NOGRID 

==============//  AOC TICKET  //==============

TICKET NUMBER--[081230-0211]  
OLD TICKET NUM-[081217-0619]  

MESSAGE TYPE---[2ND NOTICE] LEAD TIME--[0]
PREPARED-------[12/30/08]  AT  [0908]  BY  [LVANDYKE]

CONTRACTOR--[CENTERPOINT ENERGY]   CALLER--[WILLIE LEWIS]
ADDRESS-----[2205 E ROOSEVELT]
CITY--------[LITTLE ROCK]   STATE--[AR]   ZIP--[72206]
CALL BACK---[501/772-2168 MOBILE]   PHONE--[(501) 377-4806]
COMPANY FAX-[(501) 377-4827]
CONTACT-----[WILLIE LEWIS]   PHONE--[(501) 377-4515]
EMAIL-------[]
CONTACT FAX-[(501) 377-4520]

WORK TO BEGIN--[12/30/08] AT [0915]      STATE--[AR]
COUNTY---[PULASKI]  PLACE--[MAUMELLE]

ADDRESS--[119]   STREET--[][BRECKENRIDGE][LN][]
NEAREST INTERSECTION--------[HUDSON BAY DR]
LATITUDE--[34.8722222222222]    LONGITUDE--[-92.4272222222222]
SECONDARY LATITUDE--[0]    SECONDARY LONGITUDE--[0]

ADDITIONAL ADDRESSES IN LOCATION--[N]

LOCATION INFORMATION--
[WORKING APPX 525' NW OF HUDSON BAY DR ON BRECKENRIDGE LN - TO ADDR - S SIDE   ]
[OF RD - LOCATE RT SIDE OF PPTY                                                ]
[                                                                              ]
[*RDE WILL BE CONTRACTOR DOING THE WORK*                                       ]
[                                                                              ]
[**2ND REQ - CALLER STATES NO MARKINGS FROM ANY MEMBER UTILITIES - PLEASE      ]
[MARK LINES ASAP - CREW ON SITE NOW**                                          ]

WORK TYPE--[GAS, INSTALL SERVICE]  DONE FOR--[CENTERPOINT ENERGY]
EXTENT-----[1 DAY]

EXPLOSIVES--[N]    WHITE PAINT--[Y]    GRID GIVEN--[N]
DIRECTIONAL BORING--[N]

MAP REF.--[]
GRIDS-----
          [                 ] 

UTILITIES NOTIFIED--
  CODE       NAME                         CODE       NAME                      
  ---------- --------------------------   ---------- --------------------------
  ATT01      AT&T ARKANSAS                ENT55      ENTERGY - MAUMELLE        
  FALCON     CHARTER COMMUNICATIONS       MAUMELLE   MAUMELLE WATER MGMT - CITY




