
TESTDC     22    AROCS 12/30/08 07:35:00 081230-0057 NORMAL NOGRID 

==============//  AOC TICKET  //==============

TICKET NUMBER--[081230-0057]  
OLD TICKET NUM-[]  

MESSAGE TYPE---[MAJOR PROJECT] LEAD TIME--[20]
PREPARED-------[12/30/08]  AT  [0735]  BY  [TBRADLEY]

CONTRACTOR--[R D E]   CALLER--[HOSEA MARQUEZ]
ADDRESS-----[1823 S PINE ]
CITY--------[CENTRALIA]   STATE--[IL]   ZIP--[62801]
CALL BACK---[870/323-2366 MOBILE]   PHONE--[(618) 532-3745]
COMPANY FAX-[(618) 532-3775]
CONTACT-----[HOSEA MARQUEZ]   PHONE--[(618) 532-3745]
EMAIL-------[]
CONTACT FAX-[(618) 532-3775]

WORK TO BEGIN--[01/02/09] AT [0745]      STATE--[AR]
COUNTY---[RANDOLPH]  PLACE--[POCAHONTAS]

ADDRESS--[]   STREET--[][ATKINS][DR][]
NEAREST INTERSECTION--------[S PARK ST]
LATITUDE--[36.2550864377819]    LONGITUDE--[-90.9846704147096]
SECONDARY LATITUDE--[36.2550081024668]    SECONDARY LONGITUDE--[-90.9836433516888]

ADDITIONAL ADDRESSES IN LOCATION--[N]

LOCATION INFORMATION--
[START AT INT WITH S PARK ST - EXTEND W ON BOTH SIDES OF RD - APPX 300' -      ]

WORK TYPE--[GAS, REPLACE MAIN & SERVICE(S)]  DONE FOR--[CENTERPOINT ENERGY]
EXTENT-----[3-4 WEEKS]

EXPLOSIVES--[N]    WHITE PAINT--[Y]    GRID GIVEN--[N]
DIRECTIONAL BORING--[N]

MAP REF.--[]
GRIDS-----
          [                 ] 

UTILITIES NOTIFIED--
  CODE       NAME                         CODE       NAME                      
  ---------- --------------------------   ---------- --------------------------
  CLAYELEC   CLAY COUNTY ELECTRIC COOP    COXPOCA    SUDDENLINK - POCAHONTAS   
  CT94MTHO   CENTURYTEL OF MOUNTAIN ...   ENT03P     ENTERGY- POCAHONTAS       
  POCAHNTS   POCAHONTAS WATER & SEWE... 




