
TESTDC     24    AROCS 12/30/08 10:14:00 081230-0314 EMERGENCY NOGRID 

==============//  AOC TICKET  //==============

TICKET NUMBER--[081230-0314]   == E M E R G E N C Y ==
OLD TICKET NUM-[]  

MESSAGE TYPE---[EMERGENCY] LEAD TIME--[0]
PREPARED-------[12/30/08]  AT  [1014]  BY  [KMCCRAY]

CONTRACTOR--[CABLE RECOVERY]   CALLER--[BOB GRAY]
ADDRESS-----[PO BOX 101684]
CITY--------[FORT WORTH]   STATE--[TX]   ZIP--[76185]
CALL BACK---[MOBILE 501/860-4472]   PHONE--[(817) 921-1611]
COMPANY FAX-[(817) 921-4356]
CONTACT-----[BOB GRAY]   PHONE--[(817) 921-1611]
EMAIL-------[]
CONTACT FAX-[(999) 999-9999]

WORK TO BEGIN--[12/30/08] AT [1015]      STATE--[AR]
COUNTY---[PULASKI]  PLACE--[SHERWOOD]

ADDRESS--[135]   STREET--[W][LEE][AVE][]
NEAREST INTERSECTION--------[JOHN F KENNEDY BLVD]
LATITUDE--[34.8295051712187]    LONGITUDE--[-92.2328906473206]
SECONDARY LATITUDE--[34.8294979941852]    SECONDARY LONGITUDE--[-92.2328475851197]

ADDITIONAL ADDRESSES IN LOCATION--[N]

LOCATION INFORMATION--
[EMERGENCY - CREW WILL BE ON SITE NOW                                          ]
[** DIGGING TO REPAIRING WET CABLE **                                          ]
[WORKING W OF INT - S SIDE OF RD - FRONT OF PPTY                               ]

WORK TYPE--[TELEPHONE, OTHER]  DONE FOR--[AT&T]
EXTENT-----[4 HRS]

EXPLOSIVES--[N]    WHITE PAINT--[Y]    GRID GIVEN--[N]
DIRECTIONAL BORING--[N]

MAP REF.--[]
GRIDS-----
          [                 ] 

UTILITIES NOTIFIED--
  CODE       NAME                         CODE       NAME                      
  ---------- --------------------------   ---------- --------------------------
  ALTELCOM   WINDSTREAM COMMUNICATIO...   ATT01      AT&T ARKANSAS             
  CENARWTN   CENTRAL ARKANSAS WATER ...   REARC119   CENTERPOINT ENERGY ARKL...




