
TESTDC     25    AROCS 12/30/08 10:41:00 081230-0359 EMERGENCY NOGRID 

==============//  AOC TICKET  //==============

TICKET NUMBER--[081230-0359]   == E M E R G E N C Y ==
OLD TICKET NUM-[]  

MESSAGE TYPE---[EMERGENCY] LEAD TIME--[0]
PREPARED-------[12/30/08]  AT  [1041]  BY  [KMCCRAY]

CONTRACTOR--[CENTRAL ARKANSAS WATER]   CALLER--[DEBORAH RICE]
ADDRESS-----[5300 SOUTH SHACKLEFORD RD]
CITY--------[LITTLE ROCK]   STATE--[AR]   ZIP--[72204]
CALL BACK---[(501) 223-1551]   PHONE--[(501) 223-1550]
COMPANY FAX-[(501) 221-7723]
CONTACT-----[DEBORAH RICE]   PHONE--[(501) 223-1550]
EMAIL-------[DEBORAH.RICE@CARKW.COM]
CONTACT FAX-[]

WORK TO BEGIN--[12/30/08] AT [1045]      STATE--[AR]
COUNTY---[PULASKI]  PLACE--[NORTH LITTLE ROCK]

ADDRESS--[1708]   STREET--[][HWY 161][][]
NEAREST INTERSECTION--------[E EMILY ST]
LATITUDE--[34.7701896642401]    LONGITUDE--[-92.1988424694135]
SECONDARY LATITUDE--[0]    SECONDARY LONGITUDE--[0]

ADDITIONAL ADDRESSES IN LOCATION--[N]

LOCATION INFORMATION--
[EMERGENCY - CREW ON SITE NOW                                                  ]
[                                                                              ]
[WORKING S OF INT - IN ST - W SIDE OF RD                                       ]

WORK TYPE--[WATER, REPAIR MAIN]  DONE FOR--[CENTRAL ARKANSAS WATER]
EXTENT-----[4 HRS]

EXPLOSIVES--[N]    WHITE PAINT--[Y]    GRID GIVEN--[N]
DIRECTIONAL BORING--[N]

MAP REF.--[]
GRIDS-----
          [                 ] 

UTILITIES NOTIFIED--
  CODE       NAME                         CODE       NAME                      
  ---------- --------------------------   ---------- --------------------------
  ATT01      AT&T ARKANSAS                COMCAST    COMCAST CABLEVISION OF ...
  REARC119   CENTERPOINT ENERGY ARKL... 




