
Ticket No:  9022722               2 FULL BUSINESS DAYS 
Send To: PSEELC46   Seq No:   27  Map Ref:  
Send To: PSEGAS40   Seq No:   44  Map Ref:  

Transmit      Date:  2/03/09   Time: 10:34 AM    Op: orandr 
Original Call Date:  2/03/09   Time: 10:33 AM    Op: orandr 
Work to Begin Date:  2/06/09   Time: 12:00 AM 

State: WA            County: PIERCE                  Place: MCCHORD AFB 
Address:             Street: LINCOLN BLVD 
Nearest Intersecting Street: DOGWOOD ST 

Twp: 19N   Rng: 2E    Sect-Qtr: 14-SW 
Twp:       Rng:       Sect-Qtr:        
Ex. Coord NW Lat: 47.1309581Lon: -122.5231414SE Lat: 47.1286844Lon: -122.5203439 

Type of Work: INSTALL SIGN 
Location of Work: SITE IS ON SW CORNER OF ABV INTER.  MARK AREA MARKED IN
: WHITE AT THIS LOCATION. 

Remarks: BEST INFORMATION AVAILABLE 
:  

Company     : E Q R                            Best Time:   
Contact Name: ED MITCHELL                      Phone: (253)377-9304 
Email Address:         
Alt. Contact: MAIN OFFICE                      Phone: (253)966-9675 
Contact Fax :  
Work Being Done For: EQR 
Additional Members:  
QLNWA24 

