

Wed May 05                                                             page    1
                          Daily Summary Report 050510

MSGID  OCC_TKTNUM      OCC_SITE DELIVERED                                       
-----------------------------------------                                       
00001  A01250001-00A   ATTD28SD  CST                                            
00002  A01250002-00A   ATTD28SD  CST                                            
00003  A01250003-00A   ATTD01OR  CST                                            
00004  A00990007-01A   ATTD124OR CST                                            
00005  A01250004-00A   ATTD124OR CST                                            
00006  A01250009-00A   ATTD28SD  CST                                            
00007  A00990762-01A   ATTD18LAN CST                                            
00008  A00990651-01A   ATTD14LAN CST                                            
00009  A01250015-00A   ATTD19LAN CST                                            
00010  A01250017-00A   ATTD01OR  CST                                            
00011  A90991510-16A   ATTD28SD  CST                                            
00012  A01250020-00A   ATTD124OR CST                                            
00013  A00420237-03A   ATTD19LAN CST                                            
00014  A93511336-05A   ATTD13OR  CST                                            
00015  A01250022-00A   ATTD13OR  CST                                            
00016  A01250019-00A   ATTD13OR  CST                                            
00017  A01250024-00A   ATTD14LAN CST                                            
00018  A01040487-01A   ATTD19LAN CST                                            
00019  A00250699-05A   ATTD25LAS CST                                            
00020  A01250028-00A   ATTDBAKLA CST                                            
                       N                                                        
                                                                                
00021  A01040497-01A   ATTD14LAN CST                                            
00022  A01040497-02A   ATTD14LAN CST                                            
00023  A01250032-00A   ATTD17LAN CST                                            
00024  A01250034-00A   ATTD01OR  CST                                            
00025  A01250035-00A   ATTD28SD  CST                                            
00026  A01250037-00A   ATTD17LAN CST                                            
00027  A01250036-00A   ATTD13OR  CST                                            
00028  A01250040-00A   ATTD14LAN CST                                            
00029  A00150091-04A   ATTD28SD  CST                                            
00030  A00150087-04A   ATTD28SD  CST                                            
00031  A01250039-00A   ATTD28SD  CST                                            
00032  A01250041-00A   ATTD19LAN CST                                            
00033  A00150093-04A   ATTD28SD  CST                                            
00034  A00150089-04A   ATTD28SD  CST                                            
00035  A00150011-04A   ATTD28SD  CST                                            
00036  A00970079-01A   ATTD28SD  CST                                            
00037  A00150094-04A   ATTD28SD  CST                                            
00038  A01250045-00A   ATTD01OR  CST                                            
00039  A00690239-03A   ATTD28SD  CST                                            
00040  A00690230-02A   ATTD28SD  CST                                            
00041  A01250048-00A   ATTD01OR  CST                                            
00042  A01131057-01A   ATTD13OR  CST                                            
00043  A01181358-02A   ATTD124OR CST                                            
00044  A01250053-00A   ATTD25LAS CST                                            
00045  A01250051-00A   ATTD13OR  CST                                            
00046  A01181354-02A   ATTD124OR CST                                            
00047  A01250054-00A   ATTD14LAN CST                                            
00048  A01250056-00A   ATTD28SD  CST                                            
00049  A01250055-00A   ATTD25LAS CST                                            
00050  A01250057-00A   ATTD25LAS CST                                            
00051  A01250059-00A   ATTD25LAS CST                                            
00052  A92660340-08A   ATTD01OR  CST                                            
00053  A01250060-00A   ATTD13OR  CST                                            
00054  A01250064-00A   ATTD25LAS CST                                            
00055  A01250067-00A   ATTD28SD  CST                                            
00056  A01250069-00A   ATTD13OR  CST                                            
00057  A01250071-00A   ATTD28SD  CST                                            
00058  A01250074-00A   ATTD25LAS CST                                            
00059  A00990911-02A   ATTD13OR  CST                                            
00060  A01250078-00A   ATTD25LAS CST                                            
00061  A01250081-00A   ATTD19LAN CST                                            
00062  A01250076-00A   ATTD28SD  CST                                            
00063  A01240201-02A   ATTD14LAN CST                                            
00064  A01171092-01A   ATTD28SD  CST                                            
00065  A01250085-00A   ATTD13OR  CST                                            
00066  A01250086-00A   ATTD124OR CST                                            
00067  A01250088-00A   ATTD25LAS CST                                            
00068  A01250089-00A   ATTD28SD  CST                                            
00069  A01240141-01A   ATTD124OR CST                                            
00070  A01250090-00A   ATTD13OR  CST                                            
00071  A00970255-01A   ATTD13OR  CST                                            
00072  A00980218-01A   ATTD13OR  CST                                            
00073  A01250091-00A   ATTD13OR  CST                                            
00074  A01250093-00A   ATTD13OR  CST                                            
00075  A01250096-00A   ATTD01OR  CST                                            
00076  A01250099-00A   ATTD13OR  CST                                            
00077  A01250101-00A   ATTD124OR CST                                            
00078  A01180906-01A   ATTD19LAN CST                                            
00079  A01230239-03A   ATTD28SD  CST                                            
00080  A01250103-00A   ATTD18LAN CST                                            
00081  A01250107-00A   ATTD124OR CST                                            
00082  A01250108-00A   ATTD19LAN CST                                            
00083  A01250110-00A   ATTD19LAN CST                                            
00084  A01250112-00A   ATTD19LAN CST                                            
00085  A01250112-00A   ATTD25LAS CST                                            
00086  A01250113-00A   ATTD20LAN CST                                            
00087  A00410370-03A   ATTD17LAN CST                                            
00088  A00410374-04A   ATTD17LAN CST                                            
00089  A01250116-00A   ATTD19LAN CST                                            
00090  A01250118-00A   ATTD14LAN CST                                            
00091  A00970275-01A   ATTD14LAN CST                                            
00092  A01250124-00A   ATTD19LAN CST                                            
00093  A01250126-00A   ATTD14LAN CST                                            
00094  A01250127-00A   ATTD17LAN CST                                            
00095  A01250129-00A   ATTD13OR  CST                                            
00096  A01250133-00A   ATTD19LAN CST                                            
00097  A01250135-00A   ATTD01OR  CST                                            
00098  A01250136-00A   ATTD13OR  CST                                            
00099  A01250104-00A   ATTD19LAN CST                                            
00100  A01240201-03A   ATTD14LAN CST                                            
00101  A01250140-00A   ATTD01OR  CST                                            
00102  A01250141-00A   ATTD19LAN CST                                            
00103  A01191054-01A   ATTD13OR  CST                                            
00104  A01250145-00A   ATTD13OR  CST                                            
00105  A01250147-00A   ATTD01OR  CST                                            
00106  A01250150-00A   ATTD01OR  CST                                            
00107  A01250149-00A   ATTD01OR  CST                                            
00108  A01250137-00A   ATTD13OR  CST                                            
00109  A01250154-00A   ATTD01OR  CST                                            
00110  A01250156-00A   ATTD22LAS CST                                            
00111  A01250156-00A   ATTD25LAS CST                                            
00112  A01250164-00A   ATTD01OR  CST                                            
00113  A01250167-00A   ATTD01OR  CST                                            
00114  A01101207-02A   ATTD14LAN CST                                            
00115  A01180536-01A   ATTD28SD  CST                                            
00116  A01250172-00A   ATTD25LAS CST                                            
00117  A01250173-00A   ATTD01OR  CST                                            
00118  A01250176-00A   ATTD28SD  CST                                            
00119  A01250085-01A   ATTD13OR  CST                                            
00120  A01250180-00A   ATTD14LAN CST                                            
00121  A01250181-00A   ATTD28SD  CST                                            
00122  A01250182-00A   ATTD28SD  CST                                            
00123  A01250183-00A   ATTD14LAN CST                                            
00124  A01250185-00A   ATTD13OR  CST                                            
00125  A01250184-00A   ATTD28SD  CST                                            
00126  A01250186-00A   ATTD28SD  CST                                            
00127  A01250188-00A   ATTD25LAS CST                                            
00128  A01250191-00A   ATTD19LAN CST                                            
00129  A01241313-01A   ATTD28SD  CST                                            
00130  A01200328-01A   ATTD19LAN CST                                            
00131  A01250192-00A   ATTD28SD  CST                                            
00132  A01250059-01A   ATTD25LAS CST                                            
00133  A01250193-00A   ATTD28SD  CST                                            
00134  A01250194-00A   ATTD01OR  CST                                            
00135  A01250195-00A   ATTD28SD  CST                                            
00136  A01250196-00A   ATTD01OR  CST                                            
00137  A01250197-00A   ATTD28SD  CST                                            
00138  A01250198-00A   ATTD01OR  CST                                            
00139  A01250199-00A   ATTD28SD  CST                                            
00140  A01250201-00A   ATTD124OR CST                                            
00141  A01250209-00A   ATTD124OR CST                                            
00142  A01250208-00A   ATTD124OR CST                                            
00143  A01250210-00A   ATTD28SD  CST                                            
00144  A01050397-01A   ATTD22LAS CST                                            
00145  A01050392-01A   ATTD22LAS CST                                            
00146  A01050398-01A   ATTD22LAS CST                                            
00147  A01050399-01A   ATTD22LAS CST                                            
00148  A01050404-01A   ATTD22LAS CST                                            
00149  A01050408-02A   ATTD22LAS CST                                            
00150  A01241313-02A   ATTD28SD  CST                                            
00151  A01250215-00A   ATTD01OR  CST                                            
00152  A01050410-01A   ATTD22LAS CST                                            
00153  A01050411-01A   ATTD22LAS CST                                            
00154  A01050415-01A   ATTD22LAS CST                                            
00155  A01250216-00A   ATTD28SD  CST                                            
00156  A01250217-00A   ATTD28SD  CST                                            
00157  A01241204-01A   ATTD01OR  CST                                            
00158  A01250219-00A   ATTD28SD  CST                                            
00159  A01250220-00A   ATTD22LAS CST                                            
00160  A01250222-00A   ATTD28SD  CST                                            
00161  A01250225-00A   ATTD28SD  CST                                            
00162  A01250227-00A   ATTD28SD  CST                                            
00163  A00820423-02A   ATTD28SD  CST                                            
00164  A00820439-02A   ATTD28SD  CST                                            
00165  A00820431-02A   ATTD28SD  CST                                            
00166  A00820442-02A   ATTD28SD  CST                                            
00167  A00980140-02A   ATTD28SD  CST                                            
00168  A01020983-04A   ATTD28SD  CST                                            
00169  A00350317-04A   ATTD28SD  CST                                            
00170  A00980179-02A   ATTD28SD  CST                                            
00171  A00980186-02A   ATTD28SD  CST                                            
00172  A01250229-00A   ATTD13OR  CST                                            
00173  A00980171-02A   ATTD28SD  CST                                            
00174  A01250230-00A   ATTD01OR  CST                                            
00175  A91460061-17A   ATTD22LAS CST                                            
00176  A01250234-00A   ATTD25LAS CST                                            
00177  A01250235-00A   ATTD22LAS CST                                            
00178  A01250236-00A   ATTD14LAN CST                                            
00179  A01120060-01A   ATTD01OR  CST                                            
00180  A01250238-00A   ATTD28SD  CST                                            
00181  A01160822-01A   ATTD28SD  CST                                            
00182  A01250246-00A   ATTD01OR  CST                                            
00183  A01250248-00A   ATTD25LAS CST                                            
00184  A01250256-00A   ATTD13OR  CST                                            
00185  A93380442-07A   ATTD25LAS CST                                            
00186  A00780870-02A   ATTD17LAN CST                                            
00187  A00780879-02A   ATTD17LAN CST                                            
00188  A01250267-00A   ATTD01OR  CST                                            
00189  A01250272-00A   ATTD14LAN CST                                            
00190  A01250273-00A   ATTD13OR  CST                                            
00191  A01250271-00A   ATTD01OR  CST                                            
00192  A01250276-00A   ATTD13OR  CST                                            
00193  A01250280-00A   ATTD28SD  CST                                            
00194  A01250282-00A   ATTD28SD  CST                                            
00195  A01250283-00A   ATTD22LAS CST                                            
00196  A01250285-00A   ATTD13OR  CST                                            
00197  A01250290-00A   ATTD28SD  CST                                            
00198  A01250291-00A   ATTD14LAN CST                                            
00199  A01250292-00A   ATTD28SD  CST                                            
00200  A01101207-03A   ATTD14LAN CST                                            
00201  A01250293-00A   ATTD124OR CST                                            
00202  A01250288-00A   ATTD25LAS CST                                            
00203  A01250295-00A   ATTD28SD  CST                                            
00204  A01250296-00A   ATTD28SD  CST                                            
00205  A01250297-00A   ATTD25LAS CST                                            
00206  A01250299-00A   ATTD28SD  CST                                            
00207  A01250300-00A   ATTD13OR  CST                                            
00208  A01250302-00A   ATTD22LAS CST                                            
00209  A01250301-00A   ATTD14LAN CST                                            
00210  A01250061-01A   ATTD22LAS CST                                            
00211  A01230980-01A   ATTD124OR CST                                            
00212  A93640322-05A   ATTD25LAS CST                                            
00213  A00330493-10A   ATTD13OR  CST                                            
00214  A00400028-06A   ATTD13OR  CST                                            
00215  A00471792-05A   ATTD13OR  CST                                            
00216  A93220439-06A   ATTD25LAS CST                                            
00217  A00700893-04A   ATTD13OR  CST                                            
00218  A93220427-06A   ATTD25LAS CST                                            
00219  A01250287-00A   ATTD17LAN CST                                            
00220  A00981002-05A   ATTD22LAS CST                                            
00221  A01250281-00A   ATTD13OR  CST                                            
00222  A01250304-00A   ATTD20LAN CST                                            
00223  A01250306-00A   ATTD13OR  CST                                            
00224  A01041337-01A   ATTD22LAS CST                                            
00225  A01041337-02A   ATTD22LAS CST                                            
00226  A01250317-00A   ATTD28SD  CST                                            
00227  A01250318-00A   ATTD28SD  CST                                            
00228  A01250319-00A   ATTD28SD  CST                                            
00229  A01250320-00A   ATTD25LAS CST                                            
00230  A01250321-00A   ATTD28SD  CST                                            
00231  A01250179-00A   ATTD13OR  CST                                            
00232  A01250221-00A   ATTD19LAN CST                                            
00233  A01250224-00A   ATTD13OR  CST                                            
00234  A01250279-00A   ATTD13OR  CST                                            
00235  A01250309-00A   ATTD13OR  CST                                            
00236  A01250324-00A   ATTD28SD  CST                                            
00237  A01250325-00A   ATTD124OR CST                                            
00238  A01250326-00A   ATTD14LAN CST                                            
00239  A01250328-00A   ATTD22LAS CST                                            
00240  A01250329-00A   ATTD13OR  CST                                            
00241  A01250324-01A   ATTD28SD  CST                                            
00242  A01250331-00A   ATTD28SD  CST                                            
00243  A01041335-01A   ATTD22LAS CST                                            
00244  A01250336-00A   ATTD28SD  CST                                            
00245  A01250335-00A   ATTD14LAN CST                                            
00246  A01250337-00A   ATTD25LAS CST                                            
00247  A01250339-00A   ATTD28SD  CST                                            
00248  A01250338-00A   ATTD28SD  CST                                            
00249  A01250341-00A   ATTD14LAN CST                                            
00250  A01250342-00A   ATTD22LAS CST                                            
00251  A01250339-01A   ATTD28SD  CST                                            
00252  A01250344-00A   ATTD22LAS CST                                            
00253  A01250345-00A   ATTD13OR  CST                                            
00254  A01250346-00A   ATTD13OR  CST                                            
00255  A01250348-00A   ATTD22LAS CST                                            
00256  A01250343-00A   ATTD13OR  CST                                            
00257  A01250353-00A   ATTD13OR  CST                                            
00258  A01250357-00A   ATTD17LAN CST                                            
00259  A01250360-00A   ATTD22LAS CST                                            
00260  A01250360-00A   ATTD25LAS CST                                            
00261  A01250362-00A   ATTD28SD  CST                                            
00262  A80931498-30A   ATTD17LAN CST                                            
00263  A01250365-00A   ATTD22LAS CST                                            
00264  A01110774-01A   ATTD28SD  CST                                            
00265  A01250368-00A   ATTD20LAN CST                                            
00266  A01250370-00A   ATTD13OR  CST                                            
00267  A01250371-00A   ATTD28SD  CST                                            
00268  A01250360-01A   ATTD25LAS CST                                            
00269  A01250360-01A   ATTD22LAS CST                                            
00270  A01250377-00A   ATTD28SD  CST                                            
00271  A01250379-00A   ATTD17LAN CST                                            
00272  A01250380-00A   ATTD25LAS CST                                            
00273  A01250381-00A   ATTD28SD  CST                                            
00274  A01250382-00A   ATTD14LAN CST                                            
00275  A00970397-01A   ATTD13OR  CST                                            
00276  A01250383-00A   ATTD01OR  CST                                            
00277  A01250387-00A   ATTD28SD  CST                                            
00278  A01250386-00A   ATTD13OR  CST                                            
00279  A01250392-00A   ATTD28SD  CST                                            
00280  A01250390-00A   ATTD22LAS CST                                            
00281  A01250363-00A   ATTD25LAS CST                                            
00282  A01250363-01A   ATTD25LAS CST                                            
00283  A01250396-00A   ATTD25LAS CST                                            
00284  A01250397-00A   ATTD22LAS CST                                            
00285  A01250394-00A   ATTD13OR  CST                                            
00286  A01250398-00A   ATTD28SD  CST                                            
00287  A01250400-00A   ATTD22LAS CST                                            
00288  A01250399-00A   ATTD28SD  CST                                            
00289  A01250401-00A   ATTD28SD  CST                                            
00290  A01250402-00A   ATTD25LAS CST                                            
00291  A01250403-00A   ATTD28SD  CST                                            
00292  A01250404-00A   ATTD124OR CST                                            
00293  A01230239-04A   ATTD28SD  CST                                            
00294  A01250405-00A   ATTD14LAN CST                                            
00295  A01250406-00A   ATTD25LAS CST                                            
00296  A01250407-00A   ATTD17LAN CST                                            
00297  A01250408-00A   ATTD01OR  CST                                            
00298  A01250410-00A   ATTD17LAN CST                                            
00299  A01250413-00A   ATTD14LAN CST                                            
00300  A01250414-00A   ATTD18LAN CST                                            
00301  A01250415-00A   ATTD28SD  CST                                            
00302  A01250405-01A   ATTD14LAN CST                                            
00303  A01250418-00A   ATTD28SD  CST                                            
00304  A01250419-00A   ATTD25LAS CST                                            
00305  A01250421-00A   ATTD28SD  CST                                            
00306  A01250422-00A   ATTD124OR CST                                            
00307  A01230239-05A   ATTD28SD  CST                                            
00308  A01250426-00A   ATTD25LAS CST                                            
00309  A01250428-00A   ATTD13OR  CST                                            
00310  A01250430-00A   ATTD28SD  CST                                            
00311  A01250432-00A   ATTD28SD  CST                                            
00312  A01250433-00A   ATTD124OR CST                                            
00313  A00830752-05A   ATTD28SD  CST                                            
00314  A01250434-00A   ATTD25LAS CST                                            
00315  A01250435-00A   ATTD28SD  CST                                            
00316  A01250437-00A   ATTD20LAN CST                                            
00317  A01250438-00A   ATTD28SD  CST                                            
00318  A01250436-00A   ATTD28SD  CST                                            
00319  A01250439-00A   ATTD28SD  CST                                            
00320  A01250441-00A   ATTD25LAS CST                                            
00321  A01250442-00A   ATTD25LAS CST                                            
00322  A01250445-00A   ATTD20LAN CST                                            
00323  A01250447-00A   ATTD01OR  CST                                            
00324  A01250448-00A   ATTD17LAN CST                                            
00325  A01250447-01A   ATTD01OR  CST                                            
00326  A01250450-00A   ATTD28SD  CST                                            
00327  A01250452-00A   ATTD19LAN CST                                            
00328  A01250454-00A   ATTD25LAS CST                                            
00329  A01250457-00A   ATTD01OR  CST                                            
00330  A01250462-00A   ATTD17LAN CST                                            
00331  A01250465-00A   ATTD25LAS CST                                            
00332  A01250454-01A   ATTD25LAS CST                                            
00333  A01250471-00A   ATTD28SD  CST                                            
00334  A01250476-00A   ATTD28SD  CST                                            
00335  A01250463-00A   ATTD17LAN CST                                            
00336  A01250466-00A   ATTD17LAN CST                                            
00337  A01250440-00A   ATTD17LAN CST                                            
00338  A01250479-00A   ATTD124OR CST                                            
00339  A01250480-00A   ATTD20LAN CST                                            
00340  A01250486-00A   ATTD14LAN CST                                            
00341  A01250487-00A   ATTD25LAS CST                                            
00342  A01250491-00A   ATTD17LAN CST                                            
00343  A01250492-00A   ATTD25LAS CST                                            
00344  A01250495-00A   ATTD22LAS CST                                            
00345  A01250499-00A   ATTD25LAS CST                                            
00346  A01250501-00A   ATTD25LAS CST                                            
00347  A01250502-00A   ATTD01OR  CST                                            
00348  A01250504-00A   ATTD01OR  CST                                            
00349  A01250505-00A   ATTD01OR  CST                                            
00350  A01250508-00A   ATTD28SD  CST                                            
00351  A01250511-00A   ATTD25LAS CST                                            
00352  A01250512-00A   ATTD18LAN CST                                            
00353  A01250515-00A   ATTD28SD  CST                                            
00354  A01250519-00A   ATTD20LAN CST                                            
00355  A01250520-00A   ATTD22LAS CST                                            
00356  A01250521-00A   ATTD25LAS CST                                            
00357  A01250523-00A   ATTD28SD  CST                                            
00358  A01250527-00A   ATTD17LAN CST                                            
00359  A01250529-00A   ATTD28SD  CST                                            
00360  A01250534-00A   ATTD18LAN CST                                            
00361  A00830752-06A   ATTD28SD  CST                                            
00362  A01250535-00A   ATTD28SD  CST                                            
00363  A01250537-00A   ATTD17LAN CST                                            
00364  A01250538-00A   ATTD17LAN CST                                            
00365  A00700427-03A   ATTD28SD  CST                                            
00366  A01250535-02A   ATTD28SD  CST                                            
00367  A01250543-00A   ATTD19LAN CST                                            
00368  A01250544-00A   ATTD19LAN CST                                            
00369  A01250545-00A   ATTD25LAS CST                                            
00370  A01250527-01A   ATTD17LAN CST                                            
00371  A01250548-00A   ATTD124OR CST                                            
00372  A01060870-02A   ATTD18LAN CST                                            
00373  A01250551-00A   ATTD13OR  CST                                            
00374  A01250553-00A   ATTD19LAN CST                                            
00375  A01250555-00A   ATTD01OR  CST                                            
00376  A01250560-00A   ATTD18LAN CST                                            
00377  A01250561-00A   ATTD124OR CST                                            
00378  A00980853-01A   ATTD28SD  CST                                            
00379  A00890747-02A   ATTD28SD  CST                                            
00380  A01250564-00A   ATTD124OR CST                                            
00381  A01250565-00A   ATTD19LAN CST                                            
00382  A01250559-00A   ATTD25LAS CST                                            
00383  A01250552-00A   ATTD13OR  CST                                            
00384  A01241312-01A   ATTD19LAN CST                                            
00385  A01250568-00A   ATTD22LAS CST                                            
00386  A01250570-00A   ATTD19LAN CST                                            
00387  A01250572-00A   ATTD22LAS CST                                            
00388  A01250573-00A   ATTD13OR  CST                                            
00389  A01250577-00A   ATTD01OR  CST                                            
00390  A01250578-00A   ATTD28SD  CST                                            
00391  A01250586-00A   ATTD28SD  CST                                            
00392  A01250587-00A   ATTD17LAN CST                                            
00393  A01250589-00A   ATTD28SD  CST                                            
00394  A01250590-00A   ATTD14LAN CST                                            
00395  A01250592-00A   ATTD13OR  CST                                            
00396  A01250596-00A   ATTD14LAN CST                                            
00397  A01250597-00A   ATTD25LAS CST                                            
00398  A01250603-00A   ATTD14LAN CST                                            
00399  A01250609-00A   ATTD28SD  CST                                            
00400  A01250614-00A   ATTD17LAN CST                                            
00401  A01250617-00A   ATTD28SD  CST                                            
00402  A01250620-00A   ATTD13OR  CST                                            
00403  A01250621-00A   ATTD124OR CST                                            
00404  A01250623-00A   ATTD01OR  CST                                            
00405  A01250633-00A   ATTD22LAS CST                                            
00406  A01250635-00A   ATTD124OR CST                                            
00407  A01040753-01A   ATTD28SD  CST                                            
00408  A01250638-00A   ATTD124OR CST                                            
00409  A01250639-00A   ATTD01OR  CST                                            
00410  A01250640-00A   ATTD01OR  CST                                            
00411  A01250622-00A   ATTD19LAN CST                                            
00412  A01250624-00A   ATTD19LAN CST                                            
00413  A01250643-00A   ATTD14LAN CST                                            
00414  A01250656-00A   ATTD28SD  CST                                            
00415  A01250657-00A   ATTD01OR  CST                                            
00416  A01250658-00A   ATTD14LAN CST                                            
00417  A01230103-01A   ATTD22LAS CST                                            
00418  A01250662-00A   ATTD19LAN CST                                            
00419  A01250663-00A   ATTD22LAS CST                                            
00420  A01040753-02A   ATTD28SD  CST                                            
00421  A01250667-00A   ATTD17LAN CST                                            
00422  A01250645-00A   ATTD13OR  CST                                            
00423  A01250669-00A   ATTD01OR  CST                                            
00424  A01250670-00A   ATTD14LAN CST                                            
00425  A01250671-00A   ATTD28SD  CST                                            
00426  A01250672-00A   ATTD28SD  CST                                            
00427  A01250675-00A   ATTD28SD  CST                                            
00428  A01250677-00A   ATTD28SD  CST                                            
00429  A01250678-00A   ATTD22LAS CST                                            
00430  A01250675-01A   ATTD28SD  CST                                            
00431  A01250681-00A   ATTD13OR  CST                                            
00432  A01250682-00A   ATTD124OR CST                                            
00433  A01250684-00A   ATTD14LAN CST                                            
00434  A01250685-00A   ATTD124OR CST                                            
00435  A01250686-00A   ATTD28SD  CST                                            
00436  A01250687-00A   ATTD14LAN CST                                            
00437  A01250648-00A   ATTD13OR  CST                                            
00438  A01250674-00A   ATTD19LAN CST                                            
00439  A00151049-04A   ATTD13OR  CST                                            
00440  A01250688-00A   ATTD13OR  CST                                            
00441  A01250689-00A   ATTD22LAS CST                                            
00442  A01250692-00A   ATTD13OR  CST                                            
00443  A01250697-00A   ATTD28SD  CST                                            
00444  A01250698-00A   ATTD22LAS CST                                            
00445  A01250699-00A   ATTD28SD  CST                                            
00446  A01250700-00A   ATTD22LAS CST                                            
00447  A01250702-00A   ATTD19LAN CST                                            
00448  A01250664-00A   ATTD22LAS CST                                            
00449  A01250703-00A   ATTD13OR  CST                                            
00450  A01250704-00A   ATTD13OR  CST                                            
00451  A01250706-00A   ATTD22LAS CST                                            
00452  A01250708-00A   ATTD25LAS CST                                            
00453  A01250709-00A   ATTD124OR CST                                            
00454  A01250712-00A   ATTD124OR CST                                            
00455  A01250698-01A   ATTD22LAS CST                                            
00456  A01250664-00A   ATTD25LAS CST                                            
00457  A01250714-00A   ATTD17LAN CST                                            
00458  A01190872-01A   ATTD13OR  CST                                            
00459  A01250678-01A   ATTD22LAS CST                                            
00460  A00820880-05A   ATTD13OR  CST                                            
00461  A01250721-00A   ATTD14LAN CST                                            
00462  A01250730-00A   ATTD22LAS CST                                            
00463  A01250736-00A   ATTD01OR  CST                                            
00464  A01250739-00A   ATTD28SD  CST                                            
00465  A01250740-00A   ATTD22LAS CST                                            
00466  A01250744-00A   ATTD01OR  CST                                            
00467  A92990770-07A   ATTD13OR  CST                                            
00468  A92990771-07A   ATTD13OR  CST                                            
00469  A01250749-00A   ATTD17LAN CST                                            
00470  A01250751-00A   ATTD28SD  CST                                            
00471  A01250698-03A   ATTD22LAS CST                                            
00472  A01250752-00A   ATTD01OR  CST                                            
00473  A01250753-00A   ATTD28SD  CST                                            
00474  A01250756-00A   ATTD28SD  CST                                            
00475  A01250765-00A   ATTD28SD  CST                                            
00476  A01250760-00A   ATTD28SD  CST                                            
00477  A01250767-00A   ATTD13OR  CST                                            
00478  A01250771-00A   ATTD18LAN CST                                            
00479  A01240596-01A   ATTD01OR  CST                                            
00480  A01250669-01A   ATTD01OR  CST                                            
00481  A01250774-00A   ATTD22LAS CST                                            
00482  A01250775-00A   ATTD01OR  CST                                            
00483  A01250779-00A   ATTD124OR CST                                            
00484  A01250783-00A   ATTD28SD  CST                                            
00485  A01250784-00A   ATTD01OR  CST                                            
00486  A01250785-00A   ATTD28SD  CST                                            
00487  A01250722-00A   ATTD13OR  CST                                            
00488  A01250786-00A   ATTD28SD  CST                                            
00489  A01250787-00A   ATTD22LAS CST                                            
00490  A01250787-00A   ATTD25LAS CST                                            
00491  A01250724-00A   ATTD19LAN CST                                            
00492  A01250732-00A   ATTD17LAN CST                                            
00493  A01250790-00A   ATTD13OR  CST                                            
00494  A01250791-00A   ATTD28SD  CST                                            
00495  A01250794-00A   ATTD25LAS CST                                            
00496  A01250795-00A   ATTD13OR  CST                                            
00497  A01250790-01A   ATTD13OR  CST                                            
00498  A01250796-00A   ATTD18LAN CST                                            
00499  A01250797-00A   ATTD14LAN CST                                            
00500  A01250798-00A   ATTD20LAN CST                                            
00501  A01250799-00A   ATTD25LAS CST                                            
00502  A01250703-01A   ATTD13OR  CST                                            
00503  A01250803-00A   ATTD25LAS CST                                            
00504  A00690967-02A   ATTD28SD  CST                                            
00505  A01250804-00A   ATTD14LAN CST                                            
00506  A01250806-00A   ATTD25LAS CST                                            
00507  A00690977-02A   ATTD28SD  CST                                            
00508  A00690978-02A   ATTD28SD  CST                                            
00509  A01250808-00A   ATTD14LAN CST                                            
00510  A00690979-02A   ATTD28SD  CST                                            
00511  A00690981-02A   ATTD28SD  CST                                            
00512  A00690983-02A   ATTD28SD  CST                                            
00513  A00690984-02A   ATTD28SD  CST                                            
00514  A00690987-02A   ATTD28SD  CST                                            
00515  A00040930-18A   ATTD28SD  CST                                            
00516  A01250812-00A   ATTD14LAN CST                                            
00517  A00040942-17A   ATTD28SD  CST                                            
00518  A00040946-15A   ATTD28SD  CST                                            
00519  A00690990-02A   ATTD28SD  CST                                            
00520  A00690990-03A   ATTD28SD  CST                                            
00521  A00690992-02A   ATTD28SD  CST                                            
00522  A00690993-02A   ATTD28SD  CST                                            
00523  A00690995-02A   ATTD28SD  CST                                            
00524  A01250815-00A   ATTD28SD  CST                                            
00525  A00690996-02A   ATTD17LAN CST                                            
00526  A01250816-00A   ATTD14LAN CST                                            
00527  A00900133-03A   ATTD28SD  CST                                            
00528  A00691270-04A   ATTD28SD  CST                                            
00529  A00810968-06A   ATTD28SD  CST                                            
00530  A01250819-00A   ATTD17LAN CST                                            
00531  A01250818-00A   ATTD22LAS CST                                            
00532  A01250822-00A   ATTD17LAN CST                                            
00533  A00910412-03A   ATTD22LAS CST                                            
00534  A01250819-01A   ATTD17LAN CST                                            
00535  A01250824-00A   ATTD28SD  CST                                            
00536  A01250827-00A   ATTD17LAN CST                                            
00537  A01250829-00A   ATTD22LAS CST                                            
00538  A01190836-01A   ATTD28SD  CST                                            
00539  A01250837-00A   ATTD14LAN CST                                            
00540  A01250839-00A   ATTD28SD  CST                                            
00541  A01250842-00A   ATTD22LAS CST                                            
00542  A01250843-00A   ATTD01OR  CST                                            
00543  A01250844-00A   ATTD28SD  CST                                            
00544  A01250845-00A   ATTD13OR  CST                                            
00545  A01250848-00A   ATTD28SD  CST                                            
00546  A01250849-00A   ATTD28SD  CST                                            
00547  A01250851-00A   ATTD14LAN CST                                            
00548  A01250852-00A   ATTD25LAS CST                                            
00549  A01250853-00A   ATTD13OR  CST                                            
00550  A01250854-00A   ATTD22LAS CST                                            
00551  A01250856-00A   ATTD19LAN CST                                            
00552  A01250860-00A   ATTD28SD  CST                                            
00553  A01250861-00A   ATTD28SD  CST                                            
00554  A01130637-01A   ATTD01OR  CST                                            
00555  A01051381-01A   ATTD22LAS CST                                            
00556  A00980503-02A   ATTD22LAS CST                                            
00557  A01250866-00A   ATTD19LAN CST                                            
00558  A00080594-08A   ATTD13OR  CST                                            
00559  A00280959-06A   ATTD13OR  CST                                            
00560  A93081452-09A   ATTD13OR  CST                                            
00561  A01250872-00A   ATTD22LAS CST                                            
00562  A92670477-10A   ATTD01OR  CST                                            
00563  A92450404-10A   ATTD14LAN CST                                            
00564  A91801267-15A   ATTD22LAS CST                                            
00565  A01061022-01A   ATTD13OR  CST                                            
00566  A01061023-01A   ATTD13OR  CST                                            
00567  A01061026-01A   ATTD13OR  CST                                            
00568  A01250879-00A   ATTD19LAN CST                                            
00569  A00740503-03A   ATTD22LAS CST                                            
00570  A00740513-03A   ATTD22LAS CST                                            
00571  A00740516-03A   ATTD22LAS CST                                            
00572  A00740531-03A   ATTD22LAS CST                                            
00573  A00960314-02A   ATTD22LAS CST                                            
00574  A00960318-03A   ATTD22LAS CST                                            
00575  A00960325-02A   ATTD22LAS CST                                            
00576  A01250882-00A   ATTD19LAN CST                                            
00577  A01250884-00A   ATTD14LAN CST                                            
00578  A01250886-00A   ATTD22LAS CST                                            
00579  A01250888-00A   ATTD124OR CST                                            
00580  A01250889-00A   ATTD28SD  CST                                            
00581  A01250891-00A   ATTD25LAS CST                                            
00582  A01250893-00A   ATTD14LAN CST                                            
00583  A01250894-00A   ATTD28SD  CST                                            
00584  A01250896-00A   ATTD13OR  CST                                            
00585  A01250897-00A   ATTD28SD  CST                                            
00586  A01250899-00A   ATTD01OR  CST                                            
00587  A01230853-01A   ATTD13OR  CST                                            
00588  A01250900-00A   ATTD22LAS CST                                            
00589  A00990287-01A   ATTD13OR  CST                                            
00590  A00840845-02A   ATTD14LAN CST                                            
00591  A01250901-00A   ATTD13OR  CST                                            
00592  A01250902-00A   ATTD01OR  CST                                            
00593  A00990291-01A   ATTD13OR  CST                                            
00594  A01250903-00A   ATTD28SD  CST                                            
00595  A01050803-01A   ATTD13OR  CST                                            
00596  A01250881-00A   ATTD22LAS CST                                            
00597  A01250869-00A   ATTD13OR  CST                                            
00598  A00470591-03A   ATTD17LAN CST                                            
00599  A01250904-00A   ATTD14LAN CST                                            
00600  A01250906-00A   ATTD28SD  CST                                            
00601  A01250908-00A   ATTD01OR  CST                                            
00602  A01250910-00A   ATTD25LAS CST                                            
00603  A01250916-00A   ATTD25LAS CST                                            
00604  A00741002-02A   ATTD18LAN CST                                            
00605  A01241526-02A   ATTD13OR  CST                                            
00606  A01250917-00A   ATTD19LAN CST                                            
00607  A00740545-02A   ATTD18LAN CST                                            
00608  A01050161-01A   ATTD18LAN CST                                            
00609  A01250919-00A   ATTD14LAN CST                                            
00610  A01250920-00A   ATTD28SD  CST                                            
00611  A91110557-17A   ATTD18LAN CST                                            
00612  A00780738-02A   ATTD18LAN CST                                            
00613  A01250925-00A   ATTD19LAN CST                                            
00614  A01250868-00A   ATTD22LAS CST                                            
00615  A01250846-00A   ATTD25LAS CST                                            
00616  A01250813-00A   ATTD13OR  CST                                            
00617  A01250927-00A   ATTD22LAS CST                                            
00618  A01250926-00A   ATTD25LAS CST                                            
00619  A01250931-00A   ATTD14LAN CST                                            
00620  A01250929-00A   ATTD28SD  CST                                            
00621  A01250932-00A   ATTD19LAN CST                                            
00622  A01250934-00A   ATTD28SD  CST                                            
00623  A01250937-00A   ATTD28SD  CST                                            
00624  A00430864-04A   ATTD28SD  CST                                            
00625  A00430907-04A   ATTD28SD  CST                                            
00626  A93580241-06A   ATTD28SD  CST                                            
00627  A01250809-00A   ATTD13OR  CST                                            
00628  A01250802-00A   ATTD13OR  CST                                            
00629  A01250911-00A   ATTD13OR  CST                                            
00630  A00840151-02A   ATTD17LAN CST                                            
00631  A01250940-00A   ATTD19LAN CST                                            
00632  A01250942-00A   ATTD28SD  CST                                            
00633  A00690608-02A   ATTD18LAN CST                                            
00634  A01250944-00A   ATTD28SD  CST                                            
00635  A01100120-01A   ATTD18LAN CST                                            
00636  A01181358-03A   ATTD124OR CST                                            
00637  A01250948-00A   ATTD25LAS CST                                            
00638  A01250949-00A   ATTD13OR  CST                                            
00639  A01250950-00A   ATTD28SD  CST                                            
00640  A01250951-00A   ATTD19LAN CST                                            
00641  A00760753-02A   ATTD17LAN CST                                            
00642  A00760453-02A   ATTD17LAN CST                                            
00643  A01250952-00A   ATTD124OR CST                                            
00644  A01181354-03A   ATTD124OR CST                                            
00645  A01250953-00A   ATTD01OR  CST                                            
00646  A01250955-00A   ATTD28SD  CST                                            
00647  A01250954-00A   ATTD28SD  CST                                            
00648  A01250069-01A   ATTD13OR  CST                                            
00649  A01250946-00A   ATTD22LAS CST                                            
00650  A01250956-00A   ATTD28SD  CST                                            
00651  A01250958-00A   ATTD19LAN CST                                            
00652  A01250959-00A   ATTD28SD  CST                                            
00653  A01250962-00A   ATTD19LAN CST                                            
00654  A00990059-01A   ATTD13OR  CST                                            
00655  A01250964-00A   ATTD28SD  CST                                            
00656  A00690122-03A   ATTD13OR  CST                                            
00657  A01250965-00A   ATTD22LAS CST                                            
00658  A01250966-00A   ATTD19LAN CST                                            
00659  A01250967-00A   ATTD28SD  CST                                            
00660  A01250953-01A   ATTD01OR  CST                                            
00661  A00990045-01A   ATTD13OR  CST                                            
00662  A01250969-00A   ATTD17LAN CST                                            
00663  A01250970-00A   ATTD17LAN CST                                            
00664  A01250975-00A   ATTD25LAS CST                                            
00665  A01250976-00A   ATTD19LAN CST                                            
00666  A01181358-04A   ATTD124OR CST                                            
00667  A01250981-00A   ATTD25LAS CST                                            
00668  A01181358-05A   ATTD124OR CST                                            
00669  A00820431-03A   ATTD28SD  CST                                            
00670  A01250984-00A   ATTD28SD  CST                                            
00671  A01250985-00A   ATTD25LAS CST                                            
00672  A01250987-00A   ATTD13OR  CST                                            
00673  A01250988-00A   ATTD19LAN CST                                            
00674  A01250989-00A   ATTD22LAS CST                                            
00675  A01250992-00A   ATTD28SD  CST                                            
00676  A01250993-00A   ATTD124OR CST                                            
00677  A01250994-00A   ATTD19LAN CST                                            
00678  A01250995-00A   ATTD22LAS CST                                            
00679  A01250998-00A   ATTD124OR CST                                            
00680  A01250999-00A   ATTD13OR  CST                                            
00681  A01130689-01A   ATTD28SD  CST                                            
00682  A01251001-00A   ATTD13OR  CST                                            
00683  A01250998-01A   ATTD124OR CST                                            
00684  A01251003-00A   ATTD13OR  CST                                            
00685  A01251004-00A   ATTD28SD  CST                                            
00686  A01251005-00A   ATTD13OR  CST                                            
00687  A01251006-00A   ATTD01OR  CST                                            
00688  A01251007-00A   ATTD28SD  CST                                            
00689  A01251008-00A   ATTD19LAN CST                                            
00690  A01251009-00A   ATTD18LAN CST                                            
00691  A01251010-00A   ATTD28SD  CST                                            
00692  A01251011-00A   ATTD13OR  CST                                            
00693  A01251013-00A   ATTD01OR  CST                                            
00694  A01251014-00A   ATTD14LAN CST                                            
00695  A01251015-00A   ATTD17LAN CST                                            
00696  A01251017-00A   ATTD28SD  CST                                            
00697  A01251020-00A   ATTD28SD  CST                                            
00698  A01251021-00A   ATTD28SD  CST                                            
00699  A01251022-00A   ATTD13OR  CST                                            
00700  A01121137-01A   ATTD01OR  CST                                            
00701  A01251023-00A   ATTD17LAN CST                                            
00702  A01251024-00A   ATTD124OR CST                                            
00703  A01251026-00A   ATTD28SD  CST                                            
00704  A01251028-00A   ATTD19LAN CST                                            
00705  A01251029-00A   ATTD01OR  CST                                            
00706  A01251030-00A   ATTD124OR CST                                            
00707  A01251031-00A   ATTD28SD  CST                                            
00708  A01251034-00A   ATTD13OR  CST                                            
00709  A01251035-00A   ATTD01OR  CST                                            
00710  A01251037-00A   ATTD13OR  CST                                            
00711  A00691083-03A   ATTD19LAN CST                                            
00712  A01251040-00A   ATTD28SD  CST                                            
00713  A01040614-02A   ATTD19LAN CST                                            
00714  A01251042-00A   ATTD124OR CST                                            
00715  A92151042-14A   ATTD19LAN CST                                            
00716  A01251043-00A   ATTD22LAS CST                                            
00717  A01251044-00A   ATTD25LAS CST                                            
00718  A00470918-04A   ATTD19LAN CST                                            
00719  A01251047-00A   ATTD22LAS CST                                            
00720  A00670512-03A   ATTD19LAN CST                                            
00721  A01251048-00A   ATTD19LAN CST                                            
00722  A01030357-01A   ATTD19LAN CST                                            
00723  A01251050-00A   ATTD01OR  CST                                            
00724  A01251051-00A   ATTD22LAS CST                                            
00725  A01251052-00A   ATTD14LAN CST                                            
00726  A01251054-00A   ATTD22LAS CST                                            
00727  A01250656-01A   ATTD28SD  CST                                            
00728  A01251055-00A   ATTD19LAN CST                                            
00729  A01251047-01A   ATTD22LAS CST                                            
00730  A01251057-00A   ATTD19LAN CST                                            
00731  A01251059-00A   ATTD19LAN CST                                            
00732  A01251060-00A   ATTD19LAN CST                                            
00733  A01251061-00A   ATTD01OR  CST                                            
00734  A01251063-00A   ATTD19LAN CST                                            
00735  A01251065-00A   ATTD19LAN CST                                            
00736  A01251064-00A   ATTD19LAN CST                                            
00737  A01251070-00A   ATTD19LAN CST                                            
00738  A01251075-00A   ATTD19LAN CST                                            
00739  A01251080-00A   ATTD19LAN CST                                            
00740  A01251086-00A   ATTD20LAN CST                                            
00741  A01251091-00A   ATTD19LAN CST                                            
00742  A01251095-00A   ATTD01OR  CST                                            
00743  A01251098-00A   ATTD14LAN CST                                            
00744  A01251103-00A   ATTD19LAN CST                                            
00745  A01251102-00A   ATTD28SD  CST                                            
00746  A01251105-00A   ATTD19LAN CST                                            
00747  A01251109-00A   ATTD124OR CST                                            
00748  A01251111-00A   ATTD28SD  CST                                            
00749  A01251112-00A   ATTD01OR  CST                                            
00750  A01040640-02A   ATTD13OR  CST                                            
00751  A01251114-00A   ATTD28SD  CST                                            
00752  A01251111-01A   ATTD28SD  CST                                            
00753  A01040640-03A   ATTD13OR  CST                                            
00754  A01251116-00A   ATTD19LAN CST                                            
00755  A01130280-01A   ATTD25LAS CST                                            
00756  A01251120-00A   ATTD19LAN CST                                            
00757  A01251123-00A   ATTD19LAN CST                                            
00758  A01251124-00A   ATTD17LAN CST                                            
00759  A01251126-00A   ATTD28SD  CST                                            
00760  A01251125-00A   ATTD19LAN CST                                            
00761  A01251129-00A   ATTD19LAN CST                                            
00762  A01251131-00A   ATTD28SD  CST                                            
00763  A01251133-00A   ATTD01OR  CST                                            
00764  A01251136-00A   ATTD19LAN CST                                            
00765  A01251096-00A   ATTD13OR  CST                                            
00766  A01251139-00A   ATTD13OR  CST                                            
00767  A00391004-08A   ATTD25LAS CST                                            
00768  A01251141-00A   ATTD19LAN CST                                            
00769  A01251119-00A   ATTD28SD  CST                                            
00770  A01251142-00A   ATTD13OR  CST                                            
00771  A01251144-00A   ATTD19LAN CST                                            
00772  A01251147-00A   ATTD19LAN CST                                            
00773  A01251149-00A   ATTD28SD  CST                                            
00774  A00971244-01A   ATTD18LAN CST                                            
00775  A00971234-01A   ATTD18LAN CST                                            
00776  A00971273-01A   ATTD18LAN CST                                            
00777  A00971242-01A   ATTD18LAN CST                                            
00778  A00971273-01A   ATTD20LAN CST                                            
00779  A00971197-01A   ATTD18LAN CST                                            
00780  A00971197-01A   ATTD25LAS CST                                            
00781  A00971216-01A   ATTD25LAS CST                                            
00782  A00971216-01A   ATTD18LAN CST                                            
00783  A01251153-00A   ATTD19LAN CST                                            
00784  A00971174-01A   ATTD25LAS CST                                            
00785  A01251154-00A   ATTD14LAN CST                                            
00786  A00971174-01A   ATTD18LAN CST                                            
00787  A00971261-01A   ATTD18LAN CST                                            
00788  A01251155-00A   ATTD22LAS CST                                            
00789  A01251157-00A   ATTD22LAS CST                                            
00790  A01251158-00A   ATTD19LAN CST                                            
00791  A01251161-00A   ATTD28SD  CST                                            
00792  A01251163-00A   ATTD14LAN CST                                            
00793  A01251164-00A   ATTD01OR  CST                                            
00794  A01251167-00A   ATTD20LAN CST                                            
00795  A93071396-08A   ATTD22LAS CST                                            
00796  A01251170-00A   ATTD01OR  CST                                            
00797  A01251171-00A   ATTD25LAS CST                                            
00798  A00490031-03A   ATTD25LAS CST                                            
00799  A01251172-00A   ATTD124OR CST                                            
00800  A01251174-00A   ATTD14LAN CST                                            
00801  A01251176-00A   ATTD14LAN CST                                            
00802  A00561185-03A   ATTD19LAN CST                                            
00803  A01251179-00A   ATTD28SD  CST                                            
00804  A01251183-00A   ATTD18LAN CST                                            
00805  A01251184-00A   ATTD25LAS CST                                            
00806  A01251185-00A   ATTD25LAS CST                                            
00807  A00711003-02A   ATTD124OR CST                                            
00808  A00970289-01A   ATTD01OR  CST                                            
00809  A01251186-00A   ATTD25LAS CST                                            
00810  A01251187-00A   ATTD19LAN CST                                            
00811  A01251189-00A   ATTD28SD  CST                                            
00812  A01251198-00A   ATTD22LAS CST                                            
00813  A01251199-00A   ATTD19LAN CST                                            
00814  A01170511-01A   ATTD17LAN CST                                            
00815  A01251213-00A   ATTD18LAN CST                                            
00816  A01251216-00A   ATTD22LAS CST                                            
00817  A01250344-01A   ATTD22LAS CST                                            
00818  A01251230-00A   ATTD28SD  CST                                            
00819  A01251235-00A   ATTD28SD  CST                                            
00820  A01251236-00A   ATTD14LAN CST                                            
00821  A01251237-00A   ATTD14LAN CST                                            
00822  A01251238-00A   ATTD28SD  CST                                            
00823  A01251240-00A   ATTD14LAN CST                                            
00824  A01251241-00A   ATTD13OR  CST                                            
00825  A01251242-00A   ATTD13OR  CST                                            
00826  A01251244-00A   ATTD13OR  CST                                            
00827  A01251247-00A   ATTD28SD  CST                                            
00828  A01251248-00A   ATTD14LAN CST                                            
00829  A01251244-01A   ATTD13OR  CST                                            
00830  A01251249-00A   ATTD28SD  CST                                            
00831  A01251244-02A   ATTD13OR  CST                                            
00832  A01040445-01A   ATTD22LAS CST                                            
00833  A01251252-00A   ATTD14LAN CST                                            
00834  A01251253-00A   ATTD14LAN CST                                            
00835  A01251255-00A   ATTD22LAS CST                                            
00836  A01251254-00A   ATTD14LAN CST                                            
00837  A01251256-00A   ATTD19LAN CST                                            
00838  A01251258-00A   ATTD14LAN CST                                            
00839  A01251259-00A   ATTD22LAS CST                                            
00840  A01251261-00A   ATTD18LAN CST                                            
00841  A01250740-01A   ATTD22LAS CST                                            
00842  A01251262-00A   ATTD13OR  CST                                            
00843  A01251164-01A   ATTD01OR  CST                                            
00844  A01251263-00A   ATTD14LAN CST                                            
00845  A01251264-00A   ATTD13OR  CST                                            
00846  A01251265-00A   ATTD17LAN CST                                            
00847  A01251266-00A   ATTD01OR  CST                                            
00848  A01251268-00A   ATTD01OR  CST                                            
00849  A01251269-00A   ATTD124OR CST                                            
00850  A01251270-00A   ATTD25LAS CST                                            
00851  A01251273-00A   ATTD25LAS CST                                            
00852  A01251275-00A   ATTD22LAS CST                                            
00853  A01251276-00A   ATTD124OR CST                                            
00854  A01251277-00A   ATTD25LAS CST                                            
00855  A00970299-01A   ATTD25LAS CST                                            
00856  A01251279-00A   ATTD25LAS CST                                            
00857  A01251280-00A   ATTD25LAS CST                                            
00858  A01251281-00A   ATTD14LAN CST                                            
00859  A01251282-00A   ATTD20LAN CST                                            
00860  A01251283-00A   ATTD13OR  CST                                            
00861  A01251284-00A   ATTD14LAN CST                                            
00862  A01251286-00A   ATTD124OR CST                                            
00863  A01251288-00A   ATTD14LAN CST                                            
00864  A01251287-00A   ATTD13OR  CST                                            
00865  A01251290-00A   ATTD14LAN CST                                            
00866  A01020636-01A   ATTD28SD  CST                                            
00867  A00471041-05A   ATTD28SD  CST                                            
00868  A00760512-02A   ATTD13OR  CST                                            
00869  A01251291-00A   ATTD14LAN CST                                            
00870  A01251292-00A   ATTD22LAS CST                                            
00871  A01251293-00A   ATTD19LAN CST                                            
00872  A01251294-00A   ATTD13OR  CST                                            
00873  A00971249-01A   ATTD19LAN CST                                            
00874  A92710834-12A   ATTD28SD  CST                                            
00875  A01251295-00A   ATTD01OR  CST                                            
00876  A01251296-00A   ATTD22LAS CST                                            
00877  A01251297-00A   ATTD13OR  CST                                            
00878  A01251298-00A   ATTD01OR  CST                                            
00879  A01251302-00A   ATTD01OR  CST                                            
00880  A01251304-00A   ATTD01OR  CST                                            
00881  A01251307-00A   ATTD19LAN CST                                            
00882  A01251308-00A   ATTD28SD  CST                                            
00883  A01251310-00A   ATTD01OR  CST                                            
00884  A01251309-00A   ATTD28SD  CST                                            
00885  A01251309-01A   ATTD28SD  CST                                            
00886  A01251295-01A   ATTD01OR  CST                                            
00887  A01251304-01A   ATTD01OR  CST                                            
00888  A01251312-00A   ATTD01OR  CST                                            
00889  A01251314-00A   ATTD22LAS CST                                            
00890  A01251315-00A   ATTD01OR  CST                                            
00891  A01251316-00A   ATTD01OR  CST                                            
00892  A01251318-00A   ATTD01OR  CST                                            
00893  A01251317-00A   ATTD18LAN CST                                            
00894  A01251310-01A   ATTD01OR  CST                                            
00895  A01251319-00A   ATTD14LAN CST                                            
00896  A01251320-00A   ATTD13OR  CST                                            
00897  A01251321-00A   ATTD25LAS CST                                            
00898  A01251325-00A   ATTD124OR CST                                            
00899  A01251325-01A   ATTD124OR CST                                            
00900  A01251329-00A   ATTD01OR  CST                                            
00901  A01251329-01A   ATTD01OR  CST                                            
00902  A01250034-01A   ATTD01OR  CST                                            
00903  A01160061-01A   ATTD01OR  CST                                            
00904  A00990682-04A   ATTD124OR CST                                            
00905  A00980055-02A   ATTD13OR  CST                                            
00906  A00970598-02A   ATTD13OR  CST                                            
00907  A00950696-03A   ATTD124OR CST                                            
00908  A00950387-03A   ATTD13OR  CST                                            
00909  A00840809-02A   ATTD13OR  CST                                            
00910  A01251308-01A   ATTD28SD  CST                                            
00911  A01251344-00A   ATTD14LAN CST                                            
00912  A01251349-00A   ATTD28SD  CST                                            
00913  A01251355-00A   ATTD28SD  CST                                            
00914  A01251298-01A   ATTD01OR  CST                                            
00915  A01251066-00A   ATTD13OR  CST                                            
00916  A01251300-00A   ATTD13OR  CST                                            
00917  A01251289-00A   ATTD19LAN CST                                            
00918  A01251162-00A   ATTD13OR  CST                                            
00919  A00971035-01A   ATTD01OR  CST                                            
00920  A01241159-01A   ATTD13OR  CST                                            
00921  A01251175-00A   ATTD13OR  CST                                            
00922  A00120946-10A   ATTD13OR  CST                                            
00923  A01251380-00A   ATTD28SD  CST                                            
00924  A01251381-00A   ATTD28SD  CST                                            
00925  A01251382-00A   ATTD28SD  CST                                            
00926  A92711410-09A   ATTD13OR  CST                                            
00927  A01251093-00A   ATTD13OR  CST                                            
00928  A01251160-00A   ATTD19LAN CST                                            
00929  A01251148-00A   ATTD13OR  CST                                            
00930  A01251097-00A   ATTD13OR  CST                                            
00931  A01251375-00A   ATTD19LAN CST                                            
00932  A01251371-00A   ATTD19LAN CST                                            
00933  A01251339-00A   ATTD13OR  CST                                            
00934  A01251336-00A   ATTD13OR  CST                                            
00935  A01251200-00A   ATTD01OR  CST                                            
00936  A01251166-00A   ATTD19LAN CST                                            
00937  A01251335-00A   ATTD13OR  CST                                            
00938  A01251207-00A   ATTD13OR  CST                                            
00939  A01250881-01A   ATTD22LAS CST                                            
00940  A01251306-00A   ATTD19LAN CST                                            
00941  A01251085-00A   ATTD13OR  CST                                            
       ----------------                                                         
TOTAL               941                                

