
                                                                                     
 PBTMDO 00167 USAN 07/01/10 14:46:55 0069852 NORMAL NOTICE EXTENSION                 
                                                                                     
 Message Number: 0069852 Received by USAN at 14:46 on 07/01/10 by ADM                
                                                                                     
 Work Begins:    03/18/10 at 12:00   Notice: 020 hrs      Priority: 2                
 Night Work: N    Weekend Work: N                                                    
                                                                                     
 Expires: 08/03/10 at 17:00   Update By: 07/30/10 at 16:59                           
                                                                                     
 Caller:         WALT LUIHN                                                          
 Company:        W.C. MALONEY                                                        
 Address:        PO BOX 30326                                                        
 City:           STOCKTON                      State: CA Zip: 95213                  
 Business Tel:   209-942-1129                  Fax: 209-942-2579                     
 Email Address:  WLUIHN@WCMALONEY.COM                                                
                                                                                     
 Nature of Work: DIG TO REM TREES SI/WLK, C & G                                      
 Done for:       TICHERT CONSTRUCTION          Explosives: N                         
 Foreman:        CHUCK JOHNSON                                                       
 Field Tel:                                    Cell Tel: 209-623-8007                
 Area Premarked: Y   Premark Method: WHITE PAINT                                     
 Permit Type:    NO                                                                  
 Vac / Pwr Equip Use In The Approx Location Of Member Facilities Requested: N        
 Excavation Enters Into Street Or Sidewalk Area: Y                                   
                                                                                     
 Location:                                                                           
                                                                                     
     B/SI/O DRAKELEY AVE FR CALIFORNIA ST TO HIGH ST                                 
     WRK EXT APP 20' ON B/SI/O ST FOR ENT DIST                                       
                                                                                     
 Place: ATWATER                      County: MERCED               State: CA          
                                                                                     
 Long/Lat Long: -120.603164 Lat:  37.344364 Long: -120.598464 Lat:  37.346877        
                                                                                     
 Excavator Requests Operator(s) To Re-mark Their Facilities: N                       
 Comments:                                                                           
 #1 EXTEND TO 05/11/2010 RE-MARK NO ORIG DATE 03/16/2010-TLF 04/09/2010              
 PER WALT                                                                            
 #2 EXTEND TO 06/08/2010 RE-MARK NO ORIG DATE 03/16/2010-JDR 05/07/2010              
                                                                                     
 #3 EXTEND TO 07/06/2010 RE-MARK NO ORIG DATE 03/16/2010-KRS 06/04/2010              
                                                                                     
 #4 EXTEND TO 08/03/2010 RE-MARK NO ORIG DATE 03/16/2010-ADM 07/01/2010              
                                                                                     
                                                                                     
 Sent to:                                                                            
 ATTCAL = AT&T TRANSMISSION CAL        CTYATW = CITY ATWATER                         
 COMMER = COMCAST-MERCED               JACENG = JACOBS ENGINEERING                   
 MERIRR = MERCED IRRIGATION DISTRI     PBTMDO = PACIFIC BELL MODESTO                 
 PGEMER = PGE DISTR MERCED                                                           
                                                                                     
                                                                                     
                                                                                     
 At&t Ticket Id: 23560030     clli code:   ATWRCA12                                  
                                                                                     
                                                                                     
                                                                                     
                                                                                     
                                                                                     
                                                                                     
                                                                                     
                                                                                     
                                                                                     
                                                                                     
                                                                                     
                                                                                     
                                                                                     
                                                                                     
                                                                                     
                                                                                     
                                                                                     
                                                                                     
                                                                                     
                                                                                     
                                                                                     
                                                                                     
                                                                                     
                                                                                     
                                                                                     
                                                                                     
                                                                                     
                                                                                     
                                                                                     
                                                                                     
                                                                                     
                                                                                     
                                                                                     
                                                                                     
                                                                                     
=