
DIG REQUEST from UFPO for: CBLVSN W NYACK             Taken: 04/16/2010 21:22
To: UTILIQUEST / PRIMARY             Transmitted: 04/16/2010 21:29 00103

Ticket: 04160-500-168-00 Type: Regular       Previous Ticket: 
------------------------------------------------------------------------------
State: NY  County: ROCKLAND             Place: AIRMONT  /V
Addr:  From: 39     To:        Name:    CHRISTMAS HILL                 RD   
Cross: From:        To:        Name:
Offset:
------------------------------------------------------------------------------
Locate: ENTIRE PROPERTY   
NearSt: S POST LN
Means of Excavation: ROTOTILLER                              Blasting: N

Work Type: INSTALLING INVISIBLE FENCE
Start Date and Time: 04/21/2010 07:00
------------------------------------------------------------------------------
Contact Name: JASON PICKUP
Company: CANINE FENCE COMPANY
Addr1: 493 DANBURY RD                  Addr2:                                 
City: WILTON                           State: CT    Zip: 06897
Phone: 866-363-3647                    Fax: 203-762-2852                    
Email: SERVICECONTROL@CANINEFENCE.COM                                         
Field Contact: OFFICE

Working for: HOMEOWNER
------------------------------------------------------------------------------
Comments: Lookup Type: MANUAL
------------------------------------------------------------------------------

Members: AT&T                             CBLVSN W NYACK                   
       : O&R UTILS / RCK-ORNG             RCKLND CTY SWR 1                 
       : TWN RAMAPO HWY                   UNI WTR NEW YRK                  
       : BELL-VALHALLA / HDSN VLY         



