
------=_Part_217_24075118.1351832410938
Content-Type: text/plain; charset=ISO-8859-1
Content-Transfer-Encoding: 7bit

EOD ATTGA Thu Nov 01 23:59:59 CDT 2012

Sequence
10292-265-038 1 Thu Nov 01 00:09:52 CDT 2012
10292-216-025 2 Thu Nov 01 00:09:54 CDT 2012
10292-336-004 3 Thu Nov 01 00:09:55 CDT 2012
10292-326-051 4 Thu Nov 01 00:09:56 CDT 2012
10292-242-024 5 Thu Nov 01 00:09:57 CDT 2012
10292-300-336 6 Thu Nov 01 00:09:57 CDT 2012
10292-212-024 7 Thu Nov 01 00:09:58 CDT 2012
10292-300-497 8 Thu Nov 01 00:10:02 CDT 2012
10292-223-033 9 Thu Nov 01 00:10:03 CDT 2012
10292-274-029 10 Thu Nov 01 00:10:04 CDT 2012
10292-300-494 11 Thu Nov 01 00:10:06 CDT 2012
10292-300-650 12 Thu Nov 01 00:10:07 CDT 2012
10292-336-011 13 Thu Nov 01 00:10:07 CDT 2012
10292-300-504 14 Thu Nov 01 00:10:08 CDT 2012
10292-214-031 15 Thu Nov 01 00:10:09 CDT 2012
10292-300-528 16 Thu Nov 01 00:10:10 CDT 2012
10292-336-010 17 Thu Nov 01 00:10:10 CDT 2012
10292-336-007 18 Thu Nov 01 00:10:12 CDT 2012
10292-242-050 19 Thu Nov 01 00:10:12 CDT 2012
10292-336-006 20 Thu Nov 01 00:10:12 CDT 2012
10292-256-034 21 Thu Nov 01 00:10:13 CDT 2012
10292-336-005 22 Thu Nov 01 00:10:13 CDT 2012
10292-258-049 23 Thu Nov 01 00:10:14 CDT 2012
10292-300-467 24 Thu Nov 01 00:10:14 CDT 2012
10292-300-551 25 Thu Nov 01 00:10:14 CDT 2012
10292-300-623 26 Thu Nov 01 00:10:16 CDT 2012
10292-336-008 27 Thu Nov 01 00:10:16 CDT 2012
10292-300-617 28 Thu Nov 01 00:10:17 CDT 2012
10292-263-034 29 Thu Nov 01 00:10:17 CDT 2012
10292-336-012 30 Thu Nov 01 00:10:17 CDT 2012
11012-234-004 31 Thu Nov 01 00:50:49 CDT 2012
11012-300-001 32 Thu Nov 01 03:57:31 CDT 2012
11012-300-002 33 Thu Nov 01 04:23:28 CDT 2012
11012-300-004 34 Thu Nov 01 05:05:30 CDT 2012
11012-300-003 35 Thu Nov 01 05:10:00 CDT 2012
11012-300-012 36 Thu Nov 01 05:35:27 CDT 2012
11012-300-011 37 Thu Nov 01 05:40:17 CDT 2012
11012-234-016 38 Thu Nov 01 05:43:27 CDT 2012
11012-300-015 39 Thu Nov 01 06:04:23 CDT 2012
11012-231-002 40 Thu Nov 01 06:35:30 CDT 2012
11012-214-001 41 Thu Nov 01 06:39:20 CDT 2012
11012-263-001 42 Thu Nov 01 06:46:01 CDT 2012
11012-232-002 43 Thu Nov 01 06:55:31 CDT 2012
11012-355-001 44 Thu Nov 01 06:59:31 CDT 2012
11012-257-002 45 Thu Nov 01 06:59:33 CDT 2012
11012-300-040 46 Thu Nov 01 07:03:42 CDT 2012
11012-300-043 47 Thu Nov 01 07:07:47 CDT 2012
11012-300-045 48 Thu Nov 01 07:11:37 CDT 2012
11012-300-044 49 Thu Nov 01 07:11:38 CDT 2012
11012-258-003 50 Thu Nov 01 07:13:27 CDT 2012
11012-263-001 51 Thu Nov 01 07:16:33 CDT 2012
11012-212-002 52 Thu Nov 01 07:20:03 CDT 2012
11012-300-055 53 Thu Nov 01 07:21:43 CDT 2012
11012-300-056 54 Thu Nov 01 07:21:44 CDT 2012
11012-300-059 55 Thu Nov 01 07:23:33 CDT 2012
11012-258-004 56 Thu Nov 01 07:23:34 CDT 2012
11012-261-002 57 Thu Nov 01 07:23:35 CDT 2012
11012-300-063 58 Thu Nov 01 07:25:33 CDT 2012
11012-300-064 59 Thu Nov 01 07:27:33 CDT 2012
10292-361-010 60 Thu Nov 01 07:27:35 CDT 2012
11012-327-002 61 Thu Nov 01 07:27:36 CDT 2012
11012-327-004 62 Thu Nov 01 07:29:38 CDT 2012
11012-240-002 63 Thu Nov 01 07:30:08 CDT 2012
11012-300-052 64 Thu Nov 01 07:30:58 CDT 2012
11012-259-005 65 Thu Nov 01 07:31:53 CDT 2012
11012-327-006 66 Thu Nov 01 07:31:55 CDT 2012
11012-254-001 67 Thu Nov 01 07:31:56 CDT 2012
11012-260-004 68 Thu Nov 01 07:33:49 CDT 2012
11012-263-003 69 Thu Nov 01 07:33:50 CDT 2012
11012-260-003 70 Thu Nov 01 07:33:53 CDT 2012
11012-265-006 71 Thu Nov 01 07:35:39 CDT 2012
11012-260-005 72 Thu Nov 01 07:35:40 CDT 2012
11012-260-006 73 Thu Nov 01 07:37:54 CDT 2012
11012-260-007 74 Thu Nov 01 07:39:34 CDT 2012
11012-260-002 75 Thu Nov 01 07:40:04 CDT 2012
11012-300-054 76 Thu Nov 01 07:40:05 CDT 2012
11012-300-061 77 Thu Nov 01 07:40:24 CDT 2012
11012-327-003 78 Thu Nov 01 07:40:25 CDT 2012
11012-300-078 79 Thu Nov 01 07:43:34 CDT 2012
11012-300-079 80 Thu Nov 01 07:43:36 CDT 2012
11012-300-082 81 Thu Nov 01 07:46:40 CDT 2012
11012-270-003 82 Thu Nov 01 07:46:42 CDT 2012
11012-336-002 83 Thu Nov 01 07:47:40 CDT 2012
11012-265-007 84 Thu Nov 01 07:47:41 CDT 2012
11012-336-003 85 Thu Nov 01 07:47:50 CDT 2012
11012-274-005 86 Thu Nov 01 07:49:30 CDT 2012
11012-235-005 87 Thu Nov 01 07:49:33 CDT 2012
11012-327-005 88 Thu Nov 01 07:50:00 CDT 2012
11012-300-089 89 Thu Nov 01 07:57:30 CDT 2012
11012-260-008 90 Thu Nov 01 08:00:06 CDT 2012
11012-300-077 91 Thu Nov 01 08:00:36 CDT 2012
11012-270-004 92 Thu Nov 01 08:02:06 CDT 2012
11012-254-002 93 Thu Nov 01 08:02:08 CDT 2012
11012-261-007 94 Thu Nov 01 08:02:09 CDT 2012
11012-223-008 95 Thu Nov 01 08:02:10 CDT 2012
11012-300-092 96 Thu Nov 01 08:02:12 CDT 2012
11012-212-007 97 Thu Nov 01 08:04:26 CDT 2012
11012-300-094 98 Thu Nov 01 08:04:27 CDT 2012
10292-224-021 99 Thu Nov 01 08:04:41 CDT 2012
11012-313-001 100 Thu Nov 01 08:07:06 CDT 2012
11012-313-002 101 Thu Nov 01 08:07:46 CDT 2012
11012-260-011 102 Thu Nov 01 08:09:26 CDT 2012
11012-313-003 103 Thu Nov 01 08:09:46 CDT 2012
11012-300-087 104 Thu Nov 01 08:10:16 CDT 2012
11012-270-005 105 Thu Nov 01 08:10:18 CDT 2012
11012-313-004 106 Thu Nov 01 08:13:32 CDT 2012
11012-312-001 107 Thu Nov 01 08:17:42 CDT 2012
11012-222-002 108 Thu Nov 01 08:18:07 CDT 2012
11012-300-112 109 Thu Nov 01 08:19:47 CDT 2012
11012-236-009 110 Thu Nov 01 08:19:57 CDT 2012
10292-361-017 111 Thu Nov 01 08:20:17 CDT 2012
10262-252-004 112 Thu Nov 01 08:20:57 CDT 2012
11012-265-008 113 Thu Nov 01 08:20:58 CDT 2012
11012-263-006 114 Thu Nov 01 08:21:07 CDT 2012
11012-263-007 115 Thu Nov 01 08:21:37 CDT 2012
11012-300-113 116 Thu Nov 01 08:21:47 CDT 2012
11012-224-009 117 Thu Nov 01 08:21:48 CDT 2012
11012-313-006 118 Thu Nov 01 08:23:52 CDT 2012
11012-231-007 119 Thu Nov 01 08:25:42 CDT 2012
11012-313-007 120 Thu Nov 01 08:25:44 CDT 2012
11012-312-002 121 Thu Nov 01 08:27:33 CDT 2012
11012-300-120 122 Thu Nov 01 08:27:34 CDT 2012
11012-254-006 123 Thu Nov 01 08:29:43 CDT 2012
11012-311-003 124 Thu Nov 01 08:29:44 CDT 2012
11012-300-103 125 Thu Nov 01 08:29:45 CDT 2012
11012-313-008 126 Thu Nov 01 08:29:47 CDT 2012
11012-300-106 127 Thu Nov 01 08:30:23 CDT 2012
11012-300-111 128 Thu Nov 01 08:31:48 CDT 2012
11012-256-003 129 Thu Nov 01 08:31:50 CDT 2012
11012-312-003 130 Thu Nov 01 08:31:51 CDT 2012
11012-313-005 131 Thu Nov 01 08:31:53 CDT 2012
11012-313-009 132 Thu Nov 01 08:32:58 CDT 2012
11012-260-013 133 Thu Nov 01 08:33:58 CDT 2012
11012-324-007 134 Thu Nov 01 08:34:00 CDT 2012
11012-313-010 135 Thu Nov 01 08:35:39 CDT 2012
11012-313-011 136 Thu Nov 01 08:37:39 CDT 2012
11012-242-011 137 Thu Nov 01 08:39:54 CDT 2012
11012-313-012 138 Thu Nov 01 08:39:56 CDT 2012
11012-258-007 139 Thu Nov 01 08:39:57 CDT 2012
11012-222-003 140 Thu Nov 01 08:40:04 CDT 2012
11012-216-002 141 Thu Nov 01 08:40:24 CDT 2012
11012-313-013 142 Thu Nov 01 08:41:34 CDT 2012
11012-242-013 143 Thu Nov 01 08:41:36 CDT 2012
11012-313-014 144 Thu Nov 01 08:43:54 CDT 2012
11012-242-015 145 Thu Nov 01 08:43:56 CDT 2012
11012-300-133 146 Thu Nov 01 08:47:20 CDT 2012
11012-238-006 147 Thu Nov 01 08:50:25 CDT 2012
11012-265-011 148 Thu Nov 01 08:50:26 CDT 2012
11012-313-016 149 Thu Nov 01 08:51:55 CDT 2012
10292-211-006 150 Thu Nov 01 08:51:56 CDT 2012
11012-240-008 151 Thu Nov 01 08:53:35 CDT 2012
11012-212-011 152 Thu Nov 01 08:55:40 CDT 2012
11012-314-028 153 Thu Nov 01 08:57:40 CDT 2012
11012-300-142 154 Thu Nov 01 08:57:41 CDT 2012
11012-216-006 155 Thu Nov 01 08:59:51 CDT 2012
11012-242-014 156 Thu Nov 01 09:01:21 CDT 2012
11012-300-130 157 Thu Nov 01 09:01:22 CDT 2012
11012-242-012 158 Thu Nov 01 09:01:23 CDT 2012
11012-254-007 159 Thu Nov 01 09:02:46 CDT 2012
11012-238-007 160 Thu Nov 01 09:02:56 CDT 2012
11012-238-008 161 Thu Nov 01 09:02:58 CDT 2012
11012-216-007 162 Thu Nov 01 09:04:16 CDT 2012
11012-300-137 163 Thu Nov 01 09:10:16 CDT 2012
11012-224-012 164 Thu Nov 01 09:10:18 CDT 2012
11012-235-013 165 Thu Nov 01 09:10:57 CDT 2012
11012-313-017 166 Thu Nov 01 09:10:58 CDT 2012
11012-351-002 167 Thu Nov 01 09:11:01 CDT 2012
11012-300-140 168 Thu Nov 01 09:11:07 CDT 2012
11012-346-012 169 Thu Nov 01 09:11:08 CDT 2012
11012-351-004 170 Thu Nov 01 09:17:02 CDT 2012
11012-314-030 171 Thu Nov 01 09:17:42 CDT 2012
11012-400-037 172 Thu Nov 01 09:19:47 CDT 2012
11012-224-015 173 Thu Nov 01 09:19:49 CDT 2012
11012-400-035 174 Thu Nov 01 09:19:51 CDT 2012
11012-224-016 175 Thu Nov 01 09:19:53 CDT 2012
11012-314-029 176 Thu Nov 01 09:20:17 CDT 2012
11012-300-163 177 Thu Nov 01 09:21:48 CDT 2012
11012-351-006 178 Thu Nov 01 09:21:49 CDT 2012
11012-300-164 179 Thu Nov 01 09:21:50 CDT 2012
11012-236-012 180 Thu Nov 01 09:24:13 CDT 2012
11012-351-007 181 Thu Nov 01 09:24:14 CDT 2012
11012-236-013 182 Thu Nov 01 09:24:15 CDT 2012
10242-257-026 183 Thu Nov 01 09:24:17 CDT 2012
11012-236-014 184 Thu Nov 01 09:25:43 CDT 2012
11012-236-015 185 Thu Nov 01 09:25:45 CDT 2012
11012-235-015 186 Thu Nov 01 09:25:47 CDT 2012
11012-242-018 187 Thu Nov 01 09:25:48 CDT 2012
10222-240-059 188 Thu Nov 01 09:29:48 CDT 2012
11012-259-013 189 Thu Nov 01 09:29:50 CDT 2012
11012-300-170 190 Thu Nov 01 09:29:51 CDT 2012
11012-274-013 191 Thu Nov 01 09:30:08 CDT 2012
11012-300-156 192 Thu Nov 01 09:30:10 CDT 2012
11012-324-008 193 Thu Nov 01 09:30:11 CDT 2012
11012-351-003 194 Thu Nov 01 09:30:13 CDT 2012
11012-313-018 195 Thu Nov 01 09:30:48 CDT 2012
11012-224-014 196 Thu Nov 01 09:32:08 CDT 2012
11012-300-162 197 Thu Nov 01 09:32:09 CDT 2012
11012-351-005 198 Thu Nov 01 09:32:11 CDT 2012
11012-242-019 199 Thu Nov 01 09:32:18 CDT 2012
11012-241-018 200 Thu Nov 01 09:34:44 CDT 2012
11012-300-176 201 Thu Nov 01 09:34:45 CDT 2012
11012-242-020 202 Thu Nov 01 09:34:46 CDT 2012
11012-242-021 203 Thu Nov 01 09:35:49 CDT 2012
11012-313-020 204 Thu Nov 01 09:35:50 CDT 2012
11012-300-183 205 Thu Nov 01 09:37:44 CDT 2012
11012-300-184 206 Thu Nov 01 09:39:54 CDT 2012
11012-315-011 207 Thu Nov 01 09:39:55 CDT 2012
11012-313-021 208 Thu Nov 01 09:39:58 CDT 2012
11012-300-169 209 Thu Nov 01 09:40:34 CDT 2012
11012-313-022 210 Thu Nov 01 09:41:44 CDT 2012
11012-300-188 211 Thu Nov 01 09:41:46 CDT 2012
11012-274-014 212 Thu Nov 01 09:41:48 CDT 2012
11012-300-192 213 Thu Nov 01 09:44:15 CDT 2012
11012-313-023 214 Thu Nov 01 09:47:30 CDT 2012
11012-238-015 215 Thu Nov 01 09:47:31 CDT 2012
11012-270-020 216 Thu Nov 01 09:48:00 CDT 2012
11012-300-197 217 Thu Nov 01 09:49:50 CDT 2012
11012-241-020 218 Thu Nov 01 09:49:51 CDT 2012
10192-274-005 219 Thu Nov 01 09:50:00 CDT 2012
11012-313-019 220 Thu Nov 01 09:50:20 CDT 2012
11012-224-018 221 Thu Nov 01 09:50:40 CDT 2012
11012-216-010 222 Thu Nov 01 09:51:50 CDT 2012
11012-252-016 223 Thu Nov 01 09:51:52 CDT 2012
11012-216-012 224 Thu Nov 01 09:53:50 CDT 2012
11012-267-009 225 Thu Nov 01 09:54:20 CDT 2012
11012-300-201 226 Thu Nov 01 09:54:22 CDT 2012
10182-333-008 227 Thu Nov 01 09:55:45 CDT 2012
11012-216-013 228 Thu Nov 01 09:55:47 CDT 2012
11012-231-020 229 Thu Nov 01 09:55:49 CDT 2012
11012-216-016 230 Thu Nov 01 09:57:46 CDT 2012
11012-216-015 231 Thu Nov 01 09:57:47 CDT 2012
11012-263-016 232 Thu Nov 01 09:57:49 CDT 2012
11012-300-190 233 Thu Nov 01 09:59:56 CDT 2012
11012-265-021 234 Thu Nov 01 09:59:57 CDT 2012
11012-216-017 235 Thu Nov 01 09:59:59 CDT 2012
11012-267-011 236 Thu Nov 01 10:00:00 CDT 2012
10242-300-134 237 Thu Nov 01 10:00:06 CDT 2012
11012-300-194 238 Thu Nov 01 10:00:56 CDT 2012
11012-313-024 239 Thu Nov 01 10:02:21 CDT 2012
11012-216-019 240 Thu Nov 01 10:02:23 CDT 2012
11012-267-012 241 Thu Nov 01 10:02:24 CDT 2012
11012-216-018 242 Thu Nov 01 10:02:26 CDT 2012
11012-300-211 243 Thu Nov 01 10:05:01 CDT 2012
11012-315-030 244 Thu Nov 01 10:05:41 CDT 2012
11012-312-006 245 Thu Nov 01 10:09:46 CDT 2012
11012-243-032 246 Thu Nov 01 10:09:48 CDT 2012
11012-216-011 247 Thu Nov 01 10:10:06 CDT 2012
11012-216-014 248 Thu Nov 01 10:10:16 CDT 2012
11012-267-010 249 Thu Nov 01 10:10:36 CDT 2012
11012-300-204 250 Thu Nov 01 10:10:38 CDT 2012
11012-315-026 251 Thu Nov 01 10:10:40 CDT 2012
11012-232-012 252 Thu Nov 01 10:10:41 CDT 2012
11012-236-017 253 Thu Nov 01 10:11:56 CDT 2012
11012-300-219 254 Thu Nov 01 10:13:47 CDT 2012
11012-256-008 255 Thu Nov 01 10:13:48 CDT 2012
11012-238-017 256 Thu Nov 01 10:17:22 CDT 2012
11012-225-010 257 Thu Nov 01 10:20:17 CDT 2012
11012-254-014 258 Thu Nov 01 10:23:48 CDT 2012
11012-300-235 259 Thu Nov 01 10:30:03 CDT 2012
11012-300-217 260 Thu Nov 01 10:30:05 CDT 2012
11012-242-025 261 Thu Nov 01 10:30:33 CDT 2012
11012-300-222 262 Thu Nov 01 10:30:35 CDT 2012
11012-223-017 263 Thu Nov 01 10:32:33 CDT 2012
11012-300-243 264 Thu Nov 01 10:32:35 CDT 2012
11012-300-242 265 Thu Nov 01 10:32:37 CDT 2012
11012-256-012 266 Thu Nov 01 10:35:04 CDT 2012
11012-300-247 267 Thu Nov 01 10:35:05 CDT 2012
11012-300-245 268 Thu Nov 01 10:35:06 CDT 2012
11012-300-249 269 Thu Nov 01 10:37:39 CDT 2012
11012-300-252 270 Thu Nov 01 10:37:49 CDT 2012
11012-270-025 271 Thu Nov 01 10:39:39 CDT 2012
11012-300-254 272 Thu Nov 01 10:39:49 CDT 2012
11012-312-009 273 Thu Nov 01 10:39:59 CDT 2012
11012-300-225 274 Thu Nov 01 10:40:09 CDT 2012
11012-214-015 275 Thu Nov 01 10:40:29 CDT 2012
11012-300-228 276 Thu Nov 01 10:40:39 CDT 2012
11012-300-257 277 Thu Nov 01 10:41:39 CDT 2012
11012-223-019 278 Thu Nov 01 10:44:09 CDT 2012
11012-300-259 279 Thu Nov 01 10:44:10 CDT 2012
11012-300-261 280 Thu Nov 01 10:44:11 CDT 2012
11012-238-019 281 Thu Nov 01 10:44:13 CDT 2012
11012-223-020 282 Thu Nov 01 10:47:24 CDT 2012
11012-337-016 283 Thu Nov 01 10:47:34 CDT 2012
11012-330-006 284 Thu Nov 01 10:48:05 CDT 2012
11012-300-238 285 Thu Nov 01 10:50:00 CDT 2012
11012-300-244 286 Thu Nov 01 10:50:30 CDT 2012
11012-300-248 287 Thu Nov 01 10:50:40 CDT 2012
11012-220-022 288 Thu Nov 01 10:51:40 CDT 2012
11012-270-026 289 Thu Nov 01 10:51:41 CDT 2012
11012-330-007 290 Thu Nov 01 10:54:20 CDT 2012
11012-300-272 291 Thu Nov 01 10:54:22 CDT 2012
11012-300-276 292 Thu Nov 01 10:55:40 CDT 2012
11012-270-027 293 Thu Nov 01 10:57:55 CDT 2012
11012-223-022 294 Thu Nov 01 10:59:35 CDT 2012
11012-300-256 295 Thu Nov 01 11:00:25 CDT 2012
11012-300-258 296 Thu Nov 01 11:01:46 CDT 2012
11012-300-262 297 Thu Nov 01 11:01:47 CDT 2012
11012-300-279 298 Thu Nov 01 11:01:48 CDT 2012
11012-326-002 299 Thu Nov 01 11:01:49 CDT 2012
11012-267-016 300 Thu Nov 01 11:01:55 CDT 2012
11012-300-282 301 Thu Nov 01 11:05:51 CDT 2012
11012-256-015 302 Thu Nov 01 11:05:52 CDT 2012
11012-258-018 303 Thu Nov 01 11:05:53 CDT 2012
11012-238-025 304 Thu Nov 01 11:10:36 CDT 2012
11012-263-017 305 Thu Nov 01 11:10:37 CDT 2012
11012-256-014 306 Thu Nov 01 11:11:16 CDT 2012
11012-300-269 307 Thu Nov 01 11:11:18 CDT 2012
11012-326-001 308 Thu Nov 01 11:11:19 CDT 2012
11012-216-021 309 Thu Nov 01 11:11:20 CDT 2012
10292-260-010 310 Thu Nov 01 11:11:21 CDT 2012
11012-225-013 311 Thu Nov 01 11:14:26 CDT 2012
11012-326-003 312 Thu Nov 01 11:20:07 CDT 2012
11012-254-017 313 Thu Nov 01 11:20:17 CDT 2012
11012-362-003 314 Thu Nov 01 11:29:47 CDT 2012
11012-267-019 315 Thu Nov 01 11:30:07 CDT 2012
11012-300-287 316 Thu Nov 01 11:31:33 CDT 2012
11012-362-004 317 Thu Nov 01 11:31:53 CDT 2012
11012-300-292 318 Thu Nov 01 11:33:53 CDT 2012
11012-362-006 319 Thu Nov 01 11:33:54 CDT 2012
11012-300-289 320 Thu Nov 01 11:33:55 CDT 2012
11012-259-021 321 Thu Nov 01 11:35:33 CDT 2012
11012-300-297 322 Thu Nov 01 11:39:38 CDT 2012
11012-362-001 323 Thu Nov 01 11:40:18 CDT 2012
11012-258-020 324 Thu Nov 01 11:40:28 CDT 2012
11012-362-002 325 Thu Nov 01 11:40:38 CDT 2012
11012-248-018 326 Thu Nov 01 11:41:37 CDT 2012
11012-248-019 327 Thu Nov 01 11:44:12 CDT 2012
11012-263-018 328 Thu Nov 01 11:46:52 CDT 2012
11012-300-302 329 Thu Nov 01 11:47:07 CDT 2012
11012-259-022 330 Thu Nov 01 11:47:47 CDT 2012
11012-243-038 331 Thu Nov 01 11:47:48 CDT 2012
11012-300-306 332 Thu Nov 01 11:49:52 CDT 2012
11012-362-005 333 Thu Nov 01 11:50:07 CDT 2012
11012-300-294 334 Thu Nov 01 11:50:27 CDT 2012
11012-224-033 335 Thu Nov 01 11:50:29 CDT 2012
11012-300-308 336 Thu Nov 01 11:51:32 CDT 2012
11012-317-001 337 Thu Nov 01 11:51:33 CDT 2012
11012-400-039 338 Thu Nov 01 11:51:42 CDT 2012
11012-258-023 339 Thu Nov 01 11:53:58 CDT 2012
11012-300-312 340 Thu Nov 01 11:53:59 CDT 2012
11012-224-037 341 Thu Nov 01 11:55:38 CDT 2012
11012-300-314 342 Thu Nov 01 11:57:43 CDT 2012
11012-248-020 343 Thu Nov 01 12:00:13 CDT 2012
11012-317-005 344 Thu Nov 01 12:00:14 CDT 2012
11012-317-006 345 Thu Nov 01 12:02:08 CDT 2012
11012-252-027 346 Thu Nov 01 12:02:10 CDT 2012
11012-300-317 347 Thu Nov 01 12:02:11 CDT 2012
11012-300-321 348 Thu Nov 01 12:05:48 CDT 2012
11012-300-324 349 Thu Nov 01 12:07:38 CDT 2012
11012-242-040 350 Thu Nov 01 12:09:34 CDT 2012
11012-216-027 351 Thu Nov 01 12:09:36 CDT 2012
11012-265-029 352 Thu Nov 01 12:10:04 CDT 2012
11012-317-002 353 Thu Nov 01 12:10:14 CDT 2012
11012-216-026 354 Thu Nov 01 12:10:44 CDT 2012
11012-220-029 355 Thu Nov 01 12:10:46 CDT 2012
11012-236-024 356 Thu Nov 01 12:10:47 CDT 2012
11012-300-327 357 Thu Nov 01 12:13:49 CDT 2012
11012-300-326 358 Thu Nov 01 12:13:51 CDT 2012
11012-337-017 359 Thu Nov 01 12:13:53 CDT 2012
11012-300-334 360 Thu Nov 01 12:19:32 CDT 2012
11012-235-033 361 Thu Nov 01 12:19:34 CDT 2012
11012-300-322 362 Thu Nov 01 12:20:37 CDT 2012
11012-337-019 363 Thu Nov 01 12:21:57 CDT 2012
11012-300-344 364 Thu Nov 01 12:22:12 CDT 2012
11012-300-343 365 Thu Nov 01 12:22:14 CDT 2012
11012-337-020 366 Thu Nov 01 12:24:13 CDT 2012
11012-241-031 367 Thu Nov 01 12:27:48 CDT 2012
11012-300-351 368 Thu Nov 01 12:27:49 CDT 2012
11012-300-349 369 Thu Nov 01 12:27:50 CDT 2012
11012-300-353 370 Thu Nov 01 12:29:58 CDT 2012
11012-231-029 371 Thu Nov 01 12:30:00 CDT 2012
11012-300-354 372 Thu Nov 01 12:30:01 CDT 2012
11012-300-328 373 Thu Nov 01 12:30:48 CDT 2012
11012-300-331 374 Thu Nov 01 12:30:59 CDT 2012
11012-259-024 375 Thu Nov 01 12:31:00 CDT 2012
11012-259-026 376 Thu Nov 01 12:32:08 CDT 2012
10182-300-711 377 Thu Nov 01 12:35:34 CDT 2012
11012-300-367 378 Thu Nov 01 12:35:35 CDT 2012
11012-235-034 379 Thu Nov 01 12:35:44 CDT 2012
11012-300-371 380 Thu Nov 01 12:37:34 CDT 2012
11012-300-376 381 Thu Nov 01 12:39:29 CDT 2012
11012-231-030 382 Thu Nov 01 12:39:49 CDT 2012
11012-300-337 383 Thu Nov 01 12:40:09 CDT 2012
11012-337-018 384 Thu Nov 01 12:40:10 CDT 2012
11012-300-336 385 Thu Nov 01 12:40:13 CDT 2012
11012-300-338 386 Thu Nov 01 12:40:14 CDT 2012
11012-337-021 387 Thu Nov 01 12:40:15 CDT 2012
11012-317-009 388 Thu Nov 01 12:40:16 CDT 2012
11012-300-352 389 Thu Nov 01 12:40:39 CDT 2012
11012-243-041 390 Thu Nov 01 12:41:39 CDT 2012
11012-300-380 391 Thu Nov 01 12:41:42 CDT 2012
11012-231-030 392 Thu Nov 01 12:43:59 CDT 2012
11012-261-029 393 Thu Nov 01 12:44:01 CDT 2012
11012-265-031 394 Thu Nov 01 12:44:24 CDT 2012
11012-300-387 395 Thu Nov 01 12:44:25 CDT 2012
11012-265-033 396 Thu Nov 01 12:47:00 CDT 2012
11012-300-388 397 Thu Nov 01 12:47:01 CDT 2012
11012-236-027 398 Thu Nov 01 12:47:03 CDT 2012
11012-235-035 399 Thu Nov 01 12:47:04 CDT 2012
11012-337-022 400 Thu Nov 01 12:50:15 CDT 2012
11012-259-027 401 Thu Nov 01 12:50:25 CDT 2012
11012-223-028 402 Thu Nov 01 12:51:50 CDT 2012
11012-300-394 403 Thu Nov 01 12:54:00 CDT 2012
11012-300-400 404 Thu Nov 01 12:55:40 CDT 2012
11012-240-024 405 Thu Nov 01 12:55:50 CDT 2012
11012-240-025 406 Thu Nov 01 12:57:30 CDT 2012
11012-300-403 407 Thu Nov 01 12:57:31 CDT 2012
11012-267-021 408 Thu Nov 01 12:59:35 CDT 2012
11012-300-378 409 Thu Nov 01 13:01:25 CDT 2012
11012-231-031 410 Thu Nov 01 13:01:27 CDT 2012
11012-241-033 411 Thu Nov 01 13:01:28 CDT 2012
11012-265-032 412 Thu Nov 01 13:01:30 CDT 2012
11012-265-034 413 Thu Nov 01 13:01:30 CDT 2012
11012-240-026 414 Thu Nov 01 13:11:21 CDT 2012
11012-261-032 415 Thu Nov 01 13:11:22 CDT 2012
11012-300-397 416 Thu Nov 01 13:11:31 CDT 2012
11012-337-023 417 Thu Nov 01 13:11:36 CDT 2012
11012-220-030 418 Thu Nov 01 13:11:51 CDT 2012
11012-212-029 419 Thu Nov 01 13:13:41 CDT 2012
11012-231-033 420 Thu Nov 01 13:13:42 CDT 2012
11012-265-038 421 Thu Nov 01 13:13:51 CDT 2012
11012-216-029 422 Thu Nov 01 13:16:57 CDT 2012
11012-300-428 423 Thu Nov 01 13:16:58 CDT 2012
11012-212-030 424 Thu Nov 01 13:17:00 CDT 2012
11012-300-426 425 Thu Nov 01 13:17:01 CDT 2012
11012-216-028 426 Thu Nov 01 13:17:12 CDT 2012
11012-300-429 427 Thu Nov 01 13:17:37 CDT 2012
11012-300-431 428 Thu Nov 01 13:17:38 CDT 2012
11012-265-040 429 Thu Nov 01 13:17:39 CDT 2012
11012-265-041 430 Thu Nov 01 13:19:47 CDT 2012
11012-300-434 431 Thu Nov 01 13:19:48 CDT 2012
11012-236-031 432 Thu Nov 01 13:20:17 CDT 2012
11012-231-034 433 Thu Nov 01 13:21:52 CDT 2012
11012-300-442 434 Thu Nov 01 13:21:57 CDT 2012
11012-300-448 435 Thu Nov 01 13:24:12 CDT 2012
11012-259-034 436 Thu Nov 01 13:24:22 CDT 2012
11012-231-035 437 Thu Nov 01 13:24:23 CDT 2012
11012-231-036 438 Thu Nov 01 13:25:42 CDT 2012
11012-300-454 439 Thu Nov 01 13:25:44 CDT 2012
11012-240-028 440 Thu Nov 01 13:25:47 CDT 2012
11012-270-040 441 Thu Nov 01 13:27:32 CDT 2012
11012-220-032 442 Thu Nov 01 13:27:34 CDT 2012
11012-211-003 443 Thu Nov 01 13:27:35 CDT 2012
11012-265-044 444 Thu Nov 01 13:29:43 CDT 2012
11012-220-033 445 Thu Nov 01 13:29:53 CDT 2012
11012-300-461 446 Thu Nov 01 13:29:54 CDT 2012
11012-212-028 447 Thu Nov 01 13:31:28 CDT 2012
11012-274-029 448 Thu Nov 01 13:32:13 CDT 2012
11012-300-433 449 Thu Nov 01 13:32:14 CDT 2012
11012-300-432 450 Thu Nov 01 13:32:16 CDT 2012
11012-225-019 451 Thu Nov 01 13:33:58 CDT 2012
11012-259-036 452 Thu Nov 01 13:35:48 CDT 2012
11012-225-020 453 Thu Nov 01 13:35:50 CDT 2012
11012-261-039 454 Thu Nov 01 13:37:38 CDT 2012
11012-220-034 455 Thu Nov 01 13:37:48 CDT 2012
11012-260-043 456 Thu Nov 01 13:39:43 CDT 2012
11012-235-040 457 Thu Nov 01 13:39:53 CDT 2012
11012-300-439 458 Thu Nov 01 13:40:13 CDT 2012
11012-300-438 459 Thu Nov 01 13:40:15 CDT 2012
11012-300-436 460 Thu Nov 01 13:40:16 CDT 2012
11012-300-437 461 Thu Nov 01 13:40:18 CDT 2012
11012-300-440 462 Thu Nov 01 13:40:18 CDT 2012
11012-300-444 463 Thu Nov 01 13:40:33 CDT 2012
11012-300-446 464 Thu Nov 01 13:40:43 CDT 2012
11012-300-447 465 Thu Nov 01 13:40:45 CDT 2012
11012-300-491 466 Thu Nov 01 13:44:34 CDT 2012
11012-267-028 467 Thu Nov 01 13:44:35 CDT 2012
11012-259-037 468 Thu Nov 01 13:45:44 CDT 2012
11012-214-028 469 Thu Nov 01 13:45:59 CDT 2012
11012-267-029 470 Thu Nov 01 13:47:19 CDT 2012
11012-267-030 471 Thu Nov 01 13:47:49 CDT 2012
11012-236-033 472 Thu Nov 01 13:47:50 CDT 2012
11012-267-031 473 Thu Nov 01 13:48:09 CDT 2012
11012-231-037 474 Thu Nov 01 13:48:10 CDT 2012
11012-225-018 475 Thu Nov 01 13:49:49 CDT 2012
11012-267-032 476 Thu Nov 01 13:49:50 CDT 2012
11012-337-036 477 Thu Nov 01 13:49:51 CDT 2012
11012-211-004 478 Thu Nov 01 13:50:29 CDT 2012
11012-300-500 479 Thu Nov 01 13:51:29 CDT 2012
11012-252-033 480 Thu Nov 01 13:53:54 CDT 2012
11012-328-002 481 Thu Nov 01 13:53:55 CDT 2012
11012-258-042 482 Thu Nov 01 13:55:38 CDT 2012
11012-328-003 483 Thu Nov 01 13:57:34 CDT 2012
11012-328-004 484 Thu Nov 01 13:57:35 CDT 2012
11012-300-505 485 Thu Nov 01 13:57:37 CDT 2012
11012-300-504 486 Thu Nov 01 13:57:38 CDT 2012
11012-336-007 487 Thu Nov 01 13:58:04 CDT 2012
11012-258-044 488 Thu Nov 01 13:58:05 CDT 2012
11012-225-021 489 Thu Nov 01 13:59:44 CDT 2012
11012-258-045 490 Thu Nov 01 13:59:45 CDT 2012
11012-300-507 491 Thu Nov 01 13:59:46 CDT 2012
11012-300-506 492 Thu Nov 01 13:59:47 CDT 2012
11012-328-006 493 Thu Nov 01 13:59:49 CDT 2012
11012-222-029 494 Thu Nov 01 14:00:34 CDT 2012
11012-267-027 495 Thu Nov 01 14:00:36 CDT 2012
11012-274-030 496 Thu Nov 01 14:00:38 CDT 2012
11012-274-031 497 Thu Nov 01 14:00:45 CDT 2012
11012-300-487 498 Thu Nov 01 14:00:46 CDT 2012
11012-300-497 499 Thu Nov 01 14:01:59 CDT 2012
11012-300-496 500 Thu Nov 01 14:02:00 CDT 2012
11012-300-493 501 Thu Nov 01 14:02:02 CDT 2012
11012-258-046 502 Thu Nov 01 14:02:03 CDT 2012
11012-254-030 503 Thu Nov 01 14:04:23 CDT 2012
11012-263-031 504 Thu Nov 01 14:05:45 CDT 2012
11012-300-515 505 Thu Nov 01 14:09:36 CDT 2012
11012-328-001 506 Thu Nov 01 14:10:06 CDT 2012
11012-258-043 507 Thu Nov 01 14:10:16 CDT 2012
11012-252-034 508 Thu Nov 01 14:10:17 CDT 2012
11012-328-005 509 Thu Nov 01 14:10:36 CDT 2012
11012-265-051 510 Thu Nov 01 14:16:11 CDT 2012
11012-258-047 511 Thu Nov 01 14:20:16 CDT 2012
11012-300-508 512 Thu Nov 01 14:20:18 CDT 2012
11012-212-035 513 Thu Nov 01 14:20:20 CDT 2012
11012-328-007 514 Thu Nov 01 14:20:26 CDT 2012
11012-260-046 515 Thu Nov 01 14:20:46 CDT 2012
11012-300-513 516 Thu Nov 01 14:20:48 CDT 2012
11012-258-048 517 Thu Nov 01 14:20:50 CDT 2012
11012-300-529 518 Thu Nov 01 14:21:36 CDT 2012
11012-214-029 519 Thu Nov 01 14:21:38 CDT 2012
11012-300-531 520 Thu Nov 01 14:23:52 CDT 2012
11012-300-535 521 Thu Nov 01 14:27:42 CDT 2012
11012-260-047 522 Thu Nov 01 14:27:43 CDT 2012
11012-212-038 523 Thu Nov 01 14:29:32 CDT 2012
11012-225-023 524 Thu Nov 01 14:29:33 CDT 2012
11012-300-537 525 Thu Nov 01 14:29:34 CDT 2012
11012-355-016 526 Thu Nov 01 14:29:52 CDT 2012
11012-300-521 527 Thu Nov 01 14:30:12 CDT 2012
11012-220-037 528 Thu Nov 01 14:30:15 CDT 2012
11012-300-540 529 Thu Nov 01 14:32:02 CDT 2012
11012-231-043 530 Thu Nov 01 14:35:47 CDT 2012
11012-300-546 531 Thu Nov 01 14:39:43 CDT 2012
11012-235-043 532 Thu Nov 01 14:40:13 CDT 2012
11012-300-551 533 Thu Nov 01 14:47:18 CDT 2012
11012-300-550 534 Thu Nov 01 14:47:20 CDT 2012
11012-242-052 535 Thu Nov 01 14:49:58 CDT 2012
11012-254-033 536 Thu Nov 01 14:49:59 CDT 2012
11012-238-044 537 Thu Nov 01 14:50:02 CDT 2012
11012-265-053 538 Thu Nov 01 14:50:03 CDT 2012
11012-300-555 539 Thu Nov 01 14:50:19 CDT 2012
11012-355-019 540 Thu Nov 01 14:50:20 CDT 2012
11012-265-054 541 Thu Nov 01 14:50:39 CDT 2012
11012-259-043 542 Thu Nov 01 14:50:49 CDT 2012
11012-259-042 543 Thu Nov 01 14:51:19 CDT 2012
11012-242-054 544 Thu Nov 01 14:51:59 CDT 2012
11012-252-039 545 Thu Nov 01 14:54:09 CDT 2012
11012-242-056 546 Thu Nov 01 14:54:10 CDT 2012
11012-248-033 547 Thu Nov 01 14:54:11 CDT 2012
11012-267-035 548 Thu Nov 01 14:55:44 CDT 2012
11012-242-057 549 Thu Nov 01 14:55:46 CDT 2012
11012-242-058 550 Thu Nov 01 14:57:34 CDT 2012
11012-354-003 551 Thu Nov 01 14:57:35 CDT 2012
11012-270-048 552 Thu Nov 01 14:59:39 CDT 2012
11012-242-051 553 Thu Nov 01 14:59:59 CDT 2012
11012-300-549 554 Thu Nov 01 15:01:09 CDT 2012
11012-260-048 555 Thu Nov 01 15:01:49 CDT 2012
11012-243-049 556 Thu Nov 01 15:01:51 CDT 2012
11012-259-044 557 Thu Nov 01 15:01:59 CDT 2012
11012-300-577 558 Thu Nov 01 15:02:00 CDT 2012
11012-257-042 559 Thu Nov 01 15:04:15 CDT 2012
11012-259-045 560 Thu Nov 01 15:04:16 CDT 2012
11012-328-009 561 Thu Nov 01 15:04:17 CDT 2012
11012-235-052 562 Thu Nov 01 15:05:55 CDT 2012
11012-267-036 563 Thu Nov 01 15:07:45 CDT 2012
11012-300-583 564 Thu Nov 01 15:07:46 CDT 2012
11012-216-036 565 Thu Nov 01 15:07:48 CDT 2012
11012-300-585 566 Thu Nov 01 15:07:49 CDT 2012
11012-328-011 567 Thu Nov 01 15:07:55 CDT 2012
11012-242-055 568 Thu Nov 01 15:11:10 CDT 2012
11012-351-018 569 Thu Nov 01 15:11:12 CDT 2012
11012-242-053 570 Thu Nov 01 15:11:13 CDT 2012
11012-243-050 571 Thu Nov 01 15:11:20 CDT 2012
11012-300-569 572 Thu Nov 01 15:11:40 CDT 2012
11012-216-035 573 Thu Nov 01 15:11:50 CDT 2012
11012-261-047 574 Thu Nov 01 15:12:00 CDT 2012
11012-342-001 575 Thu Nov 01 15:12:01 CDT 2012
11012-261-048 576 Thu Nov 01 15:13:40 CDT 2012
11012-300-588 577 Thu Nov 01 15:13:41 CDT 2012
11012-342-002 578 Thu Nov 01 15:16:06 CDT 2012
11012-300-589 579 Thu Nov 01 15:16:07 CDT 2012
11012-238-047 580 Thu Nov 01 15:17:36 CDT 2012
11012-342-004 581 Thu Nov 01 15:17:46 CDT 2012
11012-220-044 582 Thu Nov 01 15:19:36 CDT 2012
11012-238-045 583 Thu Nov 01 15:20:06 CDT 2012
11012-220-045 584 Thu Nov 01 15:21:51 CDT 2012
11012-261-051 585 Thu Nov 01 15:21:53 CDT 2012
11012-342-006 586 Thu Nov 01 15:23:51 CDT 2012
11012-342-007 587 Thu Nov 01 15:25:31 CDT 2012
11012-223-044 588 Thu Nov 01 15:25:35 CDT 2012
11012-261-052 589 Thu Nov 01 15:25:41 CDT 2012
11012-342-008 590 Thu Nov 01 15:25:42 CDT 2012
11012-243-052 591 Thu Nov 01 15:25:43 CDT 2012
11012-242-060 592 Thu Nov 01 15:27:46 CDT 2012
11012-261-053 593 Thu Nov 01 15:27:48 CDT 2012
11012-259-048 594 Thu Nov 01 15:29:47 CDT 2012
11012-261-054 595 Thu Nov 01 15:29:48 CDT 2012
11012-342-003 596 Thu Nov 01 15:31:47 CDT 2012
11012-220-043 597 Thu Nov 01 15:31:48 CDT 2012
11012-270-050 598 Thu Nov 01 15:31:52 CDT 2012
11012-261-049 599 Thu Nov 01 15:31:53 CDT 2012
11012-252-039 600 Thu Nov 01 15:31:53 CDT 2012
11012-247-005 601 Thu Nov 01 15:32:07 CDT 2012
11012-254-040 602 Thu Nov 01 15:32:08 CDT 2012
11012-261-055 603 Thu Nov 01 15:32:09 CDT 2012
11012-300-600 604 Thu Nov 01 15:32:10 CDT 2012
11012-243-053 605 Thu Nov 01 15:34:02 CDT 2012
11012-261-058 606 Thu Nov 01 15:35:42 CDT 2012
11012-254-042 607 Thu Nov 01 15:35:52 CDT 2012
11012-235-056 608 Thu Nov 01 15:35:53 CDT 2012
11012-261-059 609 Thu Nov 01 15:37:42 CDT 2012
11012-342-009 610 Thu Nov 01 15:37:44 CDT 2012
11012-261-060 611 Thu Nov 01 15:39:52 CDT 2012
11012-300-613 612 Thu Nov 01 15:39:54 CDT 2012
11012-261-050 613 Thu Nov 01 15:40:12 CDT 2012
11012-342-005 614 Thu Nov 01 15:40:13 CDT 2012
11012-247-004 615 Thu Nov 01 15:40:32 CDT 2012
11012-202-003 616 Thu Nov 01 15:44:08 CDT 2012
11012-254-043 617 Thu Nov 01 15:46:38 CDT 2012
11012-318-001 618 Thu Nov 01 15:49:43 CDT 2012
11012-314-078 619 Thu Nov 01 15:49:44 CDT 2012
11012-261-062 620 Thu Nov 01 15:49:45 CDT 2012
11012-400-043 621 Thu Nov 01 15:50:13 CDT 2012
11012-259-049 622 Thu Nov 01 15:50:14 CDT 2012
11012-300-603 623 Thu Nov 01 15:50:15 CDT 2012
11012-261-056 624 Thu Nov 01 15:50:33 CDT 2012
11012-254-041 625 Thu Nov 01 15:50:34 CDT 2012
11012-216-039 626 Thu Nov 01 15:50:43 CDT 2012
11012-261-057 627 Thu Nov 01 15:50:44 CDT 2012
11012-300-611 628 Thu Nov 01 15:51:03 CDT 2012
11012-300-624 629 Thu Nov 01 15:51:43 CDT 2012
11012-300-626 630 Thu Nov 01 15:51:44 CDT 2012
11012-342-010 631 Thu Nov 01 15:51:46 CDT 2012
11012-314-079 632 Thu Nov 01 15:51:53 CDT 2012
11012-318-002 633 Thu Nov 01 15:53:48 CDT 2012
11012-342-012 634 Thu Nov 01 15:53:50 CDT 2012
11012-220-048 635 Thu Nov 01 15:53:51 CDT 2012
11012-300-628 636 Thu Nov 01 15:53:53 CDT 2012
11012-202-006 637 Thu Nov 01 15:55:43 CDT 2012
11012-318-003 638 Thu Nov 01 15:55:44 CDT 2012
11012-202-006 639 Thu Nov 01 15:56:53 CDT 2012
11012-342-015 640 Thu Nov 01 15:57:43 CDT 2012
11012-318-004 641 Thu Nov 01 15:57:44 CDT 2012
11012-318-005 642 Thu Nov 01 15:59:43 CDT 2012
11012-261-061 643 Thu Nov 01 16:00:24 CDT 2012
11012-202-004 644 Thu Nov 01 16:00:25 CDT 2012
11012-242-063 645 Thu Nov 01 16:02:24 CDT 2012
11012-202-008 646 Thu Nov 01 16:02:25 CDT 2012
11012-342-017 647 Thu Nov 01 16:04:04 CDT 2012
11012-202-005 648 Thu Nov 01 16:09:59 CDT 2012
11012-342-011 649 Thu Nov 01 16:10:09 CDT 2012
11012-342-014 650 Thu Nov 01 16:10:29 CDT 2012
11012-202-007 651 Thu Nov 01 16:10:30 CDT 2012
11012-242-063 652 Thu Nov 01 16:10:40 CDT 2012
11012-223-047 653 Thu Nov 01 16:11:44 CDT 2012
11012-318-006 654 Thu Nov 01 16:19:30 CDT 2012
11012-342-016 655 Thu Nov 01 16:20:00 CDT 2012
11012-242-064 656 Thu Nov 01 16:20:01 CDT 2012
11012-223-046 657 Thu Nov 01 16:20:10 CDT 2012
11012-238-052 658 Thu Nov 01 16:30:16 CDT 2012
11012-318-009 659 Thu Nov 01 16:37:46 CDT 2012
11012-260-058 660 Thu Nov 01 16:51:52 CDT 2012
11012-216-055 661 Thu Nov 01 17:20:04 CDT 2012
10292-240-005 662 Thu Nov 01 17:20:14 CDT 2012
11012-300-652 663 Thu Nov 01 18:09:36 CDT 2012
11012-247-021 664 Thu Nov 01 18:15:27 CDT 2012
11012-247-024 665 Thu Nov 01 18:49:24 CDT 2012
11012-300-657 666 Thu Nov 01 18:55:24 CDT 2012
11012-247-025 667 Thu Nov 01 18:59:34 CDT 2012
11012-300-656 668 Thu Nov 01 19:10:00 CDT 2012
11012-300-658 669 Thu Nov 01 19:10:01 CDT 2012
11012-300-660 670 Thu Nov 01 19:10:20 CDT 2012
11012-300-664 671 Thu Nov 01 19:31:31 CDT 2012
11012-247-021 672 Thu Nov 01 20:03:37 CDT 2012
11012-247-032 673 Thu Nov 01 20:07:28 CDT 2012
11012-247-040 674 Thu Nov 01 21:17:31 CDT 2012
11012-247-041 675 Thu Nov 01 21:27:32 CDT 2012
11012-247-032 676 Thu Nov 01 22:49:56 CDT 2012
10302-300-261 677 Thu Nov 01 23:57:50 CDT 2012
10302-247-027 678 Thu Nov 01 23:57:53 CDT 2012
10302-258-021 679 Thu Nov 01 23:57:54 CDT 2012
10302-300-374 680 Thu Nov 01 23:57:55 CDT 2012
10302-300-321 681 Thu Nov 01 23:57:55 CDT 2012
10302-261-022 682 Thu Nov 01 23:57:56 CDT 2012
10302-220-006 683 Thu Nov 01 23:57:56 CDT 2012
10302-238-013 684 Thu Nov 01 23:57:58 CDT 2012
10302-258-023 685 Thu Nov 01 23:57:58 CDT 2012
10302-225-009 686 Thu Nov 01 23:57:59 CDT 2012
10302-257-018 687 Thu Nov 01 23:57:59 CDT 2012
10302-220-007 688 Thu Nov 01 23:58:00 CDT 2012
10302-300-295 689 Thu Nov 01 23:58:00 CDT 2012
10302-246-019 690 Thu Nov 01 23:58:01 CDT 2012
10302-300-365 691 Thu Nov 01 23:58:01 CDT 2012
10302-258-019 692 Thu Nov 01 23:58:02 CDT 2012
10302-328-006 693 Thu Nov 01 23:58:02 CDT 2012
10302-247-030 694 Thu Nov 01 23:58:03 CDT 2012
10302-328-008 695 Thu Nov 01 23:58:03 CDT 2012
10302-328-009 696 Thu Nov 01 23:58:04 CDT 2012
10302-261-023 697 Thu Nov 01 23:58:04 CDT 2012
10302-223-018 698 Thu Nov 01 23:58:05 CDT 2012
10302-328-011 699 Thu Nov 01 23:58:05 CDT 2012
10302-300-192 700 Thu Nov 01 23:58:05 CDT 2012
10302-300-161 701 Thu Nov 01 23:58:05 CDT 2012
10302-300-157 702 Thu Nov 01 23:58:06 CDT 2012
10302-328-007 703 Thu Nov 01 23:58:06 CDT 2012
10302-300-313 704 Thu Nov 01 23:58:06 CDT 2012
10302-300-186 705 Thu Nov 01 23:58:06 CDT 2012
10302-300-387 706 Thu Nov 01 23:58:07 CDT 2012
10302-223-021 707 Thu Nov 01 23:58:07 CDT 2012
10302-267-013 708 Thu Nov 01 23:58:07 CDT 2012
10302-300-190 709 Thu Nov 01 23:58:08 CDT 2012
10302-300-315 710 Thu Nov 01 23:58:08 CDT 2012
10302-265-023 711 Thu Nov 01 23:58:08 CDT 2012
10302-220-004 712 Thu Nov 01 23:58:09 CDT 2012
10302-259-012 713 Thu Nov 01 23:58:09 CDT 2012
10302-220-005 714 Thu Nov 01 23:58:09 CDT 2012
10302-267-015 715 Thu Nov 01 23:58:09 CDT 2012
10302-300-274 716 Thu Nov 01 23:58:10 CDT 2012
10302-222-008 717 Thu Nov 01 23:58:10 CDT 2012
10302-300-337 718 Thu Nov 01 23:58:10 CDT 2012
10302-212-010 719 Thu Nov 01 23:58:10 CDT 2012
10302-265-026 720 Thu Nov 01 23:58:10 CDT 2012
10302-267-014 721 Thu Nov 01 23:58:11 CDT 2012
10302-326-001 722 Thu Nov 01 23:58:11 CDT 2012
10302-247-028 723 Thu Nov 01 23:58:12 CDT 2012
10302-300-384 724 Thu Nov 01 23:58:12 CDT 2012
10302-265-048 725 Thu Nov 01 23:58:12 CDT 2012
10302-300-582 726 Thu Nov 01 23:58:12 CDT 2012
10302-241-028 727 Thu Nov 01 23:58:13 CDT 2012
10302-235-042 728 Thu Nov 01 23:58:13 CDT 2012
10302-258-042 729 Thu Nov 01 23:58:13 CDT 2012
10302-220-031 730 Thu Nov 01 23:58:13 CDT 2012
10302-220-028 731 Thu Nov 01 23:58:13 CDT 2012
10302-241-027 732 Thu Nov 01 23:58:14 CDT 2012
10302-300-553 733 Thu Nov 01 23:58:14 CDT 2012
10302-300-402 734 Thu Nov 01 23:58:14 CDT 2012
10302-247-042 735 Thu Nov 01 23:58:15 CDT 2012
10302-220-032 736 Thu Nov 01 23:58:15 CDT 2012
10302-236-024 737 Thu Nov 01 23:58:15 CDT 2012
10302-220-034 738 Thu Nov 01 23:58:15 CDT 2012
10302-300-637 739 Thu Nov 01 23:58:15 CDT 2012
10302-236-032 740 Thu Nov 01 23:58:15 CDT 2012
10302-220-024 741 Thu Nov 01 23:58:16 CDT 2012
10302-220-030 742 Thu Nov 01 23:58:16 CDT 2012
10302-326-012 743 Thu Nov 01 23:58:16 CDT 2012
10302-300-639 744 Thu Nov 01 23:58:16 CDT 2012
10302-300-449 745 Thu Nov 01 23:58:17 CDT 2012
10302-223-030 746 Thu Nov 01 23:58:17 CDT 2012
10302-247-041 747 Thu Nov 01 23:58:17 CDT 2012
10302-300-534 748 Thu Nov 01 23:58:17 CDT 2012
10302-300-500 749 Thu Nov 01 23:58:17 CDT 2012
10302-326-011 750 Thu Nov 01 23:58:18 CDT 2012
10302-258-058 751 Thu Nov 01 23:58:18 CDT 2012
10302-300-656 752 Thu Nov 01 23:58:18 CDT 2012
10302-258-041 753 Thu Nov 01 23:58:18 CDT 2012
10302-258-050 754 Thu Nov 01 23:58:18 CDT 2012
10302-300-575 755 Thu Nov 01 23:58:18 CDT 2012
10302-260-030 756 Thu Nov 01 23:58:19 CDT 2012
10302-300-517 757 Thu Nov 01 23:58:19 CDT 2012
10302-300-453 758 Thu Nov 01 23:58:19 CDT 2012
10302-232-027 759 Thu Nov 01 23:58:19 CDT 2012
10302-326-009 760 Thu Nov 01 23:58:19 CDT 2012
10302-258-048 761 Thu Nov 01 23:58:20 CDT 2012
10302-223-020 762 Thu Nov 01 23:58:20 CDT 2012
10302-247-029 763 Thu Nov 01 23:58:20 CDT 2012
10302-258-040 764 Thu Nov 01 23:58:20 CDT 2012
10302-300-723 765 Thu Nov 01 23:58:20 CDT 2012
10302-220-033 766 Thu Nov 01 23:58:20 CDT 2012
10302-256-027 767 Thu Nov 01 23:58:20 CDT 2012
10302-225-022 768 Thu Nov 01 23:58:21 CDT 2012
10302-220-029 769 Thu Nov 01 23:58:21 CDT 2012
10302-247-040 770 Thu Nov 01 23:58:21 CDT 2012
10302-247-031 771 Thu Nov 01 23:58:21 CDT 2012
10302-235-030 772 Thu Nov 01 23:58:22 CDT 2012

Sent 772 messages

------=_Part_217_24075118.1351832410938--