
------=_Part_162_25487966.1351746012346
Content-Type: text/plain; charset=ISO-8859-1
Content-Transfer-Encoding: 7bit

EOD ATTGA Wed Oct 31 23:59:59 CDT 2012

Sequence
10262-300-333 1 Wed Oct 31 00:09:54 CDT 2012
10312-300-001 2 Wed Oct 31 03:39:50 CDT 2012
10312-300-002 3 Wed Oct 31 04:07:21 CDT 2012
10312-400-003 4 Wed Oct 31 04:17:42 CDT 2012
10312-300-003 5 Wed Oct 31 04:55:39 CDT 2012
10312-354-001 6 Wed Oct 31 05:09:40 CDT 2012
10312-354-002 7 Wed Oct 31 05:17:30 CDT 2012
10312-354-003 8 Wed Oct 31 05:27:36 CDT 2012
10312-336-001 9 Wed Oct 31 05:37:36 CDT 2012
10312-234-003 10 Wed Oct 31 05:59:27 CDT 2012
10312-234-004 11 Wed Oct 31 06:05:13 CDT 2012
10312-300-024 12 Wed Oct 31 06:25:34 CDT 2012
10312-234-005 13 Wed Oct 31 06:29:49 CDT 2012
10312-300-026 14 Wed Oct 31 06:33:39 CDT 2012
10312-258-004 15 Wed Oct 31 06:39:50 CDT 2012
10312-300-030 16 Wed Oct 31 06:43:30 CDT 2012
10312-258-006 17 Wed Oct 31 06:53:25 CDT 2012
10312-264-004 18 Wed Oct 31 06:59:26 CDT 2012
10312-300-031 19 Wed Oct 31 06:59:56 CDT 2012
10312-241-002 20 Wed Oct 31 06:59:57 CDT 2012
10312-300-035 21 Wed Oct 31 07:00:56 CDT 2012
10312-236-003 22 Wed Oct 31 07:00:58 CDT 2012
10312-265-005 23 Wed Oct 31 07:04:46 CDT 2012
10312-232-001 24 Wed Oct 31 07:07:16 CDT 2012
10312-242-001 25 Wed Oct 31 07:08:16 CDT 2012
10312-300-053 26 Wed Oct 31 07:09:26 CDT 2012
10312-300-039 27 Wed Oct 31 07:10:06 CDT 2012
10312-258-007 28 Wed Oct 31 07:10:21 CDT 2012
10312-300-057 29 Wed Oct 31 07:13:32 CDT 2012
10312-224-001 30 Wed Oct 31 07:16:42 CDT 2012
10312-232-002 31 Wed Oct 31 07:16:43 CDT 2012
10312-235-003 32 Wed Oct 31 07:20:27 CDT 2012
10312-327-003 33 Wed Oct 31 07:27:33 CDT 2012
10312-327-005 34 Wed Oct 31 07:29:33 CDT 2012
10312-327-006 35 Wed Oct 31 07:29:34 CDT 2012
10312-327-008 36 Wed Oct 31 07:32:08 CDT 2012
10312-327-007 37 Wed Oct 31 07:32:10 CDT 2012
10312-225-004 38 Wed Oct 31 07:33:43 CDT 2012
10312-327-009 39 Wed Oct 31 07:33:44 CDT 2012
10312-327-011 40 Wed Oct 31 07:35:33 CDT 2012
10312-254-003 41 Wed Oct 31 07:35:43 CDT 2012
10312-235-006 42 Wed Oct 31 07:35:45 CDT 2012
10312-330-002 43 Wed Oct 31 07:37:23 CDT 2012
10312-327-012 44 Wed Oct 31 07:37:25 CDT 2012
10312-327-013 45 Wed Oct 31 07:37:59 CDT 2012
10312-327-014 46 Wed Oct 31 07:39:39 CDT 2012
10312-235-007 47 Wed Oct 31 07:39:49 CDT 2012
10312-254-002 48 Wed Oct 31 07:40:19 CDT 2012
10312-265-010 49 Wed Oct 31 07:40:29 CDT 2012
10312-223-002 50 Wed Oct 31 07:40:30 CDT 2012
10312-327-004 51 Wed Oct 31 07:40:31 CDT 2012
10312-327-016 52 Wed Oct 31 07:41:49 CDT 2012
10312-264-008 53 Wed Oct 31 07:41:50 CDT 2012
10312-327-015 54 Wed Oct 31 07:41:51 CDT 2012
10312-327-017 55 Wed Oct 31 07:43:39 CDT 2012
10312-313-001 56 Wed Oct 31 07:43:49 CDT 2012
10312-220-001 57 Wed Oct 31 07:43:51 CDT 2012
10312-327-018 58 Wed Oct 31 07:43:52 CDT 2012
10312-242-005 59 Wed Oct 31 07:43:53 CDT 2012
10312-327-021 60 Wed Oct 31 07:46:44 CDT 2012
10312-327-020 61 Wed Oct 31 07:46:46 CDT 2012
10312-236-008 62 Wed Oct 31 07:46:48 CDT 2012
10312-265-014 63 Wed Oct 31 07:46:49 CDT 2012
10312-231-014 64 Wed Oct 31 07:47:59 CDT 2012
10312-300-087 65 Wed Oct 31 07:49:25 CDT 2012
10312-247-010 66 Wed Oct 31 07:49:55 CDT 2012
10312-300-088 67 Wed Oct 31 07:49:56 CDT 2012
10312-258-009 68 Wed Oct 31 07:50:05 CDT 2012
10312-300-072 69 Wed Oct 31 07:50:06 CDT 2012
10312-327-010 70 Wed Oct 31 07:50:25 CDT 2012
10312-300-077 71 Wed Oct 31 07:50:35 CDT 2012
10312-243-003 72 Wed Oct 31 07:50:36 CDT 2012
10312-312-001 73 Wed Oct 31 07:51:35 CDT 2012
10312-247-011 74 Wed Oct 31 07:51:36 CDT 2012
10312-247-012 75 Wed Oct 31 07:53:30 CDT 2012
10312-242-007 76 Wed Oct 31 07:53:35 CDT 2012
10312-247-013 77 Wed Oct 31 07:55:40 CDT 2012
10312-264-009 78 Wed Oct 31 07:55:50 CDT 2012
10312-257-011 79 Wed Oct 31 07:57:30 CDT 2012
10312-224-006 80 Wed Oct 31 07:58:00 CDT 2012
10312-313-003 81 Wed Oct 31 07:58:02 CDT 2012
10312-224-007 82 Wed Oct 31 07:59:31 CDT 2012
10312-264-008 83 Wed Oct 31 07:59:32 CDT 2012
10312-247-015 84 Wed Oct 31 07:59:56 CDT 2012
10312-242-004 85 Wed Oct 31 08:00:11 CDT 2012
10312-327-019 86 Wed Oct 31 08:00:31 CDT 2012
10312-327-022 87 Wed Oct 31 08:01:56 CDT 2012
10312-300-084 88 Wed Oct 31 08:01:57 CDT 2012
10312-225-005 89 Wed Oct 31 08:01:58 CDT 2012
10312-235-008 90 Wed Oct 31 08:02:00 CDT 2012
10312-254-004 91 Wed Oct 31 08:02:02 CDT 2012
10312-259-002 92 Wed Oct 31 08:02:03 CDT 2012
10312-300-099 93 Wed Oct 31 08:02:05 CDT 2012
10312-247-016 94 Wed Oct 31 08:02:06 CDT 2012
10312-236-010 95 Wed Oct 31 08:02:11 CDT 2012
10312-257-012 96 Wed Oct 31 08:02:14 CDT 2012
10312-241-010 97 Wed Oct 31 08:02:15 CDT 2012
10312-313-005 98 Wed Oct 31 08:04:31 CDT 2012
10312-247-017 99 Wed Oct 31 08:04:33 CDT 2012
10312-257-013 100 Wed Oct 31 08:07:06 CDT 2012
10312-313-006 101 Wed Oct 31 08:07:36 CDT 2012
10312-300-111 102 Wed Oct 31 08:08:06 CDT 2012
10312-257-014 103 Wed Oct 31 08:08:08 CDT 2012
10312-257-015 104 Wed Oct 31 08:09:31 CDT 2012
10312-313-007 105 Wed Oct 31 08:09:41 CDT 2012
10312-243-005 106 Wed Oct 31 08:10:16 CDT 2012
10312-400-041 107 Wed Oct 31 08:10:18 CDT 2012
10312-300-093 108 Wed Oct 31 08:10:41 CDT 2012
10312-224-005 109 Wed Oct 31 08:11:01 CDT 2012
10312-312-005 110 Wed Oct 31 08:11:03 CDT 2012
10312-261-013 111 Wed Oct 31 08:11:37 CDT 2012
10312-337-001 112 Wed Oct 31 08:11:47 CDT 2012
10312-248-002 113 Wed Oct 31 08:13:37 CDT 2012
10312-257-016 114 Wed Oct 31 08:13:47 CDT 2012
10312-300-131 115 Wed Oct 31 08:16:52 CDT 2012
10312-313-008 116 Wed Oct 31 08:16:53 CDT 2012
10312-300-128 117 Wed Oct 31 08:16:54 CDT 2012
10312-257-017 118 Wed Oct 31 08:16:56 CDT 2012
10262-252-031 119 Wed Oct 31 08:17:37 CDT 2012
10312-257-018 120 Wed Oct 31 08:17:57 CDT 2012
10312-267-004 121 Wed Oct 31 08:19:57 CDT 2012
10312-247-014 122 Wed Oct 31 08:20:12 CDT 2012
10312-313-004 123 Wed Oct 31 08:20:27 CDT 2012
10312-212-009 124 Wed Oct 31 08:20:28 CDT 2012
10312-270-009 125 Wed Oct 31 08:20:30 CDT 2012
10312-247-018 126 Wed Oct 31 08:20:32 CDT 2012
10312-300-106 127 Wed Oct 31 08:20:42 CDT 2012
10312-241-012 128 Wed Oct 31 08:21:07 CDT 2012
10312-267-005 129 Wed Oct 31 08:21:32 CDT 2012
10312-257-020 130 Wed Oct 31 08:21:57 CDT 2012
10312-300-142 131 Wed Oct 31 08:24:02 CDT 2012
10312-257-021 132 Wed Oct 31 08:24:03 CDT 2012
10312-270-011 133 Wed Oct 31 08:25:32 CDT 2012
10312-300-145 134 Wed Oct 31 08:25:34 CDT 2012
10312-248-003 135 Wed Oct 31 08:25:35 CDT 2012
10312-257-022 136 Wed Oct 31 08:25:47 CDT 2012
10312-300-149 137 Wed Oct 31 08:27:38 CDT 2012
10312-270-012 138 Wed Oct 31 08:27:39 CDT 2012
10312-258-016 139 Wed Oct 31 08:27:58 CDT 2012
10312-313-009 140 Wed Oct 31 08:27:59 CDT 2012
10312-300-157 141 Wed Oct 31 08:29:33 CDT 2012
10312-259-003 142 Wed Oct 31 08:29:58 CDT 2012
10312-241-011 143 Wed Oct 31 08:29:59 CDT 2012
10312-254-010 144 Wed Oct 31 08:31:28 CDT 2012
10312-232-005 145 Wed Oct 31 08:31:29 CDT 2012
10312-337-002 146 Wed Oct 31 08:31:31 CDT 2012
10312-300-160 147 Wed Oct 31 08:32:38 CDT 2012
10312-300-122 148 Wed Oct 31 08:32:40 CDT 2012
10312-264-014 149 Wed Oct 31 08:34:18 CDT 2012
10312-232-006 150 Wed Oct 31 08:34:19 CDT 2012
10312-300-166 151 Wed Oct 31 08:35:48 CDT 2012
10312-241-014 152 Wed Oct 31 08:37:48 CDT 2012
10312-300-169 153 Wed Oct 31 08:37:50 CDT 2012
10312-300-137 154 Wed Oct 31 08:40:13 CDT 2012
10312-258-015 155 Wed Oct 31 08:40:18 CDT 2012
10312-260-009 156 Wed Oct 31 08:40:20 CDT 2012
10312-243-010 157 Wed Oct 31 08:40:21 CDT 2012
10312-300-140 158 Wed Oct 31 08:40:22 CDT 2012
10312-300-146 159 Wed Oct 31 08:40:43 CDT 2012
10312-300-147 160 Wed Oct 31 08:40:45 CDT 2012
10312-300-156 161 Wed Oct 31 08:41:38 CDT 2012
10312-243-011 162 Wed Oct 31 08:41:40 CDT 2012
10312-300-174 163 Wed Oct 31 08:41:53 CDT 2012
10312-236-013 164 Wed Oct 31 08:47:14 CDT 2012
10312-317-002 165 Wed Oct 31 08:48:14 CDT 2012
10232-300-139 166 Wed Oct 31 08:49:49 CDT 2012
10312-267-003 167 Wed Oct 31 08:50:14 CDT 2012
10262-267-026 168 Wed Oct 31 08:50:15 CDT 2012
10312-257-019 169 Wed Oct 31 08:50:39 CDT 2012
10312-242-018 170 Wed Oct 31 08:50:41 CDT 2012
10312-224-014 171 Wed Oct 31 08:50:43 CDT 2012
10312-220-009 172 Wed Oct 31 08:50:44 CDT 2012
10312-313-010 173 Wed Oct 31 08:51:34 CDT 2012
10312-317-003 174 Wed Oct 31 08:53:44 CDT 2012
10312-317-004 175 Wed Oct 31 08:55:34 CDT 2012
10312-300-192 176 Wed Oct 31 08:55:36 CDT 2012
10312-317-005 177 Wed Oct 31 08:57:50 CDT 2012
10292-247-010 178 Wed Oct 31 08:57:52 CDT 2012
10312-300-195 179 Wed Oct 31 08:58:00 CDT 2012
10312-267-008 180 Wed Oct 31 09:01:10 CDT 2012
10312-258-018 181 Wed Oct 31 09:01:11 CDT 2012
10312-300-177 182 Wed Oct 31 09:02:55 CDT 2012
10312-300-203 183 Wed Oct 31 09:04:50 CDT 2012
10312-267-012 184 Wed Oct 31 09:04:52 CDT 2012
10312-270-019 185 Wed Oct 31 09:04:53 CDT 2012
10312-300-206 186 Wed Oct 31 09:05:50 CDT 2012
10312-317-006 187 Wed Oct 31 09:05:52 CDT 2012
10312-258-021 188 Wed Oct 31 09:05:53 CDT 2012
10312-300-207 189 Wed Oct 31 09:05:54 CDT 2012
10312-254-014 190 Wed Oct 31 09:06:05 CDT 2012
10312-317-007 191 Wed Oct 31 09:07:25 CDT 2012
10312-300-210 192 Wed Oct 31 09:07:35 CDT 2012
10312-300-214 193 Wed Oct 31 09:07:50 CDT 2012
10312-300-216 194 Wed Oct 31 09:10:51 CDT 2012
10312-270-018 195 Wed Oct 31 09:10:52 CDT 2012
10312-300-186 196 Wed Oct 31 09:11:01 CDT 2012
10312-300-187 197 Wed Oct 31 09:11:02 CDT 2012
10312-300-221 198 Wed Oct 31 09:12:06 CDT 2012
10312-300-222 199 Wed Oct 31 09:12:07 CDT 2012
10312-300-223 200 Wed Oct 31 09:12:08 CDT 2012
10312-300-224 201 Wed Oct 31 09:12:10 CDT 2012
10312-300-231 202 Wed Oct 31 09:14:06 CDT 2012
10312-236-017 203 Wed Oct 31 09:14:08 CDT 2012
10312-300-232 204 Wed Oct 31 09:14:26 CDT 2012
10312-300-233 205 Wed Oct 31 09:17:16 CDT 2012
10312-231-025 206 Wed Oct 31 09:17:56 CDT 2012
10312-315-010 207 Wed Oct 31 09:17:57 CDT 2012
10312-300-242 208 Wed Oct 31 09:17:59 CDT 2012
10312-300-239 209 Wed Oct 31 09:18:16 CDT 2012
10312-318-007 210 Wed Oct 31 09:18:17 CDT 2012
10312-315-012 211 Wed Oct 31 09:19:41 CDT 2012
10312-236-015 212 Wed Oct 31 09:20:31 CDT 2012
10312-300-208 213 Wed Oct 31 09:20:33 CDT 2012
10312-236-018 214 Wed Oct 31 09:21:51 CDT 2012
10312-247-027 215 Wed Oct 31 09:21:53 CDT 2012
10192-318-003 216 Wed Oct 31 09:21:54 CDT 2012
10312-300-251 217 Wed Oct 31 09:21:55 CDT 2012
10312-317-014 218 Wed Oct 31 09:24:16 CDT 2012
10312-300-256 219 Wed Oct 31 09:25:37 CDT 2012
10312-236-019 220 Wed Oct 31 09:25:38 CDT 2012
10312-300-260 221 Wed Oct 31 09:27:47 CDT 2012
10312-300-264 222 Wed Oct 31 09:29:42 CDT 2012
10312-300-217 223 Wed Oct 31 09:29:43 CDT 2012
10312-300-218 224 Wed Oct 31 09:30:12 CDT 2012
10312-236-016 225 Wed Oct 31 09:30:14 CDT 2012
10312-300-226 226 Wed Oct 31 09:30:15 CDT 2012
10312-241-018 227 Wed Oct 31 09:32:52 CDT 2012
10312-315-009 228 Wed Oct 31 09:32:53 CDT 2012
10312-317-011 229 Wed Oct 31 09:32:55 CDT 2012
10312-315-011 230 Wed Oct 31 09:32:56 CDT 2012
10312-317-012 231 Wed Oct 31 09:32:57 CDT 2012
10312-300-244 232 Wed Oct 31 09:32:57 CDT 2012
10312-315-007 233 Wed Oct 31 09:32:59 CDT 2012
10312-300-268 234 Wed Oct 31 09:34:37 CDT 2012
10312-300-266 235 Wed Oct 31 09:34:38 CDT 2012
10312-247-028 236 Wed Oct 31 09:34:57 CDT 2012
10312-300-274 237 Wed Oct 31 09:35:42 CDT 2012
10312-315-017 238 Wed Oct 31 09:35:52 CDT 2012
10312-300-276 239 Wed Oct 31 09:37:42 CDT 2012
10312-300-277 240 Wed Oct 31 09:39:38 CDT 2012
10312-313-012 241 Wed Oct 31 09:39:40 CDT 2012
10312-300-219 242 Wed Oct 31 09:40:03 CDT 2012
10312-317-013 243 Wed Oct 31 09:40:18 CDT 2012
10312-300-248 244 Wed Oct 31 09:40:26 CDT 2012
10312-242-028 245 Wed Oct 31 09:40:28 CDT 2012
10312-317-015 246 Wed Oct 31 09:40:48 CDT 2012
10312-300-261 247 Wed Oct 31 09:40:49 CDT 2012
10312-300-263 248 Wed Oct 31 09:40:51 CDT 2012
10312-300-262 249 Wed Oct 31 09:40:52 CDT 2012
10312-300-279 250 Wed Oct 31 09:42:08 CDT 2012
10312-300-281 251 Wed Oct 31 09:42:11 CDT 2012
10312-300-283 252 Wed Oct 31 09:42:13 CDT 2012
10312-300-285 253 Wed Oct 31 09:43:58 CDT 2012
10312-300-286 254 Wed Oct 31 09:44:00 CDT 2012
10312-313-013 255 Wed Oct 31 09:44:01 CDT 2012
10312-231-027 256 Wed Oct 31 09:44:38 CDT 2012
10312-300-288 257 Wed Oct 31 09:47:03 CDT 2012
10312-313-014 258 Wed Oct 31 09:47:05 CDT 2012
10312-235-020 259 Wed Oct 31 09:47:48 CDT 2012
10312-300-296 260 Wed Oct 31 09:47:50 CDT 2012
10312-261-021 261 Wed Oct 31 09:49:54 CDT 2012
10312-300-299 262 Wed Oct 31 09:49:55 CDT 2012
10312-354-005 263 Wed Oct 31 09:49:56 CDT 2012
10312-231-026 264 Wed Oct 31 09:50:14 CDT 2012
10312-313-011 265 Wed Oct 31 09:50:15 CDT 2012
10312-240-010 266 Wed Oct 31 09:51:44 CDT 2012
10312-300-304 267 Wed Oct 31 09:52:04 CDT 2012
10312-240-011 268 Wed Oct 31 09:54:20 CDT 2012
10312-313-016 269 Wed Oct 31 09:54:21 CDT 2012
10312-300-311 270 Wed Oct 31 09:55:44 CDT 2012
10312-313-017 271 Wed Oct 31 09:55:45 CDT 2012
10312-300-313 272 Wed Oct 31 09:55:59 CDT 2012
10312-317-031 273 Wed Oct 31 09:57:44 CDT 2012
10312-313-018 274 Wed Oct 31 09:58:00 CDT 2012
10312-242-032 275 Wed Oct 31 09:58:01 CDT 2012
10312-247-031 276 Wed Oct 31 09:59:45 CDT 2012
10312-211-002 277 Wed Oct 31 09:59:46 CDT 2012
10312-313-019 278 Wed Oct 31 09:59:47 CDT 2012
10312-221-019 279 Wed Oct 31 10:00:05 CDT 2012
10312-317-024 280 Wed Oct 31 10:00:20 CDT 2012
10312-221-020 281 Wed Oct 31 10:04:30 CDT 2012
10312-313-020 282 Wed Oct 31 10:04:32 CDT 2012
10312-263-012 283 Wed Oct 31 10:04:34 CDT 2012
10312-240-013 284 Wed Oct 31 10:04:35 CDT 2012
10312-338-013 285 Wed Oct 31 10:04:55 CDT 2012
10312-240-014 286 Wed Oct 31 10:04:56 CDT 2012
10312-223-012 287 Wed Oct 31 10:04:58 CDT 2012
10312-300-331 288 Wed Oct 31 10:05:00 CDT 2012
10312-221-019 289 Wed Oct 31 10:05:50 CDT 2012
10312-300-335 290 Wed Oct 31 10:05:52 CDT 2012
10312-300-336 291 Wed Oct 31 10:05:55 CDT 2012
10312-315-036 292 Wed Oct 31 10:06:10 CDT 2012
10312-300-338 293 Wed Oct 31 10:07:40 CDT 2012
10312-240-015 294 Wed Oct 31 10:07:42 CDT 2012
10312-243-015 295 Wed Oct 31 10:07:43 CDT 2012
10312-315-038 296 Wed Oct 31 10:07:45 CDT 2012
10312-352-001 297 Wed Oct 31 10:09:41 CDT 2012
10312-240-016 298 Wed Oct 31 10:09:42 CDT 2012
10312-313-015 299 Wed Oct 31 10:09:46 CDT 2012
10312-256-011 300 Wed Oct 31 10:10:21 CDT 2012
10312-240-012 301 Wed Oct 31 10:10:41 CDT 2012
10312-263-011 302 Wed Oct 31 10:10:42 CDT 2012
10312-300-306 303 Wed Oct 31 10:10:44 CDT 2012
10312-300-309 304 Wed Oct 31 10:10:45 CDT 2012
10312-300-340 305 Wed Oct 31 10:12:06 CDT 2012
10312-315-040 306 Wed Oct 31 10:14:06 CDT 2012
10312-352-002 307 Wed Oct 31 10:17:31 CDT 2012
10312-254-020 308 Wed Oct 31 10:18:01 CDT 2012
10312-352-003 309 Wed Oct 31 10:19:46 CDT 2012
10312-242-033 310 Wed Oct 31 10:20:31 CDT 2012
10312-315-037 311 Wed Oct 31 10:20:56 CDT 2012
10312-300-337 312 Wed Oct 31 10:20:58 CDT 2012
10312-324-019 313 Wed Oct 31 10:21:06 CDT 2012
10312-300-347 314 Wed Oct 31 10:21:36 CDT 2012
10312-300-346 315 Wed Oct 31 10:21:38 CDT 2012
10312-242-036 316 Wed Oct 31 10:21:39 CDT 2012
10312-219-007 317 Wed Oct 31 10:24:12 CDT 2012
10312-324-020 318 Wed Oct 31 10:24:13 CDT 2012
10312-361-006 319 Wed Oct 31 10:27:42 CDT 2012
10312-361-007 320 Wed Oct 31 10:29:47 CDT 2012
10312-400-045 321 Wed Oct 31 10:29:57 CDT 2012
10312-240-017 322 Wed Oct 31 10:30:02 CDT 2012
10312-220-018 323 Wed Oct 31 10:30:32 CDT 2012
10312-315-039 324 Wed Oct 31 10:32:08 CDT 2012
10312-242-035 325 Wed Oct 31 10:32:09 CDT 2012
10312-361-008 326 Wed Oct 31 10:32:11 CDT 2012
10312-242-037 327 Wed Oct 31 10:32:12 CDT 2012
10312-300-358 328 Wed Oct 31 10:34:59 CDT 2012
10312-354-007 329 Wed Oct 31 10:35:44 CDT 2012
10312-354-009 330 Wed Oct 31 10:39:39 CDT 2012
10312-315-035 331 Wed Oct 31 10:39:59 CDT 2012
10312-221-022 332 Wed Oct 31 10:40:14 CDT 2012
10312-352-004 333 Wed Oct 31 10:40:34 CDT 2012
10312-254-021 334 Wed Oct 31 10:40:36 CDT 2012
10312-350-016 335 Wed Oct 31 10:44:05 CDT 2012
10312-355-002 336 Wed Oct 31 10:48:00 CDT 2012
10312-220-023 337 Wed Oct 31 10:48:01 CDT 2012
10312-220-024 338 Wed Oct 31 10:49:45 CDT 2012
10312-220-025 339 Wed Oct 31 10:49:47 CDT 2012
10312-242-037 340 Wed Oct 31 10:49:48 CDT 2012
10312-300-355 341 Wed Oct 31 10:50:15 CDT 2012
10312-354-008 342 Wed Oct 31 10:50:35 CDT 2012
10312-222-010 343 Wed Oct 31 10:51:50 CDT 2012
10312-220-026 344 Wed Oct 31 10:51:52 CDT 2012
10312-355-004 345 Wed Oct 31 10:54:31 CDT 2012
10312-353-001 346 Wed Oct 31 10:54:32 CDT 2012
10312-355-005 347 Wed Oct 31 10:55:56 CDT 2012
10312-353-004 348 Wed Oct 31 10:57:46 CDT 2012
10312-221-029 349 Wed Oct 31 10:59:41 CDT 2012
10312-256-015 350 Wed Oct 31 11:00:26 CDT 2012
10312-354-010 351 Wed Oct 31 11:01:46 CDT 2012
10312-238-015 352 Wed Oct 31 11:01:47 CDT 2012
10312-355-006 353 Wed Oct 31 11:04:31 CDT 2012
10312-258-030 354 Wed Oct 31 11:04:36 CDT 2012
10312-353-005 355 Wed Oct 31 11:04:39 CDT 2012
10312-219-009 356 Wed Oct 31 11:04:41 CDT 2012
10312-220-028 357 Wed Oct 31 11:06:07 CDT 2012
10312-355-007 358 Wed Oct 31 11:06:13 CDT 2012
10312-353-008 359 Wed Oct 31 11:07:42 CDT 2012
10312-353-003 360 Wed Oct 31 11:11:02 CDT 2012
10312-353-002 361 Wed Oct 31 11:11:04 CDT 2012
10312-260-022 362 Wed Oct 31 11:11:05 CDT 2012
10312-355-003 363 Wed Oct 31 11:11:07 CDT 2012
10312-223-019 364 Wed Oct 31 11:11:07 CDT 2012
10312-353-010 365 Wed Oct 31 11:11:08 CDT 2012
10312-353-009 366 Wed Oct 31 11:11:09 CDT 2012
10312-311-004 367 Wed Oct 31 11:14:47 CDT 2012
10312-353-011 368 Wed Oct 31 11:14:48 CDT 2012
10312-247-032 369 Wed Oct 31 11:14:50 CDT 2012
10312-265-033 370 Wed Oct 31 11:14:51 CDT 2012
10312-300-383 371 Wed Oct 31 11:14:52 CDT 2012
10312-247-033 372 Wed Oct 31 11:17:22 CDT 2012
10252-254-006 373 Wed Oct 31 11:19:42 CDT 2012
10312-232-014 374 Wed Oct 31 11:19:44 CDT 2012
10312-221-030 375 Wed Oct 31 11:20:38 CDT 2012
10312-241-020 376 Wed Oct 31 11:24:48 CDT 2012
10312-326-001 377 Wed Oct 31 11:25:43 CDT 2012
10312-300-387 378 Wed Oct 31 11:27:38 CDT 2012
10312-219-013 379 Wed Oct 31 11:32:28 CDT 2012
10312-247-032 380 Wed Oct 31 11:32:30 CDT 2012
10312-324-021 381 Wed Oct 31 11:32:32 CDT 2012
10312-213-005 382 Wed Oct 31 11:32:33 CDT 2012
10312-300-393 383 Wed Oct 31 11:34:18 CDT 2012
10312-326-005 384 Wed Oct 31 11:34:20 CDT 2012
10312-232-015 385 Wed Oct 31 11:35:09 CDT 2012
10312-326-004 386 Wed Oct 31 11:35:10 CDT 2012
10312-328-001 387 Wed Oct 31 11:35:44 CDT 2012
10312-324-022 388 Wed Oct 31 11:37:54 CDT 2012
10312-267-039 389 Wed Oct 31 11:39:49 CDT 2012
10312-326-002 390 Wed Oct 31 11:40:09 CDT 2012
10312-300-389 391 Wed Oct 31 11:40:10 CDT 2012
10312-326-003 392 Wed Oct 31 11:40:12 CDT 2012
10312-313-036 393 Wed Oct 31 11:40:14 CDT 2012
10312-247-034 394 Wed Oct 31 11:40:19 CDT 2012
10312-300-390 395 Wed Oct 31 11:40:29 CDT 2012
10312-300-400 396 Wed Oct 31 11:44:19 CDT 2012
10312-342-001 397 Wed Oct 31 11:44:21 CDT 2012
10312-324-024 398 Wed Oct 31 11:44:22 CDT 2012
10312-324-025 399 Wed Oct 31 11:47:10 CDT 2012
10312-232-016 400 Wed Oct 31 11:47:11 CDT 2012
10312-342-002 401 Wed Oct 31 11:47:13 CDT 2012
10312-326-008 402 Wed Oct 31 11:48:00 CDT 2012
10312-324-026 403 Wed Oct 31 11:48:01 CDT 2012
10312-300-408 404 Wed Oct 31 11:48:02 CDT 2012
10312-326-007 405 Wed Oct 31 11:48:04 CDT 2012
10312-300-410 406 Wed Oct 31 11:49:35 CDT 2012
10312-222-013 407 Wed Oct 31 11:49:45 CDT 2012
10312-219-012 408 Wed Oct 31 11:50:10 CDT 2012
10312-326-006 409 Wed Oct 31 11:50:20 CDT 2012
10312-231-032 410 Wed Oct 31 11:50:40 CDT 2012
10312-342-003 411 Wed Oct 31 11:51:40 CDT 2012
10312-324-027 412 Wed Oct 31 11:51:41 CDT 2012
10312-241-023 413 Wed Oct 31 11:51:43 CDT 2012
10312-300-414 414 Wed Oct 31 11:51:50 CDT 2012
10312-221-035 415 Wed Oct 31 11:51:52 CDT 2012
10312-300-410 416 Wed Oct 31 11:53:50 CDT 2012
10312-342-004 417 Wed Oct 31 11:54:25 CDT 2012
10312-324-028 418 Wed Oct 31 11:54:26 CDT 2012
10312-300-415 419 Wed Oct 31 11:54:28 CDT 2012
10312-324-029 420 Wed Oct 31 11:55:50 CDT 2012
10312-238-022 421 Wed Oct 31 11:55:52 CDT 2012
10312-265-036 422 Wed Oct 31 11:55:53 CDT 2012
10312-342-005 423 Wed Oct 31 11:55:55 CDT 2012
10312-328-002 424 Wed Oct 31 11:57:45 CDT 2012
10312-326-010 425 Wed Oct 31 11:57:50 CDT 2012
10312-324-030 426 Wed Oct 31 11:57:52 CDT 2012
10312-324-023 427 Wed Oct 31 12:00:06 CDT 2012
10312-300-405 428 Wed Oct 31 12:01:11 CDT 2012
10312-300-401 429 Wed Oct 31 12:01:12 CDT 2012
10312-328-004 430 Wed Oct 31 12:04:11 CDT 2012
10312-326-011 431 Wed Oct 31 12:04:26 CDT 2012
10312-300-419 432 Wed Oct 31 12:04:27 CDT 2012
10312-256-019 433 Wed Oct 31 12:07:41 CDT 2012
10312-256-020 434 Wed Oct 31 12:09:56 CDT 2012
10312-324-031 435 Wed Oct 31 12:09:58 CDT 2012
10312-267-043 436 Wed Oct 31 12:10:00 CDT 2012
10312-235-024 437 Wed Oct 31 12:10:11 CDT 2012
10312-326-009 438 Wed Oct 31 12:10:12 CDT 2012
10312-258-038 439 Wed Oct 31 12:10:26 CDT 2012
10312-336-004 440 Wed Oct 31 12:11:41 CDT 2012
10312-328-006 441 Wed Oct 31 12:12:01 CDT 2012
10312-231-037 442 Wed Oct 31 12:17:02 CDT 2012
10312-336-005 443 Wed Oct 31 12:17:37 CDT 2012
10312-300-429 444 Wed Oct 31 12:17:38 CDT 2012
10312-248-015 445 Wed Oct 31 12:17:40 CDT 2012
10312-241-027 446 Wed Oct 31 12:17:41 CDT 2012
10312-328-008 447 Wed Oct 31 12:19:37 CDT 2012
10312-241-028 448 Wed Oct 31 12:19:38 CDT 2012
10312-336-006 449 Wed Oct 31 12:19:40 CDT 2012
10312-342-006 450 Wed Oct 31 12:20:07 CDT 2012
10312-328-003 451 Wed Oct 31 12:20:08 CDT 2012
10312-328-005 452 Wed Oct 31 12:20:22 CDT 2012
10312-212-029 453 Wed Oct 31 12:20:24 CDT 2012
10312-242-041 454 Wed Oct 31 12:20:26 CDT 2012
10312-247-046 455 Wed Oct 31 12:21:42 CDT 2012
10312-328-009 456 Wed Oct 31 12:21:44 CDT 2012
10312-240-021 457 Wed Oct 31 12:21:45 CDT 2012
10312-241-030 458 Wed Oct 31 12:21:47 CDT 2012
10312-300-438 459 Wed Oct 31 12:24:32 CDT 2012
10312-300-437 460 Wed Oct 31 12:24:34 CDT 2012
10312-241-032 461 Wed Oct 31 12:24:35 CDT 2012
10312-328-010 462 Wed Oct 31 12:24:37 CDT 2012
10312-256-023 463 Wed Oct 31 12:25:42 CDT 2012
10312-265-039 464 Wed Oct 31 12:25:44 CDT 2012
10312-256-024 465 Wed Oct 31 12:27:48 CDT 2012
10312-328-012 466 Wed Oct 31 12:27:49 CDT 2012
10312-328-011 467 Wed Oct 31 12:27:50 CDT 2012
10312-300-444 468 Wed Oct 31 12:29:28 CDT 2012
10312-247-047 469 Wed Oct 31 12:29:38 CDT 2012
10312-328-002 470 Wed Oct 31 12:30:08 CDT 2012
10312-258-040 471 Wed Oct 31 12:30:09 CDT 2012
10312-300-424 472 Wed Oct 31 12:31:18 CDT 2012
10312-328-013 473 Wed Oct 31 12:31:43 CDT 2012
10312-328-007 474 Wed Oct 31 12:32:08 CDT 2012
10312-300-431 475 Wed Oct 31 12:32:09 CDT 2012
10312-300-427 476 Wed Oct 31 12:32:11 CDT 2012
10312-256-027 477 Wed Oct 31 12:32:12 CDT 2012
10312-314-018 478 Wed Oct 31 12:34:13 CDT 2012
10312-254-028 479 Wed Oct 31 12:34:15 CDT 2012
10312-263-020 480 Wed Oct 31 12:35:33 CDT 2012
10312-300-451 481 Wed Oct 31 12:35:43 CDT 2012
10312-314-019 482 Wed Oct 31 12:35:53 CDT 2012
10312-265-041 483 Wed Oct 31 12:35:54 CDT 2012
10312-254-029 484 Wed Oct 31 12:37:43 CDT 2012
10312-300-454 485 Wed Oct 31 12:37:45 CDT 2012
10302-254-043 486 Wed Oct 31 12:39:33 CDT 2012
10312-241-029 487 Wed Oct 31 12:40:08 CDT 2012
10312-336-007 488 Wed Oct 31 12:40:18 CDT 2012
10312-235-027 489 Wed Oct 31 12:40:38 CDT 2012
10312-241-031 490 Wed Oct 31 12:40:40 CDT 2012
10312-256-022 491 Wed Oct 31 12:40:41 CDT 2012
10312-336-008 492 Wed Oct 31 12:40:48 CDT 2012
10312-300-442 493 Wed Oct 31 12:40:58 CDT 2012
10312-256-025 494 Wed Oct 31 12:41:00 CDT 2012
10312-240-023 495 Wed Oct 31 12:41:01 CDT 2012
10312-300-460 496 Wed Oct 31 12:42:09 CDT 2012
10312-312-016 497 Wed Oct 31 12:44:24 CDT 2012
10312-248-018 498 Wed Oct 31 12:46:49 CDT 2012
10312-342-008 499 Wed Oct 31 12:46:51 CDT 2012
10312-270-036 500 Wed Oct 31 12:46:54 CDT 2012
10312-300-467 501 Wed Oct 31 12:47:04 CDT 2012
10312-256-031 502 Wed Oct 31 12:47:39 CDT 2012
10312-212-035 503 Wed Oct 31 12:47:49 CDT 2012
10312-256-026 504 Wed Oct 31 12:49:59 CDT 2012
10312-314-017 505 Wed Oct 31 12:50:19 CDT 2012
10312-256-028 506 Wed Oct 31 12:50:29 CDT 2012
10312-263-021 507 Wed Oct 31 12:50:49 CDT 2012
10312-300-475 508 Wed Oct 31 12:51:29 CDT 2012
10312-300-476 509 Wed Oct 31 12:51:31 CDT 2012
10312-300-478 510 Wed Oct 31 12:53:59 CDT 2012
10312-300-477 511 Wed Oct 31 12:54:01 CDT 2012
10312-342-011 512 Wed Oct 31 12:55:45 CDT 2012
10312-300-485 513 Wed Oct 31 12:55:46 CDT 2012
10312-300-489 514 Wed Oct 31 12:59:35 CDT 2012
10312-300-491 515 Wed Oct 31 12:59:55 CDT 2012
10312-265-042 516 Wed Oct 31 13:00:05 CDT 2012
10312-342-007 517 Wed Oct 31 13:01:00 CDT 2012
10312-300-497 518 Wed Oct 31 13:02:25 CDT 2012
10312-300-496 519 Wed Oct 31 13:02:26 CDT 2012
10312-300-498 520 Wed Oct 31 13:02:27 CDT 2012
10312-256-036 521 Wed Oct 31 13:02:29 CDT 2012
10312-300-471 522 Wed Oct 31 13:02:31 CDT 2012
10312-300-502 523 Wed Oct 31 13:04:55 CDT 2012
10312-300-506 524 Wed Oct 31 13:05:45 CDT 2012
10312-300-508 525 Wed Oct 31 13:07:25 CDT 2012
10312-300-511 526 Wed Oct 31 13:07:50 CDT 2012
10312-231-042 527 Wed Oct 31 13:07:52 CDT 2012
10312-300-514 528 Wed Oct 31 13:10:11 CDT 2012
10312-342-010 529 Wed Oct 31 13:11:11 CDT 2012
10312-300-483 530 Wed Oct 31 13:11:13 CDT 2012
10312-300-482 531 Wed Oct 31 13:11:14 CDT 2012
10312-318-008 532 Wed Oct 31 13:11:15 CDT 2012
10312-300-516 533 Wed Oct 31 13:11:16 CDT 2012
10312-313-040 534 Wed Oct 31 13:11:16 CDT 2012
10312-300-474 535 Wed Oct 31 13:11:17 CDT 2012
10312-300-520 536 Wed Oct 31 13:13:46 CDT 2012
10312-300-522 537 Wed Oct 31 13:13:47 CDT 2012
10312-300-528 538 Wed Oct 31 13:16:31 CDT 2012
10312-300-529 539 Wed Oct 31 13:16:46 CDT 2012
10312-300-527 540 Wed Oct 31 13:16:55 CDT 2012
10312-300-532 541 Wed Oct 31 13:17:36 CDT 2012
10312-300-536 542 Wed Oct 31 13:19:26 CDT 2012
10312-300-500 543 Wed Oct 31 13:20:31 CDT 2012
10312-300-513 544 Wed Oct 31 13:20:46 CDT 2012
10312-300-512 545 Wed Oct 31 13:20:48 CDT 2012
10312-270-040 546 Wed Oct 31 13:21:36 CDT 2012
10312-300-542 547 Wed Oct 31 13:21:47 CDT 2012
10312-300-543 548 Wed Oct 31 13:21:48 CDT 2012
10312-300-544 549 Wed Oct 31 13:24:02 CDT 2012
10312-300-545 550 Wed Oct 31 13:24:22 CDT 2012
10312-300-547 551 Wed Oct 31 13:25:42 CDT 2012
10312-300-550 552 Wed Oct 31 13:25:43 CDT 2012
10312-300-549 553 Wed Oct 31 13:25:45 CDT 2012
10312-300-553 554 Wed Oct 31 13:27:42 CDT 2012
10312-300-558 555 Wed Oct 31 13:29:52 CDT 2012
10312-300-523 556 Wed Oct 31 13:31:37 CDT 2012
10312-300-560 557 Wed Oct 31 13:31:52 CDT 2012
10312-300-531 558 Wed Oct 31 13:31:54 CDT 2012
10312-300-561 559 Wed Oct 31 13:34:02 CDT 2012
10252-258-025 560 Wed Oct 31 13:34:04 CDT 2012
10312-264-021 561 Wed Oct 31 13:35:33 CDT 2012
10312-300-562 562 Wed Oct 31 13:35:34 CDT 2012
10312-241-037 563 Wed Oct 31 13:37:33 CDT 2012
10312-300-564 564 Wed Oct 31 13:37:35 CDT 2012
10312-300-541 565 Wed Oct 31 13:40:03 CDT 2012
10312-300-540 566 Wed Oct 31 13:40:04 CDT 2012
10312-300-546 567 Wed Oct 31 13:40:18 CDT 2012
10312-260-028 568 Wed Oct 31 13:41:33 CDT 2012
10312-231-044 569 Wed Oct 31 13:42:03 CDT 2012
10312-260-030 570 Wed Oct 31 13:44:28 CDT 2012
10312-300-580 571 Wed Oct 31 13:49:44 CDT 2012
10312-220-035 572 Wed Oct 31 13:49:45 CDT 2012
10312-254-035 573 Wed Oct 31 13:49:49 CDT 2012
10312-300-559 574 Wed Oct 31 13:49:59 CDT 2012
10312-300-563 575 Wed Oct 31 13:50:19 CDT 2012
10312-337-021 576 Wed Oct 31 13:54:19 CDT 2012
10312-264-023 577 Wed Oct 31 13:54:21 CDT 2012
10312-258-052 578 Wed Oct 31 13:55:39 CDT 2012
10312-300-591 579 Wed Oct 31 13:55:44 CDT 2012
10312-300-592 580 Wed Oct 31 13:55:46 CDT 2012
10312-258-053 581 Wed Oct 31 13:57:44 CDT 2012
10312-300-595 582 Wed Oct 31 13:57:46 CDT 2012
10312-300-598 583 Wed Oct 31 13:59:34 CDT 2012
10312-300-599 584 Wed Oct 31 13:59:44 CDT 2012
10312-300-600 585 Wed Oct 31 13:59:45 CDT 2012
10312-254-034 586 Wed Oct 31 14:00:09 CDT 2012
10312-240-029 587 Wed Oct 31 14:00:11 CDT 2012
10312-260-029 588 Wed Oct 31 14:01:29 CDT 2012
10312-300-578 589 Wed Oct 31 14:02:04 CDT 2012
10312-337-022 590 Wed Oct 31 14:02:06 CDT 2012
10312-300-601 591 Wed Oct 31 14:02:08 CDT 2012
10312-238-027 592 Wed Oct 31 14:02:09 CDT 2012
10312-300-602 593 Wed Oct 31 14:03:34 CDT 2012
10312-242-068 594 Wed Oct 31 14:04:30 CDT 2012
10312-300-605 595 Wed Oct 31 14:04:31 CDT 2012
10312-300-604 596 Wed Oct 31 14:04:32 CDT 2012
10312-300-610 597 Wed Oct 31 14:05:30 CDT 2012
10312-300-613 598 Wed Oct 31 14:05:45 CDT 2012
10312-223-029 599 Wed Oct 31 14:05:46 CDT 2012
10312-300-611 600 Wed Oct 31 14:05:47 CDT 2012
10312-300-612 601 Wed Oct 31 14:05:50 CDT 2012
10312-300-618 602 Wed Oct 31 14:07:45 CDT 2012
10312-256-043 603 Wed Oct 31 14:09:45 CDT 2012
10312-300-620 604 Wed Oct 31 14:09:55 CDT 2012
10312-238-028 605 Wed Oct 31 14:09:56 CDT 2012
10312-300-588 606 Wed Oct 31 14:10:05 CDT 2012
10312-223-027 607 Wed Oct 31 14:10:15 CDT 2012
10312-300-621 608 Wed Oct 31 14:11:25 CDT 2012
10312-240-036 609 Wed Oct 31 14:11:35 CDT 2012
10312-221-043 610 Wed Oct 31 14:12:05 CDT 2012
10312-300-627 611 Wed Oct 31 14:14:10 CDT 2012
10312-267-054 612 Wed Oct 31 14:14:12 CDT 2012
10312-324-035 613 Wed Oct 31 14:14:13 CDT 2012
10312-258-056 614 Wed Oct 31 14:16:55 CDT 2012
10312-300-630 615 Wed Oct 31 14:16:57 CDT 2012
10312-300-451 616 Wed Oct 31 14:17:30 CDT 2012
10312-300-632 617 Wed Oct 31 14:17:55 CDT 2012
10312-300-637 618 Wed Oct 31 14:19:41 CDT 2012
10312-220-036 619 Wed Oct 31 14:20:41 CDT 2012
10312-300-641 620 Wed Oct 31 14:21:26 CDT 2012
10312-300-643 621 Wed Oct 31 14:21:27 CDT 2012
10312-300-647 622 Wed Oct 31 14:24:06 CDT 2012
10312-212-042 623 Wed Oct 31 14:24:08 CDT 2012
10312-256-045 624 Wed Oct 31 14:27:46 CDT 2012
10312-238-031 625 Wed Oct 31 14:27:51 CDT 2012
10312-219-019 626 Wed Oct 31 14:29:46 CDT 2012
10312-270-052 627 Wed Oct 31 14:29:48 CDT 2012
10312-258-057 628 Wed Oct 31 14:30:01 CDT 2012
10312-300-635 629 Wed Oct 31 14:31:57 CDT 2012
10312-300-653 630 Wed Oct 31 14:31:58 CDT 2012
10312-270-054 631 Wed Oct 31 14:32:00 CDT 2012
10312-300-631 632 Wed Oct 31 14:32:02 CDT 2012
10312-238-029 633 Wed Oct 31 14:32:02 CDT 2012
10312-219-022 634 Wed Oct 31 14:34:12 CDT 2012
10312-219-023 635 Wed Oct 31 14:34:32 CDT 2012
10312-219-024 636 Wed Oct 31 14:35:37 CDT 2012
10312-300-656 637 Wed Oct 31 14:35:39 CDT 2012
10312-221-046 638 Wed Oct 31 14:35:47 CDT 2012
10312-219-025 639 Wed Oct 31 14:37:47 CDT 2012
10312-223-031 640 Wed Oct 31 14:40:02 CDT 2012
10312-219-017 641 Wed Oct 31 14:40:04 CDT 2012
10312-270-051 642 Wed Oct 31 14:45:02 CDT 2012
10312-219-018 643 Wed Oct 31 14:48:33 CDT 2012
10312-232-033 644 Wed Oct 31 14:49:38 CDT 2012
10312-300-664 645 Wed Oct 31 14:49:40 CDT 2012
10312-300-665 646 Wed Oct 31 14:49:41 CDT 2012
10312-300-670 647 Wed Oct 31 14:50:13 CDT 2012
10312-264-027 648 Wed Oct 31 14:51:43 CDT 2012
10312-300-672 649 Wed Oct 31 14:51:44 CDT 2012
10312-235-042 650 Wed Oct 31 14:51:45 CDT 2012
10312-243-028 651 Wed Oct 31 14:51:47 CDT 2012
10312-300-673 652 Wed Oct 31 14:51:49 CDT 2012
10312-220-043 653 Wed Oct 31 14:51:51 CDT 2012
10312-300-676 654 Wed Oct 31 14:51:52 CDT 2012
10312-300-659 655 Wed Oct 31 14:51:53 CDT 2012
10312-270-053 656 Wed Oct 31 14:51:54 CDT 2012
10312-232-032 657 Wed Oct 31 14:51:54 CDT 2012
10312-270-055 658 Wed Oct 31 14:51:55 CDT 2012
10312-219-021 659 Wed Oct 31 14:51:55 CDT 2012
10312-219-020 660 Wed Oct 31 14:51:57 CDT 2012
10312-258-058 661 Wed Oct 31 14:52:13 CDT 2012
10312-300-679 662 Wed Oct 31 14:52:15 CDT 2012
10312-300-680 663 Wed Oct 31 14:52:33 CDT 2012
10312-232-034 664 Wed Oct 31 14:52:34 CDT 2012
10312-300-689 665 Wed Oct 31 14:55:43 CDT 2012
10312-300-691 666 Wed Oct 31 14:55:44 CDT 2012
10312-300-692 667 Wed Oct 31 14:55:46 CDT 2012
10312-300-690 668 Wed Oct 31 14:55:48 CDT 2012
10312-300-675 669 Wed Oct 31 15:01:44 CDT 2012
10312-300-669 670 Wed Oct 31 15:01:45 CDT 2012
10312-232-035 671 Wed Oct 31 15:04:14 CDT 2012
10312-213-007 672 Wed Oct 31 15:05:44 CDT 2012
10312-254-044 673 Wed Oct 31 15:05:45 CDT 2012
10312-300-700 674 Wed Oct 31 15:05:47 CDT 2012
10312-267-058 675 Wed Oct 31 15:07:59 CDT 2012
10312-300-701 676 Wed Oct 31 15:11:29 CDT 2012
10312-202-011 677 Wed Oct 31 15:11:31 CDT 2012
10312-300-702 678 Wed Oct 31 15:11:49 CDT 2012
10312-254-045 679 Wed Oct 31 15:11:51 CDT 2012
10312-300-705 680 Wed Oct 31 15:16:45 CDT 2012
10312-212-047 681 Wed Oct 31 15:16:46 CDT 2012
10312-300-699 682 Wed Oct 31 15:20:05 CDT 2012
10312-252-001 683 Wed Oct 31 15:20:25 CDT 2012
10312-264-029 684 Wed Oct 31 15:20:26 CDT 2012
10312-300-715 685 Wed Oct 31 15:21:55 CDT 2012
10312-260-038 686 Wed Oct 31 15:24:10 CDT 2012
10312-300-723 687 Wed Oct 31 15:27:45 CDT 2012
10312-270-062 688 Wed Oct 31 15:31:31 CDT 2012
10312-300-706 689 Wed Oct 31 15:31:32 CDT 2012
10312-254-046 690 Wed Oct 31 15:31:34 CDT 2012
10312-300-732 691 Wed Oct 31 15:31:56 CDT 2012
10312-300-712 692 Wed Oct 31 15:39:56 CDT 2012
10312-300-740 693 Wed Oct 31 15:44:22 CDT 2012
10312-300-742 694 Wed Oct 31 15:44:23 CDT 2012
10312-300-741 695 Wed Oct 31 15:44:25 CDT 2012
10312-300-743 696 Wed Oct 31 15:46:32 CDT 2012
10312-300-744 697 Wed Oct 31 15:46:34 CDT 2012
10312-211-027 698 Wed Oct 31 15:46:35 CDT 2012
10312-219-030 699 Wed Oct 31 15:47:42 CDT 2012
10312-300-747 700 Wed Oct 31 15:47:44 CDT 2012
10312-254-054 701 Wed Oct 31 15:49:37 CDT 2012
10312-223-041 702 Wed Oct 31 15:50:07 CDT 2012
10312-211-028 703 Wed Oct 31 15:53:32 CDT 2012
10312-254-056 704 Wed Oct 31 15:55:32 CDT 2012
10312-238-041 705 Wed Oct 31 15:59:53 CDT 2012
10312-256-054 706 Wed Oct 31 16:00:03 CDT 2012
10312-300-737 707 Wed Oct 31 16:00:04 CDT 2012
10312-202-014 708 Wed Oct 31 16:00:23 CDT 2012
10312-254-053 709 Wed Oct 31 16:01:28 CDT 2012
10312-260-041 710 Wed Oct 31 16:01:53 CDT 2012
10312-300-753 711 Wed Oct 31 16:10:08 CDT 2012
10312-254-055 712 Wed Oct 31 16:10:12 CDT 2012
10312-202-015 713 Wed Oct 31 16:10:18 CDT 2012
10292-216-021 714 Wed Oct 31 16:10:20 CDT 2012
10312-221-053 715 Wed Oct 31 16:19:34 CDT 2012
10312-221-052 716 Wed Oct 31 16:29:50 CDT 2012
10312-221-057 717 Wed Oct 31 16:55:37 CDT 2012
10312-252-007 718 Wed Oct 31 17:10:58 CDT 2012
10312-252-011 719 Wed Oct 31 17:41:30 CDT 2012
10312-252-013 720 Wed Oct 31 18:41:38 CDT 2012
10312-252-017 721 Wed Oct 31 19:29:40 CDT 2012
10312-252-025 722 Wed Oct 31 21:53:34 CDT 2012
10292-257-003 723 Wed Oct 31 23:58:41 CDT 2012
10292-300-234 724 Wed Oct 31 23:58:44 CDT 2012
10292-300-210 725 Wed Oct 31 23:58:46 CDT 2012
10292-247-006 726 Wed Oct 31 23:58:46 CDT 2012
10292-259-002 727 Wed Oct 31 23:58:47 CDT 2012
10292-235-015 728 Wed Oct 31 23:58:48 CDT 2012
10282-300-016 729 Wed Oct 31 23:58:49 CDT 2012
10292-321-005 730 Wed Oct 31 23:58:49 CDT 2012
10292-232-015 731 Wed Oct 31 23:58:50 CDT 2012
10282-300-014 732 Wed Oct 31 23:58:51 CDT 2012
10292-235-023 733 Wed Oct 31 23:58:51 CDT 2012
10292-254-010 734 Wed Oct 31 23:58:52 CDT 2012
10292-300-202 735 Wed Oct 31 23:58:52 CDT 2012
10282-300-015 736 Wed Oct 31 23:58:53 CDT 2012
10292-300-140 737 Wed Oct 31 23:58:53 CDT 2012
10292-300-179 738 Wed Oct 31 23:58:53 CDT 2012
10292-241-015 739 Wed Oct 31 23:58:54 CDT 2012
10292-300-165 740 Wed Oct 31 23:58:54 CDT 2012
10292-313-004 741 Wed Oct 31 23:58:55 CDT 2012
10292-232-006 742 Wed Oct 31 23:58:56 CDT 2012
10292-216-002 743 Wed Oct 31 23:58:56 CDT 2012
10292-400-033 744 Wed Oct 31 23:58:56 CDT 2012
10282-300-012 745 Wed Oct 31 23:58:56 CDT 2012
10292-248-004 746 Wed Oct 31 23:58:57 CDT 2012
10292-313-010 747 Wed Oct 31 23:58:57 CDT 2012
10292-214-014 748 Wed Oct 31 23:58:58 CDT 2012
10292-232-016 749 Wed Oct 31 23:58:58 CDT 2012
10292-326-009 750 Wed Oct 31 23:58:58 CDT 2012
10292-300-223 751 Wed Oct 31 23:58:58 CDT 2012
10292-300-207 752 Wed Oct 31 23:58:59 CDT 2012
10262-248-039 753 Wed Oct 31 23:58:59 CDT 2012
10292-400-035 754 Wed Oct 31 23:59:00 CDT 2012
10292-259-006 755 Wed Oct 31 23:59:00 CDT 2012
10292-300-181 756 Wed Oct 31 23:59:00 CDT 2012
10292-248-014 757 Wed Oct 31 23:59:01 CDT 2012
10292-361-017 758 Wed Oct 31 23:59:01 CDT 2012
10292-256-020 759 Wed Oct 31 23:59:01 CDT 2012
10292-300-325 760 Wed Oct 31 23:59:02 CDT 2012
10292-300-290 761 Wed Oct 31 23:59:02 CDT 2012
10292-240-022 762 Wed Oct 31 23:59:02 CDT 2012
10292-300-269 763 Wed Oct 31 23:59:02 CDT 2012
10292-361-012 764 Wed Oct 31 23:59:03 CDT 2012
10292-235-032 765 Wed Oct 31 23:59:03 CDT 2012
10292-318-003 766 Wed Oct 31 23:59:03 CDT 2012
10292-258-025 767 Wed Oct 31 23:59:03 CDT 2012
10292-240-021 768 Wed Oct 31 23:59:04 CDT 2012
10292-361-008 769 Wed Oct 31 23:59:05 CDT 2012
10292-224-024 770 Wed Oct 31 23:59:05 CDT 2012
10292-300-268 771 Wed Oct 31 23:59:05 CDT 2012
10292-361-011 772 Wed Oct 31 23:59:05 CDT 2012
10292-222-019 773 Wed Oct 31 23:59:05 CDT 2012
10292-248-018 774 Wed Oct 31 23:59:06 CDT 2012
10292-361-009 775 Wed Oct 31 23:59:06 CDT 2012
10292-263-015 776 Wed Oct 31 23:59:06 CDT 2012
10292-248-017 777 Wed Oct 31 23:59:06 CDT 2012

Sent 777 messages

------=_Part_162_25487966.1351746012346--