
                                                                                     
 PBTPAL 00083 USAN 07/01/10 14:46:38 0163878 NORMAL NOTICE EXTENSION                 
                                                                                     
 Message Number: 0163878 Received by USAN at 14:46 on 07/01/10 by SMV                
                                                                                     
 Work Begins:    06/11/10 at 13:15   Notice: 020 hrs      Priority: 2                
 Night Work: Y    Weekend Work: Y                                                    
                                                                                     
 Expires: 08/04/10 at 17:00   Update By: 08/02/10 at 16:59                           
                                                                                     
 Caller:         LEAUNDRA KASPRZAK                                                   
 Company:        PRESTON PIPELINE INC.                                               
 Address:        133 BATHELO, SAN JOSE                                               
 City:           MILPITAS                      State: CA Zip: 95170                  
 Business Tel:   408-262-1418                  Fax: 408-262-1870                     
 Email Address:                                                                      
                                                                                     
 Nature of Work: TR TO REP SWR L'S                                                   
 Done for:       TOWN/O LOS ALTOS HILLS        Explosives: N                         
 Foreman:        UNKNOWN                                                             
 Field Tel:                                    Cell Tel:                             
 Area Premarked: Y   Premark Method: WHITE PAINT                                     
 Permit Type:    OTHER                         Number: PENDING                       
 Vac / Pwr Equip Use In The Approx Location Of Member Facilities Requested: N        
 Excavation Enters Into Street Or Sidewalk Area: Y                                   
                                                                                     
 Location:                                                                           
                                                                                     
     ALL/O BERKSHIRE DR FR S/MOST INT/O W. LOYOLA DR GO 200'N                        
                                                                                     
 Place: LOS ALTOS, CO AREA           County: SANTA CLARA          State: CA          
                                                                                     
 Long/Lat Long: -122.107514 Lat:  37.339934 Long: -122.105967 Lat:  37.341944        
                                                                                     
 Excavator Requests Operator(s) To Re-mark Their Facilities: N                       
 Comments:                                                                           
 #1 EXTEND TO 08/04/2010 RE-MARK NO ORIG DATE 06/09/2010-SMV 07/01/2010              
 -PER DESIREE                                                                        
                                                                                     
 Sent to:                                                                            
 CWSLAL = CALIF WTR SVC-LOS ALTOS      CTYLAL = CITY LOS ALTOS                       
 COMPAL = COMCAST-PALO ALTO            PBTPAL = PACIFIC BELL PALO ALTO               
 PGECUP = PGE DISTR CUPERTINO          TWNLAH = TOWN OF LOS ALTOS HILLS              
                                                                                     
                                                                                     
                                                                                     
 At&t Ticket Id: 23560027     clli code:   LSATCA11                                  
                                                                                     
                                                                                     
                                                                                     
                                                                                     
                                                                                     
                                                                                     
                                                                                     
                                                                                     
                                                                                     
                                                                                     
                                                                                     
                                                                                     
                                                                                     
                                                                                     
                                                                                     
                                                                                     
                                                                                     
                                                                                     
                                                                                     
                                                                                     
                                                                                     
                                                                                     
                                                                                     
                                                                                     
                                                                                     
                                                                                     
                                                                                     
                                                                                     
                                                                                     
                                                                                     
                                                                                     
                                                                                     
                                                                                     
                                                                                     
                                                                                     
                                                                                     
                                                                                     
                                                                                     
                                                                                     
                                                                                     
                                                                                     
                                                                                     
                                                                                     
=