USE QM
--A212711180
--736134768	2021-11-23 10:45:54.250	SCA1	ATTDSOUTH	NULL
select * from responder_queue
select * from responder_multi_queue
select * from response_log where locate_id = 736134768
select * from locate where locate_Id = 736134768
select * from epr_response_history where ticket_id = 134645183

exec get_pending_multi_responses_10 'att','SCA1',1


736134768|
USAN|
3010|
notes go here|
112121|
2200P|
10  |
112121|
2200P|
UTI|
https://qmcluster.utiliquest.com/epr/default.aspx?tid=134645183&dt=20211112&db=QM&code=327a0c20c3b15a4b60b64d099277ffc98ede3b3b&pid=0&apikey=24643-707956986"



USE [QM]
GO

DECLARE	@return_value int

EXEC	@return_value = [dbo].[get_pending_multi_responses_10]
		@RespondTo = N'att',
		@CallCenter = N'SCA1'

SELECT	'Return Value' = @return_value

GO
