

This is your End of Day Audit from IRTHNet for items sent
since 3/6/2013 12:00 AM (Central Standard Time)

Seq   Ticket                    Registration Code                  
-------------------------------------------------------------------
1     13041896                  QLNOR28 (OUNC)                     
1     13041968                  QLNOR17 (OUNC)                     
1     13041067                  QLNOR17 (OUNC)                     
2     13041898                  QLNOR17 (OUNC)                     
2     13042016                  QLNOR04 (OUNC)                     
2     13041059                  QLNOR17 (OUNC)                     
3     13041917                  QLNOR14 (OUNC)                     
3     13042364                  QLNOR28 (OUNC)                     
3     13041110                  QLNOR01 (OUNC)                     
4     13041920                  QLNOR17 (OUNC)                     
4     13042063                  QLNOR16 (OUNC)                     
4     13041136                  QLNOR15 (OUNC)                     
5     13041933                  QLNOR15 (OUNC)                     
5     13042073                  QLNOR01 (OUNC)                     
5     13041063                  QLNOR13 (OUNC)                     
6     13041915                  QLNOR15 (OUNC)                     
6     13042067                  QLNOR26 (OUNC)                     
6     13041183                  QLNOR08 (OUNC)                     
7     13042082                  QLNOR14 (OUNC)                     
7     13041922                  QLNOR14 (OUNC)                     
7     13041187                  QLNOR15 (OUNC)                     
8     13041996                  QLNOR13 (OUNC)                     
8     13042078                  QLNOR17 (OUNC)                     
8     13041103                  QLNOR23 (OUNC)                     
9     13042079                  QLNOR17 (OUNC)                     
9     13042001                  QLNOR17 (OUNC)                     
9     13041166                  QLNOR11 (OUNC)                     
10    13041919                  QLNOR15 (OUNC)                     
10    13041124                  QLNOR17 (OUNC)                     
10    13042158                  QLNOR23 (OUNC)                     
11    13042007                  QLNOR17 (OUNC)                     
11    13041285                  QLNOR15 (OUNC)                     
11    13042073                  QLNOR01 (OUNC)                     
12    13042054                  QLNOR17 (OUNC)                     
12    13041303                  QLNOR26 (OUNC)                     
12    13042170                  QLNOR23 (OUNC)                     
13    13042058                  QLNOR26 (OUNC)                     
13    13041297                  QLNOR23 (OUNC)                     
13    13042040                  QLNOR23 (OUNC)                     
14    13042077                  QLNOR01 (OUNC)                     
14    13041304                  QLNOR15 (OUNC)                     
14    13042181                  QLNOR23 (OUNC)                     
15    13042093                  QLNOR14 (OUNC)                     
15    13041348                  QLNOR17 (OUNC)                     
15    13042172                  QLNOR04 (OUNC)                     
16    13042149                  QLNOR14 (OUNC)                     
16    13041339                  QLNOR23 (OUNC)                     
16    13042003                  QLNOR04 (OUNC)                     
17    13041928                  QLNOR15 (OUNC)                     
17    13041312                  QLNOR28 (OUNC)                     
17    13041992                  QLNOR04 (OUNC)                     
18    13041170                  QLNOR19 (OUNC)                     
18    13041924                  QLNOR15 (OUNC)                     
18    13042155                  QLNOR05 (OUNC)                     
19    13041162                  QLNOR23 (OUNC)                     
19    13041926                  QLNOR17 (OUNC)                     
19    13042101                  QLNOR07 (OUNC)                     
20    13041191                  QLNOR17 (OUNC)                     
20    13042160                  QLNOR15 (OUNC)                     
20    13042102                  QLNOR07 (OUNC)                     
21    13041375                  QLNOR17 (OUNC)                     
21    13041916                  QLNOR07 (OUNC)                     
21    13042067                  QLNOR26 (OUNC)                     
22    13041181                  QLNOR08 (OUNC)                     
22    13041913                  QLNOR17 (OUNC)                     
22    13042205                  QLNOR11 (OUNC)                     
23    13041267                  QLNOR28 (OUNC)                     
23    13041942                  QLNOR23 (OUNC)                     
23    13042230                  QLNOR12 (OUNC)                     
24    13041275                  QLNOR17 (OUNC)                     
24    13041946                  QLNOR26 (OUNC)                     
24    13042153                  QLNOR15 (OUNC)                     
25    13041242                  QLNOR28 (OUNC)                     
25    13042151                  QLNOR14 (OUNC)                     
25    13042236                  QLNOR15 (OUNC)                     
26    13041383                  QLNOR13 (OUNC)                     
26    13042190                  QLNOR17 (OUNC)                     
26    13042109                  QLNOR15 (OUNC)                     
27    13041133                  QLNOR25 (OUNC)                     
27    13042094                  QLNOR07 (OUNC)                     
27    13042187                  QLNOR15 (OUNC)                     
28    13041072                  QLNOR14 (OUNC)                     
28    13042198                  QLNOR15 (OUNC)                     
28    13042164                  QLNOR15 (OUNC)                     
29    13041407                  QLNOR17 (OUNC)                     
29    13041931                  QLNOR23 (OUNC)                     
29    13042099                  QLNOR15 (OUNC)                     
30    13041340                  QLNOR07 (OUNC)                     
30    13041937                  QLNOR17 (OUNC)                     
30    13042159                  QLNOR15 (OUNC)                     
31    13041125                  QLNOR17 (OUNC)                     
31    13042244                  QLNOR17 (OUNC)                     
31    13042169                  QLNOR15 (OUNC)                     
32    13041013                  QLNOR23 (OUNC)                     
32    13042253                  QLNOR23 (OUNC)                     
32    13042176                  QLNOR15 (OUNC)                     
33    13041210                  QLNOR17 (OUNC)                     
33    13042066                  QLNOR17 (OUNC)                     
33    13042148                  QLNOR15 (OUNC)                     
34    13041014                  QLNOR23 (OUNC)                     
34    13041970                  QLNOR04 (OUNC)                     
34    13042138                  QLNOR15 (OUNC)                     
35    13041179                  QLNOR26 (OUNC)                     
35    13041979                  QLNOR17 (OUNC)                     
35    13042034                  QLNOR27 (OUNC)                     
36    13041174                  QLNOR22 (OUNC)                     
36    13041961                  QLNOR17 (OUNC)                     
36    13042179                  QLNOR27 (OUNC)                     
37    13041111                  QLNOR17 (OUNC)                     
37    13042044                  QLNOR04 (OUNC)                     
37    13042107                  QLNOR27 (OUNC)                     
38    13041114                  QLNOR17 (OUNC)                     
38    13041972                  QLNOR23 (OUNC)                     
38    13042128                  QLNOR27 (OUNC)                     
39    13041069                  QLNOR23 (OUNC)                     
39    13041999                  QLNOR23 (OUNC)                     
39    13042214                  QLNOR28 (OUNC)                     
40    13041112                  QLNOR15 (OUNC)                     
40    13041971                  QLNOR15 (OUNC)                     
40    13042137                  QLNOR28 (OUNC)                     
41    13041086                  QLNOR26 (OUNC)                     
41    13041987                  QLNOR28 (OUNC)                     
41    13042144                  QLNOR28 (OUNC)                     
42    13041093                  QLNOR15 (OUNC)                     
42    13041998                  QLNOR14 (OUNC)                     
42    13042210                  QLNOR28 (OUNC)                     
43    13041151                  QLNOR15 (OUNC)                     
43    13041982                  QLNOR14 (OUNC)                     
43    13042100                  QLNOR28 (OUNC)                     
44    13041138                  QLNOR17 (OUNC)                     
44    13041951                  QLNOR17 (OUNC)                     
44    13042180                  QLNOR14 (OUNC)                     
45    13041048                  QLNOR17 (OUNC)                     
45    13042050                  QLNOR23 (OUNC)                     
45    13042218                  QLNOR14 (OUNC)                     
46    13041088                  QLNOR25 (OUNC)                     
46    13042025                  QLNOR04 (OUNC)                     
46    13042156                  QLNOR14 (OUNC)                     
47    13041051                  QLNOR26 (OUNC)                     
47    13042036                  QLNOR05 (OUNC)                     
47    13042095                  QLNOR14 (OUNC)                     
48    13041055                  QLNOR23 (OUNC)                     
48    13042047                  QLNOR08 (OUNC)                     
48    13042110                  QLNOR14 (OUNC)                     
49    13041178                  QLNOR17 (OUNC)                     
49    13042023                  QLNOR26 (OUNC)                     
49    13042127                  QLNOR14 (OUNC)                     
50    13041336                  QLNOR23 (OUNC)                     
50    13042038                  QLNOR26 (OUNC)                     
50    13042130                  QLNOR14 (OUNC)                     
51    13041321                  QLNOR17 (OUNC)                     
51    13042029                  QLNOR15 (OUNC)                     
51    13042122                  QLNOR14 (OUNC)                     
52    13041331                  QLNOR15 (OUNC)                     
52    13042041                  QLNOR15 (OUNC)                     
52    13042135                  QLNOR14 (OUNC)                     
53    13041479                  QLNOR17 (OUNC)                     
53    13042043                  QLNOR14 (OUNC)                     
53    13042082                  QLNOR14 (OUNC)                     
54    13041384                  QLNOR15 (OUNC)                     
54    13042028                  QLNOR14 (OUNC)                     
54    13042096                  QLNOR16 (OUNC)                     
55    13041370                  QLNOR22 (OUNC)                     
55    13042052                  QLNOR17 (OUNC)                     
55    13042117                  QLNOR17 (OUNC)                     
56    13041363                  QLNOR05 (OUNC)                     
56    13042049                  QLNOR17 (OUNC)                     
56    13042020                  QLNOR25 (OUNC)                     
57    13041366                  QLNOR23 (OUNC)                     
57    13041975                  QLNOR17 (OUNC)                     
57    13042204                  QLNOR25 (OUNC)                     
58    13041473                  QLNOR17 (OUNC)                     
58    13042035                  QLNOR17 (OUNC)                     
58    13042212                  QLNOR25 (OUNC)                     
59    13041376                  QLNOR17 (OUNC)                     
59    13042033                  QLNOR17 (OUNC)                     
59    13042215                  QLNOR25 (OUNC)                     
60    13041378                  QLNOR04 (OUNC)                     
60    13042019                  QLNOR17 (OUNC)                     
60    13041988                  QLNOR18 (OUNC)                     
61    13041386                  QLNOR23 (OUNC)                     
61    13042024                  QLNOR17 (OUNC)                     
61    13042083                  QLNOR19 (OUNC)                     
62    13041385                  QLNOR17 (OUNC)                     
62    13042022                  QLNOR22 (OUNC)                     
62    13042108                  QLNOR21 (OUNC)                     
63    13041434                  QLNOR25 (OUNC)                     
63    13042061                  QLNOR26 (OUNC)                     
63    13042141                  QLNOR14 (OUNC)                     
64    13041442                  QLNOR26 (OUNC)                     
64    13042037                  QLNOR14 (OUNC)                     
64    13042241                  QLNOR17 (OUNC)                     
65    13041425                  QLNOR15 (OUNC)                     
65    13042071                  QLNOR17 (OUNC)                     
65    13042147                  QLNOR17 (OUNC)                     
66    13041424                  QLNOR01 (OUNC)                     
66    13042116                  QLNOR17 (OUNC)                     
66    13042173                  QLNOR23 (OUNC)                     
67    13041436                  QLNOR17 (OUNC)                     
67    13042080                  QLNOR17 (OUNC)                     
67    13042178                  QLNOR15 (OUNC)                     
68    13041115                  QLNOR01 (OUNC)                     
68    13042120                  QLNOR17 (OUNC)                     
68    13042226                  QLNOR17 (OUNC)                     
69    13041080                  QLNOR26 (OUNC)                     
69    13042091                  QLNOR22 (OUNC)                     
69    13042145                  QLNOR23 (OUNC)                     
70    13041149                  QLNOR12 (OUNC)                     
70    13042238                  QLNOR15 (OUNC)                     
71    13041097                  QLNOR15 (OUNC)                     
71    13042245                  QLNOR15 (OUNC)                     
72    13041455                  QLNOR07 (OUNC)                     
72    13042150                  QLNOR19 (OUNC)                     
73    13041496                  QLNOR17 (OUNC)                     
73    13042133                  QLNOR17 (OUNC)                     
74    13041483                  QLNOR26 (OUNC)                     
74    13042200                  QLNOR23 (OUNC)                     
75    13041197                  QLNOR08 (OUNC)                     
75    13042383                  QLNOR26 (OUNC)                     
76    13041447                  QLNOR17 (OUNC)                     
76    13042263                  QLNOR17 (OUNC)                     
77    13041450                  QLNOR28 (OUNC)                     
77    13042136                  QLNOR17 (OUNC)                     
78    13041449                  QLNOR17 (OUNC)                     
78    13042111                  QLNOR17 (OUNC)                     
79    13041444                  QLNOR23 (OUNC)                     
79    13042092                  QLNOR17 (OUNC)                     
80    13041145                  QLNOR26 (OUNC)                     
80    13042129                  QLNOR15 (OUNC)                     
81    13041163                  QLNOR17 (OUNC)                     
81    13042174                  QLNOR07 (OUNC)                     
82    13049137                  QLNWA17 (UULC)                     
82    13042191                  QLNOR17 (OUNC)                     
83    13049153                  QLNWA34 (IEUCC)                    
83    13042026                  QLNOR17 (OUNC)                     
84    13049208                  QLNWA21 (WOC)                      
84    13042223                  QLNOR01 (OUNC)                     
85    13041184                  QLNOR17 (OUNC)                     
85    13042221                  QLNOR01 (OUNC)                     
86    13041200                  QLNOR15 (OUNC)                     
86    13042132                  QLNOR23 (OUNC)                     
87    13041467                  QLNOR17 (OUNC)                     
87    13042213                  QLNOR26 (OUNC)                     
88    13041459                  QLNOR17 (OUNC)                     
88    13042247                  QLNOR11 (OUNC)                     
89    13041466                  QLNOR27 (OUNC)                     
89    13042243                  QLNOR17 (OUNC)                     
90    13041205                  QLNOR17 (OUNC)                     
90    13042220                  QLNOR17 (OUNC)                     
91    13041186                  QLNOR17 (OUNC)                     
91    13042045                  QLNOR17 (OUNC)                     
92    13041214                  QLNOR17 (OUNC)                     
92    13042231                  QLNOR17 (OUNC)                     
93    13049238                  QLNWA16 (UULC)                     
93    13042142                  QLNOR23 (OUNC)                     
94    13041193                  QLNOR23 (OUNC)                     
94    13042240                  QLNOR17 (OUNC)                     
95    13041227                  QLNOR28 (OUNC)                     
95    13042246                  QLNOR23 (OUNC)                     
96    13041215                  QLNOR14 (OUNC)                     
96    13042185                  QLNOR07 (OUNC)                     
97    13041201                  QLNOR14 (OUNC)                     
97    13042175                  QLNOR28 (OUNC)                     
98    13041139                  QLNOR17 (OUNC)                     
98    13042189                  QLNOR14 (OUNC)                     
99    13041217                  QLNOR22 (OUNC)                     
99    13042242                  QLNOR17 (OUNC)                     
100   13041211                  QLNOR04 (OUNC)                     
100   13042251                  QLNOR01 (OUNC)                     
101   13041169                  QLNOR07 (OUNC)                     
101   13042249                  QLNOR17 (OUNC)                     
102   13041222                  QLNOR15 (OUNC)                     
102   13042252                  QLNOR17 (OUNC)                     
103   13041229                  QLNOR15 (OUNC)                     
103   13042233                  QLNOR07 (OUNC)                     
104   13041218                  QLNOR14 (OUNC)                     
104   13042259                  QLNOR17 (OUNC)                     
105   13041192                  QLNOR16 (OUNC)                     
105   13042260                  QLNOR17 (OUNC)                     
106   13041156                  QLNOR17 (OUNC)                     
106   13042146                  QLNOR17 (OUNC)                     
107   13041188                  QLNOR17 (OUNC)                     
107   13042239                  QLNOR17 (OUNC)                     
108   13041171                  QLNOR17 (OUNC)                     
108   13042171                  QLNOR15 (OUNC)                     
109   13041176                  QLNOR17 (OUNC)                     
109   13042487                  QLNOR17 (OUNC)                     
110   13049265                  QLNWA32 (IEUCC)                    
110   13042336                  QLNOR01 (OUNC)                     
111   13041231                  QLNOR19 (OUNC)                     
111   13042309                  QLNOR23 (OUNC)                     
112   13041254                  QLNOR07 (OUNC)                     
112   13042335                  QLNOR23 (OUNC)                     
113   13041225                  QLNOR07 (OUNC)                     
113   13042286                  QLNOR23 (OUNC)                     
114   13041262                  QLNOR17 (OUNC)                     
114   13042282                  QLNOR23 (OUNC)                     
115   13041274                  QLNOR17 (OUNC)                     
115   13042302                  QLNOR04 (OUNC)                     
116   13041245                  QLNOR25 (OUNC)                     
116   13042291                  QLNOR04 (OUNC)                     
117   13041232                  QLNOR23 (OUNC)                     
117   13042279                  QLNOR04 (OUNC)                     
118   13041207                  QLNOR07 (OUNC)                     
118   13042324                  QLNOR06 (OUNC)                     
119   13041203                  QLNOR07 (OUNC)                     
119   13042264                  QLNOR07 (OUNC)                     
120   13041248                  QLNOR15 (OUNC)                     
120   13042321                  QLNOR07 (OUNC)                     
121   13041241                  QLNOR15 (OUNC)                     
121   13042275                  QLNOR08 (OUNC)                     
122   13041240                  QLNOR17 (OUNC)                     
122   13042284                  QLNOR08 (OUNC)                     
123   13041251                  QLNOR17 (OUNC)                     
123   13042154                  QLNOR26 (OUNC)                     
124   13041243                  QLNOR17 (OUNC)                     
124   13042323                  QLNOR26 (OUNC)                     
125   13041239                  QLNOR22 (OUNC)                     
125   13042339                  QLNOR26 (OUNC)                     
126   13041244                  QLNOR22 (OUNC)                     
126   13042313                  QLNOR26 (OUNC)                     
127   13041216                  QLNOR22 (OUNC)                     
127   13042314                  QLNOR26 (OUNC)                     
128   13049260                  QLNWA17 (UULC)                     
128   13042303                  QLNOR26 (OUNC)                     
129   13049270                  QLNWA16 (UULC)                     
129   13042213                  QLNOR26 (OUNC)                     
130   13049274                  QLNWA23 (UULC)                     
130   13042328                  QLNOR11 (OUNC)                     
131   13041519                  QLNOR13 (OUNC)                     
131   13042304                  QLNOR12 (OUNC)                     
132   13041540                  QLNOR15 (OUNC)                     
132   13042345                  QLNOR12 (OUNC)                     
133   13041567                  QLNOR23 (OUNC)                     
133   13042361                  QLNOR15 (OUNC)                     
134   13041557                  QLNOR08 (OUNC)                     
134   13042163                  QLNOR15 (OUNC)                     
135   13041593                  QLNOR13 (OUNC)                     
135   13042257                  QLNOR15 (OUNC)                     
136   13041561                  QLNOR17 (OUNC)                     
136   13042266                  QLNOR15 (OUNC)                     
137   13041626                  QLNOR17 (OUNC)                     
137   13042350                  QLNOR14 (OUNC)                     
138   13041219                  QLNOR26 (OUNC)                     
138   13042343                  QLNOR14 (OUNC)                     
139   13041238                  QLNOR12 (OUNC)                     
139   13042188                  QLNOR17 (OUNC)                     
140   13041237                  QLNOR15 (OUNC)                     
140   13042269                  QLNOR17 (OUNC)                     
141   13041256                  QLNOR28 (OUNC)                     
141   13042349                  QLNOR17 (OUNC)                     
142   13041270                  QLNOR28 (OUNC)                     
142   13042312                  QLNOR17 (OUNC)                     
143   13041266                  QLNOR17 (OUNC)                     
143   13042289                  QLNOR17 (OUNC)                     
144   13041264                  QLNOR17 (OUNC)                     
144   13042292                  QLNOR17 (OUNC)                     
145   13041260                  QLNOR17 (OUNC)                     
145   13042268                  QLNOR17 (OUNC)                     
146   13041253                  QLNOR17 (OUNC)                     
146   13042278                  QLNOR17 (OUNC)                     
147   13041282                  QLNOR26 (OUNC)                     
147   13042316                  QLNOR17 (OUNC)                     
148   13041300                  QLNOR15 (OUNC)                     
148   13042288                  QLNOR17 (OUNC)                     
149   13041294                  QLNOR17 (OUNC)                     
149   13041993                  QLNOR17 (OUNC)                     
150   13041277                  QLNOR17 (OUNC)                     
150   13042358                  QLNOR17 (OUNC)                     
151   13041265                  QLNOR25 (OUNC)                     
151   13042021                  QLNOR25 (OUNC)                     
152   13041289                  QLNOR19 (OUNC)                     
152   13042337                  QLNOR25 (OUNC)                     
153   13041233                  QLNOR22 (OUNC)                     
153   13042296                  QLNOR19 (OUNC)                     
154   13041272                  QLNOR22 (OUNC)                     
154   13042301                  QLNOR22 (OUNC)                     
155   13041268                  QLNOR22 (OUNC)                     
155   13042258                  QLNOR22 (OUNC)                     
156   13041250                  QLNOR22 (OUNC)                     
156   13042320                  QLNOR22 (OUNC)                     
157   13041224                  QLNOR22 (OUNC)                     
157   13042330                  QLNOR17 (OUNC)                     
158   13041228                  QLNOR22 (OUNC)                     
158   13042354                  QLNOR17 (OUNC)                     
159   13049298                  QLNWA17 (UULC)                     
159   13042344                  QLNOR17 (OUNC)                     
160   13049256                  QLNWA16 (UULC)                     
160   13042254                  QLNOR12 (OUNC)                     
161   13049253                  QLNWA16 (UULC)                     
161   13042271                  QLNOR15 (OUNC)                     
162   13049316                  QLNWA16 (UULC)                     
162   13042338                  QLNOR07 (OUNC)                     
163   13049275                  QLNWA32 (IEUCC)                    
163   13042318                  QLNOR26 (OUNC)                     
164   13049232                  QLNWA32 (IEUCC)                    
164   13042325                  QLNOR26 (OUNC)                     
165   13049227                  QLNWA32 (IEUCC)                    
165   13042372                  QLNOR15 (OUNC)                     
166   13049299                  QLNWA32 (IEUCC)                    
166   13042353                  QLNOR14 (OUNC)                     
167   13049304                  QLNWA32 (IEUCC)                    
167   13042367                  QLNOR14 (OUNC)                     
168   13041684                  QLNOR07 (OUNC)                     
168   13042369                  QLNOR22 (OUNC)                     
169   13041309                  QLNOR01 (OUNC)                     
169   13042424                  QLNOR23 (OUNC)                     
170   13041319                  QLNOR04 (OUNC)                     
170   13042440                  QLNOR23 (OUNC)                     
171   13041341                  QLNOR07 (OUNC)                     
171   13042396                  QLNOR23 (OUNC)                     
172   13041316                  QLNOR07 (OUNC)                     
172   13042382                  QLNOR23 (OUNC)                     
173   13041311                  QLNOR07 (OUNC)                     
173   13042391                  QLNOR04 (OUNC)                     
174   13041295                  QLNOR07 (OUNC)                     
174   13042352                  QLNOR07 (OUNC)                     
175   13041320                  QLNOR07 (OUNC)                     
175   13042334                  QLNOR07 (OUNC)                     
176   13041323                  QLNOR08 (OUNC)                     
176   13042412                  QLNOR08 (OUNC)                     
177   13041326                  QLNOR08 (OUNC)                     
177   13042407                  QLNOR08 (OUNC)                     
178   13041322                  QLNOR08 (OUNC)                     
178   13042393                  QLNOR08 (OUNC)                     
179   13041330                  QLNOR08 (OUNC)                     
179   13042425                  QLNOR08 (OUNC)                     
180   13041307                  QLNOR26 (OUNC)                     
180   13042388                  QLNOR08 (OUNC)                     
181   13041302                  QLNOR26 (OUNC)                     
181   13042375                  QLNOR26 (OUNC)                     
182   13041327                  QLNOR26 (OUNC)                     
182   13042430                  QLNOR26 (OUNC)                     
183   13041283                  QLNOR26 (OUNC)                     
183   13042380                  QLNOR26 (OUNC)                     
184   13041306                  QLNOR28 (OUNC)                     
184   13042315                  QLNOR26 (OUNC)                     
185   13041334                  QLNOR14 (OUNC)                     
185   13042432                  QLNOR15 (OUNC)                     
186   13041298                  QLNOR17 (OUNC)                     
186   13042307                  QLNOR15 (OUNC)                     
187   13041329                  QLNOR17 (OUNC)                     
187   13042362                  QLNOR15 (OUNC)                     
188   13041315                  QLNOR17 (OUNC)                     
188   13042378                  QLNOR27 (OUNC)                     
189   13041335                  QLNOR25 (OUNC)                     
189   13042371                  QLNOR27 (OUNC)                     
190   13041324                  QLNOR22 (OUNC)                     
190   13042351                  QLNOR17 (OUNC)                     
191   13041249                  QLNOR22 (OUNC)                     
191   13042370                  QLNOR17 (OUNC)                     
192   13049347                  QLNWA16 (UULC)                     
192   13042386                  QLNOR17 (OUNC)                     
193   13049348                  QLNWA16 (UULC)                     
193   13042365                  QLNOR17 (OUNC)                     
194   13041697                  QLNOR17 (OUNC)                     
194   13042381                  QLNOR17 (OUNC)                     
195   13041703                  QLNOR17 (OUNC)                     
195   13042404                  QLNOR17 (OUNC)                     
196   13041221                  QLNOR23 (OUNC)                     
196   13042399                  QLNOR17 (OUNC)                     
197   13041223                  QLNOR23 (OUNC)                     
197   13042435                  QLNOR17 (OUNC)                     
198   13041346                  QLNOR23 (OUNC)                     
198   13042389                  QLNOR17 (OUNC)                     
199   13041350                  QLNOR23 (OUNC)                     
199   13042379                  QLNOR17 (OUNC)                     
200   13041349                  QLNOR07 (OUNC)                     
200   13042373                  QLNOR17 (OUNC)                     
201   13041343                  QLNOR26 (OUNC)                     
201   13042360                  QLNOR17 (OUNC)                     
202   13041353                  QLNOR15 (OUNC)                     
202   13042373                  QLNOR17 (OUNC)                     
203   13041359                  QLNOR14 (OUNC)                     
203   13042357                  QLNOR17 (OUNC)                     
204   13041357                  QLNOR14 (OUNC)                     
204   13042406                  QLNOR17 (OUNC)                     
205   13041360                  QLNOR17 (OUNC)                     
205   13042409                  QLNOR17 (OUNC)                     
206   13041374                  QLNOR17 (OUNC)                     
206   13042411                  QLNOR17 (OUNC)                     
207   13041371                  QLNOR19 (OUNC)                     
207   13042400                  QLNOR17 (OUNC)                     
208   13049187                  QLNWA16 (UULC)                     
208   13042413                  QLNOR17 (OUNC)                     
209   13049367                  QLNWA32 (IEUCC)                    
209   13042414                  QLNOR17 (OUNC)                     
210   13049397                  QLNWA32 (IEUCC)                    
210   13042418                  QLNOR17 (OUNC)                     
211   13049379                  QLNWA32 (IEUCC)                    
211   13042410                  QLNOR17 (OUNC)                     
212   13041706                  QLNOR17 (OUNC)                     
212   13042417                  QLNOR17 (OUNC)                     
213   13041582                  QLNOR26 (OUNC)                     
213   13042415                  QLNOR17 (OUNC)                     
214   13041746                  QLNOR15 (OUNC)                     
214   13042387                  QLNOR17 (OUNC)                     
215   13041532                  QLNOR23 (OUNC)                     
215   13042428                  QLNOR17 (OUNC)                     
216   13041754                  QLNOR19 (OUNC)                     
216   13042398                  QLNOR17 (OUNC)                     
217   13041537                  QLNOR06 (OUNC)                     
217   13042356                  QLNOR17 (OUNC)                     
218   13041619                  QLNOR26 (OUNC)                     
218   13042408                  QLNOR17 (OUNC)                     
219   13041594                  QLNOR17 (OUNC)                     
219   13042405                  QLNOR25 (OUNC)                     
220   13041764                  QLNOR25 (OUNC)                     
220   13042429                  QLNOR19 (OUNC)                     
221   13041605                  QLNOR17 (OUNC)                     
221   13042377                  QLNOR19 (OUNC)                     
222   13041698                  QLNOR17 (OUNC)                     
222   13042456                  QLNOR28 (OUNC)                     
223   13041545                  QLNOR02 (OUNC)                     
223   13042599                  QLNOR17 (OUNC)                     
224   13041616                  QLNOR02 (OUNC)                     
224   13042479                  QLNOR23 (OUNC)                     
225   13041617                  QLNOR02 (OUNC)                     
225   13042476                  QLNOR23 (OUNC)                     
226   13041608                  QLNOR02 (OUNC)                     
226   13042473                  QLNOR23 (OUNC)                     
227   13041413                  QLNOR05 (OUNC)                     
227   13042459                  QLNOR12 (OUNC)                     
228   13041462                  QLNOR07 (OUNC)                     
228   13042464                  QLNOR12 (OUNC)                     
229   13041291                  QLNOR07 (OUNC)                     
229   13042443                  QLNOR13 (OUNC)                     
230   13041373                  QLNOR07 (OUNC)                     
230   13042446                  QLNOR15 (OUNC)                     
231   13041584                  QLNOR07 (OUNC)                     
231   13042466                  QLNOR23 (OUNC)                     
232   13041587                  QLNOR07 (OUNC)                     
232   13042489                  QLNOR23 (OUNC)                     
233   13041600                  QLNOR07 (OUNC)                     
233   13042472                  QLNOR26 (OUNC)                     
234   13041699                  QLNOR07 (OUNC)                     
234   13042480                  QLNOR26 (OUNC)                     
235   13041680                  QLNOR07 (OUNC)                     
235   13042458                  QLNOR14 (OUNC)                     
236   13041728                  QLNOR07 (OUNC)                     
236   13042481                  QLNOR14 (OUNC)                     
237   13041656                  QLNOR08 (OUNC)                     
237   13042427                  QLNOR17 (OUNC)                     
238   13041640                  QLNOR08 (OUNC)                     
238   13042478                  QLNOR17 (OUNC)                     
239   13041672                  QLNOR08 (OUNC)                     
239   13042450                  QLNOR17 (OUNC)                     
240   13041604                  QLNOR12 (OUNC)                     
240   13042461                  QLNOR17 (OUNC)                     
241   13041568                  QLNOR12 (OUNC)                     
241   13042474                  QLNOR17 (OUNC)                     
242   13041472                  QLNOR12 (OUNC)                     
242   13042465                  QLNOR17 (OUNC)                     
243   13041542                  QLNOR12 (OUNC)                     
243   13042392                  QLNOR17 (OUNC)                     
244   13041549                  QLNOR12 (OUNC)                     
244   13042468                  QLNOR17 (OUNC)                     
245   13041394                  QLNOR12 (OUNC)                     
245   13042486                  QLNOR17 (OUNC)                     
246   13041342                  QLNOR12 (OUNC)                     
246   13042448                  QLNOR22 (OUNC)                     
247   13041596                  QLNOR17 (OUNC)                     
247   13042643                  QLNOR23 (OUNC)                     
248   13041772                  QLNOR01 (OUNC)                     
248   13042621                  QLNOR26 (OUNC)                     
249   13041544                  QLNOR13 (OUNC)                     
249   13042504                  QLNOR01 (OUNC)                     
250   13041477                  QLNOR13 (OUNC)                     
250   13042507                  QLNOR01 (OUNC)                     
251   13041482                  QLNOR13 (OUNC)                     
251   13042492                  QLNOR01 (OUNC)                     
252   13041415                  QLNOR13 (OUNC)                     
252   13042515                  QLNOR01 (OUNC)                     
253   13041461                  QLNOR15 (OUNC)                     
253   13042521                  QLNOR01 (OUNC)                     
254   13041489                  QLNOR15 (OUNC)                     
254   13042569                  QLNOR23 (OUNC)                     
255   13041469                  QLNOR15 (OUNC)                     
255   13042533                  QLNOR23 (OUNC)                     
256   13041522                  QLNOR15 (OUNC)                     
256   13042556                  QLNOR23 (OUNC)                     
257   13041663                  QLNOR14 (OUNC)                     
257   13042570                  QLNOR23 (OUNC)                     
258   13041673                  QLNOR14 (OUNC)                     
258   13042586                  QLNOR23 (OUNC)                     
259   13041769                  QLNOR14 (OUNC)                     
259   13042572                  QLNOR23 (OUNC)                     
260   13041465                  QLNOR14 (OUNC)                     
260   13042664                  QLNOR04 (OUNC)                     
261   13041599                  QLNOR14 (OUNC)                     
261   13042644                  QLNOR05 (OUNC)                     
262   13041678                  QLNOR14 (OUNC)                     
262   13042662                  QLNOR06 (OUNC)                     
263   13041658                  QLNOR14 (OUNC)                     
263   13042184                  QLNOR06 (OUNC)                     
264   13041686                  QLNOR14 (OUNC)                     
264   13042547                  QLNOR07 (OUNC)                     
265   13041681                  QLNOR14 (OUNC)                     
265   13042626                  QLNOR07 (OUNC)                     
266   13041693                  QLNOR14 (OUNC)                     
266   13042598                  QLNOR08 (OUNC)                     
267   13041581                  QLNOR14 (OUNC)                     
267   13042545                  QLNOR08 (OUNC)                     
268   13041739                  QLNOR14 (OUNC)                     
268   13042575                  QLNOR08 (OUNC)                     
269   13041747                  QLNOR14 (OUNC)                     
269   13042528                  QLNOR08 (OUNC)                     
270   13041748                  QLNOR14 (OUNC)                     
270   13042610                  QLNOR08 (OUNC)                     
271   13041670                  QLNOR14 (OUNC)                     
271   13042604                  QLNOR08 (OUNC)                     
272   13041402                  QLNOR14 (OUNC)                     
272   13042646                  QLNOR08 (OUNC)                     
273   13041778                  QLNOR07 (OUNC)                     
273   13042652                  QLNOR08 (OUNC)                     
274   13041566                  QLNOR15 (OUNC)                     
274   13042562                  QLNOR08 (OUNC)                     
275   13041570                  QLNOR15 (OUNC)                     
275   13042540                  QLNOR08 (OUNC)                     
276   13041574                  QLNOR15 (OUNC)                     
276   13042550                  QLNOR08 (OUNC)                     
277   13041578                  QLNOR15 (OUNC)                     
277   13042557                  QLNOR08 (OUNC)                     
278   13041559                  QLNOR15 (OUNC)                     
278   13042585                  QLNOR08 (OUNC)                     
279   13041766                  QLNOR15 (OUNC)                     
279   13042566                  QLNOR08 (OUNC)                     
280   13041553                  QLNOR15 (OUNC)                     
280   13042532                  QLNOR08 (OUNC)                     
281   13041595                  QLNOR15 (OUNC)                     
281   13042530                  QLNOR26 (OUNC)                     
282   13041669                  QLNOR15 (OUNC)                     
282   13042614                  QLNOR26 (OUNC)                     
283   13041723                  QLNOR15 (OUNC)                     
283   13042506                  QLNOR13 (OUNC)                     
284   13041773                  QLNOR16 (OUNC)                     
284   13042654                  QLNOR15 (OUNC)                     
285   13041406                  QLNOR17 (OUNC)                     
285   13042561                  QLNOR15 (OUNC)                     
286   13041427                  QLNOR17 (OUNC)                     
286   13042485                  QLNOR15 (OUNC)                     
287   13041430                  QLNOR17 (OUNC)                     
287   13042613                  QLNOR15 (OUNC)                     
288   13041433                  QLNOR17 (OUNC)                     
288   13042445                  QLNOR15 (OUNC)                     
289   13041435                  QLNOR17 (OUNC)                     
289   13042496                  QLNOR15 (OUNC)                     
290   13041420                  QLNOR17 (OUNC)                     
290   13042558                  QLNOR24 (OUNC)                     
291   13041440                  QLNOR17 (OUNC)                     
291   13042564                  QLNOR24 (OUNC)                     
292   13041443                  QLNOR17 (OUNC)                     
292   13042523                  QLNOR24 (OUNC)                     
293   13041345                  QLNOR17 (OUNC)                     
293   13042591                  QLNOR28 (OUNC)                     
294   13041481                  QLNOR17 (OUNC)                     
294   13042529                  QLNOR28 (OUNC)                     
295   13041485                  QLNOR17 (OUNC)                     
295   13042552                  QLNOR14 (OUNC)                     
296   13041480                  QLNOR17 (OUNC)                     
296   13042588                  QLNOR14 (OUNC)                     
297   13041411                  QLNOR17 (OUNC)                     
297   13042494                  QLNOR14 (OUNC)                     
298   13041792                  QLNOR17 (OUNC)                     
298   13042608                  QLNOR14 (OUNC)                     
299   13041791                  QLNOR15 (OUNC)                     
299   13042514                  QLNOR17 (OUNC)                     
300   13041392                  QLNOR23 (OUNC)                     
300   13042568                  QLNOR17 (OUNC)                     
301   13041380                  QLNOR23 (OUNC)                     
301   13042467                  QLNOR17 (OUNC)                     
302   13041372                  QLNOR26 (OUNC)                     
302   13042470                  QLNOR17 (OUNC)                     
303   13041620                  QLNOR02 (OUNC)                     
303   13042502                  QLNOR17 (OUNC)                     
304   13041628                  QLNOR02 (OUNC)                     
304   13042534                  QLNOR17 (OUNC)                     
305   13041633                  QLNOR02 (OUNC)                     
305   13042551                  QLNOR17 (OUNC)                     
306   13041634                  QLNOR02 (OUNC)                     
306   13042548                  QLNOR17 (OUNC)                     
307   13041637                  QLNOR02 (OUNC)                     
307   13042524                  QLNOR17 (OUNC)                     
308   13041641                  QLNOR02 (OUNC)                     
308   13042544                  QLNOR17 (OUNC)                     
309   13041793                  QLNOR01 (OUNC)                     
309   13042555                  QLNOR17 (OUNC)                     
310   13041797                  QLNOR15 (OUNC)                     
310   13042617                  QLNOR17 (OUNC)                     
311   13041818                  QLNOR23 (OUNC)                     
311   13042607                  QLNOR17 (OUNC)                     
312   13041454                  QLNOR23 (OUNC)                     
312   13042592                  QLNOR17 (OUNC)                     
313   13041400                  QLNOR23 (OUNC)                     
313   13042527                  QLNOR17 (OUNC)                     
314   13041389                  QLNOR23 (OUNC)                     
314   13042636                  QLNOR17 (OUNC)                     
315   13041426                  QLNOR23 (OUNC)                     
315   13042451                  QLNOR17 (OUNC)                     
316   13041457                  QLNOR26 (OUNC)                     
316   13042632                  QLNOR17 (OUNC)                     
317   13041401                  QLNOR19 (OUNC)                     
317   13042655                  QLNOR17 (OUNC)                     
318   13041399                  QLNOR22 (OUNC)                     
318   13042471                  QLNOR17 (OUNC)                     
319   13041822                  QLNOR17 (OUNC)                     
319   13042455                  QLNOR17 (OUNC)                     
320   13041490                  QLNOR17 (OUNC)                     
320   13042465                  QLNOR17 (OUNC)                     
321   13041498                  QLNOR23 (OUNC)                     
321   13042625                  QLNOR17 (OUNC)                     
322   13041493                  QLNOR23 (OUNC)                     
322   13042563                  QLNOR17 (OUNC)                     
323   13041503                  QLNOR26 (OUNC)                     
323   13042451                  QLNOR17 (OUNC)                     
324   13041501                  QLNOR26 (OUNC)                     
324   13042449                  QLNOR17 (OUNC)                     
325   13041505                  QLNOR26 (OUNC)                     
325   13042455                  QLNOR17 (OUNC)                     
326   13041507                  QLNOR26 (OUNC)                     
326   13042624                  QLNOR17 (OUNC)                     
327   13041500                  QLNOR26 (OUNC)                     
327   13042671                  QLNOR17 (OUNC)                     
328   13041499                  QLNOR17 (OUNC)                     
328   13042647                  QLNOR17 (OUNC)                     
329   13041475                  QLNOR17 (OUNC)                     
329   13042543                  QLNOR17 (OUNC)                     
330   13041506                  QLNOR17 (OUNC)                     
330   13042589                  QLNOR17 (OUNC)                     
331   13041487                  QLNOR25 (OUNC)                     
331   13042603                  QLNOR25 (OUNC)                     
332   13041495                  QLNOR22 (OUNC)                     
332   13042583                  QLNOR19 (OUNC)                     
333   13041853                  QLNOR17 (OUNC)                     
333   13042577                  QLNOR19 (OUNC)                     
334   13041856                  QLNOR23 (OUNC)                     
334   13042546                  QLNOR19 (OUNC)                     
335   13041510                  QLNOR23 (OUNC)                     
335   13042553                  QLNOR19 (OUNC)                     
336   13041512                  QLNOR23 (OUNC)                     
336   13042584                  QLNOR19 (OUNC)                     
337   13041546                  QLNOR23 (OUNC)                     
337   13042590                  QLNOR19 (OUNC)                     
338   13041534                  QLNOR23 (OUNC)                     
338   13042542                  QLNOR19 (OUNC)                     
339   13041536                  QLNOR26 (OUNC)                     
339   13042535                  QLNOR22 (OUNC)                     
340   13041550                  QLNOR17 (OUNC)                     
340   13042560                  QLNOR25 (OUNC)                     
341   13041551                  QLNOR17 (OUNC)                     
341   13042693                  QLNOR17 (OUNC)                     
342   13041548                  QLNOR17 (OUNC)                     
342   13042634                  QLNOR17 (OUNC)                     
343   13041516                  QLNOR17 (OUNC)                     
343   13042710                  QLNOR17 (OUNC)                     
344   13041531                  QLNOR17 (OUNC)                     
344   13042783                  QLNOR17 (OUNC)                     
345   13041543                  QLNOR17 (OUNC)                     
345   13042812                  QLNOR17 (OUNC)                     
346   13041541                  QLNOR17 (OUNC)                     
346   13042817                  QLNOR17 (OUNC)                     
347   13041530                  QLNOR17 (OUNC)                     
347   13042828                  QLNOR26 (OUNC)                     
348   13041535                  QLNOR17 (OUNC)                     
348   13042905                  QLNOR14 (OUNC)                     
349   13041533                  QLNOR17 (OUNC)                     
349   13042909                  QLNOR25 (OUNC)                     
350   13041520                  QLNOR17 (OUNC)                     
350   13042919                  QLNOR06 (OUNC)                     
351   13041858                  QLNOR26 (OUNC)                     
351   13042484                  QLNOR23 (OUNC)                     
352   13041571                  QLNOR17 (OUNC)                     
352   13042939                  QLNOR23 (OUNC)                     
353   13041563                  QLNOR17 (OUNC)                     
353   13042939                  QLNOR23 (OUNC)                     
354   13041575                  QLNOR17 (OUNC)                     
354   13042578                  QLNOR23 (OUNC)                     
355   13041569                  QLNOR17 (OUNC)                     
355   13042579                  QLNOR23 (OUNC)                     
356   13041598                  QLNOR23 (OUNC)                     
356   13042650                  QLNOR23 (OUNC)                     
357   13041597                  QLNOR17 (OUNC)                     
357   13042668                  QLNOR15 (OUNC)                     
358   13041603                  QLNOR17 (OUNC)                     
358   13042660                  QLNOR19 (OUNC)                     
359   13041589                  QLNOR17 (OUNC)                     
359   13042675                  QLNOR08 (OUNC)                     
360   13041592                  QLNOR26 (OUNC)                     
360   13042694                  QLNOR14 (OUNC)                     
361   13041635                  QLNOR26 (OUNC)                     
361   13042673                  QLNOR19 (OUNC)                     
362   13041639                  QLNOR26 (OUNC)                     
362   13042683                  QLNOR07 (OUNC)                     
363   13041647                  QLNOR26 (OUNC)                     
363   13042696                  QLNOR17 (OUNC)                     
364   13041612                  QLNOR28 (OUNC)                     
364   13042701                  QLNOR25 (OUNC)                     
365   13041565                  QLNOR17 (OUNC)                     
365   13042670                  QLNOR17 (OUNC)                     
366   13041618                  QLNOR17 (OUNC)                     
366   13042681                  QLNOR14 (OUNC)                     
367   13041606                  QLNOR17 (OUNC)                     
367   13042719                  QLNOR23 (OUNC)                     
368   13041615                  QLNOR17 (OUNC)                     
368   13042698                  QLNOR15 (OUNC)                     
369   13041636                  QLNOR17 (OUNC)                     
369   13042717                  QLNOR17 (OUNC)                     
370   13041622                  QLNOR19 (OUNC)                     
370   13042713                  QLNOR17 (OUNC)                     
371   13041625                  QLNOR22 (OUNC)                     
371   13042729                  QLNOR26 (OUNC)                     
372   13041866                  QLNOR17 (OUNC)                     
372   13042732                  QLNOR12 (OUNC)                     
373   13041644                  QLNOR23 (OUNC)                     
373   13042736                  QLNOR28 (OUNC)                     
374   13041662                  QLNOR26 (OUNC)                     
374   13042684                  QLNOR17 (OUNC)                     
375   13041659                  QLNOR26 (OUNC)                     
375   13042711                  QLNOR02 (OUNC)                     
376   13041664                  QLNOR17 (OUNC)                     
376   13042722                  QLNOR15 (OUNC)                     
377   13041655                  QLNOR17 (OUNC)                     
377   13042733                  QLNOR14 (OUNC)                     
378   13041638                  QLNOR17 (OUNC)                     
378   13042627                  QLNOR17 (OUNC)                     
379   13041665                  QLNOR17 (OUNC)                     
379   13042749                  QLNOR25 (OUNC)                     
380   13041674                  QLNOR17 (OUNC)                     
380   13042751                  QLNOR08 (OUNC)                     
381   13041753                  QLNOR23 (OUNC)                     
381   13042631                  QLNOR08 (OUNC)                     
382   13041762                  QLNOR23 (OUNC)                     
382   13042687                  QLNOR14 (OUNC)                     
383   13041759                  QLNOR23 (OUNC)                     
383   13042672                  QLNOR25 (OUNC)                     
384   13041763                  QLNOR17 (OUNC)                     
384   13042776                  QLNOR14 (OUNC)                     
385   13041765                  QLNOR17 (OUNC)                     
385   13042759                  QLNOR14 (OUNC)                     
386   13041824                  QLNOR17 (OUNC)                     
386   13042772                  QLNOR13 (OUNC)                     
387   13041831                  QLNOR17 (OUNC)                     
387   13042795                  QLNOR28 (OUNC)                     
388   13041648                  QLNOR23 (OUNC)                     
388   13042798                  QLNOR14 (OUNC)                     
389   13041768                  QLNOR19 (OUNC)                     
389   13042782                  QLNOR17 (OUNC)                     
390   13041591                  QLNOR17 (OUNC)                     
390   13042808                  QLNOR17 (OUNC)                     
391   13041868                  QLNOR17 (OUNC)                     
391   13042794                  QLNOR23 (OUNC)                     
392   13041738                  QLNOR17 (OUNC)                     
392   13042744                  QLNOR15 (OUNC)                     
393   13041614                  QLNOR23 (OUNC)                     
393   13042770                  QLNOR14 (OUNC)                     
394   13041629                  QLNOR23 (OUNC)                     
394   13042764                  QLNOR01 (OUNC)                     
395   13041709                  QLNOR23 (OUNC)                     
395   13042811                  QLNOR23 (OUNC)                     
396   13041704                  QLNOR23 (OUNC)                     
396   13042815                  QLNOR23 (OUNC)                     
397   13041623                  QLNOR26 (OUNC)                     
397   13042829                  QLNOR25 (OUNC)                     
398   13041624                  QLNOR26 (OUNC)                     
398   13042825                  QLNOR25 (OUNC)                     
399   13041692                  QLNOR17 (OUNC)                     
399   13042826                  QLNOR15 (OUNC)                     
400   13041741                  QLNOR17 (OUNC)                     
400   13042832                  QLNOR15 (OUNC)                     
401   13041760                  QLNOR26 (OUNC)                     
401   13042780                  QLNOR28 (OUNC)                     
402   13041668                  QLNOR23 (OUNC)                     
402   13042810                  QLNOR17 (OUNC)                     
403   13041757                  QLNOR26 (OUNC)                     
403   13042821                  QLNOR17 (OUNC)                     
404   13041708                  QLNOR17 (OUNC)                     
404   13042831                  QLNOR25 (OUNC)                     
405   13041676                  QLNOR25 (OUNC)                     
405   13042819                  QLNOR23 (OUNC)                     
406   13041767                  QLNOR23 (OUNC)                     
406   13042836                  QLNOR12 (OUNC)                     
407   13041770                  QLNOR28 (OUNC)                     
407   13042841                  QLNOR12 (OUNC)                     
408   13041777                  QLNOR25 (OUNC)                     
408   13042846                  QLNOR15 (OUNC)                     
409   13041785                  QLNOR23 (OUNC)                     
409   13042788                  QLNOR28 (OUNC)                     
410   13041786                  QLNOR07 (OUNC)                     
410   13042796                  QLNOR28 (OUNC)                     
411   13041784                  QLNOR05 (OUNC)                     
411   13042785                  QLNOR28 (OUNC)                     
412   13041796                  QLNOR15 (OUNC)                     
412   13042804                  QLNOR14 (OUNC)                     
413   13041794                  QLNOR17 (OUNC)                     
413   13042851                  QLNOR26 (OUNC)                     
414   13041799                  QLNOR17 (OUNC)                     
414   13042839                  QLNOR08 (OUNC)                     
415   13041798                  QLNOR17 (OUNC)                     
415   13042833                  QLNOR26 (OUNC)                     
416   13041805                  QLNOR23 (OUNC)                     
416   13042834                  QLNOR13 (OUNC)                     
417   13041808                  QLNOR07 (OUNC)                     
417   13042823                  QLNOR14 (OUNC)                     
418   13041803                  QLNOR07 (OUNC)                     
418   13042844                  QLNOR25 (OUNC)                     
419   13041810                  QLNOR07 (OUNC)                     
419   13042875                  QLNOR15 (OUNC)                     
420   13041816                  QLNOR07 (OUNC)                     
420   13042848                  QLNOR14 (OUNC)                     
421   13041806                  QLNOR08 (OUNC)                     
421   13042856                  QLNOR14 (OUNC)                     
422   13041804                  QLNOR11 (OUNC)                     
422   13042854                  QLNOR17 (OUNC)                     
423   13041826                  QLNOR15 (OUNC)                     
423   13042867                  QLNOR17 (OUNC)                     
424   13041820                  QLNOR14 (OUNC)                     
424   13042866                  QLNOR23 (OUNC)                     
425   13041815                  QLNOR16 (OUNC)                     
425   13042887                  QLNOR06 (OUNC)                     
426   13041817                  QLNOR17 (OUNC)                     
426   13042868                  QLNOR06 (OUNC)                     
427   13041823                  QLNOR17 (OUNC)                     
427   13042883                  QLNOR07 (OUNC)                     
428   13041814                  QLNOR17 (OUNC)                     
428   13042897                  QLNOR07 (OUNC)                     
429   13041807                  QLNOR17 (OUNC)                     
429   13042913                  QLNOR23 (OUNC)                     
430   13041819                  QLNOR25 (OUNC)                     
430   13042908                  QLNOR23 (OUNC)                     
431   13041801                  QLNOR02 (OUNC)                     
431   13042917                  QLNOR05 (OUNC)                     
432   13041840                  QLNOR23 (OUNC)                     
432   13042881                  QLNOR15 (OUNC)                     
433   13041837                  QLNOR15 (OUNC)                     
433   13042873                  QLNOR14 (OUNC)                     
434   13041841                  QLNOR17 (OUNC)                     
434   13042858                  QLNOR17 (OUNC)                     
435   13041857                  QLNOR17 (OUNC)                     
435   13042914                  QLNOR01 (OUNC)                     
436   13041870                  QLNOR28 (OUNC)                     
436   13042898                  QLNOR23 (OUNC)                     
437   13041869                  QLNOR15 (OUNC)                     
437   13042903                  QLNOR23 (OUNC)                     
438   13041887                  QLNOR17 (OUNC)                     
438   13042894                  QLNOR23 (OUNC)                     
439   13041849                  QLNOR17 (OUNC)                     
439   13042916                  QLNOR07 (OUNC)                     
440   13041890                  QLNOR17 (OUNC)                     
440   13042910                  QLNOR28 (OUNC)                     
441   13041852                  QLNOR14 (OUNC)                     
441   13042870                  QLNOR17 (OUNC)                     
442   13041888                  QLNOR22 (OUNC)                     
442   13042929                  QLNOR14 (OUNC)                     
443   13042960                  QLNOR15 (OUNC)                     
444   13042956                  QLNOR17 (OUNC)                     
445   13042958                  QLNOR17 (OUNC)                     
446   13042957                  QLNOR26 (OUNC)                     
447   13042955                  QLNOR26 (OUNC)                     
448   13042953                  QLNOR13 (OUNC)                     
449   13042942                  QLNOR14 (OUNC)                     
450   13042940                  QLNOR16 (OUNC)                     
451   13042938                  QLNOR16 (OUNC)                     
452   13042937                  QLNOR16 (OUNC)                     
453   13042935                  QLNOR11 (OUNC)                     
454   13042972                  QLNOR23 (OUNC)                     
455   13042926                  QLNOR07 (OUNC)                     
456   13042927                  QLNOR17 (OUNC)                     
457   13042971                  QLNOR23 (OUNC)                     
458   13042974                  QLNOR17 (OUNC)                     
459   13042978                  QLNOR17 (OUNC)                     
460   13042980                  QLNOR17 (OUNC)                     

Total Items Sent: 971
