
UQSTSO 00001A USAS 03/29/10 05:02:57 A00860001-00A NORM UPDT GRID

Ticket : A00860001 Date: 03/27/10 Time: 13:33 Oper: LPBE Chan: WEB
Old Tkt: A00360358 Date: 02/05/10 Time: 11:06 Oper: ADS Revision: 00A
State: CA County: LOS ANGELES          Place: LOS ANGELES
Locat: W/BOUND (PROPERTY LINE TO #1LANE/CENTERLINE) EXPOSITION BLVD (N/MOST)
     : FROM S VERMONT AVE TO RAYMOND AVE
Address: EXPOSITION BLVD
X/ST 1 : S VERMONT AVE
X/ST 2 : RAYMOND AVE
Grids: 0673J014     0674A0134                               Delineated: Y
Lat/Long  : 34.018824/-118.298185 34.018785/-118.291060
          : 34.018001/-118.298189 34.017961/-118.291064
Caller GPS:

Boring: Y  Explosives: N  Vacuum: N

Re-Mark: N

Work : INSTALL TRAFFIC SIGNAL CONDUIT
Work date: 03/27/10 Time: 13:33 Hrs notc: 000 Work hrs: 000 Priority: 2
Instruct : WORK CONTINUING        Permit   : NOT REQUIRED
Done for : C/OF LOS ANGELES

Company: LINCOLN PACIFIC BUILDERS       Caller: DAVE MOLINO
Address: 4501 LITTLE JOHN ST
City&St: BALDWIN PARK, CA               Zip: 91706      Fax: 626-960-7739
Phone: 626-960-7738 Ext:      Call back: 7AM - 3:30PM
Formn: MIGUEL PENA          Phone: 818-683-3104

                                  COMMENTS

REF EXP TICKET A000360358, UPDATE ONLY-WORK CONT PER D MOLINO--[LPBE 03/27/10
13:33]

Mbrs : ATTD22LAS     CITYLA LAWP3  SCG3Z2 USCTEL UTWCLA2
