{
 "ticket": {
  "con_name": "PUPS",
  "con_city": "COLUMBIA",
  "parse_errors": "",
  "serial_number": "",
  "legal_good_thru": "",
  "priority": "",
  "active": true,
  "recv_manager_id": 10431,
  "work_address_street": "WINDY HOLLOW DR",
  "legal_date": "",
  "work_state": "SC",
  "ticket_id": "1013",
  "work_cross": "EAGLEVIEW DR",
  "call_date": "7/22/2010 10:46:11 AM",
  "work_description": "TESTING FOR V3 THIS IS ONLY A TEST DO NOT MARK TESTING  \nONLY//  IF YOU CAN NOT READ ANY PART OF THIS TICKETE PLEASE GIVE ME A CALL OR \nEMAIL ME // THANKS RHONDA  ** rdotman@sc1pups.org (800) 290-2783 press 1",
  "parent_ticket_id": 0,
  "do_not_route_until": "",
  "revision": "",
  "operator": "",
  "con_state": "SC",
  "caller_email": "",
  "work_subdivision": "",
  "status": "",
  "work_remarks": "TESTING FOR V3 THIS IS ONLY A TEST DO NOT MARK TESTING  \nONLY//  IF YOU CAN NOT READ ANY PART OF THIS TICKETE PLEASE GIVE ME A CALL OR \nEMAIL ME // THANKS RHONDA  ** rdotman@sc1pups.org (800) 290-2783 press 1",
  "route_area_id": 0,
  "work_extent": "",
  "modified_date": "9/6/2013 5:26:23 PM",
  "do_not_respond_before": "",
  "explosives": "",
  "work_priority_id": 0,
  "image": "ZZQ06 9 PUPS Email 07/22/2010 10:44:00 1007220016 Meet \n\nTicket Number: 1007220016\nOld Ticket Number: \nCreated By: DBL\nSeq Number: 9\n\nCreated Date: 07/22/2010 10:46:11\nWork Date/Time: 07/27/2010 10:45:09\nUpdate: 08/13/2010 10:45:09 Good Through: 08/18/2010 10:45:09\n\nExcavation Information:\nState: SC     County: LEXINGTON\nPlace: LEXINGTON\nAddress Number: \nStreet: WINDY HOLLOW DR\nInters St: EAGLEVIEW DR\nSubd: MANCHESTER PARK\n\nType of Work: DRAINAGE WORK\nDuration: 1 DAY\n\nBoring/Drilling: N\nBlasting: N\nWhite Lined: N\nNear Railroad: N\n\n\nWork Done By: MCEC &/OR CONTRACTOR\n\nRemarks/Instructions: TESTING FOR V3 THIS IS ONLY A TEST DO NOT MARK TESTING  \nONLY//  IF YOU CAN NOT READ ANY PART OF THIS TICKETE PLEASE GIVE ME A CALL OR \nEMAIL ME // THANKS RHONDA  ** rdotman@sc1pups.org (800) 290-2783 press 1      \n\n\nCaller Information: \nName: RHONDA DOTMAN                         PUPS                                  \nAddress: 810 DUTCH SQUARE BLVD SUITE 320\nCity: COLUMBIA State: SC Zip: 29210\nPhone: (803) 939-1117 Ext: 2 Type: Mobile\nFax:  Caller Email: \n\nContact Information:\nContact: RHONDA DOTMAN Email: rdotman@hotmail.com\nCall Back:  Fax: \n\nGrids: \nLat/Long: 33.9358060413837, -81.1963505315545\nSecondary: 33.9279215898316, -81.1891310337478\nLat/Long Caller Supplied: N\n\nMembers Involved: JMW83 MID55 SCGZ05 TWCZ40 WINZ08                            \n\n\nMap Link: (NEEDS DEVELOPMENT)\n\nMembers are to contact caller to schedule day and time to meet and locate lines.\n\n\n",
  "respond_date": "",
  "map_ref": "",
  "caller_fax": "",
  "work_county": "LEXINGTON",
  "caller_phone": "(803) 939-1117",
  "caller_contact": "",
  "caller": "RHONDA DOTMAN",
  "ticket_type": "Meet",
  "update_of": "",
  "source": "1421",
  "map_page": "3356D8111A",
  "work_address_number_2": "",
  "work_address_number": "",
  "caller_altcontact": "",
  "parsed_ok": true,
  "caller_altphone": "",
  "con_zip": "29210",
  "caller_cellular": "",
  "duration": "",
  "channel": "",
  "company": "MCEC &/OR CONTRACTOR",
  "ticket_format": "1421",
  "do_not_mark_before": "",
  "con_address": "810 DUTCH SQUARE BLVD SUITE 320",
  "ticket_version": [
   {
    "serial_number": "",
    "ticket_id": 1013,
    "arrival_date": "9/6/2013 5:19:37 PM",
    "filename": "TEST-2010-07-22-00021.txt",
    "ticket_type": "Meet",
    "source": "1421",
    "processed_date": "9/6/2013 5:19:39 PM",
    "ticket_version_id": "8013",
    "ticket_revision": "",
    "ticket_format": "1421",
    "ticket_number": "1007220016",
    "transmit_date": "7/22/2010 10:44:00 AM"
   }],
  "legal_due_date": "7/27/2010 11:59:59 PM",
  "route_area_name": "",
  "locate": [
   {
    "client_id": 3940,
    "entry_date": "",
    "active": true,
    "overtime_hours": "",
    "closed_by_id": 0,
    "ticket_id": 1013,
    "invoiced": false,
    "client_name": "Time Warner (TWCZ40)",
    "client_code": "TWCZ40",
    "qty_marked": 0,
    "status": "-R",
    "assigned_to_id": 10432,
    "status_changed_by_id": 0,
    "modified_date": "9/6/2013 5:26:23 PM",
    "gps_id": 0,
    "locator_id": 10432,
    "locate_id": "20058",
    "seq_number": "",
    "assigned_to": 10432,
    "regular_hours": "",
    "closed_date": "",
    "added_by": "PARSER",
    "require_locate_units": false,
    "closed_how": "",
    "mark_type": "",
    "length_total": 0,
    "closed": false,
    "watch_and_protect": false,
    "high_profile_reason": 0,
    "high_profile": false,
    "alert": "",
    "price": 0
   }],
  "followup_type_id": 0,
  "ward": "",
  "kind": "NORMAL",
  "ticket_number": "1007220016",
  "watch_and_protect": false,
  "work_lat": "33.935806",
  "work_type": "DRAINAGE WORK",
  "work_notc": "",
  "work_long": "-81.19635",
  "work_date": "7/27/2010 10:45:09 AM",
  "work_city": "LEXINGTON",
  "service_area_code": "",
  "legal_restake": "",
  "transmit_date": "7/22/2010 10:44:00 AM",
  "alert": "",
  "due_date": "7/27/2010 11:59:59 PM",
  "con_type": ""
 }
}