{
 "ticket": {
  "con_name": "PUPS",
  "con_city": "COLUMBIA",
  "parse_errors": "",
  "serial_number": "",
  "legal_good_thru": "",
  "priority": "",
  "active": true,
  "recv_manager_id": 10431,
  "work_address_street": "GOVERNORS GRANT BLVD",
  "legal_date": "",
  "work_state": "SC",
  "ticket_id": "1015",
  "work_cross": "POINDEXTER LN",
  "call_date": "7/22/2010 10:49:34 AM",
  "work_description": "TESTING FOR V3 THIS IS ONLY A TEST DO NOT MARK TESTING  \nONLY//  IF YOU CAN NOT READ ANY PART OF THIS TICKETE PLEASE GIVE ME A CALL OR \nEMAIL ME // THANKS RHONDA  ** rdotman@sc1pups.org (800) 290-2783 press 1",
  "parent_ticket_id": 0,
  "do_not_route_until": "",
  "revision": "",
  "operator": "",
  "con_state": "SC",
  "caller_email": "",
  "work_subdivision": "",
  "status": "",
  "work_remarks": "TESTING FOR V3 THIS IS ONLY A TEST DO NOT MARK TESTING  \nONLY//  IF YOU CAN NOT READ ANY PART OF THIS TICKETE PLEASE GIVE ME A CALL OR \nEMAIL ME // THANKS RHONDA  ** rdotman@sc1pups.org (800) 290-2783 press 1",
  "route_area_id": 0,
  "work_extent": "",
  "modified_date": "9/6/2013 5:26:12 PM",
  "do_not_respond_before": "",
  "explosives": "",
  "work_priority_id": 0,
  "image": "ZZQ06 11 PUPS Voice 07/22/2010 10:48:00 1007220018 Emergency \n\nTicket Number: 1007220018\nOld Ticket Number: \nCreated By: DBL\nSeq Number: 11\n\nCreated Date: 07/22/2010 10:49:34\nWork Date/Time: 07/22/2010 11:00:37\nUpdate: 08/10/2010 11:00:37 Good Through: 08/13/2010 11:00:37\n\nExcavation Information:\nState: SC     County: LEXINGTON\nPlace: LEXINGTON\nAddress Number: \nStreet: GOVERNORS GRANT BLVD\nInters St: POINDEXTER LN\nSubd: GOVERNORS GRANT\n\nType of Work: GRADING & ASPHALT PAVING\nDuration: A COUPLE HOURS\n\nBoring/Drilling: N\nBlasting: N\nWhite Lined: Y\nNear Railroad: N\n\n\nWork Done By: SCE&G GAS DEPT\n\nRemarks/Instructions: TESTING FOR V3 THIS IS ONLY A TEST DO NOT MARK TESTING  \nONLY//  IF YOU CAN NOT READ ANY PART OF THIS TICKETE PLEASE GIVE ME A CALL OR \nEMAIL ME // THANKS RHONDA  ** rdotman@sc1pups.org (800) 290-2783 press 1      \n\n\nCaller Information: \nName: RHONDA DOTMAN                         PUPS                                  \nAddress: 810 DUTCH SQUARE BLVD SUITE 320\nCity: COLUMBIA State: SC Zip: 29210\nPhone: (803) 939-1117 Ext: 2 Type: Mobile\nFax:  Caller Email: \n\nContact Information:\nContact: RHONDA DOTMAN Email: rdotman@hotmail.com\nCall Back:  Fax: \n\nGrids: \nLat/Long: 34.0224830113, -81.2786172838609\nSecondary: 0, 0\nLat/Long Caller Supplied: N\n\nMembers Involved: JMW83 SCEDZ05 SCGZ05 TWCZ40 WINZ08                          \n\n\nMap Link: (NEEDS DEVELOPMENT)\n\n\n",
  "respond_date": "",
  "map_ref": "",
  "caller_fax": "",
  "work_county": "LEXINGTON",
  "caller_phone": "(803) 939-1117",
  "caller_contact": "",
  "caller": "RHONDA DOTMAN",
  "ticket_type": "Emergency",
  "update_of": "",
  "source": "1421",
  "map_page": "3401C8116B",
  "work_address_number_2": "",
  "work_address_number": "",
  "caller_altcontact": "",
  "parsed_ok": true,
  "caller_altphone": "",
  "con_zip": "29210",
  "caller_cellular": "",
  "duration": "",
  "channel": "",
  "company": "SCE&G GAS DEPT",
  "ticket_format": "1421",
  "do_not_mark_before": "",
  "con_address": "810 DUTCH SQUARE BLVD SUITE 320",
  "ticket_version": [
   {
    "serial_number": "",
    "ticket_id": 1015,
    "arrival_date": "9/6/2013 5:19:37 PM",
    "filename": "TEST-2010-07-22-00023.txt",
    "ticket_type": "Emergency",
    "source": "1421",
    "processed_date": "9/6/2013 5:19:39 PM",
    "ticket_version_id": "8015",
    "ticket_revision": "",
    "ticket_format": "1421",
    "ticket_number": "1007220018",
    "transmit_date": "7/22/2010 10:48:00 AM"
   }],
  "legal_due_date": "7/22/2010 12:48:00 PM",
  "route_area_name": "",
  "locate": [
   {
    "client_id": 3940,
    "entry_date": "",
    "active": true,
    "overtime_hours": "",
    "closed_by_id": 0,
    "ticket_id": 1015,
    "invoiced": false,
    "client_name": "Time Warner (TWCZ40)",
    "client_code": "TWCZ40",
    "qty_marked": 0,
    "status": "-R",
    "assigned_to_id": 10432,
    "status_changed_by_id": 0,
    "modified_date": "9/6/2013 5:26:12 PM",
    "gps_id": 0,
    "locator_id": 10432,
    "locate_id": "20064",
    "seq_number": "",
    "assigned_to": 10432,
    "regular_hours": "",
    "closed_date": "",
    "added_by": "PARSER",
    "require_locate_units": false,
    "closed_how": "",
    "mark_type": "",
    "length_total": 0,
    "closed": false,
    "watch_and_protect": false,
    "high_profile_reason": 0,
    "high_profile": false,
    "alert": "",
    "price": 0
   }],
  "followup_type_id": 0,
  "ward": "",
  "kind": "EMERGENCY",
  "ticket_number": "1007220018",
  "watch_and_protect": false,
  "work_lat": "34.022483",
  "work_type": "GRADING & ASPHALT PAVING",
  "work_notc": "",
  "work_long": "-81.278617",
  "work_date": "7/22/2010 11:00:37 AM",
  "work_city": "LEXINGTON",
  "service_area_code": "",
  "legal_restake": "",
  "transmit_date": "7/22/2010 10:48:00 AM",
  "alert": "",
  "due_date": "7/22/2010 12:48:00 PM",
  "con_type": ""
 }
}