{
 "ticket": {
  "con_name": "PUPS",
  "con_city": "COLUMBIA",
  "parse_errors": "",
  "serial_number": "",
  "legal_good_thru": "",
  "priority": "",
  "active": true,
  "recv_manager_id": 10431,
  "work_address_street": "BARTRAM ST",
  "legal_date": "",
  "work_state": "SC",
  "ticket_id": "1022",
  "work_cross": "BARTRAM WAY",
  "call_date": "7/22/2010 10:59:42 AM",
  "work_description": "TESTING FOR V3 THIS IS ONLY A TEST DO NOT MARK TESTING  \nONLY//  IF YOU CAN NOT READ ANY PART OF THIS TICKETE PLEASE GIVE ME A CALL OR \nEMAIL ME // THANKS RHONDA  ** rdotman@sc1pups.org (800) 290-2783 press 1",
  "parent_ticket_id": 0,
  "do_not_route_until": "",
  "revision": "",
  "operator": "",
  "con_state": "SC",
  "caller_email": "",
  "work_subdivision": "",
  "status": "",
  "work_remarks": "TESTING FOR V3 THIS IS ONLY A TEST DO NOT MARK TESTING  \nONLY//  IF YOU CAN NOT READ ANY PART OF THIS TICKETE PLEASE GIVE ME A CALL OR \nEMAIL ME // THANKS RHONDA  ** rdotman@sc1pups.org (800) 290-2783 press 1",
  "route_area_id": 0,
  "work_extent": "",
  "modified_date": "9/6/2013 5:26:24 PM",
  "do_not_respond_before": "",
  "explosives": "",
  "work_priority_id": 0,
  "image": "ZZQ06 18 PUPS Email 07/22/2010 10:58:00 1007220026 Meet \n\nTicket Number: 1007220026\nOld Ticket Number: \nCreated By: DBL\nSeq Number: 18\n\nCreated Date: 07/22/2010 10:59:42\nWork Date/Time: 07/27/2010 11:00:05\nUpdate: 08/13/2010 11:00:05 Good Through: 08/18/2010 11:00:05\n\nExcavation Information:\nState: SC     County: LEXINGTON\nPlace: LEXINGTON\nAddress Number: \nStreet: BARTRAM ST\nInters St: BARTRAM WAY\nSubd: WELLESLEY \n\nType of Work: FENCE, CLEAN ROW\nDuration: 15 DAYS\n\nBoring/Drilling: Y\nBlasting: N\nWhite Lined: N\nNear Railroad: N\n\n\nWork Done By: FOREMOST PIPELINE\n\nRemarks/Instructions: TESTING FOR V3 THIS IS ONLY A TEST DO NOT MARK TESTING  \nONLY//  IF YOU CAN NOT READ ANY PART OF THIS TICKETE PLEASE GIVE ME A CALL OR \nEMAIL ME // THANKS RHONDA  ** rdotman@sc1pups.org (800) 290-2783 press 1      \n\n\nCaller Information: \nName: RHONDA DOTMAN                         PUPS                                  \nAddress: 810 DUTCH SQUARE BLVD SUITE 320\nCity: COLUMBIA State: SC Zip: 29210\nPhone: (803) 939-1117 Ext: 2 Type: Mobile\nFax:  Caller Email: \n\nContact Information:\nContact: RHONDA DOTMAN Email: rdotman@hotmail.com\nCall Back:  Fax: \n\nGrids: \nLat/Long: 34.0106159940134, -81.1802796479352\nSecondary: 33.9981078513693, -81.1666704363963\nLat/Long Caller Supplied: N\n\nMembers Involved: MID55 PBT43 SCEDZ05 SCEJZ40 SCGZ05 TLX24 TWCZ40 WINZ08      \n\n\nMap Link: (NEEDS DEVELOPMENT)\n\nMembers are to contact caller to schedule day and time to meet and locate lines.\n\n\n",
  "respond_date": "",
  "map_ref": "",
  "caller_fax": "",
  "work_county": "LEXINGTON",
  "caller_phone": "(803) 939-1117",
  "caller_contact": "",
  "caller": "RHONDA DOTMAN",
  "ticket_type": "Meet",
  "update_of": "",
  "source": "1421",
  "map_page": "3400B8110A",
  "work_address_number_2": "",
  "work_address_number": "",
  "caller_altcontact": "",
  "parsed_ok": true,
  "caller_altphone": "",
  "con_zip": "29210",
  "caller_cellular": "",
  "duration": "",
  "channel": "",
  "company": "FOREMOST PIPELINE",
  "ticket_format": "1421",
  "do_not_mark_before": "",
  "con_address": "810 DUTCH SQUARE BLVD SUITE 320",
  "ticket_version": [
   {
    "serial_number": "",
    "ticket_id": 1022,
    "arrival_date": "9/6/2013 5:19:37 PM",
    "filename": "TEST-2010-07-22-00030.txt",
    "ticket_type": "Meet",
    "source": "1421",
    "processed_date": "9/6/2013 5:19:40 PM",
    "ticket_version_id": "8022",
    "ticket_revision": "",
    "ticket_format": "1421",
    "ticket_number": "1007220026",
    "transmit_date": "7/22/2010 10:58:00 AM"
   }],
  "legal_due_date": "7/27/2010 11:59:59 PM",
  "route_area_name": "",
  "locate": [
   {
    "client_id": 3940,
    "entry_date": "",
    "active": true,
    "overtime_hours": "",
    "closed_by_id": 0,
    "ticket_id": 1022,
    "invoiced": false,
    "client_name": "Time Warner (TWCZ40)",
    "client_code": "TWCZ40",
    "qty_marked": 0,
    "status": "-R",
    "assigned_to_id": 10432,
    "status_changed_by_id": 0,
    "modified_date": "9/6/2013 5:26:24 PM",
    "gps_id": 0,
    "locator_id": 10432,
    "locate_id": "20120",
    "seq_number": "",
    "assigned_to": 10432,
    "regular_hours": "",
    "closed_date": "",
    "added_by": "PARSER",
    "require_locate_units": false,
    "closed_how": "",
    "mark_type": "",
    "length_total": 0,
    "closed": false,
    "watch_and_protect": false,
    "high_profile_reason": 0,
    "high_profile": false,
    "alert": "",
    "price": 0
   }],
  "followup_type_id": 0,
  "ward": "",
  "kind": "NORMAL",
  "ticket_number": "1007220026",
  "watch_and_protect": false,
  "work_lat": "34.010615",
  "work_type": "FENCE, CLEAN ROW",
  "work_notc": "",
  "work_long": "-81.180279",
  "work_date": "7/27/2010 11:00:05 AM",
  "work_city": "LEXINGTON",
  "service_area_code": "",
  "legal_restake": "",
  "transmit_date": "7/22/2010 10:58:00 AM",
  "alert": "",
  "due_date": "7/27/2010 11:59:59 PM",
  "con_type": ""
 }
}